{
  "comments": [
    {
      "threadId": "914958146",
      "post": "Have you seen `dscape/frameless` or flatiron? We use it internally at nodejitsu. JJ also did https://github.com/chjj/blessed Check it out",
      "time": "2013-08-10T00:11:07",
      "id": "995138880"
    },
    {
      "threadId": "1508520876",
      "post": "As an open source developer that wrote many lines of code you needed to make this application work, this saddens me. It is an awesome feeling when people create awesome products with code you (and your closest friends) built. \n\nMaybe it helps contextualize that the same people you were criticizing built/enabled a very significant part of the open source projects you considered awesome. Don't need to thank anyone, it's liberally licensed you can just use it. But why say in a blog post that these people and their efforts, suck. \n\n\nBut if you do decide to criticize, at least say why and help people be better. Don't be dismissive.\nAnd remember, you might be praising a person in a paragraph and criticizing in the next. They might be one and the same.",
      "time": "2013-07-20T00:54:56",
      "id": "969767686"
    },
    {
      "threadId": "472087825",
      "post": "Check PouchDB https://github.com/daleharvey/pouchdb",
      "time": "2013-01-31T04:10:39",
      "id": "784112478",
      "parentPost": "This is a Great Idea !!  I was doing my research and needed something which had capabilites to take my app offline and also sync with a central DB seamlessly.   After looking around, CouchDB is  a great choice.  As for Erlang, Doesnt couchDB have a Javascript version?",
      "parentPostTime": "2013-01-31T03:38:57",
      "parentPostId": "784081271"
    },
    {
      "threadId": "391460249",
      "post": "Whoah! That is shocking. In node pair number releases are stable (0.2, 0.4, 0.6, 0.8, 0.10) and 0.5 is unstable.\n\nNo idea what the guys at canonical where thinking there, but this is hardly a nano bug then.",
      "time": "2013-01-06T11:43:56",
      "id": "757711394",
      "parentPost": "Oh, perfect! Thanks. It was v0.5.11, which I guess is the default when one installs node.js on ubuntu 12.04. I went to the node.js site and installed v0.8.16 from the site. It works now. ",
      "parentPostTime": "2013-01-05T22:35:06",
      "parentPostId": "757170794"
    },
    {
      "threadId": "688940313",
      "post": "Makes sense, but you will need to task the user to reauthenticate when cookie expires :)",
      "time": "2012-06-28T00:09:05",
      "id": "569436506",
      "parentPost": " Hmm...I'm sorry if this is an ignorant question, but if I were to use basic auth for each of my users, how would I maintain session state? If Bart Simpson comes to my site and logs in with his username and password, how do I know on subsequent requests that he is still logged in, and he is still Bart Simpson?",
      "parentPostTime": "2012-06-27T03:50:13",
      "parentPostId": "568380582"
    },
    {
      "threadId": "511833692",
      "post": "You do realize this is not a paper, but just some work i did with a little rigor.\n\nI'm no researcher, neither aspire to be :)\n\nThis was just so easy I did it anyway.",
      "time": "2012-06-02T08:39:45",
      "id": "545596994",
      "parentPost": "ANOVA is a bit of overkill for this one-dimensional data, no? Also, line charts!?",
      "parentPostTime": "2012-06-02T05:01:32",
      "parentPostId": "545521402"
    },
    {
      "threadId": "689558705",
      "post": "Thanks Sean. Really appreciate your comment.\n\nI used to work at Hawthorn in IBM btw, have some friends in Poughkeepsie :)",
      "time": "2012-05-15T08:25:06",
      "id": "529135751",
      "parentPost": "This looks like it would have been a great talk to be at. I really love the idea of open source as street art, having some of the same qualities of being constructive, community driven, and disruptive all at the same time.",
      "parentPostTime": "2012-05-15T00:49:26",
      "parentPostId": "528944565"
    },
    {
      "threadId": "627229792",
      "post": "Have you ever used Knockoutjs?\n\nYour comment makes me think the answer is no.\n\nWould be great to have the functionality KOJS offers (read data binding) in a project that works with plates though. That I know that doesn't exist.",
      "time": "2012-03-29T18:36:09",
      "id": "479738574",
      "parentPost": "plates looks like a poor mans knockoutjs.... ",
      "parentPostTime": "2012-03-29T10:31:42",
      "parentPostId": "479396281"
    },
    {
      "threadId": "551043337",
      "post": "John, great simple post on the topic. Doesn't cover MVCC but does cover LSMT. http://www.readability.com/articles/cy5s83cg\n\nThis technique is what enables search engines. That's why database and search guys tend to get pissed when you say MVCC and slow in the same sentence. People will always go WAT? Unless you work for 10gen, I've seen this moto in their slides. However having talked to them on occasion they always admitted MVCC was in the roadmap.",
      "time": "2012-02-06T20:25:01",
      "id": "431101597",
      "parentPost": "To clarify: I think HTTP APIs are a necessity now a days and i would create them for any app. But if I built a database it would probably have the HTTP API as a good to have, not essential. I think it is accepted that you should build your database as the platform for vendor independence and not rely in empty promisses like JDBC for platform independence. \n\nBut reading your comment - the problem is not the HTTP API for serving the app (as I expected) but the lack of enterprise support for administration tooling in CouchDB. Not surprised. Maybe you should at least look at closed source alternatives, there's a reason why they cost money.\n\nAs for the MVCC you are still wrong. I can write a in-memory MVCC implementation with auto compaction. Resource utilization means your database using stuff Mem, CPU, Disk or Network. They kind of always do that anyway. So it's always a tradeoff, it's about the architecture. MVCC is a performance hack just don't forget that. However the objectives of Couch architecture and implementation of MVCC are not focused on speed but in replication. This yes, is the key point that hurts you. One of them, I'm not a database engineer for Couch so..\n\nGood luck with Mongo, seriously :) I hope you guys solve your problems but the lack of context and knowledge people have with databases, mixed with the fact that people sell them buzzwords they can't really grasp unless they get serious experience in the field is a problem. I would advise you to do a POC with different vendors and compare results. Maybe give them all the same box, data, and objectives in terms of performance, a other non functional requirements. That does not solve the fact that you can still get burned in the long run but if done at the right scale it can at least preclude things that you found here later on,\n\n",
      "parentPostTime": "2012-02-02T20:53:36",
      "parentPostId": "428039363"
    },
    {
      "threadId": "462251656",
      "post": "To get an invite just go to #nodejitsu @ freenode :)",
      "time": "2011-12-12T14:56:29",
      "id": "384786623"
    },
    {
      "threadId": "489965938",
      "post": "Two obvious things:\n\n1. In Mock request you need to mock request. In Nock you can just simply use request. Ask Pedro about the black magic details\n2. Nock allows you to record http calls, which helps not having to write a bunch of code. I didn't see that in Mock Request\n\nIn all fairness I never used it so it's likely that there are features there that also don't exist in Nock\n\nNuno",
      "time": "2011-12-04T07:05:45",
      "id": "378819644",
      "parentPost": "Thanks for the article. It's rare to see real-world use of mocking for external services, and this shows it can be done effectively and elegantly. Any comments on how nock compares to https://github.com/nodejitsu/mock-request? Is there anything out there for mocking TCP requests?",
      "parentPostTime": "2011-12-04T05:57:10",
      "parentPostId": "378806766"
    },
    {
      "threadId": "432758807",
      "post": "I find it extremely hard to believe the ecosystem is near the dimension of ruby, java, or javascript.\n\nOne could argue this but if you do it probably means you just never tried ruby/java/javascript",
      "time": "2011-10-03T14:17:28",
      "id": "325557095",
      "parentPost": "Er, you program Haskell and you haven't heard of cabal? Somewhat unrelated, but few software ecosystems have anything as awesome as Hoogle.",
      "parentPostTime": "2011-10-03T12:25:56",
      "parentPostId": "325504353"
    },
    {
      "threadId": "419230558",
      "post": "Susanne I never tried OrientDB so I can't comment deeply on it. If you provide me a significant white-paper describing the architecture I would.\n\nSome notes after just browsing thru OrientDBs documentation:\n\n- OrientDB does not support pessimistic locking. By default it does no transactions. ACID claim seems a bit far fetch. That I know of you have two ways to preserve ACID. Pessimistic, or something base on short lived locks like voltdb does. Am I missing something here? :)\n- Couldn't find anything talking about full text search. In MarkLogic you have support you would expect from a state of the art enterprise search engine\n- Couldn't find anything about what it does to speed up inserts. How does it avoid the global lock situation like it happens in mongo?\n- Clustering seems to have a single point of failure with a replica by default. MarkLogic does shared nothing clustering meaning no single point of failure. As far as I could see clustering is just a way to maintain HA, there's nothing in the docs I could find about scaling horizontally.\n- Security is not baked into the index, so security doesn't help make your queries faster\n- Indexes are pretty much like mongo. So claims made here apply the same on OrientDB. MarkLogic offers both range indexes (in memory) and something like an extended inverted index that allows adhoc queries against unstructured data\n- OrientDB was written in java which is already a funny in regards to claiming Pb scale transactions. C++ can be a pain to write but you certainly have more flexibility, and at MarkLogic we use that flexibility.\n- The initial release was in 2010. MarkLogic has a group of top level engineers working on a product since 2003, having deployed in numerous customers, with huge deployments. Isn't saying orientdb supports \"everything plus\" a tad optimistic?\n- Can't see any notion of reverse queries or alerts.\n- No references to the geospatial queries\n- No way to transform your data on the way in\n- No ways to enrich documents\n- MarkLogic is not light weight, it's easy to use but easy duty. Scaling a PB of document with transactions is no easy task. It is a technical acomplisment on it's on and requires memory, disk and cpu. Our binaries are not 1mb for sure. I do understand this being a selling point for a embedded database, but then it couldn't do all marklogic can do.\n\n\nAfter looking at it it looks more like an alternative to neo4j than a document database to tell you the truth. Which makes sense on the not having horizontally scalable clusters, scaling a graph horizontally is real hard :)Please don't take them to heart. I obviously had 5 seconds to look at your docs and got some of that wrong. I was just trying to be helpful and explain why I said there's no real alternative to MarkLogic in the open source world. So feel free to tell me I'm wrong, I'm wrong often :)\n\nPS. Opinions are my own, not my employer (MarkLogic).",
      "time": "2011-09-20T19:44:00",
      "id": "316121537",
      "parentPost": "How does it compare to OrientDB? It seems that OrientDB can offer everything that Marklogic has, plus super-fast graph traversal.",
      "parentPostTime": "2011-09-20T19:21:54",
      "parentPostId": "316108790"
    },
    {
      "threadId": "387577564",
      "post": "Dude don't apologize. We thank you for taking your time and recording this, its awesome. I was going to use sammy and this made me at the very least look at backbone, so cool :) thanks",
      "time": "2011-08-26T17:14:33",
      "id": "296016459"
    },
    {
      "threadId": "329766884",
      "post": "In MarkLogic you don't need to define indexes btw :)",
      "time": "2011-06-19T13:10:27",
      "id": "229826831",
      "parentPost": "We've got a generic query syntax in Foswiki (http://foswiki.org/System/QuerySearch) which has prototype MongoDB and SQL implementations the (default is... actually regex, and the default serialisation format lends itself to being regex'able).\n\nThe MongoDB implementation has been largely successful, even though QuerySearch has a JOIN-esque ( '/' aka ref) operator for querying a topic via some property of another topic it links to (@SvenDowideit (ab)used Mongo's ability to run arbitrary JS programs to solve that).\n\nIronically, although it sells itself as being \"schemaless\", MongoDB actually needs a stable, finite schema so you can set indexes: it turns out you can't sort on any old attribute, it has to be indexed... which means they all need to be indexed! This sucks, because Foswiki allows the user to come up with whatever schemas they like (a special kind of topic/page), used (read: sorted) however they like, and the version used is whatever the current version was when a topic applying it was instantiated or modified. Multiple versions of of multiple schemas, some of which only have a few dozen instantiations, scatter across hundreds of thousands of topics makes for difficulty juggling indexes!\n\nSo I've been toying with the idea of one day playing with neo4j. I just hope we don't need a native perl driver (Foswiki is extremely chatty) :-)",
      "parentPostTime": "2011-06-18T22:59:36",
      "parentPostId": "229560124"
    },
    {
      "threadId": "311056162",
      "post": "I disagree it increases radability - if anything it decreases it (if you are not a ruby guy which one would you understand easier?)\n\nAnyway this post is from 2008, but thanks for the comment. Nice website, but you should check the colors on \"ricardo\". its too dark and not enough contrast.",
      "time": "2011-06-16T14:47:32",
      "id": "227332640",
      "parentPost": "hey Nuno, I liked this post.\nI got into Haskell quite recently and it's functional programming is ever so luring.\n\none small suggestion. you can do this, which increases readability slightly:\n  > [4,5,7].select {|i| i < 5 }.map(&:succ)",
      "parentPostTime": "2011-06-16T14:02:48",
      "parentPostId": "227307777"
    },
    {
      "threadId": "329086301",
      "post": "True as that may be it's still a very interesting article. It's common that the better suited technology is booed and then for some reason something just gets a lot of hype and is then king. \n\nI think it's not far-fetch to argue that erlang is a better fit than javascript for evented programming. If Ryan was a Erlang guru he would probably have built something like node in Erlang. And if he did he would probably have a lot less people using it.\n\nI'm fine with biased it's still good to see someone not just raving about a node.js and making a solid technological argument. I actually think we need to think of software and things we use more rationally and less with our hearts. And being exposed to opinions that differ from ours is a good thing.\n\n\nReading this might be a good start: http://papers.ssrn.com/sol3/papers.cfm?abstract_id=1698090",
      "time": "2011-06-14T00:09:53",
      "id": "225159435",
      "parentPost": "Can you possibly be anymore bias in this article? You talk about how natural erlang is and how hacky javascript/node is yet you provide absolutely no facts to back up these feelings of yours. Postings like this will only mislead and cause more confusion in an industry in dire need of clarity.",
      "parentPostTime": "2011-06-13T23:45:14",
      "parentPostId": "225132854"
    },
    {
      "threadId": "326228042",
      "post": "Check: \n- http://www.marklogic.com/videos/unstructured-information-in-government.html- http://www.marklogic.com/videos/customer-interview-jet-blue.html- http://www.marklogic.com/videos/customer-interview-pearson-education.htmlSorry for the lame music.",
      "time": "2011-06-09T10:02:58",
      "id": "222265090"
    },
    {
      "threadId": "428854376",
      "post": "Trade offs are exactly what define the products. However it takes maturity to assume what are the ones you are focusing on as assuming some of them will take business away from you. I hate focusing on CAP though. Yes, respect the problem. But the CAP overly simplifies the problem. And trade-offs are all but simple. And customers then think if you are in one side of the CAP you can't do X while for their requirements you probable can. Example people assume availability is hard. It is extremely hard for heavy use systems with PB of data. But for some if not most problems it's almost trivial to provide the level of availability a customer needs even with strong consistency and partition tolerance. Just not at the facebook scale.\n\nWe learned from the likes of IBM and Oracle that lying won't stick - but makes you a lot of money. In the future transparency and specialized solutions will have wide adoption (we have ourselves to thank for that) but I think just criticizing others cause things aren't perfect isn't correct too: You just did the same mistake by pointing that Basho will not lie (while others do) -- which is obviously a fallacy. I'm not bashing you for it, just saying you shouldn't be too critical. Being passionate is not a bad thing :)\n\nWe do live in a community that considers trolls to be superstars and lives based on hype - it's a fact wether you like it or not. But we, the database folks, have to unite and keep cool and focused on the task in hand: Remove the sucky-ness of database systems and get the data back to developers. Attacking each other (like the guys at mongo did when they said they there was only one nosql space and they were going to conquer it) makes us all look immature and affects us all negatively.\n\nGreat post by the way - got a good conversation started. Hope to see a lot of database peeps in open source bridge!",
      "time": "2011-05-12T22:10:46",
      "id": "202567652"
    },
    {
      "threadId": "157175318",
      "post": "Haskell!",
      "time": "2010-10-17T14:14:18",
      "id": "87601976"
    },
    {
      "threadId": "112413335",
      "post": "I'm glad it's not mockery - I now understand your intention. We are definitely not in the wrong foot (even though I'm a leftie by nature.. really! :D). As I said before I personally have a lot of respect for what you do in MyNoSQL.<br><br>Hope to meet you someday in a conference. I'll share the internals. I can even discuss how they compare to other NoSQL dbs I know, and the things I know are missing in all other NoSQL alternatives. I love talking about it anyway! :)<br><br>If your interested in knowing a little bit more right now: <br>  - <a href=\"http://developer.marklogic.com/blog/marklogic-beyond-nosql\" rel=\"nofollow\">http://developer.marklogic.com/blog/marklogic-b...</a><br>  - <a href=\"http://developer.marklogic.com/blog/marklogic-indexing-pt2\" rel=\"nofollow\">http://developer.marklogic.com/blog/marklogic-i...</a> ( unique in MarkLogic and damn cool )",
      "time": "2010-07-02T01:13:59",
      "id": "60224497",
      "parentPost": "Dave, Nuno,\n\nFirstly, thanks for taking the time to comment. I'll try to address all your points below:\n\n> 1. Kellogg has two Gs.\n\nMy apologies. Fixed now.\n\n> 2. MarkLogic is a NoSQL system, definitionally.\n\nBased on the current (lack of) definition it is. On the other hand, it doesn't seem to be associated with the NoSQL ecosystem.\n\n> 3. Orthogonal means independent. That is, there specialized DBMSs that are NoSQL based as well as specialized SQL-based systems (e.g., Volt, Aster)\n\nAll I'm saying is that NoSQL is synonymous to specialization.\n\n\n> 4. I am not convinced that you must have a proprietary interface to be specialized. Unless, of course, the specialization is about the interface which in some NoSQL systems, I'd say it is.\n\nI agree. For some NoSQL systems the proprietary interface is a sign of their recency and specialization. The advantage of those NoSQL that are open source is that you basically have the possibility to go in and add your own interface (standard or not) or at least help them improve over time.\n\n \n> 5. I can't actually see how you think some of my points self-contradict so I suspect it means there is some mis-communication at work.\n\nMost probably it is about communication. Main point is that I don't see how a system that is specialized can also be a solution that is good for everything (\"best-of-both-worlds\").\n\n> But your blog post title is not a quote from that website that makes the whole thing look like mockery.\n\nNo, it's not a mockery. A title that would disagree would be: MarkLogic is NoSQL... is it? (or even really?). So, I hope we didn't start on the wrong foot as my intention was to discuss some points in those posts and also emphasize  that no matter what we do it is the end-user that counts.\n\n> It's easy to take the route of thinking everything is marketing and not verifying everything thoroughly.\n\nYou are right. But I usually don't take that route and I have tried to check all points. The fact that I didn't find enough information is a different story.\n",
      "parentPostTime": "2010-07-01T11:13:39",
      "parentPostId": "60120890"
    },
    {
      "threadId": "65389716",
      "post": "Implemented your suggestion at http://bit.ly/90Lqeu",
      "time": "2010-04-21T20:28:29",
      "id": "45867962"
    },
    {
      "threadId": "84939273",
      "post": "Awesome article - thanks for sharing.\n\nPersonally I had functional languages and Haskell while in the university and it still changes the way my world goes around. Mostly it annoys me that other languages aren't that good. \n\nHowever Ruby is a better compromise when you need io, scripting etc. Those things are normally declarative and look really bad in haskell.",
      "time": "2010-04-11T00:37:03",
      "id": "44267740"
    },
    {
      "threadId": "10555921",
      "post": "eu tbem bloquei :) Curiosamente tbem e' a unica personagem que ta bloqueada",
      "time": "2009-01-26T18:25:23",
      "id": "5552688"
    },
    {
      "threadId": "9520040",
      "post": "Armando Alves, o David Beckham do alt.prt.sc. Sempre com um novo look.\r\n\r\nJa agora a cena que eu propus dos shares de twitts para substituir os RT faz mt mais sentido que a cena que esse gajo sugeriu!\r\n\r\nJa agora a minha previsao e' que o benfica vai ganhar a taca uefa.. Vai ser desta. *giggle*\r\n\r\nPara ver tv podes usar a caixa do roku (linux based btw) netflix/amazon on demand. eu tenho uma e funciona impecavel aki nos us. :P acho que vao adicionar a hulu. e' mt bom aquilo, todos os filmes e series disponiveis numa caixinha wireless por 9 dollars por mes :)",
      "time": "2009-01-08T07:28:00",
      "id": "4983779"
    },
    {
      "threadId": "9420258",
      "post": "Is this still on despite of the storm? :\\\r\n\r\nI don't think ill be traveling to Brooklyn today. Sorry.\r\n:(",
      "time": "2009-01-07T15:46:26",
      "id": "4960605"
    },
    {
      "threadId": "8215132",
      "post": "Seeing your examples made me remember Haskell. It's incredible that ruby developers seek out on these methods to do stuff so alike functional. Maybe a complete data.list port to ruby would be in order.\r\n\r\nBTW  you can check the cool haskell functions here http://www.haskell.org/ghc/docs/latest/html/libraries/base/Data-List.html",
      "time": "2008-12-11T07:51:14",
      "id": "4324890"
    },
    {
      "threadId": "7705529",
      "post": "Epa vd  interromper o video enquanto faco comment  é inaceitavel :P",
      "time": "2008-11-29T20:14:43",
      "id": "4063588"
    },
    {
      "threadId": "4576639",
      "post": "Boa sorte alcides :) Boa viagem",
      "time": "2008-09-17T16:09:32",
      "id": "2399670"
    }
  ],
  "profileInfo": {
    "username": "nunojob",
    "about": "Geek. Open-source enthusiast. Shaping the future of node.js platforms @nodejitsu. Founder @expensecat & @thenodefirm. Likes #dinosaurs, and funny hats.",
    "name": "nunojob",
    "disable3rdPartyTrackers": false,
    "isPowerContributor": false,
    "isAnonymous": false,
    "rep": 1.2613219999999998,
    "profileUrl": "https://disqus.com/by/nunojob/",
    "url": "http://nunojob.com",
    "reputation": 1.2613219999999998,
    "location": "New York",
    "isPrivate": false,
    "signedUrl": "http://disq.us/?url=http%3A%2F%2Fnunojob.com&key=QHDhSyU-6nulz_GV0PUjYw",
    "isPrimary": true,
    "joinedAt": "2009-01-08T07:30:56",
    "id": "183271",
    "avatar": {
      "small": {
        "permalink": "https://disqus.com/api/users/avatars/nunojob.jpg",
        "cache": "//a.disquscdn.com/uploads/users/18/3271/avatar32.jpg?1376093469"
      },
      "isCustom": true,
      "permalink": "https://disqus.com/api/users/avatars/nunojob.jpg",
      "cache": "//a.disquscdn.com/uploads/users/18/3271/avatar92.jpg?1376093469",
      "large": {
        "permalink": "https://disqus.com/api/users/avatars/nunojob.jpg",
        "cache": "//a.disquscdn.com/uploads/users/18/3271/avatar92.jpg?1376093469"
      }
    }
  }
}