{
  "comments": [
    {
      "threadId": "3152357798",
      "post": "I noticed that you can trick it into showing the extra options by forcing a little typo in the email address, yet I had no success after filling in all the other info either.",
      "time": "2015-02-27T15:10:18",
      "id": "1878703000",
      "parentPost": "If myMail is unable to connect automatically, you will see a new screen prompting you to enter connection settings. See the image below. Here you can enter your domain login (if required), the host domain server and if encryption is required (SSL).\n\nWhy I can`t see it ?",
      "parentPostTime": "2015-02-11T13:39:45",
      "parentPostId": "1847666273"
    },
    {
      "threadId": "2010969347",
      "post": "Proficiat!",
      "time": "2013-11-30T12:37:45",
      "id": "1145126556"
    },
    {
      "threadId": "2009687883",
      "post": "feel free! Pointers zijn altijd welkom ;)",
      "time": "2013-11-29T15:33:35",
      "id": "1144163781",
      "parentPost": "Tof, ik ga uw tekst overnemen. ",
      "parentPostTime": "2013-11-29T14:49:11",
      "parentPostId": "1144118986"
    },
    {
      "threadId": "1010989360",
      "post": "Link?",
      "time": "2013-02-02T15:21:11",
      "id": "786691194",
      "parentPost": "Ik heb Twine ook overwogen, maar ben uiteindelijk toch voor een DIY Arduino project gegaan. Nog geen spijt van: werkt perfect en een pak goedkoper (en flexibeler) dan Twine. Je moet natuurlijk wel wat knutselen ...",
      "parentPostTime": "2013-02-01T10:41:03",
      "parentPostId": "785613202"
    },
    {
      "threadId": "1005793615",
      "post": "Die resolutie ga ik nog niet uitspreken :p Bedankt voor de tips! Tot maandag?",
      "time": "2013-01-06T12:51:42",
      "id": "757738880",
      "parentPost": "Wederom interesting read... waarom wij niet meer via gamecenter spellekes spelen, ik weet het niet :-)\nNet een DS413j gekocht. Zo content! Ik denk niet dat ik zoveel cloud gedoe nodig heb als gij, maar laat nu wel al mijn docs syncen met Cloud Station van synology op de NAS, geen limieten! Met DS file op iOS heb ik het gevoel dat dropbox overbodig wordt...\n\niOS:\nAppsGoneFree (geregeld ontdekkingen, hieronder staan er een paar tussen)\nGoogle Maps (zit nog niet op iOS 6, wint handsdown van oorspronkelijke google maps, en naart schijnt ook van Apple Maps :-))\nMorningRain (gorgeous weather app)\nPhotosynth (360° pano's, als jpg of als met silverlight interactief te sharen)\nConvertible (alles omzetten, munteenheden, metric - imperial, enz... belachelijk uitgebreid: ooit al electronvolt naar rydberg willen converten, ik ook niet, maar ik kan het nu wel :-D)\nDragRace2 (unusual racing game)\nAan tafel (promising restaurantreview app van goudengids)\nRunkeeper (zag ik daar een invite binnenkomen vandaag? new year's resolutions FTW :-)\n0 to 200 (sit up appke)\n0 to 100 (push up appke)\nPro tuner (afgelopen stemapparaatje om gitaar te stemmen kwijtgespeeld)\nTeamviewer (remote helpdesking... uiteraard ook desktop app, lijkt me ongelimiteerder en gratis )",
      "parentPostTime": "2013-01-03T19:01:18",
      "parentPostId": "754751406"
    },
    {
      "threadId": "219043595",
      "post": "Ja, dat wel :)",
      "time": "2012-08-30T10:36:02",
      "id": "634152730",
      "parentPost": "heb je hem al verkocht ?\n",
      "parentPostTime": "2012-08-27T20:05:17",
      "parentPostId": "631162092"
    },
    {
      "threadId": "797280955",
      "post": "Toegevoegd, merci!",
      "time": "2012-08-09T12:51:12",
      "id": "614420877",
      "parentPost": "Instagram: https://instagram.com/accounts/manage_access",
      "parentPostTime": "2012-08-09T12:43:57",
      "parentPostId": "614417081"
    },
    {
      "threadId": "707117476",
      "post": "Dankzij Enchanté vonden Sony Music en Ik elkaar. Rudy was voor zover ik weet niet op Pinkpop, maar ik kan me vergissen.\nHet jongetje is dan blijkbaar deel van de show! Ik ving ondertussen ook al op dat er soortgelijke events zich voordeden in vele andere shows in deze tournee dus je theorie zou wel eens kunnen kloppen!",
      "time": "2012-05-29T15:27:27",
      "id": "541042609",
      "parentPost": "Hey! Hoe heb jij de toestemming gekregen om met Sony Music mee te mogen?\nEn heeft Rudy foto's gemaakt in Nederland? Ik heb nog foto's nodig voor mijn verslag voor www.keysandchords.com\nTrouwens, in Nederland was er ook een jongen die \"come on, E-Street Band\" zei. Is dat een lid van Springsteens entourage?",
      "parentPostTime": "2012-05-29T14:35:39",
      "parentPostId": "541004698"
    },
    {
      "threadId": "487235720",
      "post": "Ik overweeg het ook. Zijn er eigenlijk nog alternatieven of is cambio hier alleen dat jij weet?",
      "time": "2011-11-30T07:54:31",
      "id": "375701045",
      "parentPost": "Aan deze kant is er geen auto. Helemaal niet. Enfin, wij gebruiken cambio, wegens maar één keer per week eigenlijk een auto nodig en dan af en toe een keer, zoals vandaag dat ik naar de Antwerpse haven moet waar geen trein heen gaat. Wij hebben ook het voordeel van een gereserveerde parkeerplaats.",
      "parentPostTime": "2011-11-29T19:06:22",
      "parentPostId": "375183170"
    },
    {
      "threadId": "448728396",
      "post": "Mind: blown",
      "time": "2011-10-21T07:08:07",
      "id": "340455857",
      "parentPost": "Pssss:http://dl.dropbox.com/u/15854305/WiFiFi-P001_small.jpg\n",
      "parentPostTime": "2011-10-20T14:49:52",
      "parentPostId": "339910719"
    },
    {
      "threadId": "448729410",
      "post": "Kom maar af. Ik heb wel enkel groen en zwart liggen. Ik heb trouwens ook clips!",
      "time": "2011-10-21T07:06:53",
      "id": "340455564",
      "parentPost": "Als je nog touw over hebt, dan wil ik daar wel een stuk van overkopen/ruilen om er ook zelf eentje te maken. Vijf vind ik wat teveel veiligheid :-)",
      "parentPostTime": "2011-10-20T15:07:34",
      "parentPostId": "339921239"
    },
    {
      "threadId": "406146986",
      "post": "We hebben er eentje gevonden waar, en goed dat je het aanhaalt, de kinderen er inderdaad gelukkiger en 'beter' uitzagen. Wij zitten nog steeds met het financieel probleem want ook deze creche heeft geen attest. Nu ja, dat is het laatste van mijn zorgen, als mijn kind maar gelukkig en gezond is. Ik heb het inspectieverslag opgevraagd en het blijkt om dingen te gaan, goh... ja, laat ons zeggen dat je over veel dingen kan zagen ;)",
      "time": "2011-09-06T13:01:13",
      "id": "303487443",
      "parentPost": "Wij zijn op t laatste nippertje ook nog van creche veranderd voor onze Luka... Toen we de kaartjes verstuurden belde die madam van de creche om op een heel boertige manier te vragen wie wij eigenlijk waren en waarom we een kaartje stuurden.... Tim is de volgende dag nog eens langs gegaan en van alle beloofde veranderingen was er niks gebeurd, het was er vuil, donker en geen enkel kind lachte... wij hebben toen ook onmiddellijk beslist een andere creche te kiezen, eentje waar we nu wel zeer tevreden over zijn.  En ja onze creche had ook een rapport van kind & gezin met een hoop opmerkingen waar men nooit iets aan haf gedaan... ik hoop dat je nieuwe creche jullie wel een veilig gevoel kan geven zodat je met een gerust hart kan gaan werken!",
      "parentPostTime": "2011-09-06T12:51:25",
      "parentPostId": "303483552"
    },
    {
      "threadId": "398738756",
      "post": "Bedankt! Eerst de tijd genomen om naaste mensen in te lichten ;)",
      "time": "2011-08-29T08:07:14",
      "id": "297633770",
      "parentPost": "Proficiat.\nEn 2 weken gewacht om dat hier te bloggen?",
      "parentPostTime": "2011-08-29T07:43:31",
      "parentPostId": "297627387"
    },
    {
      "threadId": "372908230",
      "post": "DO WANT!",
      "time": "2011-08-17T07:53:46",
      "id": "289033837"
    },
    {
      "threadId": "345245691",
      "post": "Really, really.",
      "time": "2011-06-29T14:54:57",
      "id": "237960044",
      "parentPost": "Seriously? ",
      "parentPostTime": "2011-06-29T14:49:17",
      "parentPostId": "237954283"
    },
    {
      "threadId": "344140646",
      "post": "Dus mijn fiets een hele dag laten staan op linkeroever? En mijn auto kan ik ook een hele week niet gebruiken? Klinkt niet ideaal.",
      "time": "2011-06-28T11:10:42",
      "id": "236777044",
      "parentPost": "Al eens gedacht van met de fiets naar linkeroever te gaan? En je auto dus altijd op linkeroever te laten staan in de week? Kan je altijd direct naar huis! :-) ",
      "parentPostTime": "2011-06-28T09:25:54",
      "parentPostId": "236695686"
    },
    {
      "threadId": "333860951",
      "post": "Wie de lijst wil: geef een seintje en ik mail het door.",
      "time": "2011-06-20T08:06:00",
      "id": "230177983",
      "parentPost": "Link werkt niet meer, neergehaald voor violation ToS.\n",
      "parentPostTime": "2011-06-16T16:09:20",
      "parentPostId": "227391315"
    },
    {
      "threadId": "291118606",
      "post": "Volledig mee eens. Maar van mij mag zijn haar ook rechtkomen als hij voor een gouden koets van 4 ton staat hoor.",
      "time": "2011-04-29T07:36:25",
      "id": "194005836",
      "parentPost": "Raar... verwondering is zo ongeveer het laatste woord dat ik associeer met dat evenement.\nVoor mij zit verwondering in kleine dingen. cliche's zoals een dauwdruppel op een grasspriet en zo - sommige cliché's werken nog.\nAls er een mediacircus zoals vandaag nodig is om het haar op de armen van mijn kinderen te laten rechtkomen, dan voel ik mij daar als ouder toch diep treurig om.",
      "parentPostTime": "2011-04-29T07:05:18",
      "parentPostId": "194000170"
    },
    {
      "threadId": "267667757",
      "post": "I agree if we get proper glasses (not like those 3D ones you get at the cinema which make the whole movie darker), it would be awesome. But somehow I get the feeling (or I hope) we might skip that phase.\n\nWhat I guess I mean is that I don't agree with some people who see a future in putting screens everywhere (vases, cereal boxes, tables, ...).",
      "time": "2011-04-01T11:29:47",
      "id": "176104082",
      "parentPost": "Met een gewone bril zou ik ook al zeer content zijn.\nMet ernstige nadruk op het woord \"gewoon\". Ik heb 2 soorten van die vuzix video glassess maar dat is toch nog zeer ver verwijderd van wat iedereen eigenlijk  wil. #babysteps",
      "parentPostTime": "2011-04-01T11:03:40",
      "parentPostId": "176097291"
    },
    {
      "threadId": "265675459",
      "post": "Dat is een beetje zwart wit, denk ik. Zoals ik zelf al aanhaalde besef ik ook wel dat het subjectieve karakter van net er eigen aan is. Toch ben ik zeer benieuwd naar wat die resultaten zouden opleveren en ben ik er van overtuigd dat het een goeie basis kan vormen om op verder te gaan. Wat belangrijk is en niet belangrijk is blijft iets waar politiekers hun ding mee kunnen doen, toch?\nIk zeg niet dat het volk de waarde aan de punten moet hangen. Ik zeg wel dat het een interessant tweede model zou kunnen opleveren, een extraatje dat bestudeerd kan worden.",
      "time": "2011-03-29T09:52:55",
      "id": "173951256",
      "parentPost": "Een regering van boekhouders zonder gevoel? Een op wiskunde gebaseerde overheid? Nee, bedankt. Er zijn zoveel beïnvloedende factoren. Wat betekent het antwoord op de vraag 'dit is belangrijk'? Is dat 'ik heb dat al vaak op den televies gezien, dus dat zal wel belangrijk zijn' of 'dit gaat over mijn tuin, dat is wel belangrijk en dus is de plek die de meeste mensen als hun tuin beschouwen het belangrijkst' of 'dit is voor mij persoonlijk belangrijk'.\n\nEnfin. Als statistiek onfeilbaar zou zijn, ik zou er nog wat voor kunnen zeggen maar helaas...",
      "parentPostTime": "2011-03-29T09:25:30",
      "parentPostId": "173943515"
    },
    {
      "threadId": "220876751",
      "post": "Although I agree that PRO's should have backups, and I suspect that the person in question indeed has these, this effects a whole different thing: the social layer that is the heart of Flickr. The comments, the favs, the network, the sites where the pictures are used... \nThis can not be backed up by any party and is basically what Flickr is about. It is, in a way, what people pay the service for. The fact that this can be erased by anyone at all this easy, especially with no way to recover it, is what makes this very, very 'interesting'.",
      "time": "2011-02-02T15:18:20",
      "id": "138774639"
    },
    {
      "threadId": "217785520",
      "post": "Bedankt, Tom. Zoals je zal merken in de volgende blogpost heb je de doorslag gegeven ;)",
      "time": "2011-01-30T18:30:13",
      "id": "137287079",
      "parentPost": "Zoals ik op twitter ook al zei: wij doen het met een D90 en onze iPhones. We hebben een Flip, maar die ligt werkloos te zijn in de kast.\nVideo opnemen met de D90 doen we vooral thuis, en als je onderweg bent is de iPhone zeer gemakkelijk. Er ligt ook nog een oude sony digitale videocamera ergens, maar die heb ik 2 jaar niet meer gebruikt.\n\nEen reflexcamera meezeulen is idd wat zwaarder dan een camcorder of een point-n-shoot. Maar ik zou durven gokken dat hetzelfde geldt voor de camcorder. In mijn ervaring is de combinatie reflex + point/shoot (ala iPhone) het beste. \n\nHet meepakken van zo'n reflexcamera valt trouwens best mee. Met zo'n kleintje heb je altijd wel ander gerief bij als je onderweg bent. Een buggy, of op zijn minst een luiertas met vers gerief voor als ie zich ondersteboven gekakt heeft. Er is bij ons meestal nog wel plaats om daar ook een camera in te steken. Same for the buggy.\n\nDe reflex is haast noodzakelijk om (goeie) fotos van de kinderen te trekken: een point en shoot is meestal gewoon te traag. Dat je er mee kan filmen is een extra handige bonus, IMHO.\n\n(disclaimer: wij zijn misschien niet het schoolvoorbeeld van hoe dat aan te pakken: we bewerken bvb nog al onze fotos vooraleer ze online te zwieren)",
      "parentPostTime": "2011-01-28T15:15:57",
      "parentPostId": "135998477"
    },
    {
      "threadId": "191327784",
      "post": "Yeah, @YvesHanoulle mentioned it as well. Would be very interesting to see what that would give, but on the other hand I'm the kind of guy who wants to walk before I start running ;) Hey, who knows, if this thing gets big... next year?",
      "time": "2010-12-16T11:47:33",
      "id": "112831860",
      "parentPost": "I wonder what would have happened if the site was in English, how many non BE tweeps would have joined in and if certain other advertisers or companies would be jumping to get their message sent out.\n\nGreat that you guys put in the effort, lets see how big this can get!",
      "parentPostTime": "2010-12-16T11:27:55",
      "parentPostId": "112815228"
    },
    {
      "threadId": "175625527",
      "post": "iedereen, het is zover: http://www.tweetforlife.be",
      "time": "2010-12-15T10:05:21",
      "id": "112143595"
    },
    {
      "threadId": "180861913",
      "post": "Jij weet meer?",
      "time": "2010-11-28T11:23:44",
      "id": "104413653",
      "parentPost": "niet overdrijven, is gewoon als grap bedoeld",
      "parentPostTime": "2010-11-28T11:13:19",
      "parentPostId": "104412896"
    },
    {
      "threadId": "177234200",
      "post": "Ok, dan zoeken we een frontend/design guy/girl. Best eens afspreken ergens als we die persoon hebben. Ik stuur doodle uit als we compleet zijn.",
      "time": "2010-11-22T09:04:59",
      "id": "100535868",
      "parentPost": "Ik wil gerust helpen met \"het platform\"\nDe uitdaging zal misschien zijn dat er best een euhm ... een \"projectcoördinator\" is die coördineeert wie juist wat doet. #kijktrichtingclopin?\nDingen die ik kan doen: technische backend, hosting\nDingen waar ik niet goed in ben: frontend design\n\nIn ieder geval tweet ik zeker mee.",
      "parentPostTime": "2010-11-22T08:56:43",
      "parentPostId": "100532586"
    },
    {
      "threadId": "175613666",
      "post": "En jij hebt net NCIS voor mij verpest :p",
      "time": "2010-11-19T12:52:06",
      "id": "99423677",
      "parentPost": "Maar het klopt in elk geval wel voor NCIS van donderdagavond. De uiteindelijke dader kwam mij ook bekend voor...",
      "parentPostTime": "2010-11-19T12:40:31",
      "parentPostId": "99421259"
    },
    {
      "threadId": "174877731",
      "post": "Zolang er geen boekbesprekingen van gemaakt moeten worden in school: nee :p",
      "time": "2010-11-19T09:39:50",
      "id": "99375331",
      "parentPost": "Zouden er al samenvattingen zijn van al die zwangerschapsboeken zodat wij mannen met enkele rake wijsheden zouden kunnen bewijzen dat we ze weldegelijk gelezen hebben?",
      "parentPostTime": "2010-11-18T20:37:01",
      "parentPostId": "98982205"
    },
    {
      "threadId": "167854976",
      "post": "Groot gelijk. Enjoy.",
      "time": "2010-11-08T12:19:48",
      "id": "95038540"
    },
    {
      "threadId": "163841412",
      "post": "Haha, we zullen nog eens wat familie-etentjes moet regelen blijkbaar ;)",
      "time": "2010-11-08T10:28:48",
      "id": "95018545"
    },
    {
      "threadId": "168015616",
      "post": "Yeah, had ik ook! Toen ze het vroegen moest ik, eerlijk, gaan opzoeken wie het was.",
      "time": "2010-11-08T10:27:42",
      "id": "95018446",
      "parentPost": "Goeie tip. Inderdaad goeie werkmuziek.\nKen er ook veel meer nummers van dan ik dacht.",
      "parentPostTime": "2010-11-07T09:46:51",
      "parentPostId": "94693011"
    },
    {
      "threadId": "168583246",
      "post": "Dat was inderdaad ook een van de triggers bij mij. Politiek, die processen, ... ",
      "time": "2010-11-08T10:26:07",
      "id": "95018294",
      "parentPost": "Ik ben me een paar weken terug ook vragen hierover gaan stellen. Bij mij was het voor een stuk rond de medialisering van bepaalde asisenprocessen. Door de media hebben nogal veel mensen daar een mening rond gevormd.\nOp een moment vroeg iemand aan mij wat ik van de juryuitspraak van een van deze processen vond. Ik geef toe dat ik moeite had om een gefundeerde mening te vormen. Toen ik dat ook zei, probeerde de ander mij van zijn standpunt te overtuigen. En vooral dat vond ik een probleem.\nIk ben niet zo bekend met het probleemgebied van asisen of andere processen. Ik ben immers geen jurist of heb zelf nooit met een echt proces te maken gehad. Daarnaast weet ik ook niet precies hoe de vork aan de steel zit, alle mediabelangstelling ten spijt. Ik was ook niet in de zaal aanwezig om alle details te horen, zoals de juryleden.\n\nHoe kan ik dan een gefundeerde mening hebben? Maar misschien is dat de wetenschapper in mij die kritisch kijkt. Eerst observeren, dan pas conclusies trekken...",
      "parentPostTime": "2010-11-07T19:22:02",
      "parentPostId": "94811762"
    },
    {
      "threadId": "158564893",
      "post": "Sure does!",
      "time": "2010-10-27T06:09:11",
      "id": "90657555",
      "parentPost": "Lijkt sterk op http://sonicangel.com",
      "parentPostTime": "2010-10-20T23:41:41",
      "parentPostId": "88651230"
    },
    {
      "threadId": "162200445",
      "post": "interesting, thx",
      "time": "2010-10-27T06:08:39",
      "id": "90657513",
      "parentPost": "Geen idee eigenlijk.\nDeed mij denken aan de goudvissen in de blender. http://news.bbc.co.uk/2/hi/3040891.stm",
      "parentPostTime": "2010-10-26T13:49:53",
      "parentPostId": "90223251"
    },
    {
      "threadId": "155686280",
      "post": "Sure hope so :)",
      "time": "2010-10-14T18:33:08",
      "id": "86979631",
      "parentPost": "Proficiat! You'll make an excellent dad :)",
      "parentPostTime": "2010-10-13T16:36:32",
      "parentPostId": "86617398"
    },
    {
      "threadId": "145318039",
      "post": "Euh, Appie van AH in Nederland heeft gerechten, maar weet niet of je dat zoekt :p",
      "time": "2010-09-23T10:01:38",
      "id": "80263572",
      "parentPost": "My Movies, die kende ik nog niet, maar kan ik wel goed gebruiken.\nVerder kan ik je nog Epicurious aanraden (als iemand een goeie iPhone/iPad app weet met nederlandstalige gerechten, dat mag hij/zij dat gerust laten weten).\n\nAndere apps die ik ook de moeite vind om te vermelden:\nTeletekst (van één)\nIMDb\niDaft (Harder, Better, Faster, Stronger en Technologic samples. Hellafun!)\n",
      "parentPostTime": "2010-09-23T09:53:14",
      "parentPostId": "80262574"
    },
    {
      "threadId": "144396806",
      "post": "Goed. Maar misschien niet zo 'wow' als ik had verwacht.",
      "time": "2010-09-20T18:32:51",
      "id": "79539867"
    },
    {
      "threadId": "141549713",
      "post": "Echt he!",
      "time": "2010-09-14T13:56:57",
      "id": "77509639"
    },
    {
      "threadId": "139645613",
      "post": "Euh, pietel... Schrijf jij geregeld comments onder mijn naam of enkel op dit blog? :p\nMaar wat ik wou zeggen:\nIs de onschuldige hand dan onwettig?\nHoe bepalen radiozenders wie er aan een wedstrijd mag deelnemen 'on the air'? Is niet altijd first-come-first-serve dacht ik.",
      "time": "2010-09-10T12:27:29",
      "id": "76651962"
    },
    {
      "threadId": "125478280",
      "post": "thx iedereen!",
      "time": "2010-08-11T09:02:47",
      "id": "67834542"
    },
    {
      "threadId": "96105099",
      "post": "Sint-Jozef, maar blijkbaar zijn die lakens wel heel populair. Proficiat, trouwens!",
      "time": "2010-05-31T11:24:06",
      "id": "53226598",
      "parentPost": "Proficiat met je neefje.  Aan het laken te zien lag ze in Sint-Vincentius!?  Wij verlieten het moederhuis daar op de 16de, dus waarschijnlijk hebben uw zus en mijn vrouw toch een paar uur op dezelfde gang gelegen (wij hadden kamer 204)",
      "parentPostTime": "2010-05-31T11:18:12",
      "parentPostId": "53226228"
    },
    {
      "threadId": "94453087",
      "post": "Wel, eigenlijk is dat voor mij geen punt. Gaat een beetje het principe van een landingspage voorbij, niet?",
      "time": "2010-05-17T15:10:09",
      "id": "50701220",
      "parentPost": "En welke van die landingspages kan je embedden in bijvoorbeeld je blog? Via html ofzo?",
      "parentPostTime": "2010-05-16T20:30:34",
      "parentPostId": "50626006"
    },
    {
      "threadId": "94559430",
      "post": "@Mike: Minstens 5 jaar, ik weet niet exact meer wanneer ik ben overgeschakeld naar MSN en Gtalk.\n@Valentijn: Epic reason :p",
      "time": "2010-05-12T07:47:19",
      "id": "49867081"
    },
    {
      "threadId": "90452709",
      "post": "Hangt er een beetje van af wat je met close shave bedoelt. Naar mijn gevoel geeft mijn Merkur me betere resultaten dan m'n oude Gillette, zeker als ik het vettig laagje afveeg dat die mesjes achterlaten ;)\nMaar naar Raz*War toe: doe je echt meer dan 3x zo lang met een Gillette mesje dan met een Raz*War mesje?",
      "time": "2010-04-28T09:47:57",
      "id": "47170557",
      "parentPost": "Die RazWar mesjes blijven bij mij echt niet lang goed. Gillette mag dan duurder zijn, PPCS (price per close shave) is het voor mij wél de moeite",
      "parentPostTime": "2010-04-28T09:41:05",
      "parentPostId": "47169382"
    },
    {
      "threadId": "88911540",
      "post": "Dat, mijn beste, gaat alles veranderen. Vergeet de messen, kwast en goeie zeep maken het verschil. Enjoy!",
      "time": "2010-04-26T06:08:21",
      "id": "46670802"
    },
    {
      "threadId": "88727836",
      "post": "Heb je daar toevallig een concreet voorbeeld van? ",
      "time": "2010-04-22T19:18:11",
      "id": "46087864",
      "parentPost": "Nu, zij deden het bewust. Ik geloof dat het bij enkele originele versies van de stones was dat het tempo niet klopte bij het masteren.",
      "parentPostTime": "2010-04-22T19:15:57",
      "parentPostId": "46087322"
    },
    {
      "threadId": "61623980",
      "post": "Ik geloof niet in 'reviews', zeker niet bij zulks een gevoelig onderwerp. Bart haalde een goed punt aan in zijn blogpost (http://www.ondernemeringent.be/2010/01/impliciete-tov-expliciete-data.html) en het lijkt me interessanter om het ook zo te benaderen: laat mensen tonen wie hun huisarts is ipv reviews. Een goede vriend die zegt wie zijn huisarts is zegt meer dan 10 onbekenden die 5 sterren geven.",
      "time": "2010-01-27T11:09:07",
      "id": "31504621"
    },
    {
      "threadId": "3983474",
      "post": "Hi there,\r\n\r\nA while ago, you inquired about the TwitterComments plugin. I'm happy to say\r\nthere's a new release and that your request (tag in front) was implemented.\r\nHave a look at http://adromag.net/twittercomments/ and let me know if\r\nthere's anything else I can do.\r\n(I'll be working some more on the plugin the following days).\r\n\r\nRegards,\r\nKevin\r\n\r\n[image: Clopin] kevin de mulder // +32 476666760\r\nkdemulder@gmail.com // clopin.be <http://www.clopin.be>",
      "time": "2009-06-23T12:19:13",
      "id": "11615619",
      "parentPost": "Great idea for a plugin. Could you modify to make a tag in front of the comment like and a link tol the article fx. : \r\n\r\nNew comment > bla bla bla [Link]\r\n\r\nThat would be very cool.\r\n\r\nCheers.\r\nMartin",
      "parentPostTime": "2009-06-11T11:40:23",
      "parentPostId": "10733870"
    },
    {
      "threadId": "13973883",
      "post": "test",
      "time": "2009-06-23T11:27:46",
      "id": "11614757"
    },
    {
      "threadId": "20001466",
      "post": "Wacht... die foto, is dat \"ten huize Van der Auwera\"? Zoekt 10to1 nog volk?",
      "time": "2009-06-02T08:25:13",
      "id": "10380134"
    },
    {
      "threadId": "3712428",
      "post": "Gewoon een kaartje kopen als ik me niet vergis.",
      "time": "2009-03-24T07:53:11",
      "id": "7462946",
      "parentPost": "Moet je u daarvoor inschrijven?",
      "parentPostTime": "2009-03-24T07:47:21",
      "parentPostId": "7462917"
    },
    {
      "threadId": "14230446",
      "post": "Oh, good one! Die zat bij mij ook wel in de collectie.",
      "time": "2009-03-23T12:20:44",
      "id": "7439643",
      "parentPost": "No Need to Argue van The Cranberries. Uiteraard de single 'Zombie', maar de rest van het album oversteeg dat nummer wel!",
      "parentPostTime": "2009-03-23T12:19:03",
      "parentPostId": "7439620"
    },
    {
      "threadId": "13779579",
      "post": "Dat zijn grote namen voor dit.... ding.",
      "time": "2009-03-17T08:58:11",
      "id": "7282313",
      "parentPost": "Bwoah, is een mix van Prince, Peaches met een vette beat eronder. I'm sure all the hip kids like it ;)",
      "parentPostTime": "2009-03-17T08:51:08",
      "parentPostId": "7282269"
    },
    {
      "threadId": "11998611",
      "post": "So what's going on here, hmm? Bonvestaande comments zijn allen van hetzelfde IP adres afkomstig...",
      "time": "2009-03-16T12:56:43",
      "id": "7252746"
    },
    {
      "threadId": "3711075",
      "post": "Ervoor naar Nederland rijden... dat betwijfel ik. Maar zet er eentje in Antwerpen en ik stap er zeker geregeld binnen.",
      "time": "2009-03-16T12:51:27",
      "id": "7252691"
    },
    {
      "threadId": "13332753",
      "post": "I gotta hand it to Imke, ze was zeer geconcentreerd dotjes aan het maken, en ze waren perfect!",
      "time": "2009-03-10T08:46:52",
      "id": "7065151",
      "parentPost": "Wat staat mijn dotje toch prachtig bovenop jouw worteltaart! :D",
      "parentPostTime": "2009-03-09T22:08:58",
      "parentPostId": "7044082"
    },
    {
      "threadId": "13106639",
      "post": "Let me know, want ik twijfel daar ook al een tijdje over.",
      "time": "2009-03-09T11:22:24",
      "id": "7014144"
    },
    {
      "threadId": "3713977",
      "post": "Ik kijk alvast uit naar je bevindingen. De vraag zal blijven: kan collectorz een database bereiken die de DVD info bevat die je nodig hebt.",
      "time": "2009-03-02T12:05:16",
      "id": "6780984",
      "parentPost": "Hey,\r\n\r\nIk heb net dit gekocht voor mijn dvd's:\r\nhttp://www.collectorz.com/flic_barcode_scanner.php\r\n\r\nIk heb het nog niet gebruikt maar zal mijn bevindingen snel posten :)",
      "parentPostTime": "2009-02-21T13:38:13",
      "parentPostId": "6465009"
    },
    {
      "threadId": "11438024",
      "post": "Bwa, misschien wel. Anderzijds, flashmobs gaan al veel langer mee ;)",
      "time": "2009-02-09T17:16:31",
      "id": "6116679",
      "parentPost": "lichtjes geïnspireerd op de T-Mobile dance?  :-)\r\nhttp://www.youtube.com/watch?v=VQ3d3KigPQM\r\n",
      "parentPostTime": "2009-02-09T16:28:14",
      "parentPostId": "6115653"
    },
    {
      "threadId": "11233660",
      "post": "Sorry, heb ze nu wel! Video op http://www.youtube.com/user/2009KALENDER en foto's op http://www.kalender09.be/kalnder/index.php?tag/101stadsfeestzaal/page/2",
      "time": "2009-02-09T15:04:46",
      "id": "6114047",
      "parentPost": "Foto's? :)",
      "parentPostTime": "2009-02-09T14:40:31",
      "parentPostId": "6113625"
    },
    {
      "threadId": "11231938",
      "post": "Yup! En wat een geweldige zaal is die Roma, zeg. Ik moet tot mijn grote schaamte toegeven dat ik er nog niet geweest was, maar... damn!",
      "time": "2009-02-06T08:12:38",
      "id": "5887328",
      "parentPost": "Zijt ge gisteren geweest? Ik ga vanavond. Ik zit hier al een paar dagen te popelen.",
      "parentPostTime": "2009-02-06T08:10:21",
      "parentPostId": "5887318"
    },
    {
      "threadId": "11050196",
      "post": "Meh ;)",
      "time": "2009-02-04T10:31:02",
      "id": "5832403",
      "parentPost": "Helpt Gaviscon nier tegen verzuring? Of een Rennie? :-)",
      "parentPostTime": "2009-02-03T22:20:04",
      "parentPostId": "5819491"
    },
    {
      "threadId": "10799466",
      "post": "Who, me? For caring?",
      "time": "2009-01-30T12:32:35",
      "id": "5684684",
      "parentPost": "lol what a nob",
      "parentPostTime": "2009-01-30T12:20:14",
      "parentPostId": "5684577"
    },
    {
      "threadId": "10610010",
      "post": "Kom, kom, we geven alles een kans, toch?",
      "time": "2009-01-27T20:12:32",
      "id": "5599574"
    },
    {
      "threadId": "10601702",
      "post": "Hoe jij de wereldbol afschuimt kan ik dat begrijpen, ja :)",
      "time": "2009-01-27T14:54:06",
      "id": "5575988",
      "parentPost": "Zolang er geen roamingtarieven te bespeuren zijn zal mijn sim-kaartje toch nog een tijd in de lade blijven liggen denk ik :-)",
      "parentPostTime": "2009-01-27T14:38:26",
      "parentPostId": "5575806"
    },
    {
      "threadId": "10422243",
      "post": "Misschien. Misschien heb ik er dan ook iets aan, ik zal het (hopelijk) nooit weten.\r\nWat het inbeelden betreft, ik denk dat er veel mensen hun kinderen serieus zullen knuffelen vanavond. Hopelijk krijg je het snel uit je hoofd.",
      "time": "2009-01-23T20:09:47",
      "id": "5499680",
      "parentPost": "Ik denk dat je nog zou verschieten van hoeveel mensen er zich optrekken aan een bezoek van een prinsenpaar...\r\n\r\nIk heb ondertussen het vliegend schijt gekregen van Vermassen. Hoe hij zijn wijsheden komt verkondigen zonder eigenlijk goed te weten met wat voor iemand we te maken hebben. Bah. Maar als hij het niet zou  hebben gedaan, ze hadden wel iemand anders gevonden.\r\n\r\nEn voor de rest: ik ben nog nooit zo ondersteboven geweest van een nieuwsbericht als nu. Het feit dat ik 2 kinderen jonger dan 3 heb, zal daar ongetwijfeld mee te maken hebben.\r\n\r\n\r\n",
      "parentPostTime": "2009-01-23T20:04:36",
      "parentPostId": "5499587"
    },
    {
      "threadId": "10179364",
      "post": "Super, merci ;)",
      "time": "2009-01-20T10:21:35",
      "id": "5388128",
      "parentPost": "Ahhh, SF en LA, daar heb ik toch heel wat maanden gespendeerd (gewoond). Duseuh, shoot your questions at me! Zoals sasvangent zegt is Malibu écht wel leuker dan Venice Beach. Maar Venice Beach moet je gewoon gezien hebben, anders ben je niet in LA geweest. Zelfde mening over Grand Canyon, niet zo bijster goed vind ik - is gewoon een veel te groot gat in de grond en omdat het zo groot is verandert het zicht nauwelijks, zelfs als je kilometers aflegt - maar je moet er toch één keer in je leven geweest zijn. Bryce is écht wel de moeite, net zoals Death Valley maar Zion, da's gewoon een bos zoals ge in Zwitserland ook hebt. The Getty is de moeite, een mooi museum met een prachtig zicht op LA downtown met bijhorende smoglaag :) Zoals pietel zegt, langs de Big Sur van San Francisco naar LA valt er heel wat te beleven. San Louis Obispo is 'ok' maar Carmel is interessanter. Blijf niet te lang in Las Vegas, twee dagen en één overnachting is ruim voldoende. Het is er vooral druk en heet en na één dag heb je wel alle coole hotels gezien. Voor concrete tips verwijs ik naar m'n comment op de blog van Applefanbe:\r\nhttp://applefanbe.wordpress.com/2009/01/12/roadtrip/#comment-2206",
      "parentPostTime": "2009-01-20T09:58:13",
      "parentPostId": "5387942"
    },
    {
      "threadId": "9828046",
      "post": "Ge weet mij te vinden!",
      "time": "2009-01-17T00:40:50",
      "id": "5227742",
      "parentPost": "Misschien da'k u een dezer eens kom uithoren dan, ivm starters.  ",
      "parentPostTime": "2009-01-13T16:01:23",
      "parentPostId": "5092821"
    },
    {
      "threadId": "9301992",
      "post": "Zeer zeker!",
      "time": "2009-01-17T00:40:02",
      "id": "5227724",
      "parentPost": "Tis toch leuk als je samen onozel kan doen hé ;-)",
      "parentPostTime": "2009-01-15T15:41:46",
      "parentPostId": "5139355"
    },
    {
      "threadId": "9997944",
      "post": "Done.",
      "time": "2009-01-17T00:38:37",
      "id": "5227700",
      "parentPost": "Kan er iemand op de vraag van Tom Bernaerd antwoorden? Vind ik niet onbelangrijk om het hele verhaal juist te kaderen.",
      "parentPostTime": "2009-01-17T00:23:01",
      "parentPostId": "5227454"
    },
    {
      "threadId": "9889510",
      "post": "Hetzelfde gaat ook op voor loodgieters hoor ;)",
      "time": "2009-01-17T00:38:24",
      "id": "5227737",
      "parentPost": "Of gewoon online zoeken op mijntandarts.be",
      "parentPostTime": "2009-01-14T19:08:14",
      "parentPostId": "5117185"
    },
    {
      "threadId": "9631235",
      "post": "Dat kan nu al hoor :p",
      "time": "2009-01-09T14:18:00",
      "id": "5010910",
      "parentPost": "En een halfuur later alles 6 miljard via bittorrent?",
      "parentPostTime": "2009-01-09T13:41:19",
      "parentPostId": "5010622"
    },
    {
      "threadId": "9573065",
      "post": "Ja, ik zou er idd pas mee starten na de foto-365. En die flip: fingers crossed :D",
      "time": "2009-01-09T13:25:40",
      "id": "5010468",
      "parentPost": "De flip is misschien op komst Clopin ;)\r\nen jij hebt nog 65 dagen te gaan met je foto's... is het anders niet te veel uitdaging ? ;)",
      "parentPostTime": "2009-01-08T20:45:39",
      "parentPostId": "4995224"
    },
    {
      "threadId": "9427350",
      "post": "Ik ben alvast fan :D",
      "time": "2009-01-06T09:37:59",
      "id": "4931097"
    },
    {
      "threadId": "3709673",
      "post": "Ik heb de indruk dat we eens deftig moeten praten met een paar mensen, denk je ook niet? :)",
      "time": "2009-01-04T17:12:42",
      "id": "4880043",
      "parentPost": "Bijna 3 jaar geleden deed je deze oproep.\r\nHoe zit het ondertussen met je agenda ? ;)",
      "parentPostTime": "2009-01-03T19:51:02",
      "parentPostId": "4868723"
    },
    {
      "threadId": "9184217",
      "post": "Thx! En voor u uiteraard hetzelfste he ;)",
      "time": "2009-01-04T17:10:25",
      "id": "4880023",
      "parentPost": "'t Allerbeste voor 2009!",
      "parentPostTime": "2009-01-02T11:42:52",
      "parentPostId": "4828741"
    },
    {
      "threadId": "9043872",
      "post": "@all: Bedankt voor de input! ",
      "time": "2009-01-04T17:07:45",
      "id": "4880010"
    },
    {
      "threadId": "3708479",
      "post": "[image: Clopin] kevin de mulder // +32 476666760\r\nkdemulder@gmail.com // clopin.be <http://www.clopin.be>",
      "time": "2009-01-04T15:48:15",
      "id": "4879840",
      "parentPost": "very nice article thank you very much.... evden eve ",
      "parentPostTime": "2009-01-04T16:45:49",
      "parentPostId": "4879810"
    },
    {
      "threadId": "3712719",
      "post": "Als dat waar is...",
      "time": "2008-12-29T09:08:43",
      "id": "4717948"
    },
    {
      "threadId": "8726603",
      "post": "Mocht het tot de opties behoren: onmiddelijk :)",
      "time": "2008-12-25T22:40:34",
      "id": "4629144",
      "parentPost": "\"testritten proberen vast te leggen voor nieuwe auto\"\r\n\r\nNergens voor nodig, C - gewoon dezelfde pakken dan je al had.\r\nWant beter is in die klasse moeilijk te vinden.",
      "parentPostTime": "2008-12-25T22:31:09",
      "parentPostId": "4629008"
    },
    {
      "threadId": "7969409",
      "post": "Ik geloofde ze eigenlijk wel. En, mind you, Ik was zeer scpetisch.",
      "time": "2008-12-05T12:25:44",
      "id": "4202454",
      "parentPost": "Allemaal show. Niets meer. In de grond wou ze haar met haar ogen neerbliksemen moest ze kunnen.",
      "parentPostTime": "2008-12-05T11:46:07",
      "parentPostId": "4202247"
    },
    {
      "threadId": "7760182",
      "post": "No prob, nu weet ik tenminste wat de mensen van mij denken :p",
      "time": "2008-12-02T07:48:50",
      "id": "4123595",
      "parentPost": "Oeps.\r\nDat venster van Het 11de gebod heeft me op het verkeerde spoor gezet.\r\n\r\n",
      "parentPostTime": "2008-12-02T07:46:46",
      "parentPostId": "4123581"
    },
    {
      "threadId": "7756427",
      "post": "Zie je dat het niets voor mij is? :p \r\nWe zijn het gaan halen in <a href=\"http://www.matriks.be/\">Matriks</a>, maar ik neem aan dat je het kan krijgen in elke winkel die spullen van Alessi verkoopt.",
      "time": "2008-12-01T09:33:56",
      "id": "4080743"
    },
    {
      "threadId": "3712515",
      "post": "Nic, alstublieft... niet overdrijven.",
      "time": "2008-11-17T21:00:34",
      "id": "3866756"
    },
    {
      "threadId": "7031560",
      "post": "Helemaal niet, de volgende is betaald. En trouwens: wat is daar mis mee? Heb jij ook niet tickets gekregen voor NEXT08? Hmm? ;)",
      "time": "2008-11-14T14:14:52",
      "id": "3770516",
      "parentPost": "Awoert! Betaalde blogposts! Awoert!",
      "parentPostTime": "2008-11-14T14:06:47",
      "parentPostId": "3770425"
    },
    {
      "threadId": "6940298",
      "post": "Das de grote miserie: het is niet ge gebruikelijk \"download-dat-en-het-is-in-orde\" ding =/",
      "time": "2008-11-13T14:30:09",
      "id": "3738884",
      "parentPost": "mja, heb ook al wat rare dingen met norton gehad... Nu werkt AVG alweer een tijdje bij mij.\r\nHeb zelf bij dit probleem maar 1 iemand moeten depanneren, het was ook geen groot probleem. Maar als je zelf geen techneut bent, ben je wel in de spreekwoordelijke aap gelogeerd.",
      "parentPostTime": "2008-11-13T12:47:04",
      "parentPostId": "3737750"
    },
    {
      "threadId": "6934101",
      "post": "Oh, tiens... wie was dat dan?",
      "time": "2008-11-12T09:38:39",
      "id": "3700549",
      "parentPost": "\"Beste Nieuwkomer\" was is niet vorig jaar maar ik stond wel in het lijstje van de geselecteerden... :) ",
      "parentPostTime": "2008-11-12T09:36:58",
      "parentPostId": "3700541"
    },
    {
      "threadId": "6854432",
      "post": "Eigenlijk wou ik echt wel Rick Astley er nog aan toevoegen...",
      "time": "2008-11-12T09:08:35",
      "id": "3700420",
      "parentPost": "Zalige post!",
      "parentPostTime": "2008-11-10T11:57:02",
      "parentPostId": "3660905"
    },
    {
      "threadId": "3714030",
      "post": "Zeer jammere zaak, zeker op zo'n jonge leeftijd. Sterkte aan iedereen bij het verwerken hiervan.",
      "time": "2008-11-12T09:05:19",
      "id": "3700403",
      "parentPost": "Voor mij heeft deze clip en dit nummer een bijzondere betekenis.\r\nDit nummer is namelijk twee weken geleden gedraaid op de crematie van mijn collegaatje.\r\nZe was pas 20 jaar en zag het leven niet meer zitten als je dan naar de tekst luistert van dit nummer dan komen er toch veel emoties los....\r\n",
      "parentPostTime": "2008-11-11T21:50:20",
      "parentPostId": "3685289"
    },
    {
      "threadId": "6855584",
      "post": "Wel, voor mij zit het hem in het feit dat het echt een object is dat je nu kan besturen (klik maar eens in het venstertje en bestuur het met je muis. En ze kunnen daar dan nu ook verder mee gaan: laten spreken bv.",
      "time": "2008-11-11T11:27:49",
      "id": "3676767",
      "parentPost": "Ik vat het niet. Voor mij is het gewoon een cameratje dat rond je hoofd draait, daar een filmpje van maakt en voilà. Wat is er zo speciaal aan deze technologie, filmpjes maken van gezichten konden ze vijftig jaar geleden toch ook al?",
      "parentPostTime": "2008-11-11T11:18:34",
      "parentPostId": "3676715"
    },
    {
      "threadId": "6737261",
      "post": "Dude... Serieus... een van de meest gehypte games van het jaar ;)\r\nMocht je de eerste nooit gespeeld hebben: catch up at http://en.wikipedia.org/wiki/Gears_of_War#Story ;)",
      "time": "2008-11-07T13:22:08",
      "id": "3590851",
      "parentPost": "Ah, is dat een nieuw spel. Dat mag ik dus demonstreren ;-)",
      "parentPostTime": "2008-11-07T13:17:23",
      "parentPostId": "3590806"
    },
    {
      "threadId": "6238033",
      "post": "That's why we have... drums... http://english.clopin.be ! Not everything is translated yet, but it'll get there ;)",
      "time": "2008-10-31T07:17:16",
      "id": "3405013",
      "parentPost": "Sounds interesting... but I only speak FR/EN... :(\r\nBut it was great meeting you - and now following your adventures on Twitter !",
      "parentPostTime": "2008-10-31T01:38:01",
      "parentPostId": "3402059"
    },
    {
      "threadId": "5799503",
      "post": "Wow, that's... pretty impressive want er stond voor best wat geld open!",
      "time": "2008-10-15T13:05:24",
      "id": "3063940",
      "parentPost": "Zalig initiatief! Count me in. Ik zie dat ze door hun traffic spike vandaag alle openstaande initiatieven al ingevuld hebben gekregen - nice! Blog Action Day héérscht!",
      "parentPostTime": "2008-10-15T12:47:23",
      "parentPostId": "3063732"
    },
    {
      "threadId": "5512560",
      "post": "Ik raad u toch niet aan het bij mij te proberen. Ik ben zeer allergisch aan mensen die denken dat het hun plicht is vreemden op te voeden. Zeker als ze daarbij zelf voor verkeersonveilige situaties volgen. :p",
      "time": "2008-10-12T07:24:29",
      "id": "3006072",
      "parentPost": "Yup.  Ik zorg ervoor dat ik genoeg afstand houd...",
      "parentPostTime": "2008-10-11T13:05:59",
      "parentPostId": "2997455"
    },
    {
      "threadId": "5463412",
      "post": "En daarmee was u comment #10.000, waarvoor proficiat en bedankt :D",
      "time": "2008-10-09T06:22:24",
      "id": "2957739",
      "parentPost": "Ik zou ook de factuur sturen ;-)",
      "parentPostTime": "2008-10-07T11:36:48",
      "parentPostId": "2915834"
    },
    {
      "threadId": "5458206",
      "post": "Fail-whale remains king, whatever they might try.",
      "time": "2008-10-07T10:17:47",
      "id": "2915446",
      "parentPost": "Ik voel me passé in mijn fail-whale-t-shirt :(",
      "parentPostTime": "2008-10-07T10:15:10",
      "parentPostId": "2915433"
    },
    {
      "threadId": "5417740",
      "post": "Ah, je doet me twijfelen. Buscemi kan inderdaad goed een psycho-profiel neerzetten, en hij zit in \"The Inner Circle\" van Burton dus ik zie hem met zijn karakterkop nog wel een rol krijgen. Maar \"lichamelijk geschift acteren\" blijft toch eerder iets voor Depp dan voor Buscemi. Hangt ervan af hoe ze de personages willen portretteren.",
      "time": "2008-10-06T11:18:29",
      "id": "2891112"
    },
    {
      "threadId": "5392815",
      "post": "Wel, ik weet dat nog niet zo. Tenzij het ABVV na de verkiezing ook veel volk is kwijtgespeeld ;)",
      "time": "2008-10-06T10:42:18",
      "id": "2890929",
      "parentPost": "@Clopin: Kan mis zijn hoor, maar volgens mij hebben de mannen van het ABVV niet op de tsjeven gestemd. ",
      "parentPostTime": "2008-10-06T10:33:23",
      "parentPostId": "2890884"
    },
    {
      "threadId": "5377352",
      "post": "De kraan die de grote kraan moest helpen afbreken was een mobiele die uit één stuk bestaat en dus snel weg was.",
      "time": "2008-10-06T10:26:06",
      "id": "2890854",
      "parentPost": "Dat levert wel een kip-en-ei-situatie op, niet?",
      "parentPostTime": "2008-10-06T10:13:40",
      "parentPostId": "2890556"
    },
    {
      "threadId": "4956158",
      "post": "Go ahead ;)",
      "time": "2008-09-25T04:54:58",
      "id": "2620607"
    },
    {
      "threadId": "4761539",
      "post": "Wow... thx :D \r\nHow is you btw?",
      "time": "2008-09-23T11:32:30",
      "id": "2539614",
      "parentPost": "Kerel, ik bewonder je levensdrift /-vreugde!\r\n\r\nFrom a brother...",
      "parentPostTime": "2008-09-19T19:54:38",
      "parentPostId": "2446132"
    },
    {
      "threadId": "4784286",
      "post": "Pas gewoon op voor die \"sharp rocks at the bottom\" ;)",
      "time": "2008-09-23T11:31:34",
      "id": "2539609",
      "parentPost": "So lief *blink blink*\r\nHet is hier wijs, nog geen watervallen gezien!  (keep u posted though!)",
      "parentPostTime": "2008-09-20T23:45:09",
      "parentPostId": "2503500"
    },
    {
      "threadId": "4760176",
      "post": "De boog kan niet altijd gespannen staan ;)",
      "time": "2008-09-23T11:31:06",
      "id": "2539603",
      "parentPost": "Weetje: Kim heette vroeger Tim. Sehr originell.",
      "parentPostTime": "2008-09-22T17:26:07",
      "parentPostId": "2522173"
    },
    {
      "threadId": "4634256",
      "post": "Dus ik ben hier lokaas voor de rest van de planeet ofwa? *slik*",
      "time": "2008-09-17T10:50:34",
      "id": "2396072"
    },
    {
      "threadId": "4377657",
      "post": "Weg met De Winter! Leve De Lente!",
      "time": "2008-09-16T14:39:42",
      "id": "2384876"
    },
    {
      "threadId": "4456475",
      "post": "Graag gedaan, uiteraard :)",
      "time": "2008-09-16T14:36:22",
      "id": "2384834",
      "parentPost": "goeiemorgen allemaal, bedankt voor jullie reacties.\r\n\r\n@Clopin, bedankt voor de publiciteit!\r\n@lamazone: dat klopt, de vragenlijst is bewust erg beknopt gehouden. Ik had ook veel liever veel meer details geweten, maar het was kiezen tussen een \"oppervlakkige\" survey met zoveel mogelijk respondenten, of meer in de diepte gaan en misschien een aantal bloggers afschrikken door de lengte van de vragenlijst.\r\n\r\nAls alles goed gaat, begint er binnen enkele weken een experiment te lopen. De conclusies van dit alles zal ik wellicht in de loop van januari kunnen vrijgeven.\r\n\r\ngroeten,\r\n\r\nTom Michiels",
      "parentPostTime": "2008-09-15T08:19:54",
      "parentPostId": "2357178"
    },
    {
      "threadId": "4631215",
      "post": "Je hebt wel een punt wat TV betreft, dat was inderdaad wat hoog gegrepen. Maar dat kwam uit het voorbeeld voort natuurlijk ;)",
      "time": "2008-09-16T14:35:54",
      "id": "2384831",
      "parentPost": "Ondertussen gehoord dat een oud ventje een 11-jarig meisje in de bosjes heeft proberen sleuren maar toen dat niet lukte is hij gevlucht. Er is uiteindelijk niets gebeurd maar dat meisje zal wel geschrokken zijn. \r\n\r\nWat VTM betreft: het voordeel van die sms'en is dat je dan geljik de telefoonnummer van mensen doorkrijgt als die een tip doorsturen dus. En ze verdienen er nog iets op ook. \r\nBij een krant zie ik dat nog wel gebeuren dat een lokale correspondent nieuws monitort op zijn regio maar TV niet. Er is sowieso al teveel nieuws voor hen, moest het nu omgekeerd zijn dan wel.\r\nMaar dan zou mijn job ook niet bestaan denk ik :-)",
      "parentPostTime": "2008-09-16T12:47:00",
      "parentPostId": "2383501"
    },
    {
      "threadId": "3712481",
      "post": "Euh, moet ik daar echt een eerlijk antwoord op geven? Because I don't think you'd like it...",
      "time": "2008-09-08T09:35:11",
      "id": "2227850",
      "parentPost": "\r\nZelf bestel ik mijn producten (Pre shave oil & shaving creame bij Baxter of California \r\n\r\nhttp://www.baxterofcalifornia.com/ \r\n\r\nOf The Art of Shaving products zijn ook prima . Verzenden gewoon via usps . \r\n\r\nWel even vragen of ze de tax er vanaf willen halen , dit betaal je in wel weer in de EU aan de koeriers bedrijf . ( Invoerrechten) \r\n\r\nWaarom grof in de buidel tasten voor UK brands als je ook fist class US merken hebt .\r\n\r\n\r\n\r\n\r\n\r\n\r\n\r\n\r\n\r\n\r\n\r\n\r\n",
      "parentPostTime": "2008-09-08T09:13:12",
      "parentPostId": "2227804"
    },
    {
      "threadId": "4088641",
      "post": "Bwa, gisteren \"maar\" tot 1AM gespeeld, dus het valt nog mee. Maar amuseren doe ik mij zeker en vast ;-)",
      "time": "2008-09-04T06:43:37",
      "id": "2102071",
      "parentPost": "En is het een leuk spelletje?\r\nNog tijd om blogposts te schrijven? :p",
      "parentPostTime": "2008-09-04T06:28:44",
      "parentPostId": "2101972"
    },
    {
      "threadId": "4066573",
      "post": "Ah, ohla, excuses! Blijkbaar gemist :)",
      "time": "2008-09-02T21:19:01",
      "id": "2018342"
    },
    {
      "threadId": "3753714",
      "post": "Wow die is ook wel enorm \"real\"!",
      "time": "2008-08-27T07:21:46",
      "id": "1864451",
      "parentPost": "Hahaha, marginaal...\r\n\r\nOh, en 'Seventies Andhi' op http://andhi.be/blog/jaarboek-jezelf/",
      "parentPostTime": "2008-08-27T07:09:59",
      "parentPostId": "1864422"
    },
    {
      "threadId": "3714249",
      "post": "Ik zal ervoor zorgen dat je er op tijd een hebt ;)",
      "time": "2008-08-26T07:49:45",
      "id": "1848031",
      "parentPost": "@Clopin: Merci alvast!\r\nBTW, waar is het verslagje van Portugal? ;) Ik vertrek zelf binnen drie weken en een paar tips zijn steeds welkom! Tis geen verplichting natuurlijk, zeker niet gezien je nieuwe credo, maar het zou geapprecieerd worden :)",
      "parentPostTime": "2008-08-22T07:44:47",
      "parentPostId": "1840992"
    }
  ],
  "profileInfo": {
    "username": "kevindemulder",
    "about": "Storyteller & BI Consultant from Antwerp, Belgium. Loves gaming and is a dad-to-be.",
    "name": "Kevin De Mulder",
    "disable3rdPartyTrackers": false,
    "isPowerContributor": false,
    "isAnonymous": false,
    "rep": 1.6717170000000001,
    "profileUrl": "https://disqus.com/by/kevindemulder/",
    "url": "http://www.kevindemulder.be",
    "reputation": 1.6717170000000001,
    "location": "Antwerp, Belgium",
    "isPrivate": false,
    "signedUrl": "http://disq.us/?url=http%3A%2F%2Fwww.kevindemulder.be&key=nmZIHBIp6thxwOkWDqyyLA",
    "isPrimary": true,
    "joinedAt": "2008-08-25T08:34:14",
    "id": "88597",
    "avatar": {
      "small": {
        "permalink": "https://disqus.com/api/users/avatars/kevindemulder.jpg",
        "cache": "//a.disquscdn.com/uploads/users/8/8597/avatar32.jpg?1425049819"
      },
      "isCustom": true,
      "permalink": "https://disqus.com/api/users/avatars/kevindemulder.jpg",
      "cache": "//a.disquscdn.com/uploads/users/8/8597/avatar92.jpg?1425049819",
      "large": {
        "permalink": "https://disqus.com/api/users/avatars/kevindemulder.jpg",
        "cache": "//a.disquscdn.com/uploads/users/8/8597/avatar92.jpg?1425049819"
      }
    }
  }
}