{
  "comments": [
    {
      "threadId": "4689434670",
      "post": "Yea, that's true. Thre's much more in ranking than just the word count.",
      "time": "2016-04-09T15:10:35",
      "id": "2614649434",
      "parentPost": "As far as SEO, short 800 words or long 1,500+ posts are fine.\n\nWhen I say that I see long posts ranking,, I believe they rank more because they are BIG websites, then ti is because it was a long post.\n\nI think long and short will rank equally, since there is more that goes into a post ranking than JUST the word count.",
      "parentPostTime": "2016-03-25T15:00:34",
      "parentPostId": "2588680990"
    },
    {
      "threadId": "4730402930",
      "post": "Thank you John. It's an honor to be included in your list. Loving Twitter more ;)",
      "time": "2016-04-09T15:07:41",
      "id": "2614645887"
    },
    {
      "threadId": "3828442044",
      "post": "I've used Pretty Links Pro and WP Auto Affiliate. In case of PrettyLinks Pro everything was fine. But recently I started to use WP Auto Affiliate. What is causing me problem is the URL structure. It does not let me choose the URL suffix. For example it display /go/1234/keyword. I wish to remove theat 1234 but it does not let me or I did not see the option anywhere. Any help will be highly appreciate.",
      "time": "2016-03-26T13:31:49",
      "id": "2590219014"
    },
    {
      "threadId": "806764389",
      "post": "That's awesome. Going to check each of them.",
      "time": "2016-03-16T03:06:56",
      "id": "2572081107",
      "parentPost": "Thanks Suresh! And you're right, I should update this article to link to others that are relevant. Here are a few:\n\nInstagram: https://www.thesocialmediahat.com/article/how-bloggers-can-leverage-instagram \n\nGoogle+: https://www.thesocialmediahat.com/article/6-ways-formatted-google-post-will-increase-engagement-and-interest\n\nBlog Promotion In General: http://www.thesocialmediahat.com/article/blog-promotionology-art-science-blog-promotion",
      "parentPostTime": "2016-03-15T14:38:43",
      "parentPostId": "2570839379"
    },
    {
      "threadId": "4547600651",
      "post": "Thank you for the summarized changes.",
      "time": "2016-02-05T01:22:25",
      "id": "2496824921"
    },
    {
      "threadId": "4507379741",
      "post": "Nice theme. I liked the Me theme on look. It looks simple but sober and elegant.",
      "time": "2016-01-21T12:29:13",
      "id": "2469819533"
    },
    {
      "threadId": "3694275657",
      "post": "लघुबित्तलाई सुनको अण्डा होइन भन्नु भन्दा पहिले किन यसलाई सुनको अण्डा भनेका थिए भन्ने बिचार गर्नु पर्ला । IPO मा आबेदन हाल्ने सबैलाई शेयर पर्छ भनेर भनेका हुन् र ?",
      "time": "2015-04-20T13:03:01",
      "id": "1977330748"
    },
    {
      "threadId": "3239822249",
      "post": "I'm lovin it. It's on my sites and works great to suggest related posts. I'm waiting to see if any sponsored posts appear in those boxes.",
      "time": "2014-11-26T03:24:29",
      "id": "1713091077",
      "parentPost": "Great to hear! We try to make the experience as full and as seamless as possible :)",
      "parentPostTime": "2014-11-24T15:10:54",
      "parentPostId": "1709862777"
    },
    {
      "threadId": "3168711430",
      "post": "Hi Jane,\n\nAdsense is proved the best monetization method in my case (though the niche makes is greater difference) because it is probably the only passive income stream for bloggers. Once you have a blog with good organic traffic, the monetizing is really easy and attractive. \n\nOther methods such as affiliates, selling your own products and so on really requires heavy work on your part.",
      "time": "2014-11-12T14:52:49",
      "id": "1689594011"
    },
    {
      "threadId": "2844305024",
      "post": "Very useful post. In my case I'm struggling to allow crawlers for the password protected pages. And at the same time, I wonder if it is of any use to display ads to my regular readers? They are smart enough to distinguish my content from adverts. Why would they ever click on ads?",
      "time": "2014-11-07T03:03:25",
      "id": "1680744662"
    },
    {
      "threadId": "3155382755",
      "post": "We've discussed this topic so many times but still you are successful to present it in such a nice and readable way. \n\nWhen you compose a title you have two different targets - attract your human readers and ease your search crawlers.\n\nSo it is always a good idea to have different page title and post title. Page title will appear in SERP while the post title is displayed on your blog for your readers.",
      "time": "2014-11-02T01:02:55",
      "id": "1666677896"
    },
    {
      "threadId": "3091617866",
      "post": "Hi Leena,\n\nThat sounds awesome trick. I wonder if Google crawls our Docs as HTML pages and follow the hyperlinks created that way?\n\nIt'll be wonderful till Google does not change the way it is handling docs, then :)\n\nthanks for the trick",
      "time": "2014-10-08T12:14:33",
      "id": "1625077376"
    },
    {
      "threadId": "3049506957",
      "post": "This is very useful post for anybody running blog with WordPress. Each plugin looks awesome. I'm using a few of these on my blog and the #2 Document Importer by Plugmatter and #4 PhotoDropper appear more important to me. \n\n\n\nI often love to compose posts in MS Word as it has many features (spelling, grammar, thesaurus and many easy formatting tools) but when I copy and paste, many of the tasks I need to redo. Document Importer would be really nice if it is light weight. Do you have any promo code or discounts for it?",
      "time": "2014-10-05T13:32:41",
      "id": "1620511977"
    },
    {
      "threadId": "3039935628",
      "post": "Truly awesome post and got an opportunity to learn many things here.  I specifically liked the links to the tools to check and analyze.  Also revisiting old posts and writing dedicated post for keywords you are already getting traffic is very worthy. Bookmarked this post. Thanks once again.",
      "time": "2014-09-25T03:40:25",
      "id": "1604701099"
    },
    {
      "threadId": "3015109608",
      "post": "Dofollow and nofollow links used to be a really hot discussion when Google SERP was heavily depended on number of links. Though Google now considers many other metrics, still the number and quality of links plays very important role in ranking any page in SERP.",
      "time": "2014-09-16T15:05:52",
      "id": "1591523353"
    },
    {
      "threadId": "1982220447",
      "post": "That's a good discussion with example and I truly like the illustrations. Pretty convinced that focus should change to the customers than to the self. Going to make some changes in my about page as well!",
      "time": "2013-11-22T06:29:57",
      "id": "1134094122"
    },
    {
      "threadId": "125469742",
      "post": "Sharing your won stories are really interesting to everyone and gets more engagement. Everyone is interested to reiterate your success or avoid themselves to fall in troubles if they know what causes it.\n\nHow to posts too are great and helps to build your authority quite soon. However, I agree to:\n\n\"Make sure the how to you write is on something you have a good amount of know how on, you don’t want to offer half ass info that will lead your readers in a negative direction.\"",
      "time": "2013-11-15T02:18:37",
      "id": "1123760604"
    },
    {
      "threadId": "1953819446",
      "post": "The plugin really looks great and even better thing is that it supports one of the popular mailing list service - Aweber. I was interested to know how many other services we can integrate and especially does it have MailChimp too?",
      "time": "2013-11-12T12:07:41",
      "id": "1119395865"
    },
    {
      "threadId": "1848971526",
      "post": "Hi Imran,\n\nCash prize giveaways are always interesting and now it is time you need to wish me good luck :D\n\nI'm in the contest and http://www.bugscore.com/profiles.php?profile_id=253161 is my BlogScore profile ID",
      "time": "2013-10-16T13:44:47",
      "id": "1084349637"
    },
    {
      "threadId": "1859899776",
      "post": "Hi Mike,\n\nIt's a good service reviewed in the best way. Love it.\n\nThe usefulness of any Ad network depends on how good the advertisers they have. I used a network of similar concept for my blog - nRelate. It is great that the widget is displaying related posts from my blog and till now I did not see any sponsored links appearing in widget. I guess it's time to jump to Nster now.\n\nIt's great that Nster supports most of the popular categories - Amazing, Celebrities, Dating, Digital, Entertainment, Fashion, Fun, Games, Health and Beauty, Home, Life and Family, Politics & Economics, Society, Sport & Fitness and TravelRead. Among these can we use 'Digital' for the kind of blogs we have. Which category you choose for your blog?",
      "time": "2013-10-16T02:16:20",
      "id": "1083913421"
    },
    {
      "threadId": "1861103899",
      "post": "Hi Mike,\n\nSuch a grand post for link shortner service of HootShoot. It is very educative and useful.\n\nHowever, I was expecting some discussion on the advantages of using HootShoot's shortner compared to other services like bit.ly.",
      "time": "2013-10-16T02:03:42",
      "id": "1083903763"
    },
    {
      "threadId": "1829507681",
      "post": "Hi Ankit and Bishal!\n\n\nGreat work by discussing about the beginning days of blogging and how to overcome stops. Ankit has really well explained how to excel in blogging in shorter time. I attach with you on emotions! Emotions are the ones that inspires me to make my blog better!\n\n\nIt's great that you've moved to full time blogging. I believe it will help you to bring your blog to next level soon and my best wishes for your success!",
      "time": "2013-10-06T13:27:43",
      "id": "1072442459"
    },
    {
      "threadId": "244471712",
      "post": "Hi John,\n\nTitle for any post is most vital as it invites to visit post but once they land it is your 'kick ass content' to make your blog popular.\n\nI agree social media and guest posting are great tools to boost your popularity. Thank you for the good suggestions.",
      "time": "2013-08-27T03:28:28",
      "id": "1018792351"
    },
    {
      "threadId": "1522833641",
      "post": "Hi Karan,\n\n\nIt is always better to have more revenue sources that to put all the eggs in one basket.  I'm using Adsense and Infolinks as third party advertisements and rest I depend on affiliate and direct ads.\n\n\nI used Chitika for some time but found it can't earn as much as Adsense for me. So, finally dropped it.BuySellAds has not yet approved my blog. I'll apply for it once again.",
      "time": "2013-07-23T14:15:44",
      "id": "973421151"
    },
    {
      "threadId": "700813756",
      "post": "Thank you John for the tips. Recently I noticed, the tweets and shares should be distributed over 24 hours. I was not using tools much and doing most of the shares manually, but I was missing the half of the day. The day before, I scheduled messages for the night shift and noticed significant traffic to my blog.",
      "time": "2013-07-22T00:06:20",
      "id": "971738497"
    },
    {
      "threadId": "46618230",
      "post": "That's perfectly fine John. It is often convenient to use the tools that's we've mastered. I preferred Chrome just because it is less memory hungry for my uses :)",
      "time": "2013-07-14T06:41:05",
      "id": "961553694",
      "parentPost": "Yea, I think Chrome has come a long way and I use it alot more now too. But I still use FF as my main browser. I think im just used to it and have it set up just the way I like, it's hard to leave it haha",
      "parentPostTime": "2013-07-13T12:59:30",
      "parentPostId": "960827573"
    },
    {
      "threadId": "148133697",
      "post": "Agreed with all of your points. Because the life span of tweets is too short, it is good idea to post in every 4 or 5 hours.\n\nAt the same time the title of post is really responsible to get clicks and drive traffic from twitter.\n\nVery effective tips.",
      "time": "2013-07-01T02:33:58",
      "id": "947540010"
    },
    {
      "threadId": "1095843839",
      "post": "Hi Sarah!\n\nIt is excellent discussion and when we already see the trends moving towards mobile browser, it's the right time to make sure if your blog is mobile friendly or not.\n\nBecause I'm having blog in WordPress, I tried various methods to turn the blog into mobile friendly. I tried with different plugins and services like duda but each plugin or online services fail to meet my expectations.\n\nFinally decided to change my theme itself to responsive themes. It will be much easy and effective if you have responsive themes for your blog. Now I'm glad with how my blog looks :)",
      "time": "2013-03-11T06:51:54",
      "id": "825307349"
    },
    {
      "threadId": "1101170998",
      "post": "That must be really a bad experience indeed.\n\n\nHaving domain name purchased for multi year obviously indicates that the site owner is serious about his blog and has a long term plan. We tend to buy and renew for one year only when we are testing (may be the registrar or the blog itself or the concept on which the blog stands), and as long as in experimental phase, nobody takes it for serious.\n\n\nThat was a good lesson Justin and I'm too going to renew my blog for multi years. My bivori.com is expiring next month.",
      "time": "2013-03-02T03:32:38",
      "id": "817098549"
    },
    {
      "threadId": "1104918239",
      "post": "In this dynamic world where everything is changing constantly, you can't stop studying to keep up with the change and try to improve. I agree to you that you’ll have more resources at your disposal to make your business a success, which increases your confidence along with your competitive edge",
      "time": "2013-02-27T13:20:47",
      "id": "814137085"
    },
    {
      "threadId": "1041203796",
      "post": "Privacy is often harder to maintain in Facebook. There are some mechanisms that you can tighten the 'who can see what', but I've faced some situations where I had no control. For example, if there is something you don't want to share publicly or let others know about it, but when you are discussing something else, any of your friend might pronounce it due to some context. Its better to use Facebook as professional means only, rather than sharing your personal stuffs!",
      "time": "2013-02-01T13:18:02",
      "id": "785721303"
    },
    {
      "threadId": "1053125080",
      "post": "This platform is very new. I guess it is suitable for those who need to share their good content without going through all the complex building and optimizing processes.",
      "time": "2013-01-31T01:54:53",
      "id": "783997653"
    },
    {
      "threadId": "1044485253",
      "post": "An awesome analysis of Google+. Why I am still with Facebook is because most of my friends and family have account there but if I share something in Google+, nobody sees it. \n\n\nThus, if Google+ is successful in bringing more people into its network, I hope Google+ will dominate in year to come.",
      "time": "2013-01-25T01:19:55",
      "id": "777407444"
    },
    {
      "threadId": "1001685719",
      "post": "It's fun and interesting to learn the tricks. I like the tilt one the most.",
      "time": "2013-01-21T13:53:27",
      "id": "773861034"
    },
    {
      "threadId": "974843683",
      "post": "Its working fine here Bashir. I guess you need to refresh after a few moments. Sometimes when internet connection is slow, it happens often.",
      "time": "2013-01-06T14:20:50",
      "id": "757773926",
      "parentPost": "I think punchtab.com is hacked, widget does not load here.",
      "parentPostTime": "2012-12-25T14:31:41",
      "parentPostId": "747293876"
    },
    {
      "threadId": "991253902",
      "post": "Thank you Shazida.",
      "time": "2012-12-26T05:27:53",
      "id": "747605653",
      "parentPost": "Nice to see you in blorner,com @Suresh Khanal",
      "parentPostTime": "2012-12-26T02:56:25",
      "parentPostId": "747574230"
    },
    {
      "threadId": "979034248",
      "post": "Hi Justin,\n\n\nThanks for the update but I wonder how and why shall I use it? Because they ventured into  developing an application for this purpose, they certainly have some planning behind. But right now, I don't think anyone will use it.",
      "time": "2012-12-18T12:09:31",
      "id": "741578479"
    },
    {
      "threadId": "948309753",
      "post": "Thank you Matt for the response.",
      "time": "2012-12-01T02:06:09",
      "id": "724389322",
      "parentPost": "Well simple answer is - you can't!\n\nYou can't control what anchor words people will use to link to you.  The fact that they are linking to one of your posts is usually the hard bit over, as at least that means that they want to share that information with others.\n\nWhilst you can't dictate what anchor text people will use, you can influence them.  Making your page titles clear and understandable will help.  Generally though, people will use relevant anchor text to what your post is about anyway, so I wouldn't worry too much about it.  As I say, getting them to link in the first place is the hardest part!  ",
      "parentPostTime": "2012-11-30T16:37:24",
      "parentPostId": "723865717"
    },
    {
      "threadId": "772369018",
      "post": "Thank you Aghosh",
      "time": "2012-10-05T12:36:30",
      "id": "672276065",
      "parentPost": "You can hire a web developer to make your blog theme responsive, or there are various WordPress plugins available to display a mobile optimized version of your site when viewed from a mobile device. Alternately, you can download and use one of the responsive themes available for WordPress.",
      "parentPostTime": "2012-10-05T04:48:29",
      "parentPostId": "671864932"
    },
    {
      "threadId": "381213916",
      "post": "Thank you John, it was a worthy pie. Needs to hang on a bit more on twitter. My followers remain constant for last couple of months and now its time to turn back to twitter again. Cheers!",
      "time": "2012-10-03T00:09:58",
      "id": "669176307"
    },
    {
      "threadId": "202992612",
      "post": "Its very handy and really useful!",
      "time": "2012-09-07T14:14:15",
      "id": "643319875"
    },
    {
      "threadId": "680940169",
      "post": "I use Webmaster tools very less often. The changes appear to be more meaningful. I hope it will be easier to tract the performance of keywords much better.",
      "time": "2012-05-08T23:36:25",
      "id": "523401483"
    },
    {
      "threadId": "658628102",
      "post": "Wow! It's a huge list of plugins anyone would ever need. The post is worthy enough to bookmark. Still, it wondered me that my favorite sharing plugin Get Social is not included in the list ?\nThanks Aritra for this wonderful post.",
      "time": "2012-05-07T02:53:03",
      "id": "521334729"
    },
    {
      "threadId": "588083492",
      "post": "That's awesome list of anti-spam plugins but I think it is not complete without mentioning GASP that is being used by most popular bloggers to stop automated spam comments.\n\nRecently I found a new plugin that claims to stop 100% automated comment with 0% false positive. I will publish a post about this plugin in my blog on Monday 23th April 2012.",
      "time": "2012-04-22T12:43:07",
      "id": "506069360"
    },
    {
      "threadId": "437801406",
      "post": "Hi Eric,\n\nVery useful tips. Using JavaScript and Flash sometimes can cause completely inaccessible and that's too for a navigation can be counter productive. I tried to use Facebook comments (though not navigation) and noticed that sometime they do not load at all. I can't expect users to refresh page to leave comment. So finally decided to enable WordPress native commenting system too. So, its better to make sure that your users are always getting what is expected.",
      "time": "2012-04-11T15:00:54",
      "id": "494355073"
    },
    {
      "threadId": "638931256",
      "post": "MarsEdit sounds to be a nice software. Because I'm on Windows machine, I use Windows Live Writer. Working with WLL is fine until I need to insert some features provided by plugins and has to land on dashboard. How is MarsEdit, don't you need to log in to dashboard and can complete the publish process solely from the app?",
      "time": "2012-04-06T14:08:49",
      "id": "488948154"
    },
    {
      "threadId": "623090751",
      "post": "Nice tips Ahmad! I have username seommotips, that's exactly 10 character. I guess I need to look for a bit shorter one.",
      "time": "2012-03-26T15:04:05",
      "id": "476453599"
    },
    {
      "threadId": "130132224",
      "post": "Great tools. Some are new to me and needs to check how well they can support my need. Thanks Justin for the useful post.",
      "time": "2011-12-08T15:36:53",
      "id": "382089998"
    },
    {
      "threadId": "490682421",
      "post": "I agree to most of your suggestions here but I'm bit confused about the two way links. Search engines allocate different value to every link based on how reputed domain it exists and how relevant the link is etc. Having two way link, won't it raise the search engine alert?",
      "time": "2011-12-02T14:15:52",
      "id": "377517665"
    },
    {
      "threadId": "439487457",
      "post": "Great collection. Most people don't give much importance to the footer but each of these are so inspiring.",
      "time": "2011-10-17T13:35:31",
      "id": "336610688"
    },
    {
      "threadId": "420661994",
      "post": "Thank you Jon for the update and thanks a lot Kimberley to share the post on G+. I understood the the change but wonder how it affects us the Adsense publishers? Is it going to improve the earning and Is there anything we can do to optimize so as to prepare this change?",
      "time": "2011-09-21T12:27:34",
      "id": "316602600"
    },
    {
      "threadId": "415743286",
      "post": "Interesting concept. Freebies do really help to build lists and backlinks. I will be testing this method as well.",
      "time": "2011-09-17T01:08:43",
      "id": "313622433"
    },
    {
      "threadId": "410958816",
      "post": "This is a great move in the direction to reduce international bandwidth consumption which is consuming huge Nepalese money. ",
      "time": "2011-09-11T11:25:34",
      "id": "307086931"
    },
    {
      "threadId": "401882830",
      "post": "hahaaa... funny. Intelligent analogies.",
      "time": "2011-09-02T04:18:12",
      "id": "300912554"
    },
    {
      "threadId": "401523088",
      "post": "That's very true. You've presenting all the facts about the benefits of SEO for online marketing. I was expecting some 'Hows\" too - something actionable, something doable that would help me add one brick on my wall.",
      "time": "2011-09-01T12:56:01",
      "id": "300338187"
    },
    {
      "threadId": "381800824",
      "post": "एकातिर हाम्रा ठूला प्रकाशन गृहको मानसिकता यस्तो छ । अर्कोतिर हाम्रा प्रयोगकर्ता पनि कम्तिका छैनन । त्यसमाथि पनि इन्टरनेटमा त कसैले थाहा पाउँदैनन् झैँ गरी जे पायो तेही लेखिदिन्छन् । अश्लिल बोल्नत कसैले रोक्नै सक्दैनन् । सुविधा उपभोग गरिरहेको बेला सभ्य र उत्तरदायी पनि हुन सक्यौं भने मानसिकतामा क्रमिक सुधार आउँदै जाला ।",
      "time": "2011-08-10T05:05:59",
      "id": "281948719"
    },
    {
      "threadId": "363866768",
      "post": "Google+ has great features and appears promissing. But still, there not much of my friends connected yet makes google+ uninteresting. Hope it will be great experience in future.",
      "time": "2011-07-21T05:29:00",
      "id": "259438695"
    },
    {
      "threadId": "298617435",
      "post": " It is a great looking theme but I wonder if anybody can use the name 'Facebook'? Is it not against trademark?",
      "time": "2011-05-08T23:48:30",
      "id": "199916375"
    },
    {
      "threadId": "179768428",
      "post": " Because Alexa is based on the its toolbars I wonder how correctly it displays the traffic ranking. I don't understand why its so important for bloggers and why advertisers look for it!",
      "time": "2011-05-07T09:41:19",
      "id": "199166957"
    },
    {
      "threadId": "294140819",
      "post": "Here I entered John. Best wishes!",
      "time": "2011-05-05T02:38:17",
      "id": "197268196"
    },
    {
      "threadId": "293973200",
      "post": "I agree Leo. There is not much harm in showing the real numbers than to develop disbelief among its users.",
      "time": "2011-05-05T00:33:46",
      "id": "197206057",
      "parentPost": "Wow, what a great and compelling post Jesse, you are absolutely right with this. It is a fear I am carrying around for quite a while now. What I really don't get is why Twitter doesn't think they are better of showing everything openly.\n\nThey have 230 million accounts and only 30 million active. So what? Why not say this openly to the public. I think transparency has only one in the past and it is time for Twitter to show more of that.\n\nLet me Buffer this and follow you on Twitter, great thoughts here! ",
      "parentPostTime": "2011-05-04T23:55:08",
      "parentPostId": "197191252"
    },
    {
      "threadId": "289896489",
      "post": "Ahh! Nice improvements. Buffer is growing more loveable!",
      "time": "2011-04-28T06:26:18",
      "id": "193179854"
    },
    {
      "threadId": "285915566",
      "post": "This time, I can see few more new sources of knowledge. Looking around my plugs and wires to connect to them.",
      "time": "2011-04-22T23:27:50",
      "id": "190353619"
    },
    {
      "threadId": "282424441",
      "post": "Blogging essentially is a tool that drives traffic towards your website to do some business. And you have well explained it here.\n\nEffective SEO, high quality content and good use of social networks are best method to drive traffic. Agreed with you.",
      "time": "2011-04-19T10:22:03",
      "id": "187480633"
    },
    {
      "threadId": "282373343",
      "post": "Great move Joel and Leo. Buffer is leaping with stronger feet. Allowing unlimited time slots there will be less need to buy bigger buffer size. How do you plan to monetize?\n\nBTW, I am anxiously waiting for the WordPress plugin, when can we expect it?",
      "time": "2011-04-18T14:48:58",
      "id": "186931436"
    },
    {
      "threadId": "274515215",
      "post": "Great people to connect to. I wish you had that small plugin that displayed a follow link when hover and I could follow directly from this page.\n\nOh! happy to see Ileane is listed on your selection. She is everywhere - REALLY!",
      "time": "2011-04-08T12:45:43",
      "id": "180842841"
    },
    {
      "threadId": "272548637",
      "post": "I love your posts and the ease with which it flows. I feel like I'm listening you and you are at front speaking gently with soft voice. It was really an inspiring post and will help a lot of beginning bloggers to be prepared to face the approaching failure. Be prepared to fail many times and don't walk away. I love the message. True!",
      "time": "2011-04-08T02:16:50",
      "id": "180475700"
    },
    {
      "threadId": "272523539",
      "post": "Hi Griddy!\n\nThanks to the Twitter and you are a good tweeple!\n\nI'm Suresh Khanal from Nepal. I blog at http://seommotips.com and very excited to get your guide. I believe it will be worthy and useful for all bloggers.\n\nOhhw! Posting Schedule? I don't have any fixed day to publish. There is a series post FridayGems where I list the great posts I'm gone through the week - that's on Friday obviously, except that, I hit Publish when I finish any post.",
      "time": "2011-04-06T14:05:55",
      "id": "179073759"
    },
    {
      "threadId": "271794739",
      "post": "Hi, it is exactly as I wished and it would be even greater when count too are incorporated.\n\nYou should provide two buttons at least so that it can be integrated with Share bar. This bar turns to small icon horizontal when screen width is smaller and vertical at the side when screen width is sufficient. So if there are two buffer buttons, I could plug it directly in into Sharebar.\n\nI'm loving bufferApp.",
      "time": "2011-04-06T00:45:09",
      "id": "178830331"
    },
    {
      "threadId": "262833083",
      "post": "Thank you John for the mention and thank you for introducing with REAL bloggers! I liked to see myself on list ;-)",
      "time": "2011-03-25T23:15:29",
      "id": "171992157"
    },
    {
      "threadId": "261140339",
      "post": "I'd read about Buffer for the first time in Ileane's blog Basic Blog Tips where Leo made a guest post. I immediately registered for bufferapp and using it since then. But there is still more to dig and determine when to make my buffer tweets to dispatch.",
      "time": "2011-03-23T15:45:12",
      "id": "170138337"
    },
    {
      "threadId": "261087938",
      "post": "hi John,\n\nThanks for revealing your process of writing blog posts. Each have their own ways and learning other's ways certainly help to improve. Many suggest to write the post first and then think about the title, but you do just the reverse. I guess deciding title and objective before beginning posts makes it easy to consider SEO while developing post.",
      "time": "2011-03-23T14:59:38",
      "id": "170117058"
    },
    {
      "threadId": "257290324",
      "post": "It was for some time I was away of Blogging and now the whole world appears to be pretty new! Wow! will have to make more friends. \n\nHappy weekend John!",
      "time": "2011-03-18T12:44:01",
      "id": "167585621"
    },
    {
      "threadId": "247564721",
      "post": "You are very right. Just blogging is not opening door for the flood of money to enter into your bank account.\n\nI believe, you should be generating some value to sell. And if you have there are various tools to promote your product and do your marketing effectively. Blogging can be a great tool for this purpose. When you have a good product and a good blog, I believe there can be a stream of money flowing towards you.\n\nThat's why, I'm preparing to create a service that can be sold. I'm trying to build up a community, tools and resources that would let me help the candidates of computer operator exam.  When I can develop some credibility, I can sell my service through the blogs and other online tools. That way, I guess, will bring some money.\n\nI don't know much about western world and don't know what 'earning money from blog' means. But for our part of world even the money earned through the advertisements such as Adsense and selling links in websites can be a considerable amount of money. $500 a month is a good money in our market and that is quite attainable if you work good.",
      "time": "2011-03-09T01:18:51",
      "id": "162753508"
    },
    {
      "threadId": "172179118",
      "post": "That's a great list of posts and a true proof of how worthy blogs you've been through.  Let me check some that missed now.",
      "time": "2010-11-14T02:09:19",
      "id": "96987522"
    },
    {
      "threadId": "169196986",
      "post": "Enjoyable collection of Net-Slangs.\n\nHey that WTF is much more decent than its acronym. ;-) Love you.",
      "time": "2010-11-13T01:43:28",
      "id": "96763053"
    },
    {
      "threadId": "165764926",
      "post": "I was just confused with Unique visits? I counted all those who are not returning visitors are unique visitors and you've just reversed my understanding. Thank you John!",
      "time": "2010-11-12T16:31:11",
      "id": "96568436"
    },
    {
      "threadId": "170031095",
      "post": "How interestingly you put forward the things. I envy the way your write. You've lovely excuse for smoking too :-)",
      "time": "2010-11-10T14:11:04",
      "id": "95878093"
    },
    {
      "threadId": "169326645",
      "post": "Hey Tim,\n \nWow! I got the answer here! Alex was asking about this mystery through a comment in my recent post and I thought something similar but never knew it. Oh! There are some tools that will let you follow and unfollow automatically!\n\nThat should be the reason why we call number of followers is not what matters in twitter but the number of RTs. Network is certainly for interaction. \n\nThank you for this great post.",
      "time": "2010-11-09T10:11:42",
      "id": "95342710"
    },
    {
      "threadId": "161488225",
      "post": "Thank you for the response. I'm just started and my blog is hardly one and half months. I'm scared if I could have some of your interest.",
      "time": "2010-10-25T11:13:02",
      "id": "89790948",
      "parentPost": "Thanks Suresh,<br><br>By your thoughtful comment I get a great sense of accomplishment in that the post has accomplished it's task, and that is to encourage reader engagement.<br><br>Not only that, but as a side event and added benefit, I have checked out your blog, so you have gained traffic.",
      "parentPostTime": "2010-10-25T08:26:54",
      "parentPostId": "89776090"
    },
    {
      "threadId": "158058824",
      "post": "Thank you for spreading the word, would like to see the progress. hope you'll keep informing the development and your judgement.\n\nOh you forgot those 125 ads on your right bar? How are they performing?\n\nI've not started to monetize my blog yet. Looking for some methods but I don't feel it good with Kontera type of in-text-ads.",
      "time": "2010-10-25T01:10:06",
      "id": "89729217"
    },
    {
      "threadId": "159714208",
      "post": "Yes, this is a valid discussion. Retweeting the tweets from somebody whom everybody else has already followed is increasing the noise only. But I don't think about unfollowing them. Its Okay you don't retweet those messages as it is obvious lot others will already, but who knows when something really enjoying content flows down!\n\n10 or more tweets of same message, I think, is due to automatic retweeting via the services like hootsuite. People tend to believe that the tweets from these great sources must be interesting to the followers as well so they automatized the tweet. Thus it flows down to all followers even without the notice of who directed that tweet. I don't like this.\n\nI agree with you, there is not much value to RT from those people who already have all of the tweeter people as their followers.",
      "time": "2010-10-25T00:59:16",
      "id": "89722848"
    },
    {
      "threadId": "159724307",
      "post": "Great share John. Twitter is a tool and don't let tool work you!\n\nI'm happy with whatever twitter offered me. I'm growing followers consistently without twitting those nonsense 'follow me will follow you' nor those 100s instant followers sort of thing.\n\nTwitter conversation is a good metric. Thanks for pointing that. I've started to notice who are worthy for me. I realize, Twitter is not just to tweet your psots.",
      "time": "2010-10-24T02:24:05",
      "id": "89549903"
    },
    {
      "threadId": "158099812",
      "post": "Thanks a lot for answering my queries through Twitter. You are very helpful.\nBTW, I updated Windows Live Writer too. Newer bit more better. I can now directly insert image from web.",
      "time": "2010-10-19T02:44:07",
      "id": "88084363",
      "parentPost": "Suresh.,..Glad the post was helpful.  Quantcast is a monster tool if you know how to use the info you get.",
      "parentPostTime": "2010-10-18T15:40:01",
      "parentPostId": "87875156"
    },
    {
      "threadId": "157136864",
      "post": "Trying to catch up present and wondered with all these developments that big bloggers are observing. Thanks Jim for this WorldExpo, brought lot for us who could not participate.",
      "time": "2010-10-17T10:30:21",
      "id": "87581083"
    },
    {
      "threadId": "153227965",
      "post": "I read Gera from sweet foods blog this morning and whe was discussing to break the rules for better blogging effects. Your all tips are great and most effective, what about adding some rule breaking tips?\n\nI often work very less for excerept. I realize, this is most important to get click through. I must work better. You've pointed it out very correctly.",
      "time": "2010-10-16T10:23:22",
      "id": "87384222"
    },
    {
      "threadId": "153025143",
      "post": "That's great, it appears I'm too old to use disqus when lot of changes already went by Or it might be because I used it with blogger blog that time could not realize full range of benefits. This discussion is fruitful as I am cleared off from those misconceptions regarding disqus. If comments are visible to search engines and lets people network, it's great! Nothing to worry!",
      "time": "2010-10-16T00:21:12",
      "id": "87324692",
      "parentPost": "I'm not doing anything special with Disqus. It automatically syncs with your WordPress database, so I don't see any disadvantage in that department.\n\nRemember that thanks to Disqus, anyone can click on your avatar and read your comments on other blogs! I can see that you are very knowledgeable in WordPress and contribute regularly to blogs on the topic, and that people find your comments helpful. Good to know, don't you think? :)\n\nWPP and YARPP have similar flexibility, but they all go way beyond my needs. While it sounds like Rob Marsh's plugins do some great things, I prefer to stick with the most popular options that are regularly updated.",
      "parentPostTime": "2010-10-15T15:30:32",
      "parentPostId": "87186056"
    },
    {
      "threadId": "156547949",
      "post": "It is a nice post covering almost all of the aspects of a web design. While picking up a theme I just look for a neat and suitable post area accompained with some visible navigation and small area for some ads. Hope this won't violate simplicity/complexity relation. \n\nBecause everybody can throw a website in minutes these days, content has became even more important. Now it is only good posts your blog will survive, that you have proved here!",
      "time": "2010-10-15T12:04:43",
      "id": "87144345"
    },
    {
      "threadId": "156611378",
      "post": "That would be lot enjoying. Waiting for it.",
      "time": "2010-10-15T11:20:28",
      "id": "87138472",
      "parentPost": "LOL - Thanks, Suresh. Glad you enjoyed the post.\n\nThere is so much going on here, I'll be posting about @bwe10 for a while yet. :-)",
      "parentPostTime": "2010-10-15T11:14:46",
      "parentPostId": "87137876"
    },
    {
      "threadId": "154788391",
      "post": "Twitter will nicely monetize its service to drive in huge profit. I doubt if it would be that targetable to adwords or rather facebook. Facebook collected the most personal, demographical and geographical data making it possible to pin point the targetted group. Lets see how it eveolves.",
      "time": "2010-10-12T06:25:53",
      "id": "86116054"
    },
    {
      "threadId": "154536358",
      "post": "Thank you for the quick response. BTW,could you please delete that last line of second last paragraph if you don't allow the link to the post and discussion. That sentence sounds odd there when links are removed.",
      "time": "2010-10-11T14:57:12",
      "id": "85925794",
      "parentPost": "Suresh..TY for the comment.  I see this all the time, that is why I chose to write about it. All bloggers writing the same stuff doesn't help the blgshere at all.  I think newbie bloggers would do very well to not just re-say what other bloggers have said recently, even worse is to write on a topic that was written so much better by another blogger.. Big Mistake.\n\nI'm glad you enjoyed the post.. hope it helps.",
      "parentPostTime": "2010-10-11T14:06:47",
      "parentPostId": "85912838"
    },
    {
      "threadId": "150959932",
      "post": "Make money blogging takes hard work - yes - because you are everyting\n\n- you are a producer (great content, utilities, your own product)\n- you are the marketter ( go tell everybody what you have)\n- you are the distributer\n- you are the propritor\n- then you are a blogger\n\nWe on the third world have relative benefit on online earning due to the differences in currency conversions. Even a few hundreds dollar per month means a lot money to our market and life style. This must be the reason, more and more people are attracted to blogging and some are doing really good.\n\nThanks for the great post. You're always pointing to right direction.",
      "time": "2010-10-09T07:53:08",
      "id": "85446181"
    },
    {
      "threadId": "152291353",
      "post": "It might not be censorship trentrampage, but decency. How often I need to search on google when my daughter is at my side?",
      "time": "2010-10-08T02:17:39",
      "id": "85097512",
      "parentPost": "wow. i thought Google is AGAINST internet censorship? why censor when they can just simply REMOVE the annoying google instant?",
      "parentPostTime": "2010-10-07T10:02:34",
      "parentPostId": "84850227"
    },
    {
      "threadId": "152543349",
      "post": "The traffic through Yahoo to my blog is negilgable, so it will hardly make any difference to me. Wish its success but I guess Google is not going to leave the ground yet for some time.",
      "time": "2010-10-07T09:03:58",
      "id": "84839992"
    },
    {
      "threadId": "147435048",
      "post": "Aah! you made me feel that I'm doing a good start? Consoled!",
      "time": "2010-10-06T14:51:52",
      "id": "84597152",
      "parentPost": "You're right, often it's the small adjustments that do the trick. Glad to see you make a move as well. I've been looking a little closer at SEO these days so I'll be visiting for sure. :-)",
      "parentPostTime": "2010-09-29T01:33:05",
      "parentPostId": "81847307"
    },
    {
      "threadId": "149656227",
      "post": "Wish you a great success - which is a sure shot - of your new blog. Glad to find lot more resources from Jimmi!",
      "time": "2010-10-06T14:48:43",
      "id": "84596562"
    },
    {
      "threadId": "151247854",
      "post": "Ahh! I was always busy with that HootSuite when there were lot other valuable tools! Thanks for the nice info about them.",
      "time": "2010-10-06T06:09:10",
      "id": "84528301"
    },
    {
      "threadId": "150138328",
      "post": "Never thought on this aspect that PR can be the factor responsible even for indexing. Nice post and thanks a lot for sharing. We shoudl better focus on deep level link building.",
      "time": "2010-10-05T15:23:25",
      "id": "84313779"
    },
    {
      "threadId": "146879281",
      "post": "Welldone Bharati. It was an excellent post and lovely reading.\n\nJames Joyce once said regarding his power to create and develop character in his fiction - he is the writer, he can create whatever character he wishes, develops them but can he do anything to his characters? Will they survive among readers if he plays with characters with unjustice?\n\nSearch engines can and might get tempted with huge monetary benefits to include as much sponsored results than organic. But the theory of natural selection will throw the  'new directories' out and welcome the born of some new service that quenches thirs of information quest. Who knows what will Google, Bing, Yahoo become tomorrow. They will balance and adapt to the change or will become dinosaures.\n\nAah! the instant search and touch screens! God solve the riddle sooner!",
      "time": "2010-09-30T14:06:46",
      "id": "82372122"
    },
    {
      "threadId": "136707810",
      "post": "Finding right images for posts is really hard work Jimi and on top of it the licence issues should be respected. I was using corbisimage and thank you very much for adding more resources.",
      "time": "2010-09-30T01:33:43",
      "id": "82231717"
    },
    {
      "threadId": "140164930",
      "post": "This post is bit too technical for a simple man like me? But I guess being informed about design technicalities will help me choose better themes and templates. The concepts looks attractive and hope the people when designing scripts will follow such technique.",
      "time": "2010-09-30T01:25:22",
      "id": "82227156"
    },
    {
      "threadId": "147876452",
      "post": "Hi Jimi, best of luck for the contest. I wish you get most votes and win it. If you have already posted the article on blogengage, it would be better to update this post including the links of the posts. Easier for us to vote you!",
      "time": "2010-09-29T00:33:58",
      "id": "81807011"
    },
    {
      "threadId": "89184140",
      "post": "Hey! love you for this post. I just downloaded and installed on my blog too! Hope I'll get some likes ;-)",
      "time": "2010-09-29T00:08:37",
      "id": "81801622"
    },
    {
      "threadId": "145339321",
      "post": "Wow! Nice spiritual post!\n\nPhilosophically, yes, its me, no any other person can make me feel happy or annoyed. If I don't get angry how others can make me angry? But Ryan, If I skipped and let them do by what they aroused my anger, they'll grow even more and tomorrow will heart even worse. One slap at their face will make my tomorrow smoother. Why not to bring things down to its size if they are oversized?",
      "time": "2010-09-22T12:57:07",
      "id": "80030628"
    },
    {
      "threadId": "143157138",
      "post": "You developed this post as a checklist and its great useful. Though it is short, its condensed, this delivers lots content with little time. I liked it and vote on BlogEngage, Buzz, Stumble and Tweet!",
      "time": "2010-09-22T12:41:45",
      "id": "80027373"
    },
    {
      "threadId": "143456753",
      "post": "I don't know what the people fret over but PageRank still reflects the link popularity of a blog as Alexa is giving some hint on traffic. Do the knowledge of linking of a blog informs nothing?\n\nYou are true when pointing the PR update is not frequent so unable to reflect present status. It can be taken as trend,  how a site is doing.\n\nReduction to ZERO is something difficult to understand and it should not be unless somebody is penalized.\n\nThough it doesn’t mean it’s useful for you as a site owner, what about the advertisers and other monetization efforts?",
      "time": "2010-09-20T02:59:41",
      "id": "79384685"
    },
    {
      "threadId": "142683445",
      "post": "I'm so excited to find Imran here! I always say him, \"Your content is great and because content is King, you are the emperor\"!\n\nThanks for bring me in light of these greater bloggers. There is lot to learn from them!",
      "time": "2010-09-17T01:17:51",
      "id": "78370954"
    },
    {
      "threadId": "141124618",
      "post": "OKYE! I updated my twitter profile after reading your post. Thanks to your post that reminded me to update URL to my recent blog. I did not noticed that I was using the old one!",
      "time": "2010-09-15T15:11:08",
      "id": "77793304"
    },
    {
      "threadId": "118512247",
      "post": "All of the icon packs are so nice, it is impossible to pick any one out. Which one should I use?",
      "time": "2010-09-12T01:21:13",
      "id": "77004330"
    },
    {
      "threadId": "98117323",
      "post": "Thank you for the great share of useful plugins. Infact you've revealed your experience using these plugins. I am most importantly interested with 'Comment Redirect' It is indeed a good work.",
      "time": "2010-09-11T14:42:28",
      "id": "76911955"
    },
    {
      "threadId": "137637949",
      "post": "I agree to prune everything else except the most important area where you want to mark your presence. Spending little time in many places makes you of nowhere. \n\nIt was a nice reading Jimi. Wish you good luck.",
      "time": "2010-09-05T09:28:55",
      "id": "75206820"
    },
    {
      "threadId": "92868959",
      "post": "Using bookmarklet is much easier though, I have not yet seen good use of this feature. Is it for SEO benefits or is it to allow Twitter to gather data and make further analysis, compared to screenshot of tweet that we were using traditionally? We could use alt tag and title tag to cope up the SEO benefit. If it is to help twitter, do you really think so?\r\n",
      "time": "2010-05-12T15:10:44",
      "id": "49904245"
    },
    {
      "threadId": "93993753",
      "post": "Honesty, I guess, is the only source of credibility of any site. When we realize that this trend is increasing and overshadowed the blogging world, should we not conclude the level of honesty in our world diminished! \nBut there is Nature that balances and throws the filthy garbages aside and ensures the purity of mainstream. I believe this is natural course.\nHey! I love your last line - no one likes to crawl through a rabbit hole which leads to a chopping board. This is only what everybody needs to think before overdoing.",
      "time": "2010-05-11T02:35:48",
      "id": "49446287"
    },
    {
      "threadId": "24327533",
      "post": "I liked the way you defined Niche market with such illustrative example. I do not dare to blog on make money online as it is too competitive and feels dishonest to write about something which I have not achieved yet.",
      "time": "2010-05-08T14:38:27",
      "id": "49087184"
    },
    {
      "threadId": "49755680",
      "post": "Installed Wordpress and shifted my blog from blogger platform. The rest of the tips you have pointed out, I found I'm using them. Its OK. But I'm bit unaware with ping services yet. I found one of the ping url set default on wordpress installation. Could you please share your recommeded ping services?",
      "time": "2010-04-03T02:04:40",
      "id": "42968460"
    },
    {
      "threadId": "81955473",
      "post": "This sounds to be an \"the other world story\" for them who live in developed countries. Anyway it was pretty interesting though.\r\n\r\nWe aren't in different situation here in Kathamandu even when we are facing an 18 hour a day load shedding. Your tips are still useful even in Kathmandu. That is how I'm blogging from here.\r\n\r\nI guess you wrote my story on your post.",
      "time": "2010-04-03T00:16:28",
      "id": "42956226"
    },
    {
      "threadId": "79928008",
      "post": "This is another avenue on blogging world. Till now I got a few link requests to publish on my educational website and have never requested to anyone. I'm still learning the potentials of link building opportunities.",
      "time": "2010-03-30T13:53:54",
      "id": "42272949"
    },
    {
      "threadId": "79175900",
      "post": "Write your headline last\r\n\r\nThis is a great advice. I was writing title and developing content based upon the headline. I'll be following this!",
      "time": "2010-03-25T07:50:08",
      "id": "41499947"
    },
    {
      "threadId": "130812212",
      "post": "Well, the blog appearance now is much more managed and looks great professional. The related posts plugin fits so sexy below the post. I found a lot to learn from you about what goes where. ",
      "time": "2010-03-21T23:38:16",
      "id": "40930118"
    },
    {
      "threadId": "1254616",
      "post": "Nope! there is nothing to install if you can browse internet, you have everything.",
      "time": "2010-03-09T08:47:10",
      "id": "38651274",
      "parentPost": "I have problems with opening blogger. Therefore I cannot open my blogger settings. Is there something I need to install for blogger to work right?",
      "parentPostTime": "2010-03-08T02:07:07",
      "parentPostId": "38488798"
    },
    {
      "threadId": "64371586",
      "post": "Your article is really inspiring and influential. Read every words you jotted down.\n\nBUT a post a day is bit more for me for now. This suggestion better applies for full time bloggers? For some times I'll be working on one major post a week SundayPost and occasional posts throughout the week.",
      "time": "2010-02-10T09:03:20",
      "id": "33372719"
    },
    {
      "threadId": "55485389",
      "post": "Great article, very well written and well managed.\n\nI come to notice that twitter is going to be most important for any SEO, yet more in coming days. Google has started to display real time data from twitter and its gaining more popularity than facebook.\n\nThanks for this great article. I've twitted, shared on my Facebook too!",
      "time": "2010-02-03T02:29:30",
      "id": "32441992"
    },
    {
      "threadId": "62388755",
      "post": "Pretty convincing.  Your 'Reciprocal persuasion\" inspired me to write a post on my blog. I wish you'll have a look at it. http://www.icttrends.com/2010/01/what-goes-around-comes-around.html",
      "time": "2010-01-31T03:02:51",
      "id": "32185704"
    },
    {
      "threadId": "62548298",
      "post": "What can I say anything on these great links you have listed.Thank you for sharing and helping me to navigate through.",
      "time": "2010-01-30T03:08:07",
      "id": "32114000"
    },
    {
      "threadId": "60076583",
      "post": "I would like to have Sharing Wealth than to have 'Sharing is Sexy' Does anybody know how to ?",
      "time": "2010-01-28T09:15:38",
      "id": "31780921"
    },
    {
      "threadId": "61543325",
      "post": "\"Don't open a site you won't show your mother'!!!!!!\n\nWhat an excellent way of suggesting. Powerful. Its extreme powerful and I salute!\n\nAnd a good workaround you mention here 'To use VPN'\nI'll be waiting for you coming post on this think. Hope you'll certainly write more about VPN.",
      "time": "2010-01-26T13:38:22",
      "id": "31371891"
    },
    {
      "threadId": "17645937",
      "post": "I'm just exploring tweetie so right now can't say anything. Hope this will be of great use.",
      "time": "2010-01-16T07:54:49",
      "id": "30031054"
    },
    {
      "threadId": "58094209",
      "post": "Yes it worked for me. After one day, I have 115 followers.",
      "time": "2010-01-13T16:15:54",
      "id": "29635662"
    },
    {
      "threadId": "57425750",
      "post": "That's very correct.\nNow when we are aware of the facts, we need to know the ways out. I've wasted many long hours and days trying to promote my website in wrong ways. Googling for information and trapped in the business sites whose sole intention is just to pull dollars from your pockets or make you donkey - work, work and work - in return 2-5 hardly available visits to your own sites. Moreover there is no need to talk about the traffic quality.",
      "time": "2010-01-12T08:41:24",
      "id": "29480918",
      "parentPost": "Some good points here, any endeavor requires energy to create the project and energy to promote. As you mentioned, the best content is useless if no one sees it. It's ver important to use both creative time and promoting time productively.",
      "parentPostTime": "2010-01-12T00:59:44",
      "parentPostId": "29442392"
    },
    {
      "threadId": "1827749",
      "post": "Yes, you were right. Now Fujitsu laptop uses USB3.0\n\nNow the concern raises that I have recently purchased my laptop and its going to be old very soon. Now I'll be always be willing to buy one with USB 3.0",
      "time": "2010-01-10T02:50:37",
      "id": "29242167"
    }
  ],
  "profileInfo": {
    "username": "shkhanal",
    "about": "A part time blogger loves to talk about blogging, search engine optimization, online monetization and build up a nice helpful community.",
    "name": "Suresh Khanal",
    "disable3rdPartyTrackers": false,
    "isPowerContributor": false,
    "isAnonymous": false,
    "rep": 1.297064,
    "profileUrl": "https://disqus.com/by/shkhanal/",
    "url": "http://bivori.com/",
    "reputation": 1.297064,
    "location": "Kathmandu, Nepal",
    "isPrivate": false,
    "signedUrl": "http://disq.us/?url=http%3A%2F%2Fbivori.com%2F&key=xkZLkLus4RBgUD90vfvByQ",
    "isPrimary": true,
    "joinedAt": "2008-07-31T09:47:33",
    "id": "73741",
    "avatar": {
      "small": {
        "permalink": "https://disqus.com/api/users/avatars/shkhanal.jpg",
        "cache": "//a.disquscdn.com/uploads/users/7/3741/avatar32.jpg?1460214636"
      },
      "isCustom": true,
      "permalink": "https://disqus.com/api/users/avatars/shkhanal.jpg",
      "cache": "//a.disquscdn.com/uploads/users/7/3741/avatar92.jpg?1460214636",
      "large": {
        "permalink": "https://disqus.com/api/users/avatars/shkhanal.jpg",
        "cache": "//a.disquscdn.com/uploads/users/7/3741/avatar92.jpg?1460214636"
      }
    }
  }
}