{
  "comments": [
    {
      "threadId": "374680361",
      "post": "Es increible que insistan en vender por internet algo fisico como un CD....\nQue les avisen que el formarto se murio... o que los vendan junto con vinilos y magazines...\n\n\nDespues se quejan que los pirateen... no proponen alternativas digitales...",
      "time": "2011-08-02T16:27:09",
      "id": "274701367"
    },
    {
      "threadId": "202817207",
      "post": "LOL!\r\nGracias! \r\nSiempre hay que optimizar el costo de oportunidad\r\n\r\n\r\n\r\n\r\nAriel Arrieta\r\n54911 5719 5511\r\n\r\nSent from my iphone 4 sorry for the typos!",
      "time": "2011-01-16T20:23:49",
      "id": "129796758",
      "parentPost": "Si necesitás laburo avisame.",
      "parentPostTime": "2011-01-16T03:46:13",
      "parentPostId": "129610854"
    },
    {
      "threadId": "9783954",
      "post": "Thank you !\r\nYes i think so, it's a classic lesson, like Kottler for marketing or\r\nDruker for management\r\n\r\nSent from my iPad",
      "time": "2010-10-22T13:00:24",
      "id": "89074670",
      "parentPost": "This post is so old now, but still so relevant. ",
      "parentPostTime": "2010-10-22T09:10:59",
      "parentPostId": "89043890"
    },
    {
      "threadId": "90594582",
      "post": "Juntemosnos y vemos que podemos hacer...\r\n\r\nEl 22/06/10, Disqus <> escribió:",
      "time": "2010-06-27T23:11:47",
      "id": "58876770",
      "parentPost": "Ariel, nosotros hemos visto tb esa oportunidad en latam y hace ya un par de años que estamos con nuestra plataforma de inteligencia artificial híbrida dando servicio a marcas de primera línea.\nTe invito a que visites nuestro slideshare, adonde encontrarás info que seguramente te resultará interesante.\nhttp://www.slideshare.net/ikensolutions/presentations",
      "parentPostTime": "2010-06-22T21:32:11",
      "parentPostId": "58111521"
    },
    {
      "threadId": "85705274",
      "post": "El tema no es competir con Facebook.esa carrera no la van a ganar, estas redes sociales tienen millones de usuarios, el tema es que mas pueden ofrecerles y como lo monetizan.\r\n\r\nTotalmente de acuerdo con la analogia de SEO-Google, que sea un riezgo a tomar, no quiere decir que el riezgo no desaparece.  Craiglist y OLX tienen la misma dependecia de Google que la que tiene Zynga o Playdom sobre Facebook.\r\n\r\nEn cualquiera de los casos tenes que invertir en generar alternativas, en el caso de Google tener otras fuentes de trafico, en el caso de Facebook basarte en otras plataformas?redes sociales.\r\n\r\nEn este caso integrarte hacia atras comprando tu propia plataforma creo que es algo a considerar.\r\n ",
      "time": "2010-04-13T22:12:10",
      "id": "44659428",
      "parentPost": "Interesante punto. El tema ahi es que la ventaja de facebook es su audiencia, no tanto su condición de red social. O sea, no creo que los juegos online sean un atractivo lo suficientemente poderoso como para atraer a la gente a una nueva red per se. \r\n\r\nMuchas veces escucho hablar de los riesgos de desarrollar sobre facebook, y mi respuesta es que en esencia son similares a los riesgos de hacer SEO, donde dependes de las condiciones de Google que pueden cambiar (y de hecho cambian) de un día para el otro. Sin embargo muchas empresas viven y vivieron muchos años gracias al SEO y no por eso piensan en comprar un buscador tier 2 :)\r\n\r\nSeguro me pierdo algo, pero a vuelo de pájaro no termino de compartir la idea.",
      "parentPostTime": "2010-04-13T16:42:37",
      "parentPostId": "44612722"
    },
    {
      "threadId": "77168647",
      "post": "Hola Seofilia,\r\nEstas confundido.\r\n\r\nSon visitas semanales no unicas, o sea sesiones de usuarios.\r\n\r\nEn cantidad de usuarios unicos Google sigue teniendo la delantera , por ahora, pero los usuarios vistan facebook mas frecuentemente. No estamos hablando de hits ( que es una metrica que nadie tiene encuenta desde hace 10 anos), ni de tiempo de permanencia.\r\n",
      "time": "2010-03-20T20:49:21",
      "id": "40694466",
      "parentPost": "<b>SUPERO EN TRAFICO, pero no en visitas... ES MUY DIFERENTE!!</b> A demás, si sumas, en Facebook hay muchos mas elementos de carga (ajax, php, etc.) junto con miles de imagenes de tamaño normal (y no como las miniaturas de Google Images cuando búscas), con lo que es obvio que aumente su tráfico...\r\n\r\n<b>NO INFORMEN MAL ni vendan humo... SUPERO EN TRAFICO, es muy diferente que visitas...</b>\r\n\r\nTu puedes tener un sitio con 1 millon de visitas y consumir al mes 10gb de \"transferencia de datos\" en el hosting, y otro sitio tener tan solo 10 mil visitas y consumir el doble de \"transferencia de datos\"... Depende mucho la estructura de cada uno, la carga de objetos, datos, etc...",
      "parentPostTime": "2010-03-20T16:05:20",
      "parentPostId": "40666241"
    },
    {
      "threadId": "55484122",
      "post": "Lo puse para experimentar...  estropea mucho la experiencia?\nCual te molesta mas?\n\nGracias por el commentario!",
      "time": "2010-01-04T17:43:42",
      "id": "28003637",
      "parentPost": "¿pq no sacas los adsense en tu blog?  (una pregunta de tipo formspring)",
      "parentPostTime": "2010-01-04T06:34:08",
      "parentPostId": "27956900"
    },
    {
      "threadId": "29247085",
      "post": "Gracias por el aviso!",
      "time": "2009-08-12T13:46:44",
      "id": "14712400",
      "parentPost": "Enhorabuena a ambas partes!\r\n\r\nPor cierto, el enlace al tema del cuchillo está mal :-P",
      "parentPostTime": "2009-08-12T08:16:20",
      "parentPostId": "14700921"
    },
    {
      "threadId": "27964914",
      "post": "es ariel.f.arrieta (at) gmail.com",
      "time": "2009-08-12T00:45:00",
      "id": "14688314",
      "parentPost": "Hola Ariel! Trate de mandarte un mail, pero me reboto, dice que el usuario no existe. ",
      "parentPostTime": "2009-08-04T16:44:39",
      "parentPostId": "13885884"
    },
    {
      "threadId": "26502330",
      "post": "No lo sabia, lo lei hace ya bastante... Sabia que tenia un muy buen\r\nsite pero no lo esta siguiendo.\r\n\r\nMuchas gracias por el tip!\r\n\r\nSlds,\r\nAriel\r\n\r\n2009/7/22, Disqus <>:",
      "time": "2009-07-22T20:53:37",
      "id": "13130886",
      "parentPost": "Qué exhaustivas las reviews!\r\n\r\nProbablemente lo sepas, pero salió una re-versión de Predictably Irrational. Si ya compraste el primero, enviás un mail y te mandan los capítulos extra en pdf gratis (bajo \"\r\ncódigo de honor\").",
      "parentPostTime": "2009-07-22T18:00:42",
      "parentPostId": "13120666"
    },
    {
      "threadId": "23408154",
      "post": "Muchas gracias Matias!!!\r\n\r\n2009/6/29, Disqus <>:",
      "time": "2009-06-29T23:10:17",
      "id": "11916520",
      "parentPost": "Muchos exitos Ariel! adelante por nuevas aventuras!\r\nAbrazo!\r\ndm",
      "parentPostTime": "2009-06-29T22:23:54",
      "parentPostId": "11915323"
    },
    {
      "threadId": "19079421",
      "post": "To find out more about Twitter, visit the link below:\r\n\r\nhttp://twitter.com/i/7dd1d08103e927f2e34e89de9df40f0fd4467a23\r\n\r\nThanks,\r\n-The Twitter Team\r\n\r\nAbout Twitter\r\n\r\nTwitter is a unique approach to communication and networking based on the simple concept of status. What are you doing? What are your friends doing—right now? With Twitter, you may answer this question over SMS or the Web and the responses are shared between contacts.\r\n\r\nThis message was sent by a Twitter user who entered your email address. If you'd prefer not to receive emails when other people invite you to Twitter, click here:\r\nhttp://twitter.com/i/optout/c410662f39d2d686d2b95eb4323ccf1e059d03b5",
      "time": "2009-06-24T22:03:27",
      "id": "11702811",
      "parentPost": "Estimado Ariel:\r\n\r\nRespecto al post sobre la eficiencia de los modelos CPC vs CPA y su explicacion mediante integrales me pregunto: \"Estan ustedes hablando en serio?\" Mucho me temo que se les ha ido irremediablemente la cabeza y que estan perdiendo todas las referencias. El marketing es mucho mas que la aplicacion de un modelo matematico.",
      "parentPostTime": "2009-05-22T23:08:30",
      "parentPostId": "9811793"
    },
    {
      "threadId": "2329438",
      "post": "To find out more about Twitter, visit the link below:\r\n\r\nhttp://twitter.com/i/c813a9d2ebb367141e0637c9c5fff853bf969c6f\r\n\r\nThanks,\r\n-The Twitter Team\r\n\r\nAbout Twitter\r\n\r\nTwitter is a unique approach to communication and networking based on the simple concept of status. What are you doing? What are your friends doing—right now? With Twitter, you may answer this question over SMS or the Web and the responses are shared between contacts.\r\n\r\nThis message was sent by a Twitter user who entered your email address. If you'd prefer not to receive emails when other people invite you to Twitter, click here:\r\nhttp://twitter.com/i/optout/d30ab287537cced8943f7e4e9b07e81f3ce253e5",
      "time": "2009-06-24T22:03:25",
      "id": "11702806",
      "parentPost": "Relevance, the holy grail of online advertising this is good especially those person want to go online",
      "parentPostTime": "2008-12-02T14:23:17",
      "parentPostId": "4126552"
    },
    {
      "threadId": "20023088",
      "post": "To find out more about Twitter, visit the link below:\r\n\r\nhttp://twitter.com/i/238666b8be531ae5f921c00b31de146cf9825714\r\n\r\nThanks,\r\n-The Twitter Team\r\n\r\nAbout Twitter\r\n\r\nTwitter is a unique approach to communication and networking based on the simple concept of status. What are you doing? What are your friends doing—right now? With Twitter, you may answer this question over SMS or the Web and the responses are shared between contacts.\r\n\r\nThis message was sent by a Twitter user who entered your email address. If you'd prefer not to receive emails when other people invite you to Twitter, click here:\r\nhttp://twitter.com/i/optout/887d3d1e79302c0787540847670efb8394754558",
      "time": "2009-06-24T22:03:24",
      "id": "11702805",
      "parentPost": "Bien, coincido con vos y con Alexis que hay blogg/negocio para rato, aunque a fines del año pasado habían rumores de que estaba \"muerto\" (no hablo de Neustand #chistefacil).\r\nPero no sé si las predicciones podrían ser tan simétricas como están en el gráfico. ¿Por qué lo digo? Porque hay que ver si aumenta o disminuye la brecha digital y no sé si están tenidos en cuenta el aumento de usuarios de internet al año. De todas muy interesante!!",
      "parentPostTime": "2009-06-05T16:57:20",
      "parentPostId": "10525515"
    },
    {
      "threadId": "16923709",
      "post": "To find out more about Twitter, visit the link below:\r\n\r\nhttp://twitter.com/i/16584032c5bb67d03edce2a718f9cd193250d074\r\n\r\nThanks,\r\n-The Twitter Team\r\n\r\nAbout Twitter\r\n\r\nTwitter is a unique approach to communication and networking based on the simple concept of status. What are you doing? What are your friends doing—right now? With Twitter, you may answer this question over SMS or the Web and the responses are shared between contacts.\r\n\r\nThis message was sent by a Twitter user who entered your email address. If you'd prefer not to receive emails when other people invite you to Twitter, click here:\r\nhttp://twitter.com/i/optout/76b2838eee6cc7cb3cbbc0ac2691d19c44b550ce",
      "time": "2009-06-24T22:02:40",
      "id": "11702771",
      "parentPost": "Es de Tipping Point, chicos. Acá está la prueba...\r\n\r\nhttp://books.google.com/books?q=Theory+broken+windows&source=in&ei=GzkDSp3YLYG7mQfx1vDxBA&sa=X&oi=book_group&resnum=11&ct=title&cad=bottom-3results\r\n",
      "parentPostTime": "2009-05-07T19:42:40",
      "parentPostId": "9104839"
    },
    {
      "threadId": "16524649",
      "post": "To find out more about Twitter, visit the link below:\r\n\r\nhttp://twitter.com/i/ab9e7f0e5e1a97163decf07e1934257e5620acb5\r\n\r\nThanks,\r\n-The Twitter Team\r\n\r\nAbout Twitter\r\n\r\nTwitter is a unique approach to communication and networking based on the simple concept of status. What are you doing? What are your friends doing—right now? With Twitter, you may answer this question over SMS or the Web and the responses are shared between contacts.\r\n\r\nThis message was sent by a Twitter user who entered your email address. If you'd prefer not to receive emails when other people invite you to Twitter, click here:\r\nhttp://twitter.com/i/optout/f06641d127b8c564eeeb4a06339b84462cdca9a3",
      "time": "2009-06-24T22:02:39",
      "id": "11702770",
      "parentPost": "Antes que nada felicitaciones, Ariel por estar posicionar tu blog entre los mejores 50 para la revista Tdi.\r\nTe suena Diego Prieto?\r\nEscribime!! diegocpr@hotmail.com\r\n",
      "parentPostTime": "2009-04-24T17:44:51",
      "parentPostId": "8660712"
    },
    {
      "threadId": "13987374",
      "post": "To find out more about Twitter, visit the link below:\r\n\r\nhttp://twitter.com/i/b0d3e54c8921e24742b87d405837c61e04d4fbbe\r\n\r\nThanks,\r\n-The Twitter Team\r\n\r\nAbout Twitter\r\n\r\nTwitter is a unique approach to communication and networking based on the simple concept of status. What are you doing? What are your friends doing—right now? With Twitter, you may answer this question over SMS or the Web and the responses are shared between contacts.\r\n\r\nThis message was sent by a Twitter user who entered your email address. If you'd prefer not to receive emails when other people invite you to Twitter, click here:\r\nhttp://twitter.com/i/optout/f57107523c6f639ea05a4a4ba91225d581bd4826",
      "time": "2009-06-24T22:02:38",
      "id": "11702768",
      "parentPost": "Hey Ariel! When do you start? August 09?\r\nI can give you lots of insight on places to go in Boston.  \r\nI spent the last 13 years there and grew up in New Hampshire.\r\n\r\nSarah\r\n\r\n",
      "parentPostTime": "2009-03-26T01:22:36",
      "parentPostId": "7510611"
    },
    {
      "threadId": "13169613",
      "post": "To find out more about Twitter, visit the link below:\r\n\r\nhttp://twitter.com/i/cf5293891e403c7f97b8e66264e67a4931b180e0\r\n\r\nThanks,\r\n-The Twitter Team\r\n\r\nAbout Twitter\r\n\r\nTwitter is a unique approach to communication and networking based on the simple concept of status. What are you doing? What are your friends doing—right now? With Twitter, you may answer this question over SMS or the Web and the responses are shared between contacts.\r\n\r\nThis message was sent by a Twitter user who entered your email address. If you'd prefer not to receive emails when other people invite you to Twitter, click here:\r\nhttp://twitter.com/i/optout/cab70b5a466be72e1b550fece63e56ac501477ba",
      "time": "2009-06-24T22:02:37",
      "id": "11702766",
      "parentPost": "Sorprendente Ariel !!!  te mando un abrazo excelente tu blog es un espacio realmente de pura manija!!!!\r\ncomo habras visto esttuve alejado de todo este muno web 2.0 y lo que hicieron viendolo de afuera es impresionante !!!!!  por la calidad muy bueno el digital talk\r\nabrazos\r\n",
      "parentPostTime": "2009-03-16T21:31:11",
      "parentPostId": "7266031"
    },
    {
      "threadId": "21109015",
      "post": "To find out more about Twitter, visit the link below:\r\n\r\nhttp://twitter.com/i/08091ec0f5b4e355dd0a24935ac32cbe6fe22335\r\n\r\nThanks,\r\n-The Twitter Team\r\n\r\nAbout Twitter\r\n\r\nTwitter is a unique approach to communication and networking based on the simple concept of status. What are you doing? What are your friends doing—right now? With Twitter, you may answer this question over SMS or the Web and the responses are shared between contacts.\r\n\r\nThis message was sent by a Twitter user who entered your email address. If you'd prefer not to receive emails when other people invite you to Twitter, click here:\r\nhttp://twitter.com/i/optout/da59a3f7019574af58f035668213b34c45721d96",
      "time": "2009-06-24T22:02:35",
      "id": "11702764",
      "parentPost": "Muy buen post.",
      "parentPostTime": "2009-06-11T14:12:48",
      "parentPostId": "10737307"
    },
    {
      "threadId": "10293239",
      "post": "To find out more about Twitter, visit the link below:\r\n\r\nhttp://twitter.com/i/be9da0733d3d63a1cea4b528ae0863cc721ebf79\r\n\r\nThanks,\r\n-The Twitter Team\r\n\r\nAbout Twitter\r\n\r\nTwitter is a unique approach to communication and networking based on the simple concept of status. What are you doing? What are your friends doing—right now? With Twitter, you may answer this question over SMS or the Web and the responses are shared between contacts.\r\n\r\nThis message was sent by a Twitter user who entered your email address. If you'd prefer not to receive emails when other people invite you to Twitter, click here:\r\nhttp://twitter.com/i/optout/be07c4da7d6355f4034e69d97300c28179f23b41",
      "time": "2009-06-24T22:02:34",
      "id": "11702763",
      "parentPost": "que lástima que no se hizo en Buenos Aires, me hubiese sumado con gusto je",
      "parentPostTime": "2009-01-21T16:44:38",
      "parentPostId": "5433926"
    },
    {
      "threadId": "3925128",
      "post": "To find out more about Twitter, visit the link below:\r\n\r\nhttp://twitter.com/i/6c175c03f3650c518d9b0593406f74e9e2e87cde\r\n\r\nThanks,\r\n-The Twitter Team\r\n\r\nAbout Twitter\r\n\r\nTwitter is a unique approach to communication and networking based on the simple concept of status. What are you doing? What are your friends doing—right now? With Twitter, you may answer this question over SMS or the Web and the responses are shared between contacts.\r\n\r\nThis message was sent by a Twitter user who entered your email address. If you'd prefer not to receive emails when other people invite you to Twitter, click here:\r\nhttp://twitter.com/i/optout/e04cd93f209599779d149c7f1d262e39d860ee9a",
      "time": "2009-06-24T22:02:31",
      "id": "11702757",
      "parentPost": "Breast enlargement products that gives you fuller, firmer, larger, rounder perfect cup size breast in few weeks which increase the beauty of your body and gives you full confidence! www.big-breast-enlargement.com\r\n",
      "parentPostTime": "2008-09-06T11:01:19",
      "parentPostId": "2181793"
    },
    {
      "threadId": "17024934",
      "post": "Great post!\r\nThe jetson´s dream comes true.. ",
      "time": "2009-04-30T19:28:15",
      "id": "8873635"
    },
    {
      "threadId": "15093668",
      "post": "Creo que empezar por los pre rolls era lo logico.\r\nYa que se condsidera el standar del mercado de video. \r\n\r\nLugo al ver que el volumen de videos a monetizar no tenia relacion con la cantidad de anunciantes con pre rolls.\r\ny tenien tantos anunciantes y creatividades de texto, la evolucion natural fue el modelo actual de avisos de texto en contenido de Videos.",
      "time": "2009-04-16T20:11:20",
      "id": "8271650",
      "parentPost": "Googles en un primer momento, comenzó aplicando Pre-Rolls y Overlays en los videos online. \r\nMi pregunta es la siguiente: ¿Por qué emepezó utilizando estos formatos....y ahora han decidido dejar de usarlos sin ninguna razón aparente? Me imagino que será por que éstos no suponen unos ingresos considerables para Google.\r\nSi es así, ¿¿cuál es o será el futuro de los formatos en Video online??",
      "parentPostTime": "2009-04-16T11:42:05",
      "parentPostId": "8257106"
    },
    {
      "threadId": "13733110",
      "post": "Thanks, \r\nNo habia escuchado sobre su libro, pero si hay otros autores  que abordaron ese tema como Seth Godin en Free Price Inside  (http://www.amazon.com/Free-Prize-Inside-Next-Marketing/dp/1591840414) o Dan Ariely en Predictable Irrational  abordan este tema desde varios aspectos. Mirate este video: http://www.predictablyirrational.com/?page_id=178\r\n\r\nCreo que no tiene mucho mas riesgo para Andersen, que el que tomo con The Long Tail, donde tiene unos cuantos detractores.\r\n\r\nAdemas el que no arriezga no gana.\r\n\r\nUn abrazo,\r\nAriel\r\n\r\n\r\n",
      "time": "2009-04-08T19:58:01",
      "id": "7986121",
      "parentPost": "Escuchaste hablar de \"Free\", el nuevo libro de Chris Anderson? Estuvo en el keynote de SxSW, y comentaba sobre como escencialmente \"Free\" en el siglo XX era un pequeño engaño: la afeitadora podía ser gratis, pero te cobraban cada gillette que comprás. Y en el siglo XXI, con la masificación de la publicidad para sustentar herramientas digitales, Free empieza a ser \"realmente Free\".\r\n\r\nMi postura es un tanto escéptica a su nueva tesis. Y hay quienes dicen que Anderson podría ser el hazmerreír de internet dentro de unos años cuando Facebook/Twitter/YouTube, etc. se cansen de darle vueltas al modelo de la publicidad online y empiecen a tener cuentas \"Pro\" por un par de dolares al mes. Y un par de dolares, ya no es free.\r\n\r\nPero queda por verse que puede llegar a suceder.. de todos modos, su articulo orignal en Wired, \"Free\", donde ese ejemplar de Wired fue de hecho gratis, es bastante interesante.\r\n\r\nPS: Te sumo a mi blogroll ahora que soy blogger en weplaylife.com",
      "parentPostTime": "2009-04-08T18:21:13",
      "parentPostId": "7983438"
    },
    {
      "threadId": "15360396",
      "post": "Creo que por ahi va la cosa... quien pueda extraer el jugo, embazarlo y venderlo podría hacer un gran negocio....\r\n\r\nGracias!",
      "time": "2009-04-08T19:37:13",
      "id": "7985559",
      "parentPost": "Google captura la \"intención\" de la persona usando su buscador. Y el match publicitario es ideal.\r\n\r\nTwitter encierra también intenciones (e intereses), pero de forma mas difusa y prolongada a lo largo del tiempo. Si su modelo de negocios no existe hoy, es por que no estan (todavía) las herramientas lo suficientemente sofisticadas para filtrar los millones de mensajes diarios que circulan por la twistofera.\r\n\r\nQue existan esas herramientas, es cuestión de tiempo.. un par de años diría. Otro día te cuento de nuestros experimentos con Twitter.. el jugo que sale es bastante rico de tomar ;)",
      "parentPostTime": "2009-04-08T18:24:05",
      "parentPostId": "7983511"
    },
    {
      "threadId": "14595610",
      "post": "Gracias Pablo por tu comentario.\r\n\r\nCreo que la preocupación de dejar contentos a los cable operadores no es una función de Hulu, ellos ya tienen bastante con dejar contentos a los anunciantes , audiencia y proveedores de contenido.\r\n\r\nCreo que la industria de cableoperadores, tiene que asumir la necesidad de un cambio de su industria para qe no queden como las discograficas de este milenio que por no innovar dilapidaron negocios millonarios.\r\n\r\nSi estuviera en lugar de los cable operadores, estaría tratando de que mi negocio se parezca mas al de Itunes con su AppleTV, distribuyendo mis propios set-top-boxes, intemediando en el delivery de peliculas como Netflix,o agregando valor en el negocio de mostrar contenidos en un Televisor. Creo que esa es la gran oportunidad.\r\n\r\nLo que tienen que tener claro es que su modelo de negocio tal cual lo tienen hoy se muere en menos de 10 años, y tienen que elegir entre ser un Carrier de contendios, mas parecido a un utility, donde el modelo de tripple play tiene sentido, o ser un agregador de TODO el contenido disponible para ser visto en la TV.\r\n\r\nPor lo menos asi lo veo yo.\r\nSlds,\r\nAriel\r\n  \r\n\r\n",
      "time": "2009-03-30T15:02:13",
      "id": "7633237",
      "parentPost": "Muy interesante Ariel.  Desde mi punto de vista, falta de todos modos el dejar contento a los cableoperadores quienes ven Hulu como riesgo para su negocio.",
      "parentPostTime": "2009-03-30T13:51:01",
      "parentPostId": "7631406"
    },
    {
      "threadId": "14256122",
      "post": "Mil Gracias!\r\n\r\nY FELICITACIONES A VOS TAMBIEN COMO LECTOR!",
      "time": "2009-03-23T21:32:43",
      "id": "7453154",
      "parentPost": "Felicitaciones! 100% merecido",
      "parentPostTime": "2009-03-23T19:48:31",
      "parentPostId": "7450289"
    },
    {
      "threadId": "13843280",
      "post": "Corregido!\r\nMil Gracias ! ",
      "time": "2009-03-18T21:57:35",
      "id": "7327329",
      "parentPost": "Ariel,\r\n\r\nEs Neil ARMSTRONG.\r\n\r\nDavid",
      "parentPostTime": "2009-03-18T03:56:26",
      "parentPostId": "7307372"
    },
    {
      "threadId": "10619145",
      "post": "Hola Ale que necesitas concretamente?",
      "time": "2009-03-13T17:53:06",
      "id": "7173726",
      "parentPost": "excelente ariel\r\ntenes algo de la penetracion por red en argentina?\r\nalx prince",
      "parentPostTime": "2009-02-09T14:31:17",
      "parentPostId": "6113474"
    },
    {
      "threadId": "13341808",
      "post": "Totalmente !\r\nes algo para celebrar!!!\r\nBTW, cuando quieras nos juntamos y vemos como podemos implementar estas tacticas con tus clientes.\r\n\r\nUn abrazo,\r\nAriel",
      "time": "2009-03-12T14:09:09",
      "id": "7135373",
      "parentPost": "Gracias Ariel por el link, ya lo tenia visto anteriormente! parece que google ya se nos viene con el Behavioral Targeting, vamos a ver que tan efectivo resulta!\r\n\r\nAbrazo\r\n\r\n@jbaldovino",
      "parentPostTime": "2009-03-11T19:35:12",
      "parentPostId": "7108822"
    },
    {
      "threadId": "10677866",
      "post": "Gracias Nico!\r\n\r\nSiempre es difícil ver la extensión completa de una campaña como esta, y es muy fácil caer en simplificaciones del tipo, gracias a Youtube o a facebook gano Obama.Si fue gracias a eso y muchisimas otras cosas que ocurrieron y no hablo solo de marketing online. ",
      "time": "2009-02-05T15:52:00",
      "id": "5867674",
      "parentPost": "Excelente articulo, muy completo. Ésto demuestra lo mucho que se gana avanzando sobre las nuevas tecnologias, y siendo estratégico e inteligente.\r\n No estaba al tanto de la cantidad de campos que abarcó ésta campaña presidencial de Obama, Increíble...",
      "parentPostTime": "2009-02-05T15:11:06",
      "parentPostId": "5866747"
    },
    {
      "threadId": "9017452",
      "post": "Gracias por el comentario, excelentes los videos . \r\nYa estoy escribiendo un post publicandolos!",
      "time": "2009-01-30T14:12:56",
      "id": "5693854",
      "parentPost": "Los britanicos siempre fueron muy buenos para el humor! Como complemento del video queria compartir este otro de Wareen Buffet explicando la crisis desde otro punto de vista y dejando una enseñanza muy buena: http://br.youtube.com/watch?v=8ZYeCMY-j0Y\r\nSds!",
      "parentPostTime": "2009-01-30T12:49:55",
      "parentPostId": "5684825"
    },
    {
      "threadId": "9831227",
      "post": "Estoy deacuerdo e que china hoy tiene un perfil que se asemeja a ¨factoria¨pero estan haciendo mucho por capitalizar esto y tranformarse en gestores de conocimiento:\r\n\r\n- Segun Tom Peters, en su ultima visita por buenos Aires, comentaba que en China se abren un laboratorio de I+D cada 30 minutos.\r\n- Las universidades en China estan creciendo de una manera increible, y el gobierno se esta encargando de exportar estudiantes que desarrollen sus estudios en el exterior y segun The Economist solo el 18% de los que terminan no vuelven a China.\r\n- Finalmente toda su base de empleados de mano de obra barata esta viviendo una movilidad ascendente (o sea acceder a otro nivel de vida) que genera un mercado muy atractivo que tiene sentido por si solo sin necesidad de ser una ¨Factoria¨.\r\n\r\nSi bien todos estos cambios llevan mucho tiempo para que se vean en un cambio de posiciones, las tendencias son significativas...\r\n\r\nveremos que ocurre...",
      "time": "2009-01-26T19:31:04",
      "id": "5553972",
      "parentPost": "No estoy tan de acuerdo en que puedan ser las comparaciones las que nos indican el fin, porque basicamente todo los procesos tienen altos y bajos, lo cula no quiere decir que sea el fin.\r\nInterpreto que el liderazgo de EEUU si bien se empobrecio, concordemos que a todos los demas tambien les paso lo mismo y China va a ser la mas perjudicada ya que simplemente es una Factoria.\r\nLo que es tegnologia pura esta en EEUU y en Europa, el juego va a estar entre ellos.",
      "parentPostTime": "2009-01-25T14:34:07",
      "parentPostId": "5530605"
    },
    {
      "threadId": "8191025",
      "post": "Me alegro que te guste!\r\ngracias por tu comentario!\r\n\r\n",
      "time": "2009-01-20T19:37:25",
      "id": "5403818",
      "parentPost": "Interesantísimo artículo. Enhorabuena por tu posts. Me voy a quedar a revisar tu blog por completo. Un saludo!",
      "parentPostTime": "2009-01-16T22:29:01",
      "parentPostId": "5220553"
    },
    {
      "threadId": "2635796",
      "post": "Thats great, tnx!",
      "time": "2009-01-20T19:19:55",
      "id": "5403446",
      "parentPost": "Hello, for a long time I read your blog, thanks for that that write interesting and \r\nuseful posts.I consider that blogers it is possible to name many journalists. \r\n\r\nGood luck",
      "parentPostTime": "2009-01-20T19:07:29",
      "parentPostId": "5403178"
    },
    {
      "threadId": "9073180",
      "post": "Hola  Alfredo,\r\nEn la pagina tenes mis datos de contactos.\r\nllamame http://arielarrieta.com/about/\r\nSlds,\r\nAriel",
      "time": "2009-01-07T20:01:20",
      "id": "4966048",
      "parentPost": "Busco contactarme Con  Ariel Arrieta",
      "parentPostTime": "2009-01-05T21:53:46",
      "parentPostId": "4918934"
    },
    {
      "threadId": "8780464",
      "post": "Mil gracias!\r\n\r\nBTW, si fuese de Hispanoamerica seguramente compartiriamos el podio!\r\n\r\nUn abrazo,\r\nAriel ",
      "time": "2008-12-28T22:49:57",
      "id": "4692143",
      "parentPost": "Tu presencia merecidisima.\r\n\r\nFelicitaciones a los mencionados.",
      "parentPostTime": "2008-12-23T20:43:56",
      "parentPostId": "4595485"
    },
    {
      "threadId": "8700028",
      "post": "Si es muy bueno... el original es muy conocido, si seguis la creatividad publicitaria...",
      "time": "2008-12-22T20:21:09",
      "id": "4575880",
      "parentPost": "El Wassup es increible, pero el que no ha visto las ediciones anteriores no va a entenderlo del todo.",
      "parentPostTime": "2008-12-22T15:49:27",
      "parentPostId": "4570873"
    },
    {
      "threadId": "8564502",
      "post": "Totalmente!\r\nEsta ahi para el que lo quiera ver...  y se quiera animar...\r\n\r\ndespues va a salir mas caro :)",
      "time": "2008-12-22T20:19:39",
      "id": "4575843",
      "parentPost": "Ariel,\r\n\r\nLo que decís es muy cierto, lamentablemente muchas de estas \"tecnologías\" que ya están disponibles todavía son vistas como algo raro y muchas veces las marcas tienen un desconocimiento muy grande del tema.\r\nCreo que es una oportunidad interesante aprovechar esto para generar ingresos.\r\n\r\nSaludos!",
      "parentPostTime": "2008-12-19T21:17:04",
      "parentPostId": "4529732"
    },
    {
      "threadId": "7675954",
      "post": "Ya tendras otras oportunidades.\r\nSiempre hay revancha....",
      "time": "2008-12-10T15:04:37",
      "id": "4309071",
      "parentPost": "me quiero matar que me lo perdí\r\n\r\nFelicitaciones",
      "parentPostTime": "2008-12-01T21:15:44",
      "parentPostId": "4091865"
    },
    {
      "threadId": "7274869",
      "post": "No se cuanto pueda durara o que tan profunda sera, pero hay muy poco que uno pueda hacer para incidir en ese cambio. \r\n\r\nLo que si esta dentro del area de influencia de cada uno es manejar la economia personal o de la empresa, donde hay que aprovechar el momento para reducir costos, medir mas que nunca el repago de cada accion decicion que se tome y estar atentos de aprovechjar las oportunidades para crecer en marketshare, ya que va a haber muchas oportunidades.\r\n\r\n\r\nGracias por tu comentario.\r\n\r\nAriel",
      "time": "2008-12-04T13:32:46",
      "id": "4164700",
      "parentPost": "Muy bueno el artículo!\r\nLas empresas que se crean en tiempo de crisis, aprenden a \"trabajar\" con escasos recursos, y hacer las mejores inversiones cuando llega el momento de disponer de mayores recursos financieros!\r\nCuanto tiempo estimas tu que durará la crisis para latinoamerica?",
      "parentPostTime": "2008-12-04T11:01:23",
      "parentPostId": "4163648"
    },
    {
      "threadId": "7180946",
      "post": "Muchas gracias , y mucha suerte con el emprendimiento!",
      "time": "2008-11-21T12:34:14",
      "id": "3931351",
      "parentPost": "Muy buen resumen!\r\nSoy Luis de mobifriends. Acabo de escribir un comentario en el blog de Alejandro, para comentar algunas de las cosas del resumen sobre mobifriends. \r\nFue una pena que por el horario muchos bloggers no pudierais asistir a las presentaciones.\r\nComo comentaron por Twitter, creemos que el video quedo bastante bien.\r\nOs adjunto el link del video que hemos colgado en Vimeo en HD.\r\nhttp://vimeo.com/2154519\r\nSi os gusta, registraros y entrar en www.mobifriends.com, también os gustará. :-)\r\nNo cuesta nada.\r\nSaludos,\r\nLluís\r\n",
      "parentPostTime": "2008-11-19T20:22:44",
      "parentPostId": "3900481"
    },
    {
      "threadId": "6902661",
      "post": "Hola Jose Luis,\r\nEsto no es un foro y Victor esta en USA, te recomiedo que llames Martin Kogan que es el director comercial de tu pais.\r\nEl numero es +54.11.4103.6700 (ext 6754)\r\nEl te va a poder orientar\r\n\r\nUn abrazo,\r\nAriel",
      "time": "2008-11-19T19:39:00",
      "id": "3899680",
      "parentPost": "Victor: por un cliente te consulto cómo ves el uso de Myspace para comercializar moda - textil en la región? hay alguna experiencia actualmente?",
      "parentPostTime": "2008-11-19T11:20:15",
      "parentPostId": "3892703"
    },
    {
      "threadId": "7086832",
      "post": "Hola Rodolfo,\r\n\r\nGracias por visitar mi blog.\r\n\r\nEn unos momentos te contesto en profundidad, pero dado que estamos juntos en un mismos lugar físico si quieres nos juntamos a discutirlo. \r\n\r\nLlendo al punto, el sego que veo es la vision  acotada al mercado español, y que en general el mercado español sufre el mismo problema que se le critica a los americanos , donde estan mirándose el ombligo en lugar de competir con todo el mundo. hoy el mundo es plano o curvo según el libro que leas, pero la realidad es que se compite con todo el mundo. No quiero sonar pedante solo trato de exponer otro punto de vista.\r\n\r\nSi todavia no te has ido del ebe juntemosnos.\r\n\r\nUn abrazo y gracias nuevamente.\r\n\r\nAriel",
      "time": "2008-11-16T12:12:49",
      "id": "3799148",
      "parentPost": "Hola Ariel:\r\n\r\n¿Cómo llegas a la conclusión de que nuestra opinión era sesgada y falta de experiencia directa? ¿Como llamas a lo que pasó en el 2.000 como experiencia directísima?\r\n\r\nEncualquier caso muchas gracias por un magnífico seguimiento del evento.\r\n\r\nRodolfo",
      "parentPostTime": "2008-11-16T12:03:42",
      "parentPostId": "3799117"
    },
    {
      "threadId": "6430838",
      "post": "Ian, \r\n\r\nSi vez mi post de unos diaz antes vas a ver que no soy lo que se dice un fan de este gobierno.\r\n\r\nhttp://arielarrieta.com/2008/10/23/veo-un-museo-de-grandes-novedades/\r\n\r\nMas alla de esto, no me toca a mi juzgar el desempaño del gobierno mas que una vez cada 4 años. En este caso  me toco recibir una felicitación de la investidura presidencial y fue un honor.\r\n\r\nSlds,\r\n\r\nAriel\r\n\r\n\r\n",
      "time": "2008-11-06T04:22:08",
      "id": "3564402",
      "parentPost": "Ariel, te respeto.. pero hacer un marketin con algo asi, si no tiran vinagre o ponen ajos el 2009 sera muy muy duro.. y cuando se destape lo vergonzoso de esta gesitòn, estas palabras te condenaràn. Por favor, tengamos imaginaciòn y no hagamos como el sapo. Bien Leòn, Pobrecito Cocodrilo!",
      "parentPostTime": "2008-11-05T22:45:01",
      "parentPostId": "3560243"
    },
    {
      "threadId": "6248228",
      "post": "Mientras no se nos quemen las alas como a icaro....\r\n:)\r\n\r\nMe alegro que te guste! Welcome!\r\npasame el tuyo asi lo sigo.\r\nUn abrazo,\r\nAriel\r\n\r\n",
      "time": "2008-10-29T17:19:55",
      "id": "3365650",
      "parentPost": "Supongo que ante un informe así, lo mejor que se puede decir es \"The sky is the limit\".\r\nPrimera vez que paso por tu blog, yo empecé el mío hace poco. El tuyo me pareció muy interesante, ya que tocas casi todos los temas de los que intento aprender y quiero transmitir.\r\nEspero que mi blog te pueda generar algo remótamente parecido. Un saludo, y seguiré tu blog de cerca.",
      "parentPostTime": "2008-10-28T20:55:51",
      "parentPostId": "3350681"
    },
    {
      "threadId": "2803672",
      "post": "En los pagos facil las reciben y si no podes preguntar en algun colegio que tengas cerca o llamar a :\r\nPatricia Gavilán\r\nCoordinadora Programa de Reciclado\r\nFundación Garrahan\r\n4943-44464941-3803\r\n\r\nGracias!",
      "time": "2008-10-23T12:19:21",
      "id": "3249520",
      "parentPost": "Hola, soy Gisela de La Plata....y me entere de esto hace como 2 semanas, y empece a juntar tapitas...tengo un monton en mi acsa pero no se en donde dejarlas...Si alguien me ayuda diciendo en donde las puedo dejar aca en La Plata, les agradeceria...\r\n\r\n\r\nDesde ya muchas gracias,\r\n\r\n\r\nGisela",
      "parentPostTime": "2008-10-23T01:01:52",
      "parentPostId": "3244464"
    },
    {
      "threadId": "5683373",
      "post": "Felicitaciones!\r\n\r\nSdls,\r\nAriel",
      "time": "2008-10-21T20:09:44",
      "id": "3207627",
      "parentPost": "buenas tardes,soy natalie y tengo un equipo armado para poder conseguir la exclusividad de la marca ya reconocida KOSIUKO.\r\nMi interes surge a partir de que en mi ciudad salto (uruguay) no existe tienda alguna con esta marca,y las posibilidades en el mercado son muy amplias po este caso. Somos optimistas porque si estan marcas como zaff,scombro,etc y kosiuko con lo que representa no tendria competencia. Desde ya un saludo cordial y espero su contestacion. gracias",
      "parentPostTime": "2008-10-21T20:07:48",
      "parentPostId": "3207595"
    },
    {
      "threadId": "5814684",
      "post": "Hola Alexis,\r\n\r\nGracias por el comentario.\r\n\r\nBTW, uk es un mercado muy evolucionado y muy competitivo, tal vez sea mas fácil pensar en algo global, que también repercuta en uk en lugar de pensar algo solo para ese mercado.\r\n\r\nA nosotros nos resulto mas fácil desembarcar en mercados emergentes como Turquia a pesar de la barrera del idioma y cultural, que en Uk donde a pesar de tener una estructura mas grande es mas difícil diferenciarte.\r\n\r\nun abrazo,\r\nAriel",
      "time": "2008-10-16T14:32:58",
      "id": "3088846",
      "parentPost": "Muy buen report Ariel.\r\n\r\nUno de mis más grandes sueños es poder hacer algo exitoso para UK!\r\n\r\nUn abrazo!\r\nAlexis.",
      "parentPostTime": "2008-10-16T14:25:09",
      "parentPostId": "3088727"
    },
    {
      "threadId": "4152011",
      "post": "si con esto tienen que subir el arpu.\r\n\r\nMirate http://www.uberbin.net/archivos/google/%c2%bfdonde-mas-incluir-adsense.php\r\n\r\nLuego de casi dos años de comprar AdScape Ya son oficiales AdSense for Games que pese a tener unas métricas demográficas y de engagement impresionantes solo es comparable con la publicidad tradicional en redes sociales por su bajo clicktrough o conversiones con lo que es un producto que, en vez de ser parte de AdSense debería competir con Massive para branding y product-placement propiamente dicho.\r\n\r\nPor otro lado, AdSense tambien apareció en Google Maps por primera vez y teniendo en cuenta como suben las visitas de Google Maps (sea o no el mejor servicio disponible en el mercado) los ingresos deberían ser sustanciales…. si al menos lograran cierta relevancia de behavioral/location browsing :)\r\n¨\r\n",
      "time": "2008-10-12T16:30:22",
      "id": "3008699",
      "parentPost": "Viste que Google saco AdSense para Games en beta ?\r\n\r\nCurrent Requirements:\r\n\r\n   1. Game plays: Minimum 500,000 per day\r\n   2. Game types: Web-based Flash only\r\n   3. Integration: Must be technically capable of SDK integration\r\n   4. Traffic source: Must be 80% US & UK Traffic\r\n   5. Content: Family safe and targeted at users age 13 and up\r\n   6. Distribution: Must be able to report embed destination and have control over where games are distributed\r\n\r\nhttps://services.google.com/events/adsense_games\r\n\r\n",
      "parentPostTime": "2008-10-11T23:04:54",
      "parentPostId": "3002047"
    },
    {
      "threadId": "5534150",
      "post": "completamente deacuerdo!",
      "time": "2008-10-11T22:43:31",
      "id": "3001915",
      "parentPost": "El empowerment bien entendido es una delegacion de tareas controlada, para ver si el recurso reponde al desafio.\r\n\r\nSino el empowerment se confunde con falta de control en la empresa, y el termina siendo una excusa general para la desorganizacion, en un arreglense como puedan.\r\n\r\n",
      "parentPostTime": "2008-10-11T22:39:31",
      "parentPostId": "3001889"
    },
    {
      "threadId": "5482742",
      "post": "Muy buen ejemplo... donde los que alquilan departamentos amoblados lo entendieron bien...\r\n\r\nCreo que otros rubros como laboratorios, turismo y servicios financieros son muy grandes y muy poco explotados...",
      "time": "2008-10-08T23:02:39",
      "id": "2948361",
      "parentPost": "Exacto, algo tipo  Marketing Digital para Inmobiliarias :-) ",
      "parentPostTime": "2008-10-08T22:16:09",
      "parentPostId": "2947793"
    },
    {
      "threadId": "5471174",
      "post": "Parecia tan novedoso como ahora.\r\n\r\nEn mercado como el brasilero, hay players que hacen esto. En Argentina o Mexico me parece quetodavia falta masa critica, y la demanada no satisfecha hoy esta cubierta por mercadolibre.\r\n\r\nGracias por tu mensaje,\r\nAriel",
      "time": "2008-10-07T18:24:27",
      "id": "2921390",
      "parentPost": "creo que ese proyecto hoy (eliminándole algunas cosas para las que el mercado todavía no está listo) sería muy buena y, hasta me arriesgaría a decir, bastante novedosa dentro de todo... osea que en 1999 debe haber sido cosa de ciencia ficción....\r\n\r\nsaludos",
      "parentPostTime": "2008-10-07T17:50:34",
      "parentPostId": "2920875"
    },
    {
      "threadId": "5015168",
      "post": "Hi Nicole,\r\n\r\nThanks a lot for your words.\r\n\r\nCheers,\r\nAriel",
      "time": "2008-10-07T12:48:44",
      "id": "2916398",
      "parentPost": "Ariel, I love reading people's stories, and yours is a long and complex one. It explains the diversified roles you've experienced to bring you where you are today, a leader in not only the Latam region, but now conquering the world. :)    Thank you for sharing!  And keep driving with that entrepreneurial spirit!  \r\n\r\nUn abrazo, \r\nNicole",
      "parentPostTime": "2008-10-07T03:25:19",
      "parentPostId": "2905177"
    },
    {
      "threadId": "4380865",
      "post": "si , no hay problema...\r\nsi queres publicamos tus conclusiones en el blog y les pedimos a los lectores que opinen.\r\n\r\nSlds,\r\nAriel",
      "time": "2008-10-06T21:03:19",
      "id": "2899649",
      "parentPost": "Felicitaciones por la página. Mi nombre es Nadia Ilardia, soy estudiante de RRPP en CAECE Mar del Plata. Estoy preparando mi tesis sobre el uso corporativo de la web 2.0 en Argentina. Estoy buscando referente en el tema que puedan aportarme sus conocimientos para enriquecer mi trabajo. Espero contar con su ayuda. Muchas gracias y saludos.",
      "parentPostTime": "2008-09-11T17:40:02",
      "parentPostId": "2288742"
    },
    {
      "threadId": "5280021",
      "post": "Eso te pone en la categoría de joven, aunque tu rango etareo no lo represente....\r\n\r\nEs lo malo de las estadísticas, son difíciles de segmentar rasgos blandos como por ejemplo: actitud joven.\r\n\r\nUn abrazo,\r\nAriel",
      "time": "2008-10-06T20:40:54",
      "id": "2899298",
      "parentPost": "Totalmente de acuerdo, Ariel! \r\n\r\nYo estoy en el grupo etario donde debiera estar en 50750, pero prefiero toda la vida un buen mensaje de texto a un llamado telefónico. Es más: odio hablar por teléfono.\r\n\r\nY lo que más odio de todo es esa gente a la que le mandás un sms y en vez de responderlo te llama!!! \r\n\r\nSi hubieras querido hablar con ella la hubieras llamado vos directamente!!! :P",
      "parentPostTime": "2008-10-03T21:44:45",
      "parentPostId": "2831898"
    },
    {
      "threadId": "5207479",
      "post": "Gracias por el tip, pero es mas fuerte que yo!",
      "time": "2008-10-02T23:17:02",
      "id": "2811828",
      "parentPost": "Ariel,\r\npequeño consejo para tu \"living digital\" ... dont feed the troll, cuando alguien deja el mismo comentario copypasteado en todos los blogs posibles solo busca atencion ... \r\n\r\nEl unico consejo que le podria dar a este \"luchador\" es que si sigue actuando asi nadie lo va a escuchar ¿o te imaginas que a Ariel o a Alec le respondieron todos los mails y llamadas y charlas qu tuvieron en su vida?",
      "parentPostTime": "2008-10-02T18:28:53",
      "parentPostId": "2804876"
    },
    {
      "threadId": "4466657",
      "post": "Muy bueno!\r\n\r\nEstamos organizando un grupo de trabajo para avanzar algunas ideas, y ver como lo organizamos junto con Red Solidaria.\r\n\r\nTambien hay algunas empresas que se involucrarian apoyando.\r\n\r\nLos mantengo al tanto.\r\nun abrazo,\r\nAriel",
      "time": "2008-10-01T11:50:10",
      "id": "2774651",
      "parentPost": "Ariel, me sorprendo al leer tu blog en profundidad. \r\n\r\nUno de los motivos que me movilizó para hacer SMUA fue similar a este. Ver como de forma muy sencilla con un poco de educación se puede dar una mano a mucha gente con pocos recursos. \r\n\r\nMi ideal son centros de formación en tareas específicas en bolsones de pobreza. Con 2 años de formación en las muchas tareas (web) que se requieren actualmente tenes gente viviendo dignamente sin depender de nadie. \r\n\r\nConcretamente para este proyecto creo que lo mejor sería grabar una serie de ScreenCast+Post atractivos (todo depende de los recursos, puede hacerce con $ 0). \r\nLa difusión puede ser en los Cyber (los pibes ya están ahi), lo que puede hacerse de muchas formas (por establecerlo como página de inicio en un cyber como parte de los requisitos para estar abierto), también con campañas copadas de empresas e instituciones que apoyen. \r\nY para la monetización (para no complicarla) haría una adnetwork  adhoc que comercialice los espacios. ",
      "parentPostTime": "2008-09-17T00:53:35",
      "parentPostId": "2392618"
    },
    {
      "threadId": "5158332",
      "post": "Hola Leandro,\r\n\r\nCreo dada la crisis que se viene será importante, pero mas alla de eso lo critico es la tendencia que tiene. \r\n\r\nDesde el punto de vista de emprender un startup o una unidad de negocio, las perspectivas son mas que atractivas.\r\n\r\nGracias por tu comentario, espero haberte respondido.\r\nUn abrazo,\r\nAriel",
      "time": "2008-09-30T02:12:33",
      "id": "2743784"
    },
    {
      "threadId": "4482412",
      "post": "Mi banco conoce cada cosa en que invierto con el y cual es mi performance financiera, sabe hasta en que cosas gasto con mi tarjeta de credito.\nAlguna de estas cosas las usan para darme mejores servicios. Que tengan acceso a todos estos datos no implica una violacion de la privacidad, que le den un uso diferente al que que yo quiero si.",
      "time": "2008-09-29T15:17:29",
      "id": "2732215",
      "parentPost": "Ariel,\r\ncon un panel de DPI y en tiempo real un \"operador low level\" puede decirte que video exacto estas viendoen YouTube, que cancion estás descargando incluso en formato .torrent y atarlo a tu historial de música que tenes en tu PC y que salio a Apple para su \"Genius List\"... ¿no te parece que la privacidad esta comprometida?",
      "parentPostTime": "2008-09-29T13:04:41",
      "parentPostId": "2730627"
    },
    {
      "threadId": "5046084",
      "post": "Sounds great!,\r\ni see the opportunity, looks very clear to me.\r\n\r\nWe are following the development of this industry very close.\r\n\r\nCheers,\r\nAriel\r\n",
      "time": "2008-09-26T20:32:51",
      "id": "2646950",
      "parentPost": "so let's create the platform and set the standard!\r\n\r\njh",
      "parentPostTime": "2008-09-26T19:53:15",
      "parentPostId": "2646430"
    },
    {
      "threadId": "4313075",
      "post": "Totalmente de acuerdo, pero las hipotesis hay que validarlas",
      "time": "2008-09-23T02:28:11",
      "id": "2528636",
      "parentPost": "muy bueno el estudio, igualmente aunque los numeros no sean exactos, lo que dice se puede sentir en el aire, no hace falta ni abrir el excel, \r\n\r\n!s\r\n",
      "parentPostTime": "2008-09-09T06:37:44",
      "parentPostId": "2242757"
    },
    {
      "threadId": "3841220",
      "post": "Hola Andres,\r\n\r\nNadie duda que para construir marca tenes que generar acciones de branding , y que estas son dificiles de cuantificar en cuanto al impacto. El concepto vbasico mas alla de los ejemplos que pudieros no ser los mejores es el de valorar una idea por su impacto en la los resultados y no por el tiempo que se tardo en generarla o los recursos que se pusieron para obtenerla.\r\n\r\nHay una conflicto importante cuando a la agencia creativa le conviene mas ¨venderle¨ a un cliente un proyecto mas que una idea que sea simple y tal vez mas efectiva. Este problema es generado por la manera de remunerarle los servicios a la agencia, donde hoy es por lo que la agencia pone y no por lo que el cliente recibe.\r\n\r\nGracias por el comentario!\r\nAbrazo,\r\nAriel",
      "time": "2008-09-22T20:16:18",
      "id": "2524527",
      "parentPost": "Ariel, Coincido plenamente en lo que decís en acciones tácticas. Desde lo estrategico, para formar una marca, sigue siendo el branding la opción de posicionamiento. En esos casos entiendo que la generación Y descartó varios sistemas de medios de su rutina y no entienden una computadora que no haya estado conectada a Internet algún día. A mi entender el correcto mix debe contemplar acciones de posicionamiento de marca y acciones tácticas. A modo de ejemplo una marca como Coca Cola o la misma Nextel no se construye con performance. Los medios digitales miden todo pero sin dudas no pueden medir el impacto en la audiencia en cuanto a posicionamiento de marca, y a la larga las acciones tácticas rinden mas o menos no solo por precio sino por posicionamiento de marca. Como decía Nimo, por lo menos así lo veo yo!",
      "parentPostTime": "2008-09-13T14:22:37",
      "parentPostId": "2327296"
    },
    {
      "threadId": "4481678",
      "post": "GRACIAS ! \r\nasi fue aunque llovieron 5 de los 7 dias...",
      "time": "2008-09-22T16:04:34",
      "id": "2521192",
      "parentPost": "pasela lindo!",
      "parentPostTime": "2008-09-18T01:51:30",
      "parentPostId": "2411411"
    },
    {
      "threadId": "4465567",
      "post": "Hola Lucas,\r\n\r\nGracias por tus comentarios.\r\n\r\nNo se si estas reflexiones son muy útiles, pero acá están.\r\n\r\nTampoco se que es peor, conservar el individualismo cultural sacrificando un entendimiento global, o abrirse a una globalización funcional y permitir influenciar y ser influenciado.\r\n\r\nCreo también que esta globalizacion afecta a a todos , y que hasta un americano WASP, se horririza de la influencia Latina  o asiatica que tienen las calles de NY.\r\n\r\nCreo que me fui por las ramas...\r\n\r\nUn abrazo,\r\nAriel\r\n\r\n",
      "time": "2008-09-12T20:06:09",
      "id": "2306408",
      "parentPost": "Que interesante experiencia! \r\n\r\nSin duda estoy de acuerdo con vos, pero como a veces pienso cayendo en el pesimismo, viendo por ejemplo las grandes Urbes, Metrópolis cada vez más se parecen más entre si donde lo particular de la identidad de una ciudad lamentablemente queda reducido a la contemplacion de su casco historico no influenciado por la globalizacion capitalista. \r\n\r\nMe parece que se trata de una consecuencia necesaria que está repercutiendo en todo el planeta, donde lo \"local\" queda relegado a una mera noción geográfica\r\n\r\nSuena tenebroso pensar en cómo la diferencia cultural está desapareciendo de a poco, o rapidamente, como se quiera verlo, tendiendo todos a una identidad global unificada. \r\n\r\n\r\nEs complejo y dilemático, y hay que intentar ser agudo para analizarlo.\r\n\r\nDa para rato, pero agradezco de antemano tus reflexiones y experiencias,\r\n\r\n\r\nUn gran saludo,\r\n\r\n\r\nLucas Nobúa.",
      "parentPostTime": "2008-09-12T19:57:15",
      "parentPostId": "2306303"
    },
    {
      "threadId": "4311919",
      "post": "Muchas gracias Alexis!\r\n\r\n",
      "time": "2008-09-12T13:46:41",
      "id": "2300548",
      "parentPost": "Excelente post!\r\n\r\nMuy buenos valores y conceptos!.\r\n\r\nIt´s a wonderful life!\r\n\r\nAlexis.",
      "parentPostTime": "2008-09-11T15:14:55",
      "parentPostId": "2285233"
    },
    {
      "threadId": "4371054",
      "post": "Estaria bueno, me gustaría ver eso.\r\n\r\nEl peligro es que lo hagan tan mal que afecte mas su valuación como para que sea adquirida por cualquiera...\r\n\r\nSdls,\r\nAriel",
      "time": "2008-09-10T13:15:31",
      "id": "2258872",
      "parentPost": "Yo le tengo fe. Hace muchisimo que Y! no me sorprende, pero esta vez si solamente toma algunos features de RM y los hace mainstream va a generar un cambio grande en el mercado, creo.",
      "parentPostTime": "2008-09-10T12:20:15",
      "parentPostId": "2258398"
    },
    {
      "threadId": "3884938",
      "post": "Lo que se compara es la audiencia no el interes por un determinado programa. \r\nEs el efecto long tail vs blockbaster lo que se esta evaluando.\r\nGracias por tu comentario Ignacio!\r\nSlds,\r\nAriel",
      "time": "2008-09-09T05:50:34",
      "id": "2242560",
      "parentPost": "Es interesante la comparacion y me encantaria qeu fuera valida pero \r\ncomparar un programa con YouTube es como comparar el rating de un Programa de TV en particular contra el rating agregado de todos los programas de cable.\r\nYoutube es mas parecido a un proveedor de cable como un cablevision que  un programa o canal. En tal caso habria que analizar el rating de un vlog de youTube vs. Tinelli, no?",
      "parentPostTime": "2008-09-09T03:14:46",
      "parentPostId": "2241359"
    },
    {
      "threadId": "4097286",
      "post": "Tenes razon pero no puedo editar el grafico!\r\ngracias por el comentario!",
      "time": "2008-09-09T00:42:01",
      "id": "2239822",
      "parentPost": "Ariel, fijate que la gráfica de usuarios activos está mal. No debería decir millions, o sino debería aparecer 120 a la izquierda en lugar de 120.000.000.\r\n\r\nsaludos,",
      "parentPostTime": "2008-09-08T21:13:37",
      "parentPostId": "2237305"
    },
    {
      "threadId": "4142909",
      "post": "Gracias Rafa!\r\nYa lo corregí!",
      "time": "2008-09-04T18:39:07",
      "id": "2111459",
      "parentPost": "Genial Ariel, pero corrige el apellido, es Murdoch no Murdock, que si no Rupert se enfadará :)",
      "parentPostTime": "2008-09-04T17:13:03",
      "parentPostId": "2109002"
    },
    {
      "threadId": "4107456",
      "post": "Gracias !\r\n\r\nSi soy uno de los fundadores de TDMB, quienes ahora decidimos poner blogs personales , Este, DamianVoltes.com, y proximamente GermanHerebia.com y JuanCarlosGoldy.com\r\n\r\nUn abrazo,\r\nAriel",
      "time": "2008-09-04T13:29:24",
      "id": "2104121",
      "parentPost": "Buen post Ariel, aún no sé como llegué a tu Blog, estaba suscrito a TheDigitalMarketingblog.com y derepente empezaron a aparecer posts de acá (entre otros) en mis feeds. \r\nMe mantendré al tanto de tus actualizaciones,  tienes contenidos muy interesante.\r\n\r\nSaludos desde Chile\r\nBeto\r\n",
      "parentPostTime": "2008-09-04T05:33:48",
      "parentPostId": "2101584"
    },
    {
      "threadId": "4079275",
      "post": "gracias Max!",
      "time": "2008-09-03T19:06:09",
      "id": "2033750",
      "parentPost": "Muy buen post Ariel. Contenido de calidad!. Keep working like this!. Max.",
      "parentPostTime": "2008-09-03T14:01:11",
      "parentPostId": "2029618"
    },
    {
      "threadId": "3873446",
      "post": "JE! \r\n\r\nmuy bueno...\r\ncreo que por 10 minutos es mas interesante ver si realmente hay un compromiso de cambiar las cosas o no...\r\n\r\nno creo que 9 mese después tengamos otro baby boom.",
      "time": "2008-09-01T21:27:02",
      "id": "1994805",
      "parentPost": "Si cada uno prende una vela, cuánto oxigeno consume la vela? jeje",
      "parentPostTime": "2008-09-01T21:21:11",
      "parentPostId": "1994750"
    },
    {
      "threadId": "3925224",
      "post": "Gracias Horacio!",
      "time": "2008-09-01T15:31:26",
      "id": "1977715",
      "parentPost": "Chicos,\r\n\r\nLos felicito por el nuevo diseño, abrazo para todos!!",
      "parentPostTime": "2008-08-29T02:52:56",
      "parentPostId": "1933845"
    },
    {
      "threadId": "3764074",
      "post": "Gracias Jorge!\r\nMil años que no nos vemos, \r\nQue bueno que me leas!\r\nun abrazo,\r\nAriel",
      "time": "2008-08-28T01:54:30",
      "id": "1881613",
      "parentPost": "Interesante análisis. Veremos como reacciona el mercado entonces. ",
      "parentPostTime": "2008-08-28T00:09:43",
      "parentPostId": "1880526"
    },
    {
      "threadId": "3709402",
      "post": "Se pagaria ¨despues¨comp pagan despues los CPAs y los RevShare.\r\nDonde la agencia y el medio se ¨asocian¨ en el exito, y los resultados.\r\n\r\nPuede ser una metrica mas eficaz que el CTR para medir la eficiencia de las campañas en social media.\r\n\r\nY tenes razon omiti el pay per post!\r\n\r\nGracias, por el comment!\r\n\r\nUn abrazo,\r\nAriel",
      "time": "2008-08-25T22:10:45",
      "id": "1835417",
      "parentPost": "pero si te pagan por \"conversado\", deberias pagar \"despues\" de brindado el servicio?. Es algo que me he quedado pensando. Ejemplo. Pago \"post\" campaña donde mi producto fué muy nombrado en Twitter. Si se le da una vuelta, me parece algo interesante. Un abrazo y nota muy interesante. Piu Avanti!",
      "parentPostTime": "2008-08-25T21:56:00",
      "parentPostId": "1833922"
    },
    {
      "threadId": "3489614",
      "post": "Merece!\r\nesta muy bueno el blog, especialmente tu vision personal y el espacio de opinon\r\nabrazo,\r\nAriel",
      "time": "2008-08-25T01:07:17",
      "id": "1813235",
      "parentPost": "Perdón, digo gracias por el blogroll!",
      "parentPostTime": "2008-08-24T00:20:24",
      "parentPostId": "1787438"
    },
    {
      "threadId": "3323667",
      "post": "Totalmente deacuerdo!\r\nUn abrazo,\r\nAriel",
      "time": "2008-08-19T17:09:01",
      "id": "1644755",
      "parentPost": "Ariel,\r\n\r\nGracias por responder a mi mensaje con una visión distinta. Yo no dudo para nada sobre la importancia de un equipo cuando \"ya estas en el baile\" y tenes que reinventar el mercado. Mi analisis en mi articulo se enfoca en el analisis inicial que debe realizarse al analizar un proyecto que está por salir o se esta pensando. Es en este punto donde es importantísimo el analisis de mercado. Si veo una necesidad, entonces ahi sí apuesto fuerte por el producto que llena esa necesidad y el equipo que lleve adelante el proyecto de satisfacer esa demanda.\r\n\r\nMás alla de esto, escribí el articulo porque veo a muchos emprendedores que presentan o hablan mucho sobre el producto y el equipo y no le dan tanta importancia al analisis honesto y potencial del mercado. Hace una semanas me encontré con un grupo super talentoso de tipos con un producto tecnologico barbaro pero me fuí de esa reunión con el sabor amargo de ver que vienen trabajando desde hace años en un producto que va a ser dificilísimo vender. Es por eso que escribí ese articulo, para simplemente despertar en aquellos que recien empiezan la necesidad de arrancar sus proyectos basados en una verdadera necesidad detectada para que no tengan que encontrarse a mitad de camino con la necesidad de pasar por el duro trance de cambiar de rumbo.\r\n\r\nUn abrazo!. Max.",
      "parentPostTime": "2008-08-19T16:48:07",
      "parentPostId": "1644263"
    },
    {
      "threadId": "2553629",
      "post": "Hola Paola, \r\nExcelente!\r\nEs muy simple, en principio solo tenes que venir a las reuniones y luego encontrara lguna funcion que te guste y aporte tu toque personal.\r\n\r\nslds,\r\nAriel",
      "time": "2008-08-19T13:38:38",
      "id": "1635566",
      "parentPost": "espero poder ser un miembro mas de este fantastico grupo. . . . . .  vamos por el bienestar dee nuestros pequeños\r\n.....",
      "parentPostTime": "2008-08-19T03:00:51",
      "parentPostId": "1620644"
    },
    {
      "threadId": "2077438",
      "post": "Hola Claudio, \r\ngracias por tu comentario, lo estare subiendo esrta semana si encuentro una buena plataforma para subirlo, probe en onmisio, pero no me dejo.\r\n\r\nun abrazo,\r\nAriel\r\n\r\n",
      "time": "2008-08-11T12:20:16",
      "id": "1157000",
      "parentPost": "Hola Ariel. estuve el miercoles en la conferencia de la UP, queria decirte que estuvo muy bueno, motivador, y alentador para todos los jovenes que estamos en esa etapa de proyectos, sueños, conviviendo con incertidurmbres, miedos y adrenalina  segun el dia..  Ejemplar tu historia.   ¿Es posible bajar el power point que mostraste desde algun lugar o es privado?.  Abrazo",
      "parentPostTime": "2008-08-01T14:52:26",
      "parentPostId": "1071494"
    },
    {
      "threadId": "2132556",
      "post": "Hola Andy,\r\n\r\nMe alegro que te guste!\r\n\r\nEsta semana lo subo con un video.\r\n\r\nUn abrazo,\r\nAriel\r\n\r\n",
      "time": "2008-08-07T15:37:32",
      "id": "1123430"
    },
    {
      "threadId": "2380626",
      "post": "Muchas Gracias Juan!\r\n\r\nnunca se si este tipo de post son utiles ya que creo que CPA como forma de pautar no es para cualquiera, y mucho menos ver las diferencias entre estas maneras de medir.\r\n\r\nPor otro lado creo que si entendes de que estamos hablando puede ser un contenido valioso.\r\n\r\nGracias por el feedback.\r\nAriel ",
      "time": "2008-08-04T14:10:20",
      "id": "1091425",
      "parentPost": "Muy buena nota Ariel.\r\nAbrazo\r\n\r\n",
      "parentPostTime": "2008-08-04T01:29:19",
      "parentPostId": "1088417"
    },
    {
      "threadId": "2284445",
      "post": "Hola Andrés\r\nMil gracias por el aviso!\r\nAcabo de corregirlo!\r\nAlguna recomendación para el blog?\r\n\r\nUn abrazo,\r\nPS: aguante http://keegy.com\r\nAriel",
      "time": "2008-07-31T01:50:17",
      "id": "1056889",
      "parentPost": ":P Tenes mal el link del 2008, para bajarlo es http://adage.com/images/random/datacenter/2008/hispfactpack08.pdf abrazo!",
      "parentPostTime": "2008-07-30T20:38:28",
      "parentPostId": "1054259"
    },
    {
      "threadId": "2007653",
      "post": "Gracias, estas invitado a participar si te interesa.\r\nUn abrazo,\r\nAriel",
      "time": "2008-07-28T14:21:26",
      "id": "1019784"
    },
    {
      "threadId": "2015013",
      "post": "Muchas Gracias!\r\nBesos \r\nAriel",
      "time": "2008-07-26T23:01:16",
      "id": "1010806"
    },
    {
      "threadId": "2181342",
      "post": "Es gratuito para socios de AMDIA , no socios creo que el costo es de $30 que incluye las medialunas y el cafe.",
      "time": "2008-07-25T21:34:33",
      "id": "1004345"
    }
  ],
  "profileInfo": {
    "username": "aarrieta",
    "about": "",
    "name": "aarrieta",
    "disable3rdPartyTrackers": false,
    "isPowerContributor": false,
    "isAnonymous": false,
    "rep": 1.317092,
    "profileUrl": "https://disqus.com/by/aarrieta/",
    "url": "http://ArielArrieta.com",
    "reputation": 1.317092,
    "location": "Buenos Aires , Argentina",
    "isPrivate": false,
    "signedUrl": "http://disq.us/?url=http%3A%2F%2FArielArrieta.com&key=w6t9s6kyUu_QOix6qfIcYg",
    "isPrimary": true,
    "joinedAt": "2008-07-15T16:39:28",
    "id": "61474",
    "avatar": {
      "small": {
        "permalink": "https://disqus.com/api/users/avatars/aarrieta.jpg",
        "cache": "//a.disquscdn.com/uploads/users/6/1474/avatar32.jpg?1281549414"
      },
      "isCustom": true,
      "permalink": "https://disqus.com/api/users/avatars/aarrieta.jpg",
      "cache": "//a.disquscdn.com/uploads/users/6/1474/avatar92.jpg?1281549414",
      "large": {
        "permalink": "https://disqus.com/api/users/avatars/aarrieta.jpg",
        "cache": "//a.disquscdn.com/uploads/users/6/1474/avatar92.jpg?1281549414"
      }
    }
  }
}