{
  "comments": [
    {
      "threadId": "2684348300",
      "post": "I love washi tape and use it a lot! My latest obsession is to just tuck a little bit in between scrapbook layers. I also use it a lot in my written journal to decorate the pages.",
      "time": "2014-05-15T09:20:19",
      "id": "1386694185"
    },
    {
      "threadId": "2607157126",
      "post": "Stop wishing, write a story and submit it? I am sure that people will be interested.",
      "time": "2014-04-14T00:53:50",
      "id": "1335202388",
      "parentPost": "I wish MM would do an article on me and my family. Still playing competitive soccer at 50, two kids, son 21 lean, healthy, daughter 18, represented Australia in football , lean muscular, we eat lean meats and fish, we have eggs, fruit and veg , clean carbs like rice. No smoking or alcohol , no fast foods . No allergies, no depression, no ADHD, no religion. Lots of love and common sense. We are humans and we eat meat and vegetables. It makes our bodies strong. It's pretty simple. ",
      "parentPostTime": "2014-04-14T00:32:48",
      "parentPostId": "1335187270"
    },
    {
      "threadId": "2364659016",
      "post": "I don't have to worry about putting my tray away right now, but this is a great idea for the future :)",
      "time": "2014-03-09T08:15:31",
      "id": "1277342076"
    },
    {
      "threadId": "2371894401",
      "post": "LOVE this colour pallet",
      "time": "2014-03-09T08:12:38",
      "id": "1277341016"
    },
    {
      "threadId": "2351336826",
      "post": "super sweet. I really love your photos :)",
      "time": "2014-03-09T08:10:32",
      "id": "1277340259"
    },
    {
      "threadId": "2382103772",
      "post": "There is nothing that I don't like about scrapbooking. Sometimes I don't feel like doing things. I usually do photography related stuff in batches - when I feel like it, I love going through my photos, organising them, and then sending them off to be printed. I usually print at least 100 at a time, so that way I have a whole heap of photos and so when ever I feel like scrapbooking I can because the photos are ready to go. \n\n\nI probably don't have anything I don't enjoy because if I don't enjoy it I don't do it. \n\n\nI also find \"cleaning up\" a little bit fun, because I love the thrill of seeing my stash getting used up. I don't put much effort into cleaning, and I make cleaning up as easy as possible by having baby wipes and tissues on hand if there is a spill.",
      "time": "2014-03-09T06:59:40",
      "id": "1277313055"
    },
    {
      "threadId": "2324608268",
      "post": "Love StarGate :) And I am very jealous of your paint and spray collection. Wowsers! It all looks so fantastic out on display like that.",
      "time": "2014-02-27T10:42:22",
      "id": "1262730436"
    },
    {
      "threadId": "2311587473",
      "post": "Great to see your pages! I am sure you'll be all caught up soon - but then have to catch up on something else. Well, that's what it's like for me ;)",
      "time": "2014-02-24T08:44:38",
      "id": "1258072940"
    },
    {
      "threadId": "2302870561",
      "post": "I love your layout. To me it seems \"simple\" yet beautiful. I think by simple I mean not cluttered. I do love it.",
      "time": "2014-02-23T04:54:01",
      "id": "1256882033"
    },
    {
      "threadId": "2283448844",
      "post": "Beautiful, I love your layout :)",
      "time": "2014-02-23T03:05:29",
      "id": "1256818154"
    },
    {
      "threadId": "2207793184",
      "post": "I love doodlebug!! I don't use the paper much because I find it a bit bright for my style, but love love love their embellishments. I need more of their coloured sprinkles!",
      "time": "2014-02-02T08:19:31",
      "id": "1227485461"
    },
    {
      "threadId": "2196292877",
      "post": "Beautiful, I love it :)",
      "time": "2014-02-02T08:15:30",
      "id": "1227484083"
    },
    {
      "threadId": "2204660876",
      "post": "I sort everything by colour as well, and in drawers. I have bigger drawers, so I have everything divided within the drawer with little baskets and containers to house the different types of embellishments.",
      "time": "2014-02-02T04:27:57",
      "id": "1227377605"
    },
    {
      "threadId": "2193489227",
      "post": "I've only just recently fallen for Jillibean Soup, I love their stuff. I'm so excited for the stencils!",
      "time": "2014-02-01T07:07:44",
      "id": "1226408140"
    },
    {
      "threadId": "2155975569",
      "post": "I have several older embellishments from Heidi Swap and always thought the quality rather cheap. Has this changed, especially with, as you say, they are now owned by American Crafts? In any case, recently I purchased some colour shine mist and absolutely love it. Maybe this brand should be on my radar again!",
      "time": "2014-01-22T08:44:41",
      "id": "1211695980"
    },
    {
      "threadId": "2140104195",
      "post": "I just found this place, and was inspired right away to create my own journal page with the prompt. This is my result: http://www.carlie.me/just-write-journal-page/\n\nGreat challenge. I'll be following along if there are other prompts that get my creative juice flowing. Thanks for the prompt - I actually think this is my favourite page in my journal so far!",
      "time": "2014-01-19T06:25:45",
      "id": "1207796762"
    },
    {
      "threadId": "2137793846",
      "post": "I love this line. I am even tempted to buy the album for my wedding album as the colours are almost perfect.",
      "time": "2014-01-19T00:02:07",
      "id": "1207579869"
    },
    {
      "threadId": "2102325609",
      "post": "I'm excited to see your coverage! (As I'll be living the experience through you!). For reference, my favourite companies are October Afternoon, Jillibean Soup, Crate Paper, AC, Studio Calico, Freckled Fawn and Doodlebug's accessories.",
      "time": "2014-01-10T08:50:05",
      "id": "1194777788"
    },
    {
      "threadId": "2022944566",
      "post": "Snow tires. It says something like \"snowy roads are scary. Do you have winter tires?\"",
      "time": "2013-12-05T08:45:37",
      "id": "1151380740",
      "parentPost": "any idea what it's for though?",
      "parentPostTime": "2013-12-05T00:15:43",
      "parentPostId": "1151028102"
    },
    {
      "threadId": "1885712072",
      "post": "That is because racism is tied in with history. If someone calls a white person \"white trash\" does it hurt? If a black person painted their face white, would a white person feel like they were being made fun of? No, it is easy to brush that off, because there is no history of abuse and racism there. White people have the power to not take it personally. \nHistory is important. So don't just dismiss it. The article I linked to, however, showed how Black Face is still relevant today.",
      "time": "2013-10-22T23:25:48",
      "id": "1092848247",
      "parentPost": "Racism undeniably exists but other than the KKK outfit, how is wearing brown paint racist? Explain exactly how these people are indisputably saying that white people are superior to black people. If anyone on this site can do that convincingly without having to refer to a \"history of blackface\" that clearly has nothing to do with this party, then maybe I'll consider a different view. So far nobody has presented a remotely sound argument.",
      "parentPostTime": "2013-10-22T19:48:28",
      "parentPostId": "1092585264"
    },
    {
      "threadId": "1048146250",
      "post": "I am so glad that this has been the topic of conversation lately around the webisphere that I frequent. I think that this does need to be discussed and I am glad you have.",
      "time": "2013-01-27T03:33:23",
      "id": "779459459"
    },
    {
      "threadId": "1001597879",
      "post": "Awesome! There are so many books to read :) I'm so happy that \n\nThe Tyrant's Law is coming out early this year, yay!",
      "time": "2013-01-02T00:51:29",
      "id": "752978390"
    },
    {
      "threadId": "995628559",
      "post": "I plan on using Evernote this year to plan and organise my wedding! #EvernoteBicycle",
      "time": "2012-12-28T13:04:47",
      "id": "749476519"
    },
    {
      "threadId": "78164627",
      "post": "Well, I believe I was about five metres away from you during the parade. :D My experience wasn't as pleasant, I had some pushy old guys around me which wasn't fun :P ",
      "time": "2010-03-23T15:01:55",
      "id": "41209911"
    },
    {
      "threadId": "74184754",
      "post": "Damn! You beat me to it! I was going to write a post on this very topic.  But I think you did it better than what I would of. Awesome post :)",
      "time": "2010-03-10T12:30:59",
      "id": "38840903"
    },
    {
      "threadId": "57484675",
      "post": "Checked my bought-in-australia-prob-made-in-china pants and what do ya know, YKK. How is it that 99% of pants I wear have a zipper but I've never noticed this? Amazing.",
      "time": "2010-01-12T08:52:05",
      "id": "29481155"
    },
    {
      "threadId": "52863425",
      "post": "Maybe it's like Where's Wally. It might be hiding somewhere!",
      "time": "2009-12-20T13:35:29",
      "id": "26729524",
      "parentPost": "I have no idea, I'll have to look into that, it is a pretty unique name for something like a company.",
      "parentPostTime": "2009-12-20T12:55:08",
      "parentPostId": "26728842"
    },
    {
      "threadId": "40784317",
      "post": "At my house I've only been given an English version for my area, but you can check it out on this post of mine: http://www.goddesscarlie.com/carlies-diary/living-in-the-land-of-japan/\n\nThe bad thing about my area is that paper and pet bottles are only collected once a month!",
      "time": "2009-10-21T06:58:04",
      "id": "20683319"
    },
    {
      "threadId": "40123577",
      "post": "I studied Japanese at UQ. If you are thinking about studying there when you graduate high school, I would have to say go for it!  I did \"stream A\" which is the one you do if you don't have any experience with Japanese. If you are studying at high school, however, I think you will go through steam B. So I can't really talk about what you might experience there, but overall I think the Japanese program at UQ is good. There are bad points about it, but I think there will be at any \"class\" type environment. If you have any questions, feel free to contact me! And let us know how your class goes!",
      "time": "2009-10-21T06:08:38",
      "id": "20681589"
    },
    {
      "threadId": "35071552",
      "post": "Ah cool! I'm from Brisbane (but now living in Japan). I'm going to check out the rest of your blog now :)",
      "time": "2009-09-22T14:00:30",
      "id": "17115221"
    },
    {
      "threadId": "14901008",
      "post": "The new dashboard looks very slick. I likey a lot!",
      "time": "2009-04-02T05:14:38",
      "id": "7736161"
    },
    {
      "threadId": "14460566",
      "post": "\"Second day on Twitter and I have absolutely nothing to say!\" - you make it intising to follow you! haha :)\r\n\r\nI jumped on the bandwagon around a month or two ago. I got to say it is a good way to keep up to date with the people behind the websites I follow. Unfortunatly I'm too boring to have any exciting news myself! :)",
      "time": "2009-03-26T23:07:36",
      "id": "7543723"
    },
    {
      "threadId": "14409082",
      "post": "Awesome resource, thanks Koichi :)",
      "time": "2009-03-26T01:23:48",
      "id": "7510638"
    },
    {
      "threadId": "13454020",
      "post": "I really enjoyed this post, it was very interesting. :) It must have taken a bit of time to do! ",
      "time": "2009-03-15T00:07:27",
      "id": "7225561"
    },
    {
      "threadId": "13598708",
      "post": "Very scary! ",
      "time": "2009-03-15T00:04:22",
      "id": "7225529"
    },
    {
      "threadId": "13283185",
      "post": "Very cool indeed! Long plane flights can now be less boring! :)",
      "time": "2009-03-09T00:17:20",
      "id": "7001622"
    },
    {
      "threadId": "12869889",
      "post": "Is it wrong that I find this very funny?! ;)",
      "time": "2009-03-02T09:20:14",
      "id": "6779696"
    },
    {
      "threadId": "12680043",
      "post": "I always thought of \"moshi moshi\" like \"is the line connected?\" That sort of thing. \r\n\r\nI love your cat's eyeroll. She was made for the camera! Can't wait for more awesome cat videos :)",
      "time": "2009-03-01T00:26:17",
      "id": "6733142"
    },
    {
      "threadId": "12762967",
      "post": "I'm testing a comment!",
      "time": "2009-02-28T07:55:43",
      "id": "6720505"
    },
    {
      "threadId": "12317750",
      "post": "Ah Koichi! I didn't know this was your blog until I read the comments here. I really love it, especially because of the pirates, arrh! Great interesting post, I'm going to subscribe to RSS :)",
      "time": "2009-02-25T09:05:25",
      "id": "6595730"
    },
    {
      "threadId": "12118216",
      "post": "Good advice, but when I move to Japan I'm not sure I'll be able to live without vegemite. Lucky rice is cheap everywhere, I love rice!",
      "time": "2009-02-24T12:43:55",
      "id": "6566621"
    },
    {
      "threadId": "11847288",
      "post": "Here we mainly use \"ta\" when saying \"thank you\" or \"please\" to a child who is just learning English. Can also be used just as saying \"thanks\" to an adult as well - I don't think it is strange when I hear it but it is not used this way often. Mainly just for kids while they are learning.",
      "time": "2009-02-16T00:26:09",
      "id": "6286699"
    },
    {
      "threadId": "11747636",
      "post": "I'm glad I could help :) ",
      "time": "2009-02-14T07:00:57",
      "id": "6256067"
    },
    {
      "threadId": "11549602",
      "post": "Oooh, I'll go check it out :)",
      "time": "2009-02-11T02:19:41",
      "id": "6166663"
    },
    {
      "threadId": "11077792",
      "post": "I agree with everyone! It was a great experience :) I am looking forward to the next one as well. ",
      "time": "2009-02-09T22:17:26",
      "id": "6123751"
    },
    {
      "threadId": "10915338",
      "post": "That's like mine, \"GoddessCarlie\" - it's just been like that since I started out on the net. I wont say what my first domain name was, I can see now why my mum was a bit concerned about the name...",
      "time": "2009-02-01T06:36:13",
      "id": "5741648",
      "parentPost": "Yea, it was a great Saturday evening. Btw, it's pronounced \"exorcist\". Does it have anything to do with Japan? Nope, but that's the name I have went by for over 10 years now. Geeky computer meaning.\r\n\r\nCan't wait for the next one! Thanks again Koichi.",
      "parentPostTime": "2009-02-01T06:10:11",
      "parentPostId": "5741428"
    },
    {
      "threadId": "1328853",
      "post": "What about us peeps rocking down under? i'm cold! My brain is too frozen to study!! \r\n\r\nI lie. Learning Japanese keeps me warm at night. ",
      "time": "2008-06-22T13:01:05",
      "id": "724830"
    },
    {
      "threadId": "1168476",
      "post": "I won't get mine I think :( I have moved house since the survey, and I am not sure if the new people in my old house are still sending on misc mail :( :( such is life!",
      "time": "2008-06-18T11:25:26",
      "id": "698036"
    },
    {
      "threadId": "1147219",
      "post": "That's awesome. Congrats for being worthy enough to be in a book :)",
      "time": "2008-06-11T10:16:37",
      "id": "635860"
    },
    {
      "threadId": "1075733",
      "post": "I love Koichi's video, it is probably my favourite so far! \r\n",
      "time": "2008-06-07T05:08:01",
      "id": "612678"
    },
    {
      "threadId": "1018259",
      "post": "I actually had a Russian guy contact me, using an online translator.  Most interesting... He of course assisted me in using a good online translation service as well as he didn't realise that in Australia we talk English.  I kindly educated him on this point and blocked him... his emails were too hard to read and it was kind of creepy.",
      "time": "2008-06-04T00:30:38",
      "id": "584173"
    },
    {
      "threadId": "1001943",
      "post": "All of them are much better than the original. I like number seven as well, very cute!",
      "time": "2008-06-03T12:48:05",
      "id": "578554"
    },
    {
      "threadId": "956701",
      "post": "eek, my comment got losted, I don't think I could be bothered typing it up again...",
      "time": "2008-06-02T21:43:15",
      "id": "575210"
    },
    {
      "threadId": "764076",
      "post": "If I get the \"jouzu\" thing when I go to Japan, I really want to say, \"I know, I know, I am smart. \" \r\n\r\nI think to some extent English speakers think the opposite - because English is such a dominant language and that there are many second language speakers of English, it is more surprising if we meet someone who doesn't know English, even if it is only a little bit. Us language learners appreciate how hard it is to learn a language, and well, I'm so very glad English is my native level because I'm not sure I'd be able to get it as a second language! Having only visited English speaking countries, I can't wait to experience Japan and I hope I will have to test my Japanese skillz - and that my companions on the journey realise what it is like to be in a place where you can't communicate easily.",
      "time": "2008-05-20T06:54:21",
      "id": "494880"
    },
    {
      "threadId": "750852",
      "post": "I believe my comment was eaten by a bad internet connection. Anyway, I enjoyed it, and understood 99% of what was said which is also fantastic. I have trouble \"hearing\" when there is lots of background noise, like the laughter, I find, I feel like I can't hear it all, but I still understood it...",
      "time": "2008-05-19T01:05:07",
      "id": "487904"
    },
    {
      "threadId": "735660",
      "post": "but I don't have a social security number! Can I just give out my bank details instead?",
      "time": "2008-05-17T10:02:58",
      "id": "482557"
    },
    {
      "threadId": "708061",
      "post": "This perhaps is slightly off topic, but I would love to hear more of your thoughts on disqus. I like the idea of threaded comments, the video comment option etc. However, I am not sure if I like to have my comments on a different system than wordpress, and I'm still hopeful that something as awesome as this will be made into a wp plugin - or at least I could install threaded comments etc. I think you used to have threaded comments at tofugu, I could be imagining things... anyway, I would love to hear your thoughts. ",
      "time": "2008-05-15T00:18:31",
      "id": "466691"
    },
    {
      "threadId": "710680",
      "post": "and again....",
      "time": "2008-05-15T00:12:43",
      "id": "466661",
      "parentPost": "just testing my comments",
      "parentPostTime": "2008-05-15T00:12:29",
      "parentPostId": "466657"
    },
    {
      "threadId": "707398",
      "post": "Thanks for this. I have actually never heard of lang8, I'll go check it out. \r\n\r\nIt would be so much easier if I had a web cam or a lap top with one built in. Instead I have a camera where it is very awkward to place it somewhere to talk into it. However, i really want to start making videos (although I'm better behind than in front...) ",
      "time": "2008-05-14T23:54:56",
      "id": "466564"
    },
    {
      "threadId": "674624",
      "post": "For me, mainly anything and everything to do with learning Japanese. I also love your crazy videos. They are always fun. Regurgitating other people's posts isn't good, but adding more to the discussion or a different view is always interesting. I wouldn't be interested so much in current Japanese events from here - Japan Probe is enough for me. I would rather more of a language-learning based stuff. If you can tie in current events with that, that's ok. And sure, cultural practises can also be relevant. \r\n\r\nAudience is important, but remember to write about what you want to write about as well!",
      "time": "2008-05-12T10:10:26",
      "id": "449263"
    },
    {
      "threadId": "612854",
      "post": "Yay for the graduating! I only have six months now, so close!!!!! And at the end all my savings are going to go into a Japan trip, so I guess it'll be real job for me :P",
      "time": "2008-05-05T23:45:01",
      "id": "418649"
    },
    {
      "threadId": "510363",
      "post": "Damn, what a pain! Only because I hadn't signed up yet - I was waiting for university holidays so I wouldn't get too distracted there. :P :P What a poo. Why, I ask!!! Theoretically, I would think that Gaijin who know Japanese would be a great addition to a community like this. I guess I'm just thinking too diversely. ",
      "time": "2008-04-22T13:31:16",
      "id": "364252"
    },
    {
      "threadId": "391824",
      "post": "Submitted!! I can't wait to read your thesis. Are you doing a Masters Degree, PhD or an undergraduate honours - or other? Just curious. I will be doing my undergraduate honours next year, but I'm thinking I'll be taking a more literary approach, rather than a language learning or linguistic approach. ",
      "time": "2008-04-04T12:09:52",
      "id": "300397"
    },
    {
      "threadId": "379634",
      "post": "I am interested in both versions as well. :)\r\n\r\nI can't believe I have the same strategy as Claytonian! ",
      "time": "2008-04-02T07:31:51",
      "id": "292532",
      "parentPost": "thank you for making my April's Fool day ^^ That was just KAKKOI ;)\r\n\r\nRegaldless of how many pages you got and from who - I'm really interested in both versions if you'd manage to write it ^3^",
      "parentPostTime": "2008-04-02T06:22:25",
      "parentPostId": "292474"
    }
  ],
  "profileInfo": {
    "username": "GoddessCarlie",
    "about": "",
    "name": "Carlie Hamilton",
    "disable3rdPartyTrackers": false,
    "isPowerContributor": false,
    "isAnonymous": false,
    "rep": 1.269205,
    "profileUrl": "https://disqus.com/by/GoddessCarlie/",
    "url": "http://createmess.com/blog",
    "reputation": 1.269205,
    "location": "Australia",
    "isPrivate": false,
    "signedUrl": "http://disq.us/?url=http%3A%2F%2Fcreatemess.com%2Fblog&key=7oTqiDF4QnSTl4U73cjYrw",
    "isPrimary": true,
    "joinedAt": "2008-02-29T07:31:14",
    "id": "12546",
    "avatar": {
      "small": {
        "permalink": "https://disqus.com/api/users/avatars/GoddessCarlie.jpg",
        "cache": "//a.disquscdn.com/uploads/users/12546/avatar32.jpg?1400145620"
      },
      "isCustom": true,
      "permalink": "https://disqus.com/api/users/avatars/GoddessCarlie.jpg",
      "cache": "//a.disquscdn.com/uploads/users/12546/avatar92.jpg?1400145620",
      "large": {
        "permalink": "https://disqus.com/api/users/avatars/GoddessCarlie.jpg",
        "cache": "//a.disquscdn.com/uploads/users/12546/avatar92.jpg?1400145620"
      }
    }
  }
}