{
  "comments": [
    {
      "threadId": "4358709038",
      "post": "Depende do que acontecer na rodada. O Brasileirão até que tem sido bonzinho com o Figueira. Os caras tão bobeando há umas 5 rodadas já. Estamos fora da zona por incompetência dos outros.",
      "time": "2015-11-28T23:11:04",
      "id": "2383183469",
      "parentPost": "Figueira ainda depende de si ?",
      "parentPostTime": "2015-11-28T23:05:03",
      "parentPostId": "2383178149"
    },
    {
      "threadId": "4204709959",
      "post": "Esse vídeo apresentando o logo ficou bem MTV anos 80",
      "time": "2015-10-08T13:10:15",
      "id": "2296390229"
    },
    {
      "threadId": "3817551632",
      "post": "Agora entendi! Esse outro videocase deu a entender que a iniciativa era parte de uma ação do Ministério dos Esportes. https://www.youtube.com/watch?v=FVz_NtoCPns",
      "time": "2015-06-03T21:19:23",
      "id": "2060682579"
    },
    {
      "threadId": "3788976832",
      "post": "Isso daria um bom texto pra área de opinião do Meu Figueira, Cesar. Tá afim de escrever um texto pra gente, Cesar?",
      "time": "2015-05-25T17:28:27",
      "id": "2044615177",
      "parentPost": "Pessoal, é o que temos... Temos um ótimo sistema defensivo, e um ataque de qualidade... mas nosso problema é criação, é o que falta... Nossos laterais por característica sobem menos, então o Figueirense joga sem conexão entre desarme e finalização... \nEntendo que o Argel está fazendo o que pode e os jogadores também... Não falta raça, não falta compromisso, falta qualidade em um setor crucial do time, que pra jogar série A, todos tem que ter.",
      "parentPostTime": "2015-05-25T13:47:03",
      "parentPostId": "2044262280"
    },
    {
      "threadId": "3775601490",
      "post": "Serão os dois, Carlos! Incluímos no post a info da Sportv. Obrigado!",
      "time": "2015-05-19T18:25:27",
      "id": "2034104361",
      "parentPost": "Não seria a Sportv? Estou olhando na grade de programação da Sky e na ESPN tem jogo da copa do Brasil só as 22:00 e na Sportv tem o jogo do Figueira.",
      "parentPostTime": "2015-05-19T14:07:25",
      "parentPostId": "2033628492"
    },
    {
      "threadId": "3722641626",
      "post": "Absolutamente nada a ver com o tópico, mas não vou deixar sua tentativa de difamação sem resposta. Nesse jogo não estava junto com você, estava com o Rafael Antunes e outros amigos. Ele fez um texto sobre como conseguimos entrar no estádio. Seria redundante eu escrever a mesma história: http://www.meufigueira.com.br/2014/05/rafael-antunes-jogo-padrao-fifa-experiencia-padrao-brasil/ Abs.",
      "time": "2015-05-05T07:56:42",
      "id": "2004960613",
      "parentPost": "Só vou levar em consideração teus comentários Ziggy e esse site, quando tu fizer um texto sobre como tu conseguiu entrar no estádio do Corinthians, com ajuda do Wilfredo, nessa hora não vi tu ser contra o Presidente. Abraço.\nPS. Não adianta tu mentir que eu estava junto.",
      "parentPostTime": "2015-05-04T15:50:54",
      "parentPostId": "2002527835"
    },
    {
      "threadId": "3499255398",
      "post": "Enquanto isso: http://www.brainstorm9.com.br/tag/podcast/ já ajuda!",
      "time": "2015-02-10T20:56:38",
      "id": "1846335407",
      "parentPost": "Imagino que esse não seja o melhor lugar para comentar mas fica a minha sugestão de que assim como os podcast do Braincast e o Anticast, o outros podcasts dessa \"família B9\" deveria ter um acesso mais fácil, em breve ficará difícil de encontrá-los no site e consequentemente acompanhá-los. Excelente primeiro programa.",
      "parentPostTime": "2015-02-09T16:31:27",
      "parentPostId": "1843809338"
    },
    {
      "threadId": "3069286234",
      "post": "A proposta é legal, a campanha é linda, mas só funciona no brand channel deles. Aí o filme fica clicável (interativo) e dá pra conhecer cada história. \n\nEle sozinho fica confuso e sem sentido. Ideal é que no começo desse vídeo avisassem isso de alguma forma. Ou que utilizassem os annotations nativos do YouTube no próprio vídeo pra entrar nas histórias.\n\nhttps://www.youtube.com/channel/UCj4nCgtjKJppK_IZeY8TUJg",
      "time": "2014-09-30T18:37:53",
      "id": "1613285593"
    },
    {
      "threadId": "2734416115",
      "post": "Gênio. huaehuaehuaehuaehuea",
      "time": "2014-06-05T19:16:36",
      "id": "1421461421",
      "parentPost": "",
      "parentPostTime": "2014-06-04T20:49:21",
      "parentPostId": "1419893833"
    },
    {
      "threadId": "2723584084",
      "post": "Não entendi a polêmica. Chegar a esse extremo de pensar em canibalismo e superar isso, só deixa a história deles (e do filme) ainda mais emocionante. Não tira o brilho do filme, nem o poder de superação dos caras.",
      "time": "2014-06-03T17:52:02",
      "id": "1417939097",
      "parentPost": "Aquele voto de silêncio entre os mineiros sobre o que aconteceu lá embaixo e as coisas que escaparam do tipo brigas e cogitarem canibalismo.\n\n(versões diferentes, em um o acordo era claro, o outro parecia algo cogitado silencionsamente). \n\nhttp://veja.abril.com.br/noticia/internacional/chile-mineiros-pensaram-em-recorrer-ao-canibalismo-para-sobreviver\n\nhttp://www.dn.pt/inicio/globo/interior.aspx?content_id=1687323&seccao=EUA%20e%20Am%E9ricas&page=1",
      "parentPostTime": "2014-06-02T05:57:44",
      "parentPostId": "1415649878"
    },
    {
      "threadId": "2673180317",
      "post": "Entendo que há dificuldades em obter quanto foi investido no Google e Facebook, mas enquanto eles não entrarem na pesquisa o termo \"Internet\" poderia mudar para \"Sites de Internet\" (ou algo relacionado). Sabemos que a maior parte da fatia está nesses dois gigantes. \n\nDa maneira que está hoje, cria uma falsa impressão de uma participação pequena da internet no bolo publicitário, quando facilmente ocupa o segundo lugar do ranking.",
      "time": "2014-05-12T13:50:17",
      "id": "1380944803"
    },
    {
      "threadId": "1935084019",
      "post": "Post mais completo que encontrei sobre Bangkok até agora. Um panorama bem legal pra depois se aprofundar. Muitíssimo obrigado! =)",
      "time": "2014-03-16T17:16:15",
      "id": "1287213687"
    },
    {
      "threadId": "2315393297",
      "post": "Fica tranquilo, aqui não tem censura. O debate fica mais legal quando acusações infundadas, ofensas e afins ficam longe da troca de comentários. Discordar é normal. O Guilherme Valério discordou de você sem precisar te acusar de nada ou criar suposições rancorosas como você fez no seu comentário. Quando cai pra esse tipo de coisa não é só a gente que tem a perder, mas o torcedor que procura aqui um local pra poder debater sem precisar temer retaliações desse tipo.",
      "time": "2014-03-06T01:48:38",
      "id": "1272196475",
      "parentPost": "Desculpe, fui, realmente, muito ofensivo.\nAcusação infundada essa minha. Pelo visto, opinião aqui tem mudado de significado, agora significa concordância.\nTriste confusão.\nContinuem em paz com a com a sec..., quero dizer, expondo suas opiniões!!!\nMinhas discordâncias estão censuradas!!!",
      "parentPostTime": "2014-03-05T16:42:55",
      "parentPostId": "1271456774"
    },
    {
      "threadId": "2312868490",
      "post": "Tudo bem que ambos não declaram, mas sem Google e Facebook na pesquisa seria mais justo mudar o termo \"internet\". A análise de recuo e desafios comerciais dizem muito mais respeito aos grandes sites e portais do que ao mercado online no Brasil.\n\nVale complementar a leitura dessa matéria com o levantamento do IAB realizado em novembro de 2013. Considerando Facebook e Google, a estimativa de investimento publicitário online passa dos 6 bilhões em 2013.\n\nhttp://iabbrasil.net/portal/pesquisa-indicadores-do-mercado-online-atualizacao-novembro13/",
      "time": "2014-02-24T18:33:03",
      "id": "1258617272"
    },
    {
      "threadId": "1655983847",
      "post": "Ou mudar o nome da categoria: ao invés de \"internet\" mudar para \"sites e portais\".",
      "time": "2014-01-24T19:28:18",
      "id": "1215332510"
    },
    {
      "threadId": "2155666193",
      "post": "É de treino.",
      "time": "2014-01-22T00:58:47",
      "id": "1211265676",
      "parentPost": "essa camisa vermelha nao tem nada haver com o figueira so vai dar azar",
      "parentPostTime": "2014-01-22T00:38:18",
      "parentPostId": "1211240193"
    },
    {
      "threadId": "2040987612",
      "post": "E nosso vídeo do acesso com \"Créu\" no final (SPOILER). https://www.youtube.com/watch?v=hJHp6gFNnGM",
      "time": "2013-12-10T21:16:25",
      "id": "1157771698",
      "parentPost": "Temos foto já, Danilo?",
      "parentPostTime": "2013-12-10T16:10:59",
      "parentPostId": "1157380711"
    },
    {
      "threadId": "2003105006",
      "post": "Felizmente não foi o nosso caso! hahahaha",
      "time": "2013-11-27T22:51:56",
      "id": "1142113611",
      "parentPost": "Por curiosidade, se você pegasse uma cartinha dessas e por uma infelicidade total (por raro e difícil que possa parecer) a criança pedisse uma camiseta do representante do manguezal, o que vocês fariam???",
      "parentPostTime": "2013-11-27T16:55:07",
      "parentPostId": "1141461001"
    },
    {
      "threadId": "1924734639",
      "post": "Valeu João! Erro de revisão, obrigado!",
      "time": "2013-11-01T04:21:08",
      "id": "1104514110",
      "parentPost": "\"Com o uso cada vez MAIS MAIOR...\" Tem que arrumar isso, heim.",
      "parentPostTime": "2013-11-01T02:00:20",
      "parentPostId": "1104414657"
    },
    {
      "threadId": "1872194701",
      "post": "Valeu, Maicon! Tomara que o Scarpelli lote amanhã. Aqui de longe (SP) vou continuar fazendo o que puder pra que isso aconteça.",
      "time": "2013-10-18T22:39:30",
      "id": "1087699184",
      "parentPost": "Belo texto.\n\nParabens Ziggy",
      "parentPostTime": "2013-10-18T16:05:03",
      "parentPostId": "1087227544"
    },
    {
      "threadId": "1767857411",
      "post": "O melhor agora é aguardar. Nem tanto ao céu (Marcos Teixeira não vai ter mais voz no Figueirense), nem ao inferno (MMT vai mandar de fora, é tudo um golpe!). \n\nTemos que receber essa notícia com ânimo, de alguma forma a voz foi ouvida, mas precisamos fiscalizar para que MMT não tenha mais controle dentro do clube. No ano passado ele ficou como \"consultor\" e sabemos que tinha MUITA voz mesmo de fora. \n\nNão podemos deixar acontecer o mesmo quando a Alliance endividou o clube e convenceu no discurso que a culpa era do Lodetti e eles mesmos resolveriam isso se assumissem com Wilfredo de presidente. No discurso tudo era lindo, dois anos depois olha no que deu.\n\nNão dá pra acreditar 100% no que dizem porque já prometeram muito (caneta cheia, time de Série A na B)  e até agora o que entregaram?",
      "time": "2013-09-17T17:38:02",
      "id": "1048190435",
      "parentPost": "Galera, eu vejo de outra forma.\nOportunista ou não a manobra foi feita. Aos gritos da torcida e de parte do conselho, nossa principal reivindicação foi atendida.\nO Presidente não será louco de colocar o MMT em uma função ligada ao clube - mas nada impede de eles continuarem amigos, e quanto a isso, pouco me importa - .\nO que queríamos, seu afastamento do MAIOR DE SC, conseguimos.\nAgora é refletirmos o quanto nossas manifestações e protestos mostram nossa força e são capazes de trazer mudanças. Por óbvio, não me iludo, e sei que nada está resolvido, mas é sim uma manobra que representa um ganho de força para a torcida.\nTemos, portanto, que continuar na luta pela democracia e pelo real desenvolvimento do FIGUEIRENSE.\nVamos tentar analisar a coisa como uma vitória, mas, sempre com os olhos vivos para possíveis enganações.\nA luta não para por aqui!!!\nISSO NÃO É PIADA, A FORÇA DO FIGUEIRA VEM AQUI DA ARQUIBANCADA!!!",
      "parentPostTime": "2013-09-17T13:55:06",
      "parentPostId": "1047933751"
    },
    {
      "threadId": "1693738089",
      "post": "É uma pena que a torcida esteja tão calada em um momento tão importante para o clube fora de campo. Por mais que o debate seja estimulado e falado em exaustão, parece que muitos desistiram e agora só voltarão com os resultados em campo.\n\n\nO que será decidido hoje pelo Conselho Deliberativo será sentido apenas no longo prazo pela torcida. Aí será tarde demais para lamentações.",
      "time": "2013-09-02T19:19:24",
      "id": "1026734697",
      "parentPost": "Bruno, na verdade será eleita apenas uma chapa com essa divisão que você falou: 110 conselheiros sendo 55 patrimoniais e 55 sócios-contribuintes (torcedores). Adicione aí os \"membros natos\" cerca de 60 pessoas entre ex-presidentes e sócios beneméritos e temos o Conselho Deliberativo: 55 torcedores, 100+ patrimoniais, beneméritos e ex-presidentes.\n\nQuando falam em duas chapas é nas eleições. Poderão ser formadas duas ou mais chapas para o processo de votação. No caso de haver apenas uma chapa candidata, essa será eleita, sem votação. E a chapa eleita que decide quem será o presidente eleito.\n\nPor isso a petição pede para acabar com essa categoria de membros natos, e também dessa divisão (patrimoniais / torcedores) para haver igualdade de poderes. E também para a eleição para presidente ocorrer de forma direta, sem estar ligada à votação das chapas. Democracia assim, cheia de obstáculos, não pode ser chamada de democracia, certo?\n\n",
      "parentPostTime": "2013-09-02T17:40:30",
      "parentPostId": "1026638132"
    },
    {
      "threadId": "1655072891",
      "post": "8 anos = 4 mil pessoas, segundo conselheiros. Ainda é pouco frente ao número de alvinegros que temos no estado. Desses 4 mil são poucos que realmente vão participar de votações e se candidatarem a cargos no Conselho. É um número restrito e inaceitável pra chamar de democracia.\n\nQuanto a ser time \"mediano\" e a torcida querer mudar o tempo todo os diretores, não é tão simples assim. Tem outros artigos no estatuto que resguardam o clube desses impulsos.\n\n\nSem democratizar o clube fica mais limitado o número de pessoas realmente interessadas em sanear o clube e candidatarem-se à presidente. \n\n\nJá está bem claro que no modus operandi atual ganha quem promete dinheiro e assumir \"a bucha\". O Conselho elege de olhos fechados, não há oposição nem possibilidade de novos nomes surgirem para gerir o clube.\n\n\nEsse tipo de debate aqui nos comentários não se vê lá dentro. Só aplausos.",
      "time": "2013-08-28T13:25:07",
      "id": "1020489562",
      "parentPost": "Vale lembrar que esse tempo de 2 a 3 anos é a média de idade dos planos de sócios dos clubes brasileiros também. Temos uma massa grande de associados ha muito mais tempo que Inter, Gremio e etc. Não tenho dados, mas 5 anos incluiria umas 8 mil pessoas, tenho certeza. Por outro lado, 5 anos na maioria dos clubes brasileiros não incluiria ninguém. Cada um com sua realidade.\n\nEnfim, penso que o mais importante é acabar com essa lista extremamente fechada, senao, na prática, ficaremos na mesma. Vale lembrar que, ainda que consigamos mudanças, a maior luta ficará para depois: como montar uma oposiçao organizada? Vcs já leram o estatuto do co-irmão azul?? É impossível ser mais democrático. Na teoria, lá, a torcida coloca quem quiser lá dentro (embora isso não esteja explítico no estatuto, é o que ocorreria caso fossem organizados, pois conselheiros novos entram de forma muito fácil lá dentro). \n\nMas vejam na prática como fica: o Zunino só sai se quiser.",
      "parentPostTime": "2013-08-27T18:20:50",
      "parentPostId": "1019478860"
    },
    {
      "threadId": "1631361753",
      "post": "A torcida quer renovação. Prisco voltar é retornar ao passado. Tá na hora de pessoas que queiram levar o Figueira adiante independente dos seus interesses pessoais. Parar com essa historia de administrar o Figueirense a troco de encher os cofres de uma empresa \"parceira\".\n\nTá na hora de profissionalizar o futebol sem depender de mecenas. Colocar pessoas remuneradas para administrar o clube e que não tenham interesses por trás de ser presidente do Figueirense (empreiteira, empresa de jogadores, administradora, etc). O único interesse deveria ser o sucesso do time, da instituição Figueirense.\n\nO Flamengo e Palmeiras tem vivido um processo assim, com gente nova, disposta a fazer o clube dar certo porque torcem por ele e são remunerados por essa prestação de serviço. E não porque tem alguma empresa deles que pode ser beneficiada pelo sucesso do clube.\n\nTá na hora de dar um basta definitivo a esse modelo de gestão ultrapassada e altamente prejudicial para o clube.",
      "time": "2013-08-23T21:10:35",
      "id": "1015383424",
      "parentPost": "Resumindo:\nquerem a GESTÃO PRISCO(a mais vitoriosa da nossa história) de volta.\nSendo que muitos que participarão do protesto faziam parte dos idiotas que pediram a saída dele em 2010.\nPPP eterno!!",
      "parentPostTime": "2013-08-23T18:25:37",
      "parentPostId": "1015182924"
    },
    {
      "threadId": "1617696914",
      "post": "Talvez os processos trabalhistas que o time sofreu do ano passado pra cá ajudam a explicar. Se essa história realmente é verdade, só o Eutropio não tinha nada a perder das opções que você listou. \n\nPelo jeito não é só com a torcida que esses dirigentes estão queimados. ",
      "time": "2013-08-19T18:33:07",
      "id": "1006842768",
      "parentPost": "Segundo o Faraco agora no Debate Diário, o Vinicius Eutrópio era a terceira Opção do Figueirense, diga-se de passagem do MMT. Primeiro foi tentado contato com o Jorguinho e depois com o Ney Franco e ambos não quiseram vir, por que será?\n\nSegundo ele també, tem 4 nomes praticamento fechados com o Figueirense:\n\n-Zé Roberto - Meia-atacante/atacante afastado do Bahia desde Maio, quando chegou o Cristovão Buarque.\n\n-Gustavo - Zagueiro reserva da Ponte-Preta, que teve boa passagem pelo Atlético-Pr e que sofreu com lesões ano passado. Não se firmou esse ano pois vinha em recuperação das lesões do ano passado. Pelo visto quase não jogou esse ano.\n\n-Rivaldo - Volante/Lat. Esquerdo - Ex-avaí e atualmente esta no Sport se não me engano. Foi pro Palmeira a pedidos do Felipão quando saiu do avaí.\n\n-Bruno Peres - Lateral Direito - Atualmente na reserva do Santos. Era titular com o Murici e após a saído do técnico o Santos trouxe o Cicinho e ele foi para a Reserva. Fez inclusive um dos Gols do Santos ano passado aqui no Scarpelli. \n\nSegundo o Faraco o Bruno Peres é o que ainda falta mais coisa. Os outros pelo visto só falta virem assinar o contrato. \n\nBasta saber se é verdade ou não.... Alguém conhece esses jogadores??",
      "parentPostTime": "2013-08-19T16:45:31",
      "parentPostId": "1006700615"
    },
    {
      "threadId": "1596577133",
      "post": "E é bom reforçar que essa é a opinião do Henrique Santos, não do site. O Meu Figueira é um espaço para informações a respeito do dia-a-dia do clube e sua torcida. O Blog Meu Figueira (dentro do site) é para cada um manifestar a sua opinião como quiser. \n\n\nE obviamente nem todos temos a mesma opinião sobre os inúmeros assuntos do clube, afinal somos 20! O importante é continuar o debate e expor diferentes pontos de vista para o torcedor estimular seu senso crítico e formar sua opinião.",
      "time": "2013-08-12T04:31:52",
      "id": "996891302",
      "parentPost": "Bruno, em 2010 o MeuFigueira fez inúmeros posts a respeito dos últimos dias do PPP e tudo o que ocorreu. Fomos acusados de querer cargos dentro do clube numa nova gestão, mas continuamos combatendo os desmandos de Lodetti e agora do Wilfredo. Nosso objetivo é somente o bem do Figueirense, pois não ganhamos nada em troca, a não ser a alegria de ver nosso clube bem.\n\n\nO modelo PPP estava errado e ultrapassado no final. Foi fantástico até 2007, porém o Prisco se afastou e terceirizou o clube e isso foi péssimo pra gente. Pra mim, o PPP é o maior dirigente da história de Santa Catarina e merece uma estátua no Scarpelli, mas o modelo de um mecenas botando dinheiro e pensando em lucro pessoal está desgastado e é o responsável por falir todos os clubes do Brasil.",
      "parentPostTime": "2013-08-12T00:17:12",
      "parentPostId": "996757879"
    },
    {
      "threadId": "1459075491",
      "post": "\"O Brasil até pode ter ganho da Espanha, mas não foi forte suficiente para derrubar o reality A Fazenda\".\n\nSe a Fazenda acontece durante a semana inteira e Brasil x Espanha foi só no domingo, é bastante considerável o jogo ter alcançado a quinta colocação no ranking semanal.",
      "time": "2013-07-02T14:56:50",
      "id": "949124533"
    },
    {
      "threadId": "1292431419",
      "post": "No DVD até o R. Três é craque, mas amigos são paulinos dizem que o guri é promissor.",
      "time": "2013-05-17T11:52:25",
      "id": "900232300",
      "parentPost": "Aqui um video com boa jogadas do garoto: http://www.youtube.com/watch?v=t3vZa-mIo90\nTem velocidade, toque de bola e é habilidoso...tem grandes chances de nos dar muitas alegrias.",
      "parentPostTime": "2013-05-16T14:54:09",
      "parentPostId": "899327273"
    },
    {
      "threadId": "1273691412",
      "post": "Para votar é só clicar nas flechinhas logo após cada comentário. Lembrando que o mais votado vira post! =)",
      "time": "2013-05-09T01:27:41",
      "id": "890203346"
    },
    {
      "threadId": "1241418937",
      "post": "Perfeito, Rafael! Já solicitamos a importação dos comentários antigos, mas leva até 24 horas para ser concluído!",
      "time": "2013-04-28T15:15:52",
      "id": "878481166",
      "parentPost": "Um aviso: aqui no meu computador, provavelmente com a mudança no sistema de comentários, não consigo ler os comentários a esse post anteriores à mudança.",
      "parentPostTime": "2013-04-28T14:35:09",
      "parentPostId": "878457741"
    },
    {
      "threadId": "1241469955",
      "post": "Quem quiser pode responder direto ao comentário clicando em \"responder\". ;)",
      "time": "2013-04-28T13:22:06",
      "id": "878419777",
      "parentPost": "Teste",
      "parentPostTime": "2013-04-28T13:15:21",
      "parentPostId": "878416633"
    },
    {
      "threadId": "1241454892",
      "post": "Dalhe DoN!",
      "time": "2013-04-28T12:56:59",
      "id": "878408282"
    },
    {
      "threadId": "1241454071",
      "post": "Teste",
      "time": "2013-04-28T12:56:30",
      "id": "878408054"
    },
    {
      "threadId": "1069383561",
      "post": "incredible job!",
      "time": "2013-02-15T23:58:31",
      "id": "800915975"
    },
    {
      "threadId": "651790502",
      "post": "Eu concordo muito com o destaque pro We Were Promised Jetpacks. Eu vi essa música que você publicou ao vivo e fiquei impressionado. O público reagindo bem pra caramba, os caras à vontade fazendo uma sonzeira, gurizada tem futuro.",
      "time": "2012-04-16T20:20:44",
      "id": "499178191"
    },
    {
      "threadId": "570276765",
      "post": "Obrigado demais, Fe! Seu apoio me deixa ainda mais animado para seguir em frente! =)",
      "time": "2012-02-10T13:13:28",
      "id": "435199867"
    },
    {
      "threadId": "512954761",
      "post": "Poliamor = Poligamia. Um termo novo pra algo velho. Negócio é ser feliz seja como for e qual for o rótulo.",
      "time": "2012-01-03T13:26:42",
      "id": "399523586"
    },
    {
      "threadId": "505511673",
      "post": "Avante, cambada!",
      "time": "2011-12-16T12:36:46",
      "id": "387931336"
    },
    {
      "threadId": "376126285",
      "post": "Muito, muito bom. E que exemplo a Marianna deu compartilhando com a gente que a ref aqui do UoD virou post. Como estimulamos mais pessoas a fazerem o mesmo? =)",
      "time": "2011-08-03T17:46:54",
      "id": "276229990"
    },
    {
      "threadId": "284333706",
      "post": "Opa! Valeu a dica. ;)\nQuem quiser vai deixando as suas por aqui também!",
      "time": "2011-04-20T19:25:31",
      "id": "188392198",
      "parentPost": "Acrescentaria o Tell 3000 do Pete Black Shaw http://www.tell3000.com/",
      "parentPostTime": "2011-04-20T16:15:11",
      "parentPostId": "188276248"
    },
    {
      "threadId": "274568605",
      "post": "Cava, concordo com você que a afirmação foi equivocada. Ela sozinha não faz sentido, mas talvez no contexto do discurso que ela estava fazendo no momento a gente conseguisse identificar melhor de qual parte dessa \"coisa de social media\" ela estava se referindo.\n\nSerá que a afirmação dela não diz respeito à ativação de campanhas de mídia social? Você investe em mídia paga para que um grande número de pessoas cheguem aos seus canais proprietários para aí sim, conquistar através de discurso, conteúdo e postura a atenção e confiança dessas pessoas.\n\nQuando li a frase isoladamente foi isso que me veio à cabeça. Acredito que a forma mais massiva de tornar esses canais proprietários visíveis, é através de mídia paga. Seja um concurso cultural, parceria de conteúdo com veículos, facebook ads ou o famigerado banner. Já fui mais romântico, mas na prática a manutenção de canais com conteúdos e relacionamento dificilmente fazem milagres.",
      "time": "2011-04-08T14:25:08",
      "id": "180896909"
    },
    {
      "threadId": "266918248",
      "post": "AE ALEMAS! És o cara. Sucesso no novo cargo ;)",
      "time": "2011-03-30T20:50:08",
      "id": "175141865"
    },
    {
      "threadId": "254165002",
      "post": "Banida das redes sociais pela marca. Que beleza! =)",
      "time": "2011-03-15T18:16:55",
      "id": "166213640"
    },
    {
      "threadId": "249670422",
      "post": "\"Gildonei\" é mais único uhaehuahu",
      "time": "2011-03-09T19:46:47",
      "id": "163117656"
    },
    {
      "threadId": "244167729",
      "post": "Olha o teste de comentário aí.",
      "time": "2011-03-03T04:32:31",
      "id": "159612127"
    }
  ],
  "profileInfo": {
    "username": "simviral",
    "about": "",
    "name": "Rafael Ziggy",
    "disable3rdPartyTrackers": false,
    "isPowerContributor": false,
    "isAnonymous": false,
    "rep": 1.2594839999999998,
    "profileUrl": "https://disqus.com/by/simviral/",
    "url": "http://rafaelziggy.com.br",
    "reputation": 1.2594839999999998,
    "location": "São Paulo",
    "isPrivate": false,
    "signedUrl": "http://disq.us/?url=http%3A%2F%2Frafaelziggy.com.br&key=LLAAvzbpYyFCzV3aXfrEQg",
    "isPrimary": true,
    "joinedAt": "2008-04-14T16:50:40",
    "id": "22736",
    "avatar": {
      "small": {
        "permalink": "https://disqus.com/api/users/avatars/simviral.jpg",
        "cache": "//a.disquscdn.com/uploads/users/22736/avatar32.jpg?1448752265"
      },
      "isCustom": true,
      "permalink": "https://disqus.com/api/users/avatars/simviral.jpg",
      "cache": "//a.disquscdn.com/uploads/users/22736/avatar92.jpg?1448752265",
      "large": {
        "permalink": "https://disqus.com/api/users/avatars/simviral.jpg",
        "cache": "//a.disquscdn.com/uploads/users/22736/avatar92.jpg?1448752265"
      }
    }
  }
}