{
  "comments": [
    {
      "threadId": "2047624214",
      "post": "wow... did not know that. Thanks for sharing :)",
      "time": "2013-12-14T13:31:40",
      "id": "1163034990",
      "parentPost": "Very, very simple but I learned that the help box that comes up with formulas (the one showing the syntax) can be moved where you want it to be.  Handy, because it always seems to pop up in a way that obscures the active cell.",
      "parentPostTime": "2013-12-14T12:11:40",
      "parentPostId": "1162925020"
    },
    {
      "threadId": "2003631146",
      "post": "If possible set up data import as a table. This will automatically extend or remove rows as needed. If the extra columns are calculations, they will be re-done upon data import.",
      "time": "2013-12-13T09:01:07",
      "id": "1161172302",
      "parentPost": "I am currently performing DAILY updates to a table. The table has 19 columns, and the # of rows change on a daily basis. All relevant data is within 1 row. Is there a way that I can highlight the ones that need to be added and/or deleted from my table each day? I am currently doing this manually. My \"Yesterday's Table\" has 19 columns, and the \"Info Pull\" has 15. The last 4 columns must be added manually as they are looked up on a case by case basis. Any help would be greatly appreciated. Thank you, jbrydges@finning.ca",
      "parentPostTime": "2013-12-12T22:28:21",
      "parentPostId": "1160728557"
    },
    {
      "threadId": "2003548921",
      "post": "What if you use another means to transfer the file (say email or file sharing service)?",
      "time": "2013-12-11T15:33:04",
      "id": "1158754188",
      "parentPost": "Well yes. To clarify, everything works perfect on my computer. And all the cells witch the data labels refers to contains data and they're in the same workbook as the chart. Just on a different sheets. Then I make a copy of the file, put it on a flash drive and even then, when I open the file from the flash drive on the same computer everything works perfect. But when I put my flash drive in another computer (I've tried several) the data labels doesn't refesh! All cells looks the same. The chart works just fine. Text box's within the chart aswell. Just not the data labels. And I have somewhere between 150 and 200 of hem. I don't want to update all of the manually everytime I move the file. Please help. ",
      "parentPostTime": "2013-12-11T08:43:27",
      "parentPostId": "1158418117"
    },
    {
      "threadId": "2026199634",
      "post": "There is no way (well, almost) to control the speed. It just depends on how fast your Excel is. The moveBy tells Excel how many pixels to move each time the line runs.",
      "time": "2013-12-11T15:05:13",
      "id": "1158716961",
      "parentPost": "Thanks for this. I'm playing with this and have the ball traveling in a square. One thing doesn't make sense:\n\n\nWhat is the relationship between moveBy and increment?\nMoving either one of the variables changes the distance the ball travels. I thought i would only impact speed but it does impact the distance.\n\n\n\nWhat's going on?",
      "parentPostTime": "2013-12-08T23:17:48",
      "parentPostId": "1155361199"
    },
    {
      "threadId": "2003406888",
      "post": "I am not sure I understand this. Can you email me sample data and clearly explain what the lookup should return? My email address is chandoo.d@gmail.com",
      "time": "2013-12-10T08:13:45",
      "id": "1156997005",
      "parentPost": "No Sanjeev this will not work :(. Here is the data -\nLookup value will be in Col-b and named as Range1\nThe value to be fetched from Col-G. Name Range2 is encompassing Col-E to Col-J\nCol-C & Col-D not to be considered in Vlookup\n\nCol-B.....Col-C&D...........Col-E.....Col-F.....Col-G.....Col-H.....Col-I.....Col-J\n............No C&D col\nJohn...............................D11........D12.......D13........D14.......D15......D16\nMark...............................D21........D22.......D23........D24.......D25......D26\nAndy...............................D31........D32.......D33........D34.......D35......D36\nHarry..............................D41.........D42.......D43........D44.......D45......D46\n\nOn day-1 the vlookup table array will be Range1&Range2 & Index=4\nOn day-2 the vlookup table array will be Range1&Range3 (Col-K to Col-P) & Index=4\nOn day-3 the vlookup table array will be Range1&Range5 (Col...... to Col....) & Index=4\nThere is reason that on daily basis the range name will be different.\nI am aware the I can select complete sheet as lookup table array but that is not solution as index value will be constant 4.",
      "parentPostTime": "2013-12-05T13:45:05",
      "parentPostId": "1151571825"
    },
    {
      "threadId": "2037427170",
      "post": "Sounds interesting. Can you share your template with our readers?",
      "time": "2013-12-10T03:27:21",
      "id": "1156829499",
      "parentPost": "I did something similar for a cascade - a pain to set up but the template goes on forever",
      "parentPostTime": "2013-12-09T17:40:13",
      "parentPostId": "1156152244"
    },
    {
      "threadId": "2016597463",
      "post": "Hi Alain... starting tomorrow morning, the price will be reduced (no need for any discount code). It will revert to original price after the sale is over.",
      "time": "2013-12-03T02:40:38",
      "id": "1148156914",
      "parentPost": "What is the discount code?",
      "parentPostTime": "2013-12-02T19:59:21",
      "parentPostId": "1147740789"
    },
    {
      "threadId": "2003379687",
      "post": "Testing Disqus comments...",
      "time": "2013-11-27T06:01:00",
      "id": "1140652817"
    },
    {
      "threadId": "33288466",
      "post": "Wow.. this is really ugly. did they use spheres? Shouldnt the pies be cones in that case? The chart says \"lack of clarity\"... such irony",
      "time": "2009-09-08T14:20:10",
      "id": "16186298"
    }
  ],
  "profileInfo": {
    "username": "r1c1",
    "about": "",
    "name": "Chandoo",
    "disable3rdPartyTrackers": false,
    "isPowerContributor": false,
    "isAnonymous": false,
    "rep": 1.2820969999999998,
    "profileUrl": "https://disqus.com/by/r1c1/",
    "url": "http://chandoo.org/wp/",
    "reputation": 1.2820969999999998,
    "location": "",
    "isPrivate": false,
    "signedUrl": "http://disq.us/?url=http%3A%2F%2Fchandoo.org%2Fwp%2F&key=sIHqX3nfFNen4jEglpbQEg",
    "isPrimary": true,
    "joinedAt": "2008-08-13T16:13:57",
    "id": "82138",
    "avatar": {
      "small": {
        "permalink": "https://disqus.com/api/users/avatars/r1c1.jpg",
        "cache": "//a.disquscdn.com/1468276017/images/noavatar32.png"
      },
      "isCustom": false,
      "permalink": "https://disqus.com/api/users/avatars/r1c1.jpg",
      "cache": "//a.disquscdn.com/1468276017/images/noavatar92.png",
      "large": {
        "permalink": "https://disqus.com/api/users/avatars/r1c1.jpg",
        "cache": "//a.disquscdn.com/1468276017/images/noavatar92.png"
      }
    }
  }
}