{
  "comments": [
    {
      "threadId": "4787255993",
      "post": "Lulz!!",
      "time": "2016-06-02T14:24:50",
      "id": "2708337087",
      "parentPost": "My name is actually Benjamin so I know exactly what you mean =)",
      "parentPostTime": "2016-06-02T14:23:40",
      "parentPostId": "2708335180"
    },
    {
      "threadId": "4703035904",
      "post": "This helped me earn back all my losses and gain a bit more. I'mo take my mom to brunch.",
      "time": "2016-05-04T01:14:00",
      "id": "2656863051"
    },
    {
      "threadId": "4653350794",
      "post": "I bought way too early. Byebye, 20 bucks.",
      "time": "2016-03-18T00:57:23",
      "id": "2575727479"
    },
    {
      "threadId": "4628393309",
      "post": "Lulz",
      "time": "2016-03-16T01:50:09",
      "id": "2571982367",
      "parentPost": "Nate Silver is so bias.  He takes all of these numbers that come from other sources and then puts some voodoo magic that he probably learned in that school thing.  My model I built in a garage says otherwise.  What happened in the last state is always going to happen going forward.  I have more momentum than you so my vote counts twice as much as yours does.\n\nI'm just as guilty here though of bragging when I win and not saying anything when I lose.  I've just always wanted to do this once.",
      "parentPostTime": "2016-03-16T01:49:46",
      "parentPostId": "2571981855"
    },
    {
      "threadId": "4648365549",
      "post": "Yeah!!!",
      "time": "2016-03-11T04:04:20",
      "id": "2563257695"
    },
    {
      "threadId": "4062664531",
      "post": "Thank you for clarifying. I was just trying to address the \"unauthorized use\" thing.",
      "time": "2015-08-25T01:48:31",
      "id": "2213031951",
      "parentPost": "But political ads almost always use those clippings and logos within an advertisement that has their own logo on it in a more prominent location, and usually separated graphically. The Protect Fayetteville logo doesn't appear anywhere on this \"revisit\" at all, and their name is in smaller type than the name of the Chamber of Commerce is in the Chamber logo. Further, their name is in the same font and color as the body of the original letter, which could lead one to believe that it is part of the original letter. In other words, they weren't consistent in using red to denote their changes to the letter. (Putting their own words in red type? Who do they think they are-- Jesus?) Also note that the Chamber's logo appears at the top of the page, the logo for the Chamber's national affiliation appears at the bottom, and the only contact information on this \"revisit\" is for the Chamber of Commerce. In other words, the Chamber's identity is clearly shown twice for each obscured mention of Protect Fayetteville's identity.",
      "parentPostTime": "2015-08-25T01:14:32",
      "parentPostId": "2212984706"
    },
    {
      "threadId": "3597476997",
      "post": "I am a caregiver for my mother. It requires a great deal of patience and kindness. On a daily basis I provide her love, support, humor and reassurance. ",
      "time": "2015-03-15T17:07:39",
      "id": "1908459793"
    },
    {
      "threadId": "3580134020",
      "post": "Good to see you too! I will tweet you the latest. It's a DOOZY.",
      "time": "2015-03-11T05:56:28",
      "id": "1900604852",
      "parentPost": "Glad to see you here, and yes, we definitely need this POS held accountable. I'll help.",
      "parentPostTime": "2015-03-10T19:02:39",
      "parentPostId": "1899544387"
    },
    {
      "threadId": "3515509111",
      "post": "I would use it to pay bills or buy groceries. Maybe even put gas in the car. Ballin'!",
      "time": "2015-02-15T11:30:34",
      "id": "1856406800"
    },
    {
      "threadId": "3514194370",
      "post": "The rafflecopter code is broken!!!!",
      "time": "2015-02-14T05:56:42",
      "id": "1854052844"
    },
    {
      "threadId": "3499679325",
      "post": "Cotton undies.",
      "time": "2015-02-11T04:25:24",
      "id": "1847169315"
    },
    {
      "threadId": "3504686565",
      "post": "Amazon gift card. Saving for a laptop!",
      "time": "2015-02-11T01:33:58",
      "id": "1846945968"
    },
    {
      "threadId": "3498951762",
      "post": "This is amazing.",
      "time": "2015-02-09T10:35:04",
      "id": "1843343146"
    },
    {
      "threadId": "3473425478",
      "post": "Netflix/YouTube/Prime/Hulu!",
      "time": "2015-02-07T03:56:13",
      "id": "1839750900"
    },
    {
      "threadId": "3486162172",
      "post": "I try everything! Salt. Spray. Water. Tea. Cough drops. Whiskey.",
      "time": "2015-02-05T06:25:48",
      "id": "1835975524"
    },
    {
      "threadId": "3486528454",
      "post": "And yes, I would love to win!",
      "time": "2015-02-05T06:22:38",
      "id": "1835973297"
    },
    {
      "threadId": "3460278075",
      "post": "This is great! I would enter if there was a guarantee it wouldn't collect my spinster dust for a few years.",
      "time": "2015-01-27T16:07:45",
      "id": "1819755125"
    },
    {
      "threadId": "3423948235",
      "post": "Yes! And honestly, I would never go back to my \"plan.\" Ever!",
      "time": "2015-01-17T17:01:16",
      "id": "1798471456",
      "parentPost": "I do think it's funny but like I said, it was a choice to be a professional pet sitter. Not something I settled for. Bellesouth, I'm sorry things didn't work out with your original plans but glad you found your niche! Don't you love working with animals every day?!",
      "parentPostTime": "2015-01-17T16:43:05",
      "parentPostId": "1798447771"
    },
    {
      "threadId": "3299677022",
      "post": "One year I spent Christmas in England. It was wonderful!",
      "time": "2014-12-21T06:58:57",
      "id": "1752542993"
    },
    {
      "threadId": "2879918453",
      "post": "Way to keep up the stereotype, open-carry guys! \"Oh no! boobs! I'm skeered!\"",
      "time": "2014-07-29T00:59:51",
      "id": "1509082099"
    },
    {
      "threadId": "2797050583",
      "post": "I don't say this too often, but that salad looks like total nommage. ",
      "time": "2014-06-26T18:43:58",
      "id": "1455903885"
    },
    {
      "threadId": "2781621009",
      "post": "I wish Jesus would take the wheel whenever my phone falls under the passenger's seat just before Pandora decides to play Carrie Underwood for me. ",
      "time": "2014-06-22T04:29:53",
      "id": "1448390426"
    },
    {
      "threadId": "2761637707",
      "post": "I am glad I am not the only one who gets tired of Hugh Jackman. He's everywhere! Like a chimp infected with Hugh Jackman escaped from the lab. ",
      "time": "2014-06-14T20:43:26",
      "id": "1435670949"
    },
    {
      "threadId": "2752880100",
      "post": "Totes. ",
      "time": "2014-06-12T04:31:48",
      "id": "1431535466"
    },
    {
      "threadId": "2699929519",
      "post": "Oscar Martinez on The Office was a friendly atheist. Patrick on the Mentalist is one, too. But I have yet to see a true \"Good without God\" story on television. ",
      "time": "2014-05-22T07:06:36",
      "id": "1398985630"
    },
    {
      "threadId": "2614277954",
      "post": "Haha, I can't even read the comments because I know the assumptions a headline like this will draw in! And no, there are no indications in this story that this had anything to do with her having a problem with her son's relationship, outside that she perceived it as abusive.",
      "time": "2014-04-16T01:43:59",
      "id": "1339827887",
      "parentPost": "I had the same thought and I'm glad you said it. If the headline read \"sons boyfriend\" do you think so many posters would have assumed she had a problem with it? I don't see anything in this story that says she had issues with anything but her perception that it was abusive and that seems to have come from her son.",
      "parentPostTime": "2014-04-15T22:30:39",
      "parentPostId": "1339193957"
    },
    {
      "threadId": "1961305760",
      "post": "I actually looked at the tub of Crisco in my cabinet - I'm sure it's at least three years old - and it has zero trans fats now. Their vegetable oil, however, has tons of trans fats.",
      "time": "2013-11-13T06:44:49",
      "id": "1120778216",
      "parentPost": "Translation: He's concerned because there were no donuts before trans-fats were invented.  No cake, no cookies, nothing.  He owes all he is to Crisco, and it helps keep his mind sharp while keeping his heart small and dark.  If they get rid of hydrogenated oils, why, next thing you know, black people will be lining up expecting to vote.  And then we'll all become muslin and wear sheets.  All because of donuts.  So there.  Translation complete.",
      "parentPostTime": "2013-11-13T04:06:10",
      "parentPostId": "1120630941"
    },
    {
      "threadId": "1840646964",
      "post": "The idea of being gay isn't \"shocking\" at all, nor should it be. I would be shocked if they were actually reptilians covered in human flesh.",
      "time": "2013-11-13T06:32:10",
      "id": "1120757201",
      "parentPost": "just because a man does musical's doesn't make him gay. That is just so wrong. yes, David hyde pierce is shocking.",
      "parentPostTime": "2013-10-30T00:07:00",
      "parentPostId": "1101598314"
    },
    {
      "threadId": "1876320604",
      "post": "Accusations of stupidity + basic grammatical errors = COMEDY GOLD.",
      "time": "2013-10-22T18:11:03",
      "id": "1092438050",
      "parentPost": "Hahahaha. ",
      "parentPostTime": "2013-10-22T18:08:25",
      "parentPostId": "1092432367"
    },
    {
      "threadId": "1873409486",
      "post": "This reminds me of the comments that are captured by my website's spam filter.",
      "time": "2013-10-20T15:41:34",
      "id": "1089776782"
    },
    {
      "threadId": "1425830142",
      "post": "These are so awesome! How did you manage to get tribal designs on both hands? I'm a lefty, but my right hand can't function at all.",
      "time": "2013-08-08T06:33:13",
      "id": "992573976"
    },
    {
      "threadId": "1485159515",
      "post": "WOW. I just did an analysis of my dog's own \"Premium\" dog food and discovered it's at 49% carbohydrate!!! And I pay 20 bucks for this stuff! 20 bucks a month for premium dog food. Looks like i may need to consider moving him to a different brand. It's so hard to believe this, because my dog usually gets sick when he eats the cheaper stuff, and I always figured it was because of the higher carb levels or corn being the first ingredient.\n\nAlso, LMAO @ \"wild sweet potatoes.\"",
      "time": "2013-07-12T10:27:41",
      "id": "959619612"
    },
    {
      "threadId": "1369769027",
      "post": "This is very near and dear to my heart as well. Until about five years ago, the Walmart parking lot in Bentonville was like a puppy fair every weekend. The city council put a stop to that, as \"breeders\" from who knows where were coming in from as far as three, four hours away to sell puppies on impulse. Now they're gone and have to find somewhere else to go. I was so upset a few weeks ago when I saw someone selling beagles from the back of a truck on the highway. To get my dog from a Humane Society two hours away, I had to fill out an application, which included sending photographs of my house, the exterior and the neighborhood, listing three references and having them call our landlord. That is the way every animal should be introduced into a home - not bought off the street, in a store or in the parking lot from who knows where and TO who knows where. Thanks Lori!",
      "time": "2013-06-13T16:38:09",
      "id": "929387588"
    },
    {
      "threadId": "1033785078",
      "post": "I must make a clarification here: Some of the scenes you describe as telling that it was made in 1972 were actually from Adamson's 1966 film Psycho a Go-Go. This includes the scene in which he kills the woman who catches him snooping in the office, and later when he strangles the woman in the cheap hotel. Both films are available to watch on Hulu Plus and are interesting to watch to see the drastic differences between the two.",
      "time": "2013-06-12T15:11:42",
      "id": "927770888"
    },
    {
      "threadId": "1392132849",
      "post": "Good luck getting a job, Ms. Chapman!",
      "time": "2013-06-12T05:07:06",
      "id": "927343905"
    },
    {
      "threadId": "1390658170",
      "post": "My dog has the stankiest breath ever. Especially in the summertime, when he decides to go into hunting mode and puts all kinds of scary creatures and items in his mouth. Thankfully, he's an absolute sweetheart when I brush his teeth, but these things will help as well. \n\nYou can never get rid of enough dog breath. I'll leave it at that.",
      "time": "2013-06-11T20:39:05",
      "id": "926844244"
    },
    {
      "threadId": "1390823215",
      "post": "The AT-AT was my favorite Star Wars toy as a child. This makes me happy. I'm going to have to pin it now to my Imaginary Pinterest Wedding board.",
      "time": "2013-06-11T20:31:24",
      "id": "926827508"
    },
    {
      "threadId": "1216311647",
      "post": "I have a family member who did something similar, but not at a public event. Been found by police several times. What if she wasn't obese? It's no different than a slender woman wearing a bikini.",
      "time": "2013-04-16T21:36:19",
      "id": "865516154"
    },
    {
      "threadId": "1137791444",
      "post": "I feel this way on many occasions about Flauntt. I think the problem is that right now there are just too many low-quality contributors to the site. Although I agree with your sentiments, it's not going to stop me from using Flauntt. It will, however, make me be a bit more discerning and diplomatic about what content I share. Because if you share spammy content, it's just going to encourage the spammers even more. But if you share good content that will be of value to your followers, not only will your followers NOT get annoyed, but the quality content is shared, and those who post pure crap might either leave or at least have incentive to share better content. I try to share stuff that's at least worth 7 Flauntts because I know it's just going to be better, but I think I'll be a bit more discerning this time around. \n\nGreat review, and you're not alone. BTW - I'm the one in the third row, middle photo. Yurp, that's me.",
      "time": "2013-03-15T16:22:18",
      "id": "830277396"
    },
    {
      "threadId": "1021087321",
      "post": "i have made money crafting in the past, and have made money writing for almost 20 years! Great post.",
      "time": "2013-01-13T23:03:21",
      "id": "766511233"
    },
    {
      "threadId": "246618997",
      "post": "I give the hoarder in my family something that can either be used or is for the purpose of giving away or actually being used. Crossword puzzle books and all-occasion greeting card sets are a big hit with her.",
      "time": "2012-11-27T03:48:24",
      "id": "719939058"
    },
    {
      "threadId": "930419390",
      "post": "None of these denominations are right-wing, and their positions on abortion have remained similar over the decades.",
      "time": "2012-11-19T17:33:52",
      "id": "713968994"
    },
    {
      "threadId": "850040789",
      "post": "No kids and I get the same thing. PR folks: Please stop asking us to post your stuff for free. You KNOW we are influential and you KNOW we have value. Stop taking advantage of us. ",
      "time": "2012-09-20T03:52:58",
      "id": "656247960"
    },
    {
      "threadId": "262396039",
      "post": "Finishing this film up on Netflix right now. I can understand why there's no mention of Peter Jackson; Australians and New Zealanders (Zealanders?) don't like to be lumped in together. It would kind of be like throwing David Cronenberg into a film about American horror films, when his early films were very, very Canadian.\n\nI am an exploitation-documentary JUNKIE and would LOVE to see the early films of Peter Jackson explored in a documentary. ",
      "time": "2012-06-30T18:38:15",
      "id": "573090306"
    },
    {
      "threadId": "742763935",
      "post": "If I had my way I'd go barefoot all the time! unfortunately I need the arch support. Maybe there's a shoe solution for me.",
      "time": "2012-06-30T16:03:12",
      "id": "573014368"
    },
    {
      "threadId": "731509107",
      "post": "Beautiful!",
      "time": "2012-06-24T02:35:11",
      "id": "565739431"
    },
    {
      "threadId": "736006641",
      "post": "I've noticed an Abandoned Blog Amusement Park among my RSS reader. It makes me sad that people just abandoned their sites. No announcements, no goodbyes, just... *poof.* I also saw one of my favorite Youtube comedians have to shut down his web site because no one would donate to his Paypal link. It's sad; I and a bunch of other people could have helped him monetize his site. Breaks my heart. You have to keep going, and you have to look at everything you do as an investment. Commenting right here is an investment.",
      "time": "2012-06-22T01:33:11",
      "id": "564116025"
    },
    {
      "threadId": "725090062",
      "post": "I've never understood the whole reading-in-the-bathroom thing. I just don't spend that much time in there.",
      "time": "2012-06-15T04:46:05",
      "id": "558007436"
    },
    {
      "threadId": "726013643",
      "post": "I love bacon, and I love How It's Made. This post is golden. I mean, red and crispy.",
      "time": "2012-06-14T16:52:14",
      "id": "557346434"
    },
    {
      "threadId": "716299847",
      "post": "AWESOME.",
      "time": "2012-06-06T23:49:54",
      "id": "549293426"
    },
    {
      "threadId": "666866325",
      "post": "Somehow I feel as if I shared this, I'd be validating the question.",
      "time": "2012-05-03T01:04:36",
      "id": "517218224"
    },
    {
      "threadId": "655080658",
      "post": "I use #SMRocketFuel",
      "time": "2012-04-19T15:58:10",
      "id": "502464452"
    },
    {
      "threadId": "644134001",
      "post": "YUMMY.",
      "time": "2012-04-18T16:04:36",
      "id": "500907469"
    },
    {
      "threadId": "648133602",
      "post": "I haven't used a Windows phone since I had my Blackjack. I'm now on my second Android phone and I love it. My main concern with Windows phones is that there are soooo many apps I use that Windows Mobile doesn't have yet. Then again, I have a year until I'm eligible for an upgrade, and those compatibility issues should be settled by then.",
      "time": "2012-04-14T03:48:00",
      "id": "496896834"
    },
    {
      "threadId": "647926392",
      "post": "UGH, you would think Republicans would know by now: Never invoke Mellencamp or Springsteen for your campaign. This crap has been going on for 30 years. Dumbasses.",
      "time": "2012-04-13T15:09:10",
      "id": "496329668"
    },
    {
      "threadId": "639273722",
      "post": "Good luck!",
      "time": "2012-04-10T06:49:45",
      "id": "492933969"
    },
    {
      "threadId": "634106718",
      "post": "Thank you for having this story. Forgiveness is so important. It doesn't mean you're giving someone a pass; it means you are letting go and not letting the past control you. In an era in which we demand revenge, vengeance, justice, we must focus on finding peace. Peace heals.",
      "time": "2012-04-03T14:41:43",
      "id": "484608550"
    },
    {
      "threadId": "634388220",
      "post": "Bill Gates + Tandy 2000 = <3",
      "time": "2012-04-03T02:33:35",
      "id": "484055112"
    },
    {
      "threadId": "630645192",
      "post": "This is great!!! Such an excellent way to reward and market someone! :)",
      "time": "2012-03-31T09:26:32",
      "id": "481684815"
    },
    {
      "threadId": "591710363",
      "post": "I can't believe it! It's been almost a month since you posted this and I was still able to snag this sample! Nice!",
      "time": "2012-03-24T16:03:52",
      "id": "475267459"
    },
    {
      "threadId": "615955817",
      "post": "Thanks for posting this. It is a very little-known disease and I thank you for shedding light on it. This is the disease singer Woody Guthrie died of.",
      "time": "2012-03-21T14:50:59",
      "id": "472402358"
    },
    {
      "threadId": "587178317",
      "post": "I, too, love the Starfish parable. You may just be one person in the world, but you can be the world to one person. It's so important to reach out to kids and show them that SOMEONE cares.",
      "time": "2012-02-25T02:46:25",
      "id": "448393021"
    },
    {
      "threadId": "584834128",
      "post": "WOW! That gadget is awesome; I need one of those! I love this: Review Blog meets Mr. Wizard.",
      "time": "2012-02-22T20:41:19",
      "id": "446224829"
    },
    {
      "threadId": "575226404",
      "post": "PeTA's web site states that as part of its employee benefits package, comprehensive health care with prescription coverage is included. \nSince every drug on the market must be tested on animals, and a lot of drugs include animal products (the biggest example being anything that comes in caplet form), this is one of many existing examples of employers offering benefits that go against their morals.\nI'm sure PeTA would defend the notion that it is in their best interest that employees are alive and healthy so they can fight for their cause.",
      "time": "2012-02-14T15:23:24",
      "id": "438920934"
    },
    {
      "threadId": "529714939",
      "post": "It wasn't too long ago when women went to college to \"get their MRS.\" So much has changed since then. Now we have colleges all across the country where females outnumber males on campus. They are also getting degrees in physics, biology, mathematics, etc. Bravo, I say\n\nMy degree is in Sociology. I also went to a small liberal arts college. In many ways it was a bubble that protected me from reality, but in addition I made lots of friends, gained understanding and compassion for people from all walks of life, and earned a lifetime of knowledge.\n\nThere are some things you can't accomplish in the workplace. You can't discuss religion or politics, you can't freely exchange ideas, you just cannot get that same level of human interaction. Same thing with the library or television.\n\nAlso, college expands on topics that are condensed into one or two paragraphs in grade school textbooks. Definitely worth it.",
      "time": "2012-01-08T07:14:22",
      "id": "404759336"
    },
    {
      "threadId": "519493173",
      "post": "Ha! That's great. Look, he's helping. Dogs have a way of wanting to do their part to show they care!",
      "time": "2011-12-29T13:10:30",
      "id": "396438718"
    },
    {
      "threadId": "494599040",
      "post": "I know a lot of Ron Paul supporters who are unhappy with the way he's been ignored the past four years. \n \nI actually think Ron Paul is one of the most dangerous candidates out there. I'm a journalist, and I know if your name is on a publication that you better dang well stand behind whatever crazy rants are published in it. I will never buy for a minute that 20 years went by with those newsletters and he didn't write them or didn't know who wrote them.\n \nStories about fleet-footed black men, Martin Luther King Day being \"Hate Whitey Day,\" and the counterfeiting measures in our currency somehow being used to track people, are just plain frightening. That guy belongs on Jesse Ventura's show, not in an elected office.",
      "time": "2011-12-06T03:36:32",
      "id": "380044126"
    },
    {
      "threadId": "474498661",
      "post": "Hermie has also adopted the Chewbacca Defense.\n\nhttp://www.southparkstudios.com/clips/103454/the-chewbacca-defense",
      "time": "2011-11-17T04:21:01",
      "id": "365769499"
    },
    {
      "threadId": "474401722",
      "post": "You need to add a link to Google Music! Not that we can't find it but it would be useful. :)",
      "time": "2011-11-16T23:54:21",
      "id": "365182117"
    },
    {
      "threadId": "466960155",
      "post": "Unfortunately they're following the orders of the 1%.",
      "time": "2011-11-10T05:43:01",
      "id": "359848223"
    },
    {
      "threadId": "457719459",
      "post": "I think it is very important to start a dialogue with brands. We influencers are consumers, too. Last year I met with a lot of backlash for posting on Sutter Home's Facebook page about how inappropriate it was for the company to engage in breast-cancer-awareness marketing... since alcohol has been directly linked to cancer. People all over the page jumped at me for calling them out, and although I have publicly and objectively criticized a number of brands for engaging in deceptive cause marketing, I have yet to see a company respond to me in appreciation of my concerns. \n \nMost of my audience is female. I promise them every day that I am not going to steer them toward a product or campaign I wouldn't support in my everyday life. I signed the Blog With Integrity pledge. I always thought that as influencers, we were supposed to help shape the brand, not the other way around.\n \nBrand attacks? No. Brand dialogue? Absolutely. Consumers have more power than ever now. Those of us who are fortunate enough to tack on the title of \"influencer\" should exhibit honesty, integrity and objectivity rather than blindly supporting brands.",
      "time": "2011-10-31T15:07:49",
      "id": "351975137"
    },
    {
      "threadId": "432467345",
      "post": "There are so many ways to take care of your stress. Journals are excellent, evaluating the situations that make you stressed or anxious, and look at them in a rational way.\n \nBut as I'm sure you know, there are also other great ways to de-stress. Little, inexpensive things that let you focus on something else. Painting your toenails, working on an art project... things that get you outside of stressful situations and often get instant results.\n \nAnyway, I found you on the blog hop. Congratulations and best wishes!",
      "time": "2011-10-03T09:11:38",
      "id": "325436070"
    },
    {
      "threadId": "406198271",
      "post": "I am not in charge of the TV service so I don't have a DVR yet. I hope to get one of those awesomely sweet-as-all-hell televisions with Windows someday, when I'm rich and famous. \n \nOur living room has a TV that was \"cutting edge\" back in the late 90s. It has PIP and GuidePlus (which we could NEVER get to work). I keep crossing my fingers that it will fry during the winter storm season because I've given up on the hope that it will be \"accidentally\" destroyed by an aluminum baseball bat.\n \nI have a Blu-Ray and a Wii hooked up to that thing and I'm going to get that cool Wii Screen next year. I'm losing out on potentially awesome technology here.",
      "time": "2011-09-30T09:58:50",
      "id": "323652774"
    },
    {
      "threadId": "493736037",
      "post": "Glad to be a part of this! Nice to meet you!",
      "time": "2011-09-01T05:32:51",
      "id": "300168200"
    },
    {
      "threadId": "377029722",
      "post": "&quot;Working for shampoo&quot; is the new &quot;working for peanuts?&quot; :) \n\n________________________________",
      "time": "2011-08-05T22:34:08",
      "id": "278844412",
      "parentPost": "Wow. It's one thing to not have a budget for compensating bloggers, but to say it like that? Wow. ",
      "parentPostTime": "2011-08-05T13:09:49",
      "parentPostId": "278286430"
    },
    {
      "threadId": "359001923",
      "post": "We really took a blow when Clinton signed NAFTA, but Reagan and Bush I had already prepared and placed a shiny red bow on it for him. Reagan proposed NAFTA-like legislation when he was campaigning in 1979.\n\nThere's a piece on it that was written right after it passed on the Heritage Foundation's web site. I can't describe the article without bringing sexual euphemisms into the mix.\n\nhttp://www.heritage.org/research/reports/1993/11/em371-the-north-american-free-trade-agreement\n\nAnd here's the official NAFTA timeline: \n\nhttp://www.fina-nafi.org/eng/integ/chronologie.asp?langue=eng&menu=integ\n\nBarf. Greatest president. WTF.",
      "time": "2011-07-15T23:36:06",
      "id": "253157922",
      "parentPost": "Glad to see you back, bellesouth!  And this comment is a keeper.  But we can't forget that it was Clinton who pushed through NAFTA, and that served as the crowning blow, job-wise.  Deregulation, otoh, actually started under Carter (I remember thinking it was a bad move at the time, and was really surprised he went for it).\n\nSo the Dems aren't immune -- they're just more sane and less hateful.  But they're just about all of them out to deep-six anything in this country that isn't nailed down, or already in the possession of the uber-rich.",
      "parentPostTime": "2011-07-15T21:45:49",
      "parentPostId": "253088108"
    },
    {
      "threadId": "359170506",
      "post": "Google+ serves specific needs that Facebook and Twitter don't meet. Privacy, organization and idea-sharing are likely the most significant ones. I am not sure how Google is going to work with brands, but I can't think of anything remotely close to a \"fan\" page that G+ could possibly have. I'm just keeping my fingers crossed, and I hope my stream isn't suddenly inundated with game requests/group requests/Chris Angel jag-off contests. I think Google understands the frustration and the demands for Internet crap filters. At least so far.",
      "time": "2011-07-15T15:53:03",
      "id": "252806130"
    },
    {
      "threadId": "355160658",
      "post": "Thanks. :)",
      "time": "2011-07-12T04:00:07",
      "id": "248486982",
      "parentPost": "LOL- love your description - very cool",
      "parentPostTime": "2011-07-12T03:17:55",
      "parentPostId": "248427831"
    },
    {
      "threadId": "344306234",
      "post": "Great tips. These are things most of us know, but need to be reminded of so we can get out there, interact and be engaging marketers.",
      "time": "2011-06-28T13:28:19",
      "id": "236867018"
    },
    {
      "threadId": "333366317",
      "post": "I definitely prefer Herzog's. It's just perfect.",
      "time": "2011-06-15T22:05:06",
      "id": "226757835"
    },
    {
      "threadId": "236706829",
      "post": "Lest we forget Jim Jones and the People's Temple originated in Indiana before eventually relocating to San Francisco and then Guyana. I wonder how many families of the victims, or surviving ex-members, still reside in Indiana.",
      "time": "2011-02-22T00:32:47",
      "id": "153643843"
    },
    {
      "threadId": "208769753",
      "post": "\"Il y a un grand poulet dans mes pantalons.\" = \"There is a big chicken in my trousers,\" in French.",
      "time": "2011-01-14T00:07:17",
      "id": "128858232"
    },
    {
      "threadId": "111727033",
      "post": "What about having \"xxx\" or \"69\" in your username?",
      "time": "2010-06-28T00:03:27",
      "id": "58880189"
    },
    {
      "threadId": "89408943",
      "post": "No, I mean \"MORANS.\"\n\nhttp://growabrain.typepad.com/growabrain/Morans.jpg",
      "time": "2010-04-25T16:42:26",
      "id": "46529110",
      "parentPost": "who are the morans ?? or did you mean morons ??",
      "parentPostTime": "2010-04-25T16:21:19",
      "parentPostId": "46527406"
    },
    {
      "threadId": "81933925",
      "post": "\"If\" is exactly the key here. Are they going by anything but that Vanity Fair blog piece?",
      "time": "2010-04-02T20:52:37",
      "id": "42916767",
      "parentPost": "IF he actually did that...",
      "parentPostTime": "2010-04-02T20:38:27",
      "parentPostId": "42914454"
    },
    {
      "threadId": "78824557",
      "post": "Congratulations, Doug!!!",
      "time": "2010-03-24T03:37:50",
      "id": "41327700"
    },
    {
      "threadId": "68664400",
      "post": "This is incredible! It's amazing how far we've come.",
      "time": "2010-02-20T21:03:03",
      "id": "35653647"
    },
    {
      "threadId": "45482777",
      "post": "I really want to give that kid a hug. He is very brave for not being a sheep. ",
      "time": "2009-11-14T02:23:17",
      "id": "22963504"
    },
    {
      "threadId": "28118183",
      "post": "Works great! Keith was awesome.",
      "time": "2009-08-04T02:26:37",
      "id": "13861279"
    },
    {
      "threadId": "18112423",
      "post": "The 110 Drive-In in Fayetteville, open all summer long, shows recently-released movies and has great intermission ads. \r\n\r\nAlso, they charge by carload, not by person, so you don't have to hide a bunch of people in the trunk.",
      "time": "2009-05-14T00:39:51",
      "id": "9302842"
    },
    {
      "threadId": "16392043",
      "post": "That's sad.",
      "time": "2009-04-22T12:57:26",
      "id": "8567698"
    },
    {
      "threadId": "15200261",
      "post": "Let's remember that the official definition of homelessness is not just someone living on the street - but anyone who does not have a room to call their own in a home. For instance, if you are sleeping on your cousin's couch, you are considered homeless.\r\n\r\nhttp://www.hud.gov/homeless/definition.cfm",
      "time": "2009-04-06T15:03:46",
      "id": "7905164"
    },
    {
      "threadId": "13977030",
      "post": "It's such an incredibly sad story. What a beautiful woman, and from such a wonderful family. Breaks my heart.",
      "time": "2009-03-19T13:40:17",
      "id": "7340694"
    },
    {
      "threadId": "13525304",
      "post": "Deep in the woods and just off 540 in the allegedly well-to-do and lavish community of Rogers, there's a tent city that hides a vast number of the area's homeless.\r\n\r\nOccasionally they'll make it out of the woods and come into the Outback Steakhouse to use the restroom.\r\n\r\nThe way our homelessness problem is hidden - and encouraged - is horrific.",
      "time": "2009-03-14T19:11:24",
      "id": "7221782"
    },
    {
      "threadId": "12441616",
      "post": "If I said anything argumentative against Santelli and Liddy's remarks I would be preaching to the choir here, so I'll just say: \r\n\r\nWhat a moron.",
      "time": "2009-02-24T03:05:21",
      "id": "6537789"
    },
    {
      "threadId": "12187917",
      "post": "What I loved was how Santelli said he was talking to \"real America.\"\r\n\r\nAs if he was using bona fide random sampling techniques to get his cheerleaders.",
      "time": "2009-02-20T21:14:17",
      "id": "6440515"
    },
    {
      "threadId": "11832353",
      "post": "I am very, very excited about this stimulus and what it will do for our economy.\r\n\r\nI am also particularly interested in the expanded unemployment benefits and the COBRA subsidies.\r\n\r\nI am also particularly perturbed at the people I've seen leaving comments online that insinuate that anyone who receives unemployment benefits or is struggling with a COBRA just needs to \"find a job already.\"",
      "time": "2009-02-14T22:39:51",
      "id": "6265207"
    },
    {
      "threadId": "11832354",
      "post": "Ohhh, There was some film I watched a few months ago - I believe it was from the late 70s/early 80s - people were waiting frantically to use the next available pay phone at an airport or bus depot or something. Really cool scene, because it made me think about how it just doesn't happen nowadays.",
      "time": "2009-02-14T22:36:18",
      "id": "6265164"
    },
    {
      "threadId": "9437274",
      "post": "Who says \"weaker sex?\" Thanks, men, for making work not so hard on us. Where's my ergometer?",
      "time": "2009-01-06T13:01:23",
      "id": "4932223"
    },
    {
      "threadId": "8453425",
      "post": "Good gravy, he's such a dang moron. ",
      "time": "2008-12-16T19:21:59",
      "id": "4433462"
    },
    {
      "threadId": "8152735",
      "post": "Pat Boone uses his own last name as a curse word. That's how irrelevant he is.",
      "time": "2008-12-09T19:59:27",
      "id": "4294045"
    },
    {
      "threadId": "7869153",
      "post": "He is such a bloated tick of evil.",
      "time": "2008-12-03T18:47:40",
      "id": "4151552"
    },
    {
      "threadId": "7785170",
      "post": "I went to a Hardees for the first time in YEARS a few months ago. And then I remembered why I never go. Worst service, horrible food, horrible experience.\r\n\r\nBest fast food in these here parts is Sonic. mmmm MMMM. Taco Bueno is also very good. Or rather, muy bueno.\r\n",
      "time": "2008-12-02T01:09:51",
      "id": "4112278"
    },
    {
      "threadId": "632587311",
      "post": "I regularly worked the merchandise table at my first job at Chuck E. Cheese's in 1995. The Power Rangers were really popular then - and you would be AMAZED how many boys would ask for the pink ranger toy to purchase with their tickets.\r\n\r\nUntil this one family came in and the little boy asked for the pink ranger. I started to hand it to him, and his mom snapped at me and said, \"He ain't no girl!!!!\" \r\n\r\nI think it was then when I decided if I have kids they can love any dang color they want.\r\n\r\nIncidentally, I'm making baby blankets for a new mom who just gave birth to twins (a boy and a girl). The blankets are, respectively, purple and black. I'm hoping the mom will just let the tykes pick out the binkies themselves. :)",
      "time": "2008-11-25T21:38:06",
      "id": "4012647"
    },
    {
      "threadId": "7459482",
      "post": "Cats have become so much more entertaining because of the internet.",
      "time": "2008-11-23T22:13:07",
      "id": "3973760"
    },
    {
      "threadId": "7172185",
      "post": "I believe the more people come out as gay, the stronger their presence - and the gay rights movement - becomes.\r\n\r\nI am always proud when anyone shows the courage to be who they are, and I am extremely proud of Wanda Sykes this week.",
      "time": "2008-11-17T16:29:25",
      "id": "3861839"
    },
    {
      "threadId": "7166815",
      "post": "I am glad you are back. This gets hard. people forget. \r\n\r\nYou may not know me, but I know you. I'm going to do what I can to support your financially along the way.",
      "time": "2008-11-17T16:18:48",
      "id": "3861687"
    },
    {
      "threadId": "632757794",
      "post": "This is the hardest thing ever about blogging. You give your all, you put your soul and passion into something - and it results in venom and nitpicking and bullshit.\r\n\r\nI love Shakesville. It's a damn fine blogging community.",
      "time": "2008-11-13T20:35:54",
      "id": "3759563"
    },
    {
      "threadId": "6694780",
      "post": "I was so PISSED when all the blogs and what-not were picking on her dress. Even places like Wonkette were nitpicking it! \r\n\r\nHave some class, people. First of all, Michelle Obama always looks lovely.\r\n\r\nSecondly, She is a First Lady with brains and grace.\r\n\r\nAnd thirdly, STFU ABOUT THE DAD-BLAM DRESS ALREADY. Whew.\r\n\r\nThanks, guys.",
      "time": "2008-11-06T11:28:32",
      "id": "3567105"
    },
    {
      "threadId": "6666013",
      "post": "I'm so excited! We've come so far!",
      "time": "2008-11-05T18:09:18",
      "id": "3554948"
    },
    {
      "threadId": "632601583",
      "post": "No matter who wins, we are losing that sorry sack of shit, as well as Dick Cheney, from the goddang White House.\r\n\r\nIf Obama wins, we can guarantee a lack of Karl Rove presence.",
      "time": "2008-11-04T22:32:11",
      "id": "3494978"
    },
    {
      "threadId": "6575169",
      "post": "Edie McClurg is like the best thing ever. I am such a fan. Damn I love Edie.",
      "time": "2008-11-03T14:18:30",
      "id": "3454872"
    },
    {
      "threadId": "6451734",
      "post": "Clutter. Lots and lots of clutter.",
      "time": "2008-10-31T04:07:02",
      "id": "3403564"
    },
    {
      "threadId": "632829311",
      "post": "Well, this just breaks my heart. But it as bound to happen sometime.",
      "time": "2008-10-30T15:16:10",
      "id": "3391201"
    },
    {
      "threadId": "6347984",
      "post": "This really makes my blood boil. \r\n\r\nThis is why I HATE going clubbing unless I have guys to go with already. Because these assholes will come in and act like the freaking Roxbury guys.\r\n\r\nAlso? If a girl says \"no,\" a guy should fucking respect her wishes and get the fuck away. RRR I am so annoyed by this. So freaking annoyed. Disgusting prick.",
      "time": "2008-10-28T14:19:37",
      "id": "3341909"
    },
    {
      "threadId": "761453",
      "post": "That is like the best pickup line ever.",
      "time": "2008-05-19T20:35:03",
      "id": "492557"
    }
  ],
  "profileInfo": {
    "username": "bellesouth",
    "about": "",
    "name": "bellesouth",
    "disable3rdPartyTrackers": false,
    "isPowerContributor": false,
    "isAnonymous": false,
    "rep": 1.39624,
    "profileUrl": "https://disqus.com/by/bellesouth/",
    "url": "http://bellesouthblogs.com",
    "reputation": 1.39624,
    "location": "The South",
    "isPrivate": false,
    "signedUrl": "http://disq.us/?url=http%3A%2F%2Fbellesouthblogs.com&key=ujAyYuC-UvET4M-rUXFsdQ",
    "isPrimary": true,
    "joinedAt": "2008-12-09T19:43:34",
    "id": "161298",
    "avatar": {
      "small": {
        "permalink": "https://disqus.com/api/users/avatars/bellesouth.jpg",
        "cache": "//a.disquscdn.com/uploads/users/16/1298/avatar32.jpg?1464877491"
      },
      "isCustom": true,
      "permalink": "https://disqus.com/api/users/avatars/bellesouth.jpg",
      "cache": "//a.disquscdn.com/uploads/users/16/1298/avatar92.jpg?1464877491",
      "large": {
        "permalink": "https://disqus.com/api/users/avatars/bellesouth.jpg",
        "cache": "//a.disquscdn.com/uploads/users/16/1298/avatar92.jpg?1464877491"
      }
    }
  }
}