{
  "comments": [
    {
      "threadId": "853612192",
      "post": "It'd be really sad if Mello Mello were to close - it's a great place. People interested in its plight may be interested in the council's guidelines for the business rates relief available to non-profits like MM: http://liverpool.gov.uk/Images/CharityRateReliefGuidance.pdf\n\n\nI guess these were the criteria Rob was talking about? If so, there are loads of ways the venue goes above and beyond the needs of these criteria, but I wonder if this was a sticking point: \"The balance between sporting and social activities will be an important factor– the existence of a bar or catering facilities should not in themselves preclude the granting of relief but must not exceed 50% of total income\".\n\n\nEither way, the final criterion, \"The financial impact on the City Council given that agreed budgets cannot be exceeded\", does unfortunately seem to give them carte blanche to do what they like.",
      "time": "2012-09-21T19:05:41",
      "id": "658137589"
    },
    {
      "threadId": "205696054",
      "post": "I second the awesomeness of Huffduffer.  There are interesting social discovery elements to it, but just being able to get random MP3s I find about the web to appear in my podcatcher to \"listen later\" is so useful.",
      "time": "2011-01-10T12:29:00",
      "id": "126768090",
      "parentPost": "cool\r\n\r\ni will check it out",
      "parentPostTime": "2011-01-09T14:19:53",
      "parentPostId": "126474234"
    },
    {
      "threadId": "145963637",
      "post": "I thought exactly the same...",
      "time": "2010-09-23T20:18:09",
      "id": "80384355",
      "parentPost": "Everything I need to know? Maybe if you had, I don't know, provided a label for the freaking Y axis? This graph actually tells me absolutely nothing other than that Blockbuster declined to some unknown number of somethings while Netflix increased to around 3000 somethings.",
      "parentPostTime": "2010-09-23T20:12:42",
      "parentPostId": "80383239"
    },
    {
      "threadId": "97125557",
      "post": "Good point - but the main nostalgia it gave me was for the days when I used to create interfaces like this, thinking I wanted a career as a software developer ;-)",
      "time": "2010-05-19T17:26:08",
      "id": "51078355"
    },
    {
      "threadId": "91170152",
      "post": "Was meant to be January this year. I've got a soft spot for YC companies too, and I've still got high hopes for Wake Mate. I love the concept, and the similar Sleep Cycle iPhone app is a fave of mine.\n\nI empathise with the difficulties of making something (especially hardware) from scratch to a perfect schedule. I can just imagine some of the people who pre-ordered are slightly annoyed, but I think WM treated them pretty well if memory serves - like you say, the right thing to do to avoid being forever branded as vapourware!",
      "time": "2010-04-30T15:18:37",
      "id": "47663531",
      "parentPost": "I just went to their site and it says coming in September and they are\r\nactually taking orders. what was the original date.\r\n\r\nI have a soft spot for YC companies so I would give them some more time.",
      "parentPostTime": "2010-04-30T15:08:11",
      "parentPostId": "47660959"
    },
    {
      "threadId": "89022672",
      "post": ":-) http://xkcd.com/125/",
      "time": "2010-04-23T15:48:25",
      "id": "46247216"
    },
    {
      "threadId": "78187669",
      "post": "I've not found one so far, but I think a solution in future could be things like the existing Facebook Markets, which are restricted (or targeted) to your social graph and geographic area.\n\nA lot of the problems I've faced recently are through helping my girlfriend buy and sell bulky vintage furniture via eBay - it's generally easier to have this set to \"local pickup only\", which obviously isn't the optimum way to sell via eBay, so something more regional seems to be the way forward...\n\nCan't offer any solutions for your immediate issues though! ;-)",
      "time": "2010-03-22T12:44:52",
      "id": "41041244",
      "parentPost": "Is there a better way ? ",
      "parentPostTime": "2010-03-22T10:53:09",
      "parentPostId": "41030983"
    },
    {
      "threadId": "71697355",
      "post": "Great to see some people other than \"the big 2\" in location-based services getting a shout-out, especially fellow UK startup Rummble. \n\nWhile people often talk about who be be the overall winner in this space, I don't think it's a zero-sum game where we'll see, say, Foursquare becoming the only location-based service worth using.  There are enough orthogonals that it's likely there will be different networks for different purposes - one might be a loyalty card for the places you visit most, one might be to see where your friends are, another to get recommendations and another for location-based virtual goods.\n\nIt's still early days!",
      "time": "2010-03-03T11:05:18",
      "id": "37786510"
    },
    {
      "threadId": "67636655",
      "post": "I've long enjoyed the pleasant surprise when I find out a cool new company is UK-based, and more and more recently I've begun to stumble across companies based around Old Street, so I look forward to a few more pleasant surprises as part of this series ;-) ",
      "time": "2010-02-17T19:30:46",
      "id": "34897039"
    },
    {
      "threadId": "66903011",
      "post": "Extra points for apostrophe fail too.",
      "time": "2010-02-14T23:29:43",
      "id": "34223532"
    },
    {
      "threadId": "66797991",
      "post": "He definitely sounds like a smart and interesting young guy.  Presumably wanting to meet him is based on a principle of \"investing in people, not ideas\" though?  Sounds like he could go on to great things, so of course he's someone worth knowing, but Chatroulette doesn't immediately strike me as an investable proposition as it stands.",
      "time": "2010-02-14T12:44:01",
      "id": "34174939"
    },
    {
      "threadId": "65118432",
      "post": "This is a phenomenon that seems oddly unique to the tech press.  Not a week goes by without some new device being claimed \"an iPhone killer\"...but new cars come out every week, and how often do you read about a new type of car being \"a BMW killer\"?",
      "time": "2010-02-08T13:19:42",
      "id": "33002945"
    },
    {
      "threadId": "12238628",
      "post": "No idea, sorry, just found the pic online and thought it was cool!",
      "time": "2010-02-07T21:54:20",
      "id": "32959460",
      "parentPost": "where can you  get them from please ?\r\nthey are so nice\r\ni will pay any amount for them as long as i get them \r\nwere are they from ?.........................x ",
      "parentPostTime": "2010-02-07T21:35:25",
      "parentPostId": "32957608"
    },
    {
      "threadId": "60258546",
      "post": "I thought it was great that there was such a diverse range of companies - agencies, consumer startups and B2B - but really innovative, early stage stuff didn't get left out, as is sometimes the case.  If it was *all* established folks like Moonfruit or just agencies it might be a bit odd, but it's cool to have some old hands alongside the young'uns ;-)",
      "time": "2010-01-21T10:14:43",
      "id": "30667599"
    },
    {
      "threadId": "51647236",
      "post": "Good point, Kevin - may well be that a hell of a lot of the views of her content (and consequently, click-throughs to yours) take place on the Tumblr dashboard, and so won't affect the compete stats.  \n\nFurther, a proper statistician would probably be able to make some interesting conclusions about the sort of blogs people follow via Tumblr vs. the sort that receive lots of traffic from the wider web...I'm not sure these would be one and the same.",
      "time": "2009-12-14T00:42:29",
      "id": "25677601",
      "parentPost": "I can say from my observations of someone getting linked to from whatiwore.tumblr.com that her numbers are much much higher than that.",
      "parentPostTime": "2009-12-14T00:33:18",
      "parentPostId": "25677186"
    },
    {
      "threadId": "50488511",
      "post": "Respect for doing that too...I'm a big believer in \"lifelong learning\", but so many people seem to look down on evening classes and similar as somehow not being \"real\" education.",
      "time": "2009-12-08T13:13:33",
      "id": "25136803"
    },
    {
      "threadId": "49522788",
      "post": "Nice one Albert, look forward to reading it if you get chance in the  \r\nnew year...happy holidays!",
      "time": "2009-12-05T14:50:13",
      "id": "24898722",
      "parentPost": "Probably won't have the time to do this before the holidays but will do so next year.  Will add the question of whether to start you own or join a startup as another topic tonight - that's definitely an important question!",
      "parentPostTime": "2009-12-03T14:03:13",
      "parentPostId": "24685785"
    },
    {
      "threadId": "47651168",
      "post": "Fascinating reading, especially the stats about Openfeint.  I'm interested to see whether Chillingo's similar Crystal SDK has a similar effect.\n\nAlso of interest might be some similar findings in a report I was involved in producing recently for Northwest Vision and Media http://www.scribd.com/doc/22647946/Winning-iPhone-Strategies-Report",
      "time": "2009-11-24T14:43:43",
      "id": "23946835"
    },
    {
      "threadId": "44198649",
      "post": "Once you've read the book, you'll realise why this is ;-)  Free is only *part* of a business model, not *all* of it...give some stuff away for free (eg. web/audio versions), monetise others (eg. dead tree version).",
      "time": "2009-11-08T00:10:18",
      "id": "22158469"
    },
    {
      "threadId": "43700094",
      "post": "I've heard word from tha Schmidt to that effect too...I just wonder whether it can be taken as gospel?\r\n\r\nWow, hope the Aardman servers were prepared ;-) Busy day for the sysadmin there!",
      "time": "2009-11-06T19:13:53",
      "id": "22055621",
      "parentPost": "Eric Schmidt has said they will never advertise on the front page, despite its obvious value, as they want to retain their reputation for impartiality.\n\nWallace and Gromit was UK-only, I just asked my friend at Aardman about the traffic - apparently 65,000 visitors in the course of an hour.",
      "parentPostTime": "2009-11-05T17:34:06",
      "parentPostId": "21956429"
    },
    {
      "threadId": "41213603",
      "post": "Or, as I had to the other day, using your Dad's netbook. Which, interestingly (or horrifically) also runs Office '97.  He has a Windows phone too.",
      "time": "2009-10-26T17:45:37",
      "id": "21048370",
      "parentPost": "I fucking hate smarmy bullshit like this. Because the only time I read it is when I'm USING WORK COMPUTERS WITH NO CONTROL OVER WHAT BROWSER IS INSTALLED.",
      "parentPostTime": "2009-10-22T21:32:05",
      "parentPostId": "20805721"
    },
    {
      "threadId": "39788600",
      "post": "Was gonna compare to The Rolling Stones, glad I didn't now ;-)",
      "time": "2009-10-15T20:25:13",
      "id": "20149249",
      "parentPost": "I didn't start out in the best mood today, but any day that one is implicitly compared to David Bowie has to be a good day. :-)",
      "parentPostTime": "2009-10-15T20:18:57",
      "parentPostId": "20148909"
    },
    {
      "threadId": "39736306",
      "post": "Of course, didn't assume that insinuation, just thought your wording was kinda poetic ;-)",
      "time": "2009-10-15T12:14:56",
      "id": "20116739",
      "parentPost": "i didn't mean to suggest that VCs are all pie eating pigs. but i think i've got pigging out on my brain this morning. we are going with some friends to the April Bloomfield/Fergus Henderson \"head to tail eating\" fest at the spotted pig tonight.",
      "parentPostTime": "2009-10-15T11:09:18",
      "parentPostId": "20111844"
    },
    {
      "threadId": "38317402",
      "post": "I'd disagree that it's \"for losers\" - I think real-world marketing is something often overlooked by online services in lieu of hoping things will \"go viral\".\r\n\r\nI do think though that it looks like a somewhat desperate ploy by Yahoo - advertising is only effective in the long term if you've got, as you say a \"useful and unmissable\" product underneath.  And I'm not sure they have.",
      "time": "2009-10-08T11:47:30",
      "id": "19540221",
      "parentPost": "In the world of online services, this kind of advertising is for losers.\n\nGoogle hardly ever advertise.\n\nJust be really really useful and unmissable.",
      "parentPostTime": "2009-10-07T16:07:25",
      "parentPostId": "19372844"
    },
    {
      "threadId": "37319094",
      "post": "DailyBooth does seem to be getting a lot of press recently.  I don't think it would provide quite the same mainstream seal of approval as Flickr though.",
      "time": "2009-10-02T09:26:51",
      "id": "18269802",
      "parentPost": "Flickr is big, bu maybe try pitching to dailybooth.com, which is a lot like twitter, only focused around pictures.  Small team, but the site seems to be growing fast.  They may be more open to it than Flickr is these days.",
      "parentPostTime": "2009-10-02T04:21:23",
      "parentPostId": "18212172"
    },
    {
      "threadId": "37072430",
      "post": "You're not the first to make that mistake ;-) Some say \"dreamer\" is appropriate for my idealistic whimsy...\r\n\r\nI'm disappointed we didn't celebrate our follow anniversary though!",
      "time": "2009-10-01T09:49:14",
      "id": "17921220",
      "parentPost": "Comment Unrelated: Despite following you for over a year, I just realized your username says \"deamer\", not \"dreamer\".",
      "parentPostTime": "2009-10-01T01:35:03",
      "parentPostId": "17903423"
    },
    {
      "threadId": "36555357",
      "post": "I hoped you'd comment. You never do. That's really bad 21st century parenting.",
      "time": "2009-09-30T11:04:50",
      "id": "17835417",
      "parentPost": "Glad to see you are still alive Jonathan!  Mum",
      "parentPostTime": "2009-09-30T08:58:35",
      "parentPostId": "17831590"
    },
    {
      "threadId": "36781903",
      "post": "MEGALOLZ HOMEBOI. Ahem.",
      "time": "2009-09-30T11:03:54",
      "id": "17835399",
      "parentPost": "Sounds good, <i>if you're a fucking pussy.</i>\r\n\r\nCOFFEE IZ 4 LYFE AND JITTERZ IZ 4 ETERNITY ALLZ. POUR OUT A CAFETIERE O BLACKEST ECUADORIAN FOR ALL  ME CARDIAC ARRESTED BOYDEMS OUTSIDE $$$BUCKS. MOURN YA TILL I JOIN YA.",
      "parentPostTime": "2009-09-29T20:04:55",
      "parentPostId": "17794418"
    },
    {
      "threadId": "36711008",
      "post": "Notice I didn't link to them though ;-)\r\n\r\nYou're right though - but the question is, will anyone now go and sign up with Monster as a result of this blog post?",
      "time": "2009-09-30T11:03:25",
      "id": "17835395",
      "parentPost": "All absolutely true. Until you blogged about it.",
      "parentPostTime": "2009-09-29T17:46:26",
      "parentPostId": "17785264"
    },
    {
      "threadId": "36723077",
      "post": "Smiths lyrics FTW :-p",
      "time": "2009-09-29T13:46:35",
      "id": "17769909"
    },
    {
      "threadId": "36621650",
      "post": "I can imagine this working brilliantly with something like Audioboo.",
      "time": "2009-09-29T11:59:07",
      "id": "17765967"
    },
    {
      "threadId": "36459510",
      "post": "Not in any professional capacity, but I always used to fiddle with Visual Basic etc., and recently have begun a somwhat more earnest attempt to learn some Python and PHP.  \r\n\r\nI do work with a lot of coders though and have sometimes quasi-managed development projects, so can very well empathise with a lot of Spolsky's thoughts, especially regarding \"architecture astronauts\" ;-)",
      "time": "2009-09-28T22:19:50",
      "id": "17744194",
      "parentPost": "Do you write code then?\r\n\r\nI used to...",
      "parentPostTime": "2009-09-28T20:15:38",
      "parentPostId": "17738775"
    },
    {
      "threadId": "36247910",
      "post": "Great news! As I went to tweet about this though, I was surprised to see that the Wikipedia entry for RSS that I wanted to link to didn't mention RSS Cloud.\r\n\r\nWell, it does now... :-)",
      "time": "2009-09-26T11:39:54",
      "id": "17419348"
    },
    {
      "threadId": "34611428",
      "post": "Fantastic! I'm often compared startups' quest for VC funding as the Holy Grain to bands thinking \"getting signed\" is the be-all and end-all.\r\n\r\nI've done a bit of touring (not as much as you!), but a lot of music-y stuff, so I think I agree :-)",
      "time": "2009-09-16T21:12:58",
      "id": "16772971"
    },
    {
      "threadId": "34516388",
      "post": "Would be really interested to hear your thoughts on a comment I've just made in my reblog at http://ashotofjd.com/post/189330926/making-versus-planning",
      "time": "2009-09-16T12:43:14",
      "id": "16708591"
    },
    {
      "threadId": "34318627",
      "post": "One of my faves too! That's really exciting, congrats. I've always liked a bit of Times New Viking as well :-)",
      "time": "2009-09-15T10:57:52",
      "id": "16620288"
    },
    {
      "threadId": "33151612",
      "post": "Sorry... ;-)",
      "time": "2009-09-08T09:10:27",
      "id": "16176154",
      "parentPost": "I hate people who post links to their Twitter.",
      "parentPostTime": "2009-09-07T16:49:24",
      "parentPostId": "16099480"
    },
    {
      "threadId": "31909990",
      "post": "I'm sure the Dark Knight pic is an incredibly witty in-joke, but...I don't get it. Anyone care to enlighten me? (I'm must be missing something obvious!)",
      "time": "2009-09-02T16:17:23",
      "id": "15765717"
    },
    {
      "threadId": "31292638",
      "post": "Thanks David.  Key to this beyond the obvious \"tabloid shock headlines\" angle is that European startups need to be seen as more than the German/Belgian/Spanish etc. version of an established UK/US company!",
      "time": "2009-08-26T12:10:42",
      "id": "15415295",
      "parentPost": "Good comment. Totally agree.\r\n\r\nThe author is German and while I generally support contributions by authors from around Europe, I was under the assumption that Mike and the TCEU staff would review and edit every external contribution. Noticed some typos and grammar errors on yesterday's post from the same author and I'd just like to see Mike and the team check the posts before they go out. \r\n\r\nThe title itself is misleading as Lastfm runs an office in Hamburg and I had the same reaction like yours. It's too much of a tabloid title.\r\n\r\n",
      "parentPostTime": "2009-08-26T11:43:57",
      "parentPostId": "15414586"
    },
    {
      "threadId": "30635904",
      "post": "\"Pictures of Lily\" by The Who!",
      "time": "2009-08-21T14:23:51",
      "id": "15192668",
      "parentPost": "Dang, I'm wracking my brain... \"Picture of a Flower\"?  Is that a song?  haha.  ",
      "parentPostTime": "2009-08-21T14:04:58",
      "parentPostId": "15191777"
    },
    {
      "threadId": "30628399",
      "post": "From the \"if Microsoft were a housewife\" file... ;-)\r\n\r\nAlso: I love the \"Squashed.tumblr.com has apparently angered the technolibertarians\" blurb after your recent posts.",
      "time": "2009-08-21T12:56:02",
      "id": "15189550"
    },
    {
      "threadId": "30624541",
      "post": "So maybe a good place to stick a longer-than-usual ad break on Spotify would be \"between discs\" on double albums - they could even make a feature/joke out of if.  I'm sure as it grows they'll come up with more intelligent ad-placement mechanisms.  I'm sure there are probably some slots on albums that are more suited to ads than others (eg. not between tracks than segue into each other).\r\n\r\nBTW, only just realised I'm not following you on Tumblr - corrected straight away! :-p",
      "time": "2009-08-21T12:26:12",
      "id": "15188838"
    },
    {
      "threadId": "30600396",
      "post": "You're completely right - I made <£10 via Tipjoy, and probably only gave around £5 over months of using the service.\r\n\r\nI'm not sure virtual tipjars are definitely part of the Internet's future, but they're something that should be looked at, and Tipjoy were doing a good job of experimenting with the model. They never had it completely right (and I don't think anyone will for a while), but it's great to see people doing something a bit different and trying to solve some of the big questions around \"online content\".\r\n\r\nSo while I'm not saying that Tipjoy would've gone on to take over the world, I would've liked to carry on watching what they were doing as it was a very interesting business. Would be great if they'd open source some of their stats and financials now...",
      "time": "2009-08-21T08:11:26",
      "id": "15185264",
      "parentPost": "One of the problems with the internet is that people seem to think that it works how they expect it to work.\r\n\r\nBut be real with me Deamer. How much scratch did you ever make off tipjoy?\r\n\r\nI'll bet it's <£10\r\n\r\nWhich isn't meant to be an insult against your content.",
      "parentPostTime": "2009-08-21T06:48:47",
      "parentPostId": "15184089"
    },
    {
      "threadId": "30511345",
      "post": "I love this book.  The same author has a similar one called \"Whatever you think, think the opposite\".  You'll hate it :-P",
      "time": "2009-08-20T17:36:11",
      "id": "15137444"
    },
    {
      "threadId": "30158254",
      "post": "Even you must want to hide posts about yourself sometimes... ;-)",
      "time": "2009-08-20T09:04:01",
      "id": "15118880",
      "parentPost": "Good idea!",
      "parentPostTime": "2009-08-18T18:43:48",
      "parentPostId": "15023159"
    },
    {
      "threadId": "30328262",
      "post": "I did indeed...will drop you an e-mail.",
      "time": "2009-08-19T23:10:11",
      "id": "15100291",
      "parentPost": "I'm teaching a module on online PR next year.  Did I dream it, or did you sort of offer to come and give a guest talk to my students?  Please?",
      "parentPostTime": "2009-08-19T17:08:11",
      "parentPostId": "15073110"
    },
    {
      "threadId": "30161124",
      "post": "What about if I really like everything someone blogs *except* the stuff about Mad Men?",
      "time": "2009-08-18T16:37:47",
      "id": "15017290"
    },
    {
      "threadId": "30157360",
      "post": "Thanks for the re-blog! Hope to see you there ;-)",
      "time": "2009-08-18T16:14:25",
      "id": "15016108"
    },
    {
      "threadId": "29491745",
      "post": "Thanks, was trying to remember the \"attorneys general\" analogy but my l33t Googling skillz failed me.",
      "time": "2009-08-13T15:09:08",
      "id": "14783491"
    },
    {
      "threadId": "26801852",
      "post": "Etsy's a great example of how the power of Twitter for companies is not necessarily through their own use of the service, but through their customers' use of the service.  It's surprised me that eBay haven't done more to get their sellers to tweet about their items - I know that's been a good technique for me on a couple of occasions.",
      "time": "2009-07-24T15:16:29",
      "id": "13273785"
    },
    {
      "threadId": "26633355",
      "post": "I've often thought this too - for Facebook e-mails aswell.\r\n\r\nDisqus (and maybe Posterous?) have already got most of this functionality nailed. I'm sure it'd be quite a beneficial feature for one of them (particularly the latter) to offer.",
      "time": "2009-07-23T12:04:25",
      "id": "13198989"
    },
    {
      "threadId": "26500427",
      "post": "You're right, of course, though to many people citing Isaac Asimov is as good as no citation at all.  But pointing out it's a guy who wrote the book of a film with Will Smith in it may grab people's attention!",
      "time": "2009-07-22T17:07:42",
      "id": "13118306",
      "parentPost": "I personally think Asimov is famous for lots of other things before \"I, Robot\"",
      "parentPostTime": "2009-07-22T15:57:41",
      "parentPostId": "13113647"
    },
    {
      "threadId": "26251231",
      "post": "I guess the connection is \"world domination quasi-monopolistic tech companies that most people use every day\".  They are only loose connections, but that's the point PG is making...the next big thing won't be the same as the last big thing.  And that, by definition, requires vague categories like \"rich tech co's\".",
      "time": "2009-07-22T15:15:56",
      "id": "13111873"
    },
    {
      "threadId": "25255682",
      "post": "I've never been a big music pirate, but I barely even download MP3s from blogs these days; I stream people's recommendations on Twitter from Spotify - similar to Netflix Watch Instantly.  Too many clicks to download from blog, save, open in iTunes.",
      "time": "2009-07-13T10:46:37",
      "id": "12572958"
    },
    {
      "threadId": "24956614",
      "post": "Unfollow away, I'm fighting the facist regime through blogging :-p",
      "time": "2009-07-10T16:18:54",
      "id": "12449905"
    },
    {
      "threadId": "24923069",
      "post": "RE: the much re-tweeted misquote - after the recent correcting of TechCrunch's piece alledging FW said \"Twitter will be bigger than search\" and putting the FT straight on who coined the word \"freemium\", look like Fred might need a whole \"Setting things straight\" blog :-)",
      "time": "2009-07-10T16:17:10",
      "id": "12449838"
    },
    {
      "threadId": "24922209",
      "post": "The pyramid scheme of post-modern media capitalism :-)",
      "time": "2009-07-10T09:51:36",
      "id": "12433490"
    },
    {
      "threadId": "24336584",
      "post": "Presumably though, the adage that \"the customer is always right\" does not apply here?! ;-)",
      "time": "2009-07-06T11:39:18",
      "id": "12193439"
    },
    {
      "threadId": "24037972",
      "post": "I do similar - I have a \"daily\" category for stuff I need to keep up on, while other less time-sensitive or important things (webcomics!) get categories of their own.",
      "time": "2009-07-03T10:42:11",
      "id": "12067313",
      "parentPost": "I am using a mixture of categories for my feeds. Basically, I tag them by topic but also by priority, so if I'm busy I just check the HighPriority entries.",
      "parentPostTime": "2009-07-03T09:54:47",
      "parentPostId": "12066879"
    },
    {
      "threadId": "23886479",
      "post": "Really?! Cheers for the clarification - I've been misinformed ;-)\r\n\r\nThey're so similar as well!",
      "time": "2009-07-02T16:38:20",
      "id": "12037754",
      "parentPost": "It's not.  Hacker News is written in arc and distinct from Reddit.",
      "parentPostTime": "2009-07-02T16:31:57",
      "parentPostId": "12037538"
    },
    {
      "threadId": "23736681",
      "post": "In many ways, this is how I use Facebook status updates.  I only follow real life \"important\" friends on Facebook, so while I'm happy to miss the river of news on Twitter, I don't want to miss anything that's said on Facebook. It's like a stream of press releases from friends - \"I'm on vacation\", \"I'm going to XYZ Conference\"...\r\n\r\nOf course, there's the problem that other people don't view it as a utility of quite the same importance, leading to lots of status updates that I would actually happily miss :-)",
      "time": "2009-07-01T09:52:23",
      "id": "11971303"
    },
    {
      "threadId": "44397503",
      "post": "So many really useless / \"me too\" apps (especially for music/entertainment brands who know they need to do \"something mobile\", but don't know what) just seem to duplicate website content or provide a portal for podcasts and videos that are available elsewhere on the web, desktop etc.  Music companies (plus bands etc) are some of the worst culprits here.\r\n\r\nThere's nothing exciting about these apps, so the concept of \"native\" is really important for some people to get their head round!",
      "time": "2009-06-29T14:46:49",
      "id": "11885645"
    },
    {
      "threadId": "22808971",
      "post": "I'm a big fan of Tumblr, so it's great to see Boxee are integrating the service.  What's even more great though is that pretty much the exact functionality that's now available was the subject of a feature request thread on Get Satisfaction.  Whether the new features are a direct response to the thread, or it's something Boxee had up their sleeves anyway, it's great to see that they seem to be so in tune with what the user wants.",
      "time": "2009-06-27T09:40:59",
      "id": "11823821"
    },
    {
      "threadId": "21959897",
      "post": "Let's see if they print a correction / retraction...\r\n\r\nIt always makes me laugh in newspapers when the \"corrections\" section is a tiny bit hidden away at the back, while the original story probably had a massive headline.",
      "time": "2009-06-17T10:50:05",
      "id": "11037463"
    },
    {
      "threadId": "21523396",
      "post": "New job? Yep. New office? Yep. New company? Yep. New Haircut? Yep. July? Oooooh yep indeed.\r\n\r\nI owe you an e-mail.",
      "time": "2009-06-14T23:00:46",
      "id": "10901682"
    },
    {
      "threadId": "21605868",
      "post": "I once saw a section called \"Naval tales\", and joked that there's also a section called \"Stomach stories\". My companion was as amused as that pun warranted. (geddit, naval/navel?)\r\n\r\nAlso: http://bit.ly/vflAG",
      "time": "2009-06-14T22:56:03",
      "id": "10901438"
    },
    {
      "threadId": "21378217",
      "post": "That's a fantastic blog by Dan Lockton there, thanks for the heads-up.  In particular, the \"What is Design for Sustainable Behaviour?\" bit is very relevant to a project I'm working on at the moment.  Bet that's a huuugely interesting PhD to be writing.",
      "time": "2009-06-12T13:06:55",
      "id": "10794379"
    },
    {
      "threadId": "21195759",
      "post": "I know it probably doesn't fit with the whole philosophy of Tumblr, but I'd love if it'd show on my dashboard which blogs have Disqus commenting enabled, so I know if I can click through to leave a comment or not...like this :-)",
      "time": "2009-06-10T23:43:02",
      "id": "10722977"
    },
    {
      "threadId": "20980238",
      "post": "Surprised not to see any mentions for Twitterfox - if the browser is the new OS, that's where I want my Twitter client (but not necessarily on the web).  Having a whole extra bit of software just seems a bit overly-intrusive to me for day-to-day use.",
      "time": "2009-06-09T23:42:59",
      "id": "10674055"
    },
    {
      "threadId": "19608971",
      "post": "Cheers for posting this - interesting.  Relevant: http://en.wikipedia.org/wiki/Cultural_relativism",
      "time": "2009-05-28T09:48:52",
      "id": "10144011"
    },
    {
      "threadId": "18972120",
      "post": "You're right - it is a horrible neologism! Great piece - nice to see a balanced view that takes into account actual industry issues, not just \"they don't get it, LOLz!\"",
      "time": "2009-05-21T21:46:17",
      "id": "9759565"
    },
    {
      "threadId": "16729754",
      "post": "He doesn't place a time-limit on the \"smarter and stronger\" though.  And he doesn't say that all problems require becoming smarter and stronger - you're right; some are solved with dumb luck.\r\n\r\nBut should all else fail, becoming smarter and stronger - perhaps to an infinite extent - will *eventually* overcome problems, all other things being equal and finite.\r\n\r\nIf we're gonna be literal, that is ;-)",
      "time": "2009-04-27T19:15:30",
      "id": "8743090"
    },
    {
      "threadId": "15769657",
      "post": "Seems you're right - Wikiquote says \"Unknown, but often attributed to Mark Twain\".",
      "time": "2009-04-14T20:43:20",
      "id": "8208961"
    },
    {
      "threadId": "14763112",
      "post": "That's a really interesting viewpoint Andrew, thanks, not considered that business models would be far less important to them!  Really it's more like a way of bringing external projects into the internal R&D department than pure venture capital, it seems.",
      "time": "2009-03-31T16:59:13",
      "id": "7679965",
      "parentPost": "In-Q-Tel is significantly different than corporate VC, and traditional VC, and I think in a positive way.  My own observation having seen them work in a few different contexts is that they are a re-imagining of DARPA-style research projects, and that they put more weight on exceptional technology and less on the business side of things than a conventional VC. This is complemented by being one of most technologically savvy VCs out there, with a deep bench of very smart theory people at their disposal.\r\n\r\nThe upside is that they will invest in technology-focused ventures that most VCs ignore, filling a gap in the VC marketplace that I think has been poorly served many times.  The downside, ironically, is that they come to the table with customers built-in, which is one of the reasons I think they are more able to put less emphasis on the business model side of things; I put that as a 'downside' in the sense that the entrepreneur has to take more initiative in developing a broader business model than they might otherwise have to because there is less immediate pressure to do so from the VC side. \r\n\r\nI generally agree that corporate VCs are usually a bad idea, both in theory and in practice.  In-Q-Tel, on the other hand, serves an interesting purpose in large part because they have a deep technology focus that the vast majority of traditional VCs lack.  From that standpoint, they add value to the ecosystem.",
      "parentPostTime": "2009-03-31T16:31:06",
      "parentPostId": "7679207"
    },
    {
      "threadId": "13527686",
      "post": "I agree - it winds me up when people have loads of shortcuts to their core applications on their desktop.  I generally tend to just use it for works in progress that later get moved to a permanent home, docs I know I'll need to access frequently for a couple of days only, or recent downloads that I open once or twice then delete (eg. when websites inexplicably have all their content in PDF form!).\r\n\r\nThe particular desktop background that I use is especially handy for this - I can use it to divide up home/work/temp/important stuff.  I've just got really bad at it over the past few days, hence the above.",
      "time": "2009-03-15T20:08:03",
      "id": "7241487",
      "parentPost": "I *know* I'm in the minority here.  But why would anyone put any useful shortcut on their desktop, where it will immediately covered the first time you open a window?  \r\n\r\nPlus, the things defy any sort of easy way to organise them. \r\n\r\nThe whole idea is broken.",
      "parentPostTime": "2009-03-12T13:51:43",
      "parentPostId": "7134336"
    },
    {
      "threadId": "13740243",
      "post": "Happy Birthday! Ever had to say \"et tu Brute\"?",
      "time": "2009-03-15T20:02:09",
      "id": "7241406",
      "parentPost": "I posted about this earlier today.  It's my birthday.",
      "parentPostTime": "2009-03-15T19:56:47",
      "parentPostId": "7241346"
    },
    {
      "threadId": "12637481",
      "post": "No way! That's ridiculous...",
      "time": "2009-02-27T00:35:24",
      "id": "6673626",
      "parentPost": "did you read that article sometime in the last few months where an ad agency wrote a letter to their clients asking who should be fired? unreal.",
      "parentPostTime": "2009-02-26T17:24:09",
      "parentPostId": "6658782"
    },
    {
      "threadId": "12138958",
      "post": "Wow, that's really interesting, thanks for the link.",
      "time": "2009-02-19T20:53:18",
      "id": "6414257",
      "parentPost": "Similar to this phenomenon: http://itre.cis.upenn.edu/~myl/languagelog/archives/005485.html",
      "parentPostTime": "2009-02-19T10:36:50",
      "parentPostId": "6398841"
    },
    {
      "threadId": "10763007",
      "post": "That's really interesting, and useful to know.  Thanks for stopping by!",
      "time": "2009-01-30T00:21:16",
      "id": "5663327"
    },
    {
      "threadId": "9994941",
      "post": "Yeah, I think people are just getting too excited that it's not completely unusable! Expectations have been lowered after Vista... ;-)",
      "time": "2009-01-20T11:44:41",
      "id": "5391063"
    },
    {
      "threadId": "9888582",
      "post": "I do love onsite commenting, but there's something about watching reblogs on a Tumblr dashboard that makes it a really interesting way to watch a debate develop.  But this way, I guess I can have the best of both worlds!",
      "time": "2009-01-15T00:34:30",
      "id": "5123506",
      "parentPost": "There is no way reblogging is better than onsite commenting for making comments/having discussions.",
      "parentPostTime": "2009-01-14T17:06:20",
      "parentPostId": "5114883"
    },
    {
      "threadId": "9550227",
      "post": "Can't help but get the feeling that unit sales (but again, not necessarily revenues!) were heavily boosted by Zavvi/Woolworths' massive bankruptcy sales!",
      "time": "2009-01-12T16:43:32",
      "id": "5073599"
    },
    {
      "threadId": "9320746",
      "post": "I know you're getting at the fact that it's only Windows/IE, but what amazes me is that they still cater for version 5.  Most web designers I know hate having to be compatible with version 6.  Anyone still on version 5 you might as well still be accessing bulletin boards via telnet for all the user experience they're getting!",
      "time": "2009-01-03T22:35:20",
      "id": "4871076"
    }
  ],
  "profileInfo": {
    "username": "JonathanDeamer",
    "about": "",
    "name": "Jonathan Deamer",
    "disable3rdPartyTrackers": false,
    "isPowerContributor": false,
    "isAnonymous": false,
    "rep": 1.267842,
    "profileUrl": "https://disqus.com/by/JonathanDeamer/",
    "url": "http://twitter.com/JonathanDeamer",
    "reputation": 1.267842,
    "location": "Liverpool, UK",
    "isPrivate": false,
    "signedUrl": "http://disq.us/?url=http%3A%2F%2Ftwitter.com%2FJonathanDeamer&key=n9mAmiOBWWh2kx7UbB6-AQ",
    "isPrimary": true,
    "joinedAt": "2009-01-03T00:12:17",
    "id": "178957",
    "avatar": {
      "small": {
        "permalink": "https://disqus.com/api/users/avatars/JonathanDeamer.jpg",
        "cache": "//a.disquscdn.com/uploads/users/17/8957/avatar32.jpg?1281549414"
      },
      "isCustom": true,
      "permalink": "https://disqus.com/api/users/avatars/JonathanDeamer.jpg",
      "cache": "//a.disquscdn.com/uploads/users/17/8957/avatar92.jpg?1281549414",
      "large": {
        "permalink": "https://disqus.com/api/users/avatars/JonathanDeamer.jpg",
        "cache": "//a.disquscdn.com/uploads/users/17/8957/avatar92.jpg?1281549414"
      }
    }
  }
}