{
  "comments": [
    {
      "threadId": "4715590499",
      "post": "Thank you!",
      "time": "2016-05-02T23:16:20",
      "id": "2654660123"
    },
    {
      "threadId": "3904407823",
      "post": "Love it Tony! That's basically what we've attempted to do.",
      "time": "2015-07-16T14:38:13",
      "id": "2139704763"
    },
    {
      "threadId": "3620381751",
      "post": "Nelson, I was thinking in terms of a direction for life -- a plan for where we are going. In my context, for example, I deal with couples where one spouse wants to plant a church and the other doesn't. Until they get on the same \" agenda\" the marriage -- certainly tension in the marriage --  could be strained. \n\nIt could also be, as another example, where the couple is spending the holidays. My suggestion is that the agenda for each spouse have them in the same location. I've seen couples, especially before they have children, pulled into separate agendas by thei individual families. \n\nAnd, there may be a better word than agenda. ",
      "time": "2015-03-26T11:09:38",
      "id": "1928914684",
      "parentPost": "Any examples for the last point \"Living separate agendas\"? Looking forward to ur reply.",
      "parentPostTime": "2015-03-26T02:28:52",
      "parentPostId": "1928516019"
    },
    {
      "threadId": "3209506437",
      "post": "This is tremendously helpful -- and convicting -- Michael. Thank you",
      "time": "2014-11-19T13:53:28",
      "id": "1701276865"
    },
    {
      "threadId": "1419558297",
      "post": "Love it. Being in church revitalization now though, I'll have to say, some of these are not low risk in a 105 year old church. :). All good ones though. ",
      "time": "2014-05-09T21:47:00",
      "id": "1377378263"
    },
    {
      "threadId": "2085504279",
      "post": "Thanks for putting this list together. Honored!",
      "time": "2014-01-03T15:52:57",
      "id": "1185486353"
    },
    {
      "threadId": "2081872970",
      "post": "Thank you for the kind mention. Ditto about you. And, thanks for being a transparent pastor/leader...with a great blog. I'm learning from you.",
      "time": "2013-12-31T16:15:13",
      "id": "1182408498"
    },
    {
      "threadId": "2005148049",
      "post": "If relationships are tense, and you want a Biblical response, try this: http://www.ronedmondson.com/2013/11/6-tips-for-happier-healthier-relationships.html",
      "time": "2013-11-28T02:59:17",
      "id": "1142487812"
    },
    {
      "threadId": "1572238575",
      "post": "Michael is the real deal.",
      "time": "2013-08-13T16:15:24",
      "id": "999206541"
    },
    {
      "threadId": "1412601035",
      "post": "Guess I'm doing okay...I say every one of these often. :)",
      "time": "2013-06-19T18:15:14",
      "id": "935652503"
    },
    {
      "threadId": "1184087632",
      "post": "This is very good and helpful.",
      "time": "2013-04-03T16:50:07",
      "id": "850928932"
    },
    {
      "threadId": "938986997",
      "post": "Thanks Ben. We love you guys. Greatly honored! ",
      "time": "2012-11-22T14:08:05",
      "id": "716777087"
    },
    {
      "threadId": "850274210",
      "post": "Thanks Mike. Miss hanging out. ",
      "time": "2012-09-19T12:54:59",
      "id": "655497325",
      "parentPost": "Thanks for interviewing Ron. He does a great job online. I often use him as an example for other pastors to emulate. Love it!",
      "parentPostTime": "2012-09-19T11:15:30",
      "parentPostId": "655415845"
    },
    {
      "threadId": "713633263",
      "post": "I think Jesus was the greatest leader known to history. Perfect on delegation and servant hood, He launched a \"fairly\" successful non-profit ministry. Free to get in and the rewards are out of this world. \n\nAlso great Biblical leaders: Joseph, David, Nehemiah. ",
      "time": "2012-06-22T22:31:47",
      "id": "564917865"
    },
    {
      "threadId": "528790734",
      "post": "Jeff, as a counselor and pastor, I think some of this is semantics. You said your friend the counselor says, \"create new habits by focusing on short-term outcomes they can control\". I would call that a plan. \n\nI think your key words for me in this post, and the ones I encourage people to follow, is to \"live intentionally\". I could care less if someone has a mapped out plan (unless that's what works for them...and for many it does) or simply takes one step forward everyday, as long as they are intentionally moving towards what they want to accomplish in life. It's disappointing to me when the same people live with the same frustrations in their life year after year. It's not the plan they're missing necessarily, it's doing something intentional. \n\nYou may not have a life plan, but you're living intentional and therefore you're seeing things happen in your life. People wouldn't be coming to your blog as much as they are without that intentionality. ",
      "time": "2012-01-06T12:47:40",
      "id": "402203047"
    },
    {
      "threadId": "202830623",
      "post": "Sorry about that.\n\n...in the process of..doing so you'll find you are completing more of your goals. ",
      "time": "2011-12-26T22:38:25",
      "id": "394616174",
      "parentPost": "Thank you very much for your tips. I am trying to apply them. However, the last sentence of your second to the last paragraph in Part 4 says \"As you repeat the actions and see results towards your goals, you will develop habits in these areas and in the process of\".  May I know in the process of what? Thank you very much.",
      "parentPostTime": "2011-01-06T08:02:27",
      "parentPostId": "124875686"
    },
    {
      "threadId": "475245717",
      "post": "@braindance2:twitter , I would respectfully ask you to read the corresponding posts where I point people to the spiritual answers. This was diagnosing a problem of leader health, not analyzing a spiritual condition. In my experience, as a pastor (who is very committed to Christ), and a trained counselor, many pastors cover over their true health by doing spiritual actions. (Reading Bible, preaching, attending every church function) They look good based on the religious activities they are doing. They did in Jesus day too. My point was getting to the problems that are below the surface. \nThanks for your thoughts. ",
      "time": "2011-11-23T22:50:46",
      "id": "371161432"
    },
    {
      "threadId": "461575822",
      "post": "This is a great post Ben. Holiness doesn't have to be boring.",
      "time": "2011-11-04T11:33:58",
      "id": "355594289"
    },
    {
      "threadId": "202079168",
      "post": "Wow! I feel humbled an honored...especially between Hyatt and Godin. Thank you.",
      "time": "2011-10-27T19:25:53",
      "id": "347345966"
    },
    {
      "threadId": "407319271",
      "post": "Jenni, I think it's a different reason sometimes for me. It's not decision fatigue as much as little picture fatigue. I have to make big picture decisions all the time, live in a very big picture world, and so when it comes to making the simplest decisions I can't make them. I see this in picking a lunch time and place, or choosing a flight schedule. If I have someone pick the date and time and put it on my calendar (thankful for Christy!) I'll show up and have the meeting. If I have to pick it, I get bogged down with little picture fatigue.  ",
      "time": "2011-09-07T15:39:00",
      "id": "304260567"
    },
    {
      "threadId": "399876595",
      "post": "Men have such a hard time with this. In our small group last week we were talking about friendships. The women did all the talking until someone pointed out the men were silent. The men chimed in that most of them have no real \"friends\"...the kind you call at 2 AM when life falls apart. Thanks for the encouragement.  \n",
      "time": "2011-08-30T22:28:19",
      "id": "299073210"
    },
    {
      "threadId": "390494096",
      "post": "I'm posting a week-long series of my interview with Zig Ziglar next week. What an incredible, gracious man. Thanks for this. ",
      "time": "2011-08-19T20:12:18",
      "id": "291290498"
    },
    {
      "threadId": "387467670",
      "post": "I suspect somehow you'll accomplish your list. Happy birthday. Proud to know you! ",
      "time": "2011-08-16T12:00:39",
      "id": "288022346"
    },
    {
      "threadId": "378671354",
      "post": "This post is getting lots of traction today...every woman should read it...I think... :) \n\nA Secret Your Husband Keeps....but needs you to know...\n\nhttp://www.ronedmondson.com/2011/08/a-secret-your-husband-keeps-but-needs-you-to-know.html",
      "time": "2011-08-06T19:45:29",
      "id": "279377362"
    },
    {
      "threadId": "374044708",
      "post": "I try to do all of these Jeff. Good thoughts! ",
      "time": "2011-08-01T11:26:37",
      "id": "272563998"
    },
    {
      "threadId": "361479967",
      "post": "These are good Ben...all of it...seriously...but especially the props part! :) ",
      "time": "2011-07-18T14:58:46",
      "id": "256053031"
    },
    {
      "threadId": "359123321",
      "post": "Well, one of my reflections is that you are making a difference...but I so understand that emotion at our age...I'm there too! \n\nI also identify with the planning one...and the book one...and the wife one...and the friend one...and the Compassion one...\n\nDude, we're twins.\n\nBut I don't identify with the friends one...not when it comes to you. I just told Cheryl and Jeremy (our oldest) last night, that you are fast becoming one of my closest friends. Not because we are so much alike...we aren't...and not because we talk everyday...we don't...but because you are so freakin' real and you make me better! \n\nSo that's my Friday reflection! ",
      "time": "2011-07-15T12:34:15",
      "id": "252701881"
    },
    {
      "threadId": "167577447",
      "post": "Danny, just to clarify, I wasn't suggesting that as an option, just pointing out an option some have used. I would choose option 3 or 4 depending on the calling God has placed on my life. I should say also that I believe God's first call is to a person (Jesus) not to a church and He gives tremendous freedom there at times. Other times He calls a pastor to a church for a season...even a bad season.  ",
      "time": "2011-07-03T21:57:21",
      "id": "241512593",
      "parentPost": "'You can fight the power structure, lining up supporters, building a coalition in your corner…and be prepared to win or lose.' Horrible advice, Church's have been devastated in the UK because of this attitude. I have seen Pastors lose people they have served for years because of the arrogance and lack of humility in young leaders who think they know and can do better. If you don't like the leadership structure, leave! If you truly believe you've been called, God will build his church through you anyway. Practice Phillipians 2 and God will exalt you, not man.",
      "parentPostTime": "2011-07-03T08:16:55",
      "parentPostId": "240973220"
    },
    {
      "threadId": "345189226",
      "post": "I've had a mentor (different ones) for over 20 years now and I've always had to ask them. It has to be intentional. Good stuff Jeff.",
      "time": "2011-06-29T18:32:15",
      "id": "238097101"
    },
    {
      "threadId": "343437569",
      "post": "I need to get better at communicating. I expect a lot...throw out a lot of ideas...push people to get better and bigger...but I realize I don't do a great job of communicating what's most important and it's frustrating to people at times.  \n\nThanks for being an honest leader.",
      "time": "2011-06-27T14:45:00",
      "id": "235966901"
    },
    {
      "threadId": "317265171",
      "post": "Personally, if a speaker is good enough, I think 30 minutes is enough...",
      "time": "2011-06-26T03:39:53",
      "id": "235012775",
      "parentPost": "Also . . . what is short and what is long in your opinion in terms of minutes?\n\nI need specifics.",
      "parentPostTime": "2011-06-26T01:49:00",
      "parentPostId": "234982863"
    },
    {
      "threadId": "340209824",
      "post": "One of the best risks Grace Community Church ever took was on a guy named Ben Reed!  So glad we did! ",
      "time": "2011-06-23T13:24:50",
      "id": "233308128"
    },
    {
      "threadId": "334818686",
      "post": "Good post Artie. I think we are on the same page here, but I think we often confuse criticism with critical thinking. I wrote a post about it here. http://www.ronedmondson.com/2010/04/dont-confuse-critical-thinking-with-negativity.html\n\nCriticism is never helpful. Correction, rebuke and critical thinking can be helpful if provided appropriately and within the right relationship. \" Do not rebuke a mocker\nor he will hate you; rebuke a\nwise man and he will love you.\" Prov 9:8  \n\nThanks!\n\n\n \n\n\n\n\n\n",
      "time": "2011-06-17T13:17:41",
      "id": "228174451"
    },
    {
      "threadId": "333640640",
      "post": "These are great thoughts Lisa. I agree, criticism, like hardship, can be used to shape us. It's all in how we respond. Thank you.",
      "time": "2011-06-16T20:24:38",
      "id": "227600675"
    },
    {
      "threadId": "284230122",
      "post": "Brett, why don't you do a retreat for your elders, and invite Ben up to speak?  Just a thought",
      "time": "2011-04-20T20:23:42",
      "id": "188423292",
      "parentPost": "Ben, these are great questions. I am working through them, and they're offering insight. Are you coming to Louisville anytime in the near future? ",
      "parentPostTime": "2011-04-20T19:18:46",
      "parentPostId": "188388983"
    },
    {
      "threadId": "279765768",
      "post": "Air Supply....Some days...\n\nGood post",
      "time": "2011-04-15T02:32:05",
      "id": "184816754"
    },
    {
      "threadId": "268352140",
      "post": "Thanks for sharing my post here!",
      "time": "2011-04-08T03:40:20",
      "id": "180532513"
    },
    {
      "threadId": "272306310",
      "post": "This is a great dialogue starter Mike. Thanks for \"leading\" here. I think one thing wrong with leadership is that we've mostly seen leadership as something reserved for those with a title or a position. The fact is, however, that leadership can occur at every level of society. It simply takes someone willing to face the risks, obstacles, fear and challenges and lead. As with David from the Bible, one in the crowd who decides to act rather than talk about it, can be a leader! We need more Davids. ",
      "time": "2011-04-06T12:03:56",
      "id": "179014446"
    },
    {
      "threadId": "244344650",
      "post": "I love that you used the word \"synchronicity\". I plan to find a way to use that too today!  \n\nThanks for being an influencer and game-changer and doing it for good!\n\nRon",
      "time": "2011-03-03T12:47:23",
      "id": "159778784"
    },
    {
      "threadId": "222364183",
      "post": "Paul, I'm not slanting this in either direction.  I think both applies.  I'm not addressing volunteers or paid staff directly, but I would agree volunteers come with different treatment in theory.  In practice, however, if leadership is done well and expectations are clearly set, there should be little difference when it comes to carrying out the mission/goals of the organization.  I think most volunteers want to know what is expected of them, if they are meeting expectations, and when they are doing wrong.   Also, I would never suggest that a paid staff person be treated any less in regards to quality of leadership than a volunteer.  You have prompted an idea for another post though. Thanks!",
      "time": "2011-02-07T12:50:59",
      "id": "141892322"
    },
    {
      "threadId": "222605380",
      "post": "I actually posted a similar question today...actually a lot of questions, but similar topic (http://www.ronedmondson.com/2011/02/friday-discussion-where-do-you-belong.html) about where people feel they belong...and where they don't.  \n\nFor me, I get to feeling that way in middle age.  I'm not as welcome among the young, but don't feel that I'm old yet.  Just trying to find my place to hang...",
      "time": "2011-02-04T15:15:07",
      "id": "140538525"
    },
    {
      "threadId": "192676369",
      "post": "This has been a great series. Thanks for sharing with people",
      "time": "2010-12-17T13:19:24",
      "id": "113569966"
    },
    {
      "threadId": "180155131",
      "post": "What an honor!  Thank you for this.  I am blessed!  ",
      "time": "2010-12-03T13:47:26",
      "id": "106314795"
    },
    {
      "threadId": "179721362",
      "post": "What a great story of grace...  Thanks for being real here about how God does mend hearts and He does love it when His children get along, even after hard days together...  Love this.",
      "time": "2010-11-26T13:52:26",
      "id": "103467730"
    },
    {
      "threadId": "167216829",
      "post": "Ha!  Thanks for the shout out...I think...  \n\nSeriously, I think you can be both....a linchpin where you are needed on the team...make a valuable investment that would be greatly missed if you were gone, but also have people prepared if you're not.  It wont' be done the same way or maybe even as good, but at least the show will go on\".  \n\nBTW, I personally can testify that you are a linchpin in this organization!  ",
      "time": "2010-11-04T20:33:53",
      "id": "93950534"
    },
    {
      "threadId": "161415224",
      "post": "I can't seem to get the plugin to work on my blog.  I love Evernote though.  I even wrote a post about it today: http://www.ronedmondson.com/2010/11/5-reasons-i-recommend-the-evernote-application.html",
      "time": "2010-11-03T13:13:57",
      "id": "93334516"
    },
    {
      "threadId": "165728726",
      "post": "I love this and agree.  You said this better than I did...but we are on the same page\n\nhttp://www.ronedmondson.com/2010/07/10-problems-with-doing-the-best-you-know-how.html",
      "time": "2010-11-02T13:51:44",
      "id": "92972388"
    },
    {
      "threadId": "156111262",
      "post": "Good post Justin...as always",
      "time": "2010-10-14T12:13:44",
      "id": "86871945"
    },
    {
      "threadId": "34651725",
      "post": "Good word.",
      "time": "2010-10-02T20:13:47",
      "id": "83362529"
    },
    {
      "threadId": "148751381",
      "post": "Just being honest here....your generation is the first to even think \"digital\"...When I was your age that was a finger...",
      "time": "2010-09-29T19:53:48",
      "id": "82086297"
    },
    {
      "threadId": "145435689",
      "post": "Thanks Ben.  You are a great leader and friend.",
      "time": "2010-09-22T19:35:55",
      "id": "80125299"
    },
    {
      "threadId": "122726601",
      "post": "Thanks Justin.  Great adds!  ",
      "time": "2010-07-27T21:02:51",
      "id": "64721032"
    },
    {
      "threadId": "113527640",
      "post": "Thanks for this mention.  I'm actually sharing this story Sunday for my opening illustration. ",
      "time": "2010-07-23T22:06:12",
      "id": "63980359"
    },
    {
      "threadId": "47092477",
      "post": "I love it!  Thanks for sharing and linking to me.  Great thoughts.",
      "time": "2009-11-21T18:11:24",
      "id": "23719885"
    },
    {
      "threadId": "20217516",
      "post": "I needed this!  My first Mac crashed and I lost data. They replaced the hard drive but it is still slow. It is supposed to be the fastest, most maintenance free laptop ever.  I'm striving to be a Mac lover like I'm supposed to be.  ",
      "time": "2009-06-03T00:46:01",
      "id": "10405319"
    },
    {
      "threadId": "10220374",
      "post": "I'm going to be there\r\n\r\nRon Edmondson  http://www.ronedmondson.com",
      "time": "2009-01-20T16:25:52",
      "id": "5394206"
    }
  ],
  "profileInfo": {
    "username": "ronedmondson",
    "about": "Church Pastor, Planter, Leadership Strategist",
    "name": "ronedmondson",
    "disable3rdPartyTrackers": false,
    "isPowerContributor": false,
    "isAnonymous": false,
    "rep": 1.309596,
    "profileUrl": "https://disqus.com/by/ronedmondson/",
    "url": "http://www.ronedmondson.com",
    "reputation": 1.309596,
    "location": "Clarksville, TN",
    "isPrivate": false,
    "signedUrl": "http://disq.us/?url=http%3A%2F%2Fwww.ronedmondson.com&key=zqDr9IVSUSLdIspFRnwNLw",
    "isPrimary": true,
    "joinedAt": "2008-12-04T14:24:09",
    "id": "157510",
    "avatar": {
      "small": {
        "permalink": "https://disqus.com/api/users/avatars/ronedmondson.jpg",
        "cache": "//a.disquscdn.com/uploads/users/15/7510/avatar32.jpg?1462230980"
      },
      "isCustom": true,
      "permalink": "https://disqus.com/api/users/avatars/ronedmondson.jpg",
      "cache": "//a.disquscdn.com/uploads/users/15/7510/avatar92.jpg?1462230980",
      "large": {
        "permalink": "https://disqus.com/api/users/avatars/ronedmondson.jpg",
        "cache": "//a.disquscdn.com/uploads/users/15/7510/avatar92.jpg?1462230980"
      }
    }
  }
}