{
  "comments": [
    {
      "threadId": "3867306856",
      "post": "Gracias!!!",
      "time": "2015-06-21T21:07:12",
      "id": "2091811756",
      "parentPost": "Me gusta!",
      "parentPostTime": "2015-06-21T20:05:37",
      "parentPostId": "2091733511"
    },
    {
      "threadId": "3492787629",
      "post": "Gracias Javi, tú que lo ves con buenos ojos. La verdad es que los que ya tenemos alguna edad sabemos qué clase de barrios había antes. Los siguientes, el chatarrero y el que te subía la bombona de butano a casa, jajaja. Un abrazo, amigo.",
      "time": "2015-02-07T16:09:29",
      "id": "1840465075",
      "parentPost": "Tremendo Alex, en serio, y gracias por el viaje en el tiempo.\nLas persianas... ese gran invento.\n",
      "parentPostTime": "2015-02-07T10:13:31",
      "parentPostId": "1839997695"
    },
    {
      "threadId": "3268390932",
      "post": "Gran película de las que nos gustan a nosotros. Las escenas de las que hablas en las que juguetea con la cabeza y los ojos usando una cuchara sopera no estaban en la versión que vi yo, tuve que rebuscar para poder verlas. Supongo que tienes el BluRay de Arrow donde las incluyen y al parecer tienen la misma calidad que el resto del metraje. Buena compra.",
      "time": "2014-11-28T21:51:10",
      "id": "1717083549"
    },
    {
      "threadId": "2643474471",
      "post": "Gracias por leerlo, Erica. Me alegro que al menos te haya entretenido un ratito. ¡Un abrazo!",
      "time": "2014-04-28T11:18:15",
      "id": "1358813551",
      "parentPost": "Muuy fino!",
      "parentPostTime": "2014-04-28T07:21:41",
      "parentPostId": "1358681536"
    },
    {
      "threadId": "2633369023",
      "post": "Pues lleva un tiempo en mi lista de películas para ver, pero si me dices esto, la subiré unos cuantos escalones. Todavía no he visto aquella peli turca que me recomendaste... soy un mierdas. Gracias por tu comentario, amigo!!!",
      "time": "2014-04-23T23:27:07",
      "id": "1352667070",
      "parentPost": "¡Hostias, pues que bien!. La tenía ya apuntada desde que leí la review en la web de Ebert hace unos días, pero si me la pones así... I can't fucking wait, dude!.\n\nBy the way, has visto \"Rundskop\"(2011)?",
      "parentPostTime": "2014-04-23T21:12:23",
      "parentPostId": "1352501623"
    },
    {
      "threadId": "1830133615",
      "post": "¡Qué final tan increíble! Y una banda sonora de Nino Rota absolutamente deliciosa. Todo un manjar. Totalmente de acuerdo con esa mezcla de nouvelle vague y film noir. Gran crítica para una película memorable.",
      "time": "2014-01-25T20:59:09",
      "id": "1216629249"
    },
    {
      "threadId": "1238494948",
      "post": "La interpretación teatral quizá vaya acorde con el puntazo gótico de la cinta, y desde luego su forma tan efectista de desenvolverse, con esos filtros y efectos, esos colores... Puro Poe, puro Corman.",
      "time": "2013-11-23T15:55:13",
      "id": "1135958232",
      "parentPost": "Otro peliculón en mayúsculas. He visto poca cosa de Corman pero ésta, sin duda, es de sus obras más redondas. La interpretación de Price, que al principio me parecía demasiado teatral, acaba siendo uno de los puntos fuertes de la película, junto con un guión magistral que te engancha desde el minuto 1. Tiene momentazos de dejarte con la boca abierta, como ese final immejorable. Gran recomendación. Muchas gracias.",
      "parentPostTime": "2013-11-23T09:49:35",
      "parentPostId": "1135598389"
    },
    {
      "threadId": "1527225123",
      "post": "Gracias de nuevo Sergi, la verdad es que el coleguita El Gutsano seleccionó una película extraña e inquietante.",
      "time": "2013-11-23T15:52:42",
      "id": "1135955477",
      "parentPost": "Una ida de olla de puta madre, de esas de meterse y no salir. Su ritmo lento y la falta de una trama evidente me han sacado un par de veces del rollo pero al final me ha dejado con un buen sabor de boca. Tiene algo del Solaris de Tarkovsky, y como bien dices, todo ese tufillo New Age le dan un punto interesante. El vídeo inicial me ha parecido tremendo y algunas de sus imágenes son muy potentes, sobretodo a partir del flashback y la huida de Elena. Quizá me ha faltado algo que la hiciera más comprensible y sin duda el final es decepcionante, pero aún así de vez en cuando va bien gozar de un par de horas de viaje.",
      "parentPostTime": "2013-11-22T18:37:44",
      "parentPostId": "1134773638"
    },
    {
      "threadId": "1678022197",
      "post": "Estoy de acuerdo con que Mud se percibe escrita y después realizada. Pero eso fue precisamente lo que me gustó; notar una voluntad literaria palpitando detrás de cada escena. El simbolismo es tan fuerte que es imposible no mirar detrás de la imagen, de las palabras.",
      "time": "2013-09-01T17:19:01",
      "id": "1025420344"
    },
    {
      "threadId": "593135789",
      "post": "Queridos lectores: He borrado algunos mensajes de este post. Un tipejo que al principio publicó y firmó con su nombre real ciertos comentarios contradictorios sobre esta entrada me ha amenazado (sí, en internet) diciendo que borre sus mensajes, o su nombre, no le he entendido bien por su sintaxis. No es mi política borrar ningún mensaje, ni hacer caso de amenazas, pero es que la conversación con él era demasiado estúpida para merecer un sitio aquí. Gracias por la comprensión y sigamos leyéndonos. ¡Un abrazo!",
      "time": "2013-07-01T10:17:37",
      "id": "947764333"
    },
    {
      "threadId": "1409934106",
      "post": "Está claro, es complicado aniquilar TODA una estirpe. Pero vamos, que a quien quería yo ver en el trono es a Robb, no a Sansa o Arya. Además, supongo yo que el bastardo no tiene opciones al trono... por bastardo.",
      "time": "2013-06-19T10:14:04",
      "id": "935205741",
      "parentPost": "La niña pequeña y el niño con poderes....de que hablas de E.T? De los Stark quedan todos menos el padre, la madre y el hermano mayor. Los niños pequeños, las chicas y el bastardo siguen vivos.",
      "parentPostTime": "2013-06-19T06:46:58",
      "parentPostId": "935111010"
    },
    {
      "threadId": "918843082",
      "post": "Una gran película, con un final sorprendente. Lo más extraño, sin embargo, es la secuencia del restaurante, donde la conversación entre James Fox y su novia es intercalada con pedazos de conversaciones de otras cuatro mesas... ¡que luego no tienen nada que ver con el argumento de la película! Además, aparecen actores de renombre entre esas mesas, como por ejemplo Patrick Magee... Una bizarrada absoluta. Repito, gran filme.",
      "time": "2013-06-13T22:58:29",
      "id": "929896928"
    },
    {
      "threadId": "1133284463",
      "post": "Gracias, Manu. Efectivamente, es una película fascinante. Quizá en esta reseña soy un poco duro con ella, comparado con lo muchísimo que me gustó. Ciertamente, para ser una ópera prima y contar con recursos tan limitados, es increíble lo que Vermut consigue. Un saludo.",
      "time": "2013-05-14T11:56:27",
      "id": "896963343",
      "parentPost": "Hace poco he visto la de Diamond Flash y la verdad es que me encantó. Muy original, con atmósferas en las que sus personajes, a pesar de nos ser muy creíbles a veces, logran crear expectativas que se desmoronan para llevarnos, sin embargo, a una experiencia que se vive con intensidad. Yo la recomiendo. Téngase en cuenta además que es la primera peli del muchacho.",
      "parentPostTime": "2013-05-14T11:54:47",
      "parentPostId": "896962386"
    },
    {
      "threadId": "957080668",
      "post": "Hola Manu, puedes escribirme un mail, en esta web hay un apartado que se llama \"escríbeme\" o algo así, y así tengo tu email para contestarte. Sin problema, será un placer.",
      "time": "2013-04-25T11:56:37",
      "id": "875310359",
      "parentPost": "Hola, somos una pareja que pensamos ir a vivir a Sutton, un pequeño pueblo de Nebraska en un par de meses, y hemos dado con esta página, que nos parece muy interesante. Me pregunto si no te importará que te pueda hacer alguna pregunta práctica acerca la vida allá por medio de un comentario aquí o por email. Muchísimas gracias!!!",
      "parentPostTime": "2013-04-25T11:47:36",
      "parentPostId": "875305591"
    },
    {
      "threadId": "1196143762",
      "post": "Me too. That doesn't change a thing. Architecture-wise, there is no doubt about it. But if you're a movie fan, and you like the history of films, this has some value. Of course there are \"better things\". We could be talking about Marilyn's bra.",
      "time": "2013-04-09T00:25:55",
      "id": "856854572",
      "parentPost": "No offense, I think he changed his mind on good reason, not as iconic looking as Timberline.  On the tv series, yeah, um to be slightly polite, I prefer the kubrick film.",
      "parentPostTime": "2013-04-09T00:21:34",
      "parentPostId": "856851692"
    },
    {
      "threadId": "1169649495",
      "post": "Gracias. Lo hice en el iPad en un autobús; sí que tuve que repasar \"typos\" y algunas palabras repetidas. Con lo de \"una sentada\" me refería a que, básicamente, es una improvisación absoluta y el asunto de la revisión no fue serio. Quería conservar la frescura del momento. Si te contesto a tu pregunta, me cargo el relato, así que me reservo ese derecho. Por cierto, estoy terminando una cosita que sí me está llevando más trabajo y que compartiré contigo de forma más privada. Y, por supuesto, gracias por leer esto y compartirlo en tu blog. ¡Un abrazo!",
      "time": "2013-04-02T00:54:58",
      "id": "848999431",
      "parentPost": "Es bueno, muy bueno. Me sorprende que no le hayas dado ni un repaso. Muy entretenido, y aunque la idea se parece a la de Hodgson, el tuyo tiene otros matices que lo hacen un poco menos fantasioso y más \"terrenal\", si se puede decir. Me ha encantado el final, especialmente.\n\n\n¿Qué es esa mujer?",
      "parentPostTime": "2013-04-01T16:18:26",
      "parentPostId": "848623508"
    },
    {
      "threadId": "1106772226",
      "post": "Creo que existe una concepción acerca del género de terror que en mi opinión es errónea. Normalmente se considera que el final de los relatos de horror debe ser ese golpe de efecto, esa \"vuelta de tuerca\" (usando tu ejemplo) que te deje dislocado y con una sensación de vértigo, un shock, un golpe de música y el descubrimiento de que Bruce Willis lleva muerto toda la película. Para mí, eso no es terror. En mi opinión, es precisamente esa concepción la que rebaja al género y que busca limitarlo a un mero ejercicio de efectismo. El terror es una cosa que ocurre durante la lectura, no únicamente en el golpe final. No se trata tanto de 'tensión' que se acumula, pues eso genera una expectativa de 'explosión' que desemboca en una ligera decepción, sino una sensación ilocalizable de piezas que no encajan durante la lectura, de algo inexplicable y oculto detrás de un atrezzo con apariencia, en principio, de normalidad. Ese elemento no sobrenatural, sino más bien surreal, huidizo, que la razón no consigue aprehender y que nunca se menciona explícitamente en el texto. Pero, sobre todo, ocurre después de la lectura. Esa mosca que se ha quedado detrás de la oreja, ese elemento que no encaja y que ni siquiera es reconocible, se proyecta en la mente más allá de la historia, se instala en ella y vuelve para susurrarnos al oido cuando es la realidad misma la que nos devuelve de pleno a la historia de terror, a su atmósfera y su amenaza velada. Entonces es la propia realidad la que nos aterroriza, y nos acordamos de ese relato que nos abrió la puerta de la percepción para intuir ese elemento que sugiere caos, sinsentido y muerte. Efectivamente, el mejor relato de terror es un relato que no termina nunca.",
      "time": "2013-02-27T01:47:19",
      "id": "813572793"
    },
    {
      "threadId": "591574035",
      "post": "Gracias por tu aportación Mario. Tienes razón que no menciono a los detractores. Simplemente, porque todo lo que dices aquí sobre ellos es totalmente cierto. Lo que ocurre es que me quería centrar exclusivamente en lo extraño del fenómeno de su adhesión en masa. ¿Se te ocurren casos similares? Por ejemplo, ¿se puede decir que la inmensa mayoría de gente que va a misa es de derechas? Me cuesta un poco verlo tan claramente como en el caso del cine (y es que hay muchos católicos de izquierdas, mira la mitad sur de España). ¿O acaso se puede decir que los amantes de los toros son en su mayor parte de derechas?... Interesante debate acerca de cómo nuestras circunstancias modelan nuestros ideales. ¿Es esta sectorización deseable? ¿Va antes el huevo o la gallina? Para mí, todo son dudas. De nuevo, gracias por tu comentario.",
      "time": "2013-02-18T20:00:43",
      "id": "803301703",
      "parentPost": "Curioso tema el del cine español, tanto por lo irónico de los actores revolucionarios como por lo irónico de la mayoría de sus detractores teapartyeros. Curioso lo de los primeros porque efectivamente sorprende su adherimiento en masa con las ideologías más progresistas, no siendo muchas de sus cabezas visibles precisamente mileuristas. El porqué de este fenómeno he de reconocer que a mi también se me escapa, aunque quizá no sea más que una suma de todos los factores que citas como probables que se retroalimentan los unos a los otros. Tampoco pienso que TODOS los actores sean de izquierdas o progresistas, simplemente son algunos más y más visibles. \n\nCon respecto a los detractores, que no has citado aquí, también tienen lo suyo. La inmensa mayoría se ofusca en criticar las famosas subvenciones (que sí que has citado) que recibe el cine (también les pasa mucho con las de los sindicatos, obviando que también las recibe la patronal, que por lo general suelen ser gente que no pasa apuros económicos), pero parece que el tema de las subvenciones no les molesta tanto cuando se trata de ir a misa los domingos, ir a los toros o de animar a su equipo de fútbol favorito (los jugadores internacionales se han llevado cuantiosas y jugosas primas en estos tiempos de crisis por ganar sus últimos títulos, y la mayoría de los clubes deben mucho dinera a la Hacienda Pública, que parece mirar hacia otro lado en este tema). Así pues, mi pensamiento es que la derecha debería aclararse sobre si les gustan las subvenciones o son completamente contrarios a ellas.\n\nPara terminar, a mi lo que me produce estupefacción es que no sea de izquierdas el 90% de la población, habida cuenta de que las políticas neoliberales no favorecen económicamente a más de un 1 o un 2% de ésta: banqueros, grandes empresarios, rentas muy altas en general. Aquí está el verdadero dilema, y no tanto en porqué unos cuantos privilegiados del mundo de la cultura se declaran \"progres\" (palabra odiosa pero que describe bien el izquierdismo de salón y tirando a casposo que parecen profesar)",
      "parentPostTime": "2013-02-18T19:30:44",
      "parentPostId": "803276503"
    },
    {
      "threadId": "1075826447",
      "post": "Muy buena selección. \"Act of Killing\" es una auténtica bizarrada y resulta complicado creer que todo eso tenga origen en la realidad. \"Big Joy\" tiene una pinta estupenda y dan ganas de conocer mejor la figura de Broughton. \"TPB AFK\" y \"Dowloaded\" parecen venir de la mano y habría que verlas de seguido. Y \"The punk singer\" (que no me atrae demasiado aunque me encanta Kathleen Hanna) debería verse en sesión doble junto a \"Sound City\".\nGracias por la preview, Jesús, nos pones los dientes largos para Marzo.\nPS: También creo que se podrá ver este documental en SXSW 2013:\nhttp://www.computerchessmovie.com/",
      "time": "2013-02-12T00:54:38",
      "id": "795983615"
    },
    {
      "threadId": "1019331999",
      "post": "Gracias por leer esta pequeña excremencia. No, no vivo por allí; de hecho, vivo en Nebraska!!!! Espero que disfrutes de esos tres meses, y gracias por la sugerencia. Un saludo.",
      "time": "2013-02-05T17:08:46",
      "id": "789432802",
      "parentPost": "oye, hae un tiempecillo que sigo tu blog y se me genera una pregunta... No vivirás cerca de L.A?? lo digo por que yo llevo un par de semanas en North Hollywood y voy a pasarme 3 meses aqui varado",
      "parentPostTime": "2013-02-05T06:06:54",
      "parentPostId": "788943863"
    },
    {
      "threadId": "1063167209",
      "post": "Muchas ganas de ver esta película. Allá donde está Warren Oates solo puede haber cosas buenas. ¡Gracias!",
      "time": "2013-02-03T19:32:41",
      "id": "787498789"
    },
    {
      "threadId": "1029993132",
      "post": "¡No pude con eso! Diez minutos y me puse a leer. Ajjjjj",
      "time": "2013-01-17T12:30:37",
      "id": "770834149",
      "parentPost": "EAT PRAY LOVE!!!?? Seguro que batía a Cloud Atlas.",
      "parentPostTime": "2013-01-17T09:18:54",
      "parentPostId": "770760741"
    },
    {
      "threadId": "1020877299",
      "post": "¡Gracias Vic! Qué casualidad, leí esas versiones de Corben hace cosa de un mes. Algunas me gustaron y otras me parecieron un poco más torpes, pero... ¡Corben y Lovecraft! Qué dos genios.",
      "time": "2013-01-16T12:33:07",
      "id": "769916264",
      "parentPost": "H.P. Lovecraft+Richard Corben=Haunt of Horror.\nhttp://marvel.wikia.com/Haunt_of_Horror:_Lovecraft_Vol_1_1",
      "parentPostTime": "2013-01-16T09:12:23",
      "parentPostId": "769751866"
    },
    {
      "threadId": "1016117322",
      "post": "Vaya chorrada, yo trabajo en un Middle School en EEUU y cada año tenemos los mismos cursillos de respuesta a tornados, tormentas eléctricas, y lo que llaman \"Intruder in the building\", y el protocolo es serio y detallado: comprobar que tienes a todos los niños, llevar un listado contigo (siempre preparado en el cajón para emergencias), cerrar clases con cerrojo, alejarse de puertas y ventanas, no usar los móviles BAJO NINGUN CONCEPTO (podrían activar dispositivos explosivos), no responder NINGUNA llamada, dar direcciones equivocadas, no volver al interior del edificio si se sale... Lo que más me asustó fue la casualidad que supuso para mí recibir uno de estos cursos de \"intruder in the building\" el mismo día en que ocurrió lo de Newtown. Se nos puso a todos la carne de gallina.",
      "time": "2013-01-09T17:29:18",
      "id": "761424778"
    },
    {
      "threadId": "1006553388",
      "post": "Genial, muy interesante. Una chica de 50 kilos es una anoréxica, though ;-)\nPS: Eres un newtoniano, que lo sepas.",
      "time": "2013-01-05T18:17:32",
      "id": "756952509"
    },
    {
      "threadId": "936786158",
      "post": "Gracias Cristian, lo que me resulta increíble es la nueva oleada de defensores de la película que, desde el conocimiento del género, alaban esa 'defensa del misterio' del film. He llegado a leer que la película decepciona porque precisamente \"trata de la decepción\" de la búsqueda del creador. Yo, sinceramente, en Lindelof tampoco he encontrado un 'creador' a la altura de las circunstancias. En fin, gracias por tu comentario y a ver si un día de estos traes el pandemonium de vuelta. Un saludo.",
      "time": "2013-01-05T17:52:40",
      "id": "756932554",
      "parentPost": "Muy buen post, felicidades. Y te agradezco las citas al artículo de Jot Down. \n\n\nLa diferencia entre Spaihts y Lindelof es que el primero es guionista y el segundo un impostor. Uno de los casos más evidentes de \"rey desnudo\" con el que yo me he encontrado jamás (en dura competencia con Rob Liefeld). Su respuesta \"I'm just the writer\" es para enmarcar: demuestra que es un adolescente infantiloide con cuatro lecturas mal digeridas a cuestas (probablemente de cómics con pretensiones de \"profundidad\") e incapaz de afrontar la responsabilidad de sus truños. Un campeón del jetismo, vaya. \n\n\nLo dicho, felicidades por el post.",
      "parentPostTime": "2013-01-05T15:34:36",
      "parentPostId": "756821327"
    },
    {
      "threadId": "745178529",
      "post": "Acabo de verla y coincido totalmente en el tema del humor. Algunas líneas de diálogo son ciertamente hilarantes, pero ni por esas se consigue disipar la brutalidad de fondo. Una gran película en la que la interpretación de McConaughey me ha sorprendido positivamente, por diferente. Yo hubiese escogido a alguien distinto, pero su trabajo funciona perfectamente y es muy convincente.",
      "time": "2012-12-16T17:00:20",
      "id": "739047887"
    },
    {
      "threadId": "951390038",
      "post": "Acabo de ver esta película y me ha gustado muchísimo. Gracias a Sixthman77 por recuperarla. Una auténtica historia de manipulación y traición a tres bandas. Genial. Y un título cargado de cinismo, por cierto.",
      "time": "2012-12-12T04:51:38",
      "id": "733692677"
    },
    {
      "threadId": "949147894",
      "post": "¿Te puedes creer que todavía no he visto esta peli? Y la imagen de las agujas en el ojo es, aun así, tan icónica para mí como aquella de \"Un perro andaluz\". A la lista.",
      "time": "2012-11-29T04:03:59",
      "id": "722182771"
    },
    {
      "threadId": "887000173",
      "post": "RAN, qué peliculón. Debería volver a verla, porque he olvidado gran parte. Es curioso, me acuerdo más de \"Kagemusha\"; si no la has visto, ya sabes. Y gracias por mencionar \"Fire\", no la conocía. Veo que es una trilogía de los elementos. ¡Interesante! La verdad es que no veo mucho cine de por esos lares.\n\n\nOtra que me viene a la cabeza, sin nada que ver con lo anterior, es \"The Color of Paradise\", una peli iraní que tiene cosas que, macho, ¡no se me quitan de la memoria!\n\n\nGracias por leer y comentar, Javi.\n\n\nUn abrazo.",
      "time": "2012-11-04T23:04:21",
      "id": "700543463",
      "parentPost": "No me dió tiempo a comentar por aquí cuando lo leí... fantástica entrada, Alex. ¡Qué grande es el cine cuando es cine!.\n\nLo leí y me pasé una tarde recordando esas películas que te dejan \"poso\", una de ellas era Fire(1996) de Deepa Mehta, no por la trama en sí, si no por el tipo de cine alejado de los cánones de Hollywood que abrió una ventana dentro de mi cabeza.\n\nLo curioso es que esa misma noche mientras iba al volante entrevistaban a Deepa Mehta en CBC radio. Conjunción planetaria por lo visto.\n\nOtra de las que me abrió la mente en la preadolescencia fue \"Ran\", la tuve que ir parando la primera vez para poder degustar todo lo que allí se cocía, cayo 3 veces en esa semana.\n\nUn abrazo",
      "parentPostTime": "2012-11-04T22:55:24",
      "parentPostId": "700539458"
    },
    {
      "threadId": "849653416",
      "post": "Eh, no lo hago para picar a nadie, pero creo que salen peor parados los de derechas, si te fijas bien. De todos modos, no lo decía tanto en el plano político-demagógico sino filosófico. Ya sé que es una idea un tanto conservadora, pero hay perspectivas muy serias e interesantes de este tema: \"The Left has traditionally assumed that human nature is so malleable, so perfectible, that it can be shaped in almost any direction. By contrast, a Darwinian science of human nature supports traditionalist conservatives and classical liberals in their realist view of human imperfectibility, and in their commitment to ordered liberty as rooted in natural desires, cultural traditions, and prudential judgments.\"\nPor cierto, el post de La Fragua lo conocía y es muy grande, efectivamente.",
      "time": "2012-10-17T12:23:09",
      "id": "685127938",
      "parentPost": "Estoy de acuerdo con Javier. Mezclar conceptos morales con necesidades biológicas o psicológicas \"egoístas\", o igualar estos con comportamientos inmorales/satánicos/de derechas ayuda a que tu argumento sea más polémico (los que se consideren de izquierdas y lo lean se picarán un poquito más). Creo que caes en el error de polarizar demasiado, aunque como estás hablando de dos conceptos tan abstractos, no importa demasiado. Sin embargo, estoy de acuerdo con la idea general del post, y me repatean los santurrones de izquierdas que creen tener la solución final a todos los males: ser como ellos. He aquí un post realmente horrible y santurrón sobre cómo ser de izquierdas es el culmen de la perfección moral: http://lafragua.blogspot.de/2007/10/algunos-dicen-que-son-de-izquierdas.html\nOtro ejemplo, más frívolo y pop, de idiotez absoluta viene de Nacho Vegas, que después de las declaraciones de Russian Red admitiendo ser de derechas, soltó: \"Cualquiera que se declare de derechas ha de ser un cretino o un cabrón\". Toma ya. Imagínate un señor de derechas, pero no el típico filofascista o el rancio a lo Álvarez Cascos, sino un conservador típico, pero digamos, \"buena persona\". Ese señor es un cretino y un cabrón, aparentemente. La familia de Nacho Vegas estará sin duda llena de cabrones y cretinos. Y todas nuestras familias.\n\n ",
      "parentPostTime": "2012-10-11T09:26:16",
      "parentPostId": "678881891"
    },
    {
      "threadId": "819363280",
      "post": "Yo no soy materialista dialéctico, de hecho me canso solo de escuchar esos términos, me hastían y me parecen nostálgicos. Para mí las cosas no son lo que la historia me dice que son. Como ves, no comparto tu visión del mundo en absoluto, aunque respeto al 100% tu visión de las cosas y entiendo que tus intenciones son buenas y que anhelas llegar a vivir en un mundo mejor. Dicho esto, podemos hacer dos cosas; o dejarlo aquí, o enzarzarnos en una charla infructuosa. Sinceramente, opto por la primera opción. ¿Qué te parece?",
      "time": "2012-08-29T16:44:25",
      "id": "633302668",
      "parentPost": "Veo que te falta un poco de comprensión lectora, o matemáticas, o las dos...Izquierda y derecha tienen connotaciones igual que todas las palabras habidas y por haber, y eso no te da ningún tipo de licencia para inventarte el significado de estas, se suele utilizar los términos izquierda y derecha(de forma equivocada en mi opinión), en referencia a cuando en la Asamblea Nacional francesa se sentaron a un lado los \"conservadores\" y al otro los \"liberales\", pero creo que tiene poco o ningún sentido seguir analizando toda la política en un eje HORIZONTAL (en el que puedes estar más a la izquierda o más a la derecha) no solo teniendo en cuenta que es algo anacrónico, ya que existen 18.000 tipos de vertientes ideológicas desde el s.XX, sino que encima te estás inventando sobre la marcha lo que pueden significar.\n\n\n\nPara mi izquierda y derecha es el circo que ha montado la democracia burguesa en cada país desde la IIGM, llegando diferentes presidentes del gobierno a decir \"somos de centro\" y la gente lo interioriza como si fuese lo más normal y obvio del mundo.\nYo soy materialista dialéctico y por tanto considero que no es una lucha entre izquierda y derecha, sino una lucha entre trabajadores y empresarios, dominados y dominadores, tenéis a los esclavos y los esclavistas, tenéis a los siervos y el señor feudal, tenéis todos los ejemplos que queráis, y todo apunta a que la historia es una sucesión de luchas de clases.  ",
      "parentPostTime": "2012-08-29T15:39:56",
      "parentPostId": "633238117"
    },
    {
      "threadId": "799579887",
      "post": "I know... El verdadero significado de bizarro es inaudito:\nhttp://lema.rae.es/drae/?val=bizarro",
      "time": "2012-08-10T13:57:25",
      "id": "615580855",
      "parentPost": "Lo de bizarro es un modismo, truhan ;)",
      "parentPostTime": "2012-08-10T10:44:43",
      "parentPostId": "615454545"
    },
    {
      "threadId": "702114449",
      "post": "¡Jajaja! Primero dice que no quiere calentar ánimos, y luego dice que a quien no le guste que le den por el culo. Esos eufemismos (los del pepino y similares) sí son pusilánimes de verdad. Jaimito, di las cosas como las sientes, joder. No dejes que los complejos puedan contigo. Eso sí, a mí me tendrás debajo del balcón con una bandera de Europa, dispuesto a invadir tus instituciones financieras y tu soberanía de terraza y toldo verde aceituna.",
      "time": "2012-05-24T16:09:21",
      "id": "537634412"
    },
    {
      "threadId": "694821343",
      "post": "What about Common Core? :)",
      "time": "2012-05-18T13:36:33",
      "id": "532068110"
    },
    {
      "threadId": "614511370",
      "post": "Gracias por leerlo y comentar Kris, los que estamos lejos tenemos un recuerdo distorsionado de Madrid que quizá se acerque más aún al Madrid real que cuando se vive en ella. Un beso muy fuerte!\n",
      "time": "2012-05-06T19:39:32",
      "id": "521113483",
      "parentPost": "Plástico, intenso, inquietante ¡qué bueno! Reconozco ese Madrid... ",
      "parentPostTime": "2012-05-06T19:02:41",
      "parentPostId": "521091302"
    },
    {
      "threadId": "677188271",
      "post": "The fact that they're innocuous makes them even worse.",
      "time": "2012-05-05T19:44:54",
      "id": "520413896",
      "parentPost": "With all the crap music in the world, the level of Coldplay hate kind of surprises me.  They seem pretty innocuous to me.\n\n\nAnd as already stated above, this cover seems to be coming from the right place.  Of course, the cynic in me could argue that Coldplay only did it to get people to pay attention to them, but I'll give them the benefit of the doubt.",
      "parentPostTime": "2012-05-05T18:01:30",
      "parentPostId": "520312921"
    },
    {
      "threadId": "668711829",
      "post": "Ciertamente, razón no te falta.\nPero esa explicación no da cuenta de las veces en que un hombre tiene una pareja que es una mujer guapa e inteligente, y aun así sigue liándose con otras. Es algo mucho más inestable que la mera genética. Es desconocimiento de uno mismo, es un atavismo, un pestillo que se libera sin motivo. Ese tipo que tiene una novia \"perfecta\" puede terminar liándose con una tonta secretaria que ni siquiera está tan buena. No hay reglas. Esto es impredecible.",
      "time": "2012-05-01T20:44:08",
      "id": "515313732",
      "parentPost": "El quiz de la cuestión es que la atracción sexual no es una elección, es genética. Un hombre sin importar lo que tenga en la cabeza ni como sea siempre sentirá atracción por una mujer con unas determinadas formas y rasgos físicos, todos los hombres, intelectuales, voluntarios de la cruz roja o asesinos despiadados se giraran para mirar pasar a esa mujer y a una mujer sin importar como sea, siempre le producciran atracción ciertos rasgos de personalidad en un hombre, todas las mujeres, de cualquier tipo, se sentiran interesadas por ese hombre que les produce esas sensaciones. El asunto no es el sentir esa atracción, lo cual es inevitable, si no cuanta atención se presta a esa atracción y cuanto se deja uno llevar por ella. En el caso que cuentas, no es raro que a tu amigo le atrajese la chica, pero el hecho de pedirle el teléfono teniendo esa otra novia \"perfecta\" ya es una decisión consciente y premeditada, es como el que se salta la dieta y se pone a comer una apetecible tarta. Aqui entrariamos en el debate de la fidelidad o exclusividad en las relaciones. En cuanto a \"Si eres mujer la inteligencia no seduce a nadie\", la inteligencia en una mujer le parecerá sexy a muchos hombres (me incluyo) y atractivo a un nivel emocional, pero el factor que, de lejos, mas atraccion (sexual) ejerce en un hombre es el físico de la mujer.A un hombre intelectual, le volvera loco una intelectual que también sea un pibón, sería su ideal, pero entre un pibón que no tenga nada en la cabeza y una chica de mente perfecta pero menos agraciada, podrá sentirse más unido a la última, preferirla como compañera, quererla, todo lo que tu quieras pero la pulsión de la atracción sexual siempre será mayor hacia la primera. De como el tipo gestione todo esto (Ahí si hay diferencias entre unos y otros) saldrán los resultados.",
      "parentPostTime": "2012-05-01T02:44:25",
      "parentPostId": "514681001"
    },
    {
      "threadId": "591691084",
      "post": "Nico, ¿tienes algún problema mental o esa ha sido tu aportación meditada al asunto?",
      "time": "2012-04-26T01:19:14",
      "id": "509292224",
      "parentPost": "BUUUUUUUUUUUUUUUUUUUUUUUUUUUUUUUUU",
      "parentPostTime": "2012-04-25T22:07:21",
      "parentPostId": "509147645"
    },
    {
      "threadId": "634415154",
      "post": "Estoy de acuerdo, Shame toca un tema escabroso y lo toca con estilo, sin remilgos. Simplemente digo que hay partes que va un poco a la deriva y que los críticos la han alzado como obra maestra, y quiero esperar un año o dos a ver cómo resiste. También quiero volver a verla dentro de un tiempo. Es la típica peli que cambia mucho en un segundo visionado. Hazlo tú también y recuperamos esta conversación. Qué coño, la vemos juntos de nuevo en verano. ¿Te parece? ;)",
      "time": "2012-04-19T11:54:35",
      "id": "502211326",
      "parentPost": "A mí Shame me parece una gran peli que te tiene atrapado de principio a fin, y creo que no hace falta una trama elaborada para esta peli (ni para otras, según de qué se trate).\n \nEs una peli que retrata la vida de un personaje obsesionado con el sexo, un tío que está maldito y que es infeliz porque nunca está satisfecho. Ese mal rollo y tensión comienzan a aumentar con la visita de la hermana que desestabiliza su modo de vida y hace que, en lugar de calmarse, la tensión se convierta en caos y acabe con la magistral escena del periplo nocturno, escena que da bastante miedito y eso que no se trata de ninguna peli de miedo. La conversación del bar (para mí la escena más fuerte) solo puede conseguir el efecto que tiene como climax de la tensión que se vive durante la película. Si esa escena te gustó/ impactó es que la película ha conseguido su cometido.\n\nLa escena de New York New York es una tontada que te puede gustar más o menos pero no hace a una peli mejor o peor... \n\nP.D.: Hunger es un ejemplo perfecto de peli que necesita trama y no la tiene en absoluto, no es más que una sucesión de escenas de policías puteando gente en bolas y una conversación ya casi al final explicándote que el tío se quiere matar y al final, el tío matándose sin más. Vamos que fue como ver Gerry.",
      "parentPostTime": "2012-04-19T11:25:53",
      "parentPostId": "502170578"
    },
    {
      "threadId": "641612437",
      "post": "Gracias amigo. Qué gusto pensar que te gusta esto tanto como a mí tu blog. El orgullo es compartido.",
      "time": "2012-04-09T13:04:42",
      "id": "492110299",
      "parentPost": "Lo dicho. Eres un maestro. Admiro profundamente tus post sociológicos y casi (sin casi) envidio esa oportunidad subversiva-constructiva que te ha dado la vida, allí donde Monsanto es ley y la religión modo de vida.\nUn placer leerte y un orgullo que me sigas.",
      "parentPostTime": "2012-04-09T08:54:27",
      "parentPostId": "492020962"
    },
    {
      "threadId": "626502785",
      "post": "Yo creo que lo del voluntariado y la solidaridad no es suficiente para ciertas cosas que deberían estar garantizadas por encima de la buena voluntad, como la seguridad, la educación, la salud y (como apuntas tú) los desastres y emergencias. Opino que un sistema intermedio entre los dos es lo ideal, precisamente el tema del post es cómo ambas posiciones son extremas.\n\nCiertamente, quizá he generalizado al hablar de cómo los americanos ven a Europa. De hecho, EEUU es muy diverso en opiniones y seguro que hay mucha gente a la que le gustaría un modelo más \"social\". Pero recuerda; todos los que están de acuerdo con, por ejemplo, la reforma de la sanidad de Obama, no quiere decir que aboguen por un sistema universal. La propuesta de Obama es obligar a todos a contratar un seguro privado. Su propuesta, atrevidísima aquí, ni se acerca al modelo universal de muchos países europeos -- de hecho, está a un paso de ser tildada de inconstitucional y probablemente ni salga adelante por presiones judiciales y populares.\n\nP.D.: No todos los países tienen modelos tan universales como el español. Suiza, por ejemplo, tiene un sistema parecidísimo a lo que quiere Obama para EEUU... y les va de maravilla, al parecer. http://globalpublicsquare.blogs.cnn.com/2012/03/16/health-insurance-is-for-everyone/",
      "time": "2012-04-05T13:52:34",
      "id": "487268702",
      "parentPost": "Es increíble lo del voluntariado y los fundraisers. Ya sabía que existía en EEUU y que estaba bastante arraigado, pero no que fuera tan esencial. Me parece genial, cada uno elige lo que aporta, pero está muy lejos de ser suficiente. Si no, fíjate en el Katrina, en casos tan extremos la caridad y el voluntariado no servirían ni para empezar.\nOtra cosa, recuerda que en EEUU mucha gente SÍ quiere que la democracia sea como en Europa. Aunque mencionas que vives en un red state, luego generalizas diciendo que \"para nosotros los europeos, la democracia está en el estado de bienestar garantista universal. Para los americanos, la democracia está en la libertad total y definitiva que supone la independencia del poder, del Gobierno, de la clase política y sus legislaciones impositivas\". Para muchos americanos Europa no es un continente de \"nanny states\" sino un paraíso en el que la gente no tiene que tirarse el resto de su vida pagando la universidad o una operación. \n\n(También lo he alucinado con lo del casco y el cinturón, y la frasecita de la NMA... Crazy stuff)",
      "parentPostTime": "2012-04-05T08:09:57",
      "parentPostId": "486846560"
    },
    {
      "threadId": "626168295",
      "post": "Entiendo que no te guste el mecenazgo, pero luego se te lee decir cosas como \"que vengan los americanos y nos colonicen\" y quizá no sepas que las comunidades en EEUU se basan en el booster, el supporter, el donation, el voluntary y el non profit. En fin, incoherencias de los usuarios de tumblr de hoy en día. Que por cierto me resultan interesantísimos.",
      "time": "2012-03-27T22:46:31",
      "id": "477861525"
    },
    {
      "threadId": "623683304",
      "post": "Solo dos cosas.\nUna. Parece que la gente prefiere la cultura del aficionado a la cultura elitista. Por muy cutre que sea, la democracia de los gustos parece evidente.\nDos. Si yo hago en casa un plato exactamente igual que el que me ha servido el maldito Arzak, según lo que dices (implícitamente) es que la policía debería venir y tirar la puerta.\nEn plan Battering Ram.\nAunque ahora que lo pienso, a la mayoría de los que cocinamos en casa sin ánimo de lucro no nos suele gustar esa clase de comida elitista.\nSolemos hacer platos de aficionado, que están mucho, mucho, mucho más ricos.\nDisfruta tu burbuja, entiendo que te esté dando de comer.",
      "time": "2012-03-25T18:48:34",
      "id": "475957199"
    },
    {
      "threadId": "602216159",
      "post": "I don't like it. It looks like a baroque-new-age windows desktop background or something from a free online sci-fi RPG. And I am still excited about this movie.",
      "time": "2012-03-07T18:29:18",
      "id": "459022538"
    },
    {
      "threadId": "594405362",
      "post": "¡A mucha honra! :)",
      "time": "2012-03-01T17:42:03",
      "id": "453544993",
      "parentPost": "friki jeje ",
      "parentPostTime": "2012-03-01T09:31:33",
      "parentPostId": "453220226"
    },
    {
      "threadId": "150104561",
      "post": "Jefe, hace ya casi 2 meses de esto. Express yourself!!!",
      "time": "2010-11-25T17:48:30",
      "id": "102731183"
    },
    {
      "threadId": "6585750",
      "post": "ok, I knew that my english was going to be a problem.\r\nIn spain, we say that when we accept dealing with someone who's only interested in the money, or publicity, regardless of morality.\r\nsorry if offended, I like your blog very much.",
      "time": "2008-11-03T21:01:14",
      "id": "3461250",
      "parentPost": "What does \"dealing with the demon\" mean?",
      "parentPostTime": "2008-11-03T20:39:07",
      "parentPostId": "3460920"
    }
  ],
  "profileInfo": {
    "username": "alextronic",
    "about": "Calentando mi espina dorsal con un secador. ポンプヘッド",
    "name": "Alex Onôv",
    "disable3rdPartyTrackers": false,
    "isPowerContributor": false,
    "isAnonymous": false,
    "rep": 1.347346,
    "profileUrl": "https://disqus.com/by/alextronic/",
    "url": "http://www.cabezabomba.com/",
    "reputation": 1.347346,
    "location": "Nebraska, USA",
    "isPrivate": false,
    "signedUrl": "http://disq.us/?url=http%3A%2F%2Fwww.cabezabomba.com%2F&key=_lYdFELASorxMHsUlW4NwA",
    "isPrimary": true,
    "joinedAt": "2008-11-18T01:33:05",
    "id": "145953",
    "avatar": {
      "small": {
        "permalink": "https://disqus.com/api/users/avatars/alextronic.jpg",
        "cache": "//a.disquscdn.com/uploads/users/14/5953/avatar32.jpg?1290707486"
      },
      "isCustom": true,
      "permalink": "https://disqus.com/api/users/avatars/alextronic.jpg",
      "cache": "//a.disquscdn.com/uploads/users/14/5953/avatar92.jpg?1290707486",
      "large": {
        "permalink": "https://disqus.com/api/users/avatars/alextronic.jpg",
        "cache": "//a.disquscdn.com/uploads/users/14/5953/avatar92.jpg?1290707486"
      }
    }
  }
}