{
  "comments": [
    {
      "threadId": "4308295773",
      "post": "@persand:disqus Nyfiken, hur har ni löst det här? \"Kollegorna har också byggt en lösning som gör att alla meddelande som går till telefonsvararen för företagsnumret postas direkt in i en kanal i Slack där alla sedan kan lyssna på det.\"",
      "time": "2015-11-11T16:11:08",
      "id": "2353675543"
    },
    {
      "threadId": "3273665575",
      "post": "Ännu fler inbrott i området, ny postning med information på Facebook. https://www.facebook.com/Alvsala/posts/656265781168664",
      "time": "2014-12-08T22:18:00",
      "id": "1732269518"
    },
    {
      "threadId": "2735273514",
      "post": "Kan delvis ha att göra med annonsering. Operatörerna står får en del intäkter till IDG. Do the calculation. ",
      "time": "2014-06-07T21:09:14",
      "id": "1424495646",
      "parentPost": "Jag undrar varför IDG:s reportrar inte ställer dem mot väggen och ställer frågor likt kommentarerna nedan ?!!? Jag är f-n inget geni ej heller kallar jag mig journalist... ändå tog det max 5 sek av läsande innan jag började fundera: \"Men hur ser samarbetet ut med Telias bolag de har i andra länder??? \" etc etc",
      "parentPostTime": "2014-06-04T18:25:04",
      "parentPostId": "1419586537"
    },
    {
      "threadId": "1119219383",
      "post": "Länken verkar vara död, finns på http://www.themodernindustry.com/",
      "time": "2014-03-22T19:33:06",
      "id": "1296718288"
    },
    {
      "threadId": "1916213196",
      "post": "Att inte pilla för mycket på mobilen handlar inte om mig och att jag orsakar en krock - det handlar mer om att hinna uppmärksamma och väja för den majoriteten som inte kan köra bil. Regler och förordningar i all ära men skulle hellre rösta på hårdare körkortskrav, speciellt löpande.",
      "time": "2013-10-30T21:24:40",
      "id": "1102800809"
    },
    {
      "threadId": "244536912",
      "post": "Tänkte shoppa upp en hyggligt stor bunt glassar till mina kunder och samarbetspartners men finns inte en chans i världen att jag stödjer er lösning med WyWallet. Så det fick bli en helt annan lösning istället. Sorry GB, så går det när man inte lyssnar på marknaden/kunderna när man implementerar den tekniska lösningen.",
      "time": "2013-07-05T14:03:02",
      "id": "952821213"
    },
    {
      "threadId": "1303923063",
      "post": "Jag gnällde på Tele2 och pekade på deras överbelastning. Sitter och kör en iPhone 5 med t.ex. Telenor här bredvid och klockar på 23 mbps ner. Rätt långt ifrån edge på 3G right?",
      "time": "2013-05-31T09:41:42",
      "id": "914772216",
      "parentPost": "Jag vet att Telenor och Tele2 har samma 4G nät. Du gnällde över att du bara har Edge då rekommenderade jag bara dig att skaffa 4G så du slipper Edge. Inget om operatörer eller enheter så sluta larva dig. ",
      "parentPostTime": "2013-05-31T08:11:56",
      "parentPostId": "914699095"
    },
    {
      "threadId": "1075983445",
      "post": "Magnus. Du har helt rätt, jag som skrev fel ord i den meningen. Ändrar direkt. Tack!",
      "time": "2013-02-11T12:38:59",
      "id": "795390005",
      "parentPost": "Tror det är \"promoted trends\" i USA som har gått upp i pris. Ett \"promoted tweet\" kostar som tidigare om jag förstår det rätt. Och att promoted tweets säljs enbart till en annonsör per dag/region känner jag inte till. Kanske du menar trends där också.",
      "parentPostTime": "2013-02-11T04:34:33",
      "parentPostId": "795175770"
    },
    {
      "threadId": "1074494426",
      "post": "Måste vara lite jobbigt för de som ligger bakom Camp att 37 Signals kommer ut med en egen app. Precis klara med sin egen utveckling (släpptes den 6:e februari) och så kommer moderskeppet och kör över en. Tror att det blir väldigt väldigt svårt att få kunder att betala 3.99 dollar för deras app är det enbart är formgivningen som skiljer vad jag kan se. Inget lager extra funktioner. Kolla in mer via http://getcampapp.com/ och https://itunes.apple.com/us/app/camp-for-iphone/id594794383?mt=8 ",
      "time": "2013-02-10T12:21:56",
      "id": "794557932"
    },
    {
      "threadId": "1067566330",
      "post": "Indeed. De har ju gjort en del jävligt konstiga prylar där SOPA var en riktig bummer. Någonstans blir det ändå intressant att de ändå faktiskt just  \"gör\" saker och inte ligger där tyst i baksätet. ",
      "time": "2013-02-06T10:01:59",
      "id": "790410564",
      "parentPost": "Hellre att de kör sådana här reklamspotar än att de stöder SOPA och skjuter elefanter. Godaddy är ett \"fascinerande\" företag.",
      "parentPostTime": "2013-02-06T09:53:53",
      "parentPostId": "790405502"
    },
    {
      "threadId": "1055785304",
      "post": "Och när vi ändå är inne på det här ämnet så tar vi upp en som haft en viss spridning i sociala medier gångna veckorna - hur man äter en muffin. http://youtu.be/wjM9tR42Szo",
      "time": "2013-01-31T08:18:50",
      "id": "784228445",
      "parentPost": "Och en bonus. Hur man äter ur \"kinalåda\" - http://youtu.be/j5xb1fAHkdc",
      "parentPostTime": "2013-01-31T07:56:34",
      "parentPostId": "784221530"
    },
    {
      "threadId": "1045021696",
      "post": "Det blev inget magiskt, det blev http://www.youtube.com/watch?feature=player_embedded&v=l7AqpFcgTqQ\n\nHärlig kombo av det väntade, ekologiskt, det sprutande och det avklädda. Make your own picture vad allt betyder.",
      "time": "2013-01-29T14:38:24",
      "id": "781978445"
    },
    {
      "threadId": "1052086951",
      "post": "Stämmer @videren:disqus det är ett Logitech K760. Somnade efter postningen, därav sent svar @deeped:disqus och @Niclasj:disqus .\n\nGillar tangentbordet som fan. Ger mig möjlighet att koppla mot tre blåtandsenheter med egna knappar, så switch mellan enheter går sjukt snabbt. T.ex. så kan du ha det vid laptopen (om man jobbar med externa enheter), till iPad och till PS3an samtidigt. Det är lätt och smidigt och har klarat att bli tappat i backen några gånger. Att det går på ljus istället för att som Apples produkter äta batterier var en av huvudanledningarna till ett byte. \n\nNär det gäller känslan så passar det mig. Lite svampigare än Apples men ändå korta distinkta tryck. \n\nJuste. Snabbknappar till en del iOS saker också. Fixa volymen, få fram alla ikoner osv.\n\nTripoden som håller i iPad Minin är en http://www.kjell.com/sortiment/dator-kringutrustning/tillbehor-till-surfplattor/hallare/universal/universalstall-for-tablets-p92478 från Kjell & Co. Hade en dyrare variant, kanske originalet, innan men efter att det tappades bort så blev det denna. Fungerar minst lika bra och till en bråkdel av kostnaden. ",
      "time": "2013-01-29T08:39:31",
      "id": "781697739",
      "parentPost": "Jag såg Tommies svar på samma fråga på Facebook, det är ett Logitech K760.",
      "parentPostTime": "2013-01-29T04:02:40",
      "parentPostId": "781480681"
    },
    {
      "threadId": "1043067804",
      "post": "Tackar och bockar @tobiassjosten:disqus ! \n\nDet där med bollandet känner jag igen men tänkte att det här blir lite som att nu kommit igång med träningen, blir som en ventil. \n\nMen nu är det dag två och har redan ångrat mig ;).",
      "time": "2013-01-24T20:39:57",
      "id": "777177358"
    },
    {
      "threadId": "733916765",
      "post": "Och när det gäller \"magasinsveriges\" avhopp från Wordpress rekommenderar jag att läsa kommentarerna på artikeln som länkas i texten ovan, det är inte så Aftonbladigt som det låter. \n\nhttp://www.mkse.com/2011/06/01/aller-media-kastar-ut-wordpress-fran-85-sajter/",
      "time": "2012-09-26T07:26:41",
      "id": "662916656"
    },
    {
      "threadId": "762446050",
      "post": "Gunnar är alltid i framkant. Nästan lite läskigt. ",
      "time": "2012-07-12T21:32:33",
      "id": "586050100"
    },
    {
      "threadId": "762437304",
      "post": "Fungerade för mig på 6:e försöket. \n\nVet inte om det har med något att göra men hade 36% kvar av batteriet och tänkte att det kanske fanns något automagiskt som berättade för Google att \"telefonen är inte redo för att hon har för lite batteri\". Stoppade i laddaren och gjorde det 6:e försöket - bam!",
      "time": "2012-07-12T21:14:41",
      "id": "586033361"
    },
    {
      "threadId": "574218218",
      "post": "Anyone know what stuff you need to buy to get the same solution as in the video? HDMI-connector etc. ",
      "time": "2012-05-27T20:17:25",
      "id": "539920717"
    },
    {
      "threadId": "674611151",
      "post": "Eller vad sägs om Flickd, istället för Flickr? http://flickd.net/",
      "time": "2012-05-07T06:43:06",
      "id": "521410154"
    },
    {
      "threadId": "653281371",
      "post": "Det är inte riktigt så marknadsföring fungerar...",
      "time": "2012-04-17T19:42:42",
      "id": "500095816",
      "parentPost": "Dummaste skitsnackat idag imo. Jättebra att dom vill skänka pengar till behövande, men detta är ungefär i stil med dom där virala bilderna på facebook där det står \"Om bilden får 1000000 likes så kommer det skadade barnet på bilden opereras, sprid vidare!\".\n\nOm deras mål nu är att faktiskt hjälpa så bör dom väl vilja skänka så mycket pengar som möjligt? Så att begränsa hur mycket pengar som ska skänkas beroende på hur mycket Sveriges befolkning virituellt slänger i en dators papperskorg är bara idiotiskt. Det finns garanterat en budget för hur mycket som kan skänkas, om dom verkligen vill hjälpa till så skänk pengarna direkt istället för att göra dom behövandes liv till nån jävla lek!",
      "parentPostTime": "2012-04-17T19:09:55",
      "parentPostId": "500068939"
    },
    {
      "threadId": "644676795",
      "post": "Helt jävla overkligt. Hur coolt so helst. I handskar liksom. Sick. ",
      "time": "2012-04-11T18:43:24",
      "id": "494586764"
    },
    {
      "threadId": "600785283",
      "post": "Loginen till kommentarerna är åtgärdad, tack för påpekandet. ",
      "time": "2012-03-08T07:50:03",
      "id": "459595390"
    },
    {
      "threadId": "597009007",
      "post": "Jag håller med Roger i den här diskussionen och det här med att \"QR-koden är till för att underlätta för de som ÄR intresserade, inte för att locka någon att bli det\" tycker jag inte stämmer alls. Vad du gör, om vi håller oss till olika typer av reklam, är att lägga på ytterligare ett lager mellan det som kommunicerar (låt säga reklamtavlan) och mottagaren. I det här fallet en QR-läsare samt att du ska hålla upp telefonen och sikta in dig. Webbläsaren uppfattas som mer naturlig och har lägre tröskel än just dessa QR-program. Om du misslyckats så kapitalt med budskapet i kommunikationen alt. inte kunnat skapa en vettig och kort url till folk, som gärna blir sticky, så ska du fan heller inte ha trafiken. \n\n\nMissförstå mig rätt. Jag gillar personligen det som händer med QR-koder även om jag typ aldrig använder skiten (jobbar med reklam). QR har en framtid den dagen det är inbyggt native i bärbara terminalers kameror. Fram till dess vill med hela mitt hjärta mena på att de som föreslår QR-lösningar för kunder blåser dem (ofta pga att de saknar insikt). \n\nKontenta. Roger har en mycket vettig poäng om vi ser bort från navelskåderiet i form av alla early adopters och teknikfantaster som hänger på Feber.",
      "time": "2012-03-07T15:28:24",
      "id": "458818780",
      "parentPost": "Duh, det gäller ju ALL reklam med eller utan QR-kod. Du hade knappast plockat fram mobilen och öppnat en URL som står på en annons du inte är intresserad av heller... QR-koden är till för att underlätta för de som ÄR intresserade, inte för att locka någon att bli det.",
      "parentPostTime": "2012-03-03T11:33:44",
      "parentPostId": "455242332"
    },
    {
      "threadId": "580631519",
      "post": "Sweet, lycka till!",
      "time": "2012-02-18T09:52:10",
      "id": "442691927"
    },
    {
      "threadId": "533422324",
      "post": "Ser att haatee redan svarat samma längre ner. Sorry. ",
      "time": "2012-01-11T16:27:01",
      "id": "407903741"
    },
    {
      "threadId": "460309195",
      "post": "Klart ni ska bli kunder i framtiden Ole, eller bara lägga in era respektive profiler så att andra startups kan hitta er. // Mannen som körde er in till centralen",
      "time": "2011-11-03T15:40:56",
      "id": "354784111",
      "parentPost": "Hej! Det är så kul att se att Startupjobb är redan succee!\n\nDet var spännande att delta på 24hbc.\n\nMålgruppsundersökning hjälpte oss att upptäcka några fel :)\n(en liten uppdatering - det är Ole som gör det ;)\n\nLycka till! Redan fundera att bli kund också i framtiden!",
      "parentPostTime": "2011-11-03T06:36:59",
      "parentPostId": "354461110"
    },
    {
      "threadId": "451338627",
      "post": "I beg to differ.\n\nKristoffer, du skriver \"Wordpress is hated worldwide by avant-garde webdevelopers for it's nutoriously crappy design. Whenever you want to excell \"the wordpress modell\" of building stuff, you hit a dead end and end up with frustrated developers and overdue projcet time and budgets.\". Kanske har vi mött världen på helt olika vis men jag tycker det låter som att du jobbat/har erfarenhet av fler personer. Det där är precis den typen av kommentarer som jag mött från personer som kommer från någon annan plattform och inte hanterar Wordpress. Speciellt för några år sedan då det var lite krångligare att få bort bloggkänslan från WP. Nu är jag inte en kodare men efter att ha jobbat med webb i 12 år på leverantörssidan (oberoende mot plattformar) och med 100% uppbackning från byråer/frilansare så har jag fått en helt annan bild av situationen. \n\nVidare när det gäller skalbarheten är det delvis samma sak. Satt nyligen och gjorde ett uppdrag där delar av det strategiska innehöll en plattformsanalys. Där handlade det om att titta på att skala upp plattformen x (den som ej var definierad) till 1100 dottersiter och en sjuhelvetes massa medlemmar... och allt pekade på att WP skulle klara det. Om man hade rätt personer med på tåget.\n\nSå. När det gäller kommentarerna kring vad WP klarar och vad WP är till för så kan jag bara se två vägar. 1) du har inte koll på WP alt. har dessvärre jobbat med fel typer av personer och/eller 2) du har intressen in någon annan plattform, troligen en som bygger på licenser. \n\nNär det gäller checkins och annan porr så blir det intressantare. Gillar verkligen dina punkter och när man läser dina kommentarer så är det uppenbart att du är lite påläst om nya vägar för kommunikation, och hur den kommer att fungera. Men, det som slår mig och där du tappar mig lite (som sagt, även fast jag gillar dina bullets) är att jag inte tror att du jobbat så mycket med större organisationer. Den känslan baserar jag på två saker, och det är möjligt att jag har helt fel här men ändå. 1) Det finns fortfarande företag/organisationer där ute där det är ett mindre underverk om man kan få igenom att de ska ha en dela-knapp på informationen eller att, gud bevare mig, kunderna ska kunna konversera kring vissa typer av information. Att gå därifrån till att bygga in någon form av checkin-pryl är rätt långt. Säger inte att Vasakronan är ett sådant företag men ibland kan det krävas att man tar mindre steg, och det är både för företagets och deras intressenters bästa. Nummer 2) är lite klarare och den gäller insikt i hur människor de facto använder dessa nya prylar, i vilken utsträckning och vad som händer när implementering sker. Överlag så springer inte alla där ute (nu kollar jag på Sverige) och checkar in överallt, intresset och användandet existerar inte. Och när det gör det så handlar det allt som oftast att knyta det till en social sfär, att koppla det till ett helt hus ser jag som en helt irrelevant strategi och saknar bäring. \n\nNär det gäller uppdaterade saker på Wikipedia, att skapa en närvaro mot Google Maps  så talar jag inte emot dig men ser inte riktigt att det ligger i ett projekt som beskrivs här. Det är något för Vasakronans kommunikationsavdelning att fixa, om man ser att investerad tid kontra utfall över tid är positivt (men det är klart en bra idé du tar upp). Har inte en susning om hur projektet var uppbyggt men kan tänka mig att sådana delar inte ingår då det ligger hos tredje part och oftast löses internt. \n\nAvslutningsvis. Inte menat att låta superneggo och tycker verkligen att dina kommentarer är intressant lagda. Men precis som du så går jag igång lite på det här ;).\n\n\n",
      "time": "2011-10-24T06:11:58",
      "id": "342291403",
      "parentPost": "a great work concept- and communication-wise, I would however beg to differ when it comes to some of your IT-strategy.\n\nWordpress:\nWordpress is a great platform it is not however\n*Modern \nIt was launched in 2003, compared to epsierver 2, launched 2007, probably what  vaskronan was using. Wordpress is hated worldwide by avant-garde webdevelopers for it's nutoriously crappy design. Whenever you want to excell \"the wordpress modell\" of building stuff, you hit a dead end and end up with frustrated developers and overdue projcet time and budgets.\n*Scalabale\nApart from above wordpress is not appropriate for sites with big traffic. For a company big like Vasakronan, you should aim for bigger traffic than the kind of sites wordpress is suitable for powering.\n\nWordpress is great for:\n*small sites\n*quick and dirty\n*cost efficient\n*standard widgets, all seen before\n*Publishing information\n\nIt's crap when:\n*You want to lead the way\n*You intend to build something great\n*You want to stand out.\n\nThe site you have built is great in terms of communication. It really is. Crisp, clear, focused. However, it is not the future of digital presence. It is not leading the way. It is a very well executed, digital version of the glossy magazines that companies like Vasakronan has been pushing out for decades. I can see why you sold it, because it's safe. I think in this case the client wanted safe, because I believe you know, the most risky thing to do theese days is to be safe.\n\nHere are some examples of what leading in digital presence means in regard to property brands:\n*Social features, such as eventcalendars or shoutboxes based around each house or property-project. To improve persanl ownership of the estate and longterm customer relationships.\n*Promotion of social-network Check-ins in every hallway\n*Ensurance of great presense on google maps and possibly also facebook locations.\n*Updated history on all the houses on wikipedia.\n*Apartment-swapping within the company, because old customers are cheaper than new ones and the trickiest part with apartment swapping is to get the landlord to allow it, here there would be no need.\n*atleast a friggin' comment box\n\nNone of this is suitable for a platform like wordpress.\n\nI hope you don't take this the wrong way. I really appriciate your work, that is why i took my time to write this long post.\n\nBest Regards,\nKristoffer Nolgren, Hemliga Byrån ",
      "parentPostTime": "2011-10-23T19:41:17",
      "parentPostId": "342064213"
    },
    {
      "threadId": "433778262",
      "post": "Efter en tung kväll på ett äldreboende gör det kroppen gott att läsa ett sådan här inlägg. Det är den här typen av handlingar som ska premieras hela vägen ut. Rakt över till andra sidan. Handlingskraft och viljan att förändra är något att ta vara på och vi vet alla att det svåraste att förändra är sin egen situation. Klarar man det så är önskade handlingar man utför på arbetstid en baggis... Och att säga upp sig från en fast tjänst, i turbulenta tider, för att följa en intre uppmaning och kärlek är fan strångt. \n\nJag \"känner\" dig inte Micke annat än de kontakter vi haft via www (och det jag läst) och vet att vi inte alltid vart på samma våglängd.  Dock det är uppenbart att du har en hel del innanför pannbenet sett till yrkeskunskap. Och en handling som den här, som gör att tom lilla jag sitter och skriver en kommentar, visar på att det även finns en del innanför bröstet på dig och definitivt i magen. \n\nBjörn. Du lär få en hel del ansökningar men du bör definitivt lägga Mickes papper långt upp i högen. För vissa personer kanske ert utannonserade jobb bara är ett \"jobb\" men här kan ni göra så mycket mer. Ni kan både få en uppenbart grym person sett till kunskap, som dessutom har \"guts\" (vilket är ack så jävla bra att ha i business och få förunnat att ha) och som grädde på moset kan ni vara det fundamenta som kanske och förhoppningsvis är grunden till den här mannens fortsatta lyckliga liv. Är övertygad om att det är något som både du och dina kamrater på jobbet vill ha på sitt samvete. Karma är ett vackert ting. \n\nOch avslutningsvis kan jag bara säga lycka till och att jag håller tummarna hårt. Må låta som att jag slår trumman för hårt men tycker hela handlingen och spelet runtkring är riktigt riktigt vackert. Det är precis så här det ska vara, och det är det här omvärlden ska döma efter.",
      "time": "2011-10-04T20:20:09",
      "id": "326602280"
    },
    {
      "threadId": "406056974",
      "post": "Tar av mig hatten och bugar. Du ska ha tack Mymlan. Och självklart även ett stort tack till Niclas som drog i början och Jerry som backade upp. Kommer likt Jocke ihåg våra samtal när det låg grus i maskineriet . Hursom, ni var ett ständigt intressant och läsvärt flöde. Kommer att saknas i tider av informationsöverflöd.\n\nSSBD är värd en alldeles egen pedestal i arkivet. All lycka med kommande projekt!",
      "time": "2011-09-06T12:09:46",
      "id": "303468358"
    },
    {
      "threadId": "399824404",
      "post": "Hej Fredrik. Nej det har jag faktiskt inte gjort, helt förbigått radarn. Är det en ny site/tjänst eller har den funnits med ett tag? Har du möjlighet att ge några smaskiga argument om varför jag och de som läser det här ska testa och börja använda tjänsten?",
      "time": "2011-08-30T22:14:38",
      "id": "299064972",
      "parentPost": "Har du testat Informant.se från intelliwell\nMan bevakar valfria webbsidor och sökningar i social media (och google search) med helt personliga urval",
      "parentPostTime": "2011-08-30T12:08:27",
      "parentPostId": "298612634"
    },
    {
      "threadId": "126081324",
      "post": "Lite sent svar men ändå, http://www.mobil.se/mobile/tester/wahoo-pulsband-i-test-1.470507.html",
      "time": "2011-07-05T14:03:43",
      "id": "242543781",
      "parentPost": "Vet någon vilket blåtandspulsband som kan kommunicera med runkeeper. Vi slippa omvägen via pulsklocka.\n",
      "parentPostTime": "2011-03-09T13:45:32",
      "parentPostId": "162956481"
    },
    {
      "threadId": "341045523",
      "post": "Tack för omnämnandet! \"Sällanpostare\" är bara förnamnet men har ett ständigt liggande mål att bli bättre. \n\nKommer sakna dina samlingar, grymt bra flöde. Men lär ju som sagt kunna plocka upp dig via massa andra flöden.",
      "time": "2011-06-27T06:48:46",
      "id": "235602533"
    },
    {
      "threadId": "251538209",
      "post": "Köpa en leksak? Det står ju tydligt att det var en apputvecklare och för honom kan det vara värt en hel del pengar att få tillgång till paddan snabbt. Inte för att utveckla mot utan för att bygga sitt personliga varumärke. Och, det går att omsätta i pengar. Kan vara så enkelt som att personen i fråga är egenföretagare/frilas och tjänar duktigt på att vara först. Missbedöm inte heller berättarvärdet av att vara först och vad det kan omsätta i pengar.  Öppna ögonen och välkomna världen. Den är inte så smal som du tror...",
      "time": "2011-03-12T12:31:22",
      "id": "164677199",
      "parentPost": "Mitt liv, min åsikt. Samma sak? Självklart är det hans beslut och hans pengar, men inte precis att jag får ha en åsikt och tycka att det är patetiskt samt löjligt och betala 900$ för att hamna först i kön för att köpa en leksak. Hur du än vill diskutera detta kommer jag inte ändra min åsikt. Personligen tycker jag det är löjligt att ens stå och köa för någon produkt, men även betala en massa pengar för att vara först, är tragiskt... \nOm inte dem här pengarna var till någon slags välgörenhet som Rädda barnen, så har jag väldigt svårt och bilda någon annan uppfattning om denna människa...",
      "parentPostTime": "2011-03-12T10:58:37",
      "parentPostId": "164665424"
    },
    {
      "threadId": "249536758",
      "post": "Den från AT&T.",
      "time": "2011-03-12T12:25:00",
      "id": "164676411",
      "parentPost": "Någon som vet hur det är med 3G modellen från USA. Vilken av modellerna ska man köpa för att det ska funka i Sverige och finns det utan operatörsbindning? Alltså bara paddan utan abonnemang?",
      "parentPostTime": "2011-03-10T11:02:28",
      "parentPostId": "163412618"
    },
    {
      "threadId": "231733913",
      "post": "Visste inte att det låg som sluten beta. Tack för förtydligandet.",
      "time": "2011-02-24T09:20:12",
      "id": "155258757",
      "parentPost": "Knappast va? För att ens nå den slutna betan utan specialinbjudan måste du \"hacka\" deras Git.",
      "parentPostTime": "2011-02-23T08:48:59",
      "parentPostId": "154498858"
    },
    {
      "threadId": "236987311",
      "post": "Det här är ju bara märkligt. Sätter 50 kr på att det kommer komma en rättning när någon högre upp i hierarkierna förstår vad de håller på att trampa i för soppa. Även ett skitbygge kan man bygga exportskript till...",
      "time": "2011-02-22T15:02:52",
      "id": "153996356"
    },
    {
      "threadId": "162074071",
      "post": "http://www.witopia.net/ är ytterligare ett alternativ. Hastigheterna är inte några som slår rekord sist jag testade men fördelen är att man kan välja vilken utifrån att få IP från flertalet städer/länder. Bra om man t.ex. vill komma åt BBC iPlayer i England eller vips få ett IP från USA med allt vad det innebär för online-TV. Har använt tjänsten i ca. 1,5 år och aldrig upplevt problem med anslutningar och annat. Snabba på supportfrågor har de också vart. ",
      "time": "2011-01-10T14:34:13",
      "id": "126799999"
    },
    {
      "threadId": "166637641",
      "post": "Är med på konverteringstanken och det är det jag menar med att få över några tior. Funderar dock på om det där med miljö gör sig gällande för långfilmer (sett till konsumtion idag och den absolut närmsta tiden). \n\nFör skojs skull hörde jag av mig till lite olika personer igår som jag vet ligger nära att hyra film via www och fler som gör det. Blandade kön och åldrar. Flera tyckte att det här var en rolig grej men på frågan om vad som föregår själva köpet, hur det kopplas samman till det som händer IRL för personen och hur viktig en videosites sök/uppvisning av omslag är så är vi tillbaka där mina tankar ligger. Att många sällan spontant sätter på en köpt långfilm (utan minsta empeiri verkar det kunna vara lättare för vissa att sätta på något de inte betalat för).\n\nIntressant tanke med \"efter browsern\". I min snabba reflektion missade jag tanken kring de uppkopplade TV-apparaterna som börjar pumpas ut från fabrikerna. Med snabb inloggning till FB och personen färdig i soffan så kanske det finns en, om än lite avlägsen, potential. Kommer ta ett tag innan penetrationen av produkterna är stor nog bara.\n\nMed det sagt så måste jag ju tillägga, är helt med på vad du menar Anton och om vi ser det hela som ett experiment för att se vart det tar vägen så är det, som sagt, precis som det ska vara. Om det är direkt kopplat till affären som sådan (alltså inte siten som sådan utan pengar in - som en marknadsåtgärd) så är jag lite mer fundersam.\n",
      "time": "2010-11-05T07:18:55",
      "id": "94079928",
      "parentPost": "Jag tror det handlar om konvertering. Det måste vara enklare att få någon att klicka till sig en billig film i en miljö de litar på och hänger i hela tiden, än att först få dem att gå till headweb och sen köpa filmen.\n\nMan slipper helt enkelt steget att hoppa till headwebs site från Facebook. Vilket, åtminstone i teorin, bör gagna konsumenterna. \n\nJag börjar generellt tänka steget \"efter browsern\". Nu kan vi se såväl videofilmer som videoklipp, som bilder, som länkar, som annan inline media och allt som länkas på facebook/twitter etc direkt i själva sajten. #newtwitter är ett annat exempel. Flipboard ett tredje.\n\nDet här med att gå till ännu en url i en browser är ju ett steg man egentligen vill komma bort ifrån i framtiden, tror jag. Varför klicka sig ifrån Facebook.com när upplevelsen är säkrare, minst lika bra och dessutom \"närmare\" (1 klick istället för ett nytt fönster). \n\nJag tror det här är jättesmart. Frågan är om de är före sin tid, eller inte.",
      "parentPostTime": "2010-11-04T08:27:56",
      "parentPostId": "93726538"
    },
    {
      "threadId": "144635527",
      "post": "Samma tankar som snurrat i mitt huvud. Svårt det där. Blir inte lättare när det visat sig att jag har en del \"invandare\" i min närhet som själva röstat på SD.",
      "time": "2010-09-21T09:47:05",
      "id": "79683314"
    },
    {
      "threadId": "142705298",
      "post": "PR trick, ge det lite tid så är siten uppe igen.",
      "time": "2010-09-16T20:17:18",
      "id": "78305476"
    },
    {
      "threadId": "136218761",
      "post": "Underbar kvinna.",
      "time": "2010-09-02T05:34:31",
      "id": "74127744"
    },
    {
      "threadId": "135251603",
      "post": "Härligt. Ser fram emot att svänga förbi på en kopp java vid tillfälle. ",
      "time": "2010-08-31T07:13:30",
      "id": "73348129"
    },
    {
      "threadId": "133101171",
      "post": "Bockar, bugar och tar av mig hatten för att jag får finnas med. Målet är att få upp kvalitén och frekvensen under hösten. ",
      "time": "2010-08-25T12:00:07",
      "id": "71366104"
    },
    {
      "threadId": "126300634",
      "post": "Riktigt intressant video, tack för att den lyftes fram.",
      "time": "2010-08-08T18:10:49",
      "id": "67212293"
    },
    {
      "threadId": "125979406",
      "post": "Glatt humör, något att ta anteckningar på, skor som kan bli kladdiga, badbraxor, alkohol (om man vill ta en öl på bryggan, ett glas vin i solnedgången eller bara muta någon svag person, tex mig). Om man vill leka med mobilen en del så hade jag tagit med mig någon form av batteripack eller annat. Det var den prylen jag saknade som mest förra året, dock säger ryktet att det finns lite mer el i år #sswc",
      "time": "2010-08-04T20:58:00",
      "id": "66086028",
      "parentPost": "Tack för bra info!\nHar ni som var med förra året någon topplista på items som är riktigt bra att ha med?\n\n",
      "parentPostTime": "2010-08-04T17:16:47",
      "parentPostId": "66052542"
    },
    {
      "threadId": "125436716",
      "post": "Perfekt, skulle just till att skicka ett mess till @schori. Tack, tack.",
      "time": "2010-08-03T16:53:25",
      "id": "65872289",
      "parentPost": "Så, @Svedjetun svarade, uppdaterade med kunskap om iPhone leverantörerna. ",
      "parentPostTime": "2010-08-03T14:45:59",
      "parentPostId": "65853892"
    },
    {
      "threadId": "125445092",
      "post": "Bra skrivet, starkt med koppling till något så tungt.",
      "time": "2010-08-03T11:41:36",
      "id": "65833109"
    },
    {
      "threadId": "98671008",
      "post": "Ah, då är jag med. Det är ju lite en annan sak iom. att det då är som så att de missade en pryl som de inte borde missat och när de väl kommer på det hela så roffar de tillbaka utan skälig hantering. \n\nNåväl. Var bara nyfiken, tack för respons.",
      "time": "2010-08-02T08:58:40",
      "id": "65679082",
      "parentPost": "Det är i mina ögon - med min tidigare erfarenhet/kunskap från denna bransch - självklart att .NU Domain ska hantera domänen nu.nu. Att det inte skedde från början, så att den här situationen behövde uppstå, det är beklagligt.",
      "parentPostTime": "2010-08-02T08:36:16",
      "parentPostId": "65677885"
    },
    {
      "threadId": "89818060",
      "post": "30 dagar, det är så järn ska smidas!",
      "time": "2010-06-10T07:47:46",
      "id": "55643735"
    },
    {
      "threadId": "103825355",
      "post": "Jocke, söt du är. När vi gjorde om Medievärlden så tycker jag att argumenten vi drog upp var tillräckliga, med Dagensarena.se så är tankegångerna lite annorlunda. Är dock inte helt ute och cyklar (ännu) och ogillar definitivt inte Disqus :).",
      "time": "2010-06-04T07:28:00",
      "id": "54486973"
    },
    {
      "threadId": "103254868",
      "post": "Ser ändå inte varför det skulle sprida osäkerhet? Menar inte att vara jobbig, bara lite obstinat ;).",
      "time": "2010-06-01T22:58:29",
      "id": "53450586",
      "parentPost": "Dels det, och dels att de sprider osäkerhet till företag som överväger att använda exempelvis Googles molntjänster.",
      "parentPostTime": "2010-06-01T22:52:23",
      "parentPostId": "53449300"
    },
    {
      "threadId": "98676432",
      "post": "Tack för tipset, sjukt bra. Rörande indeed - på riktigt. Det där är riktigt riktigt vackert gjort för en medmänniska.",
      "time": "2010-05-31T22:05:18",
      "id": "53292455"
    },
    {
      "threadId": "98638601",
      "post": "Ett litet tillägg. Arenagruppen fick pengar av LO men siffran ska täcka samtliga omkostnader samt 5 nya heltidstjänster. Utan att säga siffror så var budgeten en bra bit under 10% av beloppet.",
      "time": "2010-05-26T17:12:01",
      "id": "52267688"
    },
    {
      "threadId": "96646752",
      "post": "Hellre än att man skriver något vettigt? ;)",
      "time": "2010-05-20T21:12:45",
      "id": "51284112",
      "parentPost": "Mer. sånt. här. bloggande.",
      "parentPostTime": "2010-05-18T10:19:22",
      "parentPostId": "50876889"
    },
    {
      "threadId": "89768903",
      "post": "Verkar som en intressant liten leksak. Någon från Swe som funderar på att ta hem? Om så, hooka upp med mig också.",
      "time": "2010-04-27T17:45:50",
      "id": "46991912",
      "parentPost": "Roger,\nJag använder denna:\nhttp://www.verizonwireless.com/b2c/mobilebroadband/?page=products_mifi\nHälsningar,\nThomas",
      "parentPostTime": "2010-04-27T14:15:00",
      "parentPostId": "46938158"
    },
    {
      "threadId": "80673272",
      "post": "Den gångna veckan har det tyvärr inte funnits tid till att leta upp läsvärda objekt. Blir bättre nästa vecka!",
      "time": "2010-03-30T08:13:47",
      "id": "42245907"
    },
    {
      "threadId": "69542314",
      "post": "Haha. Den snubben skulle jag inte ens låta koka mitt kaffe ;). Skämt å sido, han är så krånglig. Tycker att jag ska definiera upp saker på riktigt innan han kan bistå. Och du vet hur det är när man ska göra något åt sig själv. Blir liksom inte av. Märkligt det där!",
      "time": "2010-02-25T00:21:43",
      "id": "36366757",
      "parentPost": "Jag känner en WP-tekniker på Södermannagatan som nog kan hjälpa till. ;)",
      "parentPostTime": "2010-02-23T21:46:09",
      "parentPostId": "36121819"
    },
    {
      "threadId": "64737043",
      "post": "YGL? Finns väl inget dokumenterat på den fronten (rätta mig gärna om jag har fel) så det hela borde kunnat gjorts på ett annat sätt. För jag antar att juristerna inte sa det per automatik?\n\nhttp://medievarlden.se/arbete-a-metoder/2-arbete-a-metoder/10087-ansvarig-utgivare-i-sociala-medier-reportern-ofta-ansvarig",
      "time": "2010-02-06T23:00:25",
      "id": "32870708",
      "parentPost": "Lite senkommet men i alla fall. Visst hade det varit kul att rulla hashtagen #2010 i både text-tv och inline på svt.se. Det är ju inte så att tanken inte tänktes eller att det inte hanns med. Som @jocke också är inne på gjordes det en bedömning, rätt eller fel, att riskerna med detta var för stora. Både vad gäller ev gynnande av kommersiella intressen (tänk typ företag som använder hashtagen till annat än att prata Melodifestivalen) och andra som har intressen att nå många med ex politiska budskap. Bedömningen som gjordes  var att ett Twitterflöde inline i svt.se lyder under YGL och därför måste kunna förhandsmodereras, vilket dels är omöjligt, dels vore olyckligt av en massa skäl. Vilka regler som gäller i text-tv orkar jag inte ens tänka på. \n\nNåväl. Jag har ju dessutom slutat på SVT, men vill bara flika in att det är långt mer komplicerat än vad man först kan tro och att min gamla arbetsgivare trots detta faktiskt försöker röra sig framåt trots att det bitvis är rätt snårigt. \n\nFWIW //\n\nJohan      ",
      "parentPostTime": "2010-02-06T22:53:24",
      "parentPostId": "32869987"
    },
    {
      "threadId": "64369272",
      "post": "Tycker att DN-artikeln stämmer väl överens med hur jag uppfattar dig Jocke. Bakåtsträvare där ;).\n\nSkämt å sido. Föreslår att Annika kastar upp utvalda delar ur den bandade intervjun (självklart med godkännande från transparensens Jocke) så ser vi snabbt vem som har rätt och kan därefter dyka djupare ner i diskussionen om hur kopplingen mellan intervjuare och \"offer\" alltför ofta ser ut. Och det utan att lägga någon personlig värdering i det här, ännu. ",
      "time": "2010-02-05T13:44:46",
      "id": "32729498"
    },
    {
      "threadId": "61347423",
      "post": "Tack för tipset ang. Prestashop - har börjat titta närmre på det. Skicka gärna ett mail till mig på tommie@apdf.se alt. hooka upp via Skype/Gtalk eller annat. Kanske kan hitta en diskussionmodell där det finns möjlighet att bolla saker likt ovan. ",
      "time": "2010-02-05T11:20:21",
      "id": "32717841",
      "parentPost": "Magento är skit, alldeles för tung kod och zen framework drar ner hela siten. Kolla på Prestashop istället om du villa köra os.\n\nOm du vill betala för dig så är det interspire som gäller, klart bäst.\n\nOscommerce är bra, men kräver att du kan koden och förstår hur systemet är uppbyggt. Om du orkar lägga ner den tiden och specialanpassa så är det ett bra system helt klart.",
      "parentPostTime": "2010-02-03T22:34:59",
      "parentPostId": "32537461"
    },
    {
      "threadId": "59212585",
      "post": "Ruskigt härlig, vek mig av garv. Alla som suttit en natt för mycket i spelvärlden vet ju hur man kan känna sig, och framförallt hur omvärlden kan se på en.",
      "time": "2010-01-17T17:31:43",
      "id": "30093039"
    },
    {
      "threadId": "52187006",
      "post": "Helt klart veckans bästa kommentar. Från djupet av ett hjärta... och med en hyggligt bra grundläggande poäng. Word.",
      "time": "2009-12-16T20:39:55",
      "id": "25977257",
      "parentPost": "De fanatiska medeltidsmoralisterna (alltså alla våra ledande politiker, journalister, författare och s.k. \"intellektuella\") drar piskorna för att pina pesten ur oss. Bara det trista, smutsiga, sjuka hyllar de. Allt skapande ska raseras. Roligheter censureras bokstavligen. \"Eliten\" kräver att alla människor sitter hemma i mörkret och svälter, och skäms över varje tillstymmelse till lustighet eller lust eller skapande. 1984 rakt upp i dagen!",
      "parentPostTime": "2009-12-16T19:40:34",
      "parentPostId": "25969544"
    },
    {
      "threadId": "50630403",
      "post": "Trevlig pushning. Med besök menar du då det korta seminariet på en dryg timma på em/kväll eller finns det något annat givande i anslutning till dagen som jag inte hittar på siten?",
      "time": "2009-12-16T14:30:12",
      "id": "25940804",
      "parentPost": "Besök också gärna Ambient Sweden Award den 24 mars 2010, som handlar om just framtidens internet. Till den utmärkelsen kan du även nominera personer som gjort framstående insatser för att bidra till att Sverige blir ett ledande internetland. Läs gärna mer på www.iva.se/ambientswedenaward\r\n\r\n",
      "parentPostTime": "2009-12-14T12:45:00",
      "parentPostId": "25704049"
    },
    {
      "threadId": "46564905",
      "post": "3. Att det \"fallerade\" är väl både, vad jag vet, osant och inte rättvisande. De negativa prylar som kom upp hade inte med plattformen som sådan att göra utan att man drog på sig lite onödiga kostnader, hade dålig ledning internt och ett märkligt upplägg (om vi ska lyfta fram det negativa). Det är vad fåglar viskat i mina öron iallafall.\n\n4. När det gäller den här frågan så känns inte \"svenska marknaden\" som bra argument 2009. Är med på att det finns en del fördelar men det är inte så att vi snackar om ett litet piss-system från långtbortistan. ",
      "time": "2009-11-19T11:52:13",
      "id": "23525207",
      "parentPost": "1. CMS har under lång tid varit rätt geografiskt låsta produkter, det har inte varit föränn sista 1-2 åren som marknaden börjar globaliseras. I svenskt perspektiv är ändå EPiServer det absolut mest använda systemet.\n\n2. Största problemet med att kunna använda EpiServer inom ett mediesajt i sverige har inget att göra med att kunna hantera last eller några av de övriga punkterna du nämner. Det har att göra med hur en artikel byggs upp, i EpiServer är en artikel en \"sida\" som placeras i en viss plats i en hirarki i andra system, polopoly, escenic mfl är en artikel mer ett objekt som kan placeras på en mängd platser. Tex, en nöjes artikel kan även publiceras i sport utan problem.\n\n3.  Bonnier har redan kört ett projekt för att testa drupal i koncernen. Vilket falerade hårt.\n\n4. I perspektiv med andra större cms som används på svenska marknaden är episerver extremt billigt både i licenskostnader, drift och utvecklingskostnader.\n\nJag kan väl inte säga att jag tycker att episerver är det bästa valet för Bonnier men jag tycker att du kommer med rätt irrelevanta fakta och påståenden.",
      "parentPostTime": "2009-11-19T08:15:10",
      "parentPostId": "23515913"
    },
    {
      "threadId": "41012201",
      "post": "Ibland kanske man inte ser nyttan fören man är där rent tekniskt? Det var få som såg nyttan med både datorer och internet för inte så många år sedan ;).\n\nInlägget var mer menat som en bredare vinkel i diskussionen kring typsnitt på nätet och inte som den slutgiltiga sanningen kring vad som går resp. inte går att göra med de tekniker vi kan röra oss med idag. \n\nMen när vi är inne på sIFR-prylar så syns väl inte för de som har flashblockare (många yngre, early adopers, hardcoresurfare), är inte plattformsorberoende (blir kekko via mobilen) och inte förenligt med bra SEO-tänk. Eller är jag ute och cyklar?",
      "time": "2009-10-29T12:16:10",
      "id": "21256810",
      "parentPost": "Intressanta och annorlunda tankar om typografi på nätet. Tveksam till hur användbart det verkligen skulle vara, men ändå en kul idé.\n\nDu missar lite i inlägget att det sedan länge går att använda valfritt typsnitt i åtminstone rubriker genom att använda sIFR (använder Flash). Det bästa vore naturligtvis att ha stöd för det direkt i webbläsarna, och det är pågång, men fram tills dess är det en helt ok lösning att dra nytta av Flash.",
      "parentPostTime": "2009-10-29T09:19:51",
      "parentPostId": "21250440"
    },
    {
      "threadId": "35995131",
      "post": "Kör du via G Reader då eller hittat på någon annan lösning? Känner igen symptomen och letar lösning.",
      "time": "2009-09-29T12:10:51",
      "id": "17766269"
    },
    {
      "threadId": "24291523",
      "post": "Ser ut som du tappat något på golvet. Har en sopkvast du kan få låna ;).",
      "time": "2009-07-24T11:12:10",
      "id": "13264302"
    }
  ],
  "profileInfo": {
    "username": "tjompa",
    "about": " Strategic marketing consultant interested in brand management, business and entrepreneurship. Prior owner of a web dev. company (Yep, I’m all into social media).",
    "name": "tjompa",
    "disable3rdPartyTrackers": false,
    "isPowerContributor": false,
    "isAnonymous": false,
    "rep": 1.2735349999999999,
    "profileUrl": "https://disqus.com/by/tjompa/",
    "url": "http://www.etui.se",
    "reputation": 1.2735349999999999,
    "location": "Stockholm, SWE",
    "isPrivate": false,
    "signedUrl": "http://disq.us/?url=http%3A%2F%2Fwww.etui.se&key=gO3V9dCR9jHliWWX5f3D_Q",
    "isPrimary": true,
    "joinedAt": "2008-08-30T19:42:29",
    "id": "92187",
    "avatar": {
      "small": {
        "permalink": "https://disqus.com/api/users/avatars/tjompa.jpg",
        "cache": "//a.disquscdn.com/uploads/users/9/2187/avatar32.jpg?1383168013"
      },
      "isCustom": true,
      "permalink": "https://disqus.com/api/users/avatars/tjompa.jpg",
      "cache": "//a.disquscdn.com/uploads/users/9/2187/avatar92.jpg?1383168013",
      "large": {
        "permalink": "https://disqus.com/api/users/avatars/tjompa.jpg",
        "cache": "//a.disquscdn.com/uploads/users/9/2187/avatar92.jpg?1383168013"
      }
    }
  }
}