{
  "comments": [
    {
      "threadId": "2622395035",
      "post": "Christy, I would add the White Star Line museum to that list",
      "time": "2014-04-22T21:34:29",
      "id": "1350962142"
    },
    {
      "threadId": "2220372954",
      "post": "Short hair, long hair, whatever. Rock on girl, rock on!",
      "time": "2014-02-09T06:01:46",
      "id": "1236584906"
    },
    {
      "threadId": "1918638083",
      "post": "I am glad you are finding it helpful and even I don't agree with me all the time. :-)\n\nChris",
      "time": "2013-10-31T06:34:25",
      "id": "1103280280"
    },
    {
      "threadId": "1767019997",
      "post": "This isn't really very surprising. I wrote a paper on the rise and decline of antibiotics in high school in the 1970s. We have known at least since then that this day is coming.",
      "time": "2013-09-23T00:23:40",
      "id": "1055283051"
    },
    {
      "threadId": "1431755217",
      "post": "1) Jumpcut - free tool that let's you get back to the last 40 things in your clicpboard\n\n2) buffer Chrome extension - quickly add a tweet without scheduling\n\n3) DoShare Chrome extension - schedule Google+ udpates\n\n4) WebRank SEo Chrome Plugin - get stats on any site\n\n5) Things for iPhone/Mac - To do list with periodic todos, periodic projects (like this week's Amateur Traveler podcast), integration with Siri\n\n\n\n6) 1Password to remember passwords and other secure information\n\n\n7) BBEdit - text editor that is programable, e.g. I wrote a script to convert a series of reedit bookmarks into an HTML bulleted list for show notes",
      "time": "2013-07-31T20:12:33",
      "id": "982996882"
    },
    {
      "threadId": "1220047092",
      "post": "Hey, if you guys are going to give great travel advice, I might have to start giving business advice on the Amateur Traveler podcast. Be warned ;-)\n\nP.S. loved to hear the SeatGuru reference, used to run it for TripAdvisor",
      "time": "2013-04-18T17:38:42",
      "id": "867228520"
    },
    {
      "threadId": "927862081",
      "post": "Will change the industry? Doubt it",
      "time": "2012-11-15T20:20:56",
      "id": "711207431"
    },
    {
      "threadId": "906185244",
      "post": "You have another listener with nominated podcast in the travel category. Amateur Traveler is the only non-theme park podcast nominated and was also nominated (but did not win) in 2006,2007,2008,2009,2010,2011. I am the Susan Lucci of podcast awards. :-)",
      "time": "2012-10-31T16:11:57",
      "id": "697106459"
    },
    {
      "threadId": "866785258",
      "post": "Oh course I would still like podcast downloads counted as well",
      "time": "2012-10-02T16:24:56",
      "id": "668779086"
    },
    {
      "threadId": "518266489",
      "post": "great list",
      "time": "2012-09-26T05:58:10",
      "id": "662866717"
    },
    {
      "threadId": "710705613",
      "post": "NewtonMail relied on a copy of the AOL server software that Apple was using in the defunct eWorld online service. The client part of NewtonMail was ready at launch of the product but you may be right that the servers launched a little later. As it happens, with a small change in the software (I think I used to have a Newton app that did this) the client could connect to AOL instead since that is what was used to develop the software. But you are right that it depended on a proprietary AOL dial up protocol and on Sprint and other dialup networks that we should be glad are gone since they charged by the hour.\n\n- Chris Christensen - Newton Mailman",
      "time": "2012-06-06T01:01:31",
      "id": "548346696"
    },
    {
      "threadId": "574922464",
      "post": "The only one I would not agree with is the USB mic. I get quite a few downloads (1.75+ million last year) and still don't have a mixer. I have been podcasting since 2005.",
      "time": "2012-02-27T21:14:18",
      "id": "450230113"
    },
    {
      "threadId": "502417878",
      "post": "Make a plan\n1) Good email filters is a great start at seeing the messages you want to see. As a start, sort all email that does not include your email individually into a read later folder. You can also make rules to add in emails that have \"unsubscribe\" or such language. That filters out some emails that you can deal with later. \n2) Carve out times for work. Turn off twitter, facebook, etc for hours at a time. Set the email notification on your email not to show you when new emails come and preferably not to check more often than once an hour. \n3) Use a macro program like TypeIt4Me to automate all or part of your responses to routine queries so they take less time. \n4) Decide how you are using different services. LinkedIn for me is only for people I have worked with or talked to in person. FaceBook is only for friends, family and old co-workers. Twitter is a free-for all, but I have a private list of only 200 people that I try and read every tweet (Paul included). Foursquare is only for the people I would want to walk up to me during a lunch and interrupt me and who I would hate to miss they were in town. So I am only trying to make new friends on Twitter.\n5) I have decided not to do email on my phone on any regular basis. I can get it if I need to but don't stress about it.",
      "time": "2011-12-13T17:21:00",
      "id": "385717968"
    },
    {
      "threadId": "371974996",
      "post": "Congratulations Andrew!",
      "time": "2011-07-30T17:17:33",
      "id": "269406299"
    },
    {
      "threadId": "283525344",
      "post": "Good luck with the project. I am actually in the area and could go to BlogWorld, but really haven't gotten excited enough that I think I will. I have not heard enough about what will be featured or who will be there to spend as much as BlogWorld costs.\nChris Christensen\nAmateur Traveler podcast",
      "time": "2011-04-20T23:49:55",
      "id": "188564349"
    },
    {
      "threadId": "255229870",
      "post": "That is a great list. Some that deserve consideration: Exploritorium in San Francisco, Cabinet War Rooms in London, Museum of Communisim in Prague",
      "time": "2011-03-16T20:30:33",
      "id": "166803290"
    },
    {
      "threadId": "250453259",
      "post": "I thought I was the only one obsessed with doors. :-)",
      "time": "2011-03-11T15:27:57",
      "id": "164114292"
    },
    {
      "threadId": "236585663",
      "post": "I appreciated both your post and the response from Joe Fernandez. I find the Klout score, Alexa ranks, feedburner subscription stats, and even TV's Nielsen ratings and radio's Arbitron numbers all to be useful tools. All are flawed. \n\nWill someone infer to much into Klout? Yes, why should they be any different? I am not sure I agree that readership of your blog would be reflected indirectly in your facebook or twitter numbers. I find that as a podcaster (1.75M downloads last year) that there are definitely forms of influence that are not measured. We assume that people who are involved in social media are involved in all kinds of social media but this social media space, whatever that is, is a fragmented, niche-oriented and truly interesting space. ",
      "time": "2011-02-23T00:40:59",
      "id": "154315175"
    },
    {
      "threadId": "190048296",
      "post": "That's a lot of steps... you couldn't get that down to say 10? :-)",
      "time": "2011-01-12T20:34:04",
      "id": "128330780"
    },
    {
      "threadId": "198655421",
      "post": "I think the Android is a competitor for the iPhone... I don't like the interface as well but for many people it does not seem to bother them.",
      "time": "2010-12-27T22:28:26",
      "id": "119932623"
    },
    {
      "threadId": "134968913",
      "post": "I already travel pretty light by most standards. I do carry-on only even for trips of multiple weeks. That being said I am still always looking for ways to travel lighter. I use a lot of cameras and a few microphones to capture photos, videos for the Amateur Traveler podcast. I have currently decided:\n\n1) I am never ever taking my desktop podcasting mic on a plane trip again. It weighs a ton\n2) I am resolved to take one less camera and am trying the video built into my new Canon SLR\n3) I am trying to see if I can get down to one lens with my SLR, because changing lens is a pain anyway\n4) I am not sure I will take my Kindle again. I don't seem to use it and there is no point carrying anything that does not get used. \n5) I usually take clothes for 7 days but am thinking of reducing that to 5 and just doing laundry more often",
      "time": "2010-08-31T18:05:38",
      "id": "73561018"
    },
    {
      "threadId": "132654980",
      "post": "I think that there are ways of doing twitter that are a complete waste of time. I only pop in an out during the day because I can't monitor it all the time and get anything done.",
      "time": "2010-08-23T18:56:10",
      "id": "70821106"
    },
    {
      "threadId": "131493979",
      "post": "Well Felicia is awfully cute and very nice from my brief interaction with her. Rhett and Link do some great work.",
      "time": "2010-08-20T04:09:39",
      "id": "70142991"
    },
    {
      "threadId": "113336938",
      "post": "I suspect that being married makes my view of this a bit different.",
      "time": "2010-07-02T01:06:58",
      "id": "60223579"
    },
    {
      "threadId": "105762696",
      "post": "I am looking forward to people I have interviewed on the Amateur Traveler or This Week in Travel but have never met in meat space",
      "time": "2010-06-09T19:46:34",
      "id": "55540793"
    },
    {
      "threadId": "104717344",
      "post": "Welcome to the fold of travel bloggers Chris. ",
      "time": "2010-06-08T22:45:37",
      "id": "55386366"
    },
    {
      "threadId": "95559375",
      "post": "Nice chart but I disagree. I have facebook pages for business not because I am capped at 5000 friends but because I only use my facebook profile for actual friends of mine. ",
      "time": "2010-05-14T23:08:44",
      "id": "50404302"
    },
    {
      "threadId": "83133230",
      "post": "That is just awesome! Best iPad review ever!",
      "time": "2010-04-07T05:28:51",
      "id": "43615198"
    },
    {
      "threadId": "64340669",
      "post": "The name of the software I use is CallRecorder, not Call Corder",
      "time": "2010-02-05T17:50:33",
      "id": "32754826"
    },
    {
      "threadId": "62025301",
      "post": "I was interested to hear how you laid into the cruise companies making money going to Haiti and said they \"should\" donate 1/7 of their revenue. OK... I note you work for CBS which I also notice is still showing advertisements during their Haiti coverage. I hope form your comments that CBS has decided to donate 1/7 of the profits from those ads to Haiti relief.  ",
      "time": "2010-01-28T06:33:40",
      "id": "31768664"
    },
    {
      "threadId": "61371821",
      "post": "I sure hope you are right that the more one \"eats this dog food\" the more successful they will be. \r\n\r\nChris \"podcast addict\" Christensen",
      "time": "2010-01-25T19:34:59",
      "id": "31279855"
    },
    {
      "threadId": "60335641",
      "post": "works for me",
      "time": "2010-01-21T17:04:24",
      "id": "30704122"
    },
    {
      "threadId": "57754979",
      "post": "Today was my last day at the day job I have worked for 13.5 years so I can relate. Best of luck in whatever the future holds.",
      "time": "2010-01-16T00:18:07",
      "id": "30013530"
    },
    {
      "threadId": "54199429",
      "post": "Since I have 4 podcasts in my new media \"empire\" I was thinking of switching to \"new media emperor\"... what do people think? ;-)",
      "time": "2009-12-27T22:06:24",
      "id": "27350003"
    },
    {
      "threadId": "54072541",
      "post": "Great list. #5 is the one I struggle with since I started podcasting.",
      "time": "2009-12-26T23:39:08",
      "id": "27309017"
    },
    {
      "threadId": "48999107",
      "post": "A bunch of travel bloggers/podcasters have gotten together this Christmas with a charity building schools in Cambodia. That project is PassportsWithPurpose.com. It looks like we will blow away the $13K goal we are trying to raise. ",
      "time": "2009-12-04T23:17:24",
      "id": "24842928"
    },
    {
      "threadId": "49520134",
      "post": "How about a nap, I am getting enough done already :-)",
      "time": "2009-12-03T14:54:51",
      "id": "24689320"
    },
    {
      "threadId": "42128685",
      "post": "Violette, thanks for the poem",
      "time": "2009-10-28T04:54:12",
      "id": "21157121"
    },
    {
      "threadId": "40265653",
      "post": "1) Good use of name dropping in your tweet\r\n\r\n2) I am one of those who misses some of the venues for networking that were in Ontario. The pool party was great for that on Saturday but the other official parties and many of the unofficial ones were in places where you would get hoarse just trying to talk. I think the show can be in Vegas and still have some of those. Kudos to Todd Cocraine for the RawVoice party where the beers were not $12 and the cokes $6 (Todd paid).\r\n\r\nBut, all in all I have a great time",
      "time": "2009-10-19T17:42:29",
      "id": "20505269"
    },
    {
      "threadId": "33039525",
      "post": "interesting to hear your personal experiences of a story we mentioned",
      "time": "2009-09-07T16:33:15",
      "id": "16098887"
    },
    {
      "threadId": "31246492",
      "post": "Yes Nambu is broken under Snow Leopard. I would love to be in the private beta if you had a working version. ",
      "time": "2009-08-29T16:39:24",
      "id": "15569878",
      "parentPost": "Upgraded the two Macs to Snow Leopard this morning, and Nambu is indeed broken. On one machine I just get a blank box, on the other a message that nambu.db cannot be opened.\r\n\r\nHELP !!!",
      "parentPostTime": "2009-08-29T03:27:03",
      "parentPostId": "15555847"
    },
    {
      "threadId": "14840843",
      "post": "I completely agree. Twitter would not be as useful for me if I followed everyone back. I tell people who complain of \"twitter spam\" that they are just doing it wrong.",
      "time": "2009-04-01T15:55:29",
      "id": "7717329"
    },
    {
      "threadId": "5929697",
      "post": "I have been finding it an interesting social experiment. I tweeted a message of thanks to someone who had recommended for my podcast (Amateur Traveler) for a podcast award and lost 4 users. (Of course I also gained 4). You are left scratching your head. Was that just too many tweets in a row? Do these people just link link tweets? Were they ever really interested in what I had to say or had they just signed up so that I would follow them?",
      "time": "2008-10-25T14:33:49",
      "id": "3297920"
    },
    {
      "threadId": "2151252",
      "post": "Thanks for including the Amateur Traveler in your list, that's some nice company to be included in",
      "time": "2008-07-27T06:37:59",
      "id": "1012506"
    },
    {
      "threadId": "109417",
      "post": "I agree with you and disagree with you at the same time. I think what this never ending debate points out is that podcasting means different things to different people. To business's for instance there needs to be a good reason to podcast, and given the number who are podcasting a number of them are finding that it meets their business goals. To some individuals podcasting is expression and to others they approach it with business goals or at least personal goals. So I do podcasting as a hobby but I would also love to have advertising to help support my travel habit. I think the big thing is know what your goals are and then examine whether podcasting, blogging, twittering, and whatever the new trend is will help you get there. \r\n\r\nAs for me, podcasting is helping me get where I want to go so I don't plan on stopping any time soon.\r\n\r\n---\r\n\r\nChris Christensen\r\nAmateur Traveler podcast - http://AmateurTraveler.com\r\nTripinator - Travel 2.0 - http://tripinator.com \r\n\r\nP.S. Oh yeah, thanks for that whole RSS business :-)",
      "time": "2008-01-11T17:28:48",
      "id": "72539"
    }
  ],
  "profileInfo": {
    "username": "chris2x",
    "about": "Creator of the Amateur Traveler which is a travel show that focuses primarily on the question “where to travel to and what to do when you get there”. It includes both a weekly audio podcast and a twice monthly video podcast. It also includes travel news and resources.   \r\n\r\nI am by day the Executive Vice President of Engineering and Operations for a company in Silicon Valley (LiveWorld) that runs online communities for companies like eBay, HBO, TV Guide, American Express, the NBA, Kraft, Campbells, Kimberly Clark, A&E, QVC, etc. ",
    "name": "chris2x",
    "disable3rdPartyTrackers": false,
    "isPowerContributor": false,
    "isAnonymous": false,
    "rep": 0.982679,
    "profileUrl": "https://disqus.com/by/chris2x/",
    "url": "http://AmateurTraveler.com",
    "reputation": 0.982679,
    "location": "San Jose, CA",
    "isPrivate": false,
    "signedUrl": "http://disq.us/?url=http%3A%2F%2FAmateurTraveler.com&key=QeO4GAXyFk5lMeFL_lrjKg",
    "isPrimary": true,
    "joinedAt": "2008-01-11T17:28:32",
    "id": "6470",
    "avatar": {
      "small": {
        "permalink": "https://disqus.com/api/users/avatars/chris2x.jpg",
        "cache": "//a.disquscdn.com/uploads/users/6470/avatar32.jpg?1281549414"
      },
      "isCustom": true,
      "permalink": "https://disqus.com/api/users/avatars/chris2x.jpg",
      "cache": "//a.disquscdn.com/uploads/users/6470/avatar92.jpg?1281549414",
      "large": {
        "permalink": "https://disqus.com/api/users/avatars/chris2x.jpg",
        "cache": "//a.disquscdn.com/uploads/users/6470/avatar92.jpg?1281549414"
      }
    }
  }
}