{
  "comments": [
    {
      "threadId": "2959186696",
      "post": "Glad you had such a great trip Scott! We'd love to include an art gift for the promo winner from the lobby gallery at Andaz Maui. Please contact me so we can arrange that! @AndazShaneArt. Aloha!  Rox",
      "time": "2014-08-08T23:56:13",
      "id": "1534338928"
    },
    {
      "threadId": "2870504725",
      "post": "Consider me happily flattered @dropdrap!",
      "time": "2014-08-04T23:36:37",
      "id": "1527604055",
      "parentPost": "This is a fantastic hint/tip.  I have been pondering the \"is there a solution for natively posting Instagram to Twitter\" issue for weeks now.  Thank you Roxanne.  You ROCK!",
      "parentPostTime": "2014-08-03T08:31:34",
      "parentPostId": "1523882422"
    },
    {
      "threadId": "2860913967",
      "post": "Thank you Geoff. Two things up front - I love the things you have connected here and I love the voice for humanism in business and social media. We are seeing two trends that seem to conflict on the surface - increasing autonomy combined with increasing community. When we can foster both, we create a place for people to express themselves authentically and to feel support for doing so. The \"weirdos\" coming out of endless closets is part of this and society's tolerance for a much wider range of people types is one of my favorite trends. \n\n\nMarketers who relate first and sell second will continue to be in a stronger position. It's hard not to feel compassion though for the companies whose business model has been upended; I understand the panic-driven approaches. But if your customers are your community, I believe more often than not they will guide you through marketplace changes. This is enormously complicated by scale, and the \"too big to fail\" notion is really due for retirement. You probably noticed P&G is discontinuing over 100 brands. They are also lamenting the poor performance of many so-called \"beauty\" brands. For all the work Dove has done to align themselves with women's self esteem, their products remain little more than boxed up chemicals.\n\n\n\nOne of the unsung benefits of social is that if you sell a crappy product, social is only going to highlight that as customers tell us what they really think. I see this aspect of social business getting stronger and stronger, pressuring brands to provide healthier and more sustainable products.  Like so many things today, most of this is easier said than done. Kudos to anyone who is trying.",
      "time": "2014-08-01T22:41:24",
      "id": "1520965310"
    },
    {
      "threadId": "2852418409",
      "post": "Thank you Lan and Vu! You created a beautiful video for Shane and great memories for all of us from the trip.",
      "time": "2014-07-30T07:18:31",
      "id": "1511538334"
    },
    {
      "threadId": "2836149664",
      "post": "So glad to know about this place Courtney!",
      "time": "2014-07-15T22:12:53",
      "id": "1486856296"
    },
    {
      "threadId": "2812598360",
      "post": "I love this new video! So playful, and so #LaLaLove - what a great tag. :-)",
      "time": "2014-07-08T18:56:51",
      "id": "1474934012"
    },
    {
      "threadId": "2732072973",
      "post": "This was a totally amazing post Courtney! The stories and the photos just kept coming and coming! Thank you and Aloha!",
      "time": "2014-06-03T05:15:25",
      "id": "1417157367"
    },
    {
      "threadId": "2698315167",
      "post": "Scott - You have made an enormous impact and I am excited to see the next announcement! Enjoy the accolades! Aloha from Maui - LMK if a vacay is going to happen in between your gigs. Mai Tai's on me!",
      "time": "2014-05-21T03:18:02",
      "id": "1396710519"
    },
    {
      "threadId": "1359482195",
      "post": "Thanks for the in-depth and neutral coverage Courtney.",
      "time": "2014-03-03T22:22:53",
      "id": "1269108656"
    },
    {
      "threadId": "1916391167",
      "post": "Mari - So happy to see you benefitting from all the years you have put in to being the Facebook expert!",
      "time": "2013-11-08T02:38:59",
      "id": "1113411885"
    },
    {
      "threadId": "1475601408",
      "post": "Your willingness to share your process is one of the many reasons I love you Mari! Thanks for an info-packed interview.",
      "time": "2013-07-09T04:07:10",
      "id": "955968960"
    },
    {
      "threadId": "916882285",
      "post": "Thanks for sharing! These are so different from each other. ",
      "time": "2012-11-08T01:20:37",
      "id": "703463456"
    },
    {
      "threadId": "914638350",
      "post": "Brilliant job you all did! Hawaii, supplier of the Aloha spirit, will be on on the job. After all, 1 am EST is only 7 pm HST!",
      "time": "2012-11-06T15:45:32",
      "id": "701832392"
    },
    {
      "threadId": "910594475",
      "post": "Shane I just love this work from Hana - it moves you into an entirely new color space and the depth and diversity of the images are stunning!",
      "time": "2012-11-04T22:40:31",
      "id": "700532760"
    },
    {
      "threadId": "766828318",
      "post": "Great Recap! There is never much room for signage but I think it would be fun to know more about the ingredients. I took the assignment very seriously - the only ingredient in my lime pie not from Maui was the butter. :-) ",
      "time": "2012-07-16T08:41:27",
      "id": "589081250"
    },
    {
      "threadId": "760025254",
      "post": "This is a perfect thing for us to do some outreach to our colleagues at Social Media Club. Though I will say that an hour interview is a challenge...",
      "time": "2012-07-11T07:15:53",
      "id": "583894206"
    },
    {
      "threadId": "745337041",
      "post": "They really had the equipment out there! I wonder how many coats of paint are on that building. One of the pleasures of the drive into town is seeing the ever-changing art there!",
      "time": "2012-06-30T00:50:40",
      "id": "572404427"
    },
    {
      "threadId": "670669077",
      "post": "FlightTrack is sadly missing from the Mobile travel app selections!",
      "time": "2012-05-22T22:45:56",
      "id": "536113668"
    },
    {
      "threadId": "670624715",
      "post": "Much more detail and editorial insight than I was expecting!  Thanks Shane.",
      "time": "2012-05-01T07:28:23",
      "id": "514784417"
    },
    {
      "threadId": "595338579",
      "post": "I can only imagine how much fun you all had getting this together! Tradition meets technology on the Road to Hana and magic happens!",
      "time": "2012-04-03T07:05:06",
      "id": "484222541"
    },
    {
      "threadId": "622273271",
      "post": "I thought the committee might find this article from Harvard Business Review on how women are better leaders.\nhttp://blogs.hbr.org/cs/2012/03/a_study_in_leadership_women_do.html",
      "time": "2012-03-25T07:30:33",
      "id": "475703566"
    },
    {
      "threadId": "552410398",
      "post": "Great insights Shauna. The answer is that the traditional ways are easier and they are known quantities, even if not well applied. This is an age-old human challenge. How do we upgrade our consciousness to keep up with not just marketplace changes but in the case of today - the intersection of change across markets, politics, education, and humanity itself!\n\nDare I say \"it takes a blogger\" to give us pause to reflect on our own processes and how they might become more effective.",
      "time": "2012-01-25T23:52:41",
      "id": "420969752"
    },
    {
      "threadId": "527175446",
      "post": "Yay Courtney! Disqus is good. Thanks for spending the time to add this for comments. Very thoughtful and responsive of you.",
      "time": "2012-01-05T05:38:40",
      "id": "401008906"
    },
    {
      "threadId": "521061783",
      "post": "Great inspiration. We each are often the last to understand our talents not to mention our 100% safety!",
      "time": "2012-01-01T01:18:28",
      "id": "398122298"
    },
    {
      "threadId": "499646315",
      "post": "So lovely - and loving of you! Christmas in Germany seems like \"the real deal\" hehe. I will try to get you a copy of the Olson's card - it is all about cure Kaile!",
      "time": "2011-12-10T17:33:47",
      "id": "383541082"
    },
    {
      "threadId": "487074993",
      "post": "This is SO exciting Shane! First things posted, and wham! There you are. You are batting a thousand on your art submissions and it is no wonder. You are an artist with an artist's hands, mind, and soul.",
      "time": "2011-11-29T06:31:45",
      "id": "374721977"
    },
    {
      "threadId": "453226560",
      "post": "Whoa! If a conference doesn't kill you this \"mother of all blog entries\" would have! Amazing - truly amazing!  Thank you for all of the love and sharing you do for our Hawaii social media community!",
      "time": "2011-10-27T00:32:06",
      "id": "346095036"
    },
    {
      "threadId": "411477263",
      "post": "Your comments are a tourism primer for sure but I like how they apply to everyday life as well. In Asia, there is a very direct and immediate response to the *tourist's* attitude as well. I have seen numerous instances of griping travelers get price increases! It certainly taught me that kindness and respect really can be de-linked from other attributes. In other words, being tired and in a foreign country is really no valid excuse for losing one's temper. \n\nWhen I see you next month in Detroit remind me to tell you my homeless man in NYC story. It is one of my favorite life and travel experiences!",
      "time": "2011-09-14T04:55:07",
      "id": "309313751"
    },
    {
      "threadId": "377029722",
      "post": "I agree largely with the premise here. And have been trying to reinvent the relationship in my little piko of the universe here in Hawaii. I am just wrapping up a New Media Artist-in-Residence campaign that ran for 6 months and did include a per diem for the \"bloggers.\" \n\nYes, we did consider them promotional partners and yes we paid expenses and per diem. And yes, they had a contract protecting their right to free speech in their coverage of their trips. I do believe you can balance honesty, transparency, and promotion - but it takes a lot of time in putting both the contrat and the team together, while also educating the destination clients about how all this works. It was hugely successful from all points of view.Initial articles are here, with more follow up results to come:http://www.barefeetstudios.com/2011/02/10/new-media-artist-in_residence-program-for-lanai/http://www.barefeetstudios.com/2011/01/05/for-travel-destinations-working-well-with-bloggers/",
      "time": "2011-08-04T17:18:38",
      "id": "277470504"
    },
    {
      "threadId": "366187090",
      "post": "I loved seeing my girlfriends featured here - they have done so much in so many ways - not just as women athletes and paddling pioneers - but as volunteers in our community for countless causes. Mahalo for featuring them and helping to spread their manaʻo far and wide!",
      "time": "2011-07-23T22:59:26",
      "id": "262358428"
    },
    {
      "threadId": "268300925",
      "post": "What were you \"receiving\" during this moment of channeling with the universal field of intelligence? #thefield\n\nSince I am one of the five you referenced, I can't answer the how question, so I'll ask a what question!\n\nTo me, your innate sense of symmetry in shaping your figure is as intriguing as your tech and artistic wizardry in creating the image.",
      "time": "2011-04-02T01:56:42",
      "id": "176631342"
    },
    {
      "threadId": "258577580",
      "post": "It's all about perspective. #ShaneArt",
      "time": "2011-03-20T08:25:58",
      "id": "168492369"
    },
    {
      "threadId": "251618945",
      "post": "Glad you were safe guys; I believe our collective #thinkcalmthoughts really worked! Let's do a story on it sometime soon.",
      "time": "2011-03-11T19:51:43",
      "id": "164330531"
    },
    {
      "threadId": "242330014",
      "post": "PS - Great social media side story about B&H. It is like a candy store for camera geeks.",
      "time": "2011-03-01T02:39:20",
      "id": "158042250"
    },
    {
      "threadId": "237870855",
      "post": "They have done well and in large part via @peterliu47!",
      "time": "2011-02-23T21:07:43",
      "id": "154953833"
    },
    {
      "threadId": "231388461",
      "post": "If you are interested in attending, please use our discount code to save $15 and change!  \"SMCH\" - via the Social Media Club Hawaii chapter participation.",
      "time": "2011-02-16T23:46:20",
      "id": "149358272"
    },
    {
      "threadId": "216563973",
      "post": "That drive is one of the things I will miss when we move to Maui. :-)",
      "time": "2011-01-27T01:11:43",
      "id": "135099396"
    },
    {
      "threadId": "208320485",
      "post": "Reminds me of a poem I wrote about 15 years ago:\n\nYou look just as stunning\nIn your gabardine suit\nAs in your yoga pants\nBut I long to see you naked\nReally naked\nWearing only your soul\nAnd your true nature.\n\nI also re-checked the Mark Twain cynical quote: <a target=\"_blank\" href=\"http://www.quotationspage.com/quote/253.html\">Clothes make the man. Naked people have little or no influence on society.</a> Clothes are just one of many things we get to play with.",
      "time": "2011-01-14T01:05:41",
      "id": "128877085"
    },
    {
      "threadId": "208374894",
      "post": "Aloha - the website address in the article has a typo. Here is the correct address:\nhttp://www.puakea.org\n\nThere is a donate button there. Thanks to this article the foundation has been receiving kokua from many wonderful people!",
      "time": "2011-01-13T23:55:34",
      "id": "128854900"
    },
    {
      "threadId": "191894194",
      "post": "John,\n\nI have an idea in mind for a simple iPhone app so I am thinking about this course. I am impatient though and would like to consider working with you sooner! Can you send me some links to apps you have developed?",
      "time": "2010-12-24T23:27:31",
      "id": "118546447"
    },
    {
      "threadId": "168296520",
      "post": "Liz - First off welcome to the new gig! Critical mass of smart women in play here now...\n\nNow for this post. The conundrum is that magic is happening in the midst of all that noise, and you can't be in on that kind of magic if you are not there. However, the noise factor is increasing IMO, and I don't think the casual user is aware of the behavioral, emotional, and cultural shifts that are taking place - they're just having fun eaves-dropping, looking at pics, and having - yes - very superficial conversations.\n\nI think this will improve though, as all users become more savvy. As the tools themselves allow better filtering. As we as humans learn how to manage this extraordinary ability to be \"mechanically\" connected.\n\nIt is another revolution, like the industrial one last century, where change takes place outside of us and we must then learn how to play by new rules from inside ourselves. We have barely begun the conversation about psychological and spiritual ramifications of the social web.\n\nMy hope is that the researchers approach their study subjects - aka us! - with less bias, and or as you suggest - to generate opportunities for improvement rather than sing the \"it was better in the old days\" blues. The old days don't matter - they are gone. Be like Ram Dass and \"Be here now\" then see what's possible.",
      "time": "2010-11-08T22:21:20",
      "id": "95183603"
    },
    {
      "threadId": "133514450",
      "post": "Ryan - Thanks for all the social media coverage!  We'd love to have you as a member of the SMC - you indeed are one of Hawaii's original social media pros. Please let any of us know how we can support you.",
      "time": "2010-08-26T02:13:21",
      "id": "72182848"
    },
    {
      "threadId": "122408641",
      "post": "I LOVE your photographs - they are inspired and gorgeous, especially in their \"cannot be reproduced\" energy. You go below the surface, find the beauty and share it, then on to the next moment of being here now.\n\nHow perfect.",
      "time": "2010-07-27T01:53:15",
      "id": "64389275"
    },
    {
      "threadId": "108600739",
      "post": "We at Social Media Club Hawaii are looking forward to participating.\n\nMahalo nui for including us Janell!",
      "time": "2010-06-29T04:44:25",
      "id": "59079515"
    },
    {
      "threadId": "109594067",
      "post": "Aloha,\r\n\r\nThis is Roxanne's email auto-responder. She is traveling June 18-26. She will respond to your email as soon as she can. You will only receive this message once. (Unless you contact us with a different email address.)\r\n\r\nIf you are wanting to hire Rox to speak at one of your events, please fill out her Speaker Request Form so we can respond asap with her availability:\r\nhttp://www.barefeetstudios.com/public-speaking/\r\n\r\nYou can find lots of free information on www.barefeetstudios.com. Rox also hosts the Social Media Club Hawaii Chapter meetings. They are free to attend, always educational, and are usually live video-streamed if you can't attend in person.\r\nhttp://www.barefeetstudios.com\r\nhttp://www.smchawaii.org\r\n\r\nAloha,\r\n\r\nRoxanne Darling's Autoresponder\r\n\r\nBusiness Blog >> http://www.barefeetstudios.com\r\nHawaii Videos >> http://www.beachwalks.tv\r\nPersonal Blog >> http://www.inthetransition.com",
      "time": "2010-06-25T16:36:17",
      "id": "58620039",
      "parentPost": "The main reason I posted this is that others can learn from it, what works and what doesn't work. So I will post an article about all what happened.",
      "parentPostTime": "2010-06-25T16:36:14",
      "parentPostId": "58620028"
    },
    {
      "threadId": "103109857",
      "post": "As a Kailua resident, I am thrilled to know about this. And it seems like a good reason for a Tweetup too!",
      "time": "2010-06-01T20:04:04",
      "id": "53417914"
    },
    {
      "threadId": "101110157",
      "post": "That this bill passed without media coverage until now is one problem. That it was even considered while the students and teachers are furloughed I find outrageous. Who cares about district size as a metric for pay? Let's look at performance metrics and our schools get a fail. If that is because we don't hire the right leaders at the right pay scale, then I ask the BOE to please post a list of which superintendents will be terminated so new replacements can be hired at the so-called more attractive wages. We should not continue rewarding those who cannot deliver results. Where is the incentive to improve? Who will make the hard decisions to restructure our schools? To be giving pay raises without any consideration other than \"because others do it\" is grade school-level reasoning.\n\nThis action tells me our BOE leadership has seriously misplaced priorities or just does not understand how to build a successful educational system. They apparently see it as a j-o-b with no real responsibilities or consequences.",
      "time": "2010-05-26T19:53:37",
      "id": "52296118"
    },
    {
      "threadId": "97419360",
      "post": "Congratulations! I am so glad this showed up for you and Manuela - as I am sure she will be using it some as well.",
      "time": "2010-05-20T19:17:43",
      "id": "51269380"
    },
    {
      "threadId": "96080187",
      "post": "Don't tell Shane but this looks like a great birthday present idea!",
      "time": "2010-05-17T23:44:52",
      "id": "50782680"
    },
    {
      "threadId": "96036135",
      "post": "I am so glad you and @Mailani connected!",
      "time": "2010-05-17T23:43:30",
      "id": "50782479"
    },
    {
      "threadId": "95115468",
      "post": "Beautiful piece of work to match the beautiful people of Maui. :-)",
      "time": "2010-05-13T07:29:42",
      "id": "50054974"
    },
    {
      "threadId": "93785845",
      "post": "Thank Erika for mentioning this event. By the time I have arrived, about 12 hours after being published, it already has 34 Retweets! Guess you are onto something. :-)\n\nI'd like to add that Mr. Hamm works for a German bank, so we will also be discussing the use of social media in a regulated industry - it does pose some unique considerations.",
      "time": "2010-05-10T00:10:35",
      "id": "49242379"
    },
    {
      "threadId": "85006952",
      "post": "Aloha,\r\n\r\nThis is Roxanne's email auto-responder. She is traveling on business Apr 23 - Apr 26. She will respond to your email as soon as she can. You will only receive this message once. (Unless you contact us with a different email address.)\r\n\r\nIf you are wanting to hire Rox to speak at one of your events, please fill out her Speaker Request Form so we can respond asap with her availability:\r\nhttp://www.barefeetstudios.com/public-speaking/\r\n\r\nYou can find lots of free information on www.barefeetstudios.com. Rox also hosts the Social Media Club Hawaii Chapter meetings. They are free to attend, always educational, and are usually live video-streamed if you can't attend in person.\r\nhttp://www.barefeetstudios.com\r\nhttp://www.smchawaii.org\r\n\r\nWe both wish you much aloha,\r\n\r\nAloha,\r\n\r\nRoxanne Darling's Autoresponder\r\n\r\nBusiness Blog >> http://www.barefeetstudios.com\r\nHawaii Videos >> http://www.beachwalks.tv\r\nPersonal Blog >> http://www.inthetransition.com",
      "time": "2010-04-24T04:34:38",
      "id": "46350996",
      "parentPost": "Rox,\r\n\r\nYou're welcome.  All the best to you folks to generate more interest and adoption of all things social and new media.\r\n\r\n--NEENZ.",
      "parentPostTime": "2010-04-24T04:34:35",
      "parentPostId": "46350990"
    },
    {
      "threadId": "86374107",
      "post": "I hope they also can add more phone line capacity! I tried 10 times over two hours this morning to phone in a pledge and always got a busy signal. I wonder how fast they could fund-raise if they also added a mobile app. :-)",
      "time": "2010-04-15T21:19:27",
      "id": "45039599"
    },
    {
      "threadId": "85745336",
      "post": "@maurskenscott\nI admire your personal diligence however it actually is a behavior that comes *after* the luck cards have already been dealt. You clearly have time, education, and social support on your side. Can individuals swim against the stream of luck and assume healthy behaviors? Yes - though it is near impossible for those with less access to education, healthy food, not to mention the TIME it takes to cook healthy and go to the gym for 40 minutes a day.  Who is doing those errands you skip in favor of a lunch time walk? \n\nI am a huge supporter of personal responsibility, as it sounds like you are. I think it actually helps build responsibility tho by getting the initial obstacles out of the way: by accepting the reality that there is a huge luck factor in play. Then, \"So you started with bad luck, what can you change now?\" Maybe people like you and I could jog over and take care of some single parents' kids for 40 minutes while she goes for a workout or learns how to cook low fat? Spreading some of the luck around, to inspire more personal responsibility.",
      "time": "2010-04-14T21:25:33",
      "id": "44798454"
    },
    {
      "threadId": "85649452",
      "post": "Erika - I met Jeannette recently and was thrilled to learn about her project. And of course it makes me happy to see you and TechCrunch both covering a local tech company!",
      "time": "2010-04-13T19:53:07",
      "id": "44640458"
    },
    {
      "threadId": "82994892",
      "post": "Shout out to Quine and Crystal! Thanks Erika - I love hearing about innovators.",
      "time": "2010-04-06T20:41:57",
      "id": "43538174"
    },
    {
      "threadId": "76645069",
      "post": "Big aloha welcome to Troy and congrats for being able to successfully ride many kinds of waves. I love people who break out of the stereotypes.\n\nYou Erika also defy the mold - mahalo for your continued coverage of interesting local people and events. People can also their own custom t-shirts with their Twitter name on them from Valentino - he goes by @valdezign.",
      "time": "2010-03-17T19:33:41",
      "id": "40216220"
    },
    {
      "threadId": "75086797",
      "post": "I love the new HRA web site. Right in step with modern times and I hope they enjoy working in it. Having unique pages that are archived and have their own \"URLʻs\" will make it much easier for people like me to link to them.",
      "time": "2010-03-12T23:54:40",
      "id": "39448126"
    },
    {
      "threadId": "70213098",
      "post": "I love this post! It is a sophisticated and *documented* way to address the issue where dreams and greed intersect. I like to remind myself that is something is meant to happen, it will and you will have support from unimagined places. The alternative is what Ze Frank calls \"brain crack\" and we all the know the thrills and downslide of that. Meanwhile, a kicka** idea + execution is unstoppable. Keeping the energy on the here and now is actually the most efficient way to grow something for tomorrow.",
      "time": "2010-02-26T19:39:12",
      "id": "37010387"
    },
    {
      "threadId": "39386149",
      "post": "Read more about the portable video project with @RealPlayer & get <a href=\"http://realitycheck.socialmediaclub.org/oct-20-los-angeles-hosts-real-player-sp/\">all LA event details here</a>. #smcla",
      "time": "2009-10-20T01:26:02",
      "id": "20596722"
    },
    {
      "threadId": "26357062",
      "post": "Brett - I enjoyed the post, agree with most of your posts, and consider this one more piece of the transparency discussion. I have been at the forefront of a couple of big trends (yes, I was one of the first aerobics instructor trainers and speakers back in 1984..) and the mechanics are very similar. At least now we have blogs and Twitter to discuss it openly. I am a from believer that all of this insightful, specific, respectful conversation adds education and credibility to the community at large.\r\n\r\nI am giving a presentation tomorrow to a hotel chain, and redid my whole slide deck after coming across Charlene Li's new report issued yesterday. I am very happy with the results though and in this case am being paid fairly, so all is good. In contrast, last week was filled with meetings and clients with the tiny budgets or \"pro bono\" suggestions. ;-)",
      "time": "2009-07-22T08:10:02",
      "id": "13100889"
    },
    {
      "threadId": "24714285",
      "post": "Great list of links there Bill; I am very much looking forward to your participation! And you get an A for etiquette too by blogging about the link and sharing your participation with your network. \r\n\r\n:-)",
      "time": "2009-07-10T23:57:10",
      "id": "12489263"
    },
    {
      "threadId": "19119170",
      "post": "Christine - I see you barely unpacked and now are on your way to Asia with Geeks on  Plane. :-)\r\n\r\nA lot has changed in a year now hasn't it?  I hope you had a wonderful time in Hawaii. I still pinch myself being \"lucky to live Hawaii.\"\r\n\r\n{{hugs}} \r\nRox",
      "time": "2009-06-08T06:24:24",
      "id": "10606803"
    },
    {
      "threadId": "20586903",
      "post": "One of the things I love about Hawaii is the fun-loving and heart-filled way people here have developed parallel or related concepts to people thousands of miles away. We humans tend to think of things simultaneously across the globe. Investor Guy Kawasaki (and Hawaii home boy!) used to preach at entrepreneurs to drop the nondisclosure forms. \"If you have an idea, you can bet 5 others do too - your job is to get out and find people who can understand it and help you build it - not try to hide it.\"\r\n\r\nSo a pono sandwich may be similar factually to a One Minute Manager technique - I just prefer the Hawaiian version!",
      "time": "2009-06-08T05:05:09",
      "id": "10605906"
    },
    {
      "threadId": "20371846",
      "post": "My Dad died a few months ago and that was an amazing experience. He had so many kinds of cancer we teased him about wanting to be in the Guinness Book of Records. It was pure sheer mind power that enabled him to hang out despite the ravages to his body. And when his body was done, he left quickly and gracefully.\r\n<a href=\"http://willliampbenton.com\">My Dad's Website</a>",
      "time": "2009-06-07T01:56:11",
      "id": "10575658"
    },
    {
      "threadId": "19356084",
      "post": "Hawaii has so many talented musicians! On the left is Kanoa of Gomega. He performs on Maui regularly and is incredibly diverse and talented. Look him up over there and say Aloha to Ipo, his manager/wahine.  You can also find him at <a href=\"http://www.kanoaofgomega.com/\">kanoaofgomega.com</a>.\r\n\r\nIn the middle is Jenn Wright - of many bands!  Find her on MySpace:\r\n<a href=\"http://www.myspace.com/chickfromthafifty\">www.myspace.com/chickfromthafifty</a>\r\n\r\nIn the middle is Mailani Makainai - who most locals know as part of the duo, Keahiwai. She has a solo career now, and you can find here:\r\n<a href=\"http://mailanimakainai.com/\">mailanimakainai.com</a>.\r\n\r\nOn the right is Tiki Suan, aka \"Tiks! She, Jen, and Mai were also part of the awesome MightyJ.  Find Tiks on MySpace:\r\n<a href=\"http://www.myspace.com/tiks\">myspace.com/tiks</a>\r\n\r\nI love them all!",
      "time": "2009-05-26T08:20:50",
      "id": "9947043"
    },
    {
      "threadId": "17264698",
      "post": "You so smart. I love the idea, and just deleted over 150 today. I may just go loic and follow in your footsteps. \r\n\r\nxorox",
      "time": "2009-05-04T05:31:06",
      "id": "8970379"
    },
    {
      "threadId": "12688329",
      "post": "I find this a really compelling question and love noodling on it - because so many of the things one might normally suggest are not in the normal realm of a newbie to SM - or - they are the same as vetting any consultant.\r\n\r\nHow do you know what you don't know?\r\n\r\nChris Heuer and friends (including me) are doing a podcast this wednesday and will attempt to continue answering this question you have started.\r\n\r\nhttp://bit.ly/z2ruC\r\n\r\nThank you Kenneth for getting my brain jump-started!",
      "time": "2009-03-03T04:40:50",
      "id": "6814125"
    },
    {
      "threadId": "8466044",
      "post": "\"Twitter by Proxy\" is a great technique; I love using it with Twitter skeptics as invariably someone will respond with relevant or insider information, and voila! A mind is expanded. Nice hand-coding too. :-)",
      "time": "2008-12-17T05:43:32",
      "id": "4446118"
    },
    {
      "threadId": "5270324",
      "post": "I am so glad to discover this has nothing to do with my age! (55) I find it \"ew yucky gross\" too.",
      "time": "2008-10-03T19:03:58",
      "id": "2826172"
    },
    {
      "threadId": "3673489",
      "post": "Thanks for all the links and videos - I hope you will add to the conversation with your opinions on a post I created talking about recommendations for NME and opportunities for those of us in the industry. <a href=\"http://www.barefeetstudios.com/2008/08/23/new-media-expo-2008-wrap-up-ideas/\">Does podcasting need a conference?</a>.",
      "time": "2008-08-27T00:51:57",
      "id": "1860112"
    },
    {
      "threadId": "552041",
      "post": "I heard about Drew's session and I thought his idea was brilliant!  And I am incredibly impressed with your Inbox cleanup. But an hour? Srsly, you didn't do over 1000 emails that fast did you?  ",
      "time": "2008-04-29T03:21:04",
      "id": "390485"
    }
  ],
  "profileInfo": {
    "username": "Rox",
    "about": "Digital publisher & Speaker at BareFeetStudios.com, host of BeachWalks,tv, student of consciousness, divine energy conduit at InTheTransition.com",
    "name": "Roxanne Darling",
    "disable3rdPartyTrackers": false,
    "isPowerContributor": false,
    "isAnonymous": false,
    "rep": 1.219894,
    "profileUrl": "https://disqus.com/by/Rox/",
    "url": "http://www.barefeetstudios.com/",
    "reputation": 1.219894,
    "location": "Hawaii",
    "isPrivate": false,
    "signedUrl": "http://disq.us/?url=http%3A%2F%2Fwww.barefeetstudios.com%2F&key=cYnu2meQ_fYzAP5OAukfuw",
    "isPrimary": true,
    "joinedAt": "2008-04-29T03:21:04",
    "id": "26994",
    "avatar": {
      "small": {
        "permalink": "https://disqus.com/api/users/avatars/Rox.jpg",
        "cache": "//a.disquscdn.com/uploads/users/26994/avatar32.jpg?1424189235"
      },
      "isCustom": true,
      "permalink": "https://disqus.com/api/users/avatars/Rox.jpg",
      "cache": "//a.disquscdn.com/uploads/users/26994/avatar92.jpg?1424189235",
      "large": {
        "permalink": "https://disqus.com/api/users/avatars/Rox.jpg",
        "cache": "//a.disquscdn.com/uploads/users/26994/avatar92.jpg?1424189235"
      }
    }
  }
}