{
  "comments": [
    {
      "threadId": "1237118125",
      "post": "Unconfirmed Dallas and DART officer shot. ",
      "time": "2016-07-08T03:09:00",
      "id": "2771515594",
      "parentPost": "2 officers shot, 7 others injured",
      "parentPostTime": "2016-07-08T03:07:54",
      "parentPostId": "2771514338"
    },
    {
      "threadId": "2844064876",
      "post": "Unsubscribe—\nSent from Mailbox",
      "time": "2014-07-15T11:52:05",
      "id": "1485927794",
      "parentPost": "Yes.",
      "parentPostTime": "2014-07-15T11:25:31",
      "parentPostId": "1485903561"
    },
    {
      "threadId": "2407878095",
      "post": "Hi Mike. Not much is going on with this. I put the idea out there and the general consensus was that it was a good idea. I didn't want to move on anything too quickly though. However, since then http://www.techmill.co/ has sprung up which is essentially the same thing: a not-for-profit that is organizing tech events and a possible co-working space.",
      "time": "2014-07-03T12:54:17",
      "id": "1466605190",
      "parentPost": "Hmm... Last post, 4 months ago.  Just stumbled here.  What's up.",
      "parentPostTime": "2014-07-02T22:59:29",
      "parentPostId": "1465808452"
    },
    {
      "threadId": "1581604228",
      "post": "Haha. No ties to Nest at all. Maybe they'll hire me now?",
      "time": "2013-08-14T01:10:32",
      "id": "999984447",
      "parentPost": "Can you just confirm for me that you have no connection with Nest and have not developed for them? The answer to that question frames my view of your report. Thanks DD!",
      "parentPostTime": "2013-08-13T21:34:02",
      "parentPostId": "999650572"
    },
    {
      "threadId": "1206999578",
      "post": "I still don't have the DB figured out either and was really disappointed when 3.6 dropped versions workflow of posts. \n\nI auto deploy trunk to dev. Then I merge trunk to staging when ready and that merge auto deploys to staging.",
      "time": "2013-06-25T11:20:09",
      "id": "941348203",
      "parentPost": "Thanks for the post, im looking for a good WP work flow. I currently use this formula and had appended another layer on top of it to have a dev,staging,prod environment  http://joemaller.com/990/a-web-focused-git-workflow/. It works great but Im still looking for the best DB solution.\n\nI am wondering why you push automatically to dev and staging... assuming you work locally. I feel you would want to work on these completely separate from one another. Otherwise what's the point of a dev and staging if they both get updated automatically",
      "parentPostTime": "2013-06-25T05:39:33",
      "parentPostId": "941127536"
    },
    {
      "threadId": "963345027",
      "post": "Totally bought in. ",
      "time": "2012-12-08T03:26:02",
      "id": "730726382",
      "parentPost": "You were really into the \"Web 2.0\" rounded corners, weren't you?",
      "parentPostTime": "2012-12-08T02:52:31",
      "parentPostId": "730703145"
    },
    {
      "threadId": "956607318",
      "post": "I really like that method and it's actually more accurate, because my revision number doesn't necessarily mean every static file changed.",
      "time": "2012-12-03T23:21:14",
      "id": "726507068",
      "parentPost": "As an alternative you can use filemtime:\n\n    wp_register_style( 'child', CHILD_URL . '/stylesheets/child.css', false , filemtime( CHILD_DIR . '/stylesheets/child.css' ) );\n\n\n\nif the file is changed, css gets updated",
      "parentPostTime": "2012-12-03T22:11:02",
      "parentPostId": "726442597"
    },
    {
      "threadId": "914907153",
      "post": "No hooks at this point. I'm committing the wp-config file with the DB credentials for production, and ignoring a local-config file in each environment. The only untouched piece of this process is database synchronization.",
      "time": "2012-11-06T17:07:07",
      "id": "701890514",
      "parentPost": "Hi. Chris from Beanstalk here. Noticed your tweet and wanted to follow up. This process looks great. I know that Wordpress can be tricky when it comes to themes and plugins, but as long as they are consistent it should be fine. Are you using any post deploy ssh or web hook tools to customize environments or configs?",
      "parentPostTime": "2012-11-06T16:06:46",
      "parentPostId": "701847285"
    },
    {
      "threadId": "857354621",
      "post": "CounTIRES?",
      "time": "2012-09-25T17:12:43",
      "id": "662237652"
    },
    {
      "threadId": "468803144",
      "post": "Two things I really don't like. One is the aforementioned icon toolbar where I'm constantly second-guessing my clicks.\n\nThe other may be just a consequence of the redesign or, perhaps, intentional in part of the redesign, but ads are MUCH more visible. I used to not even see the ads, but they're unavoidable now. Its a free product and I don't mind it being ad-supported, but its just a big change after years of growing closer in understanding of the product.",
      "time": "2011-11-11T22:07:14",
      "id": "361399380"
    },
    {
      "threadId": "302710829",
      "post": "While it may be the police's job, I can almost guarantee you that they wouldn't do anything about it. Most police departments don't investigate petty theft unless there's a known suspect. And he took a risk, but why is that so bad? No gang of hoodlums showed up to pound fist.\n\nA messy jungle? Instead you prefer an 'out of sight, out of mind' mentality where we allow thieves to get away with breaking the law? Wouldn't society be so much better if we did exactly what happened here and looked out for each other ... hopefully deterring future thefts?",
      "time": "2011-05-13T13:44:23",
      "id": "203036940",
      "parentPost": "There is nothing to be satisfied with. This guy did the Police's job, taking risks for himself and his friends. So what, you come with your gang and you beat the thief? This is what you do when you want your country to become a messy jungle.",
      "parentPostTime": "2011-05-13T12:17:52",
      "parentPostId": "203002431"
    },
    {
      "threadId": "266837929",
      "post": "I like that at 0:35 the woman claims that \"the average high schooler has texted 1200 times from the time they get out of bed to when they hit school at 7:30 in the morning.\"",
      "time": "2011-03-30T16:58:34",
      "id": "174967315"
    },
    {
      "threadId": "242122425",
      "post": "Cloud computing isn't a technology, hence your quotes.\n\nI guarantee the programming and hardware behind Gmail are light years ahead of what most SMBs have, can afford, and even know about.",
      "time": "2011-02-28T21:28:27",
      "id": "157868672",
      "parentPost": "Yeah, it's SO much safer to use 40 year old technology like \"cloud computing\".",
      "parentPostTime": "2011-02-28T21:20:00",
      "parentPostId": "157864160"
    },
    {
      "threadId": "221036338",
      "post": "Rather than complement Mint, it sounds like it is just an existing feature of Mint -- Goals. You can already set a goal to get out of debt and Mint does all of the same analysis.\n\nSo if Mint already does this, then why the need for another, less robust service? ",
      "time": "2011-02-02T16:34:10",
      "id": "138801426"
    },
    {
      "threadId": "186589543",
      "post": "Yeah, HP, is that all you got? Come on, you're a major corporation so you needn't be frugal with your donations to causes Arrington supports. He makes the calls on these kinda things, right?",
      "time": "2010-12-07T20:56:26",
      "id": "108391807"
    },
    {
      "threadId": "183004112",
      "post": "Cloud computing ... a new marketing term for \"the Internet\".",
      "time": "2010-12-01T23:05:14",
      "id": "105708494"
    },
    {
      "threadId": "173604465",
      "post": "What a disappointing announcement. I'm still waiting for Lala replacement.",
      "time": "2010-11-16T15:23:18",
      "id": "97845799"
    },
    {
      "threadId": "170594996",
      "post": "You're right. Just F it. We don't need no laws.",
      "time": "2010-11-11T03:54:51",
      "id": "96110434",
      "parentPost": "I investigated that Agatha Christie books tell you how to commit murders! What if just one more person dies because of them?",
      "parentPostTime": "2010-11-11T03:51:35",
      "parentPostId": "96109966"
    },
    {
      "threadId": "170014567",
      "post": "While \"my\" data on Facebook is all about me ... it isn't actually MY data. I told Facebook all about myself. Is there really the expectation that I should be able to get it back? Of course I can delete it though.\n\nThis may be apples and oranges, but I've never requested data portability from my energy provider or my mechanic. But because Facebook is a popular website there could be lawsuits because they aren't giving people what they want?\n\nSure, users want it. The Internet-ecosystem will flourish without Facebook openness. So what if they're lying about their intentions as long as its not \"evil\" or illegal? The data export tool may be a red herring ... and? Again ... legal action?",
      "time": "2010-11-10T04:43:49",
      "id": "95738315"
    },
    {
      "threadId": "167839508",
      "post": "Same here .... slower than the the typical slow days these past couple of weeks.",
      "time": "2010-11-08T14:57:20",
      "id": "95069170",
      "parentPost": "I am having big problems with Gmail this morning.  Very very slow.",
      "parentPostTime": "2010-11-08T12:56:23",
      "parentPostId": "95042841"
    },
    {
      "threadId": "140269583",
      "post": "The only thing this event does for them is embolden the truest of Microsoft fanboys. There''s a lot of them, so its not the worst idea, but it also pushes away any middle grounders. Did they think this would sway public opinion in their favor?",
      "time": "2010-09-10T23:52:03",
      "id": "76803514"
    },
    {
      "threadId": "10755008",
      "post": "Uh oh, you left the images private.",
      "time": "2009-01-29T23:38:14",
      "id": "5662411"
    },
    {
      "threadId": "5649131",
      "post": "We saw it last night. It wasn't an Academy Award winner for sure, but it was a pretty powerful movie. Married only for 2.5 months and no marital problems it was still very convicting for me, and I'm sure anyone with serious problems in their marriage would really question their motives and attitudes.",
      "time": "2008-10-12T17:45:54",
      "id": "3009558"
    },
    {
      "threadId": "5071759",
      "post": "I prefer the Blackjack keyboard - I think the iPhone's is much harder to be accurate with. I thought the Blackjack was awesome and the only reason I have an iPhone is because it was a gift....and I just had generation 1.\r\n\r\nAlso, you need to put an RSS link on your blog - how else are we gonna know when you post new stuff?! (unless you're a WP addict like me and already know that your RSS feed is http://www.blogbychris.com/feed which redirects to http://feeds.feedburner.com/LifeDocumentationByChris for those of you reading these comments and wanting to subscribe)",
      "time": "2008-09-29T13:34:53",
      "id": "2730917"
    },
    {
      "threadId": "4929977",
      "post": "I love working from home because everything is setup (computer, environment, etc.) exactly how I want it and I'm able to be more productive. I don't prefer working over remote connections though - they bog me down.",
      "time": "2008-09-24T13:47:29",
      "id": "2568348"
    },
    {
      "threadId": "4807013",
      "post": "Hey I just saw this! Thanks for so many kind words. :)",
      "time": "2008-09-23T01:51:27",
      "id": "2528281"
    }
  ],
  "profileInfo": {
    "username": "developdaly",
    "about": "WordPress Consultant",
    "name": "Patrick Daly",
    "disable3rdPartyTrackers": false,
    "isPowerContributor": false,
    "isAnonymous": false,
    "rep": 1.2689009999999998,
    "profileUrl": "https://disqus.com/by/developdaly/",
    "url": "http://developdaly.com/",
    "reputation": 1.2689009999999998,
    "location": "Denton, TX",
    "isPrivate": false,
    "signedUrl": "http://disq.us/?url=http%3A%2F%2Fdevelopdaly.com%2F&key=tEQIzrHBqswmOne6XEoIXA",
    "isPrimary": true,
    "joinedAt": "2008-10-12T17:46:35",
    "id": "119367",
    "avatar": {
      "small": {
        "permalink": "https://disqus.com/api/users/avatars/developdaly.jpg",
        "cache": "//a.disquscdn.com/uploads/users/11/9367/avatar32.jpg?1467947341"
      },
      "isCustom": true,
      "permalink": "https://disqus.com/api/users/avatars/developdaly.jpg",
      "cache": "//a.disquscdn.com/uploads/users/11/9367/avatar92.jpg?1467947341",
      "large": {
        "permalink": "https://disqus.com/api/users/avatars/developdaly.jpg",
        "cache": "//a.disquscdn.com/uploads/users/11/9367/avatar92.jpg?1467947341"
      }
    }
  }
}