{
  "comments": [
    {
      "threadId": "4428732181",
      "post": "Definitely agree.  Are you talking about the guy in the orange sweater in particular? ",
      "time": "2015-12-24T23:14:53",
      "id": "2425153602",
      "parentPost": "What a great looking group of people!",
      "parentPostTime": "2015-12-24T14:31:05",
      "parentPostId": "2424600218"
    },
    {
      "threadId": "4110284230",
      "post": "Congratulations everyone!",
      "time": "2015-09-08T17:55:31",
      "id": "2242838630"
    },
    {
      "threadId": "4051441020",
      "post": "Thank you Danielle for sharing your story. Gutter Helmet does some great work.",
      "time": "2015-08-20T20:36:14",
      "id": "2205624624"
    },
    {
      "threadId": "4046457366",
      "post": "Thank you very much Paul. Coincidentally I am a subscriber of http://webmarketingtoday.com/ and love it. Let us know if you would like a demo or other information. Thanks - Shashi",
      "time": "2015-08-20T17:26:49",
      "id": "2205265348",
      "parentPost": "Shashi, now that I'm editor of Web Marketing Today (apologies for the plug), I'm always on the lookout for products and services that can help local small businesses, to include in articles we write. Definitely going to check out GeoJuice!",
      "parentPostTime": "2015-08-19T21:48:41",
      "parentPostId": "2203830901"
    },
    {
      "threadId": "3698117745",
      "post": "Great article and pointers on remodeling. Love the tips in the article and wow! a zipline as well ;)",
      "time": "2015-04-25T11:19:17",
      "id": "1986602153"
    },
    {
      "threadId": "3103846543",
      "post": "You did a great service to all small business by analyzing the email adn giving tips Jeanne",
      "time": "2014-10-13T19:56:14",
      "id": "1633849915"
    },
    {
      "threadId": "2388368793",
      "post": "Have you been to the #paypalit lounge at SXSW?",
      "time": "2014-03-08T14:47:01",
      "id": "1276455337"
    },
    {
      "threadId": "2313214716",
      "post": "Thank you Ramon. We all learn from one another and learn through out our lives, except for a short break in school.",
      "time": "2014-02-24T15:10:20",
      "id": "1258355648"
    },
    {
      "threadId": "1394739872",
      "post": "Thanks for the interview Beth. I look forward to a successful B2BLeadsCon",
      "time": "2013-06-12T17:28:01",
      "id": "927969087"
    },
    {
      "threadId": "1050050561",
      "post": "Geoff, \n\nI am sorry for your loss. Your tribute shows the respect and admiration that our elders deserve. Reading this was touching and thank you for sharing with us.  Best to you and your family.",
      "time": "2013-02-02T11:48:11",
      "id": "786600420"
    },
    {
      "threadId": "700858866",
      "post": "What does kimosabe mean\nIt is a made up word meaning \"horse's rear end.\" The Lone Ranger thought it meant \"friend. (source:http://goo.gl/DUahk)\nCan i get my invite kimosabe ;) ",
      "time": "2012-05-23T13:26:13",
      "id": "536537053"
    },
    {
      "threadId": "619326719",
      "post": "Since the wrote this review in a few days after I got this ultrabook, I have been discovering new and cool things. Very cool to touch and a fast processor. Have been loving the speed",
      "time": "2012-03-23T15:30:39",
      "id": "474534647"
    },
    {
      "threadId": "556120155",
      "post": "It is always difficult to make a Blog list and I like this list.  Maybe Socialmediaexplorer.com? And maybe another list of Social CRM blogs could be your next project? This is very helpful",
      "time": "2012-02-03T21:38:19",
      "id": "428912919"
    },
    {
      "threadId": "525331787",
      "post": "One thing that is good about these campaigns is that they combined these campaigns with their facebook community as well",
      "time": "2012-01-22T16:15:02",
      "id": "418073103"
    },
    {
      "threadId": "520825114",
      "post": "Thank you Ramon. Small Business definitely appreciate the way you make understanding technology easy for them relentlessly. You have the spirit to influence and help others succeed and for that my  best wishes for you and Smallbiztechnology to succeed even more in 2012",
      "time": "2011-12-30T15:41:59",
      "id": "397290822"
    },
    {
      "threadId": "514842298",
      "post": "One of the best things about moving from India to the US has been the ability to celebrate everyone's festivals or holidays. We have two Christmas trees in our house. Kids feel very involved. We had a great time at the Channukkah Firetruck Parade that passed by our house. \n\nEven during my childhood in India I remember waiting for the ID festival celebrated by my friends who were Muslim because one of the best Biriyani's in the universe gets cooked during this festival. I have prayed in every holy place I have visited or come across. You just have to love people and celebrate with them and enjoy the strengths of each others beliefs and convictions. One caveat however - You could all organize a huge fund raiser just by collecting money from people who don't want to hear me sing \" Jingle Bells\" in public. ;) \n\nOk Jason ! Send the Christmas \"Spirits\" across by UPS ! ",
      "time": "2011-12-24T15:41:02",
      "id": "393682657"
    },
    {
      "threadId": "412255822",
      "post": "SO glad you put the Content Marketing  World 2012 into your post so now Joe has no alternative but have it in Cleveland again. As always it was great to meet the \"Content Rules\" team and many other top thought leaders and friends.",
      "time": "2011-09-12T17:28:43",
      "id": "307968797"
    },
    {
      "threadId": "402771057",
      "post": "I like the Statement of intent , most people have it in their heads and writing it down and making it public Good post on steps to follow, have to send it to friends I know will find this useful and I will bookmark it as well.",
      "time": "2011-09-03T23:17:25",
      "id": "301966927"
    },
    {
      "threadId": "388629246",
      "post": "BTW ! It is Steve Fisher's birthday today.",
      "time": "2011-08-17T17:55:02",
      "id": "289382606"
    },
    {
      "threadId": "388730274",
      "post": "Good Luck ! Leslie. WTG",
      "time": "2011-08-17T15:27:06",
      "id": "289275930"
    },
    {
      "threadId": "349896156",
      "post": "Hi Chris,\n\nI used the option of emailing your post that Blogger offers to send a post to my blog (http://www.shashi.co/2011/07/blogging-from-status-update-i-used.html) The disadvantage is that the email address ( usually secret) appears in public and you ahve to edit it out uickly.\n\nShashi",
      "time": "2011-07-05T15:55:04",
      "id": "242594864"
    },
    {
      "threadId": "340136564",
      "post": "Jon,\n\nI like your advice about entrepreneurs doing home work and making sure they meet the needs of prospective customers. Carol Roth explains that similarly in her book \" The Entrepreneur Equation\" .",
      "time": "2011-06-23T14:41:13",
      "id": "233348641"
    },
    {
      "threadId": "294221146",
      "post": "Too much of anything is usually bad. But more competition is good for innovation and competition and ultimately for the consumer. When the dust settles only the companies with happy users and customers will live on. Having said that you make a good point that till the air clears consumers have the pain of spending too much time to decide where to get the best deal.\n\nMy suggestion to business is to do like the airlines did. Come into our restaurant /place of business and Best deal guaranteed and offer the best coupon they have out there on the day the customer walks in. Not that easy but something to think about.",
      "time": "2011-05-03T16:01:19",
      "id": "196354195"
    },
    {
      "threadId": "280543332",
      "post": "Thanks Jason - The link to the Network Solutions Blog had a extra character so I am taking the liberty of adding the link here http://networksolutions.com/smallbusiness The blog was created not for Network Solutions but for out customers to get news, tips and articles that would help small business success. Glad to have Rieva a Small Business Thought leader and a number of other small business contribute to this blog.",
      "time": "2011-04-18T01:59:30",
      "id": "186680292",
      "parentPost": "If you're looking for \"business\" not \"social media marketing blog which kinda relates to a segment of business\" then I'd vote for Workshifting, (http://workshifting.com) which I read almost daily. I think Network Solution's GrowSmartBiz blog qualifies as well (http://www.networksolutions.com/smallbusiness/). Both are very helpful to business owners, not just Twitter jockeys.\n\n",
      "parentPostTime": "2011-04-18T01:49:49",
      "parentPostId": "186667508"
    },
    {
      "threadId": "234663146",
      "post": "It is a cool video",
      "time": "2011-03-30T01:05:40",
      "id": "174568396"
    },
    {
      "threadId": "259586503",
      "post": "Hi Tony,\n\nI hope your email is working now. We definitely will look at ways to communicate better.\n\nThanks,\n\nShashi",
      "time": "2011-03-22T02:08:30",
      "id": "169322312",
      "parentPost": "Please provide an estimate as to when the email will be working. What kind of of company doesn't have a way to get this information to it's customers and requires you to search Google for the answers. If I had known that Network Solutions was this low tech I would never have I switched my business to this service. I now will be looking elsewhere. 8 hours down regardless of the issue is unacceptable.  ",
      "parentPostTime": "2011-03-21T21:46:29",
      "parentPostId": "169226094"
    },
    {
      "threadId": "255482145",
      "post": "Another point that Matt brought up during his talk was to make the upgrades even easier and seemless. He used Mozilla and Chrome upgrades as a model of making users get the upgrades without noticing any changes. Did you attend the session?",
      "time": "2011-03-16T14:49:35",
      "id": "166617768"
    },
    {
      "threadId": "224734134",
      "post": "Hi Jason,\n\nSince you admire Cloris, you may enjoy watching her in this parody Video that was released during the Super Bowl Weekend.\n\nHttp://networksolutions.com/video.\n\nShashi",
      "time": "2011-02-11T04:27:22",
      "id": "144555959"
    },
    {
      "threadId": "223322762",
      "post": "As always, great post on anti-marketing and Super Bowl ads. And thanks for mentioning our GoGranny campaign. We wanted to give our customers a surprise, a laugh, AND \"show our clear simple value\" - how our services support their small business goals. \n\nI also think you hit an important point toward the end of your post - about many ads being forgotten on Tuesday. We're betting that our ad - distributed primarily via social media - shared from person to person - is more likely to be acted on - than a brief ad seen on TV. ",
      "time": "2011-02-07T04:02:35",
      "id": "141774473"
    },
    {
      "threadId": "222968519",
      "post": "Shelly, glad you liked our online spot & thanks for the post. Cloris is a great comedian and did a great job helping us reach our small biz customers with a bit of humor.",
      "time": "2011-02-06T23:48:23",
      "id": "141714484"
    },
    {
      "threadId": "224017952",
      "post": "Cool David Berkowitz. Great to see you on this panel.. great idea",
      "time": "2011-02-06T23:28:49",
      "id": "141710915"
    },
    {
      "threadId": "223451855",
      "post": "Hi Steve,\n\nThanks for posting and being candid in your review.. We value the viewer's time  yet  we did have the luxury of not being restricted by a TV commercial. Nevertheless we respect your opinion and will keep working on it , bringing a mix of humor and marketing  to achieve business goals not only for ourselves but customers as well..\n\nThank you,\n\nShashi Bellamkonda\n\n",
      "time": "2011-02-05T22:27:46",
      "id": "141400824"
    },
    {
      "threadId": "219736874",
      "post": "Susan this is so timely. yesterday we launched a Network Solutions parody video about Go Daddy commercials #gogranny http://bit.ly/gogranny it is humorous and I hpe the takeaway is for entrepreneurs and small business that you can use new media tools like videos to tell your story. The takeways you gave for each video above were great Appreciate it.\n\nThanks,\n\nShashi",
      "time": "2011-02-05T12:45:41",
      "id": "141219419"
    },
    {
      "threadId": "217389323",
      "post": "Great idea. I have the same experience when I talk to small business on behalf of Network Solutions that there is a great need for bridging the gap. Good luck on ESM. Will be following along your success.\nShashi ",
      "time": "2011-01-31T11:35:19",
      "id": "137576808"
    },
    {
      "threadId": "217789359",
      "post": "I have been using http://hy.ly and for small business I think it s a good start. Hy,ly is anew and upcoming company to look at as well. Great resources.Monika . Thanks",
      "time": "2011-01-28T15:47:51",
      "id": "136013119"
    },
    {
      "threadId": "105914321",
      "post": "Return on investment",
      "time": "2011-01-12T21:43:12",
      "id": "128359693",
      "parentPost": "What is an ROI? ",
      "parentPostTime": "2011-01-07T18:44:59",
      "parentPostId": "125751089"
    },
    {
      "threadId": "202132543",
      "post": "Hi Jan,\n\nGood point , I should have made the purpose of the post clear. We did a trends post for SmallBiztrends.com and wanted to point our readers here to the post http://smallbiztrends.com/2010/12/top-website-and-website-design-trends-for-2011.html as well.\n\nA little updating is due here and next time I will work on making it clear. Hope you will read the original post and give us your feedback as well.\n\nShashi",
      "time": "2011-01-10T15:23:38",
      "id": "126817112",
      "parentPost": "\"Get sales and leads from engaged visitors\".  Hmmm I think I expected more from a blog by Network Solutions. This just seems to be an empty post just to throw links around. Ok, I guess. It's an easy trap to fall into when you can't think of material. But there is so much to talk about! More juicy posts with great content pleeeeeeze Network Solutions?  thanks!",
      "parentPostTime": "2011-01-10T01:21:27",
      "parentPostId": "126654044"
    },
    {
      "threadId": "203272409",
      "post": "A few days ago my friend Heidi Kallett posted this on Facebook\" According to David Kohl, professor emeritus at VT; people who regularly write down their goals earn nine times as much over their lifetimes as the people who don't. And yet, 80% of Americans say they don't have goals. 16% do have goals but don't write them down. Less than 4% write down their goals, and fewer than 1% actually review them on an ongoing basis\"\n\nI am a device geek but my best time has been when I was able to write down goals which mostly were tactic to-do. Your article makes sense for a to-be list which all of us have in our heads but making it a list is a good way to accomplish them. ",
      "time": "2011-01-07T13:57:34",
      "id": "125638664"
    },
    {
      "threadId": "203047561",
      "post": "Excellent list. Patagonia , Caterpillar, Wegman's and Manpower are new and kudos for choosing non-tech list.\nShashi",
      "time": "2011-01-05T17:32:56",
      "id": "124462150"
    },
    {
      "threadId": "190157413",
      "post": "Great post Navin. You can really write ! Must be the coffees and lunches you had with me ;) lol Just kidding . I think you put this in a real simple way. Thanks",
      "time": "2010-12-17T15:52:41",
      "id": "113642553"
    },
    {
      "threadId": "177510193",
      "post": "Thanks Daniel :)",
      "time": "2010-11-23T21:27:25",
      "id": "101380364",
      "parentPost": "Yep Milo, I think the “Interns and a laptop” bit is what’s annoying the Guru’s, which I can understand judging from some social media disasters caused by interns.\n\nhttp://news.sky.com/skynews/Home/Business/Habitat-Twitter-Row-UK-Furniture-Chain-Blame-Intern-For-Using-Iran-To-Promote-Spring-Sale/Article/200906415319105\n \nHere are some social media disasters from people who were slightly more senior \n\nhttp://www.penn-olson.com/2009/09/21/5-social-media-disasters\n\nThis guy got fired for tweeting from his own account\n\nhttp://mashable.com/2009/09/15/cpk-server-fired \n\nIn the mashable article above, It states 8% of US companies have fired employees for social misuse. So why give the most inexperienced (no matter how brilliant) intern control of your online reputation and brand? Seems ludicrous to me.\nUnless they can rap \n\nhttp://mashable.com/2010/06/28/cisco-intern-rap \n\nI met three “Social Media Consultants” at #newspepper last night, they were very nice interesting guys (and girl). The very brief discussion was more about tools for social monitoring, listening online. To start with that made me think they did know what they were talking about and when I listened to some of their previous experience, you know what they didn’t seem at all like this article. Ask the right questions and you can find out a lot, but listening should be the start when employing anyone.\n\nOh and I was going to say the social media swami of 2008 has probably shifted through being a Social Media  guru and a Ninja by now, but NO he is still a social media swami http://twitter.com/shashib (Although understand his comment above about it being a discussion to find an internal job title, that he obviously quite likes http://paper.li/shashib ) At least it’s original!\n\nI do agree there are a load of people out there who haven’t got a clue and that the number of overall people using social media in their title is exploding \n\nhttp://mashable.com/2009/12/27/social-media-experts-twitter \n\nso there will be more of them out there. \n\nI think the common sense bit comes in who you deal with, or allow to manage your online reputation.\n\nAm not sure if the “like minds” was a dig at http://www.wearelikeminds.com but I didn’t see anyone dressed as you described.  I can’t comment on their body odour as I watched via live streaming, but there were a lot of quality speakers with real world examples of how they are using social media successfully that kept me watching . The very event was a great example of the people of Exeter using Social Media to showcase Exeter and its local businesses.\n\nI went to the social media world forum (I know still not sure why), so I do understand that snake oil salesmen always find the new snake oil! Caveat here is I had an exhibition (read free) ticket so maybe all the top notch people were in talking to the people who had paid hundreds of pounds to attend? But one company was talking £20,000 to £40,000 pounds for software to do what I could do with free tools in a couple of hours. I could see them scalping big businesses who just want a solution to present to the board, I think they are more dangerous!\n\nIt just took me back to 2000, where whatever your budget you always needed more to fix the Y2K bug.\n\nThanks for starting a lively debate : )",
      "parentPostTime": "2010-11-23T20:12:39",
      "parentPostId": "101352678"
    },
    {
      "threadId": "170419556",
      "post": "who did this drawing?",
      "time": "2010-11-10T20:13:21",
      "id": "96015846"
    },
    {
      "threadId": "168599741",
      "post": "Thanks kenya. Was great to are you at the conference and thank you for your support \nShashi ",
      "time": "2010-11-07T20:04:29",
      "id": "94817654"
    },
    {
      "threadId": "158254034",
      "post": "Thank you  Matthew",
      "time": "2010-10-27T18:19:32",
      "id": "90812358",
      "parentPost": "Thanks for compiling this info!\r\n@mkilmurry",
      "parentPostTime": "2010-10-19T14:34:58",
      "parentPostId": "88207106"
    },
    {
      "threadId": "107617812",
      "post": "Hi Todd,\n\nWe will make every effort to monitor this page for any customer assistance. For faster Real Person ™ support 24/7 help contact http://bit.ly/nshelp or @netsolcares on Twitter.\n\nThanks,\n\nShashi",
      "time": "2010-10-27T18:16:42",
      "id": "90811655",
      "parentPost": "Link to delete form not working. Any update on its location?",
      "parentPostTime": "2010-10-22T19:15:09",
      "parentPostId": "89225692"
    },
    {
      "threadId": "60142003",
      "post": "Hi JIm,\n\nThanks. We will make every effort to monitor our  for any customer assistance. For faster Real Person ™ support 24/7 help contact http://bit.ly/nshelp or email listen@networksolutions.com",
      "time": "2010-10-27T18:16:05",
      "id": "90811475",
      "parentPost": "I've been trying to ftp some files to my site for the last two hours.  I get 2 files and then I loose the connections and at the same time my site goes down.  I thought network solutions was a big name in the web.  I don't think so any more.",
      "parentPostTime": "2010-10-24T20:29:54",
      "parentPostId": "89685938"
    },
    {
      "threadId": "5420853",
      "post": "The shortcut is to go to the url http://mail.<yourdomainnamehere>",
      "time": "2010-10-01T12:12:03",
      "id": "82926530",
      "parentPost": "Why don't you have short cut for opening our e mail address? ",
      "parentPostTime": "2010-09-23T04:15:06",
      "parentPostId": "80213267"
    },
    {
      "threadId": "138766257",
      "post": "Hi Sue,\n\nI work for Network Solutions, hope we resolved the issue if not pls let me know. I think Chris and you make good points on a company not having any issues and if they do having a great way to resolve them quickly. In a self-service world people do not want to call companies and both the Harvard Business Review and Author Barry Moltz have case studies to validate this.\nOne of the ways that companies can make all customer facing channels better is to learn from each channel and have a process of continued improvement with the goal that the customer can reach us on any channel and have the same quick response experience and fix what seems to be repetitive. We have begun to share the knowledge from our social media interactions to learn why the customer had to call in the first place and hopefully will get better at this.\n\nThanks,\n\nShashi",
      "time": "2010-09-08T01:45:07",
      "id": "75897411",
      "parentPost": "I find that there is a horrible disconnect with large brands who are using social media to do customer service, including Comcast, and just a lack of continuity in customer service in general. I have not been able to get my media card working on my TIVO since I moved over a month ago. Even though I've done all the things Comcast has asked me to do, still not working. I'm so fustrated with how long phone conversations take with Comcast (mostly in the getting to the conversation part) that I've given up for awhile. \n\nTwo weeks ago, my modem went offline. Because I'm a loyal customer and have triple play, that also meant that I had no phone service in addition to no Internet and problems with my cable. After unplugging some things, changing some wires, etc. I finally got the modem to reboot and get service again. Last week, same thing happened. I said something on Twitter and actually got a response, but there was no acknowledgment that this was the 2nd week in a row that this had happened and no real \"help\" other than \"it should be working\". I did a bunch more unplugging and thankfully the modem started working again. \n\nBut, there was no followup to see if things were working. It's a total case of the squeaky wheel getting the grease and as long as you're not squeaking, everything must be okay. \n\nAnd, to not have this be all about Comcast, I've also had similar continuity issues with Network Solutions and other companies. Network Solutions is very responsive on Twitter, but if I call their 1-800 about that same problem, I often have to start from scratch. ",
      "parentPostTime": "2010-09-07T20:51:49",
      "parentPostId": "75814062"
    },
    {
      "threadId": "137933833",
      "post": "Headline seems a little harsh, but thats just my opinion",
      "time": "2010-09-05T23:13:10",
      "id": "75397069"
    },
    {
      "threadId": "129417908",
      "post": "I am a little confused with this. Reason - on Facebook when I see mutual friends it sometimes validates the person because on Facebook the perosn has to take an action to approve. On Twitter anyone can follow you.  I think this is a indication of having the same interests and not much more ",
      "time": "2010-08-14T00:58:59",
      "id": "68626697"
    },
    {
      "threadId": "125252875",
      "post": "thanks Ken for this post. I wanted to add a home grown example of promoting a movie- the Browncoat redemption by a team of ardent fans - see browncoatmovie.com . Steven Fisher presented the case study at the Social Commerce Camp in Feb this year see http://www.slideshare.net/stevenfisher/social-commerce-camp-killer-social-commerce-experience\n\nShashi",
      "time": "2010-08-05T14:34:21",
      "id": "66206909"
    },
    {
      "threadId": "118430564",
      "post": "When I started the Social Media outreach for Network Solutions the employees chose the title \" Social Media Swami\" out of a basket of 34 names. You can see the other titles here http://bit.ly/dqWpNS\nI get a lot of smiles when giving out business cards or when being introduced at speaking engagements. And to the point from David and on the advice of a good friend I always add that that equates to Director - Social Media.\n\nThanks for a good artilce.\n\nShashi Bellamkonda\nSocial Media Swami aka Director - Social Media Strategy",
      "time": "2010-07-19T16:34:00",
      "id": "63209637"
    },
    {
      "threadId": "116657317",
      "post": "Congrats to all the folks in this list. Jeremiah - wathcing this list for the past couple of years i am seeing this list grow and new companies adding community to their teams. Thanks for compiling this list.\n\nShashi",
      "time": "2010-07-11T16:12:15",
      "id": "61568741"
    },
    {
      "threadId": "93354446",
      "post": "Hi Bruce,\n\nThank you for being a Network Solutions customer and sorry for the  issues you and other customers had in the previous weeks. Our conversation channels are on our our blog http://blog.networksolutions.com and on Twitter @netsolcares. It is a interesting concept to make the press release page like a blog and have a conversation there or add the press release to the our blog where conversations already take place. I think your feedback is really valuable and I am happy I could join the conversation on this post.\n\nWill pass along the feedback to my colleagues to see how we can make it more interactive.\n\nThanks,\n\nShashi",
      "time": "2010-05-07T19:02:19",
      "id": "48987298"
    },
    {
      "threadId": "88002476",
      "post": "Love the points you make and the advice to integrate and cross pollinate is spot on. I would suggest you add a recap paragraph with the points laid out as a list to make a plan :)\n\nShashi",
      "time": "2010-04-25T20:55:06",
      "id": "46555473"
    },
    {
      "threadId": "88942350",
      "post": "Hi Jason,\n\nYou may also be familiar with the Small Business Success Index  the University of Maryland & Network Solutions conducted http://growsmartbusiness.com/small-business-success-index-highlights/\n\nResults 24% of SMBs use social media\nUsage doubled in one year ( 12% to 24% )\n47% of those polled were online \n\nAll of us have a role in encouraging Small Business to choose and use new tools to not only explore new business but keep in touch with their existing customers. Also was thrilled by this story I read today \" Small Business the most trusted group in America acc to poll http://bit.ly/9jBs3d\"\n\nGreat work Jason. Keep the coverage of small business coming.\n\nShashi (disclaimer - Jason Falls is a friend )",
      "time": "2010-04-25T15:02:27",
      "id": "46521298"
    },
    {
      "threadId": "86687763",
      "post": "Todd,\r\n\r\nAgree we should be upfront and will be working to improve communications. This issue has several complexities . Please read my email address as shashib at networksolutions dot com .Thanks\r\n\r\nShashi\r\n\r\n\r\n\r\n",
      "time": "2010-04-16T18:08:25",
      "id": "45182806",
      "parentPost": "Thank you for responding and for the apology, of course it was nice meeting you at BP2 as well. FYI Solutions.com is a mail order catalog web site, so I probably won't be contacting you via that website anytime soon. Wordpress? Word Press? WordPress? What's the difference anyway? The upfront communicating with customers part is debatable via the comments on the links at the bottom of this article and I already cited.  As for the two links you embedded, I already linked to them. Tell me something new! Like an in depth analysis and time line of exactly what happened who is responsible, what actions were taken and why it will never happen again...not just blanket statements like \"This issue was a result of a combination of several factors.\" \r\n\r\nWhen an issue goes down with Media Temple I get an in depth 100% transparent explanation via email. What happened, what was the duration one of the down time, all actions taken another person who commented on the NetSol blog cited that too. http://blog.networksolutions.com/2010/update-for-word-press-customers/#comment-44641259 In essence I get real time status updates that tells me what it means and what it means for my client, so we can make more informed decisions based on the situation at hand. Because that did not happen well, we like the rest of the community were left to speculate for a few days, hence all of the \"was it WordPress\" debate. Leaving that speculation door open is not responsible and only breeds more inaccurate information, which we already have enough of on the Internetz.\r\n\r\nWe are looking forward to discontinuing all web hosting with NS, continuing success with providers that can secure their servers and our client's data.",
      "parentPostTime": "2010-04-16T17:52:36",
      "parentPostId": "45180662"
    },
    {
      "threadId": "81493756",
      "post": "I nominate thecorkscrooge.com",
      "time": "2010-04-06T19:55:36",
      "id": "43532374"
    },
    {
      "threadId": "79066902",
      "post": "Hi Chris,\n\nThis is very timely. I am now in email hell with newsletters . I will send this reply as I start unsubscirbing to them.\n\nShashi",
      "time": "2010-03-26T15:13:38",
      "id": "41765418"
    },
    {
      "threadId": "79283667",
      "post": "never mind- I meet you more outside Dc than in DC so nothing will change :) LOL good luck time traveller",
      "time": "2010-03-25T20:35:50",
      "id": "41576860"
    },
    {
      "threadId": "74824972",
      "post": "You said it Cheryl. Thanks",
      "time": "2010-03-22T01:39:32",
      "id": "40985522",
      "parentPost": "Great presentation of some much needed information for small businesses.  Many of those working in the offline world just don't see the need to create a strong presence online but the reasons are becoming more and more apparent every day.\n\nThe relationship (socialationship), is the key and the center of it all.  It takes the effort of making real connections to translate to success online.\n\nThanks Shashi for sharing your presentation!",
      "parentPostTime": "2010-03-12T02:59:15",
      "parentPostId": "39258491"
    },
    {
      "threadId": "77547368",
      "post": "Thanks for your company at Lunch and also for volunteering to take the pics.",
      "time": "2010-03-22T01:34:12",
      "id": "40985091",
      "parentPost": "Shashi, it was a pleasure to meet you.  Thanks for posting the presentation and for the mentions.\n\n-Pedro",
      "parentPostTime": "2010-03-20T05:12:05",
      "parentPostId": "40635305"
    },
    {
      "threadId": "77397621",
      "post": "Hi Rich ,\nI work for Network Solutions and what you have stated in your comment about Network Solutions is not accurate. We are a small business tools provider and our mission is to help small business succeed online. We have tools for web hosting, ecommerce, online marketing and help our customers in many channels including Twitter as @netsolcares. We have been tracking Small Business succes through our research with partners University of Maryland. i would urge you to visit http://growsmartbusiness.com and see the latest results. \n\nDavid,\n\nDomain registrars are between a rock and a hard place with renewals. Customers do compamint hat they were not notified and others that they have been notified too many times.  Domain names are very important for a brand/business and we make every effort to ensure our customers have continuity.Renewal notices very essential and we communicate well in advance\" and encourage customers to auto-renew their domain names.  We offer Wordpress as part of our hosting and also have a exclusive one click install Wordpress package.\n\nThe point I am making here is that we advice customers to compare and choose their service provider and we will to be their first choice with stability, good service and quality products. Obviously you are  a customer and I hope you will give us your feedback directly. You can send me an email at listen <at> network solutions.com.\n\nAs the listening post for Network Solutions the Social media team is on the look out to help customers and sometimes like this instance clarify the facts.\n\nThanks,\n\nShashi Bellamkonda\n\n\n\n",
      "time": "2010-03-20T01:21:04",
      "id": "40618610"
    },
    {
      "threadId": "70470893",
      "post": "Hi Adam,\r\n\r\nAt Network Solutions we are doing the business unit / audience approach @netsolcares (support) @nsoffers (product offers) @nscareers (experiment) @growsmartbiz ( small Business resources) @wgbiz (women entrepreneurs) . Your post has got me thinking on a plan to do both one and two above. Thanks.\r\n\r\nShashi",
      "time": "2010-03-05T20:13:12",
      "id": "38213233"
    },
    {
      "threadId": "71818610",
      "post": "Thanks Jennifer for posting this. Great to see folks posting their experience and success stories in Social Media in the comments section as well. I work for Network Solutions a partner of the University of Maryland for this study and I would love to hear from anyone who wants to share their social media success with me. ( email : smedia at networksolutions.com).If you would like to take a look at the entire study it is available at http://growsmartbusiness.com/small-business-success-index-highlights/ \n\nThanks,\n\nShashi",
      "time": "2010-03-03T23:11:30",
      "id": "37871584"
    },
    {
      "threadId": "70318636",
      "post": "Congrats ! Brian. I am looking forward to getting the book I ordered soon and will review it",
      "time": "2010-02-27T16:50:57",
      "id": "37240666"
    },
    {
      "threadId": "67367434",
      "post": "Hi Rick! Thanks for sharing the survey results from the SBSI Wave 3 with your readers. We are also hosting a Tweet Chat on Feb. 23 from 8-10pm EST on #SBBUZZ to discuss more about social media and small business usage.  We hope you and your readers will join us! Best, Shashi",
      "time": "2010-02-16T22:06:10",
      "id": "34782784"
    },
    {
      "threadId": "67370035",
      "post": "Hi Itamar, I am Shashi Bellamkonda from Network Solutions. Thank you for sharing the Small Business Success Index  with your readers. We hope you’ll join us for the Tweet Chat on Feb. 23!",
      "time": "2010-02-16T22:05:32",
      "id": "34782730"
    },
    {
      "threadId": "65992478",
      "post": "Thanks Joel for giving me a shout out in this post. : Cheers !",
      "time": "2010-02-11T19:46:06",
      "id": "33914337"
    },
    {
      "threadId": "8081661",
      "post": "Hi Joby,\n\nThanks for your question. Our social media strategy did not begin as a result of any loss of sales but more as a extension of taking care of customers in channels beyond traditional  methods. When we started what surprised us was that the ratio of negative to positive was so high online even though we won several customer service awards and had good customer satisfaction scores.\n Now after putting a social media program in place we find more customer evangelists on places like Twitter, Facebook etc recommending us. We are stlll maintaining a great positive to negative ratio . See an update to our program http://bit.ly/6DY8dE and we hope to persuade Jason to have maybe a year later post :) We have conversations everyday with customers using @netsolcares and we started a channel for coupons and offers @nsoffers. We are not in the scale of Dell but we have made a beginning in social channels. ",
      "time": "2010-02-03T21:12:45",
      "id": "32529479"
    },
    {
      "threadId": "63041163",
      "post": "I will start reading again :)",
      "time": "2010-02-01T03:05:27",
      "id": "32255582"
    },
    {
      "threadId": "61287422",
      "post": "Wow ! A singer tweeting in our midst. Thanks Kate for the great job you are doing and good luck with your music creation. Your team has been phonomenal in Network Solutions connecting with our customers on social media channels. Kudos to all of you .\n\nShashi",
      "time": "2010-01-26T14:09:22",
      "id": "31374742"
    },
    {
      "threadId": "59318357",
      "post": "HI folks,\r\n\r\nThanks for commenting here, we will updats as soon as we have more information.\r\n\r\n",
      "time": "2010-01-18T19:18:39",
      "id": "30260087"
    },
    {
      "threadId": "58456576",
      "post": "I think the CEO of ZAppos once said that they like a little bit of weird in their new hires and its tought od efine .. is there a weirdness meter anywhere ? I bet there is a iPhone app ",
      "time": "2010-01-15T20:22:52",
      "id": "29996212"
    },
    {
      "threadId": "58196220",
      "post": "Steve,\r\n\r\nGood post and I almost feel like we should revisit this every 6 months, at what point will you consider buying me lunch 6/10, 5/10 or 3/10 of course if you hit all 10 lunch is on me ....;) Thanks for spending time and posting this\r\n\r\nShashi",
      "time": "2010-01-13T14:01:46",
      "id": "29625992"
    },
    {
      "threadId": "56301938",
      "post": "Hi Kip,\r\n\r\nIt was great to meet you too at SoFresh and I am now back at work.\r\n\r\nShashi",
      "time": "2010-01-12T13:34:57",
      "id": "29489286"
    },
    {
      "threadId": "56428478",
      "post": "Yeah ! Will watch you the whole of 2010 to see if you can influence the world to make your predictions come true :) Just kidding\r\n\r\nShashi",
      "time": "2010-01-07T23:00:54",
      "id": "28841736"
    },
    {
      "threadId": "46182863",
      "post": "Hi Sten,\r\n\r\nThank you for posting the comment here. I will pass on your feedback to the product team and if you have any urgent support need you can contact the network Solutions support team at http://networksolutions.com/support/ .\r\n\r\nThanks,\r\n\r\nShashi",
      "time": "2009-12-16T02:15:02",
      "id": "25914863"
    },
    {
      "threadId": "48345751",
      "post": "Hi Jeremy, glad you could join the GrowSmartBiz conference virtually! I wasn’t aware of Reed’s Law but you are right, we definitely try to extend the life cycle of an event by taking it social. \r\nAfter we are learning a lot from experts like you and others in the community.\r\n\r\nRegards,\r\n\r\nShashi",
      "time": "2009-11-30T19:58:32",
      "id": "24359534"
    },
    {
      "threadId": "48582834",
      "post": "Congrats ! Rana - fantastic opp and cannot wait to read the book. one of the ppes I think may be worth talking to is Barg Upender of mobomo.com and you probably know him already",
      "time": "2009-11-30T02:57:04",
      "id": "24312558"
    },
    {
      "threadId": "32890028",
      "post": "If you visit GrowSmartBusiness.com you will find that Small Businesses have rated themselves on the competitive features for their business. The Theme of GrowSmart Business is to have experts come in and provide the small business with tips on topics like business growth despite the current economy. We want the small businesses to network and learn from the event. I am glad we partnered with a lot of local chambers, organizations like SCORE etc to provide the expertise necessary for making the conference a success.\r\n\r\nThanks,\r\n\r\nShashi",
      "time": "2009-09-06T17:23:10",
      "id": "16065091"
    },
    {
      "threadId": "32535955",
      "post": "Steve,\r\n\r\nI love this tip:\r\n“Automated DMs aren’t worth sending. If you won’t invest a few seconds to compose a 140-character message I don’t want to invest 5 seconds reading it.”\r\n\r\nShashi",
      "time": "2009-09-03T15:32:57",
      "id": "15885609"
    },
    {
      "threadId": "31912593",
      "post": "HI Joe,\r\n\r\nIf I had known that there were T-Shirts at the Google meet-up you might have found me there too :) . All jokes aside it was intersting that companies are coming forward and doing grass roots events. I was part of one for the UnintentionalEntrepreneur.com and loved it. I could not make it since I just got back from #gnomedex and #tbash.\r\n\r\nGreat recap thanks.\r\n\r\nShashi",
      "time": "2009-08-31T18:19:35",
      "id": "15660495"
    },
    {
      "threadId": "31228285",
      "post": "Do I know the guy in the hat ?",
      "time": "2009-08-27T18:29:13",
      "id": "15481144"
    },
    {
      "threadId": "28034257",
      "post": "Hi Brian and Ken,\r\n\r\nBrian your advice is spot on and  I  engaged with the person as he was tweeting the same thing to anyone who retweeted this , I just told him the steps Network Solutions was taking to address the issue and I think he just gave up his campaign :)\r\n\r\nNot sure if I agree with attacking everyone who retweets something from their friends or acquaintances and i am sure you do not too. I think the engagement should be on the post that was being retweeted. \r\n\r\nI know I have a lot to learn and everyday is a learning experience.\r\n\r\nThanks,\r\n\r\nShashi\r\n\r\n\r\n\r\n\r\n",
      "time": "2009-08-03T18:34:01",
      "id": "13844884"
    },
    {
      "threadId": "20475309",
      "post": "Jimmy, \r\n\r\nThanks for the mention and I am looking forward to the very first Twitter worldwide tour and excited to see such an impressive lineup of speakers. A must-attend event for anyone who wants to learn how to leverage the power of Twitter for corporate communications.  \r\n\r\nHope we can meet locally sometime soon.\r\n\r\nShashi",
      "time": "2009-06-05T20:08:07",
      "id": "10532167"
    },
    {
      "threadId": "17124248",
      "post": "Hi ken,\r\n\r\nThanks for this post. it was great to meet you in San Francisco and introduce you to Indian food:).\r\n\r\nShashi",
      "time": "2009-05-05T16:39:43",
      "id": "9017038"
    },
    {
      "threadId": "16017832",
      "post": "Hi Jimmy,\r\n\r\nThank you for the post. We are hoping that our Small Business guests on this webinar will inspire other small businesses with their tips for success espeically in this economy. I appreciate your help and encouragement. \r\n\r\nThanks,\r\n\r\nShashi",
      "time": "2009-04-17T22:12:00",
      "id": "8309242"
    },
    {
      "threadId": "15486727",
      "post": "Welcome Mike \"wikedjava\" Dougherty  ! Looking forward to your shared insights in the world of Small Business.\r\n\r\nShashi",
      "time": "2009-04-10T13:50:05",
      "id": "8053101"
    },
    {
      "threadId": "14272994",
      "post": "Hi Jill,\r\n\r\nIt was a great event and as usual I practiced my photography skills http://cli.gs/ZNBuP0 . I am looking forward to the next DC Media Makers event. Foe everyone who attended this is the link to the Linkedin Question about promoting a Facebook group http://cli.gs/RbGYXv\r\n\r\nBest,\r\n\r\nShashi",
      "time": "2009-03-27T20:23:50",
      "id": "7570012"
    },
    {
      "threadId": "13485363",
      "post": "Hi Joe,\r\n\r\nI missed this event and your post made me catch up. I met Dave Evans later and have read his book and its a great reference for any one who wants to engage in the Social media professionally.\r\n\r\nRegards,\r\n\r\nShashi",
      "time": "2009-03-11T22:23:37",
      "id": "7113341"
    },
    {
      "threadId": "11258730",
      "post": "Hi Joe,\r\n\r\nThe words \"Good name\" reminded me of my childhood in India where at that time the polite way to ask a person his.her name was - \"What is your good name?\" LOl\r\n\r\nShashi",
      "time": "2009-02-07T16:18:54",
      "id": "6068491"
    },
    {
      "threadId": "9218049",
      "post": "Hi Steve A and Margie,\r\n\r\nThanks for your candid feedback. I appreciate that very much and it is ultimately what our readers tell us that is important for the growth of this blog. Point well taken. Please  give us more feedback as we feel our way through providing a meaningful dialogue on this blog.\r\n\r\nThanks,\r\n\r\nShashi Bellamkonda\r\nSocial Media Swami , Network Solutions",
      "time": "2009-01-06T17:04:53",
      "id": "4934938",
      "parentPost": "I have no idea what this blog is trying to achieve. Practical business advice would be a lot more useful to Network Solutions' customers than this unfortunate collection of random articles and back-slapping posts from the blognorati.\r\n\r\nThis post is a great example of this. How does the help a business owner?:\r\n\r\n\"When I used to live in “cubicle land” many co-workers had some really bad attitudes. Many acted as if management should appreciate the fact that they showed up and graced the office with their presence.\r\n\r\nMany of those people have probably gotten a shock to their system over the last few years and if it hasn’t hit them yet, it soon will. And oh yeah, a paycheck is a thing you get for actually doing work and you should appreciate the fact you have a job and can have the kind of life you do.\"\r\n\r\nIt is totally ridiculous drivel that should be reserved for this person's PERSONAL blog, not a respectable company site.\r\n\r\nAnd the little spat in the comments is just a further example of ego-boosting. Totally out of place.\r\n\r\nSorry to rant, Network Solutions, but you really need to reign in whoever is responsible for this blog. It is doing you no favors. I wholeheartedly agree that companies should have  a conversation with their customers via a blog, but providing a playground for egos??\r\n\r\nI almost never comment on company blogs, but this one has got me going!",
      "parentPostTime": "2009-01-03T04:24:11",
      "parentPostId": "4858906"
    },
    {
      "threadId": "8388951",
      "post": "Hi Tojosan,\r\n\r\nThanks for the post on Bar Camp St Louis. I am glad Network Solutions could help.\r\n\r\nRegards,\r\n\r\nShashi",
      "time": "2008-12-16T00:48:56",
      "id": "4419182"
    },
    {
      "threadId": "8207309",
      "post": "Joe,\r\n\r\nare you sure the title is right? I was wondering if it ever corssed your mind to name this post Fake Your Way to Being a Social Media Swami :). Great post.\r\n\r\nThanks,\r\n\r\nShashi",
      "time": "2008-12-10T23:51:53",
      "id": "4318809"
    },
    {
      "threadId": "7983712",
      "post": "Hi Ken,\r\n\r\nThis is what i was looking for this morning as I was explaining Social bookmarking to a friend. I think I will send him the link. Excellent job.\r\n\r\nThanks,\r\n\r\nShashi",
      "time": "2008-12-05T19:24:27",
      "id": "4208173"
    },
    {
      "threadId": "6367376",
      "post": "Hi Ned,\r\n\r\nThanks for your feedback. I passed it on my friends in the product group and will add it to our customer voice  .http://bpmforms.networksolutions.com/customer-feedback.html All employees are encouraged to look at customer feedback everyday. \r\n\r\nThanks,\r\n\r\nShashi Bellamkonda\r\nNetwork Solutions",
      "time": "2008-12-04T21:38:39",
      "id": "4174914"
    },
    {
      "threadId": "7819612",
      "post": "Hi Joe,\r\n\r\nLoved the post and now can you tell me where the venture caplitalists are so I can talk to them too :) Just kidding \r\n\r\nShashi",
      "time": "2008-12-03T19:13:57",
      "id": "4152470"
    },
    {
      "threadId": "7516790",
      "post": "Hi Linda ,\r\n\r\nWe took the top sites from Masahable's list of Black Friday sites. If there are any top deals sites that we missed I think commenting here or sending an email to smedia at networksolutions dot com will get the message to us.\r\n\r\nRegards,\r\n\r\nShashi",
      "time": "2008-11-25T23:10:30",
      "id": "4014153",
      "parentPost": "Good idea.\r\n\r\nIf a site wants their Black Friday sale linked to from the widget, aside from \"tweeting\" it, what do they need to do to be considered for inclusion?",
      "parentPostTime": "2008-11-25T22:16:30",
      "parentPostId": "4013333"
    },
    {
      "threadId": "7393388",
      "post": "Hi Paisano,\r\n\r\nI like this feature, now I have to have a personal algorithm so that all that I post does not become duplicate - twitter to Flickr, flickr to facebook, friendfeed to twitter, flickr to friendfeed to twitter - god i thin k I created a monster ;) Great post.",
      "time": "2008-11-22T18:15:32",
      "id": "3955387"
    },
    {
      "threadId": "6408308",
      "post": "To be safe I would advixse you to change your account password and security info.\r\n\r\nThanks,\r\n\r\nShashi",
      "time": "2008-11-01T22:51:10",
      "id": "3435340",
      "parentPost": "I received several versions of the fake Network Solutions email - I clicked on the bogus link - it took me to a Google/Dell site - I gave no information - do I need to be concerned?",
      "parentPostTime": "2008-10-31T20:35:32",
      "parentPostId": "3423110"
    },
    {
      "threadId": "6471590",
      "post": "Hi Paul,\r\n\r\nWe have a another post here that has links to resources and more details http://blog.networksolutions.com/2008/phishing-alert-please-watch-for-this-email/ . Let us know if you have any other questions.\r\n\r\nThanks,\r\n\r\nShashi",
      "time": "2008-10-31T20:55:19",
      "id": "3423376",
      "parentPost": "Please do not ask me to come to the blog to see identical information sent to my email. No additional value for my time",
      "parentPostTime": "2008-10-31T20:00:10",
      "parentPostId": "3422519"
    },
    {
      "threadId": "6398726",
      "post": "Got it, I will find the entire transcript and update this post. thanks all.",
      "time": "2008-10-29T19:23:26",
      "id": "3367940"
    },
    {
      "threadId": "6273236",
      "post": "Hi Scott,\r\n\r\nIt is always good to meet you and Blog World Expo is another example. Thank you for participating and helping us spread the word about the Solutions Star Video conference tomorrow Oct 29th. We are excited with the help we received from experts like yourself to talk about how Small Business can use new media and tools. The commitment as Network Solutions Social Media Swami is to earn Karma points for Network Solutions by enabling a conversation between the experts and small business.\r\n\r\nCheers!\r\n\r\nShashi Bellamkonda\r\n\r\nSocial Media Swami | Network Solutions\r\nsmedia@networksolutions.com",
      "time": "2008-10-28T16:27:33",
      "id": "3344052"
    },
    {
      "threadId": "6337553",
      "post": "Hi Jane,\r\n\r\nThanks for your help in spreading the word. It was exciting working with you and Oovoo. We are excited with the help we received from experts to talk about how Small Business can use new media and tools. the commitment as Network Solutions Social Media Swami is to earn Karma points for Network Solutions by enabling a conversation between the experts and small business.\r\nCheers!\r\n\r\nShashi bellamkonda\r\nSocial Media Swami | Network Solutions\r\nhttp://blog.networksolutions.com",
      "time": "2008-10-28T13:59:55",
      "id": "3341616"
    },
    {
      "threadId": "6347355",
      "post": "Hi Diane,\r\n\r\nYou bring up a good point . Yes we have been using private communities like Communispace for a long time which got mentioned in the book GroundSell by Charlene Li and Josh Bernoff. That has been very valuable for us in terms of user interaction.\r\n\r\nShashi",
      "time": "2008-10-28T12:46:02",
      "id": "3340790",
      "parentPost": "Don't forget your private communities!  I hope all is well, Shashi.",
      "parentPostTime": "2008-10-28T12:19:12",
      "parentPostId": "3340535"
    },
    {
      "threadId": "6184225",
      "post": "Hi ken,\r\n\r\nThanks for the post. I am excited by this and want the advice from the experts to reach as many small  business as possible. Appreciate your help in spreading the word through your blog.\r\n\r\nThanks,\r\n\r\nShashi",
      "time": "2008-10-24T19:12:18",
      "id": "3280337"
    },
    {
      "threadId": "5732864",
      "post": "Hi Brian,\r\nThanks for catching that its fixed now. \r\n\r\nShashi\r\n\r\n\r\n",
      "time": "2008-10-17T06:21:14",
      "id": "3107955"
    },
    {
      "threadId": "5511171",
      "post": "Hi Lara,\r\nI enjoyed meeting you at the Blog World Expo and it almost seems like we were destined to meet and have this interview. Wish you good luck with your business and it seems like you should list yourself at http://www.linktogether.com sa you can expand your business.\r\nHi Darren,\r\n\r\nHonored to have your comment and corrected the spelling . I am impressed at your Google aleets including mispellings too.\r\n\r\nBest,\r\n\r\nShashi",
      "time": "2008-10-09T03:38:06",
      "id": "2956482"
    },
    {
      "threadId": "5531952",
      "post": "Hi Lisa,\r\n\r\nI almost jumped from my chair and almost danced with joy at being mentioned on your podcast :).\r\nShawn Collins organized a great conference and I  learnt a lot from all the panels inclouding mine. \r\nOne trick I have is ,I always travel with a 20 slide presentation just in case any conference needs a last minute replacement :) I have used it once .\r\n\r\nThanks,\r\n\r\nShashi",
      "time": "2008-10-08T22:37:26",
      "id": "2948065"
    },
    {
      "threadId": "5420326",
      "post": "Hi Connie,\r\nLooking forward to more posts in this series.\r\n\r\nShashi\r\n\r\n\r\n",
      "time": "2008-10-06T14:58:32",
      "id": "2893206"
    },
    {
      "threadId": "2029707",
      "post": "Thanks for the recap. I wish I had been there .  I am glad you met Champ Mitchell",
      "time": "2008-07-20T03:47:22",
      "id": "946921"
    },
    {
      "threadId": "1504221",
      "post": "Jake:  I assure you that Network Solutions is absolutely committed to building communities online, particularly within the small business and web developer markets.  Marketers often get over excited about data, but people are what drive communities and businesses, alike. We know that, and plan on expanding our efforts to better embrace our fellow community members.\r\n\r\n \r\n\r\nThanks for this excellent post.\r\n\r\n \r\n\r\nShashiB at Network Solutions\r\n",
      "time": "2008-06-30T19:52:53",
      "id": "783994"
    },
    {
      "threadId": "1142810",
      "post": "Thanks for taking this video and for live blogging the event",
      "time": "2008-06-11T03:19:52",
      "id": "634776"
    },
    {
      "threadId": "1058318",
      "post": "Jimmy,\r\n\r\nThanks for coming and creating all this media. This will keep the show alive for people to see specially those who missed the show due to the weather. I have compiled all the blog posts and media here http://solutionsarepower.com/2008/reviews-and-buzz-about-networking-event-with-rohit-bhargava-and-jonnys-partay-by-network-solutions/\r\n\r\nThanks,\r\n\r\nShashi",
      "time": "2008-06-07T05:13:43",
      "id": "612702"
    },
    {
      "threadId": "498171",
      "post": "Hi kenneth,\r\n\r\nThanks for taking this wonderful video. I had a great audience and some experts among the audience who kept me straight. Why would anyone say \" homerun\" for a football game except me :)\r\n\r\nShashi",
      "time": "2008-04-20T19:09:54",
      "id": "358233"
    }
  ],
  "profileInfo": {
    "username": "Shashib",
    "about": "The Social Media \"Swami\" & Chief Marketing Officer for Surefiresocial.com.  Adjunct Marketing professor at Georgetown University. Smiles are free but priceless. ",
    "name": "Shashib",
    "disable3rdPartyTrackers": false,
    "isPowerContributor": false,
    "isAnonymous": false,
    "rep": 1.33733,
    "profileUrl": "https://disqus.com/by/Shashib/",
    "url": "http://www.shashi.co/",
    "reputation": 1.33733,
    "location": "Washington DC , MD , VA USA",
    "isPrivate": false,
    "signedUrl": "http://disq.us/?url=http%3A%2F%2Fwww.shashi.co%2F&key=4SmB5iHuARyYuLhlJdsQEQ",
    "isPrimary": true,
    "joinedAt": "2008-06-30T19:52:53",
    "id": "53489",
    "avatar": {
      "small": {
        "permalink": "https://disqus.com/api/users/avatars/Shashib.jpg",
        "cache": "//a.disquscdn.com/uploads/users/5/3489/avatar32.jpg?1281549414"
      },
      "isCustom": true,
      "permalink": "https://disqus.com/api/users/avatars/Shashib.jpg",
      "cache": "//a.disquscdn.com/uploads/users/5/3489/avatar92.jpg?1281549414",
      "large": {
        "permalink": "https://disqus.com/api/users/avatars/Shashib.jpg",
        "cache": "//a.disquscdn.com/uploads/users/5/3489/avatar92.jpg?1281549414"
      }
    }
  }
}