{
  "comments": [
    {
      "threadId": "4892391089",
      "post": "Welcome back to blogging, and welcome to Earth, baby Madeline! (I love the name choice--as a Dot married to a Jake, I feel compelled to tell you that my little sister's name is Madeline. The twinning continues!)",
      "time": "2016-06-08T18:38:11",
      "id": "2719244194"
    },
    {
      "threadId": "4096242859",
      "post": "Thank you for writing this review! I've been planning to buy this bag for myself when my birthday rolls around in a few months--glad to know it's as spacious as I was hoping it would be!",
      "time": "2015-09-04T12:30:52",
      "id": "2235689210"
    },
    {
      "threadId": "3862112689",
      "post": "This is why your blog is my favorite. Let me know if you'd ever want to write a short essay for 1:1000. You're hilarious and brilliant, and most people can't manage both of those things at the same time. (Plus, your outfit is great, duh. KENDI SKEEN = A TRIPLE THREAT.)",
      "time": "2015-06-19T15:44:15",
      "id": "2088085738"
    },
    {
      "threadId": "3503659259",
      "post": "YESS. And that's okay. I only feel the need to \"define the relationship\" with my work clothes.",
      "time": "2015-02-10T19:38:47",
      "id": "1846196135",
      "parentPost": "'it's complicated' jeans.",
      "parentPostTime": "2015-02-10T19:36:03",
      "parentPostId": "1846191167"
    },
    {
      "threadId": "3280209706",
      "post": "Hey lady--FYI--the Madewell leather goods aren't actually part of their Cyber Monday promo. Boooo. Learned this the hard way when I tried to buy a transport tote for my sister. Sale fail.",
      "time": "2014-12-01T18:36:25",
      "id": "1720612616"
    },
    {
      "threadId": "3191368940",
      "post": "One billion congrats on West & Lou! It is just gorgeous.",
      "time": "2014-11-04T18:30:08",
      "id": "1676213003"
    },
    {
      "threadId": "2294027070",
      "post": "Pro packer, right here, except that I never have the right coat. The most crucial little thing I do is have a morning cup of tea. I used to be so rushed in the morning that tea seemed like it'd take too much time, but without it I'm cranky. Making time for tea means I'm caffeinated and have a few minutes' peace in the mornings! And that, certainly, goes a long way!",
      "time": "2014-02-20T15:56:39",
      "id": "1253330372"
    },
    {
      "threadId": "1186546525",
      "post": "Girl. You look so good. Come to DC and teach me how to do my hair.",
      "time": "2013-04-04T16:28:31",
      "id": "852017339"
    },
    {
      "threadId": "1055830159",
      "post": "Kendi. You are killin' it. ",
      "time": "2013-01-31T13:08:27",
      "id": "784415737"
    },
    {
      "threadId": "997051141",
      "post": " A gorgeous year! Well done. Happy 2013, Kendi!",
      "time": "2012-12-30T03:04:48",
      "id": "751155218"
    },
    {
      "threadId": "838269175",
      "post": "Love Marshall's (& your blog). Following via Google reader!",
      "time": "2012-09-10T13:29:10",
      "id": "645802580"
    },
    {
      "threadId": "813346701",
      "post": "Those pants. Kicking myself for not buying those pants. Ugh. You look too cute.  ",
      "time": "2012-08-21T16:47:39",
      "id": "624985505"
    },
    {
      "threadId": "809288642",
      "post": "Lurve the bright white statement necklace (that's the one you're wearing, right)? Following the blog via Google Reader. Happy weekend, Kendi! ",
      "time": "2012-08-18T01:00:32",
      "id": "622419396"
    },
    {
      "threadId": "800213322",
      "post": "Girl. That top is killer. Nice parking garage, too. ;) ",
      "time": "2012-08-10T15:01:39",
      "id": "615636276"
    },
    {
      "threadId": "773046062",
      "post": "Ooh, this couldn't be cuter! ",
      "time": "2012-07-20T12:26:26",
      "id": "593113165"
    },
    {
      "threadId": "724499474",
      "post": "Wish list! Or: How Many Pink Things Can Dot Put on One Page. http://www.beso.com/users/dotdberg/collections/b0a6920c-3114-4c40-87d7-96dc15c0126f",
      "time": "2012-06-13T17:12:06",
      "id": "556393233"
    },
    {
      "threadId": "672995786",
      "post": "So cute! Um, also, you should move to DC. We have museums here, apparently. ;) ",
      "time": "2012-05-03T10:02:45",
      "id": "517491325"
    },
    {
      "threadId": "666867661",
      "post": "This is so lovely! Congratulations on your etsy venture. I'm a huge fan of your drawings. Were I to be so lucky, I'd love to win a Custom Lovebirds Portrait Illustration of Mr. Husband and myself! \n\ndorothy.dannenberg at gmail dot com.",
      "time": "2012-04-28T01:18:05",
      "id": "512481600"
    },
    {
      "threadId": "462608733",
      "post": "Can't wait to read your continued thoughts on British vs. American poetry! I spent a year at Oxford in undergrad, after being steeped and only educated in the American narrative style. Needless to say, I learned form and experimented a lot. I still haven't read David St. John's American Hybrid anthology, but I imagine it would crush the two traditions together as well as anything. \n\nBest of luck at your bonfire! Is it Guy Fawkes week? ",
      "time": "2011-11-05T14:25:53",
      "id": "356491209"
    },
    {
      "threadId": "455783461",
      "post": "Well said. Petition signed. ",
      "time": "2011-10-28T23:58:57",
      "id": "348548499"
    },
    {
      "threadId": "417040824",
      "post": "Nom nom nom. Send me the recipe for Grandmom's brown rice, would you?",
      "time": "2011-09-17T16:00:46",
      "id": "313861962"
    },
    {
      "threadId": "412098213",
      "post": "Thanks for the follow over on Go Chic or Go Home--I need to do a better job posting things over there. Found your blog from your profile, and am in love. Your style is perfection. \n\nAlso, weird--my name's Dot, and my husband's name is Jake. Parallel universe? ;)",
      "time": "2011-09-12T14:00:56",
      "id": "307835236"
    },
    {
      "threadId": "405742421",
      "post": "I don't know what a polenta is, I won't lie.",
      "time": "2011-09-06T00:55:56",
      "id": "303233521"
    },
    {
      "threadId": "400973460",
      "post": "Such a lovely picture. Wish I could be spending my time reading right now! I majored in English (creative writing) with a useless minor in communications that I picked up because it had cross-over classes with the creative writing department. I admire your persistence with the education minor--I was going to do that, but decided to go to Oxford for a year instead. And now I just finished my MFA in Poetry. Hoorah! What are your after-school plans? ",
      "time": "2011-08-31T15:10:37",
      "id": "299615176"
    },
    {
      "threadId": "377943103",
      "post": "Happy birthday! I shall take a nap in your honor!",
      "time": "2011-08-05T15:48:51",
      "id": "278385028",
      "parentPost": "Glad to hear your first day went well, friend (though I'm awful sorry about the needles)! Please feel free to use my birthday as an excuse to do nothing on Sunday. ",
      "parentPostTime": "2011-08-05T14:58:35",
      "parentPostId": "278357519"
    },
    {
      "threadId": "377993688",
      "post": "Sometimes I feel like we might have been separated at birth, in a totally non-creepy, style-and-taste-and-literature-centric way. ",
      "time": "2011-08-05T14:21:08",
      "id": "278337752"
    },
    {
      "threadId": "550416104",
      "post": "I rather like the envelope folder by SZ collection. Sleek & classy!",
      "time": "2011-08-03T16:25:32",
      "id": "276171337"
    },
    {
      "threadId": "373406187",
      "post": "Congrats on grad school admission! You'll love Savannah. It's such a cool town. ",
      "time": "2011-07-31T15:30:07",
      "id": "270700010"
    },
    {
      "threadId": "371803945",
      "post": "YES and YES.",
      "time": "2011-07-29T14:17:17",
      "id": "268689205",
      "parentPost": "We should satchel-shop on Sunday. We're big time professors now, time to look the part!\n\nAlso--those dresses would be dreamy on bridesmaids, don't you think? They're lovely!",
      "parentPostTime": "2011-07-29T13:20:06",
      "parentPostId": "268655610"
    },
    {
      "threadId": "364559185",
      "post": "Oh, I'm so glad you're going to post in English now! I love your outfits and the photography, but I am tragically limited to one language. Thanks!",
      "time": "2011-07-21T20:22:23",
      "id": "259913080"
    },
    {
      "threadId": "364262772",
      "post": "Haha, thanks for stopping by, Emily! ",
      "time": "2011-07-21T14:47:33",
      "id": "259668159",
      "parentPost": "The description for yourself is by far my favorite. Love tuning in :)",
      "parentPostTime": "2011-07-21T13:26:51",
      "parentPostId": "259599864"
    },
    {
      "threadId": "361339727",
      "post": "I have not read this Flying Troutmans book...must add to wishlist...",
      "time": "2011-07-18T18:31:57",
      "id": "256223077",
      "parentPost": "That child is the human equivalent of Mr. Snugglesworth, the \"I Hate Everything\" kitty (which I've noticed is now your Gchat profile picture). I love it. And I'm sorry you're feeling the Monday pissed-off-edness. Have you read The Flying Troutmans by Miriam Toews? That novel, I can almost guarantee, you will love.",
      "parentPostTime": "2011-07-18T16:23:47",
      "parentPostId": "256103542"
    },
    {
      "threadId": "361621026",
      "post": "You are too sweet! I spotted a few (albeit slightly disappointing) alternatives over at Ye Olde Forever 21. This one (http://www.forever21.com/product.asp?catalog_name=FOREVER21&category_name=acc_bracelet&product_id=1076808187&Page=all&pgcount=25) and this one (http://www.forever21.com/product.asp?catalog_name=FOREVER21&category_name=acc_bracelet&product_id=1076807659&Page=all&pgcount=25) are similar, and for something entirely different, I like this set: http://www.forever21.com/product.asp?catalog_name=FOREVER21&category_name=acc_bracelet&product_id=1000017482&Page=all&pgcount=25\n\nHappy hunting!",
      "time": "2011-07-18T17:43:37",
      "id": "256158060"
    },
    {
      "threadId": "358293850",
      "post": "After being teased and taunted for years, I got my license at the age of 23. And I still hate driving, especially on the interstate. Best of luck to you--hope you're not as neurotic and anxious as I am behind the wheel!",
      "time": "2011-07-14T13:35:59",
      "id": "252009813"
    },
    {
      "threadId": "356608698",
      "post": "Oh wow, I was JUST about to check if Netflix has You've Got Mail--between that and When Harry Met Sally, no romantic comedy can compete!",
      "time": "2011-07-12T20:18:02",
      "id": "249680718"
    },
    {
      "threadId": "355220337",
      "post": "Wouldn't that be the best? Your garden is beautiful! Just last week my mom and I were drooling over the remembrance of that caprese salad you made us. ",
      "time": "2011-07-11T20:14:06",
      "id": "247925628",
      "parentPost": "I wish you lived closer - I'd just dig some herbs up and give them to you! Also, lettuce tends to like cooler weather, but since you're doing seeds, you'll probably be fine - they'll be maturing around the time it cools off. ",
      "parentPostTime": "2011-07-11T19:42:18",
      "parentPostId": "247881089"
    },
    {
      "threadId": "354700207",
      "post": "My \"30 for 30\" could really be 4 for 4. It's too hot to wear anything but sleeveless cotton dresses, ugh. Glad to know I'm not the only one who neglects creative adventures for Pinterest time. Wonder if I could trade in that degree I just got for a certificate naming me a Master Pinner. Hrrrm. ",
      "time": "2011-07-10T20:29:30",
      "id": "247335103"
    },
    {
      "threadId": "352924396",
      "post": "Bunnies attacked by...the WEIGHTINESS OF LITERATURE! Hah, I see what you mean, for sure. :)",
      "time": "2011-07-08T12:59:54",
      "id": "245793790",
      "parentPost": "I really enjoyed that video, though it left me with conflicting emotions - watching bunnies hop from page to page is just a recipe for happiness but the music had me wondering if there wasn't something more intimidating waiting around the corner.... ",
      "parentPostTime": "2011-07-08T12:53:55",
      "parentPostId": "245791283"
    },
    {
      "threadId": "352293787",
      "post": "Loved that movie, love all of the J.Crew comparisons, and love this post! ",
      "time": "2011-07-07T23:40:07",
      "id": "245513761"
    },
    {
      "threadId": "312376788",
      "post": "Thanks, Cynthia! I've got Photoshop Express--that's certainly a good one. Must look into Atomic Web...",
      "time": "2011-06-25T04:39:35",
      "id": "234531218",
      "parentPost": "The ceramic mugs are officially on my wishlist.  \n\nIn terms of apps:\nAtomic Web - Allows for tab browsing which Safari doesn't do on the iPhone or iPad ** Photoshop Express - Basic image editing ** Yelp\n\nThis could go on forever, so I will stop now.\n",
      "parentPostTime": "2011-06-25T03:13:05",
      "parentPostId": "234501222"
    },
    {
      "threadId": "331736392",
      "post": "Steel cut oats? I don't even know what that is. Can't wait to see youuuuuuu.",
      "time": "2011-06-14T21:13:01",
      "id": "225936058",
      "parentPost": "Tea+steel cut oats for me. But Idid really wish I had cereal this morning because I'm kind of lazy. These are great!",
      "parentPostTime": "2011-06-14T15:37:05",
      "parentPostId": "225738693"
    },
    {
      "threadId": "330586016",
      "post": "What a great dress! I'd wear it out to dinner for tapas and sangria. :)",
      "time": "2011-06-13T13:13:31",
      "id": "224741353"
    },
    {
      "threadId": "320332015",
      "post": "Ahh! DIY projects! I don't even bother getting envious with those, because I would honestly rather just buy the product (especially finding a good sale) than make it...crafts just absolutely don't interest me. ",
      "time": "2011-06-10T11:18:01",
      "id": "223068862",
      "parentPost": "I totally agree. I wonder does everyones house look like it was designed by a designer? How do people have time to do all these DIY projects and go out and afford all these amazing clothes with ridiculous labels. ",
      "parentPostTime": "2011-06-10T07:22:07",
      "parentPostId": "222999086"
    },
    {
      "threadId": "323673301",
      "post": "Huge Moses is also afraid of the Golden Retriever puppy who lives downstairs. Go figure. ",
      "time": "2011-06-06T23:45:38",
      "id": "219597877",
      "parentPost": "Huge Moses is afraid of geese? That's adorable. ",
      "parentPostTime": "2011-06-06T16:03:35",
      "parentPostId": "219179571"
    },
    {
      "threadId": "634628807",
      "post": "My little Type-A heart just skipped a beat! Onward into obsessive digital closet organization...",
      "time": "2011-06-01T19:07:47",
      "id": "215659811"
    },
    {
      "threadId": "317604359",
      "post": "Not at all! I just started watching it this week, and I'm almost done with Season 1. (Oops, TV overload). I really like the nerd culture, though!",
      "time": "2011-05-30T16:28:21",
      "id": "214304828",
      "parentPost": "Love me some Bones. Are you caught up with the series? ",
      "parentPostTime": "2011-05-30T16:15:20",
      "parentPostId": "214298638"
    },
    {
      "threadId": "314052858",
      "post": "Oh, do tell your family about your blog! Though I rarely take photos of myself for mine, my family (and random cousins-in-law) all read it. I think it gives them great happiness to feel in the loop. Besides, you always look great, and in my experience, photographs of a daughter/sister/niece/granddaughter/whatever looking great are pretty high on the list of things-families-like. :)",
      "time": "2011-05-26T11:33:05",
      "id": "212079392"
    },
    {
      "threadId": "313480070",
      "post": "I like it in caramel--this bag is perfect! Big enough to hold my camera + cross body strap...dare I say I'm in love? ",
      "time": "2011-05-25T14:46:12",
      "id": "211503333"
    },
    {
      "threadId": "307027133",
      "post": "I think I beat you to your \"begging\"--love the wallflower skirt! ",
      "time": "2011-05-18T20:47:47",
      "id": "206372955",
      "parentPost": " Hey, desperate begging of favors here: I just posted about a conundrum I have with three beautiful anthro skirts. Can you help me choose between them, pleeeease?\nhttp://dailymeeps.blogspot.com/2011/05/ive-made-huge-mistake.html",
      "parentPostTime": "2011-05-18T20:43:08",
      "parentPostId": "206370560"
    },
    {
      "threadId": "307092369",
      "post": "Glorious! I have to say I think with my curves, this dress would look even better on me than it does on the model. ;) I'd wear it to my master's graduation banquet! \n\ndorothy . dannenberg at gmail dot com.  ",
      "time": "2011-05-18T18:09:37",
      "id": "206258126"
    },
    {
      "threadId": "299250213",
      "post": "@49a35cb68fb891a6691cc3ec9eb35a70:disqus It's better than Cinco de Mayo because the lines aren't as long, and you don't have to wait for margaritas. Bueno!\n",
      "time": "2011-05-09T14:40:48",
      "id": "200164545",
      "parentPost": "Tori, Dicy, and I had Seis de Mayo Mexican food too! Twinsies! \n",
      "parentPostTime": "2011-05-09T14:38:45",
      "parentPostId": "200161441"
    },
    {
      "threadId": "295131378",
      "post": "The perfect solution!!",
      "time": "2011-05-04T17:51:34",
      "id": "197005765",
      "parentPost": "Packing tip: always vacation with Sarah. It will double (or triple?) your outfit options without requiring a larger suitcase. hehehe.",
      "parentPostTime": "2011-05-04T17:47:53",
      "parentPostId": "197002357"
    },
    {
      "threadId": "294220059",
      "post": "Haha, I imagine \"Law & Order: SUV\" would be the nickname for \"Law & Order: North Macon.\" ",
      "time": "2011-05-04T13:14:39",
      "id": "196858913",
      "parentPost": "Bossypants.  Great name - lol.  As far as not joining the \"Party on the Lawn\" - good for you.  While I sort of did a little \"It's about time - now what?\" thing in my head I was watching all the CROWDS gathering and clumping together and all I could think was, \"Disperse!  Disperse!  You are all a big target!\"  \n\nParanoia reigns supreme in my head at times.\n\np.s. I read the Law and Order SVU as SUV and thought, what?!  I could see them all standing around the station debating whether to take the mini suv or the gas guzzler...",
      "parentPostTime": "2011-05-04T03:47:19",
      "parentPostId": "196706575"
    },
    {
      "threadId": "290458933",
      "post": "Oh my gosh, I thought the EXACT same thing about Harry Potter! Hah. Great minds, eh? ",
      "time": "2011-04-28T14:45:06",
      "id": "193337640",
      "parentPost": "YES! I saw these the other day and thought the technique was brilliant.  I love how your mind seems to struggle with the realization that you're not looking at a photo (like you originally thought) but you aren't looking at a motion picture either.  Plus, it kind of reminds me of the newspapers in Harry Potter :)",
      "parentPostTime": "2011-04-28T14:42:45",
      "parentPostId": "193336038"
    },
    {
      "threadId": "286692448",
      "post": "They do! The only bad part about the J.Crew student discount is that you can only use it on full price items. How-evvvverrr, I also have a J.Crew Factory Outlet close to me, and they'll take the student discount too. ",
      "time": "2011-04-23T13:09:42",
      "id": "190673703",
      "parentPost": "Does your local J. Crew give a student discount? I get one for being a teacher, and I know a barista taking night classes who gets one, too. It's something like 15%, which serves only to make most items nearly obtainable instead of totally ridiculous (rather, it's enough to begin entertaining the idea of that skirt in blue). But, paired with a sale . . . check into it. ",
      "parentPostTime": "2011-04-23T13:06:49",
      "parentPostId": "190673044"
    },
    {
      "threadId": "285893922",
      "post": "No, I totally agree--when I saw it was to be Reese Witherspoon, my first thought was, \"um, isn't she supposed to be dark-haired?\" And there's been a big to-do over the Hunger Games casting--lots of people think that the descriptions of her in the book would have made it a good opportunity for a minority actress to get a big role--and what do they do? Pick a blonde, white girl. Disappointing. ",
      "time": "2011-04-22T13:13:52",
      "id": "189988865",
      "parentPost": "Going to see Water for Elephants tonight with some book club lovahs and friends.  Not to be an age-ist, but I just think that Reese is too old to play Marlena and R-Patz is too \"pretty\" to play Jacob.  I pictured Marlena as a dark-haired, mysterious girl and Jacob as a Tobey Maguire, impish guy.  \n\nClearly my casting is off, though, if you compare my thoughts to the casting of The Hunger Games!  Katniss is a young, brunette tomboy, y'all.",
      "parentPostTime": "2011-04-22T13:06:45",
      "parentPostId": "189986521"
    },
    {
      "threadId": "284292499",
      "post": "I hadn't heard of her, but when I went to her website the book covers looked pretty familiar. Thanks for sharing--and for the link to Keiko's blog--hoorah, new stuff!",
      "time": "2011-04-21T18:25:44",
      "id": "188994014",
      "parentPost": "I would totes read your children's book, Dot. By the way, I love these illustrations. I pretty  much love everything you post. High five! The one of the biscuits and the shoes reminds me a lot of Maira Kalman who is my favorite illustrator/writer/philosopher/hero. I'm sure you've heard of her, but if you haven't, check her out!",
      "parentPostTime": "2011-04-21T18:05:21",
      "parentPostId": "188984974"
    },
    {
      "threadId": "283312229",
      "post": "I would read that. I could do a guest blog, including how to create the perfect \"you just cut your hair off and still want a ponytail ponytail\" and \"how to steal your husband's sweaters and get away with it.\"",
      "time": "2011-04-19T14:09:08",
      "id": "187586816",
      "parentPost": "Someday I'm going to start a telecommuter fashion blog, and it will feature mostly leggings and sweatpants and mis-matched socks.",
      "parentPostTime": "2011-04-19T14:00:43",
      "parentPostId": "187575790"
    },
    {
      "threadId": "276669084",
      "post": "Ah, to be a dog! Thanks for your insight, and for reading. The dread really is worse than the actual work. ",
      "time": "2011-04-11T13:14:29",
      "id": "182434083",
      "parentPost": "Here is my 2 cents worth: Live each day as if it were your last, it may be. I know that work takes a lot of time, effort & skill & can really stress a person, but sometimes I think dreading it is worse than the  actual happening. Take your dog for example. Do you think he worries/frets about tomorrow or what is going to happen in the next week or two? He's probably happy just to live in the moment anticipating his next meal, next pat on the head, or his daily walk with you. He gives back in return his unconditional love. That's all he really needs. What do we really need?  Carpe diem! \nI love your posts, keep em coming!",
      "parentPostTime": "2011-04-11T12:51:23",
      "parentPostId": "182427098"
    },
    {
      "threadId": "272650612",
      "post": "I never feel lucky. But I do feel infatuated with that black clutch. Be still, my little leather-accent-loving heart. ",
      "time": "2011-04-06T15:16:18",
      "id": "179117321"
    },
    {
      "threadId": "267080161",
      "post": "Dot's Spotted Moth Wishlist: \nDoctor Doctor Bag\nSea Twig Earrings\nRaccoon Mouse Pad\nBerkley Illustrations Coaster Set\nParade Necklace.  \n\nOh, let's face it. I love the whole shop. ",
      "time": "2011-03-30T23:12:13",
      "id": "175207792"
    },
    {
      "threadId": "533400413",
      "post": "Love the prepped for travel canvas purse in navy! Perfect for my upcoming trips--overhead-bin ready!",
      "time": "2011-03-23T15:03:59",
      "id": "170119098"
    },
    {
      "threadId": "612597781",
      "post": "A-dorable. Grown-up summer camp's the best. ",
      "time": "2011-03-20T14:57:28",
      "id": "168571880"
    },
    {
      "threadId": "251338658",
      "post": "Isn't it just magical? I'd read Clare Grill's memoir, if she wrote one. \n\nThanks for reading!",
      "time": "2011-03-11T14:27:11",
      "id": "164093033",
      "parentPost": "not gonna lie. this just made me a little misty-eyed at work. lovely writing. ps i read your blog almost weekly so thanks for posting such inspiring pieces.\n-tess",
      "parentPostTime": "2011-03-11T14:21:39",
      "parentPostId": "164090858"
    },
    {
      "threadId": "250966491",
      "post": "Have you seen this hair tutorial over on Cup of Jo? I think your hair is probably the perfect length for it. I've got too much hair for this one, sadly, but think it's gorgeous. Congrats on finishing your 30x30, by the way!\n\nhttp://joannagoddard.blogspot.com/2011/03/three-twisted-buns.html",
      "time": "2011-03-11T12:41:11",
      "id": "164043386"
    },
    {
      "threadId": "533409395",
      "post": "I need to get over my fear of wearing red and duplicate this outfit. Still so jealous you're sporting bare legs. Here in VA it's glove-wearing weather. :(",
      "time": "2011-03-03T23:23:27",
      "id": "160082684"
    },
    {
      "threadId": "237206425",
      "post": "DO IT, if only for the assurance that when I visit you, I will be terribly frightened. ",
      "time": "2011-02-22T14:25:51",
      "id": "153982590",
      "parentPost": "Bahaha. This makes me want to move my collection of tea-cups-with-faces into the guest room. ",
      "parentPostTime": "2011-02-22T14:14:48",
      "parentPostId": "153978940"
    },
    {
      "threadId": "236232187",
      "post": "Don't joke. There are days my highest and greatest aspiration would be to become a monastery librarian. I am completely serious. ",
      "time": "2011-02-22T12:39:41",
      "id": "153937770",
      "parentPost": "If talking about the weather on your blog is a sign of being dull, I'm a half step away from being a librarian. In a monastery. Just saying. ;-)",
      "parentPostTime": "2011-02-22T02:57:42",
      "parentPostId": "153695883"
    },
    {
      "threadId": "228770602",
      "post": "It's for J.Crew! It's on a crew cuts t-shirt. Adorbs.",
      "time": "2011-02-12T14:47:21",
      "id": "145285042",
      "parentPost": "OMG I love the crocodile!",
      "parentPostTime": "2011-02-12T14:11:20",
      "parentPostId": "145277192"
    },
    {
      "threadId": "225376927",
      "post": "There's something magical about my loft, I think. I go up there and sit at my desk, and the dogs go into instant chill mode. ",
      "time": "2011-02-08T22:45:01",
      "id": "142986219",
      "parentPost": "Ugh, can you take mine too? The Pasha forgets that I have actual deadlines to meet, and that I can't play fetch-in-the-snow all day. I've already made her two Kongs, and she's still bored. ",
      "parentPostTime": "2011-02-08T22:27:57",
      "parentPostId": "142963887"
    },
    {
      "threadId": "224323966",
      "post": "I think the authors were at the conference, but I didn't see them--I found this one online. I want it in hard copy too!",
      "time": "2011-02-08T21:36:47",
      "id": "142897804",
      "parentPost": "Is this one of the finds you got from the conference? I like it. Makes me want to run out and buy it for my (non-existent) coffee table.",
      "parentPostTime": "2011-02-08T16:43:48",
      "parentPostId": "142686648"
    },
    {
      "threadId": "550430594",
      "post": "Is \"everything\" an appropriate answer? Though, let's be honest, I'd probably just buy out the entire stock of adorable rosebud earrings. What a cute shop!",
      "time": "2011-02-02T16:17:00",
      "id": "138795043"
    },
    {
      "threadId": "213400144",
      "post": "Bahahahah, I thought it was just a bird...I suppose it does look a little chicken-like...",
      "time": "2011-01-21T14:38:07",
      "id": "132420605",
      "parentPost": "I can't quite look the chicken purse in the eye. It is a chicken, right? :)",
      "parentPostTime": "2011-01-21T14:21:44",
      "parentPostId": "132415391"
    },
    {
      "threadId": "193941842",
      "post": "Will do. I'll even pay. ",
      "time": "2010-12-20T03:16:48",
      "id": "115052811",
      "parentPost": "Will you take me with you to waffle house at midnight? ",
      "parentPostTime": "2010-12-20T03:07:48",
      "parentPostId": "115047423"
    },
    {
      "threadId": "188961632",
      "post": "Sounds good. I'm also good at solving problems having to do with manners, but more in a Prudence sort of way. Abby's a little proper.",
      "time": "2010-12-11T21:11:26",
      "id": "110370808",
      "parentPost": "Since we're quickly approaching the 12th day, I'd like to request your blog spends the remaining 12 shopping days \"Dear Abby\" style: I send in my gift-giving conundrums, you produce a list of options, I get the credit for being awesome. Yes? ",
      "parentPostTime": "2010-12-11T19:47:35",
      "parentPostId": "110356147"
    },
    {
      "threadId": "186941143",
      "post": "Haha, I have that blow dryer you want in purple. :)",
      "time": "2010-12-08T14:27:48",
      "id": "108661097",
      "parentPost": "This is getting eerie. VS pajamas are on my wish list as well, despite the fact that I generally button all of the buttons, not just one button on a pajama top. (For proof, you can see my universal amazon wish list, which is getting totally out of control because I like to look at shopping websites instead of studying, which I should be getting back to.)  Next year, I am just going to tell my parents to ask you what I should get for Christmas.",
      "parentPostTime": "2010-12-08T13:52:52",
      "parentPostId": "108651681"
    },
    {
      "threadId": "184033534",
      "post": "Aww, thanks! I have to admit, at least half of this stuff could double as my xmas wish list. ",
      "time": "2010-12-03T21:15:17",
      "id": "106477274",
      "parentPost": "You're gift-giving me guide makes me wish you were buying ME a gift because it's all so darn CUTE!",
      "parentPostTime": "2010-12-03T19:15:21",
      "parentPostId": "106432266"
    },
    {
      "threadId": "174946612",
      "post": "Yeah, I wondered about Huckleberry Finn too...strange. ",
      "time": "2010-11-18T14:57:27",
      "id": "98801644",
      "parentPost": "I have that version of Secret Garden from your slideshow. :)  Try looking on half.com if you want your old versions, I'm sure someone is selling some nicely worn and well-loved copies.  That's how I got a set of The Chronicles of Narnia that I can pretend is the one my Mom had (with The Magician's Nephew firmly in the middle where it belongs, not the first of the series!)  until I remember I only bought it a few years ago.\n\nAlso, what, Huckleberry Finn is a \"revered book of childhood and adolescence\"...for girls?  Unlikely.",
      "parentPostTime": "2010-11-18T13:56:04",
      "parentPostId": "98781777"
    },
    {
      "threadId": "171915924",
      "post": "If I were you, I'd just go ahead and add it to my Netflix queue.",
      "time": "2010-11-15T14:42:56",
      "id": "97399680",
      "parentPost": "Um, this looks hilarious. and poignant. and great. You think it will play in Macon in 2025?",
      "parentPostTime": "2010-11-15T14:26:17",
      "parentPostId": "97388992"
    },
    {
      "threadId": "165796599",
      "post": "Good to know! Officially added to birthday wishlist. ",
      "time": "2010-11-02T14:54:43",
      "id": "92992107",
      "parentPost": "I have the polka dot top. The fit and cut are really charming!",
      "parentPostTime": "2010-11-02T14:52:34",
      "parentPostId": "92991440"
    },
    {
      "threadId": "103913443",
      "post": "Yeah, that one was pretty rough. I loved the little kid going, \"Is it just me, or am I getting all French words here?\" though!",
      "time": "2010-06-03T14:04:38",
      "id": "53998383",
      "parentPost": "These were so hilarious! And kinda painful. Which is why I skipped the clip of the kid quoting Napoleon Dynamite. I just couldn't handle the awkwardness...",
      "parentPostTime": "2010-06-03T13:41:10",
      "parentPostId": "53982366"
    },
    {
      "threadId": "102031230",
      "post": "Tunafish has always been the epitome of romance.\n\n-d.",
      "time": "2010-05-28T18:18:27",
      "id": "52704125",
      "parentPost": "Quite the romantic, aren't we? ;-)",
      "parentPostTime": "2010-05-28T17:34:23",
      "parentPostId": "52692099"
    },
    {
      "threadId": "89037465",
      "post": "What a great post! And a versatile dress...have to hunt for that one. ",
      "time": "2010-05-02T16:27:01",
      "id": "48042568"
    },
    {
      "threadId": "755132",
      "post": "Gor-geous. I am jealous.",
      "time": "2008-05-19T07:10:00",
      "id": "488753"
    },
    {
      "threadId": "667584",
      "post": "congratumalations, mikey. \r\neven though i wish you flunked so we could hang out next year. =(",
      "time": "2008-05-11T14:19:59",
      "id": "445632"
    },
    {
      "threadId": "625192",
      "post": "irony: on america's next top model a few weeks ago, tyra banks made fun of a girl for acting beauty pageant-esque, saying that she wanted a model, not someone who was all about world peace and such as the iraq. \r\n\r\nnot only is it ironic that tyra would make fun of stupid people, but apparently she had miss sc on the tyra banks show a while back and defended her, telling everyone she was smart, just flustered. \r\n\r\nyowch.",
      "time": "2008-05-06T18:27:38",
      "id": "422085"
    }
  ],
  "profileInfo": {
    "username": "spareohnest",
    "about": "",
    "name": "dot",
    "disable3rdPartyTrackers": false,
    "isPowerContributor": false,
    "isAnonymous": false,
    "rep": 1.2740799999999999,
    "profileUrl": "https://disqus.com/by/spareohnest/",
    "url": "http://www.oneforonethousand.com",
    "reputation": 1.2740799999999999,
    "location": "Alexandria, VA",
    "isPrivate": false,
    "signedUrl": "http://disq.us/?url=http%3A%2F%2Fwww.oneforonethousand.com&key=2g5olnKfIstJo9E2LmSpUA",
    "isPrimary": true,
    "joinedAt": "2008-05-02T11:22:51",
    "id": "28106",
    "avatar": {
      "small": {
        "permalink": "https://disqus.com/api/users/avatars/spareohnest.jpg",
        "cache": "//a.disquscdn.com/uploads/users/28106/avatar32.jpg?1465411093"
      },
      "isCustom": true,
      "permalink": "https://disqus.com/api/users/avatars/spareohnest.jpg",
      "cache": "//a.disquscdn.com/uploads/users/28106/avatar92.jpg?1465411093",
      "large": {
        "permalink": "https://disqus.com/api/users/avatars/spareohnest.jpg",
        "cache": "//a.disquscdn.com/uploads/users/28106/avatar92.jpg?1465411093"
      }
    }
  }
}