{
  "comments": [
    {
      "threadId": "3510576459",
      "post": "Fiddling while Rome burns...",
      "time": "2015-02-13T19:03:20",
      "id": "1852182257"
    },
    {
      "threadId": "3507563667",
      "post": "This is a brilliant, coherent letter, mercifully free of point scoring, and so heartening to see cross-party support including Conservative and Labour MPs, and Green councillors. We want more of this in politics! I do hope a) George Ferguson listens b) that he has the power to do something.",
      "time": "2015-02-13T18:58:58",
      "id": "1852174768"
    },
    {
      "threadId": "3459036244",
      "post": "I wanted to sign the petition but sadly it is now closed. \n\n\nI doubt that the Residence team is getting market rates for their work and dedication - nevertheless Residence is willing to pay the market rate for the Milk Bar.",
      "time": "2015-02-10T10:32:28",
      "id": "1845280819"
    },
    {
      "threadId": "3466927345",
      "post": "Huzzah for Green Bristol! Hence its grassroot resistance to an unnecessary road building scheme that will destroy prime agricultural soils in 2015. Please sign! \n\nhttps://www.change.org/p/mayor-of-bristol-george-ferguson-act-to-protect-bristol-s-most-valuable-and-fertile-food-growing-land-from-road-building-help-to-create-a-world-class-urban-agriculture-hub-on-bristol-s-blue-finger?utm_campaign=responsive_friend_inviter_chat&utm_medium=facebook&utm_source=share_petition&recruiter=1358046",
      "time": "2015-02-03T10:47:48",
      "id": "1832163635"
    },
    {
      "threadId": "3196213056",
      "post": "Yes, possibly and sadly, true. Let us see...stay alert, people. The price of freedom is eternal vigilance.",
      "time": "2014-11-06T14:53:28",
      "id": "1679607911",
      "parentPost": "While everyone is happy that the biomass boiler isn't going ahead I think the celebrations will be short lived - the plans will almost certainly go to appeal, Bristol council will roll over and the plans will be granted. This is what the council really wants but by turning it down at committee a bunch of councillors have been able to save face and make it look like they have the communities best interest at heart.",
      "parentPostTime": "2014-11-06T10:05:27",
      "parentPostId": "1679291055"
    },
    {
      "threadId": "2913731819",
      "post": "Hi - many thanks for featuring my project, Confessions of a Hitch-hiker, on the Crowdfunding Centre site!",
      "time": "2014-08-14T18:15:56",
      "id": "1542883236"
    },
    {
      "threadId": "2637723831",
      "post": "Jolly good! Thanks for letting me know! I hope it is fun and not too arduous judging so many fabbo recipes.",
      "time": "2014-05-13T10:47:50",
      "id": "1382611619",
      "parentPost": "Excellent! I don't think I can change it but worry not. Each entry will be judged on merit and not on the pic! xx",
      "parentPostTime": "2014-05-13T09:56:27",
      "parentPostId": "1382575113"
    },
    {
      "threadId": "2345104122",
      "post": "Greenpeace UK has omitted Fish4Ever, the British-based sustainable canned fish brand, from its tuna table. In contrast, Greenpeace Australia ranked Fish4Ever top for sustainable tuna three years-running! \n\nFish4Ever is a campaigning brand, fighting for sustainable fishing. It is sustainable and ethical, from its traditional fishing boats and canneries to its organic land ingredients (organic farming is crucial because it bans water-polluting chemical fertilisers). All this care and quality means great taste too, fish eaters. \n\nI hope Greenpeace UK and Hugh's Fish Fight find a way to rectify this omission. Fish4Ever is the real thing and deserves recognition.",
      "time": "2014-03-10T16:53:17",
      "id": "1278809555"
    },
    {
      "threadId": "2267391020",
      "post": "The money raised from the 4% levy on our electricity bills goes to councils and housing associations etc to fund home insulation - it has nothing to do with solar panels.",
      "time": "2014-02-19T14:51:57",
      "id": "1251540454",
      "parentPost": "And this would work without an artificially high price paid for the electricity produced? Us poor souls who live in rented accommodation are paying for this \"investment\" via our energy bills.",
      "parentPostTime": "2014-02-17T14:42:56",
      "parentPostId": "1247986008"
    },
    {
      "threadId": "2043122303",
      "post": "Solar is wonderful! Free energy, creates jobs, relieves climate change AND cuts electricity bills!!",
      "time": "2013-12-13T15:42:19",
      "id": "1161483855"
    },
    {
      "threadId": "2043991630",
      "post": "Community-owned energy that alleviates climate change, creates jobs and cuts electricity bills - this is brilliant! Great news for Bristol.",
      "time": "2013-12-12T17:29:32",
      "id": "1160313818"
    },
    {
      "threadId": "1868206967",
      "post": "Keeping a farm farming for ever for the people by the people - yes!",
      "time": "2013-10-22T19:53:34",
      "id": "1092593383"
    },
    {
      "threadId": "1752479336",
      "post": "This is where farm community ownership comes in! \n\nCheck out http://realfoodlover.wordpress.com/2013/08/30/community-buy-out-to-secure-biodynamic-farm/\n\nand http://stockwoodcbs.org/",
      "time": "2013-09-16T16:03:49",
      "id": "1046783842"
    },
    {
      "threadId": "1737755235",
      "post": "This is such a great idea. \n\n\nFarmland is rare in Britain because land gets locked up as an \"investment.\" \n\nWithout access to farmland, domestic food production suffers and we are increasingly reliant on imports. \nWe need more land to farm to increase food security. This scheme to co-own Rush Farm both enables the farmland to be held in trust as farmland - for ever - AND belong to a community of member-shareholders - for ever. \n\nIt can never be sold again – it will always remain farmland for the people.\n\nYou can invest here: http://stockwoodcbs.org/invest/\nMy blog: http://realfoodlover.wordpress.com/2013/08/30/community-buy-out-to-secure-biodynamic-farm/",
      "time": "2013-09-10T05:35:33",
      "id": "1036734645"
    },
    {
      "threadId": "1625280395",
      "post": "Ah, yes the lovely Dan and the Lovely Fish Shop! Thanks! Good tip.",
      "time": "2013-09-01T11:42:32",
      "id": "1025154445",
      "parentPost": "Thanks, Elizabeth!  It is rather nice with the additions and I bought my roe at the Wednesday market on Corn Street from the smokers, who may just be David Felce... Should've checked.  Let me know how it turns out should you find yourself a piece of roe.  Lovely Dan at The Fish Shop on Gloucester Road also sells cod's roe FYI.",
      "parentPostTime": "2013-08-28T18:50:33",
      "parentPostId": "1020899160"
    },
    {
      "threadId": "1571665757",
      "post": "Yup - all good stuff. Especially like:  Stop Thanking Every Single User That Follows You. O yes!",
      "time": "2013-08-28T09:36:36",
      "id": "1020321263"
    },
    {
      "threadId": "1652091173",
      "post": "I like your additional commentary - v amusing!",
      "time": "2013-08-28T09:35:01",
      "id": "1020319249"
    },
    {
      "threadId": "1306908457",
      "post": "Good news: Australia brings emission-curbing cap-and-trade regulations forward a year. \n\n\n\"Australia is set to move to a \"cap and trade\" emissions trading scheme by July 2014, instead of July 2015.\n\nhttp://www.ecoseed.org/business/carbon-market/16778-australia-to-adopt-emissions-trading-scheme-by-2014",
      "time": "2013-07-19T07:48:51",
      "id": "968366956"
    },
    {
      "threadId": "1306858261",
      "post": "O, what happened to previous comments sniff sniff\n\nAnyway to add to the discussion I was having on food miles, this article is very interesting\n\nhttp://www.fifediet.co.uk/2013/05/28/in-defence-of-food-miles/",
      "time": "2013-05-29T08:42:19",
      "id": "912242286"
    },
    {
      "threadId": "1146445878",
      "post": "Coca-Cola gets more out of this than the poor put-upon polar bears. \n\nhttp://www.spiegel.de/international/world/wwf-helps-industry-more-than-environment-a-835712.html",
      "time": "2013-03-28T08:40:21",
      "id": "844755885"
    },
    {
      "threadId": "1098670478",
      "post": "Great to make interviews more creative, and clever to turn it into an advertising campaign.",
      "time": "2013-02-25T07:54:45",
      "id": "811436848"
    },
    {
      "threadId": "653262825",
      "post": "I like to think Twitter writing is an art.\n\n\nI compare it to writing a haiku because you are conveying a message within a highly-prescribed form (in Twitter's case 140 characters). I encourage writing students to get a Twitter account - it's good practice. \nYes, it is as much as an art as writing a short block of copy. \nThanks for this post and the comments. Interesting!\n\n",
      "time": "2012-08-16T13:17:56",
      "id": "621016053",
      "parentPost": "I think that would be an interesting blog post - twitter writing as an art, as much as any short block of copy?",
      "parentPostTime": "2012-04-17T19:07:35",
      "parentPostId": "500067104"
    },
    {
      "threadId": "788512516",
      "post": "I have been researching GM crops for over ten years as a food journalist, and the more I find out, the less I like.\n\nOnce a seed is genetically modified, it can be patented, and owned. That is why multinational seed companies such as Monsanto are investing so heavily in GM.\n\nGM crops is a risky, unpredictable, outdated and unnecessary technology.\n\nThere is sufficient evidence to show it is an environmental risk, as well as a risk to animal and human health.\n\nWe should be using valuable money researching how to make existing sustainable systems more cost-effective and productive - not sinking money into a technology that benefits only the patent holder.",
      "time": "2012-08-06T12:13:59",
      "id": "610926494"
    },
    {
      "threadId": "547753891",
      "post": "Flowers in winter - bit special. ",
      "time": "2012-01-23T10:47:29",
      "id": "418562976"
    },
    {
      "threadId": "108639746",
      "post": "Social media is being sociable online.\n\nIt is creating conversations and human connections by publishing something online such as a comment (as I am doing here). Or a video/status update/blog - new technology on the Web is making it easier and easier for everyone to join in. \n\nMy next workshop on social media is on 8 December 2010 in Plymouth http://bit.ly/d7N5r2 \n\n",
      "time": "2010-11-09T08:01:47",
      "id": "95319335"
    },
    {
      "threadId": "168012442",
      "post": "Three cheers for Ecotricity and Dale Vince for giving me hope!\n\nJust one question from the devil's advocate in my mind: I have heard it is the manufacture of cars - including electric ones - which cause such cost to the environment. How does the Nemesis get round that thorny issue? Or is its experimental value worth it? \n\nOne area of research I am interested is how to adapt existing old bangers to run on (green) electricity...Could it be done? \n\nAnd maybe the development of the Nemesis will eventually provide an answer to that question? \n\n\n\n",
      "time": "2010-11-06T10:29:47",
      "id": "94496283"
    },
    {
      "threadId": "122241741",
      "post": "Here I am posting with my Twitter address.\n\nI like that cute device on the right that lets you know someone is visiting your site. ",
      "time": "2010-09-13T12:29:29",
      "id": "77243484"
    },
    {
      "threadId": "13468457",
      "post": "Very exciting\r\nWell done\r\nfrom a grateful and impressed blogger \r\nwho met Andraz at Blog08 conference in Amsterdam.",
      "time": "2009-03-11T22:57:23",
      "id": "7114149"
    },
    {
      "threadId": "10824831",
      "post": "I appreciate that you have written this simply and in plain English and...I still do not understand!\r\n\r\nI believe I meet your three criteria\r\n\r\nSo what is my next step?\r\n\r\nA Zemanta-fan",
      "time": "2009-02-17T14:48:17",
      "id": "6329891"
    },
    {
      "threadId": "6801324",
      "post": "I am no Palin-sympathiser when it comes to the issues but I am sick of the way she is attacked as a female. Scary. ",
      "time": "2008-11-09T10:25:29",
      "id": "3642812"
    },
    {
      "threadId": "6396624",
      "post": "This looks good! Thank you. ",
      "time": "2008-10-31T15:00:19",
      "id": "3408616"
    },
    {
      "threadId": "6365759",
      "post": "Congratulations on the book, and great cause. I like the sound of 400 words for each chapter - very digestible. ",
      "time": "2008-10-30T22:43:36",
      "id": "3399837"
    }
  ],
  "profileInfo": {
    "username": "ElisabethWinkler",
    "about": "I am a freelance journalist, editor and a blogger. I am crazy about good writing and thrilled by Web 2 which offers countless opportunities to communicate. ",
    "name": "ElisabethWinkler",
    "disable3rdPartyTrackers": false,
    "isPowerContributor": false,
    "isAnonymous": false,
    "rep": 1.2916429999999999,
    "profileUrl": "https://disqus.com/by/ElisabethWinkler/",
    "url": "http://realfoodlover.wordpress.com",
    "reputation": 1.2916429999999999,
    "location": "UK, Bristol, London and Devon",
    "isPrivate": false,
    "signedUrl": "http://disq.us/?url=http%3A%2F%2Frealfoodlover.wordpress.com&key=SLWAgYmuRdf2ewJKeFa2QQ",
    "isPrimary": true,
    "joinedAt": "2008-10-23T11:02:04",
    "id": "127059",
    "avatar": {
      "small": {
        "permalink": "https://disqus.com/api/users/avatars/ElisabethWinkler.jpg",
        "cache": "//a.disquscdn.com/uploads/users/12/7059/avatar32.jpg?1281549414"
      },
      "isCustom": true,
      "permalink": "https://disqus.com/api/users/avatars/ElisabethWinkler.jpg",
      "cache": "//a.disquscdn.com/uploads/users/12/7059/avatar92.jpg?1281549414",
      "large": {
        "permalink": "https://disqus.com/api/users/avatars/ElisabethWinkler.jpg",
        "cache": "//a.disquscdn.com/uploads/users/12/7059/avatar92.jpg?1281549414"
      }
    }
  }
}