{
  "comments": [
    {
      "threadId": "1407716729",
      "post": "Solo en este blog ;)",
      "time": "2014-10-29T11:04:51",
      "id": "1658983695",
      "parentPost": "pero usas disqus ahora otra vez?",
      "parentPostTime": "2014-10-29T10:47:23",
      "parentPostId": "1658969733"
    },
    {
      "threadId": "2764539668",
      "post": "Si, quizá el catálogo de Spotify es mayor, tienen cosas que Rdio no tiene como Led Zeppelin. Pero en conjunto creo que la experiencia de usuario en Rdio es mucho más satisfactoria para un apasionado de la música",
      "time": "2014-09-22T07:18:09",
      "id": "1600006649",
      "parentPost": "en un mes llega mi iphone 6  y estoy entre Rdio y Spotify para lo que es música. Me gustó tu blog e inclina mi balanza hacia Rdio que de por sí me encanta su interfaz. ¿Crees que Spotify tiene mas canciones? saludos",
      "parentPostTime": "2014-09-19T17:39:09",
      "parentPostId": "1596611357"
    },
    {
      "threadId": "1285610867",
      "post": "Cierto, en la serie se ve perfectamente como la usaban",
      "time": "2014-06-18T08:49:54",
      "id": "1441116009",
      "parentPost": "En la serie 'Vikingos', en la primera temporada, el protagonista utiliza esa piedra solar.",
      "parentPostTime": "2014-06-17T19:56:18",
      "parentPostId": "1439865768"
    },
    {
      "threadId": "1966242339",
      "post": "I'm getting a lot of odd panels on every web page, sorry folks, it seem this new web clipper is a mess",
      "time": "2013-11-17T19:23:30",
      "id": "1127171832"
    },
    {
      "threadId": "1845574032",
      "post": "A ver: 1. La NASA no contrató la fabricación, sino que fue cosa de Fisher Pen. A la NASA le costó 1000 dolares. 2. Los Rusos nunca escribieron con lápiz, también usaron el Fisher Pen. Por tanto, la historia es falsa. Mas claro el agua.",
      "time": "2013-10-11T16:19:56",
      "id": "1078964660",
      "parentPost": "Hombre, según lo explicas no es falsa. En el sistema capitalista fue necesaria una inversión de 1 millón de dolares. Una agencia gubernamental contrata a una empresa privada para solucionar un problema coste total 1 millón mil dolares. En el sistema socialista recurrieron al lápiz de grafito. No veo por ninguna parte donde desmientes el supuesto mito.",
      "parentPostTime": "2013-10-11T14:33:46",
      "parentPostId": "1078821958"
    },
    {
      "threadId": "1431649155",
      "post": "En los comentarios anteriores tienes la url del sitio que los vende en castellano: iberlibro.com",
      "time": "2013-09-20T05:44:26",
      "id": "1052497283",
      "parentPost": "se puede conseguir en castellano?????",
      "parentPostTime": "2013-09-20T01:49:52",
      "parentPostId": "1052367120"
    },
    {
      "threadId": "1742476318",
      "post": "Exacto, se me olvidó mencionar que el sistema de referidos sigue vigente, así que como dices, doblemente atractivo. Gracias por recordarlo!",
      "time": "2013-09-10T15:34:47",
      "id": "1037193961",
      "parentPost": "Y algo MUY IMPORTANTE, todos los referidos tienen además 5 gigas extras cada uno https://copy.com?r=SQ7Klu Sin duda lo hace una opción aún más interesante.",
      "parentPostTime": "2013-09-10T14:37:54",
      "parentPostId": "1037117256"
    },
    {
      "threadId": "1615102305",
      "post": "Es cuestión de gustos y necesidades. Que te vaya muy bien con Feedly.",
      "time": "2013-09-02T10:41:20",
      "id": "1026214272",
      "parentPost": "Pues para mi es mucho mejor Feedly. Además, contra lo que muchos argumentaban, han optado por el modelo de pago, sin caer en venta de datos o publicidad. Es la más cocmpleta para el general de los usuarios, escucha a los mismos como rara vez se ve e implementan mejoras constantemente. En cuanto a votos y qué está siendo lo más leído, en mi caso no es para nada relevante, puesto que agrego lo que me interesa leer a mi, no al resto. Por ejemplo no tengo sitios de noticias o actualidad, ni tampoco sitios que publican todo el tiempo para figurar y monetizar, lo que me haría perder el tiempo ya que terminan posteando cualquier cosa irrelevante. \nCon Feedly no pierdo chances de guardar o compartir, hay formas de hacerlo sin esfuerzo.",
      "parentPostTime": "2013-08-31T18:39:33",
      "parentPostId": "1024590290"
    },
    {
      "threadId": "1615303084",
      "post": "Gracias Alberto. Creo recordar que si, tiene un módulo de eccommerce, aunque no se sí esta disponible en el plan gratuito. Puedes abrirte una cuenta gratuita y comprobarlo ;)",
      "time": "2013-08-26T16:47:25",
      "id": "1018075843",
      "parentPost": "hola Guillermo, muy bueno tu blog, lo primero.\nLos segundo. Esta herramienta trabaja los datos de ecommerce? has trabajado con ella?",
      "parentPostTime": "2013-08-26T16:34:40",
      "parentPostId": "1018051984"
    },
    {
      "threadId": "1627508631",
      "post": "Pero es curioso que siendo tóxica se la use tanto como ornamento. Cuando se vendé cualquier producto debe llevar una etiqueta avisando de sus peligros, por ejemplo juguetes, alimentos, medicamentos. Esto se hace también con las plantas?",
      "time": "2013-08-24T08:18:32",
      "id": "1015777803",
      "parentPost": "Créeme que no existe tal desconocimiento entre quienes cultivamos y vendemos plantas ornamentales. Decenas de plantas ornamentales son tóxicas para el ser humano y animales, pero nadie las suele comer por su gusto desagradable o por puro sentido común (no pruebes algo si no sabes si es comestible o no). La posibilidad de que un humano (adulto o infante) coma una planta muy tóxica (como el tejo o la adelfa) es el mismo que el de comer excremento de perro en la calle, a nadie se le ocurre y si les da curiosidad con el primer gusto la escupen, sólo que el excremento puede causar una infección mortal, mientras la planta no.\n\nSin embargo, es cierto que hay desconocimiento entre el público en general de que muchas de las plantas que vendemos son tóxicas o alucinógenas (las variedades comerciales son mucho menos tóxicas que las salvajes, eso se ha logrado con el cultivo selectivo). Y creo que eso se debe precisamente a que la gente reaccionaría como tú, queriendo que todas esas plantas sean prohibidas y erradicadas como sucedió con la cannabis y la amapola, ¿te imaginas si la gente se entera de que hay muchas más plantas con propiedades alucinógenas y sedantes? nos quedamos sin plantas para vender, aunque estos cultivares son bastante inocuos. \n-----------------------------\nSi algo debe ser erradicado es el abrojo, que no hace nada por nadie y pincha las llantas de las bicicletas, las pelotas de los niños y la piel de gente y animales.",
      "parentPostTime": "2013-08-24T02:24:02",
      "parentPostId": "1015622384"
    },
    {
      "threadId": "1621262321",
      "post": "Pues igual ;)",
      "time": "2013-08-21T06:47:33",
      "id": "1009668048",
      "parentPost": "Yo tengo un blog de fotografía, viajes, y cosas varias... Cómo puedo jugar? :P",
      "parentPostTime": "2013-08-21T06:02:45",
      "parentPostId": "1009594840"
    },
    {
      "threadId": "1617033566",
      "post": "Cierto, aunque también hay mecanismos para evitar la desaparición. Claro que en el caso de India proteger tal cantidad de idiomas debe ser realmente costoso",
      "time": "2013-08-20T08:54:30",
      "id": "1007763642",
      "parentPost": "Es una consecuencia lógica de la globalización que acaba con la diversidad, a la vez que la difunde. El grande se come al pequeño y cuando una comunidad deja de estar aislada, el contacto con los demás le hace perder su idioma, costumbres.....",
      "parentPostTime": "2013-08-20T08:19:26",
      "parentPostId": "1007738477"
    },
    {
      "threadId": "1619550942",
      "post": "Cierto, esperemos que la selección de headlines sea acertada ;)",
      "time": "2013-08-20T06:49:10",
      "id": "1007609001",
      "parentPost": "Pues parece una muy buena idea, habrá que ver como evoluciona y el uso que se hace de ella ;)",
      "parentPostTime": "2013-08-20T06:05:18",
      "parentPostId": "1007539332"
    },
    {
      "threadId": "1573999046",
      "post": "Si, lo interesante va a ser ver que cambios introduce en un negocio tradicional como es la prensa.",
      "time": "2013-08-06T06:50:48",
      "id": "989995410",
      "parentPost": "Yo creo sinceramente que Bezos tiene muchas cosas cosas guardadas en la manga y que irá soltando poco a poco. Se avecinan grandes cambios en la industria y vamos a ver como el resto al rebufo va a tener que ingeniárselas en cambiar el modelo de negocio.",
      "parentPostTime": "2013-08-06T00:02:14",
      "parentPostId": "989739211"
    },
    {
      "threadId": "1525866904",
      "post": "Gracias Carmen, me alegra que te guste",
      "time": "2013-07-24T19:47:49",
      "id": "974996782",
      "parentPost": "No he dicho que mi blog es fundamentalmente de texto y que via Wordpress es mucho más fácil enlazar los contenidos a G+ que a FB, que requiere un copi-pega de enlaces. Además, a través de mi FB no puedo dar likes a gente y cualqueier enlace tengo que eso, copi-pegarlo a la \"usanza medieval\". Me plantearé (por 2ª y definitiva vez) dejar FB cuando vea las estadísticas de Navidad. Por cierto: estupendo blog, Guillermo, me encanta pasarme por aquí",
      "parentPostTime": "2013-07-24T19:14:05",
      "parentPostId": "974959533"
    },
    {
      "threadId": "1458548432",
      "post": "Pues ahora me entra la duda. Como mucho en septiembre podré comprobarlo",
      "time": "2013-07-24T18:16:29",
      "id": "974895098",
      "parentPost": "Gracias Guillermo. Pensé que lo haría automáticamente al reiniciarse, pero no fue así. Lo cerré y lo volví a abrir y nada.\n\nPara que me quede claro, con el update, tienes toda la interface en Español, ¿no?\n\nQue disfrutes de las vacaciones, quedare al tanto de tu respuesta a tu vuelta :)\n\nGracias",
      "parentPostTime": "2013-07-24T16:16:08",
      "parentPostId": "974748558"
    },
    {
      "threadId": "1519293307",
      "post": "Gracias a ti por el artículo!",
      "time": "2013-07-22T16:13:40",
      "id": "972328360",
      "parentPost": "¡Muchas gracias! Creo que te gustará.",
      "parentPostTime": "2013-07-22T15:44:06",
      "parentPostId": "972284124"
    },
    {
      "threadId": "1492824177",
      "post": "Bueno, cada uno tiene un sistema de organización, si a ti te sirve con eso perfecto! ;)",
      "time": "2013-07-18T07:52:33",
      "id": "966682241",
      "parentPost": "hay mensajes que la cosa que te apetece hacer con ellos es tirarlos por la ventana, con móvil incluído. Si esos horrorosos mensajes me los puedo poner en lista de tareas, en vez que me estorben la vista cuando quiero ver otros que considero más importantes, me parece un adelanto, aunque con eso ya andan enreando en gmail... No sé, tendré que leer más de esto ^_^",
      "parentPostTime": "2013-07-17T17:52:37",
      "parentPostId": "965948690"
    },
    {
      "threadId": "1501328395",
      "post": "Cuando dices billones estás utilizando el significado norteamericano del término, es decir 1.000 millones = 1 billón no?",
      "time": "2013-07-15T07:14:19",
      "id": "962538249"
    },
    {
      "threadId": "1461757998",
      "post": "Cierto, pero para compartir hay que depender de un tercer servicio. Y si, te puedes llevar casi todo con Google Takeout, pero veamos lo que dura. A lo que me refería es al hecho de no poder compartir de forma nativa, intentando que el usuario se quede dentro del propio servicio.",
      "time": "2013-07-03T17:51:29",
      "id": "950793814",
      "parentPost": "Con friendsplus.me puedes publicar desde Google+ a Facebook, Twitter y LinkedIn.\nSobre llevarse todo lo que tienes en Google (Youtube, Blogspot, Fotos, \nContactos...) busca Google Takeout, el propio G te permite hacer backup \nde todo. ;-)\nSobre que vamos a un ecosistema cerrado, te doy toda la \nrazón. Google+ es la columna vertebral de todo el entramado que se nos \nviene.",
      "parentPostTime": "2013-07-03T16:24:08",
      "parentPostId": "950702027"
    },
    {
      "threadId": "1445376783",
      "post": "Exacto, y la ruina refuerza esa interpretación.",
      "time": "2013-07-01T19:02:48",
      "id": "948196753",
      "parentPost": "El monta muebles es también llamado La última mudanza. Tal vez una referencia a la muerte y a nuestro último traslado.",
      "parentPostTime": "2013-07-01T18:47:35",
      "parentPostId": "948181946"
    },
    {
      "threadId": "1429205687",
      "post": "Thank you for sharing your thoughts! It's great you can read us ;)",
      "time": "2013-06-26T10:49:01",
      "id": "942747376",
      "parentPost": "As an Indian I feel sad even though I never used the service. I've seen a few being delivered and read. It had a certain romantic appeal and class attached to it.\n\n\n\n\nPS. I read your post in Google Translate :-)",
      "parentPostTime": "2013-06-26T10:13:12",
      "parentPostId": "942730208"
    },
    {
      "threadId": "1418095824",
      "post": "La verdad es que la confianza del usuario en Google ha decrecido bastantes enteros en los últimos meses. Y no digo ya por el cierre de Reader, que ha sido la puntilla. Fíjate con Google Keep, lo que lanzaron tras anunciar el cierre de Reader. Yo ni lo he probado, para qué.",
      "time": "2013-06-23T15:39:29",
      "id": "939362664",
      "parentPost": "Google no es coherente, por un lado promueven, como dices, Adsense (yo solo tuve un cheque de 80€.... pero por otro censuran y controlan la web, ya con los algoritmos, con politicas de Adsense, pero es que por otro lado, las subastas de keywords en AdWords son muy elevadas. No es más que una estrategia conjunta para ganar dinero.\n\n\nYo estuve enamorado de Google, tenía todo allí, ahora solo tengo ahi google apps y gmail, ya todo lo demás lo dejé.",
      "parentPostTime": "2013-06-21T16:24:27",
      "parentPostId": "937730992"
    },
    {
      "threadId": "1397891527",
      "post": "Jajaja, es posible...",
      "time": "2013-06-19T12:21:21",
      "id": "935275355",
      "parentPost": "Creo que, efectivamente, has tomado como manía personal el minimalismo xD",
      "parentPostTime": "2013-06-14T17:24:10",
      "parentPostId": "930829378"
    },
    {
      "threadId": "1407621199",
      "post": "Ah, ya te entiendo, te refieres a un globo en el icono de la aplicación. No, no lo tiene. Tienes que abrirla para ver si hay noticias pendientes. La verdad es que hay pocos lectores de feeds en iOS que tengan ese tipo de notificaciones.",
      "time": "2013-06-17T16:28:45",
      "id": "933229928",
      "parentPost": "cuando configuras los feeds en web luego puedes consultarlos desde la aplicaicón para iphone, por ejemplo. Esta app no parece tener ningún tipo de alerta asociada (ni como globo, ni como tira, ni nada), con lo cual hay que abrirla cada vez a ver si hay noticias nuevas...",
      "parentPostTime": "2013-06-17T16:25:49",
      "parentPostId": "933227214"
    },
    {
      "threadId": "1390645824",
      "post": "Dificil elección. Lo único que puedo decirte es que para iOS 7 no te recomiendo el iPhone 4. Tu decides.",
      "time": "2013-06-12T18:01:49",
      "id": "928016614",
      "parentPost": "Es que estoy entre un nexus 4 que en la google play vale 299 euros o un iphone 4 que en the phone house esta a 289 euros. Lo ultimo de android o lo mas viejo de apple.\n\n\nUn saludo.",
      "parentPostTime": "2013-06-12T16:00:48",
      "parentPostId": "927842487"
    },
    {
      "threadId": "1350704572",
      "post": "Efectivamente. Lo que me sorprende es Irlanda y el norte de Italia, no te parece?",
      "time": "2013-06-04T11:28:05",
      "id": "918508667",
      "parentPost": "Se vea claramente que los Países Bajos son un país decentralizado (y bie comunicado), mientras Francia, España y Rusia están más urbanos.",
      "parentPostTime": "2013-06-04T11:22:36",
      "parentPostId": "918505863"
    },
    {
      "threadId": "1342882999",
      "post": "Supongo que es cuestión de sintaxis, si. En este caso \"totalmente\" sería mi modo de decir \"en un grado muy bajo\", igual que normalmente se suele aceptar \"pulpo\" como animal de compañía. ;)",
      "time": "2013-05-31T17:47:14",
      "id": "915220807",
      "parentPost": "Esto es como la que si le ofrecen un millón de euros se acuesta con alguien pero por menos no. Tambien ella diría que no es totalmente....Los no daltónicos no tienen dificultad ni ligera ni no ligera para distinguir esos matices, los daltónicos sí. O sea, primero: eres daltónico, segundo: en un grado muy bajo. El tema es más sintáctico (me hizo gracia el uso de \"totalmente\") que óptico, por decir algo.",
      "parentPostTime": "2013-05-31T16:22:57",
      "parentPostId": "915131045"
    },
    {
      "threadId": "1304322106",
      "post": "Se me había pasado tu comentario, ahora con la importación a Disqus y revisando me lo encuentro :(\nPues en español leo a los mejores: Blogpocket, eCuaderno, Mangas Verdes, Voolive, Historias de  la Historia, Error500, Denken Uber, Microsiervos...también varios blogs de viajes: El proximo viaje, Viajablog, Jorge Gobbi...uf, la lista sería larga de poner aquí ;)",
      "time": "2013-05-24T06:20:52",
      "id": "906526829",
      "parentPost": "Guillermo, ya que te refieres a la comunidad bloguera en español me gustaría mucho que compartieras tu blogroll, o una lista de los blogs en español más interesantes a los que lees frecuentemente. Creo que es una práctica interesante para reforzar esta comunidad. Un saludo.",
      "parentPostTime": "2013-04-10T15:57:25",
      "parentPostId": "904660726"
    },
    {
      "threadId": "1309937831",
      "post": "Me alegra que te guste. Gracias por leerme ;)",
      "time": "2013-05-24T06:17:14",
      "id": "906525617",
      "parentPost": "Un gran artículo. Coincido al 100% pues lo importante es, por encima de todo, el contenido.\n\n¡Gracias!",
      "parentPostTime": "2013-05-23T20:33:43",
      "parentPostId": "906182924"
    },
    {
      "threadId": "1303380364",
      "post": "Eso estaría muy bien ;)",
      "time": "2013-05-24T06:16:46",
      "id": "906525450",
      "parentPost": "Ya puestos si quieren \"despertar\" a lo grande, que hagan un \"yahoo reader\" ahora que google nos deja huérfanos.",
      "parentPostTime": "2013-05-23T22:19:23",
      "parentPostId": "906267821"
    },
    {
      "threadId": "1220297084",
      "post": "Genial, gracias! Creo que probaré con una cuenta gratuita a ver que tal ;)",
      "time": "2013-04-19T14:52:07",
      "id": "868289098",
      "parentPost": "En orden... sí, no y sí, :))\nEn cuanto a iOS, es algo que lógicamente estamos teniendo en cuenta, pero por ahora sólo se puede operar a través del navegador web.",
      "parentPostTime": "2013-04-19T14:39:16",
      "parentPostId": "868277835"
    },
    {
      "threadId": "1181302283",
      "post": "Yo el único problema que le veo, que por lo demás me parece un sistema fantástico, es que hay pocas opciones para poder publicar en movilidad, desde un iPad por ejemplo. Salvo que tengas el PieCrust corriendo en el servidor. Pero ahí ya me surgen otras dudas, como por ejemplo como sacar el contenido al dominio raíz o como arrancar el PieCrust si no tienes acceso ssh...\nPor eso me parece que Kirby o Statamic son más sencillos, solo tienes que subir el archivo de texto por ftp y listo. Aunque tienes razón en que el rendimiento no es igual.",
      "time": "2013-04-08T11:12:27",
      "id": "856269901"
    },
    {
      "threadId": "1146993207",
      "post": "Luego, lo ideal es tener PieCrust corriendo en tu propio servidor no?",
      "time": "2013-03-25T14:04:27",
      "id": "841685084",
      "parentPost": "chef bake genera el sitio en HTML/JS/CSS. Si eso lo subes aun servidor, lógicamente tendrás que resubirlo cuando quieras cambiar algo.\n\n\nSi en el servidor tienes PieCrust funcionando como servidor, al subir un fichero de texto automáticamente renderiza sus correspondientes páginas y regenera el site.",
      "parentPostTime": "2013-03-25T08:41:40",
      "parentPostId": "841462039"
    },
    {
      "threadId": "1151275625",
      "post": "Es una solución interesante, voy a probarlo. Si quieres echar un vistazo, Kirby tiene varios plugins, entre ellos uno de búsqueda, que a lo mejor puede servirte para crear un plugin similar para PieCrust http://getkirby.com/downloads/plugins",
      "time": "2013-03-20T15:00:50",
      "id": "836056384"
    },
    {
      "threadId": "1144780774",
      "post": "Genial el diseño, y muy valiente abandonando WordPress. Yo estoy experimentado con Kirby y Stacey, pero me cuesta un montón dar el paso. No conocía PieCrust, tendré que echarle un vistazo. ;)",
      "time": "2013-03-18T10:36:00",
      "id": "833433493"
    },
    {
      "threadId": "980313899",
      "post": "Si, pero el despiste es tuyo ;)\nHablamos de la catedral de York (Reino Unido), no de Nueva York. ",
      "time": "2012-12-20T16:44:37",
      "id": "743834763",
      "parentPost": "Supongo que es un error de despiste, pero en el siglo XIV (años 1301 a 1400) Nueva York ni siquiera existía! En la Wikipedia http://es.wikipedia.org/wiki/Catedral_de_San_Patricio_de_Nueva_York dice que la catedral se construyó en el XIX ;)\n\nUn saludo!",
      "parentPostTime": "2012-12-20T16:35:13",
      "parentPostId": "743824570"
    },
    {
      "threadId": "967664118",
      "post": "Sure, it's a great service! and nicely focused.",
      "time": "2012-12-14T08:42:51",
      "id": "735765677",
      "parentPost": "Thanks for reviewing Position! We agree it won't be a massive success but we're excited to get this out to people we think will love it. :)",
      "parentPostTime": "2012-12-13T23:41:46",
      "parentPostId": "735385152"
    },
    {
      "threadId": "949599370",
      "post": "Para Windows no conozco ninguna herramienta similar a DevonThink, aunque seguramente la hay. Evernote es una buena opción, porque sincroniza con todos los dispositivos móviles que puedas usar.",
      "time": "2012-12-04T09:03:42",
      "id": "726940580",
      "parentPost": "Las alternativas para Windows cuáles son? Seguir apostando por Evernote ? Alguna combinación mágica de herramientas para la más alta productividad? Saludos.",
      "parentPostTime": "2012-12-03T22:53:47",
      "parentPostId": "726482663"
    },
    {
      "threadId": "947909523",
      "post": "Eso mismo pensé yo. Supongo que habría que situar la isla en un lugar donde haya poco riesgo de que eso ocurra. ;)",
      "time": "2012-11-29T18:48:32",
      "id": "722902047",
      "parentPost": "¿y qué pasa si viene un tsunami? o tormentas con olas de más de 2 metros?",
      "parentPostTime": "2012-11-29T18:37:35",
      "parentPostId": "722889802"
    },
    {
      "threadId": "943365590",
      "post": "Claro, por supuesto, existen muchas opciones de monetización de un blog. Algunas son mejores o más rentables, sobre todo si tu blog está en un nicho temático muy específico. Lo que pasa es que adsense fue en su momento la forma más sencilla y rentable, algo que ya ha dejado de ser, pero sin embargo no ha aparecido una alternativa similar que pueda competir con ello.\n\nGracias por leernos! ",
      "time": "2012-11-28T06:50:19",
      "id": "721144338",
      "parentPost": "Gracias Guillermo por la información. Acabo de descubrir tu blog y lo seguiré a partir de ahora. Una pregunta: Yo llevo expulsado de adsense desde que empecé con esto hace tres años, por ello casi siempre he usado múltiples alternativas, que creo, no me han ido muy mal. De momento creo que, aunque me volvieran a admitir, jamás volvería a usar adsense, pues estoy hasta el gorro de las manipulaciones de google y de como juegan con nuestro medio de ganarnos la vida. La pregunta es ¿No crees que realmente podemos monetizarnos sin necesidad de acudir a adsense?",
      "parentPostTime": "2012-11-27T20:37:33",
      "parentPostId": "720642078"
    },
    {
      "threadId": "937923097",
      "post": "Es arriesgada si, pero de esa manera consiguen ocultar sus carencias y encima ser una atracción. Si lo hiciera un hotel de 3 o más estrellas no creo que les funcionase.",
      "time": "2012-11-21T16:29:37",
      "id": "715934392",
      "parentPost": "Más que un hotel es una atracción, una casa de los horrores. Si engancha a su target, la campaña vale la pena. Eso sí, es arriesgada a no poder más.",
      "parentPostTime": "2012-11-21T16:16:44",
      "parentPostId": "715925505"
    },
    {
      "threadId": "925879090",
      "post": "Probando el sistema de comentarios Disqus",
      "time": "2012-11-13T10:09:36",
      "id": "708911349"
    },
    {
      "threadId": "723942653",
      "post": "Nunca lo he usado, es mejor que All In One SEO?\nTu lo usas?",
      "time": "2012-06-14T14:40:04",
      "id": "557225770"
    },
    {
      "threadId": "611715763",
      "post": "Pero eso también se puede hacer en mail.app, solo hay que escribir los alias en el campo \"direccion\" de la configuración de la cuenta, separados por comas junto con la cuenta principal.",
      "time": "2012-03-17T17:40:07",
      "id": "467860669",
      "parentPost": "Yo hay una cosa que echo de menos en Mail.app y que Sparrow lo hace magníficamente bien: los alias, las direcciones adicionales para enviar correos. En Mail.app necesitas añadir las cuentas y tenerlas por separado para poder responder desde la dirección a la que se envió. Pero si tienes una cuenta de GMail a la que envías o desde la que recibes correos de otras cuentas con otros dominios, es una tortura. Y en Sparrow, simplemente es crear un \"alias\" escribiendo la dirección adicional en la lista.",
      "parentPostTime": "2012-03-15T12:35:44",
      "parentPostId": "465929568"
    },
    {
      "threadId": "405126379",
      "post": "Para iPhone, Tweetbot, lo tiene todo todo y todo\nPara iPad Tweetelattor, también lo tiene casiiiii todo.\nY en el iPad es imprescindible TweetLibrary",
      "time": "2011-09-05T09:58:12",
      "id": "302813738"
    }
  ],
  "profileInfo": {
    "username": "labrujulaverde",
    "about": "",
    "name": "Guillermo Carvajal",
    "disable3rdPartyTrackers": false,
    "isPowerContributor": false,
    "isAnonymous": false,
    "rep": 1.264411,
    "profileUrl": "https://disqus.com/by/labrujulaverde/",
    "url": "http://guillermocarvajal.net/",
    "reputation": 1.264411,
    "location": "Oviedo",
    "isPrivate": false,
    "signedUrl": "http://disq.us/?url=http%3A%2F%2Fguillermocarvajal.net%2F&key=MtekAmktZwMWWlZlauHNrQ",
    "isPrimary": true,
    "joinedAt": "2008-04-16T11:18:27",
    "id": "23391",
    "avatar": {
      "small": {
        "permalink": "https://disqus.com/api/users/avatars/labrujulaverde.jpg",
        "cache": "//a.disquscdn.com/uploads/users/23391/avatar32.jpg?1414580692"
      },
      "isCustom": true,
      "permalink": "https://disqus.com/api/users/avatars/labrujulaverde.jpg",
      "cache": "//a.disquscdn.com/uploads/users/23391/avatar92.jpg?1414580692",
      "large": {
        "permalink": "https://disqus.com/api/users/avatars/labrujulaverde.jpg",
        "cache": "//a.disquscdn.com/uploads/users/23391/avatar92.jpg?1414580692"
      }
    }
  }
}