{
  "comments": [
    {
      "threadId": "4491878273",
      "post": "Great - well we're just going through the certification process now so as soon as that passes it'll go live.",
      "time": "2016-01-20T22:42:56",
      "id": "2469026275",
      "parentPost": "Excited to hear you guys are re-looking that aspect. I'd definitely be interested in trying the game again after that.",
      "parentPostTime": "2016-01-20T22:09:57",
      "parentPostId": "2468976705"
    },
    {
      "threadId": "4489284381",
      "post": "You know it's been a really tricky design problem too. On the one hand the obvious answer is just to bring the camera parallel to the flight path and zoom out but if we do that it robs the game of any sense of motion and also makes the game much too easy (in my opinion). So we've been expirementing with other solutions and I think differently tpeolle simply have preferences. So in the update will give the camera three modes: one that is a fairly zoomed in overwatch mode, another that gimbles toward the gravitational vector (my favorite I think) and another that basically hunts after the rocket's heading. From there we just allow the player to cycle through camera modes whenever they want to.\n\nI hope this will be a significant improvement and we'd very much appreciate your feedback when you see it. In the end we want to make sure we file off any rough edges here and make G Prime as good as it can be,",
      "time": "2016-01-15T00:48:08",
      "id": "2458693801",
      "parentPost": "Excellent. Thank you so much for fixing that! That was a cause of major concern for our reviewer. It hurt the overall score a lot.",
      "parentPostTime": "2016-01-15T00:32:01",
      "parentPostId": "2458674720"
    },
    {
      "threadId": "4467440918",
      "post": "You're correct Pam and it was our bad for suggesting something out-of-bounds in our ignorance. We own it.",
      "time": "2016-01-12T00:29:26",
      "id": "2452653343",
      "parentPost": "What you are suggesting is a violation of XBox live ToS and is considered marketplace fraud. Not to mention potentially violating UK trade and duty laws.",
      "parentPostTime": "2016-01-07T01:43:07",
      "parentPostId": "2443737263"
    },
    {
      "threadId": "4467895004",
      "post": "Thanks for talking about G Prime, guys. Cheers!",
      "time": "2016-01-06T22:14:00",
      "id": "2443436573"
    },
    {
      "threadId": "4453489757",
      "post": "Great review. Thanks for talking about us, fellas!",
      "time": "2016-01-02T19:16:09",
      "id": "2436261829"
    },
    {
      "threadId": "4447698268",
      "post": "Thanks very much, Jordan! There's even more info on our Greenlight page here: http://steamcommunity.com/sharedfiles/filedetails/?id=535791747",
      "time": "2015-12-31T14:36:19",
      "id": "2433642221"
    },
    {
      "threadId": "4449549683",
      "post": "Thanks so much for talking about us, guys! There's more here on our Greenlight page: http://steamcommunity.com/sharedfiles/filedetails/?id=535791747",
      "time": "2015-12-31T14:29:52",
      "id": "2433635344"
    },
    {
      "threadId": "4389488800",
      "post": "Thanks so much for talking about us, guys! If anyone is wanting to help us, we just launched G Prime on Steam Greenlight: http://steamcommunity.com/sharedfiles/filedetails/?id=535791747",
      "time": "2015-12-10T18:43:57",
      "id": "2403539945"
    },
    {
      "threadId": "4220831541",
      "post": "Boom! They want to see Christians being people, not people being Christians!\nWell said. \n(And yes - this is Chris)\nBut Cryptopur means \"secret fire\" ... like Gandalf. ;)\nThe fact that it's a close homonym to my name it totally an accident. ;)",
      "time": "2015-10-15T19:10:41",
      "id": "2309231556",
      "parentPost": "Yeah. Absolutely. (You're Chris Skaggs, right? Assuming from the anachronism for Christopher in your name.)\n\nBut yeah. the main focus of my GameCell crew is non-christians. It probably seems like otherwise considering how much what we talk about is Jesus-oriented and stuff. But yeah. That's the wild thing I discover again and again: how much non-believing folk are looking for faithful examples of Christians and to be invited along for that experience with their questions in-hand.",
      "parentPostTime": "2015-10-15T18:57:17",
      "parentPostId": "2309208474"
    },
    {
      "threadId": "3826661427",
      "post": "Increasingly I'm convinced that our \"calling\" is simply to learn to be ourselves...",
      "time": "2015-06-09T00:22:06",
      "id": "2069077049"
    },
    {
      "threadId": "3349077241",
      "post": "It's hard to articulate but just the phrase \"economics of mutuality\" stirs something deep in my spirit.\n\nThere is a misty potential answer to one of lives \"isn't there more than this?\" problems to learn that this question will be taken up seriously at a school like Oxford...I'm giddy. :)",
      "time": "2015-01-21T00:42:02",
      "id": "1805245475"
    },
    {
      "threadId": "3069384872",
      "post": "Well said Morgan and I'm glad to see you walking into this seam between Christianity and Environmentalism. It bothers me to see so many believers let their politics muddy their faith on this topic and do a Baby:Bathwater exchange. >sigh<\nThat aside, what a grteat story!",
      "time": "2014-10-01T16:23:35",
      "id": "1615038910"
    },
    {
      "threadId": "2745598160",
      "post": "I've now stared at this comment box for 20 min. I...\ndon't know what I could say except that this thought...really shakes me too. \nHaving known you on both sides of that accident - it's a profound thing.\nBut one thing I know for certain - you were and remain a remarkable person. No random act of pizza baroness drunkassness could steal that from you.\nAgain - I'm honored to know you.",
      "time": "2014-06-09T05:03:44",
      "id": "1426440211"
    },
    {
      "threadId": "2669020759",
      "post": "Last night I got some of the worst news of my life and I wake up this morning, flirting with the temptation to just \"get busy\" - shove it all down and go to work...more. And I find this in my inbox. \nMy impulse to get to the shop early meant I was here alone when I read this without any social excuse not to do what was the most natural and perhaps holy thing I could have done...weep.\n\n\nThanks Mo.",
      "time": "2014-05-08T15:26:52",
      "id": "1375171678"
    },
    {
      "threadId": "2641356030",
      "post": "Good on ya Kate. Way to be. :)",
      "time": "2014-04-27T05:07:21",
      "id": "1357319280"
    },
    {
      "threadId": "2614077378",
      "post": "Thanks Jeff. So far, this story has been my only experience hunting though I'd love to do it again. Funny thing is that uncle Dave had gone several previous years without success and feels that I brought him luck on this trip.\nSince then he hasn't tried again - think he wanted to end on a high note. :)",
      "time": "2014-04-15T23:18:27",
      "id": "1339480483",
      "parentPost": "Wow Chris, Takes me back to when I went hunting with my dad, in Montana.\n\n\nJeff",
      "parentPostTime": "2014-04-15T22:19:05",
      "parentPostId": "1339143274"
    },
    {
      "threadId": "2526457033",
      "post": "Obviously John already spoke to his intent but I thought I'd chime in. For myself, the bone-deep inclination to isolate myself - particularly in times of stress - it reveals how likely I am to fall back to fallen instinct.\n\n\nThat changes though when I'm in the Battleship mindset. The more I live in that world the more I'm drawn to my teammates, the more I lean toward asking for cover fire, the less likely I am to think that nothing dangerous is going on...and that makes all the difference.",
      "time": "2014-03-27T21:48:02",
      "id": "1307041378",
      "parentPost": "Good post, John.  When you say 'lose it together', what do you mean?  With reference to Daniel, are you pondering his interaction w/ Rack, Shack & Benny, and the parallel band of brothers we might have or want?  Or, do you mean that we should individually lose our lives at the same time?  \n\nThat sounds like a strange question, but I feel like I'm missing some of your intent.\n\nGrace to you brother!",
      "parentPostTime": "2014-03-27T20:34:35",
      "parentPostId": "1306868227"
    },
    {
      "threadId": "2367981577",
      "post": "Your reply came in just as I'm listening to you do the poser session from 2003 ... Maybe you're posing as a mediocre writer/speaker/artist and you've bought your own pose. :)",
      "time": "2014-03-06T05:33:54",
      "id": "1272411648",
      "parentPost": "what does it indicate that I'm always so surprised when complimented on my writing? Thank you, your words are wonderful and so disruptive.",
      "parentPostTime": "2014-03-06T03:18:49",
      "parentPostId": "1272276904"
    },
    {
      "threadId": "2175270729",
      "post": "This is really intriguing. We don't specifically look at PTSR at BCNW but we do look at shame and its relationship to, and differentiation from, guilt.\n\nAnd yep - we describe it in exactly the same way. The difference between \"I did a bad thing.\" and \"I'm a bad person.\" \n\nWe would typically say that the dart of guilt lands in our soul (in the classical sense of mind+will+emotion) and is therefore reachable through talking therapy and an appeal to reason. Where guilt's sting lands in the spirit - a dial rarely moved by knowledge, wisdom or understanding. Pascal says that \"the heart(spirit) has reasons that Reason knows not of.\"\n\nFascinating stuff Kate...I mean Serlock!",
      "time": "2014-01-26T20:40:52",
      "id": "1217787906"
    },
    {
      "threadId": "2002579474",
      "post": "One of your best Morgan - way to go.",
      "time": "2013-11-27T20:34:47",
      "id": "1141827307"
    },
    {
      "threadId": "1663224063",
      "post": "Thanks for the heads up...YoungLife seems to change their links every year.",
      "time": "2013-09-18T23:32:18",
      "id": "1050193010",
      "parentPost": "Links for directions don't work.. try starting here... http://washingtonfamilyranch.younglife.org/Pages/default.aspx\n\nLooking forward to meeting everyone.",
      "parentPostTime": "2013-09-18T07:54:23",
      "parentPostId": "1048925860"
    },
    {
      "threadId": "878768322",
      "post": "As a little time has gone by I find  myself with a second and very different question when I re-read this post: What does redemption, renewal, and REconstruction look like for these men? Is that even possible?\n\n\nI see Spitzer back and running for office with Carlos Danger and it's as though he's unaware of any fall. Tiger Woods - back to golf. Ted Haggart has a new church just up the street from you.\n\n\nI confess that there is a part of me that wants fallen kings to go away forever, or at least to never try to act as kings again...they can clean the latrine or something, but not lead. So many of us - perhaps ALL of us - are hurt so deeply when the men we admire bomb. I know part of that is my fault, for allowing a man to somehow become superhuman in my heart when of course he is, of course, merely human. We idolize people and idols always disappoint. But that pain can fell SO brutal, so acute, that the nasty in me wants them to grovel forever and seek my individual forgiveness. There was a teacher in my high school who was a God-ordained life line at a time in my life when I really needed that. He was a father figure, a hero, and he changed my life for the better in many ways. Just a short time ago I found out that he's now in jail for embezzlement. It was crushing to se my hero fallen like that.\n\n\nBut then I think about what the fallen king must go through. How would I advise, say, a peer who had fallen in some way - someone I knew as a normal guy and not as a hero. I'd tell him to get back on the horse. I'd tell him that God gives us our gifts without reproach and when we are faithful to confess our sins He cleanses us of all unrighteousness. So say you're sorry - really, really mean it - then get back out there and keep fighting.",
      "time": "2013-09-07T05:20:47",
      "id": "1033113146"
    },
    {
      "threadId": "1155800627",
      "post": "I have to say - making  DAWG days a regular thing is one of the best things I ever learned. Where I grew up we would occasionally get this combination of snow and fog that was totally blinding. You can't see anything! But you can't just park out on the Rim all night either or you'd freeze to death.\n\n\nThe only way to move forward was by listening.\n\n\nIf you stopped, rolled down the window and listened really hard you could actually hear your way through the fog bank.\n\n\nDAWG days are like that - a way to stop and deliberately listen to the Father...whatever he might have to say. When life is dog OK, it's an uncommon joy. When life is crazy - it's just plain survival.",
      "time": "2013-03-26T18:02:11",
      "id": "843123674"
    },
    {
      "threadId": "1114325792",
      "post": "kingship...oi!\nI heard somebody once say \"If you want to be a king then you don't understand what it mans to be a king.\"  - at least a good one.\nI heard another guy say \"A good king will draw you to God. A bad king will drive you to God.\"\n\nIn all of that I refer to a profound rule of Morgan Snyder's journey - Character before kingdom. If we insist that God not \"bless\" us with more power and authority than our character can handle then we ought to be OK...it'll likely take a lot longer but the world will be better for your influence and not bruised by the it.",
      "time": "2013-03-05T00:56:50",
      "id": "819439494"
    },
    {
      "threadId": "1040676287",
      "post": "Great post Morgan - and profound timing. I find myself reading this just as I hit the ground to bury my father who died suddenly a few days ago. \n\nComing down south, sitting down with family, its the Remembering that has turned sorrow to laughter. It's the pause to catch our breaths and tell stories about fire trucks and 4X4s that brings my dad back to life in all our minds and it's SO life giving.\n\nI can feel that creeping pressure to \"do\" the truly impressive pile of stuff that has to be done when a person moves on. It can seem so important...perhaps even more it feels like a  place to escape, as if burying my head in death certificates and old bills can keep my mind off of painful things.\n\n\n\nRemembering is so powerful, so stirring, and so GOOD. In remembering my earthly father I find myself seeing my heavenly father. Lessons from Him coming through him. Love, respect, wisdom...it's part of grieving, it's part of healing and it's part of life...a part we neglect at great cost.\n\n\nThanks Morgan - and I see Ezra here too - remembering all the things and people I've come to love and respect on this  journey is also part of a life well lived.",
      "time": "2013-01-24T21:34:53",
      "id": "777237597"
    },
    {
      "threadId": "1022396422",
      "post": "I'll come back but right now I need to go on a long, probably very long, image hunting spree now that I've ben told there are white ink tatooos...\n\nOk - diversion complete. ever heard of that, but they do seem to look a lot like scars and that seems like the wrong vibe.\n\nGiven your story, and gathering that the ink is connected to all you've been writing, one could look or words or symbols of transformation, like a butterfly. But that seems off.\n\nOne could read your story not as transformation but almost RE-formation. Iris sent you down a road of briars and bogs but your recent soul work is at least partly about reclaiming what was lost. And knowing you, it seems a word (as opposed to an image) is more fitting.\n\nSo what about this: Shalom\n\nWhile often translated simply as 'peace' it's really a word with about as much depth and nuance as any word in any language. It's peace, wholeness, heath, soundness. It's not just peace it's utter peace, perfectness, fullness and rest...it's a big word.\n\n^ my 2 cents",
      "time": "2013-01-12T22:40:07",
      "id": "765285929"
    },
    {
      "threadId": "964691438",
      "post": "Great post JB. It strikes me as just one more place where we can sacrifice the sweet comfort of what works naturally for th futile effort to \"do something\"\nNot to encourage passivity in our relationshis, but to allow for space and resist striving. ",
      "time": "2012-12-09T22:17:25",
      "id": "731904774"
    },
    {
      "threadId": "936483976",
      "post": "\"The path is not linear and the vision is not long term.\" - That one line seems so profound and on the one hand it is so obvious and so difficult to grasp...or rather so hard to keep hold of. This powerful need to plan and scheme and arrange... >sigh< So hard to get ahead of that.\n\nGreat post Morgan.",
      "time": "2012-11-24T05:06:03",
      "id": "717945515"
    },
    {
      "threadId": "783687434",
      "post": "At the risk of sounding insensitive I've always wondered what happens in the mind of an abuser. I've read some significant amount about how the abusee gets into that space but not the other side. \nPerhaps I'm naive but I presume nobody actually INTENDS to be on either end of that dynamic, at least not consciously.\n\nAnyway, your writing is just getting better and better and to that end I have mixed feelings about your therapy - let me put it this way: if Adele gets all married and happy what will happen to her music? ;)",
      "time": "2012-07-29T00:50:30",
      "id": "601254593"
    },
    {
      "threadId": "769115974",
      "post": "John - I suspect you hit the nail on the head when you asked if most people draw those lines because they hate their jobs. Bingo.\nAs a guy who freaking LOVES his job now, but HATED more than one of my previous jobs, I know this from personal experience.\nWhen I was a manager at a sporting goods store, selling shoes and shotguns every day, I had just about zero interest in making connections with my co-workers. They were all nice enough people but somehow the fact our point of first contact was distasteful to me had a way of souring the relationship's future.\nI remember when one of the other managers threw a New Years party and invited all the people from the shop, who mostly all came. But all us were uncomfortable there. Like we didn't know how to bridge that gap and talk about anything other than the job none of us liked.\nIt's like, I may get along with my cellmate, but I don;t invite him to dinner when we're free.",
      "time": "2012-07-17T22:54:40",
      "id": "590584050"
    },
    {
      "threadId": "739181680",
      "post": "w00t! Looking forward to being there. :)",
      "time": "2012-07-02T16:03:16",
      "id": "574325854"
    },
    {
      "threadId": "519182095",
      "post": "If I get compared to Tolkien ONE MORE TIME...\n;)",
      "time": "2011-12-30T22:35:50",
      "id": "397585346",
      "parentPost": "I would not underestimate the influence that art--whatever form it takes--can have on people. For another example, the worldview of Dan Brown and The Da Vinci Code obviously influences Assassin's Creed's writers. I discuss this here:\n\nhttp://www.icepowered.com/Blogs/Gamers-Underground/The-Truth-Agenda-of-Assassin-s-Creed-2.html \n\nI think there are multiple ways Christians can influence the art of video games. As a gamer we can make our voices and our wallets be heard. As a developer we can choose which companies to work for and which projects to work on and hopefully influence the outcome.\nAs for game developers who are Christians there are several approaches. Most choose to produce edutainment. Check out Inspired Media's website for examples. But I personally feel that approach will only affect children and as such is only valid as a teaching tool.\n\nOtherwise, I think there are two camps exemplified by Tolkien and CS Lewis. Those two were in the same writing group the Inklings. They disagreed on the best approach to literature. Tolkien's works focus on overall worldviews and morals while CS Lewis's works are allegorical in form. In respect to video games I'd say Soma Games is like Tolkien while XrucifiX (maker of Eternal War) and Vertigo Digital (maker of Adam's Venture) are more like like CS Lewis. Both approaches are valid...and we need more like them!",
      "parentPostTime": "2011-12-30T17:54:00",
      "parentPostId": "397434748"
    },
    {
      "threadId": "257884446",
      "post": "There is nothing new about the \"me too\" impulse but social tools have certainly made that impulse 1000 times easier to actualize.\n\nStill, I think the root cause of the experience you describe is a wider cultural bent toward constant commentary and critique - of everything. I think you're on the right track though. The trick seems to be that we avoid being that long-haired know it all from the bar scene in Good Will Hunting. If we find ourselves echoing or commentating in order to impress other people instead of offering our own genuine input - then we're probably just posing.",
      "time": "2011-07-31T22:54:32",
      "id": "271405854"
    },
    {
      "threadId": "46871937",
      "post": "LOL - Are you kidding. We get folks all the time who are saying, \"Christian Video Games? Isn't that like Christian porn?\"\nThere are a lot of folks who have the same kind of OTD reaction that people did when the Beatles were new. But thanks for the kind words.\nThere's an old saying that you can tell more about a man from his enemies than you can his friends...so hopefully we are irritating the right kinds of people. Just like Jesus. :)",
      "time": "2009-11-21T01:34:33",
      "id": "23677006"
    },
    {
      "threadId": "14376764",
      "post": "There's an underlying notion here that I find very striking; the concept that any given storyline is only a subset of a much larger storyline.\r\n\r\nCertainly Lewis' Last Battle (and Revelation to some extent) stand as discreet tales. But their real power IMHO rests on the fact that they are consciously one chapter in a much larger story. Having this kind of scope adds an ineffable depth to a story that is very compelling to the reader/player. Lord Of The Rings was a huge epic story but there was a constant awareness that there were thousands and thousands of years of history that Aragorn was standing on. In a way, The Silmarillion never needed to be written because the LOTR readers could sense that meta story in the details of the one they were reading even if only in references to far awaty places and events.",
      "time": "2009-06-05T21:23:08",
      "id": "10534822"
    },
    {
      "threadId": "8238517",
      "post": "I think there are two things going on here. \r\n\r\nOne is the joy folks get from hooking up with friends on-line which is a powerful draw and makes a lot of sense from a business model standpoint. If I can make a game framework and allow players to make most of the game for themselves as PART of the game, that's awesome business.\r\n\r\nBut insofar as as games are still excellent vehicles for telling and experiencing stories...that's a very different set-up.\r\n\r\nIn the end though, there is really no need to choose. Halo 3 as an example did a wonderful job of offering the total package. Great storyline: check. Online multiplayer: check. Forge: check. We don;t need to see this as an either/or situation. So long as developers are willing to live outside the box, I expect we'll see a lot of games that blur all the lines and probably come up with many new ones.",
      "time": "2008-12-12T20:42:07",
      "id": "4372629"
    }
  ],
  "profileInfo": {
    "username": "Cryptopur",
    "about": "",
    "name": "Cryptopur",
    "disable3rdPartyTrackers": false,
    "isPowerContributor": false,
    "isAnonymous": false,
    "rep": 1.254815,
    "profileUrl": "https://disqus.com/by/Cryptopur/",
    "url": "http://www.somagames.com",
    "reputation": 1.254815,
    "location": "Newberg, OR",
    "isPrivate": false,
    "signedUrl": "http://disq.us/?url=http%3A%2F%2Fwww.somagames.com&key=BsiLEQsdS1NxvRYiO9dYpA",
    "isPrimary": true,
    "joinedAt": "2008-12-12T20:43:02",
    "id": "163712",
    "avatar": {
      "small": {
        "permalink": "https://disqus.com/api/users/avatars/Cryptopur.jpg",
        "cache": "//a.disquscdn.com/uploads/users/16/3712/avatar32.jpg?1281549414"
      },
      "isCustom": true,
      "permalink": "https://disqus.com/api/users/avatars/Cryptopur.jpg",
      "cache": "//a.disquscdn.com/uploads/users/16/3712/avatar92.jpg?1281549414",
      "large": {
        "permalink": "https://disqus.com/api/users/avatars/Cryptopur.jpg",
        "cache": "//a.disquscdn.com/uploads/users/16/3712/avatar92.jpg?1281549414"
      }
    }
  }
}