{
  "comments": [
    {
      "threadId": "4753941754",
      "post": "That's what I took it to mean.  That HAD to be a veiled reference to Armstrong.  The year he came back, plus that cadence.",
      "time": "2016-04-18T03:06:20",
      "id": "2629221687",
      "parentPost": "\"Varjas showed an early rudimentary version of a motor and admitted it \nmay have been used as early as 1998. He suggested that it best worked \nwith an extremely high cadence.\"\n\n\nGo Lance!",
      "parentPostTime": "2016-04-17T19:39:10",
      "parentPostId": "2628748988"
    },
    {
      "threadId": "4613451865",
      "post": "http://lmgtfy.com/?q=when+was+vicente+fox+president",
      "time": "2016-02-27T00:56:41",
      "id": "2539307272",
      "parentPost": "When he was the President",
      "parentPostTime": "2016-02-26T23:49:52",
      "parentPostId": "2539229736"
    },
    {
      "threadId": "4597921200",
      "post": "How is it a stimulus project if Trump is (somehow, someway) going to force Mexico to build it?  You think Mexico is going to use American workers?  And I guarantee you this:  it won't stop the drug trade one bit.  I'll grant you that it could slow illegal immigration--until they just find another way to get here--but there's too much money in drugs.  We couldn't stop the cocaine trade when we had the best of what the military had to offer patrolling the border.",
      "time": "2016-02-23T10:51:37",
      "id": "2530420094",
      "parentPost": "Hillary is entitlement and she's above the law..Bernie is straight up communist. ..u guys are struggling with obama......150 billion to a terrorist nation but no anger for it?yet you guys complain over the wall the will cost 20 billion but yet it is a stimulus it bring jobs to the border states...will cut in the drug cartel wallet ....but no no ...hypocritical Democrat's. Go trump 😀 2016",
      "parentPostTime": "2016-02-21T22:48:46",
      "parentPostId": "2527240023"
    },
    {
      "threadId": "4493822304",
      "post": "Sick workers?  I'm sure that doesn't help but are you telling me that dozens of workers in 8 states all contracted e.coli and came into work infecting people at the same time?  That's obviously an issue with the supply chain.  The whole point of the article was to show that if Chipotle wants to source local ingredients and emphasize on-site prep, they're going to have more chances for contamination.  The fact they are using fresh food is--by the very nature of having more people handling it--less safe.\n\nThe author wasn't saying using fresh ingredients is wrong.  He's saying it comes with a lot more leg work to keep it safe, since there is less control on the supply.",
      "time": "2016-01-16T15:40:12",
      "id": "2461551151",
      "parentPost": "The title is deceptive. This scandal was caused by sick workers going to work for Chipotle to make a living. I have not heard any companies -Chipotle or any other in the industry- offering paid sick day leaves for their employee. The way they are trying to \"fix\" this situation is by more processing with machine their \"fresh\" food. This scandal is only going to encourage pre-prepared food that is not cooked in the local restaurant's kitchen but rather by manufactured kitchen that the public does not known about and whose access are available only to \"professionals\". Everything from pasta to french fries to meat can be found premade and the only ingredient added is \"reheating\". The writer of this article should not be spinning the fault on \"fresh food\". For the record I do not believe that the sick workers should be disciplined for coming to work as it is the intention of Chipotle. The only true fix for the food industry is to offer paid sick day leaves. If this measure is not implemented, we shall see the same headline again with (put brand name here).",
      "parentPostTime": "2016-01-16T02:45:46",
      "parentPostId": "2460907171"
    },
    {
      "threadId": "4420628746",
      "post": "No way.  This isn't Attack of the Clones.  Even if their love diminishes, there's no way everyone will back away from it.  While it could have been a little lighter on the callbacks, I think it was necessary to remind people why they liked Star Wars in the first place.  And since the last three movies haven't really done anything to bring in any new crazy-devoted fans, they essentially needed a reboot.\n\n\nI anxiously awaited all three of the prequels and was severely disappointed with all three.  I didn't have that feeling here.  The fact that there was dialogue that actual humans would say, or that it wasn't a handful of human actors in front of a green screen for the whole movie, or that the acting wasn't so wooden, or that we didn't have minute upon minute of pointless scenes, all of these immediately push up to the status of a worthy follow up movie.\n\n\nAnd now that they've done the reset, and introduced several new compelling characters, we can move forward.",
      "time": "2015-12-22T03:23:46",
      "id": "2420890365",
      "parentPost": "I think you're absolutely right.  Years from now, most of the people singing praises to this movie will be decrying it as bad and will pretend like they didn't like it.",
      "parentPostTime": "2015-12-21T17:41:33",
      "parentPostId": "2420120070"
    },
    {
      "threadId": "4054567861",
      "post": "Yeah.  I think all the people commenting here don't actually know what LNT means as a principle.  Kind of how people conflate the difference between scientific theory and layman's theory.  I can't believe I read an article that made me want to defend Burning Man.",
      "time": "2015-12-18T03:31:55",
      "id": "2415260060",
      "parentPost": "Eh, I don't really think Burning Man claims to have \"environmentalism\" as a core principle. The principle is \"Leave No Trace\", which essentially means don't leave a bunch of garbage in the Black Rock Desert. That's something that the organizers and participants actually do very well.",
      "parentPostTime": "2015-08-25T18:18:10",
      "parentPostId": "2216010432"
    },
    {
      "threadId": "4395993057",
      "post": "Not to mention getting your hands on pure nicotine is next to impossible unless you're a pharmaceutical company.",
      "time": "2015-12-12T19:42:58",
      "id": "2406739289",
      "parentPost": "Exactly,  pure nicotine is EXTREMELY lethal.   No one in the vaping community would even recommend you handle it even if you fully intend on diluting it.  \n",
      "parentPostTime": "2015-12-12T19:31:04",
      "parentPostId": "2406724778"
    },
    {
      "threadId": "4371864778",
      "post": "Honestly, I just like the whole ordeal.  I don't have a killer system.  It's all analog, vintage amp and all that, but I don't go crazy with it.  It sounds great but I've never done an A-B test or anything.  What I like is it requires me to sit and listen to a whole album.  Ever since my first iPod I've gotten into this habit of just jumping around from artist to artist.\n\n\nIt means I'm going to have to slow down and just listen to an album straight through.  No skipping, no pausing so I can watch a video.  Just music.  I find the imposition to be relaxing.  It's kind of like how driving a manual transmission makes you feel more in touch with the car, vinyl makes you feel more in touch with the music.",
      "time": "2015-12-04T05:34:41",
      "id": "2392583575",
      "parentPost": "Haha! Thanks for the comment. I've always been curious about vinyl but the equipment and albums seem expensive. What do you find you like about it versus digital?",
      "parentPostTime": "2015-12-04T01:01:20",
      "parentPostId": "2392249528"
    },
    {
      "threadId": "4333844862",
      "post": "What you've just said is one of the most insanely idiotic things I have ever heard. At no point in your rambling, incoherent response were you even close to anything that could be considered a rational thought. Everyone in this room is now dumber for having listened to it. I award you no points, and may God have mercy on your soul.",
      "time": "2015-11-20T03:59:19",
      "id": "2369417593",
      "parentPost": "A Confederacy of Dunces changing positions on the left coasts.  This story brought to you by the book, 'Who gives a sh t, and other useful sayings'.  \n\nWe know what you are.  We know who you are.  We don't watch you.  \n\nNow imagine the highest rated shows of all time.  Now compare those shows(Duck Dynasty/Fox Republican Debates/etc) to the population of Deerborn Michigan numbers those numbnuts are getting.  Do a little math and you'll realize that you have no audience but the mind wiped lemmings & mentally ill.  It's that simple.\n\nHere's a pro-tip.  Something good comedians know.  For something to be funny, it HAS to be true.  Which is where this all goes wrong.  Because all of your information and meme's are factually false.  Therefore, not funny when you make fun of something that never happened.  Got it?  Get it?  Good.",
      "parentPostTime": "2015-11-20T02:55:23",
      "parentPostId": "2369351367"
    },
    {
      "threadId": "4248391349",
      "post": "Problem I see with that is it might not be a light pole they hit but another car.  And yeah, they will be liable and everything, but I doubt the dead people in the other car will really care about liability.",
      "time": "2015-10-23T01:20:10",
      "id": "2321989640",
      "parentPost": "Agreed.  Punish those whose actions are reckless and irresponsible.  Don't punish the guy running 90 in west TX/OK/NM on a highway with no traffic in viewing distance.  Run 90 at night through a heavily populated area?  Let the cops or the light poles/trees sort it out and punish accordingly.",
      "parentPostTime": "2015-10-22T17:20:16",
      "parentPostId": "2321215599"
    },
    {
      "threadId": "3838243147",
      "post": "I've yet to be driving around, have a song pop in my head, and be able to flip on the radio and listen to that song.  I've also never heard a local station play all the music I'm interested in.",
      "time": "2015-06-12T02:45:41",
      "id": "2074915663",
      "parentPost": "I don't really understand why anyone would pay for any of these music services. In the car you have a radio and at home there are a ton of free streaming audio services. I guess it is the same idiots that pay to watch porn.",
      "parentPostTime": "2015-06-11T02:13:00",
      "parentPostId": "2072979998"
    },
    {
      "threadId": "3435213884",
      "post": "No.  But you can google Enzo Malibu Crash to see the pics.  Tore the car in half.  I think he was going like 150 or so, and then went airborne into a telephone pole.  He walked away.",
      "time": "2015-01-19T23:01:24",
      "id": "1803280494",
      "parentPost": "is there a video of it?",
      "parentPostTime": "2015-01-19T20:31:35",
      "parentPostId": "1802935375"
    },
    {
      "threadId": "3399384350",
      "post": "I know the design on the bags is what has stopped me from eating there.  I mean, what if someone looks in my car while I'm driving home and sees that abomination of design sitting on my seat?  I'd have to leave town in shame.  It was this fear that kept me from visiting, not the crappy, grease covered food.",
      "time": "2015-01-08T02:39:53",
      "id": "1777652125"
    },
    {
      "threadId": "3259394889",
      "post": "Am I going to have to be the one to say readily available porn?",
      "time": "2014-12-09T01:49:16",
      "id": "1732554870",
      "parentPost": "What would you say are the other 10, out of interest?",
      "parentPostTime": "2014-12-08T16:16:06",
      "parentPostId": "1731552991"
    },
    {
      "threadId": "3221784268",
      "post": "To be fair they are talking about nearly twenty years ago.  How long does one have to wait?  That's prime nostalgia age.",
      "time": "2014-11-15T21:27:30",
      "id": "1694963175",
      "parentPost": "",
      "parentPostTime": "2014-11-15T17:00:18",
      "parentPostId": "1694639618"
    },
    {
      "threadId": "3170517911",
      "post": "This is completely different.  I was at a prime age when Myspace was blowing up, and even then a lot of my friends weren't on it.  The internet was completely different fifteen years ago.  I've watched as pretty much every computer illiterate person I know has started up a Facebook account.  Kids that grew up during the whole 'Facebook is lame' era are now getting accounts just to keep in touch with everyone, especially older family members, because EVERYONE is on Facebook.\n\n\n My grandma has never heard of myspace, but she shares dozens of worthless stories on Facebook every day.",
      "time": "2014-11-02T14:57:59",
      "id": "1671134059",
      "parentPost": "I wonder if Wired had existed in it's current state in 2008 we'd have read about how MySpace was going to control everything we see online...",
      "parentPostTime": "2014-10-30T16:10:48",
      "parentPostId": "1661312259"
    },
    {
      "threadId": "3079044502",
      "post": "You record the video on a tripod, which gives a stable image that you can add your effects to.  Then you run that video through a program that adds shake, which is why the graph showed a very repetitive track.  There's no second video, no superimposition.  Just a fake video that people share on Facebook because they believe anything.",
      "time": "2014-10-04T16:11:35",
      "id": "1619544055",
      "parentPost": "I am not sure the author xplained the video shake method well enough for me.  Ok step one video something. step two get a video on tripoid of same scene and then superimpose the two videos.. step three then add video effects to 2nd video?  why can't you just edit the first video???",
      "parentPostTime": "2014-10-03T15:15:28",
      "parentPostId": "1618086974"
    },
    {
      "threadId": "2870509814",
      "post": "Once they get true AI, the robot bosses will likely be as selfish as human ones.  Fifty years from now we'll be reading machine code pamphlets from disadvantaged robot mine workers trying to unionize.",
      "time": "2014-07-30T22:34:49",
      "id": "1513463139",
      "parentPost": "that is fortunately a problem that robots will have to solve with their robotic overlords",
      "parentPostTime": "2014-07-30T14:52:12",
      "parentPostId": "1512182354"
    },
    {
      "threadId": "2879950174",
      "post": "Where else am I supposed to store my comically oversized souvenir sombrero?",
      "time": "2014-07-29T16:27:11",
      "id": "1510333666",
      "parentPost": "When some dufas decides to use the overhead space to stow their hat, I see a red mist descend over my eyes. I really want to just crush it with my carry-on, but usually just ask a flight attendant to find somewhere else to have the hat stored. \n\nWhy do people feel compelled and entitled to put their hat in the overhead bin? You needed to bring it, so keep it on your head, or in your lap. \n\nPeople generally are just inconsiderate, and those flying on planes are no different.",
      "parentPostTime": "2014-07-29T15:35:09",
      "parentPostId": "1510254672"
    },
    {
      "threadId": "2861192975",
      "post": "If we did that there'd be like five TdF winners.",
      "time": "2014-07-25T14:40:10",
      "id": "1503253348",
      "parentPost": "My stance is to strip all the cheats of their titles, not just Armstrong. I'm not saying don't forgive, but they must lose their ill gotten gains.",
      "parentPostTime": "2014-07-22T07:25:13",
      "parentPostId": "1497472334"
    },
    {
      "threadId": "605419517",
      "post": "I've never heard two pronunciations of apple in America.  I thought \"ont\" was a British pronunciation.",
      "time": "2014-07-21T23:41:09",
      "id": "1496945185",
      "parentPost": "I have heard two American pronunciations of \"apple\" -- the first, which seems natural to my ears, pronounces a as in \"fast\" or \"bat\" or \"cat.\" The second is like the o in \"opportunity\" or \"fodder\" or \"top\" - or \"chomp.\" The word \"aunt\" in some parts sounds the same as \"ant\"; in others, it is more like \"ont.\"",
      "parentPostTime": "2013-12-12T19:21:55",
      "parentPostId": "1160479100"
    },
    {
      "threadId": "824646027",
      "post": "Jokes on you, that mustache is FAKE.",
      "time": "2014-03-28T20:28:50",
      "id": "1308780879",
      "parentPost": "\"guy with ironic mustache has pretentious opinions\" Congratulations on being a cliche.",
      "parentPostTime": "2014-03-28T06:33:20",
      "parentPostId": "1307792319"
    },
    {
      "threadId": "2402627461",
      "post": "But they won't take a hint.  And I'm not sure they won't recoup their cable losses through broadband.  Prices go up, in addition to throttling data, charging companies like Netflix and Hulu extra money for priority, and finding new ways to squeeze the consumer.  And all this for an internet connection that doesn't vie you a reliable speed.  It's oh so awesome.",
      "time": "2014-03-13T15:04:44",
      "id": "1282909762",
      "parentPost": "Yeah, but there's no way they charge that much for internet.  There are alternatives out there for internet at least.  Cable, not so much.  The regional monopolization is quite ridiculous.  More people cutting the cord should be a hint to the cable companies.  Instead of cutting prices, Comcast is looking to forge a even stronger platform and strongarm the consumers into paying the same amount (while saving cost on their end with the synergies of the merger).  Looks like a win for the evil cable company if it goes through.",
      "parentPostTime": "2014-03-13T06:35:22",
      "parentPostId": "1282487050"
    },
    {
      "threadId": "2351852008",
      "post": "Now this is art I can understand.",
      "time": "2014-03-05T14:27:17",
      "id": "1271273791"
    },
    {
      "threadId": "2330592030",
      "post": "Then maybe your restaurant doesn't use day old bread.  Of all of the items on this list, the day old bread is the only one that actually makes sense.  I've actually been asked before they started my order if I wanted it toasted, and it completely makes sense that they'd use up older bread.\n\nI'm not really bothered by it - there are several meals I would make at home to get rid of old bread - but it did emphasize a point.",
      "time": "2014-03-04T18:57:39",
      "id": "1270294655",
      "parentPost": "That's not how they do it in my area. I'm not asked if I want it toasted until I've selected what bread, meat, and cheese. After that I'm asked if I want it toasted or not. I call bullshit.",
      "parentPostTime": "2014-03-04T16:47:07",
      "parentPostId": "1270137438"
    },
    {
      "threadId": "2327105490",
      "post": "A robot workforce sounds great and all, but where are all the displaced workers going to go?  We could have the most efficient workforce in history, but with no workers, there's no money, and thus no need for such an efficient workforce in the first place.  \n\nI'm terribly worried where this type of automation is going.  It's in the corporation's interest to cut as many people from the payroll as possible, and pocket the saved money.  Governments will see increases in GDP on the horizon, plus they're in the industry's pocket anyway, so who is looking out for the average human here?  Is everyone in the country just going to wait tables and sell shirts at the mall?\n\nIf this is the direction we're going, we need to drastically alter the responsibilities of the common citizen so they can maintain a livelihood.",
      "time": "2014-02-27T17:06:24",
      "id": "1263145789",
      "parentPost": "What about talking about these developments in terms that lie beyond consumer satisfaction, and what it mights for the global workforce and society in general? We do ourselves a great injustice as a race defining everything in what is a relatively recent development in human history. I am a human and a citizen before I am a consumer.",
      "parentPostTime": "2014-02-27T16:44:05",
      "parentPostId": "1263114249"
    },
    {
      "threadId": "2285893395",
      "post": "So how long before a major player in the industry buys Theranos and gets those prices back to where they want them?",
      "time": "2014-02-21T20:33:50",
      "id": "1255304334"
    },
    {
      "threadId": "2291381037",
      "post": "I don't think Steve Jobs has to worry about this.",
      "time": "2014-02-20T18:34:55",
      "id": "1253614899",
      "parentPost": "Finally a good use for all of those drones: \"pete peterson, john arnold, charles munger, tom perkins, steve jobs, eric schmidt, markie mark zuckerberg, billie boy gates, other silicon valley billionaires...last chance to pay your taxes.  If not, make sure your cell phones are turned on and expect an incoming any minute...zzzzzzzzzzzzzzzzzzz...boom!!!  Never mind...!!!",
      "parentPostTime": "2014-02-20T17:45:41",
      "parentPostId": "1253541287"
    },
    {
      "threadId": "2253618684",
      "post": "When I had it, aside from looking even uglier than usual, bright light was murderous.  I imagine it would be torture sitting in front of a camera with bright lights in your face.",
      "time": "2014-02-12T04:27:19",
      "id": "1240674129",
      "parentPost": "Thanks for the both humorous and informative article!\n\n\"If his drainage is clear, that would support the diagnosis of a viral \npinkeye. A greenish discharge might raise concern that the cause is a \nbacterium.\"  Ahhh, that's something I've never heard before.  Again, thanks!\n\n\n\"“If it were just a matter of discomfort, I’d be there,” Costas said, \nimplying that it was a matter of his appearance being unsuited for \ntelevision.\"  Hmmm, I took this as implying that he might be having trouble seeing things (like teleprompters and directors waving their hands) or putting up with the bright studio lights.",
      "parentPostTime": "2014-02-12T00:33:06",
      "parentPostId": "1240469131"
    },
    {
      "threadId": "2183247651",
      "post": "Well, yeah.  Specifically (as I said) it is what bothers me about iPhone users.  It's less of a deal now because lots of people have iPhones.  But four years (or so) ago, when an iPhone was still seen as a sort of status item, seeing a case that had a cutout, just so everyone could see that, yes this phone really is an iPhone... it struck me as a little vain.  It's a phone.  Show it off by using it, I don't need to see your logos.  \n\n\nI'm not really a fan of the whole logo-centric lifestyle.",
      "time": "2014-01-29T03:28:03",
      "id": "1221240057",
      "parentPost": "All the things wrong in this world, and the logo cutout in cases for iPhones is what bothers you? You lead a very charmed existence!",
      "parentPostTime": "2014-01-28T19:24:07",
      "parentPostId": "1220510937"
    },
    {
      "threadId": "2160167131",
      "post": "Nice review.  Have you noticed that album tracks are out of order?  I haven't searched through every album but I noticed it on several that usually the opening track was there but after that it was a crapshoot.  \n\nI also keep reading about a web player but I can't find it anywhere.  Finally, I want my last.fm integration.  Not having that is a dealbreaker.\n\nI've had Spotify since it was available in the US.  I switched from MOG, which had a decent interface but seemed really buggy and took FOREVER to stream tracks.  But Spotify doesn't seem to really care about the UI, and I get the impression that Beats really does.  If they get a web/desktop player, and integrate last.fm, I think I'll make the switch.",
      "time": "2014-01-26T00:15:13",
      "id": "1216797465"
    },
    {
      "threadId": "2039458979",
      "post": "They've got a stand right out on the platform.  They're cooked and wrapped and ready to go.",
      "time": "2013-12-11T14:11:43",
      "id": "1158656432",
      "parentPost": "I thought this was something similar to that one Seinfeld episode where they raced for food between subway stop.",
      "parentPostTime": "2013-12-11T07:48:57",
      "parentPostId": "1158392138"
    },
    {
      "threadId": "1910863784",
      "post": "I agree.  I dig a great character study.  So why aren't they doing this?  I haven't learned anything about any character this season, other than the handful of people they'd introduced so they could die in that episode.  \n\n\nI think the problem with the show is that it relies too heavily on killing zombies.  At first they were able to balance this by introducing us to the post-apocalyptic world, which gave some great elements to the story.  But that's getting way stale now, so we're left with tiny hints of a story mixed in with a bunch of stupid zombie headshots.",
      "time": "2013-10-31T01:33:37",
      "id": "1103054779",
      "parentPost": "There's plot-driven and there's character-driven.\nWhat keeps me interested is wanting to know where did these characters come from (in the cases like Michonne where we don't know) and where are they going, what will become of them?\n\n\nYou want plot-driven, watch \"24\" where every week things blow up and Jack yells into his cell phone, \"is the president dead?!?!\", but you don't know anything about the characters' inner lives, nor do you care.\n\n\nI really care about these characters, as do so many other fans, and that's a symptom of great character development.",
      "parentPostTime": "2013-10-29T12:58:26",
      "parentPostId": "1100711790"
    },
    {
      "threadId": "1860095633",
      "post": "Cue long lines at the vending machine for the whole flight.",
      "time": "2013-10-16T19:39:39",
      "id": "1084780900",
      "parentPost": "Sure, the carts are stocked with a half dozen drinks, but by the time they get to the end the popular ones are gone and you'll take what they've got and you'll like it dammit! :-P Not to mention your schedule of when you get thirsty might not match up with when the carts roll around. You either end up thirsty before they come around and gulp down your drink at the beginning of your meal, or you save your drink and watch it slowly get warm until you get thirsty later. With the vending machines you can get what you want when you want it. Sounds like a great idea to me.",
      "parentPostTime": "2013-10-16T17:54:13",
      "parentPostId": "1084631599"
    },
    {
      "threadId": "1757640187",
      "post": "I think that was the point.  At least it wasn't Soylent Green.",
      "time": "2013-10-10T03:05:29",
      "id": "1077153781",
      "parentPost": "Soylent is a really horrible name for a food product.",
      "parentPostTime": "2013-10-09T15:34:42",
      "parentPostId": "1076387907"
    },
    {
      "threadId": "1767278334",
      "post": "Or is it software has improved to meet the capabilities of new hardware?  Like a modern day chicken or egg argument.",
      "time": "2013-09-17T23:13:12",
      "id": "1048557389",
      "parentPost": "Newer software has always run less optimally on older hardware. Why else has hardware ever improved in the first place? To meet the demands of newer software. ",
      "parentPostTime": "2013-09-17T22:34:21",
      "parentPostId": "1048523499"
    },
    {
      "threadId": "1504518796",
      "post": "Add Ohio to that list.  One of my friends is an attorney and has a plethora of black suits.  He dresses pretty well but loves the black.  He said that's what most people in his area wear.",
      "time": "2013-08-19T04:46:46",
      "id": "1006225841",
      "parentPost": "Come to Texas or Oklahoma.",
      "parentPostTime": "2013-07-19T01:07:02",
      "parentPostId": "968020592"
    },
    {
      "threadId": "1532175458",
      "post": "Exactly what I was thinking when I read the article.  I have no idea how much wear it actually does, but I know when I learned to drive stick that I was told not to hold the gearshift.",
      "time": "2013-07-27T13:56:43",
      "id": "978318738",
      "parentPost": "The real problem is that you wear the Shifting forks in the transmission when you leave your hand on the gearshift.",
      "parentPostTime": "2013-07-26T17:24:20",
      "parentPostId": "977496143"
    },
    {
      "threadId": "1506435299",
      "post": "I think most of these words were created to describe the way we talk.  Knowing what a dental frickative is helps when writing or talking about another language, etc.  I think they may have been using as many words as possible for effect, but maybe not.  I ain't a linguist.",
      "time": "2013-07-19T02:39:56",
      "id": "968090205",
      "parentPost": "After watching the video, I recognize the second of the 10 as the trademark of one person (fictional character) and one only: Sheldon from \"The Big Bang Theory.\"  No matter who else makes such a \"sound,\" all I can hear is Jim Parsons saying it.\n\nFor numbers 2 through 9, I have to ask: Is this why there exists such a thing as a Ph.D. in linguistics?  I can't think of another good reason outside of pure academia for its own sake and perpetuation than to come up with words and combinations of words to describe such things, especially when they are words and combinations of words that no one apart from a self-important academic would ever use.  Except perhaps in an article such as this one--I don't think Mr. (Dr.?) Harbeck is a self-important academic--in order to demonstrate the applications of such words/combos.  Of course, even in this case, do we really require terms such as \"Fortis voiceless alveopalatal fricative\" and “Pulmonic ingressive voiceless alveolar glide and mid-central vowel, with optional unreleased final bilabial stop?”  Seriously, use either of these in a sentence not specifically geared towards aural linguistics, or better yet, use them in casual conversation at a social gathering where all those present haven't been trained and/or indoctrinated by the late William F. Buckley Jr.\n\nAfter 25 years as a writer and editor, I am a firm believer in trying to use the \"right\" word and/or the \"best\" word whenever possible.  But as a fellow student in my very first college writing course once pointed out, \"Do you really need to use UTIILIZE when you can just as easily utilize USE?\"\n\n\nP.S. - In almost any other case, I'd forgive and probably ignore the misused word Mr. Harbeck cites in his initial comment.  However, the very word \"labiodental\" automatically puts me in mind of the mythical (I hope!) condition of \"gynecologica denterra\" that scares the living hell out of any man who has ever learned its meaning.",
      "parentPostTime": "2013-07-17T18:56:11",
      "parentPostId": "966020799"
    },
    {
      "threadId": "1469660348",
      "post": "I feel like this article was written by someone unfamiliar to cycling.  You mention that teams like Vaconsoleil have suddenly shown up, even though they've actually been around for several years.\n\nCycling has never really had 'multi-billion dollar global conglomerates.'  If a company wants to throw serious money around, they'll sponsor soccer.  That's why all the cycling teams are usually these mid-level corporations.  But it's easier to just write an article saying all the big names have left.\n\nIf you really want to see how the business world is perceiving cycling, check the commercials during the Tour de France.  The luxury status of the ads has taken a serious hit this year - I see a lot of ads for some mail order liver supplement, which is something I'd expect to see airing at some late night hour.",
      "time": "2013-07-14T14:29:36",
      "id": "961787751"
    },
    {
      "threadId": "1052080973",
      "post": "I loved this album.  I was anxiously awaiting this since their EP last year, and from the first notes of Houdini Crush it had me hooked.  A few tracks might not be as stellar but on the whole this is maybe my favorite album of the year.",
      "time": "2013-07-06T05:29:38",
      "id": "953465381"
    },
    {
      "threadId": "1463280879",
      "post": "Years ago I read an article that talked about this.  The more well done you like your meat, the more carcinogens you are eating.",
      "time": "2013-07-04T15:30:45",
      "id": "951786188",
      "parentPost": "Indeed, though I fear for \"new complex molecules\" we might as well read \"candidate carcinogens\".\n\n\nI like the taste of BBQ as much as anyone, but I do wonder if there's any research on the health effects of a barbecue diet?",
      "parentPostTime": "2013-07-04T14:27:05",
      "parentPostId": "951704922"
    },
    {
      "threadId": "1079970409",
      "post": "Don't they dilute liquor at Walmart though?  And Makers is already going to be diluting their entire like by 3% anyway.  Lame. I'm not a huge bourbon drinker but I've been quite satisfied with Evan Williams which is pretty cheap",
      "time": "2013-02-13T16:24:55",
      "id": "797779812",
      "parentPost": "You can often find Makers at Walmart for like 18 bucks for a 750ml bottle. Not as cheap, but a much better bourbon than Old Crow. I usually drink Bulleit Rye though. I'll splurge an extra 5 for a whiskey I actually enjoy.",
      "parentPostTime": "2013-02-13T16:12:16",
      "parentPostId": "797767224"
    },
    {
      "threadId": "1065439484",
      "post": "Feather blades are exceptional but terribly sharp.  For a beginner I'd probably recommend something not quite so deadly.  When I first started I had a five pack of Feather blades and a five pack of Treet Platinums.  The Feathers tore me up as I was learning the proper technique but I got along pretty well with the Treets.  My first time using a DE I was a bloody mess.  Once I learned how to shave (don't push!) I switched back to the Feathers.",
      "time": "2013-02-12T08:24:00",
      "id": "796317029",
      "parentPost": "I've been shaving with a double-edge razor for over a year now and I cannot say enough about it.  I used to ALWAYS get razor burn, nicks, cuts whatever no matter what cartridge or cream or gel I used.  Switched to a double-edge and never looked back.\n\nI second the call for anything Merkur - their line is 100% solid.  In my opinion, their blades are decent but by far, hands down the best are Feather. If you do any research, you'll see that Feather blades are the sharpest blades made and they are but don't let that scare you. By a pack and try them out. They've worked out the best for me and have no pull whatsoever (I even had a week's worth of beard going that they cut right through like it was nothing). I would recommend getting 5 blades of different brands and see what works for yourself. Once you find the one you like, amazon has great prices for 100 packs that will last you a long time and are much cheaper than the cartridges you used to buy (for example, amazon has 100 Feather blades for $30.00, making each blade $0.03 and 100 blades will last easily over a year for me).\n\nFor creams, I prefer soaps.  I just picked up the Art of Shaving's unscented soap (in a nice wood bowl) and I love it. Lathers nicely and easily and doesn't dry out your face (some cheaper soaps did for me like Williams mug soap).\n\nAs for brush, I have an Edwin Jagger badger hair brush. Go with a good brush if you can swing it - it'll last longer and save you in the long run. Badger hair is best and it's nice and soft on your face.\n\nI would also advocate for the use of shaving oil - apply it before your cream/soap. I find it cuts down on any irritation exponentially. I've personally used Art of Shaving and American Crew and have had success with both.",
      "parentPostTime": "2013-02-11T13:43:55",
      "parentPostId": "795422235"
    },
    {
      "threadId": "1053907322",
      "post": "Same boat here.  Even a cyclist.  Though I have no ass to speak of.  It's really cool to read these sites and see great deals all around and then see that their smallest size is Small.  So it's either getting EVERYTHING tailored or paying much more for companies that have an XS.  Express, J Crew, Gap, etc.  H&M fits but their stuff is usually pretty poor quality.  Oh well.",
      "time": "2013-02-05T02:26:29",
      "id": "788850334",
      "parentPost": "5'8\" 130lbs. Bike racer, so my butt hold up pants.  I have a 33-34inch chest and a 27-28 inch natural waist.  I tailor a bunch of stuff but the Express 1MX Extra Slim Fit in Extra Small fits me almost too tightly.  If you look at the size chart they really need a size between XS and S.  It might work for you, it looks really good on me when I am standing and bunches a little when sitting.",
      "parentPostTime": "2013-01-31T16:35:24",
      "parentPostId": "784645489"
    },
    {
      "threadId": "1035638306",
      "post": "Great point.  Though I'd like to say there was no malice in my comment, it was more of a tongue in cheek kind of thing.  \n\n\nHow about \"Oh man he didn't listen to any of your suggestions!\"\n\n\nI'd love to see a Prez rocking a light grey suit.  Actually I'd just settle on seeing Obama ditch the mom jeans.",
      "time": "2013-01-21T20:13:37",
      "id": "774212640",
      "parentPost": "You can only be wrong if you're making predictions. He's making suggestions in this post.",
      "parentPostTime": "2013-01-21T17:09:58",
      "parentPostId": "774027468"
    },
    {
      "threadId": "1030420276",
      "post": "You should elaborate on those fashion anchors.  I don't remember seeing any writeups about them, and they look like a really interesting idea.",
      "time": "2013-01-18T17:13:45",
      "id": "771891759"
    },
    {
      "threadId": "1030033421",
      "post": "I dig your ideas. I think brown shoes and grey look awesome together, and I LOVE to have contrasting socks.  Throws a little flair into an otherwise normal look.",
      "time": "2013-01-17T15:19:08",
      "id": "770950010",
      "parentPost": "I'm getting married in a few months and opted to go with a medium grey suit(not charcoal) as it is a daytime, outdoor wedding.  When looking for the right pair of shoes I was told by many older(50+ years old) salesmen that black goes with gray.  When I spoke with younger guys, brown was considered to be appropriate and more fashion forward. It certainly 'breaks' the rules, but I've seen Joe post several times tha some rules are meant to be broken.  I also wear socks that typically contrast my pants.  Olive pants with blue socks for example.  We've all heard 'socks are an extension of your pants' which is a load of crap if you ask me.  You know what they say, the worst thing to be is forgettable.  Apparently grey/brown makes an impression people can't forget.\n\nAnd sorry about the in-laws.  They sound like a ruthless bunch.",
      "parentPostTime": "2013-01-17T11:24:47",
      "parentPostId": "770801669"
    },
    {
      "threadId": "952320109",
      "post": "Hey sorry I didn't respond sooner I didn't realize I had a reply.  I bought mine from classicshaving.com.  I've tried the almond, bay rum, and something else which I forget.  I liked the almond best but I have a soft spot for the smell of almond.",
      "time": "2013-01-11T03:40:43",
      "id": "763291891",
      "parentPost": "Where did you get your soap from? :)",
      "parentPostTime": "2012-12-04T22:41:50",
      "parentPostId": "727658866"
    },
    {
      "threadId": "977731249",
      "post": "I use those cedar clamp pants hangers and LOVE them.  But I've got a question.  I have the wide shoulder wood hangers for suits, but they seem like they're too wide.  Wide as in across the width, not too fat.  The end of the hanger goes past the shoulder hem probably two inches on each side.  I haven't noticed any fabric deformation but it worries me.  Do they make narrower hangers for men with the build of a taut pre-teen Swedish boy?",
      "time": "2013-01-11T03:37:37",
      "id": "763289338"
    },
    {
      "threadId": "957098123",
      "post": "I use wide-ended suit hangers from The Container Store, but my problem is the hanger seems too wide for the jacket.  The ends of the hanger are wider than the shoulders on the jackets.  I haven't noticed any permanent deformation (like you'd get from hanging a sweater) but it worries me greatly.",
      "time": "2012-12-05T00:41:09",
      "id": "727757224"
    },
    {
      "threadId": "947311001",
      "post": "I've wanted something like that for years.  I especially don't want a hardside suitcase, which is pretty much all you get with vintage.  I saw a picture of a grey and red plaid tweed dopp kit that I would LOVE to see in suitcase form.",
      "time": "2012-11-28T14:51:16",
      "id": "721546581",
      "parentPost": "There's an untapped market for making vintage-looking suitcases with modern upgrades like wheels, material, etc.",
      "parentPostTime": "2012-11-28T13:24:03",
      "parentPostId": "721455459"
    },
    {
      "threadId": "917751754",
      "post": "I've got a pair of them and Joe's pictures are much more accurate than Target's.",
      "time": "2012-11-08T11:42:42",
      "id": "703982179",
      "parentPost": "those copper look pretty red on the site but not as much in your photos - could you elaborate on the color?",
      "parentPostTime": "2012-11-08T09:38:42",
      "parentPostId": "703863041"
    },
    {
      "threadId": "865472015",
      "post": "I was super excited about this line when I heard about it.  I went to my local store, really liked the product and the price.  But as a small guy, everything is way too big.  That was kind of disappointing.  Generally a size small will fit fine, but the shirts I tried on were way too baggy in the sleeves, torso, shoulders, neck.  Same with the sweaters.  It's a damn shame because I thought I had found a nice (local) source of nice looking basics.",
      "time": "2012-10-01T10:25:33",
      "id": "667473161"
    },
    {
      "threadId": "862523777",
      "post": "I know cargo pants are kind of in, but I'm not a fan.  Hopefully, the last time a pair of cargo pants are on my body remains to be back in 2003.  That being said, when I was a kid I used to have that Taz and Bugs shirt.  It was awesome.  I would wear it again.",
      "time": "2012-10-01T02:12:31",
      "id": "667207303"
    },
    {
      "threadId": "823306336",
      "post": "I like that.  One of my friends got married while everyone was still in college and I didn't really have a great outfit for it, but I had some decent fitting pants and a nice fitting v-neck.  It perfectly hid the fact that my shirt was a little billowy and the sleeves were a tad long. ",
      "time": "2012-08-31T00:46:20",
      "id": "634953259",
      "parentPost": "Good advice, I agree 100%. If the weather is cool enough, maybe he could throw a v-neck sweater over the shirt and tie?",
      "parentPostTime": "2012-08-30T08:07:15",
      "parentPostId": "634061792"
    },
    {
      "threadId": "392750589",
      "post": "It's times like this that I like to throw out one of these http://lmgtfy.com/?q=morning+coat",
      "time": "2012-02-27T06:17:38",
      "id": "449720032",
      "parentPost": "A morning coat is what comes up when you type \"morning coat\" into google image search and press enter.",
      "parentPostTime": "2011-08-22T19:10:18",
      "parentPostId": "293192121"
    },
    {
      "threadId": "449081464",
      "post": "No doubt.  I always think that when I'm using my Sprint phone.  Waiting and waiting for Google to load in a supposed 3G area.  Doing a speed test and finding I'm generally pulling 80-250 kbps.  If I wasn't saving so much money with them I'd definitely be somewhere else.",
      "time": "2011-10-21T11:41:33",
      "id": "340615159",
      "parentPost": "With Sprints slow ass speeds it wouldn't be right for them to charge the same as Ma Bell, and remember SPrint may give theirs users 5GB, but it's still slow as a Glacier in Jan in Alaska as compared to Ma Bell.",
      "parentPostTime": "2011-10-21T11:18:44",
      "parentPostId": "340607722"
    },
    {
      "threadId": "447382635",
      "post": "Unless you don't have a reliable connection.",
      "time": "2011-10-19T05:00:13",
      "id": "338896190",
      "parentPost": "I have a Nexus S that has the 16gig internal with no SD card and I've never missed it. Anything that would make me fill up that space can be seamlessly streamed instead. Also the way they do the internal memory with the native ext4 filing system is well worth it, in my opinion.",
      "parentPostTime": "2011-10-19T04:53:48",
      "parentPostId": "338893710"
    },
    {
      "threadId": "438234359",
      "post": "How about some investigative reporting on why Time Warner STILL hasn't allowed ESPN3 on Xbox.  Last year when ESPN3 on Xbox was announced, TWC said their customers would have it by the end of the year.  This date came and went and they said customers would have it early 2011.  Then late Spring.  We're coming up on the one year anniversary of when TWC said customers would have ESPN3, and still no hint of having it.",
      "time": "2011-10-10T03:47:36",
      "id": "330744612"
    },
    {
      "threadId": "421951508",
      "post": "Evidently you don't.  How long have they had unlimited?  And how long have they been losing customers?  As a Sprint customer, it seems to me they need to step up their data speeds.  Cause I LOVE the prices but my data rates are terrible.  I'm torn between paying a low price with slow data or paying $10-20 more a month for Verizon.  Even though I'm perpetually broke, I'm almost to the point of justifying an extra $200 a year.",
      "time": "2011-09-21T23:02:22",
      "id": "316986163",
      "parentPost": "You make more money by enticing new customers not cutting a very slim expense at the same time as pissing off current customers and shying possible customers away.",
      "parentPostTime": "2011-09-21T22:54:17",
      "parentPostId": "316979256"
    },
    {
      "threadId": "413755691",
      "post": "Oh yeah well I got an iPad2 for $57.46 and my grandmother got a $2999.99 3D HDTV for only $178.38!  And they're both being shipped USPS Priority.  You would be an idiot to ever pay $103.37 and $1499.99 at places like http://b21.in/uh.  I sold a 19\" SDTV to my boss' boss for $2000 that I got for free for being so awesome.",
      "time": "2011-09-14T13:37:34",
      "id": "309834735",
      "parentPost": "woooow that's incredibly unbelievable I just got a $829.99 iPad2 for only $103.37 and my mom got a $1499.99 HDTV for only $251.92, they are both coming with USPS tomorrow. I would be an idiot to ever pay full retail prices at places like Walmart or Bestbuy. I sold a 37\" HDTV to my boss for $600 that I only paid $78.24 for. I use http://b21.in/uh\n",
      "parentPostTime": "2011-09-14T00:23:07",
      "parentPostId": "309000765"
    },
    {
      "threadId": "413571422",
      "post": "Unless your message is from the future, you shouldn't be able to download it.  I assume you just glossed over the 8 PM PT and jumped right to the site only to find it doesn't work, but try re-reading the post.",
      "time": "2011-09-13T20:27:47",
      "id": "308856369",
      "parentPost": "i'm not able to download it..still... ",
      "parentPostTime": "2011-09-13T20:22:56",
      "parentPostId": "308852995"
    },
    {
      "threadId": "409429691",
      "post": "No, but it does mean the experience would suffer.  Do I NEED a color TV?  No, but it sure beats black and white.  Same with HDTV/Standard def.  Same with download speeds.  I say, the faster the better, as long as battery life doesn't suffer too much.",
      "time": "2011-09-09T22:07:10",
      "id": "306257140",
      "parentPost": "He/she is trying to say it's not as an important feature as stated.\nYes, it's nice to have a 1080P HDTV, but does that mean everthing else is worthless? No.",
      "parentPostTime": "2011-09-09T21:49:52",
      "parentPostId": "306241886"
    },
    {
      "threadId": "364796905",
      "post": "So perhaps it wasn't a rule.  Regardless, I enjoyed ONCE's yellow kit, and I really enjoyed their pink one.  And when Ricco's team, Saunier Duval, showed up with yellow, it bugged the hell out of me.  \n\nSame with EuropCar.  Call me old fashioned but I don't like seeing ten green jerseys floating around.  It seems to be disrespecting the Tour.  From a French team no less.",
      "time": "2011-07-22T02:17:24",
      "id": "260327043"
    },
    {
      "threadId": "296271750",
      "post": " Would you be a Sprint and Google Voice user?  Cause if not I feel like you're generalizing about something you don't get.",
      "time": "2011-05-05T23:48:47",
      "id": "198058441",
      "parentPost": "This sounds like idiot users operating things they have no knowledge of and then complaining it doesn't work. Maybe you shouldn't tinker with shit you're clueless about. Not all of the issues but some.",
      "parentPostTime": "2011-05-05T23:13:35",
      "parentPostId": "198046870"
    },
    {
      "threadId": "293009993",
      "post": "What record is that bike breaking?  Cause time-trialists can break 30 mph.  And even if it was UCI-legal, the world hour record is also faster than that, and they do it on technology from the early 70s.",
      "time": "2011-05-02T04:02:15",
      "id": "195406860"
    },
    {
      "threadId": "286185761",
      "post": "Personally I think that the white iPhone 4 is the only phone that looks good in white.  For me, it is the fact that the front and back are both white.  With the previous white iPhones, the bezel was still black, and you had that chrome accent.  But with the new design, you get all white.  Plus I think the stainless steel looks better with white than chrome.  ",
      "time": "2011-04-22T21:53:36",
      "id": "190322226",
      "parentPost": "Maybe someone can help me - what exactly IS the appeal of a white phone (not even iphone, but any smartphone, really)?  \nMost phones look their best with black/dark housings in my opinion, they otherwise tend to look cheap with other colors.",
      "parentPostTime": "2011-04-22T21:38:39",
      "parentPostId": "190317231"
    },
    {
      "threadId": "262531336",
      "post": "Do dynamic mics need a pre-amp?",
      "time": "2011-03-26T21:24:08",
      "id": "172506338",
      "parentPost": "It probably sounds bad because it has an electret-condenser capsule, kind of like those cheapo desktop mics I used to plug into my computer's sound card.  The reason is probably because it would need a pre-amplifier if it were a standard condenser or dynamic mic.",
      "parentPostTime": "2011-03-26T19:41:50",
      "parentPostId": "172408172"
    },
    {
      "threadId": "249244206",
      "post": "The UCI does not approve of its non-double diamond frame.",
      "time": "2011-03-09T20:29:00",
      "id": "163141078"
    },
    {
      "threadId": "242377189",
      "post": "Uhh, just take your time Microsoft.",
      "time": "2011-03-01T04:42:16",
      "id": "158100709"
    },
    {
      "threadId": "239355038",
      "post": "It would make sense for Sprint to sign a multi-billion dollar deal with LighSquared.  Though only if they do it BEFORE they work out the problems with the GPS interference.  Because Sprint is really good at making terrible decisions.",
      "time": "2011-02-24T17:02:15",
      "id": "155420512"
    },
    {
      "threadId": "238467369",
      "post": "That's interesting cause recently my 3G speeds have been terribly slow.",
      "time": "2011-02-23T18:50:54",
      "id": "154804014",
      "parentPost": "Coverage is good. 3G speeds are decent. If it's 4G, it will be even better. ",
      "parentPostTime": "2011-02-23T18:48:23",
      "parentPostId": "154801307"
    },
    {
      "threadId": "238366414",
      "post": "They talked about this in the CES podcasts.  They said they feel that cars are becoming so technologically advanced that they are almost like gadgets, so they were going to report on them more often.",
      "time": "2011-02-23T18:23:33",
      "id": "154773599",
      "parentPost": "I am just going to assume that this article and all the other now daily car-related posts have something to do with the \"AOL way.\"\n\nLove cars as much as the next guy, but honestly, what is this doing here?\n\nJust saying. It's starting.",
      "parentPostTime": "2011-02-23T18:06:48",
      "parentPostId": "154755260"
    },
    {
      "threadId": "237320973",
      "post": "The choices on the list were the reader's choice as well!  It was up to reader's to submit, via comments, what should go on the list.",
      "time": "2011-02-22T20:44:59",
      "id": "154191426",
      "parentPost": "Choice. The choices within the lists were not exactly full of options.",
      "parentPostTime": "2011-02-22T20:41:58",
      "parentPostId": "154190181"
    },
    {
      "threadId": "234142518",
      "post": "Great work Paul.  Good luck.",
      "time": "2011-02-19T00:15:17",
      "id": "151908082"
    },
    {
      "threadId": "231324024",
      "post": "Thanks.  Likely not interested in either but I'm always open for new apps.",
      "time": "2011-02-15T23:19:56",
      "id": "147919463",
      "parentPost": "Someone want to tell this cat what the icons at the top of the screenshot are?  I recognize gmail and doubletwist.  What are the other two?",
      "parentPostTime": "2011-02-15T22:50:29",
      "parentPostId": "147893676"
    },
    {
      "threadId": "231137115",
      "post": "How about something even resembling this on your phones?  Cause the stock video app is terrible.",
      "time": "2011-02-15T19:03:04",
      "id": "147690028"
    },
    {
      "threadId": "230534697",
      "post": "She must have those sunglasses.",
      "time": "2011-02-15T15:03:56",
      "id": "147476335",
      "parentPost": "My mom says I'm HD.",
      "parentPostTime": "2011-02-15T15:00:34",
      "parentPostId": "147473191"
    },
    {
      "threadId": "230879166",
      "post": "He should have thrown in some British Pound signs in CrApple to drive the point home.",
      "time": "2011-02-15T14:48:19",
      "id": "147463313",
      "parentPost": "CrApple?! - wow you're good, I seriously wet myself, did you come up with that yourself, or read it in someones signature from a *really* old newsgroup post?\n\nCheck this one out - Micro$oft - There, do you see what I did, swapping the s for an $, seriously, how funny am I?\n\nAnyway, maybe we should now start an argument about why Windows is shit and Unix rulez?\n\nFFS......",
      "parentPostTime": "2011-02-15T13:10:27",
      "parentPostId": "147384870"
    },
    {
      "threadId": "230991555",
      "post": "I really wish they'd kept the Incredible S the same size as the Incredible.  As an Evo owner, I look longingly at friends who have the Incredible because I feel it is a much better size.",
      "time": "2011-02-15T14:38:41",
      "id": "147455514"
    },
    {
      "threadId": "226040589",
      "post": "Anyone here ever use the Vlingo keyboard?  I never use the app but the keyboard option it comes with is the best keyboard I've tried on Android.",
      "time": "2011-02-14T23:17:56",
      "id": "146673892"
    },
    {
      "threadId": "222657911",
      "post": "It seems silly to me that Verizon's LTE is the Wireless Technology of the Year when it only came out in December.  Don't get me wrong, as a Sprint customer with an Evo who lives in a non-4G area, I'm not saying Sprint should be the free and clear winner.  But come on.  At least they had WiMax phones out.  And a somewhat established network.  Sayin.",
      "time": "2011-02-14T19:18:40",
      "id": "146330808"
    },
    {
      "threadId": "229767249",
      "post": "I don't like the song, but Walking on Sunshine would have been perfect.  But the actual version and not with terrible changed lyrics.",
      "time": "2011-02-14T16:43:34",
      "id": "146260492",
      "parentPost": "You're correct, it was a senseless use of WOTWS and makes them look exceptionally lame - they should have used Katrina & The Waves or something as cutely insipid, but at least Lou Reed gets to have a more comfortable retirement. ",
      "parentPostTime": "2011-02-14T15:35:39",
      "parentPostId": "146231439"
    },
    {
      "threadId": "229759378",
      "post": "Hmm.  Seems like I remember Engadget reporting on something like that video you posted...  ah, here it is: http://www.engadget.com/2011/02/10/verizon-iphone-hits-the-streets-fails-to-gather-crowds-video/\nBut yeah, comparing a dull Verizon iPhone release (in a country that has had the iPhone for what, four years?) isn't quite like the worldwide release of a completely new operating system.  Especially since the iPhone is still the dominant smartphone in the US (and no I don't care about numbers, I'm talking mindshare or whatever they call it.  The iPhone dominates the market.)\n\nBut what I'm really asking is were you citing this as proof that Engadget is in Apple's pocket?  Please.  As a huge (HUGE) webOS fan that is currently on Android, I could have gotten all pissy that they didn't praise HP's new devices.  But I trust Engadget.  They've never said anything or reviewed anything that I could take a real stance against.  This isn't to say I agree with everything they say, but most of the time they've proven to be correct.\n\nTheir somewhat mean review of the Blackberry Storm (a phone I was anticipating) bothered me a lot.  Until I used the phone and realized they were pretty spot on.  Same with the niggles they had with the original Palm Pre.  I had a release day phone and I pretty much came around to their way of thinking.  And if you've ever used an Apple product you hopefully realize why they are reviewed so well.  Even though they might be lacking certain features, they are generally incredibly well built, well thought out, and great looking.  \n\nI think this is what most people don't realize when they get all over this site for giving good reviews to Apple products, or when they generally use Macbooks as their main computers.  They work.  They look great, they (generally) work very well, good battery life, etc.  But by all means lets get up in arms about what device the editors use in their personal life.  To paraphrase Mitch Hedberg, 'you can't please all the people all the time, and last night all those people were reading this site.'",
      "time": "2011-02-14T07:39:36",
      "id": "146095184",
      "parentPost": "Last podcast was on the 5th ish? Launch was on the 10th correct? \nThis is what they should have talked about: http://www.youtube.com/watch?v=GUaFywhywjA\nI understand this is crappy for Apple(and fanboys), but it is news. When this happened with WP7 there was no trouble talking about it.\nHell maybe I missed a podcast?\n\n",
      "parentPostTime": "2011-02-14T05:59:15",
      "parentPostId": "146069118"
    },
    {
      "threadId": "227368304",
      "post": "That's interesting because I just discovered Plume three days ago and it replaced the official Twitter app as my default.  Perhaps I'll have to check it out.",
      "time": "2011-02-10T23:19:19",
      "id": "144417327"
    },
    {
      "threadId": "217843197",
      "post": "HAAAAA!  Remember this?  A few weeks, which in HP parlance is also known as \"summer\" aka possibly up to 7 months from now.  What bugs me is this article is only a few weeks old.  I could see if he made this statement in November/December, but you would think they'd have everything pretty much locked down one month out as far as finishing the product.\n\nCrazy.",
      "time": "2011-02-10T22:10:18",
      "id": "144381185"
    },
    {
      "threadId": "226201793",
      "post": "Yeah dammit.  Engadget should give everything for free.  ",
      "time": "2011-02-09T20:35:04",
      "id": "143589434",
      "parentPost": "Here we go again, trying yet to ram these ads on us. Please consider your users, you have enough ads on your site as it is, I don't need this B.S on every video as well. Don't force us away.",
      "parentPostTime": "2011-02-09T20:28:27",
      "parentPostId": "143583614"
    },
    {
      "threadId": "221304347",
      "post": "So are you implying it will look like an iPhone/iPad?  Cause the Envy line looks pretty damn close to the Macbook Pro lineup.\n\nI'm really liking the look of the two leaked tablets.  I hope they go down that road with their design.  I haven't really seen much that HP did that really blew me away, design-wise.  I think Palm has a much better grasp on what looks good.  \n\nOf course, they also made the Pre, which although it looked all sleek and pebble like (didn't they say something like it looked like a water-smoothed stone?) I was almost embarrassed to pull it out of my pocket.  I'm far more interested in something that just looks nice.  Something that isn't overwhelmingly feminine like the Pre, but something that doesn't have this masculine/utilitarian look a lot of the Android phones have.  Like I said, I dig the Topaz.",
      "time": "2011-02-03T17:26:25",
      "id": "139698601",
      "parentPost": "Can you imagine a Palm lineup that looks similar to the Hp Envy series?<br><br>Whoa!",
      "parentPostTime": "2011-02-02T23:09:29",
      "parentPostId": "139008399"
    },
    {
      "threadId": "220189423",
      "post": "Since the moment I used Shazam I've wanted an app like this.  I really want one that does movies as well.  But I'm so glad to see this exists now.",
      "time": "2011-02-01T20:39:44",
      "id": "138368318"
    },
    {
      "threadId": "217053395",
      "post": "The water blast doesn't put the fire out so much as tear the building down, making it easier for the other firetrucks to take care of the blaze.",
      "time": "2011-01-27T19:50:06",
      "id": "135514148",
      "parentPost": "if not the fire, the pressure of the freaking water will kill the people",
      "parentPostTime": "2011-01-27T17:17:17",
      "parentPostId": "135415508"
    },
    {
      "threadId": "210889893",
      "post": "@Shoulders\nTrue, true.  However, the US has SLIGHTLY more money than Sweden.  And why aren't our cities blanketed in extreme data speeds?  And why are we paying way more than Sweden (and everybody else) for slower speeds?  Gotta love the telecommunications industry.  ",
      "time": "2011-01-26T23:33:35",
      "id": "135067463",
      "parentPost": "I cant believe i just read that whole thing.",
      "parentPostTime": "2011-01-17T18:02:14",
      "parentPostId": "130139993"
    },
    {
      "threadId": "215326267",
      "post": "Season finale featuring a Sleater-Kinney reunion maybe?  I'd be happy, as their concert was one of the best I've ever seen.",
      "time": "2011-01-24T21:47:06",
      "id": "134040545",
      "parentPost": "I saw this segment and thought it was stupid. The rest of the show was okay, but I hope future episodes have Carrie rocking out a la Sleater Kinney style.",
      "parentPostTime": "2011-01-24T21:17:10",
      "parentPostId": "134031295"
    },
    {
      "threadId": "215294668",
      "post": "Maybe they would be '\"hey look Microsoft is actually bringing a viable candidate to the tablet market\" or something like that.",
      "time": "2011-01-24T21:24:28",
      "id": "134033546",
      "parentPost": "I wonder... If the above picture was of a Windows 7 on-screen keyboard... what would the comments be?\n\n",
      "parentPostTime": "2011-01-24T21:14:17",
      "parentPostId": "134030424"
    },
    {
      "threadId": "212237648",
      "post": "The point is it's a sweet idea.\n\nBattery life: two hours.  Three if you turn off updates.",
      "time": "2011-01-20T06:11:49",
      "id": "131697097",
      "parentPost": "I don't get it. The point of it, I mean.",
      "parentPostTime": "2011-01-20T05:47:07",
      "parentPostId": "131690683"
    },
    {
      "threadId": "212348705",
      "post": "I feel like that might make sense if instead of calling them cell phones they called them stones.",
      "time": "2011-01-19T19:08:15",
      "id": "131433883",
      "parentPost": "Maybe this isn't referring to the device itself but rather the new charging dock.  The Touchstone is for the phones and the Touchpad is for the tablets...",
      "parentPostTime": "2011-01-19T18:37:43",
      "parentPostId": "131422003"
    },
    {
      "threadId": "208479376",
      "post": "Yeah but the frame rate sucks.",
      "time": "2011-01-13T19:44:35",
      "id": "128750207",
      "parentPost": "does it play angry birds? ",
      "parentPostTime": "2011-01-13T19:12:14",
      "parentPostId": "128733549"
    },
    {
      "threadId": "203619099",
      "post": "Exactly.  How DARE they post something about Apple.  Don't they know that everyone that reads Engadget hates Apple and doesn't want to read about it during CES?  Don't they realize that people HAVE to read every article that is posted to the site while CES is going on?  Don't they realize that when they make a post about Apple it is consistently ranked as one of the lowest commented posts of the day?  Remember their iPad stories that would only get like five comments?\n\nJesus, I don't even really like Apple yet I'm always defending the site against the haters.  I should get an Engadget stipend.\n\nSidenote:  James Blunt?  Really?  That's the artist that you decided to list on your patent application picture?",
      "time": "2011-01-06T18:11:38",
      "id": "125082203",
      "parentPost": "Tech news isn't just limited to \"what is going on at CES\"  ... ignoring a possibly interesting patent by Apple means you're not doing your job. ",
      "parentPostTime": "2011-01-06T08:50:09",
      "parentPostId": "124885343"
    },
    {
      "threadId": "203855832",
      "post": "\"Seems to us like Apple is either funding you or giving you freebies.\"\n\nWho is this 'us' you mention?  The whole Apple bias comments get really old.  It's almost as if Apple is a big mover in the tech sector, whose actions, whether you agree with them or not, have a great impact on the entire industry.  The latest example would be every company introducing tablets.  If they reported on [your gadget manufacturer of choice] constantly, I doubt you'd be complaining of a bias.  Then it would be a 'finally you are reporting the truth' kind of thing.  Fox News style.",
      "time": "2011-01-06T18:01:44",
      "id": "125079173",
      "parentPost": "Dear Engadget, \nOver the years, you have started to act like a jackass when reporting and interviewing people. You should research about a company’s originating geographical culture before blurting out thinks like HIKU when HIKU is Japanese and not Korean. There have been other instances where you have over stepped your mark with rash comments and over blown ego's. I think you should stick to reporting on APPLE, as you so seemed to be in love with them even though nothing new has come out of the company in terms of innovation over the last year’s just updates of products. Seems to us like apple is either funding you of giving you freebies in large amounts that you keep kissing their asses. Make your self culturally aware and then report on something. As an avid engadget fan for years now this was the last straw you have pissed a whole generation of followers out there.\n",
      "parentPostTime": "2011-01-06T14:44:12",
      "parentPostId": "124982580"
    },
    {
      "threadId": "201557628",
      "post": "I'd be very interested in reading your unedited story, complete with boring geek outs on suspension dynamics and the like.",
      "time": "2011-01-03T22:36:31",
      "id": "123622777",
      "parentPost": "Not in the wheel, mounted to the chassis. The lighter brakes would reduce unsprung weight.\n\nI also had a big section on fancy, light-weight suspension. But this was WAY too long :) ",
      "parentPostTime": "2011-01-03T17:42:11",
      "parentPostId": "123539858"
    },
    {
      "threadId": "195168301",
      "post": "Do you ever use mobile TV?  I have a few times but generally it just sucks.  The quality is terrible and the times when I've really, really needed to use it (like when I was at work during the World Cup) it just kept freezing.  Not to mention I can literally watch my battery meter drain while I'm using it.",
      "time": "2010-12-22T17:06:21",
      "id": "117099554",
      "parentPost": "hahaha.  I would wish AT&T on people I don't want to talk to.\nAs far as Verizon.  They do have the most coverage but they are just as pricey as AT&T.   With Sprint, I get everything unlimited (except land line calls: 450 min before 7pm on weekdays) for $70 a month.   The equivalent to this plan on verizon and At&t is over $100.  (Including unlimited text & data, turn by turn navigation & mobile tv)",
      "parentPostTime": "2010-12-22T14:38:04",
      "parentPostId": "116985787"
    },
    {
      "threadId": "195231193",
      "post": "Without doing any research on this, it doesn't look any faster than a steam powered launch.  I'm more curious to know why this system will enable them to launch different vehicles than steam does.",
      "time": "2010-12-21T23:42:37",
      "id": "116491637",
      "parentPost": "i'm really curious what kinda g forces that pushes during launch, and the 0-100mph time. that third launch, and the reverse angle really makes me say wow.",
      "parentPostTime": "2010-12-21T21:13:03",
      "parentPostId": "116394736"
    },
    {
      "threadId": "195174274",
      "post": "Don't you mean conceivabling?",
      "time": "2010-12-21T23:23:49",
      "id": "116481661",
      "parentPost": "That's inconceivable!",
      "parentPostTime": "2010-12-21T20:06:22",
      "parentPostId": "116346885"
    },
    {
      "threadId": "193579626",
      "post": "I remember a time, about a year ago I suppose, when I actually cared about this and read with anticipation any new article discussing it.  Those were the days.",
      "time": "2010-12-18T22:00:50",
      "id": "114513800"
    },
    {
      "threadId": "192884862",
      "post": "I've been pronouncing it correctly since they first popped into the netbook scene and this issue came up then.  And I've always felt like the guy that wasn't pronouncing it correctly when I was talking to other computer nerds who were uninformed.\n\nI knew I was right but I didn't want to be one of those dicks who correct everybody.",
      "time": "2010-12-17T23:31:50",
      "id": "113823119",
      "parentPost": "That's how I thought it was pronounced all along, so I was either wrong before or just ahead of the times. ",
      "parentPostTime": "2010-12-17T21:49:41",
      "parentPostId": "113793994"
    },
    {
      "threadId": "192174408",
      "post": "Very nice.\n\nSidenote:  Worst. Names. Ever.\n\nIs Palm capable of coming up with a name people wouldn't be embarrassed to say?",
      "time": "2010-12-16T17:48:58",
      "id": "112967180",
      "parentPost": "The Gyst of this Myte be an earnest attempt from HP to Veer away from the Pre and put WebOS on current-gen hardware\n\n/where's my cookie?",
      "parentPostTime": "2010-12-16T17:11:34",
      "parentPostId": "112954533"
    },
    {
      "threadId": "190277241",
      "post": "And why the  Seinfeld hate?  ",
      "time": "2010-12-13T23:04:00",
      "id": "111291671",
      "parentPost": "\"Climate is topsy turvy.\"  Right, because we're supposed to have blizzards in July.  \"Oil sources have peaked\"?  WTF does that even mean, that you think we've found all the oil we ever will?  Seriously??  Speaking of, why would anyone have had to search for BP - it was in our faces every day for eight months, you didn't have to look far.  And nobody has ever heard of that sitcom you mention, most likely because its unfunny garbage like Sienfeld.\n\nCome on, Joseph, I'm sure you could be a little more of a delusional left-wing elitist if you really tried!",
      "parentPostTime": "2010-12-13T22:39:07",
      "parentPostId": "111281651"
    },
    {
      "threadId": "188496534",
      "post": "Well I would guess that Congress has been lobbied enough so that nothing ever happens.  Maybe in five years the parties involved will up their data rates.  For a price, of course.  I have a dream that some day the most advanced country in the world will have internet speeds that equal to that of Eastern European countries.",
      "time": "2010-12-10T23:03:25",
      "id": "110102780",
      "parentPost": "I wonder if they will do anything beyond \"reporting\" it.",
      "parentPostTime": "2010-12-10T22:17:54",
      "parentPostId": "110070524"
    },
    {
      "threadId": "182818732",
      "post": "I have to disagree.  While I don't think the average person's knowledge of the workings of Android are as great as the iPhone, I do think that most people (who know what an iPhone is) know about Android.  Especially people who own the phone.  \n\nI think it's a little condescending to say that people who own an Android device aren't aware they own an Android device.  Though I don't necessarily think that people are consciously choosing Android over iPhone unless they are really into phones.  I'd be curious to see Android uptake numbers on AT&T.\n\nPeople being confused by the Droid thing is Verizon's fault.  They blow a ton of money on advertising, so that's what people assume they all are.  But that doesn't mean they don't understand that Android is a separate operating system from Windows, iPhone, BB, etc.  I look at it kind of like how most people drop the e when they pronounce Porsche.  When I hear \"Porsh\" I still know they're talking about Porsche. That's how I feel about the Droid/Android schism.   \n\nYour argument that Samsung's projected WP7 production is a signifier that they believe Android is failing is a little absurd.  Maybe they're making more Windows devices because WP7 is new? If Samsung was the bellwether for the rest of the market, and they're evidently slowly abandoning Android, then why are they making phones with Bada?  Market share numbers don't lie.\n\nIn closing, Android ain't going anywhere.  ",
      "time": "2010-12-01T20:17:41",
      "id": "105659191",
      "parentPost": "its easy when you have buy one get one free on verizon, and verizon upgrading subscribers have no choice between android and archaic blackberry.<br><br>this still doesnt fix fragmentation, nor does it show the popularity of andrroid. why? ask the general population what android is, they wouldnt know. The people buying android do not know what android is, they just see some touchscreen that mimicks the iphone, and since they dont have the iphone on verizon, thats what they go for.<br><br>what the guy below me doesnt understand is that Droid is not \"android\" - It's a Verizon brand. Just because they've heard of Droid does not necessarily flow over to the embedded OS, and that is a huge problem. Calling all the other phones \"droids\" just implies they think the other phones are a motorola droid phone, not an android phone. its even funnier now that the droid has motoblur, meaning people will associate droid with motoblur not android lmao.<br><br><br>Android is destined to collapse. Noone knows what it is. Average Joe consumers dont actually go out to buy android, they just end up with it because of verizon salesman. When iphone or WP7 ends up on verizon, its game over for android. <br><br>Android will collapse to WP7. it is inevitable. Why get the poor mans iphone (which is android because it follows the same concept of grid of static app icons and didnt innovate one bit) when you can get the actual iphone, or something innovative like wp7?<br><br>Samsung appears to agree with me. \n\nNext year, Samsung will introduce 15 to 20 new smart-phone models using Android, Windows, and Brada operating systems. For every 50 smart phones using Windows, it will make 24 using Android and five using Brada. . let me repeat that: in 2011, samsung will make 50 wp7, and for every 50 wp7 devices, they will make 24 android phones, and 5 bada phones. meaning whatever they make of android, double it and thats how many they will make for wp7 ..... that is confidence that android will fall to WP7, and samsung is betting on it.<br><br>2011: 60% windows phone 7,  30% android, 10% bada according to samsung's production model. Remember, samsung is THE WORLDS LARGEST PHONE MANUFACTURER, and they will MOSTLY MAKE WINDOWS PHONE 7.",
      "parentPostTime": "2010-12-01T16:15:28",
      "parentPostId": "105544169"
    },
    {
      "threadId": "161617845",
      "post": "@turk3y\n\nThe difference is the iPhone actually moved units.  How many webOS devices have been shipped since June 09?  I'm guessing its less than the original iPhone units sold.  Not to mention Apple is way better at hyping a product than Palm ever was (though HP being there for the advertising ideas really helps).\n\nI think that's why Palm needs to change the design.  Not to mention the hardware was kind of crappy.  I babied my release day Pre and by the end of the first year the power button didn't work, the slider was way loose, the external speaker was busted, and it was terribly scratched.  Not to mention the screen was a little on the small side and the keyboard was DEFINITELY on the small side (plus it lacked the Pixi's clickiness).\n\nAll in all, I switched to the Evo and every time I see something Palm related I start salivating for a great piece of webOS hardware (plus a few key apps) so I can switch back from Android, which I feel is a little too scattershot for my taste.",
      "time": "2010-10-26T11:54:35",
      "id": "90202912",
      "parentPost": "XD...<br><br>Well at least this ad campaign has the benefit of Much More Peppy with a Lot Less Creepy, so it is a step in the right direction.<br><br>Too bad most people aren't going to see past the fact that the hardware looks (almost) identical to the old Pre/Pre+.",
      "parentPostTime": "2010-10-25T21:27:42",
      "parentPostId": "89997571"
    },
    {
      "threadId": "147498640",
      "post": "I think that is absolutely true.  And I've got an Evo and I can't tell you how many times people ask me when I got a Droid.  Then I have to try to explain that Verizon just uses the name Droid to f up people's understanding the Android operating system.",
      "time": "2010-09-27T10:50:07",
      "id": "81105546",
      "parentPost": "From what I've seen thats somewhat true. Most people who have an android phone thats not branded A droid that I've talked to look at me like I'm crazy when I tell them they have android, The typical response is \"No this isn't a droid\". But I don't think any of the mass consumers out there actually care what Operating system the phone is, and would probably laugh at all of us arguing over this. ",
      "parentPostTime": "2010-09-27T05:36:14",
      "parentPostId": "81083391"
    },
    {
      "threadId": "141309242",
      "post": "I thought the ad was better than the other Kindle ads.  I like their stop motion ads but I don't think they really drive home the point that it's an e-reader to the average non-tech person.  Comparing it to the glossy LCD of an iPad really shows its strength.",
      "time": "2010-09-14T00:10:48",
      "id": "77411430",
      "parentPost": "I did not like this ad",
      "parentPostTime": "2010-09-13T22:01:39",
      "parentPostId": "77359969"
    },
    {
      "threadId": "139206553",
      "post": "I wouldn't mind this.  Maybe I could ditch my Tandy 1000 then.",
      "time": "2010-09-09T10:09:26",
      "id": "76295773"
    },
    {
      "threadId": "130742744",
      "post": "Well how special.",
      "time": "2010-08-18T10:00:30",
      "id": "69525082"
    },
    {
      "threadId": "77296490",
      "post": "What is this color?  Doesn't BlackBerry know that people love their near-fully monochrome color scheme with basically line art icons?  I know I do.  Because it makes it so easy to differentiate between the icons when they all look the same.  Awesome.",
      "time": "2010-03-20T02:39:33",
      "id": "40623978"
    },
    {
      "threadId": "77189918",
      "post": "I call BS here.  I remember about six or seven years ago, Universal said they were going to lower CD prices, across the board to $10.  Needless to say I watched the specified time period come and go with no discount prices.  Now I'm not buying as many CDs (unlike when they first said they were dropping prices, where I was buying probably two CDs a week) but I would certainly purchase more CDs if they cost the same price as a light lunch.",
      "time": "2010-03-19T04:28:29",
      "id": "40435795"
    },
    {
      "threadId": "56999786",
      "post": "That's what I was thinking.  It's a freaking mess.  72 icons per screen seems WAY to overwhelming.",
      "time": "2010-01-09T20:00:16",
      "id": "29088046",
      "parentPost": "I hope the tablet does not look like the one in the photo.",
      "parentPostTime": "2010-01-08T23:05:47",
      "parentPostId": "28989121"
    },
    {
      "threadId": "57031351",
      "post": "So you don't think he sounds bright because you read an article where they cut the dialogue into terse one line responses?\n\nI watched it live on here and personally I thought Kara came across as kind of hostile.  Like leading the answers and such.",
      "time": "2010-01-09T07:29:21",
      "id": "29030158",
      "parentPost": "I hate to say it, but this guy does not sound too bright. I doubt if I will see his name on the \"CEO of the Decade\" trophy.",
      "parentPostTime": "2010-01-09T03:39:52",
      "parentPostId": "29012821"
    },
    {
      "threadId": "19483802",
      "post": "That is awesome.",
      "time": "2009-05-28T06:00:18",
      "id": "10140212"
    },
    {
      "threadId": "9892299",
      "post": "As a fervent Giz reader, imagine my surprise to see you writing an article for one of my favorite magazines.  Nice work.",
      "time": "2009-01-15T07:47:17",
      "id": "5135909"
    }
  ],
  "profileInfo": {
    "username": "statelypenguin",
    "about": "It ain't.",
    "name": "statelypenguin",
    "disable3rdPartyTrackers": false,
    "isPowerContributor": false,
    "isAnonymous": false,
    "rep": 1.340279,
    "profileUrl": "https://disqus.com/by/statelypenguin/",
    "url": "http://pleaselikeme.tumblr.com",
    "reputation": 1.340279,
    "location": "Ohia",
    "isPrivate": false,
    "signedUrl": "http://disq.us/?url=http%3A%2F%2Fpleaselikeme.tumblr.com&key=TVkYLfTUypTgIMpIourhRg",
    "isPrimary": true,
    "joinedAt": "2009-01-15T07:46:54",
    "id": "189470",
    "avatar": {
      "small": {
        "permalink": "https://disqus.com/api/users/avatars/statelypenguin.jpg",
        "cache": "//a.disquscdn.com/uploads/users/18/9470/avatar32.jpg?1281549414"
      },
      "isCustom": true,
      "permalink": "https://disqus.com/api/users/avatars/statelypenguin.jpg",
      "cache": "//a.disquscdn.com/uploads/users/18/9470/avatar92.jpg?1281549414",
      "large": {
        "permalink": "https://disqus.com/api/users/avatars/statelypenguin.jpg",
        "cache": "//a.disquscdn.com/uploads/users/18/9470/avatar92.jpg?1281549414"
      }
    }
  }
}