{
  "comments": [
    {
      "threadId": "2925154697",
      "post": "Hmm, who installed it for you? Maybe ask Sirius to refresh your signal? Where do you have the antenna on your vehicle?",
      "time": "2014-12-31T12:48:39",
      "id": "1765893072",
      "parentPost": "The stratus 7",
      "parentPostTime": "2014-12-31T00:31:15",
      "parentPostId": "1765355822"
    },
    {
      "threadId": "3358769190",
      "post": "I'm based in Jamaica and I use Tunnel Bear. Very light weight and easy to use. ",
      "time": "2014-12-25T14:29:39",
      "id": "1758691151",
      "parentPost": "i'm looking for a suggestion. You suggest Hola?",
      "parentPostTime": "2014-12-25T14:18:52",
      "parentPostId": "1758684464"
    },
    {
      "threadId": "3355588534",
      "post": "Caribbean Entrepreneur (Jamaica) and regular reader of AVC here. \n\n What Fred described is pretty standard for folks in the Caribbean who want to consume US content, many would love to pay, but simply don't have that option. \n\nTo address your point specifically LE. Big business in Jamaica (with a population of close to 3 million) are mail forwarding services, specifically shipme.me and Mailpac. Many Jamaicans purchase items online (most of it from Amazon.com). It's sent to a FL address with a KIN number attached ( this is what they use to identify a specific client's package), after which they bring it to Jamaica where you pick it up at their office or they have it delivered to your doorstep. \n\nI use a J'can dual currency credit card (JMD and USD) with a Jamaican address on Amazon.",
      "time": "2014-12-25T03:24:47",
      "id": "1758357680",
      "parentPost": "Sure because could be a fraud perpetrated by the doorman, the UPS guy or someone else who manages to get hold of the \"pillow\" and is using the address as simply a drop point.  Or a variation of that.  \n(Person ordering and person swiping are two different people of course. Or perhaps the person swiping is the person ordering and they are shielding themselves by using a foreign IP which is harder to trace. Or working in conjunction with criminals overseas.)\n\nLook at it this way. If you are B&H Photo in NYC and someone decides to buy a very low margin $2500 Sony 4k camcorder what would your motivation be to block that order if not that from experience you developed patterns that told you it was fraud?\n\nI can tell you that I can spot a fraud order for the product/service that we sell just literally by comparing a few things about the appearance or the order (product, whether they capitalize, how they write the address, their name, their address) and who is making the purchase. The IP is helpful because once you've made an assumption you can then further strengthen the decision with some physical evidence to back it up.   They've actually gotten more sophisticated though. Several years ago I began to see cases where they actually used a stolen card and used an IP address that was very close to the billing address.  A much better fraud.  So in other words billing address is in Lakeland Florida and the IP traces back to near or in Lakeland Florida. However the name of the person ordering and what they are ordering doesn't match \"Jane Smith\" (hard to explain why without revealing to much..)",
      "parentPostTime": "2014-12-24T18:05:54",
      "parentPostId": "1757882046"
    },
    {
      "threadId": "2625034362",
      "post": "Hey Sheree. Thanks for the feedback. That's what has been passed around for some time now.\n\nSee some sources: \n\n\"There are some who say 35 to 65 per cent of the population is unbanked...\" - Livingston Morrison, deputy governor of the Bank Jamaica.\n\nFull article: http://jamaica-gleaner.com/gleaner/20130508/business/business1.html\n\nAnother article: http://jamaica-gleaner.com/gleaner/20131011/business/business1.html",
      "time": "2014-04-20T14:34:04",
      "id": "1347382061",
      "parentPost": "Great article, just the kind of analysis I would like to share. I esp. liked that you included more details about the tax. I wonder though what source you got the \"1 million unbanked Jamaicans\" data from? I can't seem to find any definitive source on how many Jamaicans don't have any access to deposit-taking institutions.",
      "parentPostTime": "2014-04-20T12:11:15",
      "parentPostId": "1347286090"
    },
    {
      "threadId": "1262261549",
      "post": "Haha, thanks Jamaipanese. Looking forward to your review.",
      "time": "2013-05-05T02:20:38",
      "id": "884506676",
      "parentPost": "great review, my wonky experience with the S4 is jumping from a really old version of Android the the latest version. Almost like using a completely new platform",
      "parentPostTime": "2013-05-05T02:19:30",
      "parentPostId": "884506246"
    },
    {
      "threadId": "1215428707",
      "post": "\"Feel free to scrutinize my figures. \"",
      "time": "2013-04-16T16:11:27",
      "id": "865254565",
      "parentPost": "u sure bout this?",
      "parentPostTime": "2013-04-16T16:02:57",
      "parentPostId": "865247500"
    },
    {
      "threadId": "1182488426",
      "post": "That's actually a good idea Marcia. I'm going to tweak the writing and send it to them. Thanks",
      "time": "2013-04-06T23:16:45",
      "id": "854665433",
      "parentPost": "Gordon please ask Youth Link or Teen Age to publish this blog post. All those 15 to 30 years of age should read it. You are spot-on!!",
      "parentPostTime": "2013-04-06T23:09:01",
      "parentPostId": "854662106"
    },
    {
      "threadId": "777578187",
      "post": "Thanks, I didn't want to provide any alternatives to confuse people. :/ Hotspotshield is really annoying. -_- ",
      "time": "2012-07-24T03:50:15",
      "id": "595989066",
      "parentPost": "Other options for VPN services that provide the same functionality are TunnelBear (the one I use) and HotSpotShield -- I've used this one before but found it was serving WAY too many ads. For the freeloaders out there... These services have free packages. ",
      "parentPostTime": "2012-07-24T03:48:08",
      "parentPostId": "595988034"
    },
    {
      "threadId": "31752236",
      "post": "Because I wasn't a pedant back then. I guess I'm a pedant now.",
      "time": "2012-05-28T15:29:48",
      "id": "540360010",
      "parentPost": "Which country is Ms Kitty from? Is it a country with a national health system? Also, Gordon, why don't you capitalize your Is? Just a question, not a criticism.  ",
      "parentPostTime": "2012-05-28T14:56:07",
      "parentPostId": "540335487"
    },
    {
      "threadId": "652394352",
      "post": "Check the apple app store.\n\nSent from my iPad",
      "time": "2012-04-18T04:06:55",
      "id": "500468946",
      "parentPost": "where is the link to download it?? ",
      "parentPostTime": "2012-04-18T03:58:56",
      "parentPostId": "500464324"
    },
    {
      "threadId": "584063392",
      "post": "Haha, FGB is First Global Bank. I just realized that only the acronym was mentioned. Will edit. ",
      "time": "2012-02-22T18:51:50",
      "id": "446117414",
      "parentPost": "BLINK. What is FGB? Other than that thanks for the tips, something has to be done about our rapacious banks...",
      "parentPostTime": "2012-02-22T13:44:20",
      "parentPostId": "445823609"
    },
    {
      "threadId": "461546711",
      "post": "Looking forward to it! ",
      "time": "2011-11-04T14:01:34",
      "id": "355673284",
      "parentPost": "I'll be there, hopefully liveblogging it for @Geezam:twitter ",
      "parentPostTime": "2011-11-04T02:17:14",
      "parentPostId": "355295836"
    },
    {
      "threadId": "448798934",
      "post": "Because a poor Jamaican kid wants to see if the iPhone 4S is responsive to Jamaican Patois. I know, I know, you want to know too. ",
      "time": "2011-10-23T15:20:09",
      "id": "341919025"
    },
    {
      "threadId": "15705034",
      "post": "Blackberries suck. Get an iPhone or an Android. ",
      "time": "2011-08-10T19:47:53",
      "id": "282638846",
      "parentPost": "I'm sorry for your loss. It's been four days for me too and heck yeah, very depressing!",
      "parentPostTime": "2011-08-10T04:20:34",
      "parentPostId": "281903942"
    },
    {
      "threadId": "367207151",
      "post": "I agree, When somebody says for e.g \" This government is horrible\" we assume that they're talking about the ruling/majority party, because they are after all the policy makers, so blame would naturally land at their feet;  that's all fine and dandy. But when a Diplomat of our country is going to unequivocally state that the opposition is not apart of the Government then that's a problem.  ",
      "time": "2011-07-24T21:06:26",
      "id": "263015588",
      "parentPost": "Gordon, at the end of the day, it all boils down to semantics. In the truest sense of the word, government would embody the running of a sovereign state, its administration and policy-making etc. In our version of democratic rule, the Westminster System, the ruling or majority party in parliament is often times said to \"form the government\". \n\nThe difference in uses of the word lies in its context, nothing more. It should not implied that the ruling party is the sole organ of government...the phrase \"form a government\" in the context of the Westminster System is inherently misleading, but is still correct in its usage.",
      "parentPostTime": "2011-07-24T20:46:07",
      "parentPostId": "263004683"
    },
    {
      "threadId": "317292933",
      "post": "You're welcome!",
      "time": "2011-05-31T18:13:32",
      "id": "214926648",
      "parentPost": "so why do so many Unlock Services MARKUP their damn unlocking service so effing much....SMS on Ruthven road charged me mussi $2,000k. Thanks Gordon.! ",
      "parentPostTime": "2011-05-30T14:57:11",
      "parentPostId": "214264580"
    },
    {
      "threadId": "288328343",
      "post": "Ha, The android is an ugly beast. A beast none the less. ",
      "time": "2011-04-27T04:27:16",
      "id": "192459004",
      "parentPost": "ooh how I love my android powered phone, syncs and backs up my calendars, contacts, settings, even apps - \"awe\"tamatically\n\nwhats a blackberry? *giggle*",
      "parentPostTime": "2011-04-27T04:23:19",
      "parentPostId": "192458064"
    },
    {
      "threadId": "224813768",
      "post": "The price isn't that expensive, but it's certainly not cheap.  We'll\r\nsee how the marketing goes, if any.",
      "time": "2011-02-08T05:43:42",
      "id": "142424166",
      "parentPost": "haven't seen much as it relates to marketing of the tablet so far, the price isn't a killer so lets see how it goes",
      "parentPostTime": "2011-02-08T05:39:54",
      "parentPostId": "142422999"
    },
    {
      "threadId": "222623234",
      "post": "You can't \"turn off the internet\" for a sovereign nation. A distinction needs to be made before i go on. There's a difference between turning off the internet and preventing people from accessing it. You can limit access to it through the ISP, but that's not turning it off.\n\nWhat Egypt did was prevent access to the internet, not turn it off. An Egyption's blog, twitter, Facebook etc could still be visited by someone outside of egypt; assuming that their blog etc was hosted on servers outside of egypt (which they probably were). The good thing about the Internet is that it's segmented. There's no one ISP or one data centre that stores everything and there's no one ISP that provides access to everyone, so there's no \"ultimate kill switch\" that one man has control over. \n\nThe unfortunate thing though is that a lot of websites around the world are hosted on data centers in the USA ( e.g yours) Data centers that are powered by ISP's. ISP's that are in America--in the President's domain to control. So yes, he could \"turn off the internet\" and as a result of that a lot of websites would go offline and a lot of people would not be able to access said websites ( or even go online), but the internet would still be there, because data centers and ISP's are in other countries around the world. \n\nSimilar to what you said with a physics business; they could move from country a to country b, an online business could just the same move from data centre a to data centre b in another country, but it's not as simple ( for both the physical and online business). An online business moving to another country doesn't mean they'll have a market in that country, similarly  for the physical business, moving to country b does not mean there'll be a market for your product/service in that country, even worse it's probably harder for a small business to move. Legal fees, transportation of products to country etc; where would they find the money?\n\nIt can get a little bit technical, but In theory it's almost impossible to shut down the internet, not until you have one person who rules all nations.",
      "time": "2011-02-04T17:29:16",
      "id": "140640276",
      "parentPost": "I understand and agree with your point %100.\nregardless of where someone has their business, it is susceptible to adverse scenarios. \n\nHowever, I'm not implying that people with online businesses should not have online business because \"maybe, perhaps\" one day the internet will be shut down. \n\nPrimarily my thoughts are on whether or not the U.S. president could possibly, successfully, orchestrate the switching off of the Internet in this hemisphere of the world, and how then would that affect everyone from the online start-up to ...I don't know...Amazon.com\n\nI suppose if you have a store in City/Country A and no one can access it, you can try to leave city/country A and attempt to start over from scratch in city/country B. No one can cripple every physical location in the world. However, the internet is one entity, if something goes wrong there, what next? Make a new internet and start something there? Scrap the whole internet thing and build something physical?\n\nI just cant conjure up a solution to that scenario.\n\n\n\n\n\n\n",
      "parentPostTime": "2011-02-04T16:22:22",
      "parentPostId": "140593412"
    },
    {
      "threadId": "200794760",
      "post": "Thanks Jamaipanese! ",
      "time": "2011-01-01T16:42:44",
      "id": "122824417",
      "parentPost": "awesome post round-up, all of them are worth reading! Keep it up in 2011!",
      "parentPostTime": "2011-01-01T16:38:15",
      "parentPostId": "122821791"
    },
    {
      "threadId": "197087388",
      "post": "Hahah, Thanks for Commenting Donald! Appreciate it. \nMerry Christmas to you too!\n\nAnd sure, anytime! ",
      "time": "2010-12-24T12:36:04",
      "id": "118164029",
      "parentPost": "Great, inspirational read early Christmas Eve morning. 'AG' at age 15? WOW, when I was 15 I was programming mal-ware (punters, phishers, hacks) for AOL in visual basic... would have been a lot more productive going the teen-entrepreneur route like you. Anyhow, good to learn some your history; I can pick your brain about running an online business in Jamaica.\n\nMerry Christmas; wish you a blessed and prosperous 2011!\n\nDonald",
      "parentPostTime": "2010-12-24T12:18:00",
      "parentPostId": "118156359"
    },
    {
      "threadId": "194968025",
      "post": "Blame Game by Kanye West Feat. John Legend\nEmotion: Laughter\n\nP.S The people who did not do answer as required i.e Song/Film should not be considered for prize.",
      "time": "2010-12-23T10:55:01",
      "id": "117567031"
    },
    {
      "threadId": "168748939",
      "post": "Hahah, I'm happy I could bring you down memory lane!",
      "time": "2010-12-19T13:10:09",
      "id": "114740973",
      "parentPost": "Damn. Just came accross this post and I must say I so feel what your saying. Had the same experience years ago. Especially the yard part. Growing up, while cooking I could go to the backyard and cut off a few fingers off a banana tree, leave the rest on the tree until its needed, there was so much yard space. I'm glad I grew up in the 'country', even though I like the urban life.\n\n ",
      "parentPostTime": "2010-12-19T01:09:19",
      "parentPostId": "114580991"
    },
    {
      "threadId": "192715020",
      "post": "Why does this fall under fashion though?:| ",
      "time": "2010-12-17T12:51:24",
      "id": "113559340"
    },
    {
      "threadId": "192414180",
      "post": "But, this is a quality post. :) +1 for the disqus implementation. I can actually comment.",
      "time": "2010-12-17T00:29:50",
      "id": "113280605"
    },
    {
      "threadId": "186051853",
      "post": "Hahaha, thanks!",
      "time": "2010-12-07T15:16:43",
      "id": "108279291",
      "parentPost": "*sob* *cry* *whimper* this.. is so... beautiful. Welcome to adulthood my friend you are mature beyond your years.",
      "parentPostTime": "2010-12-07T14:31:23",
      "parentPostId": "108267641"
    },
    {
      "threadId": "147052162",
      "post": "As the days go by i realize that it really wasn't an indispensable part of my life. +1 for me. And i don't know how it happened it just hit the wall lol",
      "time": "2010-09-27T23:34:04",
      "id": "81417953",
      "parentPost": "My attentiveness in class and my awareness on the road has grown since I've been blackberry-less. I laugh every time i recall memories of myself tweeting that i \"can't do without my blackberry\" a couple months ago. I even had withdrawals too at first but now I'm pretty nonchalant about it. Throwing it into the wall though Gordon? : | wow.",
      "parentPostTime": "2010-09-27T22:26:07",
      "parentPostId": "81364493"
    },
    {
      "threadId": "141497026",
      "post": "Cool :) ",
      "time": "2010-09-15T14:12:02",
      "id": "77781280",
      "parentPost": "Thanks Gordon! Quite awesome to hear that you like the blog as is =]\n\nI took your advice and set up Disqus--so far so good.",
      "parentPostTime": "2010-09-14T05:40:42",
      "parentPostId": "77453576"
    },
    {
      "threadId": "133711309",
      "post": "I  would reaaaaly love to come Ingrid, but i'm still in the country and i won't be coming up until Sunday, damn:( can't you stream?",
      "time": "2010-08-26T00:42:06",
      "id": "72082239",
      "parentPost": "It's weird, quite a few of my tech colleagues are thinking 4G will flop. One said please, \"CLaro didn't get it right and Digicel will have the same problems of bad or no service in some areas.\"\n\nI don't know. I just believe that 4G broadband it's cheap monthly unlimited charge of $3,000 a month post paid, coupled with cheaper netbooks WILL spawn a new wave of Jamaicans being online and those of us with blogs, sites etc will begin to see that.\n\nAt Kingston beta at Spanish Court tomorrow we're hosting a townhall type discussion on what it means for Jamaican tech entrepreneurs. I think you should come Gordon and take part in what I expect to be a robust discussion.",
      "parentPostTime": "2010-08-26T00:33:20",
      "parentPostId": "72070352"
    },
    {
      "threadId": "132158173",
      "post": "Giuliani had a points system which i think worked well. You get 3 strikes after which you're incarcerated. How  you accumulate the point would have to be well thought out. But what you want to change is the populace's attitude towards laws; if they can respect them and know that their will be consequences for their actions which will be enforced then that would will really help.",
      "time": "2010-08-24T16:36:00",
      "id": "70983776",
      "parentPost": "Broken windows theory can work. If you crack down on fare-beaters you're often likely to find someone guilty of something else such as drug possession. The trouble is where will you put them if they're guilty of a large crime and how can you fine them if they're guilty of a small one?\n\nhttp://radioventriloquist.blogspot.com",
      "parentPostTime": "2010-08-24T16:30:37",
      "parentPostId": "70982862"
    },
    {
      "threadId": "108392027",
      "post": "Thanks dear:)  Looking forward to your tweets:)",
      "time": "2010-08-23T20:41:15",
      "id": "70843919",
      "parentPost": "Great post Gordon :)\n I'm still new to Twitter but I don't think I'll be annoying anyone....ever, unless it's intentional. \n",
      "parentPostTime": "2010-08-23T20:07:14",
      "parentPostId": "70837057"
    },
    {
      "threadId": "125740414",
      "post": "Well, it's useful if you use dropbox a lot. And what it helps with is making it easy to transfer files from my mobile to pc or wherever else.   For example. the screenshots of the application were taken on my Blackberry and synced with dropbox. Initially i would have needed to email those pics to myself.",
      "time": "2010-08-04T12:01:59",
      "id": "66005310",
      "parentPost": "not so sure how useful this could be, but as you say it has a lot of room to improve",
      "parentPostTime": "2010-08-04T04:10:11",
      "parentPostId": "65970741"
    },
    {
      "threadId": "125298162",
      "post": "You're welcome:) ",
      "time": "2010-08-04T01:16:05",
      "id": "65948243",
      "parentPost": "This is a great round up of all the posts. Thanks. ",
      "parentPostTime": "2010-08-04T00:37:49",
      "parentPostId": "65943889"
    },
    {
      "threadId": "108936347",
      "post": "You're doing a pretty good job thus far. (Y)",
      "time": "2010-06-26T04:30:29",
      "id": "58711108",
      "parentPost": "Thanks Gordon! I try to pull out some 'not so popular' ones that make a great viewing.",
      "parentPostTime": "2010-06-26T04:24:51",
      "parentPostId": "58710650"
    },
    {
      "threadId": "101779850",
      "post": "No problem, glad i could help:) Nice website you have there by the way. Come back again:) And subscribe to my posts if you don't mind.",
      "time": "2010-06-26T00:24:58",
      "id": "58687902",
      "parentPost": "I immediately tried it based on your recommendation, and Clicky is super fast.  It immediately logged visits with all additional info.  The advantage I find with GA is that you can analyze adsense clicks, but other than that I already find Clicky easier.  Thanks for the post!",
      "parentPostTime": "2010-06-26T00:13:11",
      "parentPostId": "58686629"
    },
    {
      "threadId": "109463945",
      "post": "Hahah, thanks man!",
      "time": "2010-06-23T12:51:27",
      "id": "58218163",
      "parentPost": "Nice post dude! Congrats again on winning the ticket... see I was right! lol!",
      "parentPostTime": "2010-06-23T06:35:58",
      "parentPostId": "58173161"
    },
    {
      "threadId": "7653917",
      "post": "4 Things:\n\n1. You're an idiot.\n2. Ease of the CAPS.\n3. Learn to spell\n4. You're an idiot.\n",
      "time": "2010-06-05T21:28:37",
      "id": "54935230",
      "parentPost": "I REALLY DONT AGREE WITH U .BECAUSE IF A FEMALE DONT WANT TO GET PRAGENT THEN DONT HAVE SEX IT'S REALLY SIMPLE OR EVEN IF THEY ARE HYAVING SEX THEY CANT USE A COMDOM IF THEY CANT BUY IT IT'S FREE AT THE HEALTH CENTER .THEY ARE SO MANY THINGS TO DO THAT U DONT HAVE TO GET PRAGENT .",
      "parentPostTime": "2010-06-05T21:23:28",
      "parentPostId": "54934794"
    },
    {
      "threadId": "101993847",
      "post": "i was more impressed with the doodles. Seriously though. Good share! ",
      "time": "2010-05-30T04:00:31",
      "id": "53117148"
    },
    {
      "threadId": "90030430",
      "post": "Well i think i want to agree with you.  I did write this on a whim, couldn't help myself after what the dude said to me. But apparently the higher the position the more pleasant the person.",
      "time": "2010-04-27T12:53:43",
      "id": "46924085",
      "parentPost": "I don't think that CSRs realise that everything they say is akin to the official opinion of the company that they work for. Many times I've been tempted to write off a company after receiving horrible service from front line staff, then a completely different - remarkable even - attitude from senior staff changed my mind. Maybe that's where Digi's problem is... or maybe I'm just an apologist because I used to work for LIME, and I'm convinced that there's no worse corporation than LIME on this planet.",
      "parentPostTime": "2010-04-27T12:45:11",
      "parentPostId": "46922737"
    },
    {
      "threadId": "80619403",
      "post": "When you spend enough time on it. It can become really personal.:) \n\nThanks re: my writing",
      "time": "2010-03-30T03:52:40",
      "id": "42223304",
      "parentPost": "I feel the same way, but about chat forums.  I've met tons of people from my Jamaican forum and have formed lifelong friendships and sisterhoods from it.  Twitter I like because its short and sweet, I can get what I need in a few seconds.  But I don't find it as personal as actual chatting and sharing pictures and stories. \n\nPS:  I like your writing.  ",
      "parentPostTime": "2010-03-30T03:44:58",
      "parentPostId": "42221591"
    },
    {
      "threadId": "72359055",
      "post": "Yes it is! Imagine a chronic smoker trying to part with smoking for 10 days.",
      "time": "2010-03-09T12:42:58",
      "id": "38668568",
      "parentPost": "lmao... idk Gordom. I gave up Twitter and Fb AND blogger for months and it didnt hurt at all.. but then, I was preoccupied with sooo many other things... 10 days? Is it really THAT hard?? ",
      "parentPostTime": "2010-03-09T12:39:38",
      "parentPostId": "38668382"
    },
    {
      "threadId": "67197841",
      "post": "Haha, I'm sure you could summarize it down to a page or so.",
      "time": "2010-03-01T15:49:00",
      "id": "37467628",
      "parentPost": "Inspiring letter. If only this was possible, my letter would be about 3 pages long with all the crap I used to do as a teen.",
      "parentPostTime": "2010-03-01T15:34:14",
      "parentPostId": "37466210"
    },
    {
      "threadId": "56547304",
      "post": "Thanks much, appreciate it:)",
      "time": "2010-01-12T16:15:18",
      "id": "29499234",
      "parentPost": "well written, and so true!!!! I love how your mind operates :)",
      "parentPostTime": "2010-01-12T15:59:16",
      "parentPostId": "29498066"
    },
    {
      "threadId": "53504305",
      "post": "Hahaha, that will do:p",
      "time": "2010-01-05T17:44:50",
      "id": "28408925",
      "parentPost": "Your new blog is sooooooo awesome.....great...outta this world....enuff??",
      "parentPostTime": "2010-01-05T17:26:16",
      "parentPostId": "28406989"
    },
    {
      "threadId": "26502873",
      "post": "Use Desktop Manager ( On Windows) look for back up and restore click restore. load your database backup and tick bbm contacts. Don't remember exact instructions.\n\nWith BBM five you can avoid all this by bUse Desktop Manager ( On Windows) look for back up and restore click restore. load your database backup and tick bbm contacts. Don't remember exact instructions.\n\nWith BBM five you can avoid all this by backing up locally or remotely ( RIM backs it up for you)acking up locally or remotely ( RIM backs it up for you)",
      "time": "2009-10-17T15:15:35",
      "id": "20264376",
      "parentPost": "I have a BB curve with a o.s. 4.5 I lost ALL my BBM contacts. How do I get them back? And yes I back up my device at least once a week.",
      "parentPostTime": "2009-10-17T07:38:51",
      "parentPostId": "20253787"
    },
    {
      "threadId": "14187054",
      "post": "In order of the best Social Scope> Uber Twitter> Tweet Genius in terms of aesthetics Tweet Genius beats both of them, but it terms of functionalitt social scope wins hands down",
      "time": "2009-07-22T21:03:35",
      "id": "13131277",
      "parentPost": "What do you think about Uber Twitter?",
      "parentPostTime": "2009-07-22T20:10:56",
      "parentPostId": "13129061"
    },
    {
      "threadId": "22270457",
      "post": "Yup, me too:) didn't like the name change though",
      "time": "2009-06-19T12:57:14",
      "id": "11444544",
      "parentPost": "I've been using Xmarks for a while now from when it was foxmarks. Juggling between about 5 different computers I use at home or work. Great tool!",
      "parentPostTime": "2009-06-19T12:43:28",
      "parentPostId": "11444187"
    },
    {
      "threadId": "17343618",
      "post": "Lol,\r\n\r\n1. It's definitely not the new blackberry ruthi hahaha, it's an actual human being;)\r\n2. Why thank you, i am human ya know:)\r\n\r\nre  your fourth paragraph, we'll see lol:)",
      "time": "2009-05-05T23:17:39",
      "id": "9031977"
    },
    {
      "threadId": "16484044",
      "post": "Thanks for the comments everyone.",
      "time": "2009-04-26T05:58:38",
      "id": "8698699"
    },
    {
      "threadId": "7653927",
      "post": "Thanks",
      "time": "2009-04-23T13:29:51",
      "id": "8604543",
      "parentPost": "That's a very useful article. I will be sure to send it around to my friends over at facebook and myspace.",
      "parentPostTime": "2009-04-21T19:40:07",
      "parentPostId": "8505640"
    },
    {
      "threadId": "13525937",
      "post": "I would be lying if i said i didn't agree with you Graham, but with technologies like these it's expected that it will be tempting and useful and just like everything else in this world it has it's pro's and cons. Re: the attachment and not being able to live without...i WHOLEHEARTEDLY agree with that. I've been cellphone less for the last 3 days and it's been a wreck. I was so attached to my blackberry it isn't even funny, and i did not realize how attached i was until i lost it:( oh well",
      "time": "2009-04-13T15:18:38",
      "id": "8115400",
      "parentPost": "I will admit that its high tech and what not but thats just ridiculous we are already reliant on mobile phones and to be honest most people wouldn't want to live without one nowadays (literally). What happens when we get one of these gadgets and that lose it once we've become overly reliant on it? We will go psycho! The more consumerism there is the more we take things for granted and that is undeniable.\r\n\r\nI'll admit it it would be very handy but we would be trusting something that has advertisers once again will invest a lot of money in and make the world worse than it already is... It's just like how we take the new \"smart phones\" for granted. They have everything on them, and once again most of the features are built in usually primarily for commercial purposes such as advertising and using the actual phone as a vehicle to sell other products. Its amazing how far we've come from copper pots and stone buildings but enough is enough we've already past the need for survival. No one man in a western society could starve to death when you think about it right?",
      "parentPostTime": "2009-04-13T15:02:48",
      "parentPostId": "8115027"
    },
    {
      "threadId": "14918557",
      "post": "I'm definitely  going to watch terminator on the big screen, transformers? meh",
      "time": "2009-04-04T23:24:10",
      "id": "7844437"
    },
    {
      "threadId": "13109354",
      "post": "sweet post shey, i get that shit too ugh!",
      "time": "2009-03-05T23:32:45",
      "id": "6928684"
    },
    {
      "threadId": "12595424",
      "post": "You hit the nail on the head Aundra, hahah me? currently signed in erhm..signed in hahah",
      "time": "2009-03-01T16:56:45",
      "id": "6745311"
    },
    {
      "threadId": "10432241",
      "post": "ROFL, i can't believe i just saw this, funny but still a little creeepy, the whole scanning of your phone thing ",
      "time": "2009-02-04T00:28:04",
      "id": "5823054"
    },
    {
      "threadId": "7653785",
      "post": "Yes i heard that he died... maybe it was the guilt, who knows",
      "time": "2009-02-02T12:31:58",
      "id": "5773044",
      "parentPost": "I know him too and these comments that you all made were just inconsiderate and mean. I hope you all know that he passed away on the 30th of January 2009. How does that make you all feel? His life was ruined because of a stupid rumor. ",
      "parentPostTime": "2009-02-02T01:55:37",
      "parentPostId": "5763811"
    },
    {
      "threadId": "9179781",
      "post": "Happy new year to you too leaon, shit i' md rikn drunk sorry",
      "time": "2009-01-01T06:20:02",
      "id": "4811442"
    },
    {
      "threadId": "7573527",
      "post": "Ian Boyne wrote a brilliant article re it today you should all read",
      "time": "2008-12-01T04:22:51",
      "id": "4079074"
    },
    {
      "threadId": "7356319",
      "post": "Hahaha quite the contrary Leon. You seem to have a wealth of experience in that area though:P",
      "time": "2008-11-29T00:44:23",
      "id": "4056019",
      "parentPost": "Details dude. Sounds like you're in an online relationship. Those rarely go well.",
      "parentPostTime": "2008-11-29T00:21:26",
      "parentPostId": "4055816"
    },
    {
      "threadId": "7242747",
      "post": "@ Leon How optimistic of you hahahah. Thanks Jam. @town,hmm that scares me",
      "time": "2008-11-20T04:09:43",
      "id": "3907589"
    },
    {
      "threadId": "6528261",
      "post": "Such a wonderful tribute, that came from the heart:)",
      "time": "2008-11-02T22:54:35",
      "id": "3447592",
      "parentPost": "A Tribute to Pia Phillips\r\n\r\nGone too soon your bright smile was stolen\r\nSo many of your words were left unspoken\r\nIn grief you've left the ones who hold you dear\r\nThe loss of such a great person has left us in despair.\r\nOur tears, they fall like torrents of rain\r\nBlinding our sight and riddling us with pain\r\nwe blindly search for an explanation - a reason\r\nfor why you were taken so early in life's season\r\nWe'll never forget your intoxicating laughter\r\nAs we turn new pages to enter a new chapter\r\nYou've left us - your friends alone in the dark\r\nBut your memory will remain etched in our hearts\r\n\r\nGone too soon your life has faded\r\nyou were one of the best persons God ever created\r\nthe earth was robbed of what you had to give\r\nBut we'll never forget the life you have lived\r\nSo many lives will be left untouched\r\nPia, we miss you so much\r\nYou were a part of our lives - our souls\r\nWith you gone we are no longer whole\r\nWe want to reach out -\r\nTo scream but we have no voice left to shout\r\nToo soon have you left us behind\r\nThe tapes of our minds now stuck on rewind\r\nThe answer to our burning question we cannot find.\r\nYou've left us falling, still not landing\r\nCaught between the heaven and earth now we are demanding\r\nThe return of the one that was too early taken\r\nThis tragedy has left our lives upturned and shaken.\r\n\r\nPia, you were a rare and priceless pearl\r\nSo amazing... you were a beautiful girl\r\nYou've touched our lives deeply - its true\r\nFor the gift of your life we want to say thank you\r\nWe remember each moment each second that was spent\r\nAnd we give God thanks for the life that He lent\r\nThank you Lord for lending us your angel so pure\r\nAnd for our sorrows please lend us a cure\r\nLet us not cry about all the words left unsaid\r\nBut help us to look back on her life in happiness instead.\r\n\r\nRest in Peace Pia.\r\nWe love you dearly and miss you completely.\r\nImmaculate will not be the same without our best Head girl...\r\nOUR LIVES will not be the same without ONE OF THE BEST GIRLS.\r\nYou were truly a Phenomenal Woman.\r\nWatch over us.\r\n",
      "parentPostTime": "2008-11-02T22:48:36",
      "parentPostId": "3447540"
    },
    {
      "threadId": "6309605",
      "post": "With time comes change. My views will change from time to time, just like everything else \r\nI somehow feel this transcending from a debate solely about perfection and looping over into religion, heh, religion and it's technicalities * I laud the fuckers who concocted such a...*\r\n\r\nIf \"God?( i keep saying God is a title and not a name)\" was not perfect then we could not consider him God, i always loved this \"“Is God willing to prevent evil, but not able? Then he is not omnipotent. Is he able, but not willing? Then he is malevolent. Is he both able and willing? Then whence cometh evil? Is he neither able nor willing? Then why call him God?”\r\n\r\nI don't see why you insist on looking on this solely from a religious point of view though, not all of us are religiously inclined.\r\n\r\nYou must understand that he was not talking about perfection in it's conventional form; it was more than anything else \"a self esteem builder, self actualization.\" sorta thing.\r\n\r\nYou out of all people should know that there has to be a balance.  As horrendous as this might sound i think wars, racism, hunger and every other \"travesty\" is just apart of the whole human cycle, they've been arounnd from the beginning of time and they are  not going anywhere soon.  The only reason you call these \"imperfect\" is because you grew up hearing it was bad...it does not fall in line with your moral compass, so it's instantly deemed as \"bad\", \"horrendous\", \"terrible\" and every other crude word we could find.\r\n\r\nYou can't question the scriptures now can you? it says \"Be perfect, therefore, as your heavenly Father is perfect.\" that was mentioned in the article; i think that speaks for itself. \r\n\r\nIf you are to truly understand that article, then you need to take the conventional meaning of \"perfection\" from your head, only then will you truly get the intended meaning",
      "time": "2008-10-28T10:32:36",
      "id": "3339867"
    },
    {
      "threadId": "5742904",
      "post": "+1 for the gummy beat inclusion; + infinte for the wonderful post Aundra; your everyone's shining star in utter darkness",
      "time": "2008-10-14T02:26:49",
      "id": "3033145"
    },
    {
      "threadId": "5120049",
      "post": "You keep them coming don't you; wonderful post Aundra.",
      "time": "2008-09-28T22:48:03",
      "id": "2719200"
    },
    {
      "threadId": "4664322",
      "post": "Did you even take the time to read what i wrote \"krista\" your exactly the type of person i wrote about in my post...",
      "time": "2008-09-18T02:26:32",
      "id": "2411787",
      "parentPost": "The nu facebook is pure, unadulterated BS...",
      "parentPostTime": "2008-09-17T17:31:48",
      "parentPostId": "2401150"
    },
    {
      "threadId": "3980454",
      "post": "nope, works fine for me\r\n",
      "time": "2008-09-04T01:37:33",
      "id": "2096013"
    },
    {
      "threadId": "3613227",
      "post": "Seesmic video reply from Disqus.",
      "time": "2008-08-26T16:42:31",
      "id": "1854364"
    },
    {
      "threadId": "3578219",
      "post": "I hope it goes well, you must be excited.  Best of luckj",
      "time": "2008-08-23T11:12:49",
      "id": "1768450"
    },
    {
      "threadId": "3525300",
      "post": "uhmm....was my \"our\" intentional.....",
      "time": "2008-08-22T16:47:07",
      "id": "1733168"
    },
    {
      "threadId": "3250125",
      "post": "rofl, ya think",
      "time": "2008-08-22T15:39:18",
      "id": "1732313",
      "parentPost": "nobody runs a race to break the world record it just happens.  The whole if he didn't slow down crap is bs, the point is to come first and thats what he was aiming for",
      "parentPostTime": "2008-08-22T15:35:37",
      "parentPostId": "1732254"
    },
    {
      "threadId": "3430190",
      "post": "i think we will indeed get  national holiday; hopefully after olympics.",
      "time": "2008-08-20T21:45:14",
      "id": "1705982"
    },
    {
      "threadId": "3260047",
      "post": "heh, i dare not ask what type of memories:P",
      "time": "2008-08-18T23:59:35",
      "id": "1612690",
      "parentPost": "Awesome song. One that brings back a lot of memories for me.",
      "parentPostTime": "2008-08-18T23:55:10",
      "parentPostId": "1610492"
    },
    {
      "threadId": "3219937",
      "post": "Yup; it's pretty good.",
      "time": "2008-08-18T13:17:34",
      "id": "1593785",
      "parentPost": "knock the bitches dead mang. also I think i'm gonna ttry out this disqus thing shey did it you did it. It must be wroth a try",
      "parentPostTime": "2008-08-18T13:11:47",
      "parentPostId": "1593400"
    },
    {
      "threadId": "3157612",
      "post": "Lol; saw this one already. It's a cool feeling though, and let's not forgot women cook most of the time hehe",
      "time": "2008-08-17T13:21:53",
      "id": "1558061"
    },
    {
      "threadId": "2957149",
      "post": "Yah; you don't seem like a shitbag to me:P rofl, your super awesome",
      "time": "2008-08-15T01:43:17",
      "id": "1457355"
    },
    {
      "threadId": "2484841",
      "post": "Just saw this; i thought i was the only one.  It's really annoying; and no matter how much i 'mark it as spam' it still ends up in my inbox",
      "time": "2008-08-13T03:35:46",
      "id": "1188927"
    },
    {
      "threadId": "2617972",
      "post": "You couldn't have said it any better Steve.  Heck, they can kiss my ass too",
      "time": "2008-08-11T09:18:53",
      "id": "1156477"
    },
    {
      "threadId": "2510453",
      "post": "Rofl; uhm..thanks? I'm not 15 anymore btw; 17 now... lol @ \"little fella\", you must be really old ( i say that in the most sincere way)",
      "time": "2008-08-08T18:35:23",
      "id": "1136404"
    },
    {
      "threadId": "2435082",
      "post": "Ok that's down right SCARY.  It's like this person was on a round-a-bout, first it's over then it's on again like a couple facing serious relationship problems.  This message alone creeped me out  \"Together we would be stronger.\"  \r\n\r\nI think it took you too long to tell that person you were not interested, you should have been frank and say something like 'Please do not contact me anymore, i do not feel comfortable with you contacting me and i am certainly not interested in your venture\".  Maybe then the \"stalking\" would have stopped",
      "time": "2008-08-04T13:23:47",
      "id": "1091130"
    },
    {
      "threadId": "2417253",
      "post": "Such a moving video; She really got the opportunity of a lifetime that not many Neuroanatomists get. Once again another awesome post by the Great Aundra.  keep it up.",
      "time": "2008-08-03T23:08:13",
      "id": "1087751"
    },
    {
      "threadId": "2347886",
      "post": "Well written post; it's still sorta complicated though; i think i'll stick to the old way:)",
      "time": "2008-08-03T17:49:35",
      "id": "1086263"
    },
    {
      "threadId": "2406998",
      "post": "It is what it is Louis;  i'm sure Allen understands fully.",
      "time": "2008-08-03T04:09:21",
      "id": "1083753"
    },
    {
      "threadId": "2350402",
      "post": "That vid rocks my socks off. That dude must be one luck camper!!!",
      "time": "2008-08-03T01:10:20",
      "id": "1082988"
    },
    {
      "threadId": "2386733",
      "post": "Well; not sure about forever, but i doubt anybody will overpower Google anytime soon. After all Alta vista once ruled the interwebs and they got ass whopped by Google.  Heck, when i write Google with a common G the spell checker wants to change it to a Capital G:P",
      "time": "2008-08-02T21:18:06",
      "id": "1081981"
    },
    {
      "threadId": "2089497",
      "post": "Thanks for the advice, greatly appreciated.",
      "time": "2008-07-29T20:04:55",
      "id": "1040007"
    },
    {
      "threadId": "2244458",
      "post": "I tried to have a lookie awhile ago, but unfortunately it was \"down\"",
      "time": "2008-07-28T11:03:04",
      "id": "1018604"
    },
    {
      "threadId": "2209240",
      "post": "Thanks for the link love:) Disqus is awesome",
      "time": "2008-07-26T20:02:14",
      "id": "1010036"
    },
    {
      "threadId": "2194317",
      "post": "Pure awesome ness. Long read though:P",
      "time": "2008-07-26T02:26:31",
      "id": "1006309"
    },
    {
      "threadId": "2033542",
      "post": "I agree with everything you said above wholeheartedly ",
      "time": "2008-07-21T02:50:26",
      "id": "953078"
    },
    {
      "threadId": "1885253",
      "post": "Thanks Jamaipanese",
      "time": "2008-07-17T17:07:58",
      "id": "922955"
    },
    {
      "threadId": "1949274",
      "post": "Rofl; come to think of it you do resemble LL cool J; shiiiiiiiit",
      "time": "2008-07-17T02:09:42",
      "id": "916921"
    },
    {
      "threadId": "1876760",
      "post": "I feel honored, thanks for the linkage:P",
      "time": "2008-07-14T04:05:40",
      "id": "884305"
    },
    {
      "threadId": "1862682",
      "post": "Not sleeping works too hahaha; thanks.",
      "time": "2008-07-14T00:34:12",
      "id": "883031"
    },
    {
      "threadId": "1694148",
      "post": "Very Useful, good idea.",
      "time": "2008-07-13T13:27:49",
      "id": "879268"
    },
    {
      "threadId": "1857410",
      "post": "test",
      "time": "2008-07-13T06:22:36",
      "id": "878415"
    },
    {
      "threadId": "38801258",
      "post": "Louis you need to take into consideration that African American bloggers are offended all black bloggers around the world should be peeved. I'm a black blogger from Jamaica and it hurts me as well.",
      "time": "2008-07-10T05:06:00",
      "id": "852029"
    }
  ],
  "profileInfo": {
    "username": "gordonswaby",
    "about": "Founder/CEO, EduFocal.com",
    "name": "Gordon Swaby",
    "disable3rdPartyTrackers": false,
    "isPowerContributor": false,
    "isAnonymous": false,
    "rep": 1.409837,
    "profileUrl": "https://disqus.com/by/gordonswaby/",
    "url": "http://gordonswaby.com",
    "reputation": 1.409837,
    "location": "Kingston, Jamaica",
    "isPrivate": false,
    "signedUrl": "http://disq.us/?url=http%3A%2F%2Fgordonswaby.com&key=90Z1dWhLBZtSwZQCUGHODg",
    "isPrimary": true,
    "joinedAt": "2008-05-02T16:28:43",
    "id": "28198",
    "avatar": {
      "small": {
        "permalink": "https://disqus.com/api/users/avatars/gordonswaby.jpg",
        "cache": "//a.disquscdn.com/uploads/users/28198/avatar32.jpg?1398004589"
      },
      "isCustom": true,
      "permalink": "https://disqus.com/api/users/avatars/gordonswaby.jpg",
      "cache": "//a.disquscdn.com/uploads/users/28198/avatar92.jpg?1398004589",
      "large": {
        "permalink": "https://disqus.com/api/users/avatars/gordonswaby.jpg",
        "cache": "//a.disquscdn.com/uploads/users/28198/avatar92.jpg?1398004589"
      }
    }
  }
}