{
  "comments": [
    {
      "threadId": "4765966063",
      "post": "The Steelers' offense is a different type of offense. Comparing their offense with the Vikings' offense is comparing apples and grapefruits.\nTreadwell & Doctson are both legitimate No. 1 WRs. I'd take either one with the 23rd pick without hesitation. Neither has elite speed but they're both sneaky fast. They're both exceptional on so-called 50-50 balls.\nBTW, I just watched some film of Treadwell. That dude is a great pass catcher but he's a total beast blocking downfield.",
      "time": "2016-04-22T21:32:51",
      "id": "2637898567",
      "parentPost": "I hope they don't use a 1st round pick on a receiver and employ The Steelers approach of not taking WRs until the 3rd round or later. (See: Antonio Brown Rd 6; Emmanuel Sanders Rd 3; Markus Wheaton Rd 3; Martavis Bryant Rd 4; Sammie Coates Rd 3).  I don't believe this year's crop of receivers contains a sure fire blue chip.  Therefore I believe it is too risky to take a WR in the 1st round.  Wait on receiver and take BPA.",
      "parentPostTime": "2016-04-22T13:12:32",
      "parentPostId": "2637070537"
    },
    {
      "threadId": "4530788503",
      "post": "That's speculation. Who are they? Are they on the Happy Hour debate?",
      "time": "2016-01-28T14:16:14",
      "id": "2482935874"
    },
    {
      "threadId": "4340082062",
      "post": "It didn't prove that everyone who's gotten elected president is qualified to be president, did it?\nHe's been a failure in every facet of the job. We don't need another idiot who isn't qualified succeeding this idiot.",
      "time": "2015-11-23T07:47:56",
      "id": "2374250256",
      "parentPost": "If there is something Obama proved, it is that anyone can be president.",
      "parentPostTime": "2015-11-23T01:18:41",
      "parentPostId": "2373914788"
    },
    {
      "threadId": "4226254839",
      "post": "It came from Trey Gowdy, the chairman of the committee. Next time, do your homework before accusing me of spreading rumors.",
      "time": "2015-10-15T18:22:37",
      "id": "2309148039",
      "parentPost": "<blockquote>In fact, when this staffer requested interns do a project that...</blockquote>And these 'facts' came from?\n\n\nLet me guess... The 'facts' you're presenting came from the people who have been trained from day one to cover (cover up?) their backsides. Your innuendo is quite ironic.",
      "parentPostTime": "2015-10-15T15:49:49",
      "parentPostId": "2308881227"
    },
    {
      "threadId": "4153800884",
      "post": "First, that's a good performance by a principled conservative in California. Next, U.S. economic policies caused most of the jobs to be shipped overseas. Weaponized government needs to be dismantled. Carly has a plan for that and a plan to expand energy sector job growth. Third, Carly has a plan to rebuild the military that President Obama did his best to demolish.\n\nIf that's your definition of a Rove/establishment stooge, then be prepared to call President Reagan an establishment stooge, too.",
      "time": "2015-09-22T12:51:36",
      "id": "2267124588",
      "parentPost": "Fiorina shipped 30,000 American jobs overseas and forced those American employees to even train their foreign replacements\n\nhttp://www.orlytaitzesq.com/fiorina-shipped-30000-american-jobs-overseas-and-forced-those-american-employees-to-even-train-their-foreign-replacements/\n\n“When you examine her record and the fact that she shipped 30,000 jobs overseas and forced those beautiful employees to even train their foreign replacements, when these people come out to tell the story of Carly Fiorina like they did in my Senate race — I won that race in a landslide,” Boxer said. “I think the Republicans would have a very rough time if she was on the ticket.” Senator Boxer, who beat Fiorina in the Senate race in CA\n\nBoxer won the race by nearly 1 million votes, 52% to 42%.",
      "parentPostTime": "2015-09-22T12:06:14",
      "parentPostId": "2267067103"
    },
    {
      "threadId": "4128218077",
      "post": "It'd be nice if the media did its job and called him what he is -- a sleazy, immoral man. PS- John Fund's article is today's must reading:\n\nhttp://www.nationalreview.com/article/423865/donald-trump-bluffing-iran-net-worth\n\n\nSometimes, it's imperative to call a liar a liar. Like now.",
      "time": "2015-09-14T13:41:44",
      "id": "2252824396"
    },
    {
      "threadId": "4019867673",
      "post": "That's a BS argument. Trump isn't running against Boehner or McConnell. He's running against Scott Walker, Carly Fiorina, Rick Perry and Bobby Jindal.\nTrump isn't a conservative. He's a country club Republican. Literally. Check out Carly Fiorina's plan to eliminate most of  President Obama's environmental regulations. Check out Scott Walker's accomplishments of limiting powerful government unions. Then compare them with Trump's buying of politicians so they owe him something when he needs it.",
      "time": "2015-08-10T21:49:42",
      "id": "2185220866",
      "parentPost": "I'll take an outsider egomaniac over a beltway insider any day of the week.\n\n\nTrump may not be my first choice, but who else has a legitimate shot to crack the entrenched Uniparty?\n\n\n4 or 8 years of Jeb or Hillary = more of the same.\n\n\nCertainly Boehner and McConnell will do nothing.",
      "parentPostTime": "2015-08-10T15:15:11",
      "parentPostId": "2184516979"
    },
    {
      "threadId": "3949230083",
      "post": "McCain's war hero status is forever. I'll quickly admit that his career as a politician is lackluster but his war hero status won't change. Period.\nAs for McCain being called a traitor, that's BS. He was offered the opportunity to leave. He refused. That isn't the actions of a traitor, especially when you consider the fact that he endured multiple beatings after saying no. Rational people wouldn't argue with that. \nAs for immigration, don't expect a fight. On that, Sen. McCain is a failure. That's his record as a senator, though, not as a POW.",
      "time": "2015-07-19T18:24:46",
      "id": "2145407364",
      "parentPost": "Tis not a question of whether I support Trump on all issues, but whether his statements hold a degree to truth. Should McCain be honored for his service? sure, but for how many years should he be considered a hero? That is a totally different question in view of Viet Vets in the same pow camp that swear the was in fact a traitor. I am sure you have read stories of how long vets have to wait for treatment at VA hospitals. If even only a small portion of the stories are true then every politician in Washington should hang their head in shame. They care more about people coming across the border illegally than they do about the men and women who have protected them in their cushy jobs in Washington D.C.. By his inaction to insist on care, McCain has lied to the american veteran. McCain has lied to the people of Arizona for years that he is going to take steps to secure our southern  border and then does nothing. Read Senate Bill 744 in its entirety and you will see that he provides for amnesty but does nothing to secure the border. He may be a war hero, but halo is being worn very thin by his constant lies.",
      "parentPostTime": "2015-07-19T17:55:46",
      "parentPostId": "2145369125"
    },
    {
      "threadId": "3914904335",
      "post": "Actually, the DFL voted to give Gov. Dayton this authority when they had total control of the state government. Republicans voted to give Gov. Dayton the opportunity to give these commissioners significantly smaller raises.\nFinally, the DFL voted to give away their authority to accept or reject proposed pay raises. Republicans voted to restore that authority to the legislature.",
      "time": "2015-07-08T20:52:55",
      "id": "2125048055"
    },
    {
      "threadId": "3262011083",
      "post": "If we don't call people out, we'll never solve this problem: http://www.examiner.com/article/al-sharpton-racist-provocateur",
      "time": "2014-11-28T03:56:25",
      "id": "1716094126"
    },
    {
      "threadId": "3250385376",
      "post": "I say it's trouble with a qualifier. It's trouble if Halbig v. Burwell doesn't knock it out first.",
      "time": "2014-11-22T01:29:44",
      "id": "1706397904"
    },
    {
      "threadId": "3207758897",
      "post": "I wrote this article to highlight the lessons President Reagan taught us that President Obama ignored:\n\nhttp://www.examiner.com/article/ronald-reagan-barack-obama-and-the-berlin-wall",
      "time": "2014-11-10T05:33:39",
      "id": "1685384882"
    },
    {
      "threadId": "3191160530",
      "post": "I wrote this article to explain why Scott Walker will win re-election: \nhttp://www.examiner.com/article/why-scott-walker-will-win",
      "time": "2014-11-04T22:16:35",
      "id": "1676673697"
    },
    {
      "threadId": "3088825749",
      "post": "I wrote about the video here:\n\nhttp://www.examiner.com/article/lundergan-grimes-lying-game\n\nShe was in trouble before. Read the article to find out where Ms. Lundergan-Grimes is after Coalgate",
      "time": "2014-10-06T16:50:56",
      "id": "1621944633"
    },
    {
      "threadId": "2971185367",
      "post": "Greta, Thanks for your show. Your attention to details is refreshing. Your demand for excellence, or at least competence, sets you apart from the usual talking heads.\nKeep up the great work.",
      "time": "2014-09-01T19:01:10",
      "id": "1569247130",
      "parentPost": "I confess...it made me crazy how hard it was to catch Fran Tarkenton :)",
      "parentPostTime": "2014-09-01T17:10:52",
      "parentPostId": "1569087366"
    },
    {
      "threadId": "2723794794",
      "post": "We're in the final minutes of the Shinseki Watch: http://www.letfreedomringblog.com/?p=16562",
      "time": "2014-05-30T14:06:14",
      "id": "1412106586"
    },
    {
      "threadId": "1966769211",
      "post": "It's too early to predict another wave election like 2010. Still, the foundation for such an election is building. People were lied to. At-risk people now face a more daunting situation without insurance. The reactions I've seen have been visceral. That's the type of emotion that's needed to fuel a wave election.",
      "time": "2013-11-16T01:34:05",
      "id": "1125300731"
    },
    {
      "threadId": "1791058383",
      "post": "This is one of my 'NO MORE!!!' moments. That a thug with a badge can assault a citizen, then have the citizen be arrested on federal charges, is outrageous. I wrote about it here:\n\nhttp://www.letfreedomringblog.com/?p=15270\nIt's time for patriots to join with KrisAnne and myself in saying \"NO MORE!!!\" to the tyrants. \"NO MORE!!!\" should become our battle cry against government-employed tyrants.",
      "time": "2013-09-24T03:14:35",
      "id": "1056675769"
    },
    {
      "threadId": "1626268946",
      "post": "Two of the thugs are black teens. The other thug is white.",
      "time": "2013-08-22T05:29:27",
      "id": "1012332706"
    },
    {
      "threadId": "1585379265",
      "post": "If you can't differentiate between Jennifer Griffin, Bret Baier or Catherine Herridge & Bill O'Reilly or Hannity, you'd better put in the time to graduate from junior high.",
      "time": "2013-08-08T17:25:44",
      "id": "993372576",
      "parentPost": "and herein lies the problem. Waaaaay too much commentary intertwined with news for it to be called 'news'.  Should be \"Fox Opinion Channel - Mainstream Edition\", or \"FOC-ME\" for short.",
      "parentPostTime": "2013-08-08T17:13:24",
      "parentPostId": "993357102"
    },
    {
      "threadId": "1499980804",
      "post": "I wrote here about George Zimmerman's first lawsuit: http://www.examiner.com/article/george-zimmerman-s-first-lawsuit\nPathetic. Without that ugliness, charges wouldn't have been filed.",
      "time": "2013-07-14T16:34:04",
      "id": "961887458"
    },
    {
      "threadId": "1369486726",
      "post": "Martin Bashir heard a dog whistle: http://www.examiner.com/article/martin-bashir-hears-a-dog-whistle",
      "time": "2013-06-06T12:43:28",
      "id": "920939515"
    },
    {
      "threadId": "1114934166",
      "post": "Duplication Nation: Spending stupidity on autopilot: http://www.examiner.com/article/duplication-nation-spending-stupidity-on-autopilot\n\nDuplication Nation: Spending stupidity on auto pilot, Part II:\nhttp://www.examiner.com/article/duplication-nation-stupidity-on-autopilot-part-ii",
      "time": "2013-03-03T11:10:27",
      "id": "818009258"
    },
    {
      "threadId": "939828481",
      "post": "The best part of my day was all the relaxing. That & the writing I got done: http://www.examiner.com/article/sen-leahy-big-brother-and-the-fourth-amendment\nhttp://www.examiner.com/article/is-occupy-movement-a-terrorist-organization",
      "time": "2012-11-22T22:39:30",
      "id": "717190999"
    },
    {
      "threadId": "866322648",
      "post": "Good stuff Matt. Thanks for this good catch.",
      "time": "2012-10-01T14:14:16",
      "id": "667631606"
    },
    {
      "threadId": "848091681",
      "post": "\"What are your sources for this?  Fox news?\"\nTry Jake Tapper of ABC News. Try Mohamed Magariaf, Libya's president. Here's what he said:\n\"It was planned, definitely, it was planned by foreigners, by people who \nentered the country a few months ago, and they were planning this criminal act \nsince their arrival,\" he told Bob Schieffer.\nI suppose now you're going to accuse Schieffer & Tapper of being in the tank conservatives, too? Keep talking. There's nothing like a liberal making an arse of himself.",
      "time": "2012-09-18T06:51:36",
      "id": "654156828",
      "parentPost": "\" the rest of the world is reporting that the Obama administration knew \nabout the planned-attack on the Benghazi, Libya Embassy where four \nAmericans, including United States Ambassador Christopher Steven was \nmurdered.\"\n\nWhat are your sources for this?  Fox news????? Are you kidding me???? It appears to me there is some stacking of the deck here.  The Independent is making this charge and they have a connection to the media outlet ,clear channel, owned by Bain capital and you expect us to take this seriously???????  Sheesh.",
      "parentPostTime": "2012-09-18T02:48:39",
      "parentPostId": "653850520"
    },
    {
      "threadId": "807830392",
      "post": "Is this election turning this week. I write why it is here:\n\nhttp://www.letfreedomringblog.com/?p=13616",
      "time": "2012-08-16T16:14:44",
      "id": "621178902"
    },
    {
      "threadId": "667162642",
      "post": "Ron Paul's supporters behaved boorishly. One tweeted that this wasn't about winning control of the GOP. He said that they're only interested in \"a hostile takeover.\"\n\nWhen Luke Hellier spoke as to why Chris Tiedeman should be one of the delegates to Tampa, there were alot of people with tears in their eyes. Several months ago, Chris & his wife were in a nasty car accident. About a month ago, Chris's wife passed away. Going to the convention would've been part of Chris's healing.\n\nWhen it was announced that Chris wouldn't be a delegate, that the Pauligates had swept the slate with the exception of Michele Bachmann, there was loud applause. They didn't give a damn about Chris.\n\nIt was all about ramming their slates through. They didn't give a damn about winning elections this fall.\n\nNow they're the majority. They're the establishment. Let's see if they work to get people elected or if they'll just sit back & hand Mark Dayton a tax-increasing, wild-spending legislature that'll set Minnesota back economically for a decade or more.\n\nWayde, if you sit on your ass or refuse to get people elected, the Paul flameout will happen sooner rather than later. It'll be self-inflicted, too.\n\nDoes that clarify things enough for you?",
      "time": "2012-05-21T05:50:37",
      "id": "534128667",
      "parentPost": "Sir, please explain what you're trying to convey with the last sentence of your post, \"It's time to eliminate the Paulbot factor in the GOP?\"  I would appreciate the clarification.\n\nWayde Brooks, Chief Teller CD-4\nAlternate Delegate to RNC 2012",
      "parentPostTime": "2012-05-21T04:46:29",
      "parentPostId": "534093779"
    },
    {
      "threadId": "605388832",
      "post": "JBT said \"Anyone can find vulgar tweets and emails directed to people in the news on any topic on both sides of the aisle.\"\n\nIf that's true, show us the threatening tweets & emails sent directly to Ms. Pelosi or Sen. Reid.\n\nJBT said \"You are also employing once again your childish school yard defense that, \"Everybody on their side is doing it too, so it is ok if we do it too.\"\n\nJBT, pull your head out of your ass. LL didn't excuse any of the behavior. Don't hear what wasn't said. What you said is projection, not fact-based truth.\n\nJBT said \"we ALL enjoy freedom of speech in this country.\" The First Amendment doesn't protect speech that incites violence. Rush Limbaugh's statements were stupid. Most importantly, they were disgusting.\n\nThe emails & tweets that LL referenced are violent & threatening. You're right in saying that there's no comparison between what Rush Limbaugh said & what these OWS thugs said. Limbaugh's statements were disgusting. They weren't violent or threatening.",
      "time": "2012-03-10T17:07:22",
      "id": "461525091",
      "parentPost": "Rush Limbaugh's \"misguided comments\"?  You must be kidding.  You are throwing up a smokescreen to divert attention away from Limbaugh's atrocious comments sent to millions of listeners, by bringing up tweets and emails sent to one individual who make the responders upset.  That is hardly a valid comparison.\n\nYou are also employing once again your childish school yard defense that, \"Everybody on their side is doing it too, so it is ok if we do it too.\"  Anyone can find vulgar tweets and emails directed to people in the news on any topic on both sides of the aisle.  That proves nothing except that there are individuals who communicate in that fashion when they are angry, and that we ALL enjoy freedom of speech in this country.\n\nI note that you too are joining the Rush bandwagon to villainize Sandra Fluke calling her a \"moocher\", \"arrogant\", and implying that she lacks intelligence.  This is simply because she spoke before a congressional committee sharing the comments and feelings of other women attending her law school.\nHere is a link to the transcript of her entire testimony.  http://www.buzzfeed.com/boxofficebuz/transcript-of-testimony-by-sandra-fluke-48z2 Those who read what Sandra actually said will see that she referred to the cost of contraception being $3000 through law school, not per year.",
      "parentPostTime": "2012-03-10T15:42:28",
      "parentPostId": "461470781"
    },
    {
      "threadId": "587275971",
      "post": "I wish my website was operational. I'd unload on you until you'd be shell-shocked. OWS is disgusting but it's just the tip of the proverbial iceberg.\n\nLet's talk about the SEIU thugs that showed up at the home of US Bank counsel Greg Baer, 400 to 500 people strong. They brought out their shock troops. They shouted from Baer's front porch. Baer's teenage son was caught inside the house. He's still having nightmares as a result.\n\nNext, let's talk about the SEIU thugs that assaulted Kenneth Gladney, the conservative street vendor selling Don't Tread On Me flags outside a townhall meeting in St. Louis.\n\nThat's before talking about AFSCME thugs in Wisconsin threatened shop owners with crippling boycotts if they didn't actively side with AFSCME in their battle against Scott Walker. Dawn Bobo of Union Grove stood up to these bullies.\n\nThat's before talking about the thug tactics of the president of the Michigan chapter of AFSCME. He's the jerk that threatened to use his union member \"like a weapon.\"\n\nI could go on alot longer but my time is valuable. When my website is back operational, I'll write a comprehensive post about how despicable leftist partisans are.",
      "time": "2012-02-26T19:03:34",
      "id": "449418276",
      "parentPost": "More excellent examples of the conservative's \"black and white\"/\"all or nothing\" thinking.  \n\nhttp://en.wikipedia.org/wiki/Splitting_%28psychology%29\n\nA small minority of Wall Street Occupiers committed crimes therefore ALL of those of us with liberal and progressive views are guilty.  That's nonsense---especially considering that the masses of people protesting contained many \"non political\" street people who were in the area before, during, and after the occupation.\n\nCondemning an entire group of like minded people for the (alleged) actions of an individual smacks of prejudice and bigotry---especially when there has been no proof offered whatsoever as to who hacked a particular website.  Put down the broad brush L.L. before you make a bigger fool of yourself than you already have on this topic.",
      "parentPostTime": "2012-02-25T14:30:23",
      "parentPostId": "448633293"
    },
    {
      "threadId": "542742581",
      "post": "I wrote here that Mitt won't avoid the debates because he'd look like a wimp:\n\nhttp://www.letfreedomringblog.com/?p=12191\n\nI've also written that Mitt's 'Unreliable Newt' attacks will backfire:\n\nhttp://www.letfreedomringblog.com/?p=12198",
      "time": "2012-01-18T14:16:43",
      "id": "414308713"
    },
    {
      "threadId": "506593888",
      "post": "Newt's comments weren't condescending. The reality is that Newt exposed Michele's overheated rhetoric on partial birth abortion as not being accurate. I wrote about that here:\n\nhttp://www.examiner.com/conservative-in-minneapolis/gingrich-corrects-michele-bachmann-s-accusations\n\nThe reality is that Michele wants to be taken serious but she can't get her facts straight. That's been her hallmark since starting in Congress. I know because Michele's been my congresslady since 2006. I know that Michele's had a habit of saying wild things. Here in Minnesota, we know about Michele's habit of overdramatizing things.\n\nLast year, everyone knew she'd defeat my former state senator Tarryl Clark. That didn't prevent Michele from writing fundraising appeals saying that she was \"Nancy Pelosi's number one target.\" That's BS & she knew it. She won handily, 53-40%.\n\nMichele the drama queen is what we've gotten used to. Now that she's on the world's biggest stage, she's upset that she isn't getting away with the stunts she's pulled in Minnesota.\n\nIt's that simple.",
      "time": "2011-12-16T17:09:40",
      "id": "388077970"
    },
    {
      "threadId": "500471111",
      "post": "Michael, I wrote here that Newt dressed Mitt down with his Reaganite responses to Mitt on Israel:\n\nhttp://www.letfreedomringblog.com/?p=11872\n\nI also wrote that Michele's over-the-top, inaccurate answers hurt her:\n\nhttp://www.examiner.com/conservative-in-minneapolis/michele-bachmann-unhinged\n\nAs one of her constituents in Minnesota, it was painful for me to watch her attacks.",
      "time": "2011-12-11T14:32:30",
      "id": "383999699"
    },
    {
      "threadId": "500526083",
      "post": "Tonight's defining moment came during Mitt's exchange with Newt over the Palestinians & Israel policy:\n\nhttp://www.letfreedomringblog.com/?p=11872\n\nThat's close to being a knockout punch.",
      "time": "2011-12-11T08:38:23",
      "id": "383909827"
    },
    {
      "threadId": "498952986",
      "post": "Great article, Michael. I fisked President Obama's speech in this post:\n\nhttp://www.letfreedomringblog.com/?p=11845\n\nThe number of inane comments in the first 8 paragraphs was so substantial that I didn't have the desire to go further.\n\nWhat's scary is that he, like Ms. Pelosi, thinks that unemployment checks INCREASES demand rather than maintaining existing demand.\n\ni don't say this with any joy but this guy's scary when it comes to econmic policies.",
      "time": "2011-12-09T20:32:36",
      "id": "383060431"
    },
    {
      "threadId": "498276683",
      "post": "Matt, thanks for the great post. I wrote about it here but with a little twist to it:\n\nhttp://www.letfreedomringblog.com/?p=11857\n\nMitt's liberal tendencies are showing, aren't they?",
      "time": "2011-12-09T20:24:03",
      "id": "383055491"
    },
    {
      "threadId": "470270317",
      "post": "The only question left for me is whether his gaffe last night will be the final straw that breaks Mr. Cain's campaign. Here's what I wrote about it:\n\nhttp://www.letfreedomringblog.com/?p=11654",
      "time": "2011-11-13T23:08:55",
      "id": "362518664"
    },
    {
      "threadId": "425339014",
      "post": "Romney is a younger John McCain without the heroism. Both are electoral disasters. Romney is slow & steady but he's also wrong on climate change, size & scope of government & Obamneycare.\n\nSpit-for-brains GOP strategist love the guy because he's checked off all the required boxes. Unfortunately for him, he doesn't connect with anyone beyond the pundit class.",
      "time": "2011-09-27T01:13:54",
      "id": "320582587"
    },
    {
      "threadId": "426219894",
      "post": "I posted here about \"the failed policies of the last 8 years\":\n\nhttp://www.letfreedomringblog.com/?p=11120\n\nDuring President Bush's administration, the highest annual unemployment got was 6%, in 2003. During President Obama's administration, the lowest annual unemployment rate was 9.3% in 2009. It was 9.6% in 2010. It's sure to be 9% or higher in 2011.\n\nWhose failed policies? In 2012, voters will tell Democrats, from President Obama to the senators to the House, \"You're fired.\" I'd add that they'd mutter under their breath \"don't let the door hit ya where the good Lord split ya.\"",
      "time": "2011-09-26T16:14:33",
      "id": "320264333"
    },
    {
      "threadId": "422115872",
      "post": "I wrote here that Mitt's criticisms will create an anti-Perry backlash:\n\nhttp://www.letfreedomringblog.com/?p=11223\n\nMitt's criticisms sound whiny, as do Michele Bachmann's. Rick Santorum's criticisms are born out of desperation.\n\nAt the end of the day, people will look at which candidate signed the precursor to Obamacare & which candidate signed tort reform & has a strong record as a chief executive of a state that created lots of jobs during tough times.",
      "time": "2011-09-22T09:39:05",
      "id": "317284483"
    },
    {
      "threadId": "378673667",
      "post": "I transcribed another portion of Michele Bachmann's statement in this post:\n \nhttp://www.letfreedomringblog.com/?p=10943\n \nI also added some commentary.",
      "time": "2011-08-06T14:39:17",
      "id": "279208353"
    },
    {
      "threadId": "347258994",
      "post": "I saw the date...it's from WEDNESDAY...GOP & Dayton offers were Thursday afternoon. I've posted the proposals, including the letter from Gov. Dayton on official stationary, here:\n\nhttp://www.letfreedomringblog.com/?p=10759\n\nDEAL WITH IT!!!",
      "time": "2011-07-01T17:11:24",
      "id": "240110810",
      "parentPost": "Did you see the date at the top of the page, Gary? Ancient history? You mean like the talking point that says that \"even the DFL voted against the Governor's tax plan?\"\n\nNo, this is on point. This exposes the \"compromises\" for what they are - capitulate to us. GOP leadership is making Tim Pawlenty look like a statesman. And that's REALLY scary.",
      "parentPostTime": "2011-07-01T16:58:09",
      "parentPostId": "240102500"
    },
    {
      "threadId": "282385922",
      "post": "What's funny is that the fiscal note for HF210 is that it includes costs that don't match up with any provisions in the legislation. When, exactly, did fiscal notes include money to be spent on things not in the legislation?\n\nIt's fine if special interests want to advocate for things in the legislation. It's another when the things they advocate for but don't get in the legislation is included in the fiscal note.",
      "time": "2011-04-19T13:46:05",
      "id": "187556438"
    },
    {
      "threadId": "278725309",
      "post": "Eric, I can't stop you from thinking I'm lying. The information, though, was emailed to me by an Aviation student. If you choose to not believe that, that's your decision.\n\nI won't lose a split-second of sleep over it, either. You're not worth worrying about.",
      "time": "2011-04-14T01:57:42",
      "id": "184135926"
    },
    {
      "threadId": "261443632",
      "post": "People being responsible is a positive thing. I'm just questioning the \r\nneed to teach a Masters Degree program in it. It shouldn't take a \r\nMasters Degree program to live by the Golden Rule.",
      "time": "2011-03-25T00:41:25",
      "id": "171353976",
      "parentPost": "Just what is it you and other conservatives don't like about people who are socially responsible? ",
      "parentPostTime": "2011-03-25T00:35:07",
      "parentPostId": "171351433"
    },
    {
      "threadId": "236266750",
      "post": "Greta, you aren't wrong. This year especially, the people spoke rather clearly that they want spending cut. President Obama essentially ignored the message sent in the election. The Obama administration & the Democrats in Congress should do a better job of listening.",
      "time": "2011-02-21T14:12:19",
      "id": "153381229"
    },
    {
      "threadId": "234139802",
      "post": "God bless Scott Walker for letting President Obama isn't emporor of Wisconsin.",
      "time": "2011-02-19T00:08:27",
      "id": "151899633",
      "parentPost": "States do have rights.  Obama has already tried to take away Arizona's rights.  Now he's trying to interfere with Wisconsin's rights.  He wants the rights of both people and their state governments under his complete control.  He deserved the shot!",
      "parentPostTime": "2011-02-18T23:33:42",
      "parentPostId": "151868955"
    },
    {
      "threadId": "215782412",
      "post": "Greta, Thanx for maintaining such a GR8 perspective. It's why I'm such a huge fan of your's.",
      "time": "2011-01-25T15:53:41",
      "id": "134331547"
    },
    {
      "threadId": "207255310",
      "post": "Shouldn't Lori Swanson be prosecuted in federal court for her union-busting practices? Oh, that's right. Holder doesn't prosecute fellow progressives.",
      "time": "2011-01-11T20:47:04",
      "id": "127754187"
    },
    {
      "threadId": "188451811",
      "post": "First, you're not wrong. That would make perfect sense. Then again, President Obama hasn't had a lengthy history of making wise decisions. He told America that he'd look forward to making the argument against tax cuts for America's job creators in an election year. That's plain foolish. He's fighting an uphill battle & then some. That's not too wise in my opinion.",
      "time": "2010-12-10T17:07:51",
      "id": "109974590"
    },
    {
      "threadId": "188383978",
      "post": "As a Republican, my dream ticket would be Mike Pence as the GOP presidential nominee & Tim Pawlenty as his running mate.",
      "time": "2010-12-10T15:06:22",
      "id": "109919825"
    },
    {
      "threadId": "185817382",
      "post": "Greta, I wrote in this post about how the federal government could trim $90 billion this year to pay for extending unemployment benefits:\r\n\r\nhttp://www.letfreedomringblog.com/?p=9144\r\n\r\nIf they trimmed this money, the average person in Wisconsin, Minnesota or Iowa wouldn't even noticee.",
      "time": "2010-12-06T17:09:25",
      "id": "107930841"
    },
    {
      "threadId": "182836513",
      "post": "It's a mistake to think that this is just a letter. It's a shot across Harry Reid's bow telling him that it's infinitely more important to get the essentials done first rather than working on legislation that pays off the Democrats' special interest allies. This letter is the vehicle that will either end the logjam or that will defeat the obstructionist Democratic majority in the Senate in 2012.\r\n\r\nThe problem, Greta, isn't the writing of letters. It's that the Democrats are too beholden to their special interest campaign funding groups. Until they change, this will continue to hinder them.",
      "time": "2010-12-01T16:18:33",
      "id": "105545792"
    },
    {
      "threadId": "171541931",
      "post": "The news media is corrupt because, all too often, they refuse to cover stories that negatively impact our lives or don't fit their narrative. Here in Minnesota, bloggers are the only people covering the voting scandal at the Crow Wing County Courthouse. Here's the link to my post on the scandal:\r\n\r\nhttp://www.letfreedomringblog.com/?p=9044\r\n\r\nIt's disgusting that citizen journalists have to be the ones that break stories of this import.",
      "time": "2010-11-12T18:56:19",
      "id": "96606703"
    },
    {
      "threadId": "170231934",
      "post": "How about the theory that Magnuson did his job properly but Ritchie & Coleman's legal team screwed things up? BINGO. We've got a winner.",
      "time": "2010-11-10T14:43:06",
      "id": "95899645"
    },
    {
      "threadId": "165029304",
      "post": "Keewatin Rose isn't paying attention to the polls. It's time you stopped trusting anecdotal evidence that's blown apart by the results of a poll by one of the best polling companies in the nation.\r\n\r\nI'll enjoy listening 2 Chip's victory speech.",
      "time": "2010-11-01T05:57:03",
      "id": "92512138"
    },
    {
      "threadId": "153751022",
      "post": "Greta, You're TOTALLY right. I'm starting an online newspaper here in Minnesota where I promise to actually read the bills so I can ask the newsmakers intelligent questions. That way, my readers will know that either the newsmaker has done their homework or they're just spinning things.\r\n\r\nWithout verifiable information, the decisions are erratic.",
      "time": "2010-10-09T16:01:51",
      "id": "85508654"
    },
    {
      "threadId": "153468438",
      "post": "You're being kind calling NOW dopes. Blithering idiots would've been my choice.",
      "time": "2010-10-08T22:43:39",
      "id": "85344693"
    },
    {
      "threadId": "149980783",
      "post": "Greta, Thanks for grilling Gloria Allred. As you pointed out, she outed her client. It seems to me that an attorney's first responsibility is to protect their client from legal jeopardy. She failed that basic tenet.\r\n\r\nYou're 1000 percent right in saying that the S.S. document helps Meg Whitman.",
      "time": "2010-10-02T02:54:17",
      "id": "83253554"
    },
    {
      "threadId": "143261225",
      "post": "Actually, the final budget agreement that was approved in the 1-day special session calls for a budget of $9.083 Bill. PERIOD. END OF DISCUSSION.",
      "time": "2010-09-17T17:23:20",
      "id": "78577633"
    },
    {
      "threadId": "139586834",
      "post": "Since money is fungible & \"can be used however a city sees fit - including sidewalk poetry\", it's merely a liberal shell game saying that LGA wasn't used for sidewalk poetry. There's no arguing that LGA is too often used on unimportant projects. That's the real crime in all this, something that Sen. Dayton doesn't want to reform, just increase funding for.\r\n\r\nHINT: WE'RE NOT ATMS!!! GET YOUR GRUBBY MITTS OUT OF OUR WALLETS!!!",
      "time": "2010-09-09T14:22:36",
      "id": "76352674"
    },
    {
      "threadId": "139262312",
      "post": "The speech was shrill, antagonistic, totally adversarial. For someone that keeps saying that he wants to work with Republicans, President Obama sure enjoys mischaracterizing GOP.",
      "time": "2010-09-08T19:19:28",
      "id": "76142246"
    },
    {
      "threadId": "138641479",
      "post": "The only political party that Charlie Crist works for is HIMSELF. He's changed his position so many times on Obamacare that he's tied himself in knots.",
      "time": "2010-09-07T14:10:01",
      "id": "75723229"
    },
    {
      "threadId": "137952922",
      "post": "Chilly's a flipping idiot if he thinks that TJack is a major league QB. He isn't accurate & he's almost alway late in getting time route passes off before the WR comes out of the break.\r\n\r\nOverall, Chilly's fine but with QB's, I'd rate him as a D-.",
      "time": "2010-09-05T22:55:40",
      "id": "75395421"
    },
    {
      "threadId": "135718439",
      "post": "The sampling might be off a bit numerically but not when viewed through the prism of turnout.\r\n\r\nThe notion that this poll is skewed because of how many young people were missed b/c of landline only is laughable. Anyone thinking that younger voters give a rat's patutie about Sen. Dayton is kidding themselves.",
      "time": "2010-08-31T17:22:34",
      "id": "73552873"
    },
    {
      "threadId": "135011875",
      "post": "Like Greta, I don't have a problem with President Obama taking vacation. I've got a problem with him taking multiple vacations. Most importantly, I've got a problem with his economic philosophy & his stubbornness in reviving the economy.\r\n\r\nVP Biden saying that things are getting better while housing starts drop & existing home sales plummet destroys their credibility. Except for his fringe base, people don't trust him on the economy. Repealing Obamacare, extending the Bush tax cuts & dropping Cap & Tax would work wonders in creating a growing economy.",
      "time": "2010-08-29T14:11:59",
      "id": "72964819"
    },
    {
      "threadId": "134114584",
      "post": "Not only might you be wrong but you're definitely wrong. Ridiculing a candidate while using a sense of humor not only won't backfire against the RPM, it'll remind people, in a humorous way, of Sen. Dayton's policies & Time Magazine's rating of him.\r\n\r\nHumor changes the dynamic dramatically.",
      "time": "2010-08-26T21:04:52",
      "id": "72472373"
    },
    {
      "threadId": "133132874",
      "post": "That ad is exceptionally effective. If that ad is indicative of the types of ads that Feingold will get hit with, he's history.",
      "time": "2010-08-24T19:48:04",
      "id": "71016407"
    },
    {
      "threadId": "130863929",
      "post": "How many times has he debated in front of an unfriendly audience? None...thus far\r\n\r\nHow many times has he backed out when he would be in front of an unfriendly audience? Zero...He's raising money, which all campaigns need...it isn't like this one debate proves anything. It isn't like there won't be a bunch more.",
      "time": "2010-08-18T16:13:36",
      "id": "69588546",
      "parentPost": "Emmer will stand his ground, will he? Show it. \n\nHow many times has he debated in front of an unfriendly audience? \nHow many times has he backed out when he would be in front of an unfriendly audience?\n\nI rest my case.",
      "parentPostTime": "2010-08-18T13:19:55",
      "parentPostId": "69553659"
    },
    {
      "threadId": "130379858",
      "post": "Start drilling. I've read too many times, including in former Sen. Dayton's statement, that there's hardly any oil in ANWR & that ANWR is a \"pristine wilderness\" & that drilling in ANWR would hurt ANWR's fragile ecosystem.\r\n\r\nThere ARE parts of ANWR that are scenic but Sect. 1002 isn't scenic, especially by Alaska's standards. It isn't scenic even by Iowa's standards. And as a great Cheesehead, Greta knows how UNscenic Iowa is.\r\n\r\nI have a friend that works for an oil company in Alaska. He's told me numerous times that the technology that they use makes environmental worries almost a thing of the past. Just ask yourself this question: Was the Exxon Valdez the last time or the ONLY time you've heard of an environmental disaster in Alaska?\r\n\r\nIf it was, it's worth noting that that disaster didn't happen IN Alaska.\r\n\r\nDrill, Baby, Drill.",
      "time": "2010-08-17T03:48:58",
      "id": "69256104"
    },
    {
      "threadId": "129063999",
      "post": "This is a desperate attempt on Boxer's behalf to keep the subject away from the economy & Sen. Boxer's environmental extremism. I'm betting that Sen. Boxer just cringes each time she thinks about the ads about the delta smelt & her fighting to keep the spigots off in central California.",
      "time": "2010-08-12T23:06:12",
      "id": "68273429"
    },
    {
      "threadId": "129052164",
      "post": "I like the pig oinking when the camera pans to the \"health care takeover.\" I think it's an effective ad.",
      "time": "2010-08-12T22:14:55",
      "id": "68266042"
    },
    {
      "threadId": "127173242",
      "post": "They're equally tone deaf. What's worse, they're insults to the people who pay for their trips or that need their leadership at a critical time.",
      "time": "2010-08-07T17:43:10",
      "id": "67028597"
    },
    {
      "threadId": "126359754",
      "post": "Greta, I'd like your opinion on the quality of Attorney General Cuccinelli's argument. In my way of thinking, he's essentially saying that declaing the individual mandate constitutional is like saying that living is an economic activity that the federal government can regulate through the ICC. What say you?",
      "time": "2010-08-05T16:06:03",
      "id": "66235684"
    },
    {
      "threadId": "126316205",
      "post": "This is a PCA- Political Cover Appropriation. It lets them go home & say they did something about border security without dramatically improving border security. They need ALOT MORE resources down there & a change in attitude.\r\n\r\nStill, it's better than nothing.",
      "time": "2010-08-05T14:17:52",
      "id": "66203778"
    },
    {
      "threadId": "120798681",
      "post": "The Constitution only says that the federal gov't sets naturalization policy, though I'd agree that they should set border policy, too, since that's truly international in scope.\r\n\r\nSB1070 is more of a law enforcement bill than an immigration bill. Every law enforcement unit in the U.S. has the right to enforce all laws, whether they're local, state or federal laws.",
      "time": "2010-07-22T16:07:46",
      "id": "63733159"
    },
    {
      "threadId": "48634363",
      "post": "Jazz, the OTHER CLOWN Ed's referring to is Al Franken, not Michele.",
      "time": "2009-11-30T03:16:32",
      "id": "24313589"
    },
    {
      "threadId": "41111267",
      "post": "Actually, you're wrong. I attended the Promise Keepers rally. It didn't look anything like that. Nice try.",
      "time": "2009-10-23T16:09:42",
      "id": "20864281",
      "parentPost": "That wasn't the Tea Party in the photographs.  It was a miscaptioned photo of the Promise Keepers rally in 1997.  Actually photographs of the Tea Party as it happened showed a crowd of approximately 50-70,000.\r\n\r\nSorry.\r\n\r\n\r\nAnd oh - the Tea Partiers left a *mess* behind them - signs thrown on the ground, trash, food, water bottles, and overflowing trash cans.  Quite disgusting.\r\n\r\n",
      "parentPostTime": "2009-10-23T15:54:45",
      "parentPostId": "20863415"
    },
    {
      "threadId": "29573467",
      "post": "\"Once again, the incompetence of the Obama administration is remarkable.\"\r\n\r\nI've been writing about this administration's incompetence since Tim Geithner went to Wall St. to give a detailed report on TARP policy, then only talked in platitudes. You remember that, don't you? It's the day the stock market dropped almost 500 points.\r\n\r\nFrankly, I haven't seen much in terms of proof in terms of competence on this administration's behalf. Don't you get the impression that President Obama can't explain in detail what's in play in the health care bill? I'd rather trust King Banaian's analysis of H.R. 3200 than this administration's analysis.",
      "time": "2009-08-14T02:26:17",
      "id": "14818016"
    },
    {
      "threadId": "28695962",
      "post": "I think we're both right. You're right that she's the gift that keeps giving but I'm right in saying we only want her there until Election Day, 2010.\r\n\r\nThe more I watch the townhall videos & the more I hear President Obama essentially tell the American people to shut up & the more I hear the Arlen Specters & John Conyers of the world say that they can't be bothered with reading the legislation that they vote on, the more I'm noticing the American people get PO'ed.\r\n\r\nThis might be a VERY UGLY ELECTION CYCLE for dem Dems.",
      "time": "2009-08-08T02:43:18",
      "id": "14463134",
      "parentPost": "Are you kidding?  We want Pelosi in there.  She's the gift that keeps on giving",
      "parentPostTime": "2009-08-07T23:13:05",
      "parentPostId": "14456663"
    },
    {
      "threadId": "28601440",
      "post": "I wrote here about Tim Walz's attempt at doublespeak:\r\n\r\nhttp://www.letfreedomringblog.com/?p=5347\r\n\r\nWalz says that any energy policy must include coal & nuclear power AFTER voting for Cap & Trade, which Sen. Obama said would bankrupt new coal power plants.",
      "time": "2009-08-07T14:52:23",
      "id": "14432627"
    },
    {
      "threadId": "28335034",
      "post": "I used this post to highlight the foolish fights that this administration is picking:\r\n\r\nhttp://www.letfreedomringblog.com/?p=5333\r\n\r\nThe old cliche that \"It's NEVER wise to pick fights with people that buy ink by the barrel\" seems to fit Ms. Douglass's diatribe yesterday.",
      "time": "2009-08-05T14:33:58",
      "id": "13978586"
    },
    {
      "threadId": "28104344",
      "post": "I've often thought the connection between voting against Sotomayor's confirmation & losing the Hispanic vote was tenuous at best.\r\n\r\nIn 2004, President Bush won 40+ percent of the hispanic vote by appealing to the fact that many Hispanics are people of faith, with many Catholics & evangelical Christians. President Bush's game plan was to appeal to these voters with socially conservative messages.\r\n\r\nThe key to appealing to Hispanic voters, IMO, is in identifying what their animation factor is, not in dealing with stereotypes.",
      "time": "2009-08-03T23:45:26",
      "id": "13856008"
    },
    {
      "threadId": "27430927",
      "post": "\"Most Americans obviously don't share the administration's \"never let a crisis go to waste\" philosophy.\"\r\n\r\nI agree, John. I'm betting that they're fairly repulsed by that slogan. Honestly, I think people are mostly just yearning for solutions-oriented legislation that leaves their wallets intact. They've figured it out that \"Never let a good crisis go to waste\" is just code for \"Let's spend fistfuls of money.\"",
      "time": "2009-07-30T03:25:20",
      "id": "13610455"
    },
    {
      "threadId": "27405714",
      "post": "My question for Rep. Peterson is quite simple: Are you sure you aren't holding townhalls because you don't want to deal with nuts or is it because you're just not that interested in your CD-7 constituents?\r\n\r\nI have other questions for Rep. Peterson in this post:\r\n\r\nhttp://www.letfreedomringblog.com/?p=5279",
      "time": "2009-07-29T16:18:29",
      "id": "13540717",
      "parentPost": "Amen. I'm having a hard time figuring out why this issue re-emerged, but it was stupid last summer... and it's extra stupid now. \r\n\r\nPlease tell me these morons have a better answer than \"then show the certificate.\" ... really? And never mind the fact that they already have... several times... \r\n\r\nBirthers, truthers and tin-foil-hat wearing losers that grip to the notion that George Bush didn't complete his service in the Texas National Guard have everything in common, but nothing more than this simple fact --  no hard evidence whatsoever exists anywhere to support any of these claims. \r\n\r\nI agree with John... conservatives are better than this... though, part of me supposes that these people are Ron Paul supporters more than they are conservatives. ",
      "parentPostTime": "2009-07-29T13:52:30",
      "parentPostId": "13532553"
    },
    {
      "threadId": "27199926",
      "post": "There's no such thing as a Blue Dog Democrat. When Queen Nancy says jump, they ask how high. The more accurate name for these wimps is Blue Puppy Democrats because they don't have the bite of a real dog.",
      "time": "2009-07-28T03:06:34",
      "id": "13431105",
      "parentPost": "The most distrubing part of the \"health care reform\" bill currently before Congress (HR 3200) is the little discussed creation of a \"Commissioner of Health Choices.\" This un-named, unaccountable, political post has the soul responsibility of determing which Americans are allowed to acces to the public plan, and which are not. \r\n\r\nThe CBO released another deceptive report today. I say deceptive, because the CBO takes the confounding view that the Commissioner will choose to limit public access to the public plan, despite the fact that opening it up to everyone is the only way the legislation wills save money for anyone.... though even those savings come on the backs of hospitals and doctors who will receive 32 percent less for services than they get now. \r\n\r\nFact is, 88 million people will be ejected from the health coverage they like now and be foisted into puplic dependency if the Democrats get their way. \r\n\r\nTeddy Roosevelt said \"diplomacy is the art of saying nice doggy while carrying a stick.\" Democrats are swing a 2x4 at our heads and promising they won't hit us -- to hell with the nice doggy bit.l \r\n\r\nIn true Democrats style, they won't acknowledge their scheme... they're creating a political vacancy for some hack who can do the dirty work for them. Trouble is, why is the \"Commissioner of Health Choices\" -- another Orwellian name -- the least talkeda bout provision of this idiot bill? \r\n\r\nTransperancy? What transparency? \r\n\r\nSmartMoney has the part of the story today: http://www.smartmoney.com/news/on/?story=ON-20090727-000583-1656&print=1",
      "parentPostTime": "2009-07-28T02:33:02",
      "parentPostId": "13430204"
    },
    {
      "threadId": "26747168",
      "post": "I'll disagree with that. I think he isn't like any other buffoon in Senate history. What's amusing is that he thinks he's saving the Republican Party.\r\n\r\nI write here how wrong he is:\r\n\r\nhttp://www.letfreedomringblog.com/?p=5255",
      "time": "2009-07-25T17:38:45",
      "id": "13315571",
      "parentPost": "I think he's more accurately the Joe Biden of the South.  A complete jerk.",
      "parentPostTime": "2009-07-24T16:27:38",
      "parentPostId": "13277035"
    },
    {
      "threadId": "26888080",
      "post": "Romney is dead in the water because of health care. Whether Romney admits that signing the bill was a mistake or not, the facts are the facts. At minimum, Gov. Romney gave political cover to Democrats for a disaster of a bill. He shouldn't have tried improving it. He should've let the Democrats override his veto. That way, they would've owned it.\r\n\r\nTim Pawlenty & Sarah Palin are both more compelling candidates. TPaw is easily underestimated but he's a very smart man. Sarah Palin is still a compelling figure. Her resignation isn't more than a speed bump with most activists.",
      "time": "2009-07-25T17:31:36",
      "id": "13315422",
      "parentPost": "Oh God NO! Not Romney..he's created a healthcare disaster in micro that Obama is trying to do macro. If he's the candidate, we can expect to get beat down again as we did with McCain. Romney is NO conservative, he should stay in the basket case which is Massachusetts.",
      "parentPostTime": "2009-07-25T05:17:55",
      "parentPostId": "13304891"
    },
    {
      "threadId": "26192516",
      "post": "After reading a report on Vice President Biden's visit to St. Cloud, I'd recommend that we be included in the <a href='http://www.letfreedomringblog.com/?p=5203'>less-than-stimulated</a> category. The shovel-ready jobs that should've been started in April still haven't been bid on. The money that was supposed to be appropriated for the hybrid buses that New Flyer was supposed to build is still tied up in federal red tape. What a bunch of bunglers.",
      "time": "2009-07-20T15:56:43",
      "id": "12959594"
    },
    {
      "threadId": "25232734",
      "post": "I wrote <b><a href='http://www.letfreedomringblog.com/?p=5156'>here</a></b> that this is part of the hardline left's tactics. Smear anyone who's even tangentially tied to the confirmation of a liberal judge. I said then what I'll say now: Frank Ricci's past doesn't have a thing to do with whether Judge Sotomayor botched this ruling. ZERO ZIP NADA. Judge Sotomayor got that ruling badly wrong because her thought process didn't include figuring out whether there was proof of discrimination. ",
      "time": "2009-07-13T13:23:50",
      "id": "12575307"
    },
    {
      "threadId": "24747307",
      "post": "<a href='http://www.letfreedomringblog.com/?p=5126'>This polling</a> suggests that President Obama's slipping poll ratings will have a definite impact on next year's midterms.",
      "time": "2009-07-09T14:09:22",
      "id": "12380905",
      "parentPost": "Mr. Mirengoff,\r\n\r\nMight I suggest 3 Reasons for the nosedive in Obama's Ratings\r\n\r\n(1) there are countless scandals, mostly lightly treated (screwing bondholders, payoffs to union thugs, sucking up to dictators) that has made supporting Obama untenable, (2) he can't take the heat even though Paul M. gives him less heat than he gives Sarah Palin , or (3) the public has concluded that Obama has far less qualification to be President, on reflection, than Sarah Palin, though Paul M. rarely comments on Obama's lack of credentials for much except community organizing.",
      "parentPostTime": "2009-07-09T11:18:06",
      "parentPostId": "12373337"
    },
    {
      "threadId": "24660001",
      "post": "I wrote here that the National Energy Tax isn't about saving the planet but that it's simply a tax increase masquerading as environmental policy:\r\n\r\nhttp://www.letfreedomringblog.com/?p=4325\r\n\r\nAnyone who talks about Waxman-Markey as energy or environmental policy should be mercilessly ridiculed.",
      "time": "2009-07-08T16:05:33",
      "id": "12316023"
    },
    {
      "threadId": "23802810",
      "post": "It's time that the Democrats admitted that they're forcing people to choose between a system that puts a high priority on universal coverage & cheap prices vs. a system that puts a high priority on good accessability & exceptional quality. Follow this link to read what's really at stake:\r\n\r\nhttp://www.letfreedomringblog.com/?p=5049",
      "time": "2009-07-01T18:59:46",
      "id": "11991371"
    },
    {
      "threadId": "23454588",
      "post": "What Is the EPA Hiding is the name of my post regarding this incident. It's apparent that this was a case where the EPA reached a 'verdict', then went searching for proof that their verdict was correct. Here's the link to my post:\r\n\r\nhttp://www.letfreedomringblog.com/?p=5056",
      "time": "2009-06-29T15:44:36",
      "id": "11887756"
    },
    {
      "threadId": "23360658",
      "post": "I wrote about the bill here:\r\n\r\nhttp://www.letfreedomringblog.com/?p=5038\r\n\r\nSimply put, it's a tax increase masquerading as environmental or energy policy. It's neither.\r\n\r\nDuring Easter week, Michele Bachmann had Chris Horner to the SCSU campus to talk about the Democrats' National Energy Tax. Here's something that people need to know:\r\n\r\nDespite disagreeing with him “100 percent, politically,” Weisman said he agreed with Horner that the Obama administration’s cap-and-trade program likely won’t do anything to effect climate change. “Like the Kyoto treaty, it won’t bring down global warming,” Weisman said. “You’d need something more like a 40 percent cut in emissions (to do that).”\r\n\r\nHere's the link to that post:\r\n\r\nhttp://www.letfreedomringblog.com/?p=4325",
      "time": "2009-06-28T18:34:37",
      "id": "11858890"
    },
    {
      "threadId": "23073665",
      "post": "I've done a number of interviews with newsmakers working on health care reform. Here's the link to my interview with Paul Ryan:\r\n\r\nhttp://www.letfreedomringblog.com/?p=4890\r\n\r\nHere's the link to my interview with Rep. Charles Boustany, formerly known as Dr. Charles Boustany, heart surgeon:\r\n\r\nhttp://www.letfreedomringblog.com/?p=4983\r\n\r\nThis morning, King Banaian & I will be interviewing an administrator at the St. Cloud Hospital about health care reform & also to ask him about the effects Gov. Pawlenty's unallotments might have on hospital jobs. Be sure to check out www.SCSUScholars.com & www.letfreedomringblog.com later Monday for our posts on that interview.\r\n\r\nGary Gross",
      "time": "2009-06-26T11:08:24",
      "id": "11769793"
    },
    {
      "threadId": "20922391",
      "post": "I said in this post that the economic news is hurting Obama's JA rating, though it isn't hurting his personal approval rating:\r\n\r\nhttp://www.letfreedomringblog.com/?p=4867\r\n\r\nI'm also thinking that a further erosion of his ratings on the economy might spell trouble for Democrats in 2010.",
      "time": "2009-06-09T09:04:45",
      "id": "10645482"
    },
    {
      "threadId": "20847694",
      "post": "I've said for well over a year that the thing Republicans need to understand is that Democrats have painted a bright red bullseye on EVERY REPUBLICAN ELECTED OFFICIAL'S BACK. It's time that we forgot the niceties because the stakes are too high. PERIOD.<br><br>This isn't about statesmanship. It's about bare-knuckled bar room brawling. Statesmanship is overrated anyway. When has statesmanship gotten us anything in the last decade?\n\nGary Gross",
      "time": "2009-06-08T15:43:50",
      "id": "10615842"
    },
    {
      "threadId": "20761342",
      "post": "A month ago, I wrote an editorial in the St. Cloud Times criticizing the DFL for trying to raise taxes. I cited a quote from Tom Bakk where he said that Minnesotans would drive into Wisconsin to avoid paying the increased alcohol taxes. I then asked this question: Why wouldn't businesses move to Sioux Falls to save thousands of dollars in increased income taxes? The liberals on the Times' Story Chat said that that wouldn't happen, that Minnesota's quality of life was too good, that Minnesota's education system would keep them here. South Dakota has a pretty good education system. Also, South Dakota has the friendliest tax climate in the nation; Minnesota ranks next to last.\n\nGary Gross",
      "time": "2009-06-07T21:25:15",
      "id": "10595591"
    },
    {
      "threadId": "19201504",
      "post": "I write here that the DFL's \"Shaved Truth Tour\" isn't playing well:\r\n\r\nhttp://www.letfreedomringblog.com/?p=4716\r\n\r\nThe DFL leadership might've done better if they'd actually sent TPaw a balanced budget but they didn't. I've written extensively about the budget process & how the DFL couldn't even keep its own house in order.",
      "time": "2009-05-24T20:14:59",
      "id": "9860795"
    },
    {
      "threadId": "211612",
      "post": "I said <b><a target=\"_blank\" href='http://www.letfreedomringblog.com/?p=2469'>here</a></b> that McCain's advantage for the time being is that he gets to paint Obama as unready to be Commander-in-Chief. He'll also be able to run a substance vs. style campaign. Hillary's tried talking about how ready she'd be \"on Day One\" to gain the advantage over Obama. John McCain can <b></i>show</b></i> how he's ready on Day One to his advantage over Obama.",
      "time": "2008-02-20T14:28:15",
      "id": "163100"
    },
    {
      "threadId": "211417",
      "post": "OOPS!!!   <b><a target=\"_blank\" href='http://www.letfreedomringblog.com/?p=2469'>HERE</b></a>",
      "time": "2008-02-20T13:34:24",
      "id": "162932",
      "parentPost": "As I said <b<a target=\"_blank\" href='http://www.letfreedomringblog.com/?p=2469'>>here</a></b>, it's difficult seeing Team Clinton just walking off the field. ",
      "parentPostTime": "2008-02-20T13:32:32",
      "parentPostId": "162927"
    },
    {
      "threadId": "202451",
      "post": "Gov. Pawlenty showed his political skill at his State of the State Address here in St. Cloud, which <b><a target=\"_blank\" href='http://www.letfreedomringblog.com/?p=2446'>I was fortunate enough to attend</a></b>. \r\n\r\nWhen the DFL leadership walked into the event, they were calm & cordial. By the time Gov. Pawlenty finished boxing them in on taxes, their body language had completely changed. His line that the Minnesota tax code was setup perfect for \"a 1960's economy & demographic\" hit Democrats right between the eyes. ",
      "time": "2008-02-18T14:52:05",
      "id": "157476"
    },
    {
      "threadId": "196190",
      "post": "As I said <b><a target=\"_blank\" href='http://www.letfreedomringblog.com/?p=2452'>here</a></b>, it's time to take our frustrations out on irresponsible liberals next November. \r\n\r\nIf conservatives stay home in November to \"teach them a lesson\", I will do everything in my power to embarass each one of them. Staying home last year meant Nancy Pelosi in charge of setting national security policy. That's unacceptable. ",
      "time": "2008-02-15T14:36:23",
      "id": "151804"
    },
    {
      "threadId": "180211",
      "post": "Oops. Here's the link: \r\n\r\nhttp://www.letfreedomringblog.com/?p=2439",
      "time": "2008-02-09T16:22:23",
      "id": "136781",
      "parentPost": "If you think that guy's bad, check out <b><a target=\"_blank\" href-'http://www.letfreedomringblog.com/?p=2439'>this Huckabee Campaign memo's</a></b> rantings. I guess everyone's entitled to their delusions. ",
      "parentPostTime": "2008-02-09T16:19:17",
      "parentPostId": "136775"
    },
    {
      "threadId": "171713",
      "post": "Follow <b><a target=\"_blank\" href='http://www.letfreedomringblog.com/?p=2431'>this link</a></b> to read my tribute to Reagan.",
      "time": "2008-02-06T18:22:43",
      "id": "129685"
    },
    {
      "threadId": "163109",
      "post": "<b><a target=\"_blank\" href='http://www.letfreedomringblog.com/?p=2424'>The greatest Super Bowl of all time</a></b>",
      "time": "2008-02-04T05:07:08",
      "id": "122757",
      "parentPost": "Manning fires to Burress.  I'm not seeng any signs of the superbowl rookie choking. Nice first down.",
      "parentPostTime": "2008-02-03T23:33:35",
      "parentPostId": "122366"
    },
    {
      "threadId": "152539",
      "post": "<b><a target=\"_blank\" href='http://www.letfreedomringblog.com/?p=2421'>Three cheers for John McCain</a></b>. Seriously, John McCain's use of \"I've been around forever. Everyone knows my record\" as an answer instead of answering sticky questions straight on isn't flatter. \r\n\r\nDoes anyone <b><i>really think</b></i> that John McCain will appoint justices that will gut his 'greatest' legislative accomplishment? ",
      "time": "2008-01-31T16:25:04",
      "id": "114613"
    },
    {
      "threadId": "147831",
      "post": "If the choice is between McCain & Huckabee, then I don't have a problem with a brokered convention with Fred, Rudy or Mitt having a shot. In fact, I'd say that's preferable.",
      "time": "2008-01-29T16:00:42",
      "id": "109218"
    },
    {
      "threadId": "143395",
      "post": "Here in Minnesota, <b><a target=\"_blank\" href='http://www.letfreedomringblog.com/?p=2361'>the DFL will attempt to make \"affordable health care\" a constitutional right</a></b>. \r\n\r\nThe Minnesota House GOP caucus has a cliche about single-payer: \r\n\r\nIf you think that health insurance is expensive now, wait until it's free. \r\n\r\nHere's <a target=\"_blank\" href='http://www.letfreedomringblog.com/?p=2365'>another post</a></b> I wrote about this singlepayer plan.",
      "time": "2008-01-27T17:42:06",
      "id": "104669",
      "parentPost": "With respect Captain Ed, there is private health care insurance in Canada. It is supplemental to, and above the free public health care. I've got 2 additional forms of health coverage; from my work and privately purchased. This allows me a certain degree of flexibikkity in treatment and complete coverage should I require it when abroad (in the US for instance).\r\n\r\nNo, not everyone has this coverage, just as every citizen in the US is not covered under a health plan,\r\n\r\nTom\r\n\r\n",
      "parentPostTime": "2008-01-27T15:12:59",
      "parentPostId": "104443"
    },
    {
      "threadId": "135285",
      "post": "Actually, I researched this organization when they attacked Michele Bachmann. Jeremy Funk, AUFC's Press Secretary, is a former Daschle staffer. I thought I'd posted this information on <b><a target=\"_blank\" href='http://www.letfreedomringblog.com/'>Let Freedom Ring Blog</a></b> but I can't find it.",
      "time": "2008-01-24T16:32:40",
      "id": "98681"
    },
    {
      "threadId": "132938",
      "post": "Ed, welcome to recognizing that this isn't a change election. As I wrote <b><a target=\"_blank\" href='http://www.letfreedomringblog.com/?p=2342'>here</a></b>, this is a credibility election. You're just <b><i>a few weeks behind</b></i> so no big deal. ",
      "time": "2008-01-23T16:39:45",
      "id": "96107",
      "parentPost": "Seems like it was about a week BEFORE Iowa when all you saw were calls for people to start dropping out of the races.\r\n\r\nI guess when JFKerry got anointed so early that one time, it has to be the new way of doing things.\r\n\r\nIf experience counted for anything Biden should have kicked both their butts off the stage, but he was just filler for the field, same for Dodd.\r\n\r\nPolitical stage shows are all we are seeing, no more no less.",
      "parentPostTime": "2008-01-23T13:09:44",
      "parentPostId": "95574"
    },
    {
      "threadId": "133218",
      "post": "<b>A visit to CPAC could go a long way towards mending fences and doing some listening.</b>\r\n\r\nNot if he attends, then insists that McCain-Kennedy wasn't amnesty. Not if he insists that McCain-Feingold isn't a massive assault on the First Amendment. Not if he insists that voting against the Bush tax cuts was the right thing to do. ",
      "time": "2008-01-23T16:32:53",
      "id": "96080"
    },
    {
      "threadId": "126803",
      "post": "Tell me what difference there is between McCain & Hillary besides national security? They're both opposed to the First Amendment. Both have thin skins when they're questioned. Neither give a damn about about the truth. If McCain cared about the truth, he wouildn't keep telling us the Grand Bargain was an enforcement first bill. The Swimmer wouldn't negotiate unless La Raza was at the table. They're open borders advocates. \r\n\r\nIf he isn't serious about border enforcement, then I won't trust McCain's national security credentials. ",
      "time": "2008-01-20T21:01:11",
      "id": "89090",
      "parentPost": "The first amendment forgotten??? This is why McCain is winning,  because they are sick of the melodramatic over heated rhetoric. Bush signed that bill, Thompson supported it. Obviously they did not equate it with sending people off to the gulag. Get a grip.\r\n\r\nAnd McCain is not redefining anything. He is more like the Republicans of the Ford/Baker school than he is like the NRO tantrum throwers, but he is not ruining the party. The people who are a threat to the party are the ones who are threatening to sit home {again} and let the Democrats win because their personal fav did not win. That is not party loyalty, it is in fact juvenile.",
      "parentPostTime": "2008-01-20T20:44:35",
      "parentPostId": "89057"
    }
  ],
  "profileInfo": {
    "username": "LFR_Gary",
    "about": "",
    "name": "Gary_Gross",
    "disable3rdPartyTrackers": false,
    "isPowerContributor": false,
    "isAnonymous": false,
    "rep": 1.298293,
    "profileUrl": "https://disqus.com/by/LFR_Gary/",
    "url": "http://www.letfreedomringblog.com",
    "reputation": 1.298293,
    "location": "St. Cloud, MN",
    "isPrivate": false,
    "signedUrl": "http://disq.us/?url=http%3A%2F%2Fwww.letfreedomringblog.com&key=qzHcBPZ_1xKBFEBI5JmdLg",
    "isPrimary": true,
    "joinedAt": "2007-12-15T06:38:35",
    "id": "4255",
    "avatar": {
      "small": {
        "permalink": "https://disqus.com/api/users/avatars/LFR_Gary.jpg",
        "cache": "//a.disquscdn.com/uploads/users/4255/avatar32.jpg?1370522505"
      },
      "isCustom": true,
      "permalink": "https://disqus.com/api/users/avatars/LFR_Gary.jpg",
      "cache": "//a.disquscdn.com/uploads/users/4255/avatar92.jpg?1370522505",
      "large": {
        "permalink": "https://disqus.com/api/users/avatars/LFR_Gary.jpg",
        "cache": "//a.disquscdn.com/uploads/users/4255/avatar92.jpg?1370522505"
      }
    }
  }
}