{
  "comments": [
    {
      "threadId": "4153087207",
      "post": "But admittedly, I thought from the offset that Pete was the murderer, & that's apparently too obvious, so...",
      "time": "2015-09-23T13:06:31",
      "id": "2268979434",
      "parentPost": "Umm...you think??? It WAS kinda spelled out. \n",
      "parentPostTime": "2015-09-23T13:02:54",
      "parentPostId": "2268974397"
    },
    {
      "threadId": "3419510126",
      "post": "Oh god - everything! But mostly that dress Kendall wears, with the black mesh/fishnet inserts; the dresses with the lace; the golden bustier; the boots and bags - but not the shorts.",
      "time": "2015-02-23T12:29:26",
      "id": "1870567029"
    },
    {
      "threadId": "3515364075",
      "post": "Agreed - some hair colours need really pale complexions, or conversely, tan ones, to look their best. My site is up and running - trashtastika.com. But I've only just started writing regularly, setting up social media links yadda yadda. I do need to have a launch giveaway comp like yourself, I think! \nAdded you on bloglovin so I can keep up with the new posts :)",
      "time": "2015-02-23T12:11:43",
      "id": "1870550494",
      "parentPost": "THANK YOU!! I absolutely love mint hair too (though I don't think it'll suit my complexion). Do let me know when it's launched, ill stop by :) xxx",
      "parentPostTime": "2015-02-23T12:02:05",
      "parentPostId": "1870542284"
    },
    {
      "threadId": "3400366315",
      "post": "I totally know what you mean, and you express it well - I remember back in the 90's when I first went an unnatural colour, how it felt, coming home to myself. I also remember when I first knew you and I had screaming coloured hair (blue or purple, can't remember), and you had normal hair and said you were scared you'd ruin your hair if you bleached it. SO glad you made the jump! Many others have in the past few years, I'm glad to see, not just goths and other fringe weirdo's like myself!!",
      "time": "2015-02-23T11:54:48",
      "id": "1870534827"
    },
    {
      "threadId": "3266053388",
      "post": "We loved this store when we were there too - but I didn't know it had its own spin off series! We also got to meet Mike Zohn this time around when we were in New York - boy, that man knows a LOT of stuff! And yeah, we had to buy a little bat in acrylic to take home(which held us up in Sydney customs a while...)",
      "time": "2014-11-28T23:48:27",
      "id": "1717202154"
    },
    {
      "threadId": "3060882683",
      "post": "Yeah, found J-town a bit of a yawn. But loved all the Taxidermy/Oddities shops like Loved to Death, and like you, the only store in Haight district I liked was the steampunk/cyber/goth shop. I have to say I've become OBSESSED with the post-apocalyptic fashion of labels such as Demobaza, SkinGraft, Mother of London and Gelareh, which Ceiba SF stocks.(I even started a pinterest board http://www.pinterest.com/trashtastika/dystopianpost-apocalyptic-fashion/)  \n\nWe LOVED the cebicheria La Mar - best cerviche evar!! So thanks for that recommendation :)",
      "time": "2014-09-29T00:39:31",
      "id": "1610164435"
    },
    {
      "threadId": "2870494614",
      "post": "We went to the 80's night on Thursday night at the Cat Club - dark alt music was on at the back, as well as Dark Shadows on the Friday night. Both really fun!!",
      "time": "2014-07-25T01:40:50",
      "id": "1502599944"
    },
    {
      "threadId": "2798482613",
      "post": "So many things to try!! i LOVE ceviche, and seafood generally!",
      "time": "2014-06-29T18:07:56",
      "id": "1460508704"
    },
    {
      "threadId": "2689193578",
      "post": "Hey! I'm heading to San Fran for the first time in July! I must keep an eye on the tips people give you on alt places to see/go. Hoping to stay in the Lower Haight which is supposed to be the punk/alternative neighbourhood there :)",
      "time": "2014-05-23T04:43:00",
      "id": "1400468706"
    },
    {
      "threadId": "2642936881",
      "post": "GREAT photography!!! Can't wait to get back there...maybe late this year??",
      "time": "2014-04-27T17:55:21",
      "id": "1357919267"
    },
    {
      "threadId": "1724041608",
      "post": "I do so love the jumping shot!",
      "time": "2013-09-09T15:14:26",
      "id": "1035467492"
    },
    {
      "threadId": "1297278329",
      "post": "I LOVED the outfits I saw when I attended the event before this one (I was there last November) - but I was too chicken to ask people if I could take their photos! Next time... I'm just in awe at how wonderfully the alt fashionistas make each sub-culture their own :)",
      "time": "2013-05-19T04:55:00",
      "id": "901728969"
    },
    {
      "threadId": "1150600161",
      "post": "Yeah, that was shocking, wasn't it? It was one of those brands you thought would go on forever. But it seems that many of his other brands remain intact - h.Naoto, Sixh, Anarchy, Blood, Hangry & Angry, Gouk, Gramm, Ibi etc, so that's something ;)",
      "time": "2013-03-22T03:38:22",
      "id": "837990077"
    },
    {
      "threadId": "1127741999",
      "post": "Loving the hair, dress and jacket!! Great shots :)",
      "time": "2013-03-13T11:40:56",
      "id": "827848148"
    },
    {
      "threadId": "1087390370",
      "post": "I never thought you'd do pink ;) But it looks lovely on you :)\n\nI've had many colour combo's over the years, starting with blonde and bright red and then from 2003 the more alternative colours such as blue, purple, green, orange, & even fluoro yellow recently (but only my shaved side bit!)  At the moment I have more of my natural dark hair than I've had in years...I think it's good every few years to take a break and let the bleach grow out. As for fashion I\"ve tried...don't get me started!",
      "time": "2013-03-05T17:46:42",
      "id": "820160473"
    },
    {
      "threadId": "1065364601",
      "post": "Love both looks - very doll like indeed! Looks like you've got a few more colours to try out to - how about the blue ones sometime?",
      "time": "2013-02-05T13:50:30",
      "id": "789204798"
    },
    {
      "threadId": "1028282304",
      "post": "LOVE both yours n John's hair! And heh, looks like they got you into circle lenses, or at least colored ones, for the cover shoot :) I think you didn't used to like them much, but they SO suit you!\n",
      "time": "2013-01-31T03:30:15",
      "id": "784071512"
    },
    {
      "threadId": "1052204577",
      "post": "Oh and I LOVE Oddities (my house has quite a few spooky dead things in it) Congrats on getting involved in this unique show:)",
      "time": "2013-01-31T03:25:03",
      "id": "784066778"
    },
    {
      "threadId": "915605262",
      "post": "Aww, gorgeous doggies and I'm glad they've found a home with you :) Cavi's are so lovely natured and soppy, aren't they?",
      "time": "2012-11-10T06:10:46",
      "id": "706792485"
    },
    {
      "threadId": "919749299",
      "post": "LOVE this outfit! Love all the colour (hair included) and adore the little doggie on your shirt! Yep, I do wear leggings just at home, but when out, there has to be a skirt or long shirt covering the crotch area ;)",
      "time": "2012-11-10T06:07:33",
      "id": "706791597"
    },
    {
      "threadId": "877303203",
      "post": "Even when I was there the year before, they were demolishing Tacheles. I have videos of the bulldozing, as Dom was more interested in that than the art 0_o",
      "time": "2012-10-10T04:04:23",
      "id": "677998048"
    },
    {
      "threadId": "862277129",
      "post": "Still loving the hair :)  It'd be great the content of some of these panels sometime...if you ever get hold of a recording of one, do post it! ",
      "time": "2012-09-29T04:26:02",
      "id": "666045374"
    },
    {
      "threadId": "849870443",
      "post": "It's so lovely, and elegant, and colourful :) I hate those overly minimalist fashion blogs in stark black & white. And i LOVE that uber picture of Yukiro..love the hair colours and it's just like Luna Park or something :)",
      "time": "2012-09-20T15:19:52",
      "id": "656701850"
    },
    {
      "threadId": "763279948",
      "post": "Lovin your hair...and that green dress with the embroidered/jewelled bodice :)",
      "time": "2012-07-13T12:17:04",
      "id": "586822491"
    },
    {
      "threadId": "752817895",
      "post": "There was a flyer last year with all the goth things going on in Pargue..but alas, there was just no time! It looks fab...especially the clock/steampunky club :) ",
      "time": "2012-07-09T15:45:12",
      "id": "582233700"
    },
    {
      "threadId": "733013959",
      "post": "I do love the blue lipstick on you. Not many of us wear it!! ",
      "time": "2012-07-09T14:52:39",
      "id": "582191775"
    },
    {
      "threadId": "735749845",
      "post": "Oh that brought back so many memories from the last WGT when I was there in 2011 :) ",
      "time": "2012-07-09T14:50:27",
      "id": "582190182"
    },
    {
      "threadId": "531388160",
      "post": "Boy, do I relate to that!! I haven't lived in as many places as you by any means, though I've seen a lot of SE Asia. Hey, if ever we got time off at the same time, I'd love to travel with ya! I tend to only go for one week to 3 weeks as my work can't really do without me longer. It's nice now I'm older and have a well paying job, as I can travel more than when  was young & penniless! But I don't have the same amount of time - I used to live inI ndia for 3 months at a time!",
      "time": "2012-01-08T19:07:21",
      "id": "405344475"
    },
    {
      "threadId": "483357539",
      "post": "I agree - your doggy is SOOOO cute!! And I think you've done pretty well with the space you've got, storage wise :)",
      "time": "2011-11-28T15:21:40",
      "id": "374211830"
    },
    {
      "threadId": "485842191",
      "post": "hehe, love the bone hairclip - I wear my two a heck of a lot as well! Lucky you to have a pool, too!",
      "time": "2011-11-28T15:19:02",
      "id": "374210403"
    },
    {
      "threadId": "417344531",
      "post": "Can't wait for their gig at the Sando this Sat!",
      "time": "2011-09-22T17:28:06",
      "id": "317566051"
    },
    {
      "threadId": "384672693",
      "post": "I saw bands and went to bars in Hongdae, rather than clubs (as I like indie and alternative music). Much fun! I really loved the Hongdae nightlife and look forward to going back for sure :)",
      "time": "2011-09-18T16:29:53",
      "id": "314416924"
    },
    {
      "threadId": "277952064",
      "post": "Wow! I'm so envious! I love Luisa Viaroma, and bought my DSquared skeleton heel shoes from them. Would love to attend a blogger event like that...but am in Germany for the huge WGT Gothic Festival at exactly the same time!",
      "time": "2011-04-14T03:24:52",
      "id": "184168790"
    },
    {
      "threadId": "278864915",
      "post": "..and of course I liked the Roam TV page, and can't wait to see the Punk Bar footage from the Golden Gai, as well as Tokyo Dacadance :)  (Maybe I'll be in the background somewhere?)",
      "time": "2011-04-14T02:43:18",
      "id": "184152386"
    },
    {
      "threadId": "259122446",
      "post": "I watched \"I saw the devil\" 2 weeks back and thought it was inventive, and almost funny in its gruesomness, but not the best in its genre. You neglected to mention the fiance was played by gorgeous Byung-hun Lee, who was so fantastic in \"The Good, the Bad, the Weird\", and \"A Bittersweet Life\". Swoon...I'd watch him in anything.",
      "time": "2011-03-21T20:21:31",
      "id": "169174777"
    },
    {
      "threadId": "247715961",
      "post": "Oh, well if it's 70-80% it's not fat or water - mystery! \n\nI'm in Japan 17th to 30th, and don't know when I'll next be there...although halloween is always a good time to go for decorations and parties/clubs!",
      "time": "2011-03-09T09:50:26",
      "id": "162910421",
      "parentPost": "10 kg is a good amount of weight, even if you gained some back its a wonderful success, congratulations!\n\nThat is exactly right, its so easy to eat a bunch of small snacks and not realize how they add up over the day. If I don't write down my calories, I think I eat like an extra 1000kcal in snacks...\n\nWell you can't see it well in the small picture I put up, but in the book the example % are between 70-80% so I thought that might be water %, but really Japanese people do NOT know or understand about body composition. They don't measure body fat/muscle mass, they just try to lose kg overall.\n\nHow long will you be in Japan this time, or will you go back in summer? I was really sad we couldn't meet up last time, so I really hope we will have the chance to meet soon!!",
      "parentPostTime": "2011-03-08T16:19:33",
      "parentPostId": "162417666"
    },
    {
      "threadId": "226760472",
      "post": "I'll be there late March too and would love to be involved!",
      "time": "2011-02-24T04:32:01",
      "id": "155186547",
      "parentPost": "Will you be there in late March? I hope so!! Would love to have you involved. xo",
      "parentPostTime": "2011-02-10T22:51:27",
      "parentPostId": "144403715"
    },
    {
      "threadId": "220035070",
      "post": "I really like the look, and would defo call it alternative...but not steampunk. Love the vampire shape lips, and the Ozz Croce drapy sheer coat :)",
      "time": "2011-02-01T05:57:21",
      "id": "138029659"
    },
    {
      "threadId": "216755538",
      "post": "Love the rooftop pics especially! Love the stripy boots too - only wish they had a platform - I'd be all over them!",
      "time": "2011-01-29T07:50:25",
      "id": "136543435"
    },
    {
      "threadId": "207443540",
      "post": "Loving these co-ords - especially the tutHA rock one! I bought a very similar cross in plastic with a big chunky chain, but from Cameron Racy :)",
      "time": "2011-01-16T07:34:39",
      "id": "129645986"
    },
    {
      "threadId": "202018725",
      "post": "I've just read this now and thank you so much! But I don't really have the dolly kei look down at all; I'm just fascinated and keep visiting to soak it all up. I'm currently looking for dolls heads which are fairly key, for that spooky days-gone-by part of the look.\n\nI filmed a bit when I was there last week, for anyone who's interested http://thefashionatetraveller.com/grimoire-video-take-a-peek-inside-the-grimoire-store",
      "time": "2011-01-14T15:31:15",
      "id": "129070795"
    },
    {
      "threadId": "203988970",
      "post": "LOVE the leather pants/leggings and the leopard shoes!! The coat is cool too, and made edgier by the rest of the outfit :)",
      "time": "2011-01-14T15:21:53",
      "id": "129067775"
    },
    {
      "threadId": "206014397",
      "post": "Good on you!! As you say, without a Nuffnang type community, you have to start one yourself! I hope it's very fruitful :)",
      "time": "2011-01-14T15:19:30",
      "id": "129067069"
    },
    {
      "threadId": "208141143",
      "post": "Dang it that I couldn't have stayed just one day more, and come to this to meet you all! And to think it was filmed!! Awesome!! Next time, we WILL meet!!",
      "time": "2011-01-14T15:05:27",
      "id": "129062884"
    },
    {
      "threadId": "204476530",
      "post": "Hee - Hana took me to my first purikura on Wednesday! It looks like the same place too - but who can tell? On Takeshita Street. It WAS fun, and I liked how it made me look soooo girly!",
      "time": "2011-01-08T08:15:38",
      "id": "126069585"
    },
    {
      "threadId": "204346736",
      "post": "Just wanted to say how sorry I am about your grandfather - how conflicted you must feel :/ I'm also really sorry I couldn't be there for the Saturday meet-up - I missed it by ONE DAY! Gutted :(",
      "time": "2011-01-08T07:54:35",
      "id": "126067260"
    },
    {
      "threadId": "200051440",
      "post": "Wow! Is that the Feb Popteen that has the contents of the fukubukuro?",
      "time": "2010-12-31T04:11:47",
      "id": "121382122"
    },
    {
      "threadId": "198835179",
      "post": "Love the hair. You see?? Colour is addictive!! Muahahahaaaaaa...\n\nWhile I'm not into Jrock at all, and like my laternative stuff, I do love little grungey places like this... Will hunt it out next week when I'm back there, as I'm once again staying in Kabukicho :P",
      "time": "2010-12-29T02:06:22",
      "id": "120441504"
    },
    {
      "threadId": "198165125",
      "post": "Great video!!! I really love the music (obviously Hirooka grew up in similar time to me, heh). It shows, for those who can't get there, what the store looks like, and also what the clothes look like up close. The interview was really cool too. Really excellent post!!",
      "time": "2010-12-28T02:07:31",
      "id": "119989317"
    },
    {
      "threadId": "197676851",
      "post": "Aaaahhh - you're so Christmassy in your co-ordinate!! I wore pink & red pants in a geisha print, and bright red blouse to work to cheer myself up :)\n\nI'd love to have just about everything in your haul, esp the Betsey Johnson stuff and studded cuffs and belt - I really like the rock-chick look too! Anyways, hope to see some of it on you in Tokyo :)",
      "time": "2010-12-27T03:49:54",
      "id": "119620634"
    },
    {
      "threadId": "191786955",
      "post": "I'll be in Tokyo (Shinjuku) from 1st to 8th Jan - not sure if your plans have changed, but if you're there, we MUST meet up!",
      "time": "2010-12-24T22:28:58",
      "id": "118520411"
    },
    {
      "threadId": "196861538",
      "post": "LOVE these pics!! And my, yes they do like to put stars on the arms of things, don't they? You know I love tutuHA too, and will post you a pic of me in it for the next tuneIN. Hey, are you in Japan atm, or back in the US? Just I arrive in Tokyo next Saturday. ",
      "time": "2010-12-24T21:33:12",
      "id": "118490474"
    },
    {
      "threadId": "193686794",
      "post": "Qutie Frash was the very first thing I bought when I got to Marui One...and then Black Peace Now :)",
      "time": "2010-12-19T18:41:03",
      "id": "114831248"
    },
    {
      "threadId": "187840906",
      "post": "I have to admit, I usually hang in Shinjuku etc which are modern & built up. But last time I visited Tokyo I'd organised to meet Kikirara Shoten to interview her, & it was in Minamikamata, and we got lost! But while wandering around, I noticed an older style market with small shops like this, which was lovely. One of the shop-owners even called her for us, to come and meet us - and made us eat a nashi pear while we waited!",
      "time": "2010-12-10T03:19:56",
      "id": "109697298"
    },
    {
      "threadId": "184313080",
      "post": "oh, and I think that \"feeling welcomed\" as you said here, is important for a club, and certainly makes me wanna go there :)",
      "time": "2010-12-04T08:45:46",
      "id": "106632617"
    },
    {
      "threadId": "181301631",
      "post": "LOVE your hair and love your little dog!! I really want a Minpin which your doggie reminds me of a bit (tho I think yours has a bit of Jack Russell, doesn't he?) I'm not a cat person, so it's my hubby that wants eventually to get a cat. But first we have to get a house. Yes. ",
      "time": "2010-11-29T17:56:10",
      "id": "104749643"
    },
    {
      "threadId": "181213422",
      "post": "Hi! First time reader who also loves Kera, and is more goth punk than gyaru. I've been noticing a lot of gal creeping in too...I think it's as you said; the rules are not fixed and solid. Like, I've seen Glad News used too,but then I have a killer pair of studded platforms from GN that are ROCK!",
      "time": "2010-11-29T17:29:32",
      "id": "104742674"
    },
    {
      "threadId": "166819003",
      "post": "LOVE the colour of your hair here...and it's just a cute picture!! I also love the stole, and it goes so nicely with your hair colour :)",
      "time": "2010-11-17T02:36:09",
      "id": "98097175"
    },
    {
      "threadId": "164768348",
      "post": "Heh, I dropped into Takuya's later that day...and ended up gong out wth them for dinner at a nearby izakaya, instead of coming out to your do at Kayaga (afetr hana-bi on the porch). ",
      "time": "2010-11-03T19:53:18",
      "id": "93488039"
    },
    {
      "threadId": "155801344",
      "post": "Thanks for the mention!! Twas a bit of fun :) I really like Ozz On/Ozz Croce and own a few pieces myself - although my fave stores used to be in the Shinjuku subande, the've now gone! But there's a new Algonquins store down there instead, so I can't complain too much! \r\n\r\nAnd the bar for anyone who's interested, is called Hair of the Dogs",
      "time": "2010-10-14T04:56:58",
      "id": "86769577"
    },
    {
      "threadId": "153907331",
      "post": "oh, and there's 5.5 hours left in my competition http://thefashionatetraveller.com/the-fashionate-traveller-giveaway-extended-to-october-10th/",
      "time": "2010-10-10T07:36:41",
      "id": "85633626",
      "parentPost": "Congrats on another gig!! And getting flown to Tokyo again!! Alas I won't be there for Halloween this year (tho I was last year!) But am off to Malaysia next week, so not feeling too bad :)\r\n\r\nLots of interesting info on other Tokyo happenings there too!",
      "parentPostTime": "2010-10-10T07:32:48",
      "parentPostId": "85633365"
    },
    {
      "threadId": "168497164",
      "post": "I agree with Violet - it is such a vivid colour!! I have blue-green eyes anyway, so am tempted to try these :)",
      "time": "2010-10-09T04:59:56",
      "id": "85424033"
    },
    {
      "threadId": "149970844",
      "post": "Aww, lovely :)",
      "time": "2010-10-02T01:31:45",
      "id": "83240809"
    },
    {
      "threadId": "133517520",
      "post": "Love the red bowler hat!!!",
      "time": "2010-09-22T03:54:11",
      "id": "79903054"
    },
    {
      "threadId": "144570711",
      "post": "Excellent post!! I wish I'd written it!! I hung out with Chihiro & his g/f a few times at izakayas when I was there, along with Takuya etc..but of course, they have little English, so conversation was through my mate Brendan. ",
      "time": "2010-09-21T03:22:30",
      "id": "79633709"
    },
    {
      "threadId": "131957144",
      "post": "I'm LOVING all the interesting backdrops for your photos lately!! A few posts ago was a colourful supermarket, where the oranges matched your hair..and now this asian supermarket and Kino >3 Love the outfits here too - esp Rose's panda shorts, and I never thought I'd like something cutesy but I love the nobbly fabric. Rose is just gorgeous (and I spotted her Vivienne Westwood orb earrings too)\r\n\r\nAnd YAAAY!! Looks like I might get to see you now!!",
      "time": "2010-08-22T06:08:57",
      "id": "70557458"
    },
    {
      "threadId": "131099388",
      "post": "Wow, this is getting spooky! I just did a post today on Atelier Pierrot, as I love the brand too - and next up I was gong to do one on Black Alice - and see one of your readers has commented on it! Spooky ooky :)",
      "time": "2010-08-19T13:06:20",
      "id": "69980190"
    },
    {
      "threadId": "130065812",
      "post": "LOVING the bright new hair and the outfit!!",
      "time": "2010-08-16T09:05:13",
      "id": "69088584"
    },
    {
      "threadId": "129761296",
      "post": "Exciting!! And Jim did a drawing of me when we were at Sumire No Tenmado...I totally must folllow that up when I'm back there, and get a copy!",
      "time": "2010-08-15T18:35:20",
      "id": "69010737"
    },
    {
      "threadId": "128633270",
      "post": "I'm a puppy person, not a cat person, and have yet to find a puppy cafe! I do tend to hang around the pet shops in Shinjuku to get my fix of adorable lil puppies.",
      "time": "2010-08-15T04:46:57",
      "id": "68805958"
    },
    {
      "threadId": "129078208",
      "post": "I can't wait to get to the next Gothic Bar Heaven - in less than 2 weeks! Pity I'll miss you though :(",
      "time": "2010-08-15T04:39:21",
      "id": "68805424"
    },
    {
      "threadId": "129523612",
      "post": "Oh, and I don't see the point of \"private establishments\" - they should just go to each others' houses if they don't want to meet new people. Our goth clubs here are open, and it's up to the (friendly) door person to assess on a case-by-case basis whether the person/s should get into the club.",
      "time": "2010-08-15T04:35:52",
      "id": "68805181"
    },
    {
      "threadId": "477692857",
      "post": "Awesome list!!!",
      "time": "2010-08-04T03:31:06",
      "id": "65967037"
    },
    {
      "threadId": "125295845",
      "post": "I'm not into the J-rock scene at all, but well into the goth, punk, ska, deathrock etc scenes. Absolutely agree with your advice, La C - just turn up to gigs & clubs and you will meet likeminded people (like ours in Tokyo, eh?)\r\n\r\nI'm still grappling with your other good advice:  \"if I took the path of self-effacement, nobody would know what I could offer\". Naturally self-effacing, I'm struggling to get out there, promote etc ..but am slowly learning! You really are a great example of how a little promotion/hustling can take you to great places!",
      "time": "2010-08-03T06:55:09",
      "id": "65816961"
    },
    {
      "threadId": "123733012",
      "post": "0_o haven't been to THAT sushi place - but it's right around the corner from where I always stay :) That is certainly MY part of town :) Must try that big eye thing in purikura too! I'm back there on August 27th - so excited!!",
      "time": "2010-07-30T06:04:47",
      "id": "65230542"
    },
    {
      "threadId": "119578283",
      "post": "Pretty boys!! Pretty girls!! Love some of the amazing get-ups :)",
      "time": "2010-07-20T02:02:44",
      "id": "63289149"
    },
    {
      "threadId": "118808684",
      "post": "Hey, SaTan looks really cool! The Alice theme and audience participation looks FANTASTIC!! I saw Calmando Qual back in March and wrote about it here: http://thefashionatetraveller.blogspot.com/2010/03/theatic-alamode-blood-stain-child-and.html\r\nI really liked their show which was less gothic/metal/visual kei, and more circus/pirate, I'd say. The singer was mesmerising (altho he did sing flat at times). I'd like to see more of them :)\r\n\r\nLove the boots, too :)",
      "time": "2010-07-17T03:11:13",
      "id": "62792402"
    },
    {
      "threadId": "116375325",
      "post": "This is really great - good to show us the quirky shops over there. I think I missed that weird one! I notice the guy below has a Time Bomb Records shirt on - did you go there? We spent quite a long time checking out the records and CD's -and I bought a few as well! (Old Japanese ska and deathrock).",
      "time": "2010-07-11T05:44:15",
      "id": "61513429"
    },
    {
      "threadId": "114894265",
      "post": "I know you thought you couldn't get circle lenses in strong prescriptions, but I just had a look at the site I got mine from http://www.pinkyparadise.com - and there are quite a few that go up to -10! There are some -10 in categories GEO medical, Hyper Size Seeshell Cosmo, G & G, DollyEye, Hana SPC...and that's just one store! \r\n\r\nI understand you feeling reticent - just saying, if you want to try them, you can :)",
      "time": "2010-07-09T08:06:05",
      "id": "61254147",
      "parentPost": "NICE blog post about your crazy lenses. Hehe whenever I see crazy eyes I think of you!",
      "parentPostTime": "2010-07-08T19:03:23",
      "parentPostId": "61152594"
    },
    {
      "threadId": "114454858",
      "post": "So many gorgeous guys over there..sigh... I certainly know who he is, but don't think I've ever spoken to him. LOVE his constantly changing hair, of course, and lenses! Yes, it's interesting how you have Dolly Kei gaining prominence with its love of bygone eras and hime which loves Baroque, yet Steampunk not really taking hold. Mind you, when japan has such fantatsic goth & alternative looks all of its own, I guess it doesn't need to appropriate more western alt trends? \r\n\r\nIt's a pity though that they don't know the music of Dr Steele, say.",
      "time": "2010-07-06T04:25:59",
      "id": "60717159"
    },
    {
      "threadId": "113051442",
      "post": "I definitely agree about the Ikebukuro Closet Child - less trafficked as less well known - at least by westerners, who mainly go to Harajuku. I have a few pieces I bought last year there that I wear all the time! I love the adjoining mall with the floor of all restaurants too...I had to walk around for aages deciding where to eat.",
      "time": "2010-07-04T13:14:51",
      "id": "60516492"
    },
    {
      "threadId": "109493482",
      "post": "but OH! would love to see Dark Marchen again!",
      "time": "2010-06-21T06:56:05",
      "id": "57846344",
      "parentPost": "Yep, was in Osaka in March 09 and hit all the goth shops (bought a cool Kikirara/Dangerous Nude corset). Alas it was mi-week and no clubs on, but we did drop in and say hi to Taiki :)",
      "parentPostTime": "2010-06-21T06:55:29",
      "parentPostId": "57846312"
    },
    {
      "threadId": "105991472",
      "post": "Awesome!! Really helpful directions too - I even get lost just going to the Live Inn Rosa in Ikebukyro!",
      "time": "2010-06-14T06:32:20",
      "id": "56607257"
    },
    {
      "threadId": "107409148",
      "post": "Oh, and everyone else looks amazing too. But can't see Kozi - is he only in the vid, not the pics? And are any pics on Dark Marchen (esp King) coming?",
      "time": "2010-06-14T05:42:50",
      "id": "56604690"
    },
    {
      "threadId": "98441477",
      "post": "It's around St Patricks Day, March 17 to 22nd usually, as it's Irish punk like Flogging Molly and Dropkick Murphys. http://thefashionatetraveller.blogspot.com/2010/05/wild-rover-2010-cherry-cokes-junior.html \r\nThere's a much bigger international one called Punkspring, but I like the smaller local ones.",
      "time": "2010-05-24T06:50:20",
      "id": "51671226",
      "parentPost": "I've never been to the punk festival! When does it take place? Hopefully I can catch it one year... ",
      "parentPostTime": "2010-05-24T06:20:40",
      "parentPostId": "51669861"
    },
    {
      "threadId": "90055192",
      "post": "Congrats on all the success!! Thanks for the history of your blog tour. You certainly HAVE come a long way, and remain an inspiration for me. I'm still learning to use my pro-Camera though. (And perhaps I should move to Wordpress...hmm...) \r\n\r\nOne day, Gadget, we WILL be back in Japan at the same time, and I'd love to team up and join your adventures once again! ",
      "time": "2010-04-27T06:14:25",
      "id": "46873862"
    },
    {
      "threadId": "88909328",
      "post": "Awesome to see you in a corset!! I think it'd look lovely with a white loli skirt. And the pinky beige in the bunny ears goes so well with your hair :)",
      "time": "2010-04-23T10:03:51",
      "id": "46207218"
    },
    {
      "threadId": "80351905",
      "post": "I'm actually heading to Singapore this weekend, so this is timely!! Valerie and I hit some lovely vintage stores like Grimoire too - gorgeous.\r\n\r\nIt was cool hanging out with Jim in Tokyo too - boy, does he know how to promote his project! He popped up everywhere pimping out the film, heh :)",
      "time": "2010-03-29T16:31:05",
      "id": "42118248"
    },
    {
      "threadId": "74680492",
      "post": "Looks great!! I've done my share of movie and tv extra work, I know how boring it gets... \r\n\r\nThe blue and black looks really purty (oh, I should've been there!) Both yours and Yukiro's make-up, and of course Zoetica, rocks :) ",
      "time": "2010-03-11T13:36:07",
      "id": "38995399"
    },
    {
      "threadId": "73065471",
      "post": "I loved it and didn't want to come out of the make believe world at all, and was so disappointed when she went back in the tree cos I knew she was going back to the normal world. I thought Depp was superb - including his make-up and attire. \r\n\r\nI was a bit disappointed in the White Queen - Hathaway was just being a white Morticia Adams, and I think someone else could've done her role better, and it was HER make-up that was bland, not the Queen of Hearts, who was amazing. Although, Bonham Carter was clearly chanelling Miranda Richardson's Queenie from Black Adder - perhaps she should have done the role. But Helena always makes me laugh. So many other characters who played their parts wonderfully. I will definitely see it again.",
      "time": "2010-03-06T17:24:05",
      "id": "38286160"
    },
    {
      "threadId": "71274650",
      "post": "Yukiro's blue wig is woah bright and fabulous!! It looks great against Vyxsin's pink hair too. You should totally get a few vibrant colour wigs!!",
      "time": "2010-03-02T12:31:50",
      "id": "37591435"
    },
    {
      "threadId": "68165618",
      "post": "Fantastic outfits, make-up, hair etc in the partygoers - impressive!! It's great when people make an effort :) Looks heaps fun too. I really like your boots - and Dravarious is amazing as usual :) What camera are you using in that close-up shot?",
      "time": "2010-02-19T06:07:21",
      "id": "35323552"
    },
    {
      "threadId": "67290138",
      "post": "Looks like mucho fun!! Hehe..next you'll have a series \"My life on the D list\"! Love the new Lip Service jacket too. (And I think Yukiro has somethng attched to his headband to make his hair stick out).",
      "time": "2010-02-17T04:37:21",
      "id": "34816191"
    },
    {
      "threadId": "66879967",
      "post": "I was already planning to go to the Spank! store next month when I'm there - but I didn't know they threw parties! (Not that I have much time free). Interestingly, I believe the Spank! girls know Mademoiselle Yulia as well - who's famous for her BLUE bob. Oh to get a pic of those two together...\r\n\r\nI think Fairy Kei is for little girls - I'm far too old for it! I'm glad the fashion exists, cos I applaud originality, but it's just not for me. I like your leggings btw :)",
      "time": "2010-02-16T04:15:14",
      "id": "34400677"
    },
    {
      "threadId": "66160667",
      "post": "Hehe..when I first saw the first photo, I thought Yukiro had gone red, and HE was doing your make-up!! And yum, so many pretty boys in eye make-up :) And I've never seen Shien look Cyber before - what a change! Great pics; it was obviously a great crowd :)",
      "time": "2010-02-11T20:47:15",
      "id": "33936149"
    },
    {
      "threadId": "65858965",
      "post": "Great post!! I particularly like the last outfit - I'd totally wear that. The Grimoire shop style really reminds me of Rose de Reficul/Dark Marchen and the Toe Cocotte style, don't you think?\r\n\r\nBTW, I'm going back next month - squeee!!",
      "time": "2010-02-11T05:00:14",
      "id": "33665091"
    },
    {
      "threadId": "57934615",
      "post": "I wish there was more of the really far out Tokyo Decadance type clothes and make-up modelled - there's more to Japanese subculture than just Visual Kei and lolita, as we well know!\r\n\r\nJust on the \"cheaper American stores\" thing - whilst Forever 21 is American (founded by Korean immigrants no less!), H&M is Swedish, and Zara comes from Spain! The last 2 are huge in the UK and I used to assume they were English til I researched.",
      "time": "2010-01-13T05:22:42",
      "id": "29598491"
    },
    {
      "threadId": "57229796",
      "post": "I also wanted to mention up and coming photographer Brendan Daniel. He's a friend and did my Gothic Lolita teaparty shoot.\r\nhttp://thefashionatetraveller.blogspot.com/2009/12/gothic-lolita-cupcake-tea-party-just.html\r\n\r\nAn aussie who now lives in Japan, Brendan photographs for Askew magazine and worked with label Takuya Angel and Visual Kei band Exist Trace on shoots recently. http://www.flickr.com/photos/brendaniel",
      "time": "2010-01-10T15:36:03",
      "id": "29272165"
    },
    {
      "threadId": "56905618",
      "post": "Nicely researched Carmen! I love dandies :) Leanne",
      "time": "2010-01-08T16:27:41",
      "id": "28904778"
    },
    {
      "threadId": "54282631",
      "post": "I'm catching up on posts after my overseas holidays, so a bit late, but Happy New Year! 2010 seems like a huge one for you already :) \r\n\r\nJust wanted to point out to readers that you don't have to get yen before you get to japan, or use your credit cards, as the Citibank atms there take money from your savings acccount, as long as you have a cirrus type key card and know your pin. There's an atm at the airport and a 24 hr one in Shinjuku - they're the ones I use most, altho there are citibanks in many busy suburbs. And specifically on accom in Shinjuku, I did a summary here: http://thefashionatetraveller.blogspot.com/2009/10/where-to-stay-in-shinjuku.html",
      "time": "2010-01-03T13:23:29",
      "id": "27883667"
    },
    {
      "threadId": "51374538",
      "post": "Well you know where *I* stand on the alternative fashion issue!! Dressing up is an aspect of creativity and a great way to express yourself, so as someone who is pretty 'out there' with brightly coloured hair, make-up, and alternative clothing, I say to everyone - give it a go! Try something new! How about a purple death-hawk? Or Siouxsie Sioux make-up sometime? I'd like to see you be even more out there with your look, if anything :) Love the cloak, BTW :)",
      "time": "2009-12-12T11:41:27",
      "id": "25591331"
    },
    {
      "threadId": "51021760",
      "post": "Congrats on this success - your sales should shortly go through the roof!",
      "time": "2009-12-11T04:21:12",
      "id": "25494043"
    },
    {
      "threadId": "50719757",
      "post": "Hehe, No She Didn't and D'Lilac are the 2 colours I'm wearing mostly (largely because I always wear purple and blue lips anyway! It's nice to not have to wear eye pencil, and actually have lippies that colour!)) They look really good on you :) And I love the outfit here too.",
      "time": "2009-12-11T03:14:28",
      "id": "25491217"
    },
    {
      "threadId": "50926296",
      "post": "Ahh! It's CARO that had the fantastic shoes I spotted a while ago - love them!! The book signings are obviously going well - congrats! And I'm coming to NYC/LA early next year (wanna see Tim Burton's retro at MOMA), so will look to see what you're up to then :)",
      "time": "2009-12-11T03:00:30",
      "id": "25490443"
    },
    {
      "threadId": "50253997",
      "post": "On the look-alike thing...I think Jim has a bit of the Dave Grohl from the Foo Fighters going on...although his Liverpool accent makes him sound more like the Beatles!",
      "time": "2009-12-08T01:44:15",
      "id": "25044206",
      "parentPost": "HAHAH I know EXACTLY who you are referring to. Jamie Campbell Bower -- he's in Twilight too. Oh hello... http://twilight-review.com/wp-content/uploads/2009/07/jamie-campbelle-bower.jpg\n\nhttp://whattheforks.files.wordpress.com/2009/03/bowerjs027.jpg",
      "parentPostTime": "2009-12-07T23:19:15",
      "parentPostId": "25037315"
    },
    {
      "threadId": "43670402",
      "post": "I dropped in there on my recent visit, but didn't really find anything I liked. There were a couple of tartan jackets, but in dull colours. I guess the really cool stuff, people keep hold of and don't resell :/",
      "time": "2009-11-05T15:32:53",
      "id": "21941482"
    },
    {
      "threadId": "38675005",
      "post": "Hehe, I love Closet Child too, and mentioned it in my recent post http://thefashionatetraveller.blogspot.com/2009/10/where-to-stay-in-shinjuku.html with a link to your blog :) I found the Ikebukuro one really good too - less travellers get out there, so there's lots of good stock.",
      "time": "2009-10-11T14:10:40",
      "id": "19847998"
    },
    {
      "threadId": "26453891",
      "post": "Yukiro's comments are Soooo funny!! Love your maid's outfit (but dear lord, not those sandals). I saw in your Facebook picture collage some pics from Alamode night and Sisen in a purple dread wig - you haven't posted about this yet, have you? Or have I missed it? Wanna see :)",
      "time": "2009-07-23T16:42:25",
      "id": "13218785"
    },
    {
      "threadId": "25697827",
      "post": "Love the military styling :) Count De Sang is HAWT! And Yukiro as a hippy? Well, I never.",
      "time": "2009-07-23T16:28:19",
      "id": "13218111"
    },
    {
      "threadId": "24466921",
      "post": "I love the Sexy Dynamite London store in Harajuku; it's got lots more rock stuff that's cool. Chunky leopard belts with lots of o rings hanging off, cool bags and platform boots etc...I spent up big there on my last trip! Are you heading back in July? I may be back there in August.",
      "time": "2009-07-07T09:43:16",
      "id": "12245244"
    },
    {
      "threadId": "23398458",
      "post": "Hey! Those doors weren't there when I was there earlier this year. It makes it more interesting; I still prefer the other store though, which was much darker. ",
      "time": "2009-06-29T12:26:32",
      "id": "11880189"
    },
    {
      "threadId": "17725649",
      "post": "I had so much fun at the previous month's Midnight Mess! Sisen was indeed there, almost unrecognisable without his trademark eye make-up and big cyber dreads...we had a good stomp to the industrial music being played. There were a lot more westerners there than at Alamode, it seemed to me.  I must chase up some pics the photographer Kousuke took of me there... ",
      "time": "2009-05-11T06:05:38",
      "id": "9197129"
    },
    {
      "threadId": "16761222",
      "post": "I got a great set of nails - black with silver designs and diamantes - from the Alamode Markets when I was there earlier this month. They're so long, I haven't worn them anywhere yet! Can't wait to see your pics from this trip - saw a few on Facebook - so many familiar faces!!",
      "time": "2009-04-28T10:16:20",
      "id": "8769280"
    },
    {
      "threadId": "13435261",
      "post": "I love the Death Note live action movies, and just last night rewatched Death Note 2. Misa is obviously goth lolita (Hangry & Angry phone charms & dolls etc) but not dressed overly frilly like the anime seems to dress her. No I didn't like her either, but the character had to be subservient for the plot to work. I must watch the anime series now - it seems to go into character's motivations and conflicts more.\r\n\r\nI LOVE L / Ken'ichi Matsuyama - he's incredibly charismatic and sexy. Even in Last Name, which wasn't as good a movie as the other 2, IMHO. I'm dying to see Detroit Metal City (the movie), cos he plays the lead! The little part he had in Nana just didn't do him justice :(",
      "time": "2009-03-13T04:05:07",
      "id": "7161335"
    },
    {
      "threadId": "13493042",
      "post": "Love the top!! The new Fiend is finally coming out this week, and as well as your DIY EGL crown page, there's a par and pics on Akina in Fashion News. I just haven't seen the mag yet! ",
      "time": "2009-03-13T03:50:04",
      "id": "7161110"
    },
    {
      "threadId": "13277432",
      "post": "And I'm going back on Monday - can't wait to see the new Marui One!!",
      "time": "2009-03-09T07:59:05",
      "id": "7009852",
      "parentPost": "I'm going to Japan on Friday, I'll be sure to check it out!",
      "parentPostTime": "2009-03-09T07:21:10",
      "parentPostId": "7009619"
    },
    {
      "threadId": "11803097",
      "post": "Interesting :) I wouldn't wear either of these styles (Hime or classic lolita), as I'm more into the gothic/punk side of things. But I have started wearing diamond-studded nail jewellery - I hope that doesn't make me a Stepford Wife! \r\n\r\n*shudder*\r\n\r\nAnd at least I pay for my own mortgage, meals AND fashion, heh.",
      "time": "2009-02-16T04:16:53",
      "id": "6293985"
    },
    {
      "threadId": "11487818",
      "post": "I dont *THINK* anyone's posted this tip here, but especially when using black eyeshadow, bright colours or glitter, always hold a piece of tissue under your eye to catch the excess, and stop the particles falling onto your cheeks, under-eye area or wherever.\r\n\r\nI agree with the other comments about certain colours making your eyes pop. I have green eyes too, and using bright yellow and purple works really well. Yellow also makes aqua/green look even brighter, as in my facebook piccie (I already linked in a diff comment, but what the hey)\r\nhttp://photos-c.ll.facebook.com/photos-ll-snc1/v2169/2/82/713328053/n713328053_2069938",
      "time": "2009-02-13T22:41:36",
      "id": "6249570"
    },
    {
      "threadId": "9805365",
      "post": "I'm so mad I forgot to check her out while I was there - she's so inspiring. I mean, I make hats! I'm hoping to be back there in April, and make sure I visit the shop then :)",
      "time": "2008-12-04T17:19:11",
      "id": "4167549"
    },
    {
      "threadId": "9808496",
      "post": "It's funny I'm reading this back in Sydney, after my second visit to Bodyline last Thursday. \r\n\r\nI hadn't heard any negative things about Bodyline - in fact, some of my aussie friends rated it as a must-go-and-buy. But having seen the h.Naoto, Ozz Croce, Alice Auaa, Atelier Pierrot etc..at MaruiOne and La Foret, I was a bit disappointed. We have a bargain store here called Supre, and that's what Bodyline reminded me of. I think I was spoiled, going to the other places first, lol! All I bought from Bodyline was a few ties.\r\n\r\nI picked up a cool Alice Auaa cobweb top in Closet Child Harajuku, (and noticed more of her items at Closet Child Shinjuku) - thanks for the tip!",
      "time": "2008-11-18T04:41:51",
      "id": "3872736"
    },
    {
      "threadId": "9804284",
      "post": "Thanks!! That is me in a red wig from Plastikhaar    http://www.plastikhaar.ch/shop/ \r\n- look in the wig section of the shop for more of her outstanding designs.",
      "time": "2008-11-13T02:28:46",
      "id": "3726405",
      "parentPost": "nice ktty scarf ur wearing!!!!!!!!!!!!!!!\r\n\r\nwow I like the girls hair style.  (one with the red hair)",
      "parentPostTime": "2008-11-11T06:01:41",
      "parentPostId": "3675184"
    },
    {
      "threadId": "9796544",
      "post": "A duck as a HAT??!! Too awesome!! I love that veiling too - I must get to that shop when I'm there.\r\n\r\nArgh, I worked all weekend so missed Halloween...but popped out for just a few early drinks on Saturday night.  I wore a black & white PVC corset, EGL rufled lace jabot, black Sass & Bide ruched leggings and a tux tailcoat. \r\n\r\nI'm so excited!! There's a Narzib next Saturday night!! I'll be sure to see you there :)",
      "time": "2008-11-03T04:13:25",
      "id": "3450638"
    },
    {
      "threadId": "9807129",
      "post": "I actually get them from my Optometrist! But I think in the US you can get them online. They're called Crazy Eyes or Wild Eyes, www.wild-eyes.com I've got em in white, red, cat's eyes, spirals...",
      "time": "2008-10-30T19:20:41",
      "id": "3395988",
      "parentPost": "I should look into those... I have terrible eyesight. What type of colors or designs do you have? Did you get them online?",
      "parentPostTime": "2008-10-28T14:30:18",
      "parentPostId": "3342085"
    },
    {
      "threadId": "9808418",
      "post": "Looks awesome!! I'm planning to go to the next one - but flipped out when I saw it was only 4.30pm until 10!! I wanted to go to an all-night club, and now am wondering whether to change my dates so I can come when Tokyo Dark Castle or Decedance are on. So confused! Also, isn't Alamode quite out of town (ie not in Shinjuku - lol) and harder to find?",
      "time": "2008-10-23T03:47:42",
      "id": "3246578"
    },
    {
      "threadId": "9807843",
      "post": "Hi Carmen, thanks for posting this. I can't believe of never heard of Akina, when I'm from Sydney too! We must use her stuff in a shoot for the mag I'm with.\r\nHey, a question: if you had to choose between going to Alamode Night, Tokyo Decadance or Tokyo Dark Castle, which would you choose? ",
      "time": "2008-10-23T03:27:31",
      "id": "3246390"
    },
    {
      "threadId": "5597844",
      "post": "I'm thinking h.Naoto and Alice Auaa are gonna be my faves, (but so expensive!) I'm fashion editor of an alternative fashion mag in Australia called \"Fiend\", so I'm really hoping to see a lot - I will be glued to your blog, that's for sure. Will you be going to Alamode Night?",
      "time": "2008-10-10T13:14:37",
      "id": "2978517",
      "parentPost": "Those were some of my favorite looks as well, especially the pointed vests and asymmetrical jackets at BPN! \r\n\r\nHow exciting that you'll be visiting Tokyo - I'll be doing more post about Goth Loli Punk stores in Harajuku and elsewhere. Let me know if you have any requests, and your impressions once you get here! ",
      "parentPostTime": "2008-10-10T11:21:56",
      "parentPostId": "2977133"
    }
  ],
  "profileInfo": {
    "username": "trashtastika",
    "about": "I love alternative fashion & music, travelling and nightclubbing!",
    "name": "trashtastika",
    "disable3rdPartyTrackers": false,
    "isPowerContributor": false,
    "isAnonymous": false,
    "rep": 1.28929,
    "profileUrl": "https://disqus.com/by/trashtastika/",
    "url": "http://thefashionatetraveller.com/",
    "reputation": 1.28929,
    "location": "Sydney, Australia",
    "isPrivate": false,
    "signedUrl": "http://disq.us/?url=http%3A%2F%2Fthefashionatetraveller.com%2F&key=JkBwG26JBpxnaeIxeE-lng",
    "isPrimary": true,
    "joinedAt": "2008-10-10T10:53:37",
    "id": "118116",
    "avatar": {
      "small": {
        "permalink": "https://disqus.com/api/users/avatars/trashtastika.jpg",
        "cache": "//a.disquscdn.com/uploads/users/11/8116/avatar32.jpg?1424694567"
      },
      "isCustom": true,
      "permalink": "https://disqus.com/api/users/avatars/trashtastika.jpg",
      "cache": "//a.disquscdn.com/uploads/users/11/8116/avatar92.jpg?1424694567",
      "large": {
        "permalink": "https://disqus.com/api/users/avatars/trashtastika.jpg",
        "cache": "//a.disquscdn.com/uploads/users/11/8116/avatar92.jpg?1424694567"
      }
    }
  }
}