[
  {
    "text": "¡Súmate ahora al #EMMS2015! 5 speakers motivacionales y 5 Casos de Éxito en vivo.  http://t.co/jEffQ9vpaj vía @fromdoppler",
    "time": "Fri Sep 18 14:37:58 +0000 2015",
    "id": 644883065303642100,
    "geo": null,
    "place": null,
    "coordinates": null
  }
]