{
  "comments": [
    {
      "threadId": "4887245206",
      "post": "Super Yohann ! Bravo, c'est vraiment sympa",
      "time": "2016-06-06T11:35:30",
      "id": "2714442236"
    },
    {
      "threadId": "4422663206",
      "post": "Je tente également ",
      "time": "2015-12-21T16:19:04",
      "id": "2419984027"
    },
    {
      "threadId": "4241878109",
      "post": "Tu poses réellement la question? Je crois que si tu n'as jamais utilisé Microsoft Office, Google Docs est un très bon outil jusqu'au jour où tu découvres Office!\nNon sérieusement, il n'y a pas photo, Google Apps a ENORMEMENT de travail à faire pour que l'on puisse réellement le comparer à Office.",
      "time": "2015-10-21T21:06:32",
      "id": "2319802973"
    },
    {
      "threadId": "4039758340",
      "post": "Bonnes vacances!",
      "time": "2015-08-17T10:52:25",
      "id": "2198167013"
    },
    {
      "threadId": "3341626819",
      "post": "merci pour ce test",
      "time": "2014-12-22T17:05:25",
      "id": "1754772959"
    },
    {
      "threadId": "3340614433",
      "post": "Rhooo le beau cadeau! Un grand merci et je tente ma chance! ",
      "time": "2014-12-19T23:04:56",
      "id": "1750936036"
    },
    {
      "threadId": "3008872128",
      "post": "Ce n'est pas le premier, Quick avait fait le Dark Vador Burger",
      "time": "2014-09-11T20:10:33",
      "id": "1584725670"
    },
    {
      "threadId": "2881720990",
      "post": "\"l’application Messenger étant d’ores et déjà indispensable depuis quelques semaines\" ... non, elle n'est en rien indispensable ou obligatoire aujourd'hui mais cela sera effectivement le cas dans les jours à venir",
      "time": "2014-07-29T07:55:13",
      "id": "1509437412"
    },
    {
      "threadId": "2872812823",
      "post": "En visionnant les 2 dernières images, il était en effet grand temps de passer l'aspirateur dans la chambre de tes filles :-)",
      "time": "2014-07-25T17:32:04",
      "id": "1503497486"
    },
    {
      "threadId": "2789617189",
      "post": "C'est par là http://domains.google.com/about/",
      "time": "2014-06-23T20:34:48",
      "id": "1450399880"
    },
    {
      "threadId": "2768751555",
      "post": "Franck Herbert devient aujourd'hui un visionnaire avec Dune!",
      "time": "2014-06-16T10:07:49",
      "id": "1437467704"
    },
    {
      "threadId": "2707250605",
      "post": "Rhoo là là!! Tu vas t'attitrer des problèmes avec mes compatriotes avec un tel titre! :-)",
      "time": "2014-05-23T14:01:22",
      "id": "1400912777"
    },
    {
      "threadId": "2707253164",
      "post": "On ne sait jamais... Par contre tu sera là le 28 hein!?",
      "time": "2014-05-23T13:55:40",
      "id": "1400906049",
      "parentPost": "Malheureusement je ne suis pas Paris ... vraiment dommage :/",
      "parentPostTime": "2014-05-23T13:45:41",
      "parentPostId": "1400894092"
    },
    {
      "threadId": "2671929062",
      "post": "Responsive design oblige et donc pas certain que cela soit fait pour y mettre de la pub ou je ne sais quoi...",
      "time": "2014-05-09T12:05:41",
      "id": "1376486395"
    },
    {
      "threadId": "2057974959",
      "post": "Je participe également et merci pour ce concours!",
      "time": "2013-12-19T20:01:40",
      "id": "1170566974"
    },
    {
      "threadId": "1797708656",
      "post": "Si ton iPhone est neuf non",
      "time": "2013-11-14T20:10:35",
      "id": "1123310178",
      "parentPost": "au secours la version iOs7 est horrible je viens de m'acheter l'iphone 4s et j'ai par erreur fait la mise a jour de ios7 et ça ne me plait pas du tout. j'ai lu dans les commentaire que depuis le 21 septembre il est impossible de revenir en arrière et de remettre la version ios 6 mais c'est horrible je viens de l'acheter hier dc pour moi c'est foutu ! c'est dégueulasse !\nAu secour il y a bien un moyen, svp aidez moi",
      "parentPostTime": "2013-10-08T18:43:53",
      "parentPostId": "1075302513"
    },
    {
      "threadId": "986127614",
      "post": "merci Fred!!",
      "time": "2012-12-24T10:51:47",
      "id": "746772025"
    },
    {
      "threadId": "972911692",
      "post": "Merci Fred pour ce concours!",
      "time": "2012-12-13T21:03:43",
      "id": "735239424"
    },
    {
      "threadId": "901408429",
      "post": "Bonne nouvelle, la saison 1 prévoyait initialement 13 épisodes mais 10 supplémentaires sont maintenant commandés... Hmmm! Ça sent bon la série reconduite pour une seconde saison ça!",
      "time": "2012-12-05T22:34:43",
      "id": "728730875"
    },
    {
      "threadId": "901446524",
      "post": "Dommage, la sentence est tombée, la série est annulée et il n'y aura que 7 épisodes pour la saison 1...la dernière!",
      "time": "2012-12-05T22:30:21",
      "id": "728728246"
    },
    {
      "threadId": "909698835",
      "post": "Super Fred! J'aime beaucoup",
      "time": "2012-11-01T12:08:57",
      "id": "697747818"
    },
    {
      "threadId": "446071605",
      "post": "Merci AndroidHD d'avoir prit le temps de venir nous rendre visite et par la même occasion de répondre aux questions!",
      "time": "2011-10-19T17:43:08",
      "id": "339291509",
      "parentPost": "@Philippe Haine : Oui les écouteurs HTC avec Beats Audio sont bien sur accompagnés comme l'exige la loi d'un micro pour faire office de Kit piéton.\nla télécommande permets de décrocher , raccrocher un appel, de lancer la musique ,changer la piste audio ainsi que mettre en pause.",
      "parentPostTime": "2011-10-19T17:29:48",
      "parentPostId": "339282076"
    },
    {
      "threadId": "373641171",
      "post": "Je viens de t'envoyer un mail",
      "time": "2011-10-19T09:21:49",
      "id": "339003487",
      "parentPost": "Bonjour,\n\nj'ai acheté un iphone 4 bloqué bouygues, j'ai toutes les infos necessaires pour le faire débloquer mais je n'arrive pas à joindre Bouygues au téléphone... :(\nPouvez vous m'aider?\nMerci d'avance!",
      "parentPostTime": "2011-10-19T09:16:10",
      "parentPostId": "339001996"
    },
    {
      "threadId": "407776924",
      "post": "Les invitations ne sont plus nécessaires",
      "time": "2011-10-14T17:32:14",
      "id": "334788082",
      "parentPost": "bonjour , j'ai un compte gmail et si vous avez encore des invitations pour google plus , je serais heureux d' en recevoir une ; merci\n",
      "parentPostTime": "2011-10-14T17:01:54",
      "parentPostId": "334769794"
    },
    {
      "threadId": "440415068",
      "post": "As tu bien redémarré ton ordinateur après l'installation d'iTunes 10.5?",
      "time": "2011-10-13T22:58:07",
      "id": "334126607",
      "parentPost": "bonjour, mon iphone 3gs n'est pas reconnu par iTunes 10.5 !",
      "parentPostTime": "2011-10-13T18:58:57",
      "parentPostId": "333863436"
    },
    {
      "threadId": "437635647",
      "post": "Effectivement, cela se fait automatiquement mais le fait de faire un clic droit sur ton iphone et de faire sauvegarder, permet de s'assurer que la sauvegarde soit conserver.\nSinon, lorsque tu restaures, à la fin, iTunes te demande si tu souhaites configurer ton appareil comme un nouvel iPhone ou à partir d'une sauvegarde. Sélectionne cette dernière possibilité",
      "time": "2011-10-12T20:48:33",
      "id": "332925721",
      "parentPost": "sa ce fait automatiquement la sauvegarde et pui si je la restaure mon iPhone 4 sa va tout suprimer ",
      "parentPostTime": "2011-10-12T20:38:36",
      "parentPostId": "332919867"
    },
    {
      "threadId": "441315595",
      "post": "Utilise jDownLoader! Moi ça a mis 23 minutes avec ma connexion de m....",
      "time": "2011-10-12T19:42:35",
      "id": "332886373",
      "parentPost": "5h d'attente avec une connexion adsl 2+ ahaha",
      "parentPostTime": "2011-10-12T17:37:46",
      "parentPostId": "332808518"
    },
    {
      "threadId": "439224056",
      "post": "Crois moi que si j'avais l'information, je l'aurai déjà donné.",
      "time": "2011-10-12T12:29:21",
      "id": "332552169",
      "parentPost": "L'iOS 5 et le jailbreak untethered sort quand exactement ?",
      "parentPostTime": "2011-10-12T08:06:56",
      "parentPostId": "332417860"
    },
    {
      "threadId": "373646549",
      "post": "Salut, je suis \"l'obscur auteur de cet article\" et personnellement je trouve très drôle la caricature des Guignols, et leurs créations me font beaucoup rire.\nMais parle nous un peu plus de toi, je suis persuadé que tu intéresserais beaucoup de gens en racontant ce que toi, tu as créé.\nEt je suis parfaitement de ton avis, il est toujours plus facile de critiquer... je ne parle pas de toi...ne te sens pas visé surtout ;-)",
      "time": "2011-10-06T17:23:12",
      "id": "328139949",
      "parentPost": "Qui est le guignol, celui qui a créé des produits révolutionnaires ou l'obscur auteur de cet article? Quand aux Guignols de l'info, ils n'ont pas le monopole du bon goût, de l'intelligence, etc.\nToujours plus facile de caricaturer et de critiquer que de créer. Mais pour le savoir, il faut avoir créer au moins une fois dans sa vie.",
      "parentPostTime": "2011-10-06T16:26:28",
      "parentPostId": "328102109"
    }
  ],
  "profileInfo": {
    "username": "UnSimpleClic",
    "about": "",
    "name": "Ma2thieu",
    "disable3rdPartyTrackers": false,
    "isPowerContributor": false,
    "isAnonymous": false,
    "rep": 1.267803,
    "profileUrl": "https://disqus.com/by/UnSimpleClic/",
    "url": "http://www.unsimpleclic.com",
    "reputation": 1.267803,
    "location": "",
    "isPrivate": false,
    "signedUrl": "http://disq.us/?url=http%3A%2F%2Fwww.unsimpleclic.com&key=VgslJZN_PfoA43jM-5417g",
    "isPrimary": true,
    "joinedAt": "2008-10-14T19:43:49",
    "id": "120666",
    "avatar": {
      "small": {
        "permalink": "https://disqus.com/api/users/avatars/UnSimpleClic.jpg",
        "cache": "//a.disquscdn.com/uploads/users/12/666/avatar32.jpg?1403555818"
      },
      "isCustom": true,
      "permalink": "https://disqus.com/api/users/avatars/UnSimpleClic.jpg",
      "cache": "//a.disquscdn.com/uploads/users/12/666/avatar92.jpg?1403555818",
      "large": {
        "permalink": "https://disqus.com/api/users/avatars/UnSimpleClic.jpg",
        "cache": "//a.disquscdn.com/uploads/users/12/666/avatar92.jpg?1403555818"
      }
    }
  }
}