{
  "comments": [
    {
      "threadId": "4983105542",
      "post": "I found the culprit. If Joe Lhota were mayor all those stray Pikachus would be dead by now. Thanks De Blasio.",
      "time": "2016-07-13T17:58:32",
      "id": "2781180877"
    },
    {
      "threadId": "4971188171",
      "post": "Oh no worries, it wasn't directed at your use of the term, just the term in general.",
      "time": "2016-07-08T22:30:22",
      "id": "2773129620",
      "parentPost": "That's Halperin's term; I should've put quotes around it.",
      "parentPostTime": "2016-07-08T22:29:27",
      "parentPostId": "2773128479"
    },
    {
      "threadId": "4970642158",
      "post": "Seeing John Carpenter doing his 'Elaine Benes meets The Peanuts' dad dancing was something I never knew I needed in my life.\nJohn Carpenter is the fucking coolest.",
      "time": "2016-07-08T18:21:06",
      "id": "2772688131"
    },
    {
      "threadId": "4953794826",
      "post": "It ended up being more or less exactly what I expected it to be. A gorgeous music video for a really great score.",
      "time": "2016-07-01T17:33:28",
      "id": "2760676137"
    },
    {
      "threadId": "4918528875",
      "post": "Luckily downloading videos from YouTube is extremely easy to do.",
      "time": "2016-06-17T18:16:35",
      "id": "2736409841"
    },
    {
      "threadId": "4907544490",
      "post": "I've never felt worse for a boss I soundly defeated than that big ass spider in Limbo.",
      "time": "2016-06-13T18:32:05",
      "id": "2728620088"
    },
    {
      "threadId": "4875454484",
      "post": "For a decade I thought NOTHING BUT TROUBLE was a fever dream I had as a child.",
      "time": "2016-06-01T18:40:58",
      "id": "2706925571",
      "parentPost": "It's good for the kids of today to have movies they won't be sure were real or not.",
      "parentPostTime": "2016-06-01T16:40:53",
      "parentPostId": "2706716720"
    },
    {
      "threadId": "4803040628",
      "post": "Stanley Tucci could continue his role as studio head, Jack Warner... but like, literally a cryogenically frozen head.",
      "time": "2016-05-05T19:19:51",
      "id": "2660467943",
      "parentPost": "Jessica Lange would be the best Lex Luthor, obviously.",
      "parentPostTime": "2016-05-05T19:10:19",
      "parentPostId": "2660450921"
    },
    {
      "threadId": "4307614583",
      "post": "I found The Last Witch Hunter to be a pretty accurate representation of a D&D campaign, in that for every minute of action there's five minutes of trying to find a witch to make a potion.",
      "time": "2015-11-10T22:41:53",
      "id": "2352583382"
    },
    {
      "threadId": "4248984779",
      "post": "In 2006 they were this good, and then they turned back into pumpkins during Game 7 of the NLCS and ushered in a decade of suffering.\n\n\nPersonally I'm too terrified to be cocky.",
      "time": "2015-10-22T14:54:42",
      "id": "2320948169",
      "parentPost": "Gotta disagree about the last part. Mets fans should live it up fully. They have never in their history been this absurdly good. Brag, be cocky, and don't give a crap. Streaks like this don't come along often.",
      "parentPostTime": "2015-10-22T14:51:27",
      "parentPostId": "2320942663"
    },
    {
      "threadId": "4243435197",
      "post": "Alamo South Lamar opening night (daddy needs some new glassware,) IMAX 3D shortly thereafter.",
      "time": "2015-10-20T19:19:03",
      "id": "2317490375"
    },
    {
      "threadId": "4172151688",
      "post": "Exceeded all expectations. Seeing this at Fantastic Fest the other night was one of the best movie theater experiences I've ever had. I'm looking forward to seeing it again tomorrow and being a smug jerk about it.",
      "time": "2015-09-30T01:05:25",
      "id": "2281082437"
    },
    {
      "threadId": "4076182926",
      "post": "They'll just switch to vintage currency.",
      "time": "2015-08-28T19:36:24",
      "id": "2223665914",
      "parentPost": "But their precious guns are more important than just simple money. Hopefully they have plans to switch to some kind of barter system if they do go ahead and secede, cuz they'll be shit BROKE if they do.",
      "parentPostTime": "2015-08-28T19:31:06",
      "parentPostId": "2223623090"
    },
    {
      "threadId": "4033517453",
      "post": "The 90s",
      "time": "2015-08-14T21:46:23",
      "id": "2194579492",
      "parentPost": "",
      "parentPostTime": "2015-08-14T21:27:04",
      "parentPostId": "2194550987"
    },
    {
      "threadId": "4029777577",
      "post": "Good to see the Mets' offense is finally cloacing up.",
      "time": "2015-08-13T18:53:29",
      "id": "2191191602",
      "parentPost": "",
      "parentPostTime": "2015-08-13T18:48:02",
      "parentPostId": "2191180363"
    },
    {
      "threadId": "3970300260",
      "post": "More like Crushing Main Street, amirite?",
      "time": "2015-07-25T18:32:51",
      "id": "2156655774"
    },
    {
      "threadId": "3961401570",
      "post": "For some reason this was the most difficult movie to rent from Blockbuster as an under seventeen year old.",
      "time": "2015-07-23T04:30:41",
      "id": "2152368465"
    },
    {
      "threadId": "3956331994",
      "post": "History has never had Donald Trump leading in the polls in a field of 16 Republican \"candidates.\"",
      "time": "2015-07-21T15:32:27",
      "id": "2148992277",
      "parentPost": "History is not kind to the Democrats after a Democrat has been in office for 2 terms.",
      "parentPostTime": "2015-07-21T15:25:53",
      "parentPostId": "2148977522"
    },
    {
      "threadId": "3956253371",
      "post": "Scrooge McDuck",
      "time": "2015-07-21T14:35:17",
      "id": "2148859558",
      "parentPost": "My thoughts exactly. Who stores $90,000 in cash at their home?",
      "parentPostTime": "2015-07-21T14:32:24",
      "parentPostId": "2148852286"
    },
    {
      "threadId": "3953603764",
      "post": "But what about bathing in cold alcohol?",
      "time": "2015-07-20T19:43:34",
      "id": "2147281738"
    },
    {
      "threadId": "3940448477",
      "post": "My first thought upon reading the headline, \"Man, Jared Fogel just can't catch a break.\"",
      "time": "2015-07-16T16:32:00",
      "id": "2139915680"
    },
    {
      "threadId": "3915777371",
      "post": "I lived in that neighborhood for 5 years. It's East River East and no one can tell me any different.",
      "time": "2015-07-08T15:45:55",
      "id": "2123922713"
    },
    {
      "threadId": "3912527709",
      "post": "Or you could just go to Hill Country Chicken, literally right next door.",
      "time": "2015-07-07T14:39:05",
      "id": "2121475465"
    },
    {
      "threadId": "3872875609",
      "post": "I will be seeing Jaws for the first time next month, floating in an inner tube at the Alamo Drafthouse Rolling Roadshow, which i think is a pretty neat way to right an egregious wrong.",
      "time": "2015-06-23T19:45:51",
      "id": "2095288225"
    },
    {
      "threadId": "3815232764",
      "post": "Samesies. If someone cuts me off I have no problem giving them a flat tire.",
      "time": "2015-06-02T16:44:05",
      "id": "2058307839",
      "parentPost": "Hopefully she waits until the \"passing lane\" is clear before dodging to the left to avoid the grate.  Can't stand it when people suddenly shift \"lanes.\"  (Yes, I do consider walking on sidewalks to be very similar to driving on roads.)",
      "parentPostTime": "2015-06-02T16:40:34",
      "parentPostId": "2058301658"
    },
    {
      "threadId": "3766708597",
      "post": "If anyone's a little short for a stormtrooper it's Daniel Radcliffe.",
      "time": "2015-05-15T18:07:45",
      "id": "2027389919",
      "parentPost": "He's not the only one. Apparently some extra friends of mine saw Daniel Radcliffe and his mate hanging about the set trying to get onto it.",
      "parentPostTime": "2015-05-15T17:03:43",
      "parentPostId": "2027171414"
    },
    {
      "threadId": "3760979138",
      "post": "The vibe I'm getting from it so far, oneish chapters in (are they chapters? It can't possibly be measured in something as mundane as chapters,) is that this is going to be the Southland Tales of books.",
      "time": "2015-05-13T17:37:53",
      "id": "2022704807"
    },
    {
      "threadId": "3719794490",
      "post": "Hopefully her word salad gets tossed.",
      "time": "2015-04-28T14:48:17",
      "id": "1991821389",
      "parentPost": "Pamela Geller will put together one of her word salad ads to combat this soon enough.",
      "parentPostTime": "2015-04-28T14:43:14",
      "parentPostId": "1991810414"
    },
    {
      "threadId": "3665756072",
      "post": "I wonder which channel is going to pick up the exclusive rights to his execution.",
      "time": "2015-04-08T19:25:58",
      "id": "1953364661"
    },
    {
      "threadId": "3637090940",
      "post": "“Asking the landlord what was going on would be the best way to handle the situation.”\n\n\n\nASKLFJASHDFKJASDFH NO IT OBVIOUSLY FUCKING WOULDN'T!",
      "time": "2015-03-29T16:30:52",
      "id": "1934646730"
    },
    {
      "threadId": "3632541800",
      "post": "\"Deliciously Evil\"",
      "time": "2015-03-28T00:24:52",
      "id": "1932331602",
      "parentPost": "The best was the main bad guy who tried to hire Speed to race for him. He was EXACTLY like one of the characters from the cartoon in how crazy and silly his whole story was. He completely fit the style of the movie.",
      "parentPostTime": "2015-03-27T22:03:14",
      "parentPostId": "1932139246"
    },
    {
      "threadId": "3625829890",
      "post": "Nothing. 718-4-LYFE.\n\n\n347 can eat a bag of dicks.",
      "time": "2015-03-25T16:36:00",
      "id": "1927429029"
    },
    {
      "threadId": "3609913489",
      "post": "Yeah, just walk from Canarsie. No big deal.",
      "time": "2015-03-19T19:47:47",
      "id": "1916896072",
      "parentPost": "things to do about the L train: Don't take it, bike or walk over the bridge.",
      "parentPostTime": "2015-03-19T19:47:19",
      "parentPostId": "1916895233"
    },
    {
      "threadId": "3590282490",
      "post": "I actually don't ride a bike in the city. I just enjoy seeing asshole drivers get their comeuppance.",
      "time": "2015-03-12T21:18:58",
      "id": "1904054142",
      "parentPost": "Case in point.",
      "parentPostTime": "2015-03-12T21:16:24",
      "parentPostId": "1904049819"
    },
    {
      "threadId": "3581620811",
      "post": "Hudson River Hawk",
      "time": "2015-03-10T00:20:44",
      "id": "1897987856",
      "parentPost": "<b><i>The 5th Allement</i></b>",
      "parentPostTime": "2015-03-09T22:13:46",
      "parentPostId": "1897790789"
    },
    {
      "threadId": "3581224885",
      "post": "You could just go outside and watch horrible vapid people interacting with each other for free.",
      "time": "2015-03-09T19:27:57",
      "id": "1897404363",
      "parentPost": "I really do want to cut the cable but I can't find any cable alternative that gives you Bravo and unfortunately I have a horrible addiction to most of the Bravo programming.\n\n\nDoes anyone know of any alternatives that include Bravo?",
      "parentPostTime": "2015-03-09T19:26:15",
      "parentPostId": "1897401091"
    },
    {
      "threadId": "3569846259",
      "post": "I read the article, and I posted my comment after he initially rejected the plea deal.",
      "time": "2015-03-06T19:28:22",
      "id": "1892361257",
      "parentPost": "maybe you should read the article again.  the plea deal is for 3 to 9 years.  so on March 25th the MAX he will get is 9 years.  that's far from \"frying\" for killing a child.",
      "parentPostTime": "2015-03-06T19:13:26",
      "parentPostId": "1892294931"
    },
    {
      "threadId": "3530347563",
      "post": "The few times I've been on the F express it's been magical, but I've only ever had to go as far as Church Ave.",
      "time": "2015-02-19T19:01:24",
      "id": "1864279449",
      "parentPost": "When the F/Q go express I always get excited--until I realize that means in reality the train CRAWLS in between stations because there are workers on the tracks.",
      "parentPostTime": "2015-02-19T18:54:06",
      "parentPostId": "1864264869"
    },
    {
      "threadId": "3512607851",
      "post": "\"I'll wash my hands when I'm dead.\"",
      "time": "2015-02-13T16:04:57",
      "id": "1851852921",
      "parentPost": "I would imagine that the underside of a urinal at the old Shea Stadium after a day-night double-header against the Dodgers would be cleaner (and smell better) than any cab seat belt.",
      "parentPostTime": "2015-02-13T16:00:09",
      "parentPostId": "1851845076"
    },
    {
      "threadId": "3509588614",
      "post": "GOOD!",
      "time": "2015-02-12T15:26:11",
      "id": "1849821227"
    },
    {
      "threadId": "3508115275",
      "post": "Has there ever been a worse week for journalism?",
      "time": "2015-02-12T04:06:00",
      "id": "1849096476"
    },
    {
      "threadId": "3492524599",
      "post": "I cannot wait to see the hijinks that ensue every time he's caught chopping down people's bushes and breaking their pottery looking for change.",
      "time": "2015-02-06T23:37:59",
      "id": "1839457555",
      "parentPost": "If he shoots lasers from his sword that cause his enemies to evaporate, I'm sold.",
      "parentPostTime": "2015-02-06T23:35:19",
      "parentPostId": "1839454210"
    },
    {
      "threadId": "3491946948",
      "post": "I'd be perfectly fine with a prequel as long as it's CINNA AND THE CITY and features copious amounts of Effie Trinket.",
      "time": "2015-02-06T18:50:25",
      "id": "1838989250"
    },
    {
      "threadId": "3491833856",
      "post": "I'll continue to get my news the way I have for years, by watching NETWORK with a CNN logo taped to the bottom corner of my TV.",
      "time": "2015-02-06T18:01:21",
      "id": "1838899608"
    },
    {
      "threadId": "3485071109",
      "post": "Holy shit. We did it.",
      "time": "2015-02-04T16:12:05",
      "id": "1834687349"
    },
    {
      "threadId": "3476725474",
      "post": "At this point I fully expect them to become mecha pilots in FURIOUS 8",
      "time": "2015-02-02T20:39:30",
      "id": "1831162012"
    },
    {
      "threadId": "3478939345",
      "post": "What a fucking putz. I hope this guy dies in a fire.",
      "time": "2015-02-02T18:38:25",
      "id": "1830946075"
    },
    {
      "threadId": "3449377553",
      "post": "MORE LIKE OSIRIS ARRESTY, AMIRITE?!",
      "time": "2015-01-23T19:50:46",
      "id": "1813471647"
    },
    {
      "threadId": "3445436894",
      "post": "I vote for \"current\" as a write-in candidate. That's how this works, right?",
      "time": "2015-01-22T15:41:02",
      "id": "1811166252"
    },
    {
      "threadId": "3445096895",
      "post": "\"Oh frabjous day! Callooh! Callay!\" I chortled in my joy.",
      "time": "2015-01-22T15:19:36",
      "id": "1811128271"
    },
    {
      "threadId": "3442097607",
      "post": "Well, I'm rent stabilized now, so as long as NYC's housing crisis remains constant, it'll snow one less day in January.",
      "time": "2015-01-21T22:53:32",
      "id": "1809515631",
      "parentPost": "you need to cut that out, for our sake if not your own.",
      "parentPostTime": "2015-01-21T22:51:07",
      "parentPostId": "1809495910"
    },
    {
      "threadId": "3426373776",
      "post": "That was meant to be sincere. I left LI as soon as I could to escape that bubble. I'm obviously not doing a very good job expressing myself today so I'm just going to go back to doing work.",
      "time": "2015-01-16T19:54:52",
      "id": "1796317051",
      "parentPost": "Bro, you're a certified asshole with that way of thinking. Step out of your bubble.",
      "parentPostTime": "2015-01-16T19:40:05",
      "parentPostId": "1796292932"
    },
    {
      "threadId": "3402809256",
      "post": "That would be interesting as long as Whoopi started it.",
      "time": "2015-01-08T21:17:59",
      "id": "1779681067",
      "parentPost": "Even if Whoopi Goldburg and Hassleback get into a fist fight?",
      "parentPostTime": "2015-01-08T21:14:48",
      "parentPostId": "1779673511"
    },
    {
      "threadId": "3392891644",
      "post": "Well then, I met your college screenwriting professor at a screening/Q&A at Nitehawk a few months ago.\n\n\n... and then I found five bucks.\n\n\n#CoolStoryBro",
      "time": "2015-01-05T22:37:20",
      "id": "1773665216",
      "parentPost": "",
      "parentPostTime": "2015-01-05T22:28:53",
      "parentPostId": "1773654415"
    },
    {
      "threadId": "3380640151",
      "post": "Or how about \"NYPD, stop fucking whining. - The Public\"",
      "time": "2015-01-01T20:10:31",
      "id": "1767588977",
      "parentPost": "At least this one makes sense grammatically.\n\nHow much does it cost to get one of these, anyway? Wouldn't it be funny to get one that says, \"Mayor de Belasio did nothing wrong!\" or \"We support the mayor - The NYPD!\"?",
      "parentPostTime": "2015-01-01T19:46:08",
      "parentPostId": "1767537348"
    },
    {
      "threadId": "3327242619",
      "post": "TAQU'IL/FORD 2016",
      "time": "2014-12-15T21:07:36",
      "id": "1743860290",
      "parentPost": "So THAT'S what this is referencing!\n\nhttps://www.youtube.com/watch?v=Xq7Vm4wM2p4",
      "parentPostTime": "2014-12-15T19:57:52",
      "parentPostId": "1743727717"
    },
    {
      "threadId": "3317993234",
      "post": "Pretty sure I've read something about this happening in Massachusetts before.",
      "time": "2014-12-12T22:34:34",
      "id": "1739527755"
    },
    {
      "threadId": "3316461185",
      "post": "Actually, most.",
      "time": "2014-12-12T18:02:38",
      "id": "1739127098",
      "parentPost": "How much of that 12 hour work day did you actually work?",
      "parentPostTime": "2014-12-12T15:53:40",
      "parentPostId": "1738807827"
    },
    {
      "threadId": "3310675544",
      "post": "Insect-based protein will definitely happen. I just hope that whatever apocalypse makes them happen takes me out first.",
      "time": "2014-12-11T20:32:10",
      "id": "1737443110",
      "parentPost": "Insect-based protein is not going to happen. Stop trying to make bugs happen.",
      "parentPostTime": "2014-12-10T21:04:25",
      "parentPostId": "1735701271"
    },
    {
      "threadId": "3307470824",
      "post": "I've always wondered how The Penguin kept getting out of Arkham.",
      "time": "2014-12-09T22:30:01",
      "id": "1734008589"
    },
    {
      "threadId": "3291095598",
      "post": "As @nicemarmot47:disqus says below, they're not only fundamentalists, but fundamentalists with their own police force to hush up the horrific crimes they commit against women and children, enforcers to throw acid in the faces of whistleblowers who dare to speak out against those crimes, and enough political sway to make sure they remain insulated from justice (not that justice exists anymore anyway.)\n\n\nOn top of that, now sometimes they're actually Bono.\n\n\nFuck hasids.",
      "time": "2014-12-04T21:58:09",
      "id": "1726143785",
      "parentPost": "Kind of a bigoted comment there, killer. You might want to back it down a bit.",
      "parentPostTime": "2014-12-04T20:46:59",
      "parentPostId": "1726035131"
    },
    {
      "threadId": "3265147480",
      "post": "I keep reading that as \"Laser Rink\" and keep getting really disappointed",
      "time": "2014-11-26T16:30:20",
      "id": "1713863171"
    },
    {
      "threadId": "3243220620",
      "post": "Followed by COOK THIEF WIFE LOVER",
      "time": "2014-11-20T16:12:05",
      "id": "1703426495",
      "parentPost": "Followed by APACHE ZULU KNIGHT?",
      "parentPostTime": "2014-11-20T01:21:52",
      "parentPostId": "1702397241"
    },
    {
      "threadId": "3211298790",
      "post": "Dad: Everything the light touches is public property.\n\n\nSon: But what about that shadowy place under the mega-highrise?\n\n\nDad: That's beyond our community board. You must never go there.",
      "time": "2014-11-10T18:25:19",
      "id": "1686120178",
      "parentPost": "",
      "parentPostTime": "2014-11-10T18:18:29",
      "parentPostId": "1686109236"
    },
    {
      "threadId": "3202540272",
      "post": "The best part about this isn't anything having to do with the video itself, it's that Adult Swim has a show called INFOMERCIALS that they air at 4am... but I work in TV so maybe I'm the only one infuriated by how genius that is.",
      "time": "2014-11-07T20:02:46",
      "id": "1681866715"
    },
    {
      "threadId": "3141603092",
      "post": "The Horror At Red Hook is actually about Taylor Swift discovering Fairway.",
      "time": "2014-10-21T20:38:33",
      "id": "1647086973",
      "parentPost": "OH GOD IT IS.  Ph'nglui mglw'nafh Cthulhu R'lyeh wgah'nagl fhtagn, I pray only to be eaten first so the horror may stop . . . .",
      "parentPostTime": "2014-10-21T20:35:22",
      "parentPostId": "1647083272"
    },
    {
      "threadId": "3120749272",
      "post": "I think the fact that Carroll Gardens and Red Hook are the same ZIP code gave this site an aneurism.",
      "time": "2014-10-15T20:54:47",
      "id": "1637934373"
    },
    {
      "threadId": "3113520353",
      "post": "Everyone knows that the best part of any alibi is the hole in the middle.",
      "time": "2014-10-13T20:42:04",
      "id": "1633924894",
      "parentPost": "The Dunkin' Donuts guy thinks he has an alibi but it's full of holes.",
      "parentPostTime": "2014-10-13T20:39:19",
      "parentPostId": "1633920768"
    },
    {
      "threadId": "3076413567",
      "post": "I'm assuming the Ziegfeld was left off this list so it can continue to be the Best Theater For Heytherekiller To See Movies By Himself.",
      "time": "2014-10-02T17:24:50",
      "id": "1616740723"
    },
    {
      "threadId": "3075782044",
      "post": "Transfer is available to the F/E/R/A/L trains.",
      "time": "2014-10-02T13:37:46",
      "id": "1616387242"
    },
    {
      "threadId": "3066596513",
      "post": "So what seitanic dish will Alamo be concocting to pair with this can't miss cinematic event?",
      "time": "2014-09-29T21:30:46",
      "id": "1611616818"
    },
    {
      "threadId": "3047424653",
      "post": "Were the Long Island woman's pet goats mauled to death by the two canine survivors from current New York Jet Michael Vick's dogfighting ring?",
      "time": "2014-09-23T21:58:38",
      "id": "1602746725"
    },
    {
      "threadId": "3031066105",
      "post": "It isn't the music I'm worried about. It's what happens at 11:15 when thousands of people, many of them tripping balls, are forced out of the confines of the pier and realize (or don't realize) it's a 20 minute walk to the F train.",
      "time": "2014-09-18T20:46:04",
      "id": "1595215198",
      "parentPost": "Yeah, this was literally down the block from my apartment, so not technically Red Hook. Aside from the skylights and some booming bass until 11pm, it wasn't too bad. As long as it doesn't wake my daughter up, I'm fine.",
      "parentPostTime": "2014-09-18T20:42:37",
      "parentPostId": "1595210302"
    },
    {
      "threadId": "3030066368",
      "post": "+1 Space Mutiny... or Big McLargeHuge will get you.",
      "time": "2014-09-18T14:37:20",
      "id": "1594613301",
      "parentPost": "My essential MST3K viewings and recommendations are always \"Mitchell\", \"The Final Sacrifice\", \"Laser Blast\", \"The Hand of Satan\", \"Prince of Space\", \"Legend of Boggy Creek II\" and \"Pod People\". \n\nIt's worth the money just for those titles alone. \n\nIt STINKS!",
      "parentPostTime": "2014-09-18T14:35:57",
      "parentPostId": "1594611549"
    },
    {
      "threadId": "3009662468",
      "post": "You'd think with the whole jewish hollywood conspiracy thing that \"J Date: The Moishe Picture\" would beat this to market",
      "time": "2014-09-11T21:37:51",
      "id": "1584894921"
    },
    {
      "threadId": "3008746262",
      "post": "Tribute in Fleshlight",
      "time": "2014-09-11T15:40:59",
      "id": "1584297349"
    },
    {
      "threadId": "3003273672",
      "post": "I'm glad Hell's Kitchen is finally back to living up to its name.",
      "time": "2014-09-09T21:37:28",
      "id": "1581638616"
    },
    {
      "threadId": "3002884974",
      "post": "For the first time in my life, I am ready to fully embrace NIMBYism. This is going to be an absolute shitshow.",
      "time": "2014-09-09T18:55:42",
      "id": "1581390754"
    },
    {
      "threadId": "2990726952",
      "post": "Dear GoPro, \n\n\nGet into the law enforcement body camera business.\n\n\n\n\nLove,\nHeytherekiller\n\n\nP.S. feel free to send some millions my way.",
      "time": "2014-09-05T13:29:30",
      "id": "1575243250"
    },
    {
      "threadId": "2988148224",
      "post": "Way to bury the lede. \n\n\nHere's a better headline for you:\n\nFUCK WHOLE FOODS AND ALL THE OTHER GROCERY POSEURS. FAIRWAY 4EVA BITCHESSSSSSSS!!!!!!!",
      "time": "2014-09-04T17:00:15",
      "id": "1574037416"
    },
    {
      "threadId": "2988011009",
      "post": "Nah. Times Square used to be a scummy cesspool of putrid shit. \n\n\nNow it's a gleaming cesspool of boring shit.",
      "time": "2014-09-04T16:50:50",
      "id": "1574023666",
      "parentPost": "Times Square is a scummy cesspool of putrid shit. There, I've said it!",
      "parentPostTime": "2014-09-04T16:14:58",
      "parentPostId": "1573972875"
    },
    {
      "threadId": "2984773849",
      "post": "That is some serious karma right there. How much dosh did Bernie screw the universe out of?",
      "time": "2014-09-03T15:46:06",
      "id": "1572103856"
    },
    {
      "threadId": "2984464364",
      "post": "Hate crime. Lol.",
      "time": "2014-09-03T13:49:43",
      "id": "1571923071"
    },
    {
      "threadId": "2982139413",
      "post": "My dad scoops out the insides of the bagel, puts the schmear in the trench, and then covers it back up with the excavated bagelstuff. \n\n\nI'm not sure if he's crazy or a hero.",
      "time": "2014-09-02T19:38:50",
      "id": "1570830295"
    },
    {
      "threadId": "2961851991",
      "post": "This is a fantastic article.\n\n\nI hope you've beefed up the BAD servers in anticipation of whatever bullshit \"retaliation\" will come from these mouthbreathing shit stains.",
      "time": "2014-08-26T21:31:39",
      "id": "1560690319"
    },
    {
      "threadId": "2958462184",
      "post": "Next time the conductor yells \"Use all available doors or so help me god, I'll turn this train around!\" you'd better take them seriously.\n\n\nAlso, she should be fired.",
      "time": "2014-08-25T19:15:36",
      "id": "1558696858"
    },
    {
      "threadId": "2943970710",
      "post": "Spice World is an underrated science fiction gem. Also, the Spice Girls are time lords.",
      "time": "2014-08-20T16:39:49",
      "id": "1551418919",
      "parentPost": "Makes for an excellent double feature with \"Spice World.\"",
      "parentPostTime": "2014-08-20T16:34:40",
      "parentPostId": "1551410740"
    },
    {
      "threadId": "2938670498",
      "post": "Oh yeah, those three men that attacked him...\n\nI'll bet those obnoxious subway musicians didn't help either. http://youtu.be/RoysQe-2HS4",
      "time": "2014-08-18T21:51:26",
      "id": "1548586698"
    },
    {
      "threadId": "2921038943",
      "post": "\"But the festival's younger sibling Fantastic Arcade (also entirely contained within the festival itself; what sort of relative does that make it?)\"\n\n\n\nI think that makes it Fantastic Fest's Kuato.",
      "time": "2014-08-12T15:55:56",
      "id": "1539184399"
    },
    {
      "threadId": "2906190434",
      "post": "I guess they forgot to look at this one.",
      "time": "2014-08-06T21:15:28",
      "id": "1530783752",
      "parentPost": "And charts. If they can refer to charts and graphs to re-assure themselves, that's good too",
      "parentPostTime": "2014-08-06T21:13:17",
      "parentPostId": "1530780538"
    },
    {
      "threadId": "2905974738",
      "post": "Look on the bright side. Once everyone knows he killed a kid, maybe he'll get shanked!",
      "time": "2014-08-06T18:56:38",
      "id": "1530549793",
      "parentPost": "\"Prosecutors had charged Elardo with a felony count of \nleaving the scene of a fatal crash, also saying they had \"credible \ninformation\" he'd been drinking alcohol at two places before it \nhappened.\"\n\n\"Elardo will be sentenced to 1 1/3 to 4 years in prison.\"\n\n-1 1/3 to 4 years, are you fucking kidding me?!",
      "parentPostTime": "2014-08-06T18:50:07",
      "parentPostId": "1530539712"
    },
    {
      "threadId": "2905726073",
      "post": "That's nice. I want less people murdered by cops.\n\nSing us out, Stones... https://www.youtube.com/watch?v=XIX0ZDqDljA",
      "time": "2014-08-06T17:05:43",
      "id": "1530369731"
    },
    {
      "threadId": "2905659371",
      "post": "Why not go for the hat trick. Dawn of the Return of the Rise of the Worst Generation of Movie Titles In History: The Squeakquel",
      "time": "2014-08-06T16:40:22",
      "id": "1530330742",
      "parentPost": "Or the Dawn of... or the Return of...",
      "parentPostTime": "2014-08-06T16:38:17",
      "parentPostId": "1530327489"
    },
    {
      "threadId": "2903398413",
      "post": "Not unexpected, but that sucks, especially considering how good the new cartoon is. Seriously, it's a significantly better show than the one I (read: us millenials) grew up on. It successfully defeated nostalgia.",
      "time": "2014-08-05T20:12:30",
      "id": "1528968949"
    },
    {
      "threadId": "2892809465",
      "post": "I didn't realize that 10 years ago Williamsburg had no subway access and one bus line.",
      "time": "2014-08-01T20:34:05",
      "id": "1520573669"
    },
    {
      "threadId": "2886392335",
      "post": "Caulk your Uber SUV and float it across the Interboro.",
      "time": "2014-07-30T20:46:22",
      "id": "1513133754",
      "parentPost": "\"New Frontier\" makes it sound like you get a free case of dysentery when signing the lease.",
      "parentPostTime": "2014-07-30T20:42:13",
      "parentPostId": "1513126215"
    },
    {
      "threadId": "2864773068",
      "post": "I really hope she's playing \"Punk Rock Girl\" as seen in Sam Raimi's Spider-Man https://www.youtube.com/watch?v=3vcVyuaqiaE",
      "time": "2014-07-22T18:19:06",
      "id": "1498334794"
    },
    {
      "threadId": "2864523324",
      "post": "There are other kinds of casinos?",
      "time": "2014-07-22T16:40:42",
      "id": "1498151842",
      "parentPost": "I dunno, in theory casinos should make money but.... http://www.philly.com/philly/business/20140722_Atlantic_City_lights_dimmer_in_September.html.\n\n\nHow about we just don't open casinos that feed on the desperation of poor people?",
      "parentPostTime": "2014-07-22T16:39:45",
      "parentPostId": "1498150259"
    },
    {
      "threadId": "2864189754",
      "post": "The flag is only getting a pass because it's white.",
      "time": "2014-07-22T14:22:08",
      "id": "1497925982",
      "parentPost": "What does it say about the millions spent on homeland security if just anyone can go up there and place a flag and the police just shrug like \"whaddaya want from me?\"  Incredible.",
      "parentPostTime": "2014-07-22T14:07:53",
      "parentPostId": "1497906532"
    },
    {
      "threadId": "2862382255",
      "post": "YAWN",
      "time": "2014-07-21T21:55:29",
      "id": "1496618585",
      "parentPost": "What a disgusting excuse for a mother.",
      "parentPostTime": "2014-07-21T21:53:35",
      "parentPostId": "1496606883"
    },
    {
      "threadId": "2854026210",
      "post": "Also, publicly, and with lots of internet snark.",
      "time": "2014-07-18T15:41:47",
      "id": "1491497970",
      "parentPost": "I mean, I thought if everyone could choose the way to die, it would be painfully and with lots of metal crushing them due to negligence.",
      "parentPostTime": "2014-07-18T15:36:38",
      "parentPostId": "1491490367"
    },
    {
      "threadId": "2851853068",
      "post": "18 year olds are not Millennials, they're Generation Z. I know the olds cant tell us apart, but there are a large number of differences between people who were 'coming of age around the new millennium' and people who were four years old when 9/11 happened. \n\n\nThe two biggest things we have in common are that we're all young and we're all fucked.",
      "time": "2014-07-17T19:26:10",
      "id": "1490276083"
    },
    {
      "threadId": "2845821737",
      "post": "Same as it ever was.\n\nSame as it ever was.\n\nSame as it ever was.\n\nSame as it ever was.\n\nhttps://www.youtube.com/watch?v=R8-p_fPH4UQ",
      "time": "2014-07-15T15:35:02",
      "id": "1486217495"
    },
    {
      "threadId": "2835774320",
      "post": "The only thing I ever learned from my grandparents was how to be racist in Yiddish.",
      "time": "2014-07-11T20:29:50",
      "id": "1481001106",
      "parentPost": "Boychick, don't be such a schmendrick. If you are a REAL REAL New Yorker, the correct way of letting people know how you <i>really</i> feel about them is in Yiddish.\n\nSide note: Is discussing BJs now mysoginistic? <i>Really?!</i>",
      "parentPostTime": "2014-07-11T17:36:57",
      "parentPostId": "1480754389"
    },
    {
      "threadId": "2825535109",
      "post": "On a related note, anyone want to buy my Mitchell x Marvel x Mondo Ant-Man prints off me?",
      "time": "2014-07-07T22:43:49",
      "id": "1472961619"
    },
    {
      "threadId": "2812285674",
      "post": "Not in any language we can understand.\n\n\nAlso, that movie is the reason why I have that fear. 5 year olds don't understand satire.",
      "time": "2014-07-02T14:56:34",
      "id": "1465066358",
      "parentPost": "But do the plants sing stage tunes?",
      "parentPostTime": "2014-07-02T14:53:27",
      "parentPostId": "1465061776"
    },
    {
      "threadId": "2807762151",
      "post": "Yup.\n\n\nBig effing scam.",
      "time": "2014-06-30T19:51:59",
      "id": "1462194341"
    },
    {
      "threadId": "2794121379",
      "post": "Would you prefer \"Presumed Lonely Old Cat Lady\"",
      "time": "2014-06-25T13:52:18",
      "id": "1453664139",
      "parentPost": "Crazy video. Would be interested to know if the \"granny\" actually has kids & grandkids or if she's just a \"68-year-old woman.\"",
      "parentPostTime": "2014-06-25T13:38:50",
      "parentPostId": "1453636185"
    },
    {
      "threadId": "2781877717",
      "post": "Lynch Street seems like a fitting place for hate crimes to occur.",
      "time": "2014-06-20T19:00:05",
      "id": "1445934803"
    },
    {
      "threadId": "2778741381",
      "post": "#JusticeForSliders\n#CraveIsNotACrime\n#4thMealAmendment \n#BURGHAZI",
      "time": "2014-06-19T17:49:36",
      "id": "1444241362"
    },
    {
      "threadId": "2775296769",
      "post": "Liz and Dick you say... I think Lindsay Lohan can sum up my thoughts on these two idiot assholes. https://www.youtube.com/watch?v=gL4BAWDR0eA&feature=kp",
      "time": "2014-06-18T14:42:27",
      "id": "1441512127"
    },
    {
      "threadId": "2753214838",
      "post": "I'll take predictable and average over \"Seriously, Studio? How did you manage to fuck that one up!?\"\n\n\nThat being said, the fan art that James Gunn is sharing on Facebook puts these official posters to shame. \n\n\nhttps://www.facebook.com/jgunn/photos",
      "time": "2014-06-10T18:25:14",
      "id": "1428872664",
      "parentPost": "I am the only person I know who thinks all the Guardians posters just look like average, predictable posters. I haven't been this lonely since I refused to listen to any music except Buddy Holly in elementary school.",
      "parentPostTime": "2014-06-10T17:56:22",
      "parentPostId": "1428824659"
    },
    {
      "threadId": "2750781001",
      "post": "Visionary directors have ideas. Studios don't want ideas. They want money.",
      "time": "2014-06-09T21:42:35",
      "id": "1427524880",
      "parentPost": "I personally don't think the X-Men franchise NEEDS Singer. As X-Men: First Class proved. \n Singer is a journeyman director who can do very good with great material ( as the story of X-MEN: DOFP was ). I am certain Matthew Vaughn would have been great too. Singer is certainly not a director with a singular vision without whom this franchise will fail. \n I would love to see a different or visionary director take the helm of the next movie and give us a flavour we have never seen before.",
      "parentPostTime": "2014-06-09T21:39:58",
      "parentPostId": "1427521571"
    },
    {
      "threadId": "2735523459",
      "post": "Oh good. Neither of my alone spots are on this list.",
      "time": "2014-06-05T15:44:57",
      "id": "1421085326"
    },
    {
      "threadId": "2736126512",
      "post": "My favorite part of Yankee Stadium is how they spent a billion dollars on it but you have to flush your own piss. At least when I get food poisoning at Citi Field the Danny Meyer Dookie Bomb™ takes care of itself.",
      "time": "2014-06-05T14:41:24",
      "id": "1420986608",
      "parentPost": "BUT a better stadium for crowds.  The old one was torture to watch games at, let's be honest.",
      "parentPostTime": "2014-06-04T18:32:11",
      "parentPostId": "1419597463"
    },
    {
      "threadId": "2733983730",
      "post": "FYI, the fancy $4 \"Dark Sky\" app for people who use Android is called ARCUS and it's free, https://play.google.com/store/apps/details?id=com.arcusweather.darksky",
      "time": "2014-06-03T21:39:54",
      "id": "1418290359"
    },
    {
      "threadId": "2732932142",
      "post": "Nice URL. \n\n\nIf that train had actually been hotboxed all those passengers would've transferred to the 420 train to Dominos.",
      "time": "2014-06-03T13:11:14",
      "id": "1417515774"
    },
    {
      "threadId": "2731319022",
      "post": "No.\nAnd at $24 a plate, double no.\nAnd and ants from Mexico? We can't even souce ANTS from the US? Triple no.",
      "time": "2014-06-02T19:53:00",
      "id": "1416538265"
    },
    {
      "threadId": "2717145204",
      "post": "They should just ban kids from school. Less school shootings and less teachers perving on students. Two birds, one bomb threat.",
      "time": "2014-05-27T21:19:29",
      "id": "1407268774"
    },
    {
      "threadId": "2716988310",
      "post": "So now in addition to being terrified that I'll be frozen and shattered by one of those hissing Nitrogen tanks on every corner of midtown exploding, I've got Rube Goldbergian saw blade attacks to watch out for.",
      "time": "2014-05-27T19:55:25",
      "id": "1407144901"
    },
    {
      "threadId": "2716582015",
      "post": "California, eh?",
      "time": "2014-05-27T16:56:55",
      "id": "1406763615"
    },
    {
      "threadId": "2716575097",
      "post": "Because you can afford to take an Uber Helicopter wherever you want to go.",
      "time": "2014-05-27T16:44:28",
      "id": "1406745905",
      "parentPost": "How does having a Trust Fund make you \"really upwardly mobile\"?",
      "parentPostTime": "2014-05-27T16:42:40",
      "parentPostId": "1406743432"
    },
    {
      "threadId": "2705262153",
      "post": "But what will the plebeillionaires who don't have helicopters do when the LIRR goes on strike? Wait in traffic on the Jitney with the rest of the poseurs?!",
      "time": "2014-05-22T17:45:36",
      "id": "1399717367"
    },
    {
      "threadId": "2702768309",
      "post": "IBS: Irritable Batman v Superman",
      "time": "2014-05-21T17:50:47",
      "id": "1398082320",
      "parentPost": "I think it also needs an 'Into'.\n\n\nInto the Rise of the Dawn of Justice.",
      "parentPostTime": "2014-05-21T17:36:39",
      "parentPostId": "1398034021"
    },
    {
      "threadId": "2689031085",
      "post": "Agreed. Saw it at the (one real) IMAX in NYC last night. Everyone clapped at the IMAX countdown, myself included. It's a pretty spectacular way to get pumped for a giant fucking movie in a state of the art theater in general, but even better with the (#spoileralert) Godzilla roar added.",
      "time": "2014-05-16T18:05:34",
      "id": "1389203158",
      "parentPost": "It doesn't matter.  Trust me, IMAX 3D is the only way to see this.",
      "parentPostTime": "2014-05-16T05:04:46",
      "parentPostId": "1388383755"
    },
    {
      "threadId": "2688518285",
      "post": "It continues to make me sad that Mass Effect will be a movie and not a TV show. It will make me even sadder when they announce whoever is cast as Shepard. Not because I won't like whoever it is, but because there's no reason for Shepard to be in it at all.",
      "time": "2014-05-15T22:18:26",
      "id": "1387946697"
    },
    {
      "threadId": "2674859281",
      "post": "If only those carjackers were armed, this senseless tragedy could've been avoided.",
      "time": "2014-05-10T14:15:38",
      "id": "1378102383"
    },
    {
      "threadId": "2670342049",
      "post": "And how do you feel about Chelsea Clinton?",
      "time": "2014-05-08T17:30:31",
      "id": "1375372781",
      "parentPost": "There's an asshole at my job in NYC named Chelsea Brooklyn.",
      "parentPostTime": "2014-05-08T17:11:52",
      "parentPostId": "1375343497"
    },
    {
      "threadId": "2669903116",
      "post": "Despite all his rage he's still just Nicolas Cage.",
      "time": "2014-05-08T15:15:38",
      "id": "1375153677"
    },
    {
      "threadId": "2155387469",
      "post": "That show has jokes?",
      "time": "2014-05-08T04:17:37",
      "id": "1374588200",
      "parentPost": "What about \"2 Broke Girls\" ?  No show has more perverted sexual jokes than that show.",
      "parentPostTime": "2014-05-08T02:58:53",
      "parentPostId": "1374522772"
    },
    {
      "threadId": "2667527145",
      "post": "Democracy is a lie. The only way I'll ever consider yogurt the state snack is if it's dirty water hot dog flavored.",
      "time": "2014-05-07T14:16:26",
      "id": "1373481763"
    },
    {
      "threadId": "2665872816",
      "post": "Chiara de Blogsio.\n\n\nThat's all I wanted to say.",
      "time": "2014-05-06T20:56:59",
      "id": "1372583573"
    },
    {
      "threadId": "2665711186",
      "post": "William Lustig did a Q&A a few weeks ago after a screening of Vigilante at Nitehawk Cinema (along with the writer, Richard Vetere, who was in attendance, and Robert Forster who Lustig called while he was out at dinner in LA, and made him participate over the phone).\n\n\nIn addition to teaming up with Refn on this, they also have a commentary track on the the blu-ray re-release of THE VIOLATION OF CLAUDIA, one of the porns that Lustig directed under the name \"Billy Bagg,\" which, coincidentally, was written by Vetere under the name Travis Web (apparently neither of them knew that before the Q&A).",
      "time": "2014-05-06T20:23:11",
      "id": "1372533591"
    },
    {
      "threadId": "2662855568",
      "post": "Thats for a family of four, which I imagine is one parent with three kids, all of whom have two jobs.",
      "time": "2014-05-05T17:41:24",
      "id": "1370631562",
      "parentPost": "All I got from this is that I need six figures to qualify as \"middle income.\" Well, there's a blow to my ego.",
      "parentPostTime": "2014-05-05T17:38:10",
      "parentPostId": "1370626636"
    },
    {
      "threadId": "2656097586",
      "post": "You have to be true to the real character inside... by changing his origin story and giving him daddy issues.",
      "time": "2014-05-02T19:25:56",
      "id": "1366709457"
    },
    {
      "threadId": "2650879086",
      "post": "Disney responds by playing funny games with Sony, by which I mean breaking into their house and torturing their family, because they can.",
      "time": "2014-04-30T18:56:30",
      "id": "1362754500",
      "parentPost": "OKAY FINE, INDUSTRY GOSSIP: THEY WEREN'T GOING TO PUT THESE OUT YET THEN SPILLED THE IMAGES TO TRY AND PLAY SPOILER TO STAR WARS. IF YOU DON'T THINK RIVAL STUDIOS PLAY PETTY GAMES WITH EACH OTHER THEN YOU HAVEN'T DEALT WITH THEM.",
      "parentPostTime": "2014-04-30T18:51:58",
      "parentPostId": "1362747959"
    },
    {
      "threadId": "2645806602",
      "post": "You could also put it next to Season 2 of The Walking Dead and role-play the weirdest crossover episode of Futurama ever.\n\n\n\n\n\n\nNote: The Walking Dead Season 2 is garbage. Do not buy The Walking Dead, even as a joke.",
      "time": "2014-04-28T20:44:15",
      "id": "1359609548",
      "parentPost": "I have little interest in this movie, but I'll have to get this and put it next to that Planet of the Apes bust you linked to a while back. Just to scare my girlfriend even more.",
      "parentPostTime": "2014-04-28T20:37:18",
      "parentPostId": "1359568830"
    },
    {
      "threadId": "2622096476",
      "post": "Lazy cartography. Would've been better if it was \"Cthulhu??\"",
      "time": "2014-04-18T19:44:58",
      "id": "1345359036",
      "parentPost": "I think it's a reference to Red (Hook) Lobster> http://www.redhooklobster.com/",
      "parentPostTime": "2014-04-18T19:43:46",
      "parentPostId": "1345353189"
    },
    {
      "threadId": "2617004086",
      "post": "\"There is a shitty parent epidemic\"\n\n\nFixed it for you.",
      "time": "2014-04-16T19:07:52",
      "id": "1341136234"
    },
    {
      "threadId": "2604145365",
      "post": "If I knew it was that easy to get weed on Long Island I'd go home more often.",
      "time": "2014-04-11T16:00:27",
      "id": "1331984252"
    },
    {
      "threadId": "2509263276",
      "post": "Booooooooooooooooy oh booooooooooooooooy, please let this be real.",
      "time": "2014-03-25T21:35:10",
      "id": "1302499059"
    },
    {
      "threadId": "2310079619",
      "post": "Do they even make Nissan Versas anymore?",
      "time": "2014-02-23T22:56:13",
      "id": "1257669330"
    },
    {
      "threadId": "2296310127",
      "post": "::heavy sigh::\n\n\nI love BdB. I want him to succeed. I want him to prove the haters wrong. I want it to stop fucking snowing so he can have a chance to do something aside from pose with a fucking shovel.\n\n\nBut man, this is disappointing.",
      "time": "2014-02-21T00:41:38",
      "id": "1254220265"
    },
    {
      "threadId": "2289580314",
      "post": "I still think that Megan and David Ellison buying the rights to Terminator is just a cover up for their dad's actual Skynet.",
      "time": "2014-02-19T18:26:41",
      "id": "1251842246"
    },
    {
      "threadId": "2285053972",
      "post": "It's in the details on the Vision Zero site under \"Encourage Safe Driving by Drivers of Taxis and For-Hire Vehicles\"\n\nhttp://www.nyc.gov/html/visionzero/pages/legislation/legislation.html",
      "time": "2014-02-18T20:12:18",
      "id": "1250254638",
      "parentPost": "He didn't mention cabbies? I.e. cabbies who kill or maim and get to keep driving? Also, DeB is going to \"give the NYPD the tools to prevent these pedestrian accidents\" but are they going to use the tools? They seem weirdly uninterested in cracking down on drivers. But very enthusiastic about targeting pedestrians.",
      "parentPostTime": "2014-02-18T20:03:42",
      "parentPostId": "1250235458"
    },
    {
      "threadId": "2266445261",
      "post": "Life imitates art.\n\nhttp://www.youtube.com/watch?v=sEzMMJSkEHE\n",
      "time": "2014-02-14T16:24:10",
      "id": "1244325041"
    },
    {
      "threadId": "2220351920",
      "post": "Kindness kills.",
      "time": "2014-02-04T16:24:26",
      "id": "1230577141"
    },
    {
      "threadId": "2201903439",
      "post": "The closest I ever came to this type of friendship was watching a neighbors cat watch me while we both listened to a domestic dispute. Neither of us called the cops. Eventually they ran out of dishes.",
      "time": "2014-01-31T22:06:30",
      "id": "1225944533"
    },
    {
      "threadId": "2192441202",
      "post": "Sandra Lee, drink your liver out.",
      "time": "2014-01-29T22:43:10",
      "id": "1222645502",
      "parentPost": "Sandra Lee, eat your heart out.",
      "parentPostTime": "2014-01-29T22:42:51",
      "parentPostId": "1222644687"
    },
    {
      "threadId": "2182275348",
      "post": "Convenient that he nixed the MTA Lockbox.\n\"You wan't universal Pre-K? Fine... but good luck getting there, sheeple.\" - Andrew Cuomo",
      "time": "2014-01-27T19:43:34",
      "id": "1219141046",
      "parentPost": "Don't fall for Cuomo's shell game. Let him identify how he is going to fund pre-K instead of just promising to do it.",
      "parentPostTime": "2014-01-27T19:29:51",
      "parentPostId": "1219122386"
    },
    {
      "threadId": "2127029597",
      "post": "Albany allows NYC to have 20 speed cameras. According to the DOT there are 12,460 intersections with traffic signals across the five boroughs. \n\n\nCan't we just sue the state for gross negligence or something?",
      "time": "2014-01-15T21:16:34",
      "id": "1202575581"
    },
    {
      "threadId": "2122662774",
      "post": "Aw, but the outdoor dining area was such a lovely spot to <strike> steal gallons of syrup through the hedges while walking down Varick Street</strike> eat.",
      "time": "2014-01-14T21:53:05",
      "id": "1200793159"
    },
    {
      "threadId": "2121895161",
      "post": "If they had taught me this stuff in Hebrew school I might still give a shit about being Jewish.",
      "time": "2014-01-14T18:23:14",
      "id": "1200345798"
    },
    {
      "threadId": "2103109484",
      "post": "Might as well call the neighborhood \"Fetch,\" cause it's not gonna happen.",
      "time": "2014-01-09T19:40:21",
      "id": "1194052246"
    },
    {
      "threadId": "2082029019",
      "post": "Alex Shlaferman&mdash is a fantastic promoter name.",
      "time": "2013-12-30T16:36:19",
      "id": "1181321769"
    },
    {
      "threadId": "2057046324",
      "post": "I really hope this doesn't interfere with my new movie: GILLIAN'S ISLAND, where Gillian Anderson and Gillian Jacobs face off in a televised fight to the death, with Karen Gillan and the ghosts of Gil Hodges and Gil Scott Heron providing color commentary.",
      "time": "2013-12-17T21:28:38",
      "id": "1167971329"
    },
    {
      "threadId": "2043888453",
      "post": "In a perfect world, Dante would take the train to school everyday and go home and bitch about how awful his commute was just like the rest of us.",
      "time": "2013-12-11T16:37:23",
      "id": "1158837002"
    },
    {
      "threadId": "2030714221",
      "post": "That Bloomberg isn't around to whine about anymore. DOIYE",
      "time": "2013-12-06T18:59:10",
      "id": "1153195213",
      "parentPost": "What are you all going to whine about after he's gone?",
      "parentPostTime": "2013-12-06T18:56:23",
      "parentPostId": "1153191774"
    },
    {
      "threadId": "2020824957",
      "post": "Prove that wind isn't made of ghosts.",
      "time": "2013-12-04T00:16:09",
      "id": "1149643309",
      "parentPost": "SEO-friendly sound description: haunting, moaning\n\nAccurate sound description: wind",
      "parentPostTime": "2013-12-03T17:10:09",
      "parentPostId": "1148920774"
    },
    {
      "threadId": "2022109647",
      "post": "You mean like in Union Square currently?",
      "time": "2013-12-04T00:08:58",
      "id": "1149637065",
      "parentPost": "I'm waiting for a Duane Reade to open up right next to a Walgreens. \n\n\nSame company.",
      "parentPostTime": "2013-12-03T23:50:41",
      "parentPostId": "1149618315"
    },
    {
      "threadId": "2021947671",
      "post": "The first person I see/hear wearing those Beats knockoffs that turn into speakers is getting curb stomped... or, well, yellow line stomped.",
      "time": "2013-12-03T22:07:30",
      "id": "1149486613",
      "parentPost": "They should change this campaign to \"Get rid of your shitty earbuds that everyone can hear from across the train and buy an actual pair of headphones\"",
      "parentPostTime": "2013-12-03T22:05:53",
      "parentPostId": "1149483454"
    },
    {
      "threadId": "1986430474",
      "post": "They were generous with the buybacks, but I live around the corner so I went pretty frequently.\n\n\nHopefully those rowdy tots that are crumming up the Crummy Corner won't figure out that JT serves actual tots and $3 Yuenglings.",
      "time": "2013-11-21T18:14:27",
      "id": "1133147742",
      "parentPost": "i would check out a bar run by the jalopy theatre. interesting. the bartender in moonshine the one time i went there sucked, btw. she ignored me and then poured me the worst guiness ever.",
      "parentPostTime": "2013-11-21T18:09:21",
      "parentPostId": "1133138131"
    },
    {
      "threadId": "1983825111",
      "post": "I watched a little of it on an oculus rift. It def is not nearly hi enough yet, but that's going to make things very interesting once it is.",
      "time": "2013-11-20T23:02:46",
      "id": "1131893970",
      "parentPost": "One of my greatest theater memories was seeing the finale of Speed Racer in an IMAX Dome theater with the screen's edges curved inwards. What a beautiful AMALGAMATION of checkered flags, kaleidoscopic color, and fire.  Heh.",
      "parentPostTime": "2013-11-20T22:41:00",
      "parentPostId": "1131867293"
    },
    {
      "threadId": "1948520746",
      "post": "I'll see your theme park and raise you Hunger Games themed Subway sandwiches. http://www.youtube.com/watch?v=2-w06wPtTPA\n\n\nLadies and gentlemen, the revolution will be toasted and served with a bag of Lay's Down Your Weapons BBQ Blasters and a 20oz District 7UP.",
      "time": "2013-11-08T18:13:42",
      "id": "1114146426"
    },
    {
      "threadId": "1936264251",
      "post": "Potentially, yes. Also, potentially \"she\".",
      "time": "2013-11-04T20:53:06",
      "id": "1108750589",
      "parentPost": "It's not a term limit, it's an age limit. If a judge is appointed at age 68 is he less qualified to do his job two years later? ",
      "parentPostTime": "2013-11-04T20:50:19",
      "parentPostId": "1108747735"
    },
    {
      "threadId": "1887424829",
      "post": "Ah, so that's why the Hasids are nuts about babydick.",
      "time": "2013-10-22T16:42:09",
      "id": "1092301918"
    },
    {
      "threadId": "1822079107",
      "post": "Show 1: Mass Effect: Citadel - focuses on the politics of the ME universe prior to the humans showing up and the First Contact War, and then the aftermath of their arrival.\n\n\nShow 2: Mass Effect: Codex - people want a new Star Trek show. Mass Effect could be that show.\n\n\nShow 3: Mass Effect: N7 - action adventure war whatever show about N7 that ends with roll call of a new class of recruits, \"Shepard\", \"Here, sir\", reveal FemShep. Series ends.\n\n\nI've spent significantly more time thinking about how Mass Effect could translate to TV than I should have.",
      "time": "2013-10-03T21:41:02",
      "id": "1069370832",
      "parentPost": "Mass Effect would probably work better on TV, Game of Thrones style.",
      "parentPostTime": "2013-10-03T21:36:15",
      "parentPostId": "1069365599"
    },
    {
      "threadId": "1817379418",
      "post": "One Direction just announced a 7 hour livestream to promote their new album on the same day. \n\nThey're calling it 1D Day, which seems like an appropriate name for the death of culture and the rebirth of the British Empire.",
      "time": "2013-10-02T17:16:35",
      "id": "1067620490"
    },
    {
      "threadId": "1811063577",
      "post": "You know it's bad when the F starts running express. I didn't even realize it was possible to run express past Carroll Street given the whole millions of dollars of repairs needed to make the lower level at Bergen useable thing.",
      "time": "2013-09-30T13:58:44",
      "id": "1064486453"
    },
    {
      "threadId": "1753550256",
      "post": "Oh Don Piano, if I do say so myself.",
      "time": "2013-09-12T21:39:32",
      "id": "1041037130"
    },
    {
      "threadId": "1712664716",
      "post": "One word.\n\n\nShadynasty.",
      "time": "2013-09-05T04:25:08",
      "id": "1030536392"
    },
    {
      "threadId": "1455823533",
      "post": "Unless the first two suspects escaped inside the third suspect, there is absolutely no way she's 5'4, 220lbs and made a clean getaway.",
      "time": "2013-07-01T19:35:47",
      "id": "948232784"
    },
    {
      "threadId": "1434572878",
      "post": "Just in time to celebrate the 5th anniversary of my (now) traditional 4th of July Independence Day Power Hour.",
      "time": "2013-06-25T19:07:02",
      "id": "941993378"
    },
    {
      "threadId": "1399707610",
      "post": "Ugh. I want to go to there. Drafthouse Brooklyn can't come soon enough.",
      "time": "2013-06-13T20:53:44",
      "id": "929779261"
    },
    {
      "threadId": "1399153051",
      "post": "You forgot the most important one. The gentle waft of a miracle whip, bologna and kraft singles sandwich fart, filtered through the cloth seats of an El Camino.",
      "time": "2013-06-13T17:52:01",
      "id": "929515485",
      "parentPost": "A fine combination of Cheetos, Motor Oil, Pepsi, Cheap Cigarettes, Bud Light and Sadness",
      "parentPostTime": "2013-06-13T17:40:55",
      "parentPostId": "929496857"
    },
    {
      "threadId": "1386660862",
      "post": "There's over 100 million households that subscribe to cable in the US (myself included). I love my Xbox and hate my cable box and I'm pretty sure I'm not alone. The TV stuff, for me, is added value. It takes nothing away from the fact that this is a very powerful computer, designed to play games.",
      "time": "2013-06-10T19:59:34",
      "id": "925472307",
      "parentPost": "",
      "parentPostTime": "2013-06-10T19:51:08",
      "parentPostId": "925463641"
    },
    {
      "threadId": "1366619895",
      "post": "Served in a Wattful ConEd",
      "time": "2013-06-05T21:02:15",
      "id": "920293252"
    },
    {
      "threadId": "1366556986",
      "post": "Almost fuck you, Pedro.",
      "time": "2013-06-05T20:57:50",
      "id": "920289311"
    },
    {
      "threadId": "1344738028",
      "post": "\"Aw c'mon, Marceline, you always get to be Ron Silver. I don't wanna be Barbara Hershey anymore!\"",
      "time": "2013-05-31T18:41:35",
      "id": "915284595"
    },
    {
      "threadId": "1332325495",
      "post": "Shut up, art.",
      "time": "2013-05-28T21:10:41",
      "id": "911642236"
    },
    {
      "threadId": "1290324753",
      "post": "I did quite enjoy both of their bathrooms. I did not however enjoy my own bathroom the following morning when I was shitting fire for three hours. Goddamn you, Ma Po Tofu.",
      "time": "2013-05-15T14:28:46",
      "id": "898140626"
    },
    {
      "threadId": "1255962329",
      "post": "I was actually just about to put on Cloud Atlas for the first time, but I don't think I'd make it through a 3 hour movie. Manborg might be more my speed tonight.\n\nI totally agree with you on Richard Kelly. Dude needs to start directing other peoples scripts, but I will say that I unabashedly love Southland Tales, which I'm sure in the context of this conversation isn't doing me any favors. I swear I actually have great taste in movies.",
      "time": "2013-05-03T00:32:31",
      "id": "882907388",
      "parentPost": "Do or do not... there is no - whatever... \n\nHey, you can't love everything. I've seen Cloud Atlas twice now and I still detest it to it's core. Also an unpopular opinion around here. \n\nAnd in regard to Donnie, everyone loved it when it came out and it looked like Richard Kelly was a genius, and then he made more films and re-released Donnie with extra footage that proved he didn't understand why his film was so good in the first place. \n\n.... fucking replacing Echo and the Bunnymen with INXS...  infidel!",
      "parentPostTime": "2013-05-03T00:25:00",
      "parentPostId": "882903375"
    },
    {
      "threadId": "1248738948",
      "post": "That's a much more compelling answer.",
      "time": "2013-04-30T21:45:54",
      "id": "880801178",
      "parentPost": "Also I entertain this little fantasy where she's always interrupting some sort of nerdy Simon Pegg/Chris Martin lego building competition because dinner is ready.  No one can tell me this doesn't actually happen on the daily.",
      "parentPostTime": "2013-04-30T21:42:10",
      "parentPostId": "880798488"
    },
    {
      "threadId": "1168444575",
      "post": "Someone clearly didn't understand the concept of the countdown clocks.",
      "time": "2013-03-27T15:18:42",
      "id": "843981714"
    },
    {
      "threadId": "1125474498",
      "post": "Ah yes, we all fondly remembers the glory days of Bushwick, when the neighborhood was filled with breweries and Arctic Explorer Robert Cook resided in a mansion on the corner of Willoughby and Bushwick Ave...\n\n... In 1899.\n\nBushwick has been a shithole for roughly 100 years.",
      "time": "2013-03-08T22:31:37",
      "id": "823407054",
      "parentPost": "No, it's not sarcastic. Bushwick wasn't always a sh!thole - I suggest you read up on it's history - it used to be a nice neighborhood before the dbags moved in and ruined it.",
      "parentPostTime": "2013-03-08T19:57:54",
      "parentPostId": "823239438"
    },
    {
      "threadId": "1125304039",
      "post": "Happy International Women's Day!",
      "time": "2013-03-08T16:59:45",
      "id": "823089268"
    },
    {
      "threadId": "1117780245",
      "post": "Your prediction method of \"we've got a feeling\" is probably just as accurate as The Weather Channel, without any of the hyperbolic (or perhaps... hyperbaric [rimshot]) fearmongering.\n\n",
      "time": "2013-03-04T19:10:14",
      "id": "819089606"
    },
    {
      "threadId": "1081193510",
      "post": "I've been going to White Castle for VD for the last three years because I have an unironic appreciation of 75cent sliders, and also I'm forever alone. Partnering with Newtown Creek would've been great for them. That way you could get the full 'before and after' experience.",
      "time": "2013-02-13T17:28:02",
      "id": "797861270"
    },
    {
      "threadId": "1069235998",
      "post": "That's like 65% of the country... but I hear they have really low voter turnout. ",
      "time": "2013-02-06T21:12:30",
      "id": "791039565",
      "parentPost": "\"The obese vote\", did she really say that?  ",
      "parentPostTime": "2013-02-06T21:08:36",
      "parentPostId": "791034693"
    },
    {
      "threadId": "808061023",
      "post": "You're gonna like the way you look. I guarantee it.",
      "time": "2012-09-03T19:12:12",
      "id": "638808468"
    },
    {
      "threadId": "820515321",
      "post": "Here comes trouble.",
      "time": "2012-09-03T19:11:37",
      "id": "638808029"
    },
    {
      "threadId": "807806636",
      "post": "Is butter a carb?",
      "time": "2012-09-03T19:11:25",
      "id": "638807892"
    },
    {
      "threadId": "814633520",
      "post": "I feel asleep.",
      "time": "2012-09-03T19:09:31",
      "id": "638806545"
    },
    {
      "threadId": "803810143",
      "post": "Funch.",
      "time": "2012-09-03T19:07:51",
      "id": "638805325"
    },
    {
      "threadId": "807628151",
      "post": "Once upon a time there was light in my life. Now there's only love in the dark.",
      "time": "2012-09-03T19:07:01",
      "id": "638804674"
    },
    {
      "threadId": "803495249",
      "post": "What's a buttfor?",
      "time": "2012-09-03T19:06:21",
      "id": "638804174"
    },
    {
      "threadId": "803967668",
      "post": "Ow, my most of me.",
      "time": "2012-09-03T19:05:22",
      "id": "638803474"
    },
    {
      "threadId": "797498228",
      "post": "Wiggity wack?\n\nNo. Just regular type.",
      "time": "2012-09-03T19:03:08",
      "id": "638801918"
    },
    {
      "threadId": "791652574",
      "post": "curiouser and curiouser",
      "time": "2012-09-03T19:00:25",
      "id": "638799912"
    },
    {
      "threadId": "787091774",
      "post": "topical discussion",
      "time": "2012-09-03T18:59:25",
      "id": "638799123"
    },
    {
      "threadId": "780952979",
      "post": "relavent comment.",
      "time": "2012-09-03T18:58:00",
      "id": "638798049"
    },
    {
      "threadId": "779664299",
      "post": "maybe.",
      "time": "2012-09-03T18:56:37",
      "id": "638796985"
    },
    {
      "threadId": "778561369",
      "post": "I would like that.",
      "time": "2012-09-03T18:25:18",
      "id": "638773607"
    },
    {
      "threadId": "814571830",
      "post": "But what does the bridge he's named after think?",
      "time": "2012-08-22T15:12:41",
      "id": "625742809"
    },
    {
      "threadId": "638009509",
      "post": "No there really aren't. There are giant chain theaters, there are adequate indie theaters, and there's Landmark Sunshine. There are no excellent movie theaters in New York.",
      "time": "2012-04-05T20:49:59",
      "id": "487649757",
      "parentPost": "you know there are excellent movie theaters in new york already, right? ",
      "parentPostTime": "2012-04-05T20:22:18",
      "parentPostId": "487626099"
    },
    {
      "threadId": "453414867",
      "post": "robertilubow@gmail.com",
      "time": "2011-10-26T15:57:35",
      "id": "345771087"
    },
    {
      "threadId": "244773887",
      "post": "I had Bare Burger for the first time the other night. Turkey-bacon and swiss bison burger. I could've eaten a sack of those fuckers.",
      "time": "2011-03-03T20:16:07",
      "id": "159979492"
    },
    {
      "threadId": "243615608",
      "post": "When was the last time a hipster got bottle service?\n\n\nThat's what I thought.",
      "time": "2011-03-02T20:22:22",
      "id": "159233597",
      "parentPost": "Apparently Indie Music \"will reap financial rewards far beyond what they could hope to earn by selling Henessey/etc to basketball fans.\"  Yes she really said that.  Beyond.",
      "parentPostTime": "2011-03-02T14:24:11",
      "parentPostId": "158968452"
    },
    {
      "threadId": "229345274",
      "post": "Happy anniversary\n\nToo bad Moto couldn't throw you a Xoom to give away, but I imagine that at an MSRP of $10,284,572.38 giving any of them away would instantly bankrupt the company.",
      "time": "2011-02-13T15:22:55",
      "id": "145671404"
    },
    {
      "threadId": "222742083",
      "post": "In lieue of casting Donald Glover, Sony opted to only make Spiderman black where it counts...",
      "time": "2011-02-04T18:56:21",
      "id": "140715411"
    },
    {
      "threadId": "10566013",
      "post": "Because people who read Gawker blogs are usually douchebags",
      "time": "2009-01-26T20:42:50",
      "id": "5555668",
      "parentPost": "Why do people in the comments think this is a bad idea? This will go down as a pretty cool footnote in the history wikis. (I'm renouncing saying \"books\" from now on.)",
      "parentPostTime": "2009-01-26T20:38:10",
      "parentPostId": "5555540"
    },
    {
      "threadId": "9486385",
      "post": "That's such a great idea... makes me wish I got better texts",
      "time": "2009-01-07T01:40:46",
      "id": "4944493"
    },
    {
      "threadId": "7225202",
      "post": "You and I both know that the solution to this problem is simple... MORE BOARDGAMES",
      "time": "2008-11-18T18:49:09",
      "id": "3881138"
    },
    {
      "threadId": "5207339",
      "post": "along with Secretary of State Jorgenson",
      "time": "2008-10-01T02:46:07",
      "id": "2771250",
      "parentPost": "I think you mean Lemon/Donaghy 2008!",
      "parentPostTime": "2008-10-01T02:42:07",
      "parentPostId": "2771213"
    },
    {
      "threadId": "3821763",
      "post": "Twelve... but only 9 when I shoot in widescreen",
      "time": "2008-08-28T05:06:11",
      "id": "1889641",
      "parentPost": "YAY!!!!! Hooray for learning! How many megapixels is your cam?",
      "parentPostTime": "2008-08-28T05:04:56",
      "parentPostId": "1889631"
    }
  ],
  "profileInfo": {
    "username": "heytherekiller",
    "about": "",
    "name": "heytherekiller",
    "disable3rdPartyTrackers": false,
    "isPowerContributor": false,
    "isAnonymous": false,
    "rep": 1.643481,
    "profileUrl": "https://disqus.com/by/heytherekiller/",
    "url": "http://heytherekiller.tumblr.com",
    "reputation": 1.643481,
    "location": "Brooklyn, NY",
    "isPrivate": false,
    "signedUrl": "http://disq.us/?url=http%3A%2F%2Fheytherekiller.tumblr.com&key=ggga0BFIxhjXziXKx4SskA",
    "isPrimary": true,
    "joinedAt": "2008-04-30T04:08:01",
    "id": "27383",
    "avatar": {
      "small": {
        "permalink": "https://disqus.com/api/users/avatars/heytherekiller.jpg",
        "cache": "//a.disquscdn.com/uploads/users/27383/avatar32.jpg?1281549414"
      },
      "isCustom": true,
      "permalink": "https://disqus.com/api/users/avatars/heytherekiller.jpg",
      "cache": "//a.disquscdn.com/uploads/users/27383/avatar92.jpg?1281549414",
      "large": {
        "permalink": "https://disqus.com/api/users/avatars/heytherekiller.jpg",
        "cache": "//a.disquscdn.com/uploads/users/27383/avatar92.jpg?1281549414"
      }
    }
  }
}