[
  {
    "text": "NOVA crew doing awesome things for good causes! Go support them!  http://t.co/OkZPRMWVwn",
    "time": "Thu Jul 11 18:03:59 +0000 2013",
    "id": 355387004671889400,
    "geo": null,
    "place": null,
    "coordinates": null
  },
  {
    "text": "Time to oogle some naked plastic bits... http://t.co/Rk0qOnVlJJ",
    "time": "Sat Jul 06 18:00:26 +0000 2013",
    "id": 353574172556935200,
    "geo": null,
    "place": null,
    "coordinates": null
  },
  {
    "text": "Count-As Dante to start things off right! http://t.co/cTy938RASi",
    "time": "Mon Jul 01 15:38:47 +0000 2013",
    "id": 351726586921353200,
    "geo": null,
    "place": null,
    "coordinates": null
  },
  {
    "text": "For the glory of the XVIIIth!  #40k #Art #Fanart #Warhammer",
    "time": "Wed Jan 25 14:35:10 +0000 2012",
    "id": 162181720504942600,
    "geo": null,
    "place": null,
    "coordinates": null
  },
  {
    "text": "Hands are warming up nicely to painting models http://t.co/7a9eL1P5",
    "time": "Wed Jan 11 13:14:10 +0000 2012",
    "id": 157087908824756220,
    "geo": null,
    "place": null,
    "coordinates": null
  },
  {
    "text": "Gifts are a good way to get back into things!  http://t.co/xKfQI439",
    "time": "Thu Jan 05 21:45:41 +0000 2012",
    "id": 155042306418941950,
    "geo": null,
    "place": null,
    "coordinates": null
  },
  {
    "text": "Just a little delayed!  http://t.co/VGAOusXe",
    "time": "Thu Nov 24 06:15:28 +0000 2011",
    "id": 139587919626244100,
    "geo": null,
    "place": null,
    "coordinates": null
  },
  {
    "text": "Sporadic transmission: Shipping Container has arrived http://t.co/fUVGwQGS",
    "time": "Wed Sep 28 01:38:55 +0000 2011",
    "id": 118862215636983800,
    "geo": null,
    "place": null,
    "coordinates": null
  },
  {
    "text": "The first thousand points. http://t.co/74MsJ5C",
    "time": "Wed Aug 24 17:29:39 +0000 2011",
    "id": 106417902399406080,
    "geo": null,
    "place": null,
    "coordinates": null
  },
  {
    "text": "Your body may fail the trials, but it will still serve the Chapter. http://t.co/0w3eZP0",
    "time": "Tue Aug 16 20:17:49 +0000 2011",
    "id": 103561120773709820,
    "geo": null,
    "place": null,
    "coordinates": null
  },
  {
    "text": "Secret Weapon photo review! http://t.co/f6ObHCR",
    "time": "Mon Aug 15 20:48:47 +0000 2011",
    "id": 103206526017224700,
    "geo": null,
    "place": null,
    "coordinates": null
  },
  {
    "text": "Traditional canvas painting is a blast http://bit.ly/ouhnhJ",
    "time": "Fri Aug 05 14:32:20 +0000 2011",
    "id": 99487909358473220,
    "geo": null,
    "place": null,
    "coordinates": null
  },
  {
    "text": "Slow but steady progress on the Angels http://bit.ly/nDgn5G",
    "time": "Tue Aug 02 13:16:48 +0000 2011",
    "id": 98381737905766400,
    "geo": null,
    "place": null,
    "coordinates": null
  },
  {
    "text": "On a roll these last two weeks http://bit.ly/ruj2Rt",
    "time": "Fri Jul 29 13:39:49 +0000 2011",
    "id": 96937979376975870,
    "geo": null,
    "place": null,
    "coordinates": null
  },
  {
    "text": "For Russ!  For the Wolftime! http://bit.ly/pY1IsZ",
    "time": "Thu Jul 28 12:27:46 +0000 2011",
    "id": 96557457299619840,
    "geo": null,
    "place": null,
    "coordinates": null
  },
  {
    "text": "More project bouncing. http://bit.ly/nrKdd2",
    "time": "Wed Jul 27 15:26:13 +0000 2011",
    "id": 96239978501242880,
    "geo": null,
    "place": null,
    "coordinates": null
  },
  {
    "text": "Almost certain that this should be a cartoon show.  http://bit.ly/ni4vwX",
    "time": "Mon Jul 25 13:27:55 +0000 2011",
    "id": 95485432627855360,
    "geo": null,
    "place": null,
    "coordinates": null
  },
  {
    "text": "The project jumping means you get more video tips! http://bit.ly/oDQx4c",
    "time": "Fri Jul 22 12:55:18 +0000 2011",
    "id": 94390059217858560,
    "geo": null,
    "place": null,
    "coordinates": null
  },
  {
    "text": "Army hopping at its best! http://bit.ly/mPHDGm",
    "time": "Wed Jul 20 13:14:35 +0000 2011",
    "id": 93670137827303420,
    "geo": null,
    "place": null,
    "coordinates": null
  },
  {
    "text": "Trying our hand at video again!  Check it out! http://bit.ly/pacgGq",
    "time": "Fri Jul 15 15:44:14 +0000 2011",
    "id": 91895857946955780,
    "geo": null,
    "place": null,
    "coordinates": null
  },
  {
    "text": "Tiny armor details made easy http://thepaintingcorps.blogspot.com/2011/07/field-report-sculpting-tiny-details.html",
    "time": "Wed Jul 13 14:24:38 +0000 2011",
    "id": 91151050647670780,
    "geo": null,
    "place": null,
    "coordinates": null
  },
  {
    "text": "How do you break through the wall?  http://bit.ly/n89yC5",
    "time": "Tue Jul 12 15:08:56 +0000 2011",
    "id": 90799809082040320,
    "geo": null,
    "place": null,
    "coordinates": null
  },
  {
    "text": "Quick Progress followed by a slog through the trenches of detail work http://bit.ly/qYQwgH",
    "time": "Mon Jul 11 16:28:22 +0000 2011",
    "id": 90457411382554620,
    "geo": null,
    "place": null,
    "coordinates": null
  },
  {
    "text": "Yellow doesn't need to be hard to paint! http://bit.ly/oIYP82",
    "time": "Fri Jul 08 16:27:14 +0000 2011",
    "id": 89369965576200200,
    "geo": null,
    "place": null,
    "coordinates": null
  },
  {
    "text": "Tabletop Gaming News needs your help!  http://bit.ly/n1Lki7",
    "time": "Thu Jul 07 19:45:53 +0000 2011",
    "id": 89057567426355200,
    "geo": null,
    "place": null,
    "coordinates": null
  },
  {
    "text": "Realgenius needs help dealing with an Eldar color scheme! http://bit.ly/qBDp2l",
    "time": "Wed Jul 06 13:59:45 +0000 2011",
    "id": 88608074704748540,
    "geo": null,
    "place": null,
    "coordinates": null
  },
  {
    "text": "Want to see what the Spanish have been up to?  Volomir has your back http://bit.ly/ifxF22",
    "time": "Tue Jul 05 14:25:46 +0000 2011",
    "id": 88252233992511490,
    "geo": null,
    "place": null,
    "coordinates": null
  },
  {
    "text": "The bases.  They Come For You.  http://bit.ly/lycDMO",
    "time": "Mon Jul 04 13:28:25 +0000 2011",
    "id": 87875410490171400,
    "geo": null,
    "place": null,
    "coordinates": null
  },
  {
    "text": "I've updated the Painting Links page!  The Modeling Tips page will be coming online soon as well,  could take some time pick everything out!",
    "time": "Sat Jul 02 11:38:03 +0000 2011",
    "id": 87122860124020740,
    "geo": null,
    "place": null,
    "coordinates": null
  },
  {
    "text": "A tip for your weekend of paint projects and (for our American audience) BBQ! http://bit.ly/kEnqFW",
    "time": "Sat Jul 02 09:50:00 +0000 2011",
    "id": 87095671185870850,
    "geo": null,
    "place": null,
    "coordinates": null
  },
  {
    "text": "Pain is just weakness leaving the body.  http://bit.ly/myjLUL",
    "time": "Wed Jun 29 12:54:11 +0000 2011",
    "id": 86054858012098560,
    "geo": null,
    "place": null,
    "coordinates": null
  },
  {
    "text": "Little Creepy Princess http://bit.ly/mzg4IX",
    "time": "Mon Jun 27 13:06:08 +0000 2011",
    "id": 85333089684946940,
    "geo": null,
    "place": null,
    "coordinates": null
  },
  {
    "text": "Snikt! http://bit.ly/llzeaM",
    "time": "Fri Jun 24 19:40:19 +0000 2011",
    "id": 84345124154376200,
    "geo": null,
    "place": null,
    "coordinates": null
  },
  {
    "text": "A Discussion on Airbrushing http://bit.ly/jRFfE6",
    "time": "Thu Jun 23 12:37:00 +0000 2011",
    "id": 83876204117106690,
    "geo": null,
    "place": null,
    "coordinates": null
  },
  {
    "text": "For the Emperor!  And future projects! http://bit.ly/j2FJhD",
    "time": "Wed Jun 22 15:26:20 +0000 2011",
    "id": 83556434217943040,
    "geo": null,
    "place": null,
    "coordinates": null
  },
  {
    "text": "Volomir has a blog you should get acquainted with.  http://bit.ly/joHGND",
    "time": "Tue Jun 21 13:58:14 +0000 2011",
    "id": 83171873994715140,
    "geo": null,
    "place": null,
    "coordinates": null
  },
  {
    "text": "Another terminator WIP??  Yeah.. http://bit.ly/krdBOj",
    "time": "Mon Jun 20 14:11:45 +0000 2011",
    "id": 82812887898398720,
    "geo": null,
    "place": null,
    "coordinates": null
  },
  {
    "text": "Sharing a contest, while trying to come up with ideas for one of our own! http://bit.ly/lT7bTx",
    "time": "Tue Jun 14 12:43:45 +0000 2011",
    "id": 80616414024704000,
    "geo": null,
    "place": null,
    "coordinates": null
  },
  {
    "text": "Art that's wargaming related! http://bit.ly/lfpvet",
    "time": "Mon Jun 13 22:52:28 +0000 2011",
    "id": 80407216208871420,
    "geo": null,
    "place": null,
    "coordinates": null
  },
  {
    "text": "Another foray into my artwork! http://bit.ly/if99Qq",
    "time": "Sat Jun 11 19:43:41 +0000 2011",
    "id": 79634928261795840,
    "geo": null,
    "place": null,
    "coordinates": null
  },
  {
    "text": "Hint, it's big http://bit.ly/ldxrgn",
    "time": "Thu Jun 09 13:17:16 +0000 2011",
    "id": 78812908573831170,
    "geo": null,
    "place": null,
    "coordinates": null
  },
  {
    "text": "New Planet Release! http://bit.ly/mLbPlF",
    "time": "Tue Jun 07 14:21:14 +0000 2011",
    "id": 78104229302120450,
    "geo": null,
    "place": null,
    "coordinates": null
  },
  {
    "text": "The Sons get Claws http://bit.ly/m9VCax",
    "time": "Mon Jun 06 16:50:41 +0000 2011",
    "id": 77779453027160060,
    "geo": null,
    "place": null,
    "coordinates": null
  },
  {
    "text": "More Artwork from Grey_Death http://bit.ly/ii9eW2",
    "time": "Sat Jun 04 16:51:39 +0000 2011",
    "id": 77054921345728510,
    "geo": null,
    "place": null,
    "coordinates": null
  },
  {
    "text": "Kill! Burn!  Maim! Blood for the Blood God!! http://bit.ly/mUF2nQ",
    "time": "Thu Jun 02 13:44:35 +0000 2011",
    "id": 76283069602082820,
    "geo": null,
    "place": null,
    "coordinates": null
  },
  {
    "text": "What are YOUR thoughts on resin? http://thepaintingcorps.blogspot.com/2011/06/open-discussion-resin.html",
    "time": "Wed Jun 01 15:28:50 +0000 2011",
    "id": 75946916185247740,
    "geo": null,
    "place": null,
    "coordinates": null
  },
  {
    "text": "Brother Captain Proetus is on the march. http://bit.ly/j4I9P2",
    "time": "Tue May 31 13:11:36 +0000 2011",
    "id": 75549990331760640,
    "geo": null,
    "place": null,
    "coordinates": null
  },
  {
    "text": "First Thoughts on Finecast http://bit.ly/mRVefn",
    "time": "Mon May 30 17:35:04 +0000 2011",
    "id": 75253909077241860,
    "geo": null,
    "place": null,
    "coordinates": null
  },
  {
    "text": "Before you buy that honeybun, see this!  http://bit.ly/kNDYMx",
    "time": "Mon May 16 16:44:08 +0000 2011",
    "id": 70167660259840000,
    "geo": null,
    "place": null,
    "coordinates": null
  },
  {
    "text": "Need some cool ideas for a new project? http://bit.ly/lTGkNF",
    "time": "Tue May 10 12:38:51 +0000 2011",
    "id": 67931604584116220,
    "geo": null,
    "place": null,
    "coordinates": null
  },
  {
    "text": "Basing with water! http://bit.ly/jvs3jn",
    "time": "Fri May 06 21:45:26 +0000 2011",
    "id": 66619606688743420,
    "geo": null,
    "place": null,
    "coordinates": null
  },
  {
    "text": "You know you love contests! http://bit.ly/kUYV2r",
    "time": "Wed May 04 18:02:43 +0000 2011",
    "id": 65838782074720260,
    "geo": null,
    "place": null,
    "coordinates": null
  },
  {
    "text": "Smurfs?  We don't need no stinking Smurfs! http://bit.ly/lFaX1l",
    "time": "Mon May 02 19:21:38 +0000 2011",
    "id": 65133864665882620,
    "geo": null,
    "place": null,
    "coordinates": null
  },
  {
    "text": "Borrowing from my past http://bit.ly/mGRzNs",
    "time": "Fri Apr 29 22:50:53 +0000 2011",
    "id": 64099360144756740,
    "geo": null,
    "place": null,
    "coordinates": null
  },
  {
    "text": "What are you working on? http://bit.ly/fB0si6",
    "time": "Tue Apr 26 15:40:42 +0000 2011",
    "id": 62903941444280320,
    "geo": null,
    "place": null,
    "coordinates": null
  },
  {
    "text": "Gaming makes the hobby heart grow stronger!  http://bit.ly/dLeShZ",
    "time": "Mon Apr 25 13:18:15 +0000 2011",
    "id": 62505703662821380,
    "geo": null,
    "place": null,
    "coordinates": null
  },
  {
    "text": "Old School Cactus!  http://bit.ly/hyZNjj",
    "time": "Fri Apr 22 22:26:25 +0000 2011",
    "id": 61556488702922750,
    "geo": null,
    "place": null,
    "coordinates": null
  },
  {
    "text": "Ground Conrol to MajorTom, your airbrushing is sweet! http://bit.ly/fa4VzQ",
    "time": "Thu Apr 21 14:46:13 +0000 2011",
    "id": 61078288906465280,
    "geo": null,
    "place": null,
    "coordinates": null
  },
  {
    "text": "\"It looks like there was a bit of a struggle\" http://bit.ly/fz0ntI",
    "time": "Wed Apr 20 12:39:57 +0000 2011",
    "id": 60684124591108100,
    "geo": null,
    "place": null,
    "coordinates": null
  },
  {
    "text": "Go Vote...on minis! http://bit.ly/fmeDp6",
    "time": "Tue Apr 19 13:27:46 +0000 2011",
    "id": 60333772213719040,
    "geo": null,
    "place": null,
    "coordinates": null
  },
  {
    "text": "Pain is just weakness leaving the body.  http://bit.ly/gPMjGO",
    "time": "Mon Apr 18 17:05:54 +0000 2011",
    "id": 60026278018957310,
    "geo": null,
    "place": null,
    "coordinates": null
  },
  {
    "text": "A little something different from Grey_Death http://bit.ly/gByLXN",
    "time": "Sat Apr 16 15:07:43 +0000 2011",
    "id": 59271758410293250,
    "geo": null,
    "place": null,
    "coordinates": null
  },
  {
    "text": "Matty Fontaine has a guide on Airbrushing.  You need to read this.  http://bit.ly/eZ0WD9",
    "time": "Wed Apr 13 15:07:30 +0000 2011",
    "id": 58184543567486980,
    "geo": null,
    "place": null,
    "coordinates": null
  },
  {
    "text": "Purge the Weak! http://bit.ly/dRGq0A",
    "time": "Mon Apr 11 12:53:14 +0000 2011",
    "id": 57425976644210690,
    "geo": null,
    "place": null,
    "coordinates": null
  },
  {
    "text": "What's your least favorite color?  http://bit.ly/hWPz29",
    "time": "Tue Apr 05 01:06:29 +0000 2011",
    "id": 55073788852834300,
    "geo": null,
    "place": null,
    "coordinates": null
  },
  {
    "text": "The Terminators of the Fifth Battle Group have arrived in sector.  http://bit.ly/guezBO",
    "time": "Mon Mar 28 13:35:00 +0000 2011",
    "id": 52363059301335040,
    "geo": null,
    "place": null,
    "coordinates": null
  },
  {
    "text": "Small changes make a big difference!  http://bit.ly/ejyJL0",
    "time": "Wed Mar 23 03:13:00 +0000 2011",
    "id": 50394588040531970,
    "geo": null,
    "place": null,
    "coordinates": null
  },
  {
    "text": "Terminators have a LOT of surface area... http://bit.ly/dZECPe",
    "time": "Mon Mar 21 14:43:08 +0000 2011",
    "id": 49843489281806340,
    "geo": null,
    "place": null,
    "coordinates": null
  },
  {
    "text": "Painting Dark Eldar Mandrakes http://bit.ly/f57tIU",
    "time": "Wed Mar 16 18:28:29 +0000 2011",
    "id": 48088259053625340,
    "geo": null,
    "place": null,
    "coordinates": null
  },
  {
    "text": "How did GW do? http://bit.ly/ehNplT",
    "time": "Mon Mar 14 14:12:50 +0000 2011",
    "id": 47299148994707460,
    "geo": null,
    "place": null,
    "coordinates": null
  },
  {
    "text": "So, what is everyone working on this weekend? :)",
    "time": "Sat Mar 12 16:46:20 +0000 2011",
    "id": 46613002765611010,
    "geo": null,
    "place": null,
    "coordinates": null
  },
  {
    "text": "Humble Beginnings http://bit.ly/dNgHqc",
    "time": "Sat Mar 12 16:42:21 +0000 2011",
    "id": 46612000792518660,
    "geo": null,
    "place": null,
    "coordinates": null
  },
  {
    "text": "Working with metal models:  Mandrakes http://bit.ly/flptmn",
    "time": "Thu Mar 03 15:15:16 +0000 2011",
    "id": 43328595602587650,
    "geo": null,
    "place": null,
    "coordinates": null
  },
  {
    "text": "Your vote counts! http://bit.ly/fmJ8Sq",
    "time": "Wed Mar 02 17:18:36 +0000 2011",
    "id": 42997244676419580,
    "geo": null,
    "place": null,
    "coordinates": null
  },
  {
    "text": "Big Bad and Green! http://bit.ly/f5vZsR",
    "time": "Mon Feb 28 13:48:39 +0000 2011",
    "id": 42219631288659970,
    "geo": null,
    "place": null,
    "coordinates": null
  },
  {
    "text": "Target Locked.  On the way.  http://bit.ly/hNbwGr",
    "time": "Mon Feb 21 17:17:05 +0000 2011",
    "id": 39735371138994180,
    "geo": null,
    "place": null,
    "coordinates": null
  },
  {
    "text": "My God...It's full of Colors...",
    "time": "Sat Feb 19 04:04:20 +0000 2011",
    "id": 38811095506497540,
    "geo": null,
    "place": null,
    "coordinates": null
  },
  {
    "text": "48 inches of hot destruction... http://bit.ly/fPBm4q",
    "time": "Wed Feb 16 17:42:43 +0000 2011",
    "id": 37929883925622780,
    "geo": null,
    "place": null,
    "coordinates": null
  },
  {
    "text": "We'll be right back after a word from Binford Tools. http://bit.ly/eJ66UO",
    "time": "Mon Feb 14 15:27:29 +0000 2011",
    "id": 37171075947307010,
    "geo": null,
    "place": null,
    "coordinates": null
  },
  {
    "text": "The Tyrant of Badab comes together http://thepaintingcorps.blogspot.com/2011/02/on-table-wip-huron.html",
    "time": "Sun Feb 13 19:25:47 +0000 2011",
    "id": 36868656436740100,
    "geo": null,
    "place": null,
    "coordinates": null
  },
  {
    "text": "Born from the broken crust of Caliban.  http://bit.ly/eIHOv6",
    "time": "Fri Feb 11 20:36:50 +0000 2011",
    "id": 36161760444682240,
    "geo": null,
    "place": null,
    "coordinates": null
  },
  {
    "text": "Medusa Calls to Me... http://bit.ly/gdchiF",
    "time": "Wed Feb 09 14:38:04 +0000 2011",
    "id": 35346697550966784,
    "geo": null,
    "place": null,
    "coordinates": null
  },
  {
    "text": "No More Carrying Models on the Rulebook at gaming events! http://bit.ly/gwt2Av",
    "time": "Mon Feb 07 14:59:25 +0000 2011",
    "id": 34627297780838400,
    "geo": null,
    "place": null,
    "coordinates": null
  },
  {
    "text": "Better never than later?  Wait... http://bit.ly/hNMCsY",
    "time": "Sat Feb 05 02:23:13 +0000 2011",
    "id": 33712217522180096,
    "geo": null,
    "place": null,
    "coordinates": null
  },
  {
    "text": "Big Badda Boom.  http://bit.ly/fUuO3G",
    "time": "Wed Feb 02 17:06:27 +0000 2011",
    "id": 32847326519238656,
    "geo": null,
    "place": null,
    "coordinates": null
  },
  {
    "text": "Old School is the only school http://bit.ly/e0G4M4",
    "time": "Mon Jan 31 16:36:07 +0000 2011",
    "id": 32114915053404160,
    "geo": null,
    "place": null,
    "coordinates": null
  },
  {
    "text": "Tip for you, Sleep for me! http://bit.ly/fEUMmU",
    "time": "Fri Jan 28 13:28:07 +0000 2011",
    "id": 30980441032888320,
    "geo": null,
    "place": null,
    "coordinates": null
  },
  {
    "text": "Fighting the terrain itch, but feel myself giving in! http://bit.ly/gBhpDg",
    "time": "Thu Jan 27 00:05:19 +0000 2011",
    "id": 30416020938162176,
    "geo": null,
    "place": null,
    "coordinates": null
  },
  {
    "text": "Fenris' Finest are on the march! http://bit.ly/g7CjAP",
    "time": "Mon Jan 24 18:10:51 +0000 2011",
    "id": 29602043865866240,
    "geo": null,
    "place": null,
    "coordinates": null
  },
  {
    "text": "Quick Painting Tips from Dante http://bit.ly/ejJpLz",
    "time": "Wed Jan 19 17:18:03 +0000 2011",
    "id": 27776814004834304,
    "geo": null,
    "place": null,
    "coordinates": null
  },
  {
    "text": "Wolf Detailing and Progress http://bit.ly/fOmKIl",
    "time": "Mon Jan 17 18:21:29 +0000 2011",
    "id": 27068001337479170,
    "geo": null,
    "place": null,
    "coordinates": null
  },
  {
    "text": "Gloss Varnish and Alcohol.  I'm a fan. http://bit.ly/ie0N7E",
    "time": "Thu Jan 13 13:10:22 +0000 2011",
    "id": 25540157717348350,
    "geo": null,
    "place": null,
    "coordinates": null
  },
  {
    "text": "Wolves Wolves Wolves... http://bit.ly/gdIv9F",
    "time": "Tue Jan 11 17:03:57 +0000 2011",
    "id": 24874161973235710,
    "geo": null,
    "place": null,
    "coordinates": null
  },
  {
    "text": "Army, Squad, or Single Models?  http://bit.ly/g52gLW",
    "time": "Mon Jan 10 16:18:25 +0000 2011",
    "id": 24500319408889856,
    "geo": null,
    "place": null,
    "coordinates": null
  },
  {
    "text": "Desert Terrain that isn't barren and flat!  http://bit.ly/fpIW6T",
    "time": "Thu Jan 06 14:26:24 +0000 2011",
    "id": 23022576812957696,
    "geo": null,
    "place": null,
    "coordinates": null
  },
  {
    "text": "For Russ!  For the Wolftime! http://bit.ly/f38wgT",
    "time": "Wed Jan 05 19:39:21 +0000 2011",
    "id": 22738944705691650,
    "geo": null,
    "place": null,
    "coordinates": null
  },
  {
    "text": "Do you horde? Or are you a Single model on deck kinda modeler?  http://bit.ly/i2yEPL",
    "time": "Mon Jan 03 13:52:08 +0000 2011",
    "id": 21926787072139264,
    "geo": null,
    "place": null,
    "coordinates": null
  },
  {
    "text": "Happy New Year! http://bit.ly/i5YFQF",
    "time": "Fri Dec 31 17:04:23 +0000 2010",
    "id": 20888006785241090,
    "geo": null,
    "place": null,
    "coordinates": null
  },
  {
    "text": "Desert Support Colors for the Recon God http://bit.ly/eghc24",
    "time": "Wed Dec 29 15:41:58 +0000 2010",
    "id": 20142490531139584,
    "geo": null,
    "place": null,
    "coordinates": null
  },
  {
    "text": "Cheap reference books! http://bit.ly/dZutKB",
    "time": "Tue Dec 28 17:13:10 +0000 2010",
    "id": 19803054232571904,
    "geo": null,
    "place": null,
    "coordinates": null
  },
  {
    "text": "To DIY or Not To DIY http://bit.ly/haWFJL",
    "time": "Mon Dec 27 17:28:10 +0000 2010",
    "id": 19444440946974720,
    "geo": null,
    "place": null,
    "coordinates": null
  },
  {
    "text": "Need to upgrade your lighting? http://bit.ly/fLyPJ0",
    "time": "Fri Dec 24 23:41:23 +0000 2010",
    "id": 18451198763859970,
    "geo": null,
    "place": null,
    "coordinates": null
  },
  {
    "text": "Thinking of airbrushing an army?  You need to see this.  http://bit.ly/gTAxa0",
    "time": "Thu Dec 23 15:54:26 +0000 2010",
    "id": 17971299603193856,
    "geo": null,
    "place": null,
    "coordinates": null
  },
  {
    "text": "Expect more from this one in the future http://bit.ly/fOsKML",
    "time": "Wed Dec 22 15:43:15 +0000 2010",
    "id": 17606099251232768,
    "geo": null,
    "place": null,
    "coordinates": null
  },
  {
    "text": "Video:  Painting Dark Eldar Obsidian Rose http://bit.ly/eOTASW",
    "time": "Tue Dec 21 13:57:35 +0000 2010",
    "id": 17217119800262656,
    "geo": null,
    "place": null,
    "coordinates": null
  },
  {
    "text": "Do you plan your projects out?  http://bit.ly/f5mIz7",
    "time": "Mon Dec 20 15:05:24 +0000 2010",
    "id": 16871796380803072,
    "geo": null,
    "place": null,
    "coordinates": null
  },
  {
    "text": "Need to weather or chip black?  http://bit.ly/dH6eCV",
    "time": "Fri Dec 17 22:18:32 +0000 2010",
    "id": 15893634905804800,
    "geo": null,
    "place": null,
    "coordinates": null
  },
  {
    "text": "Oh yeah, we're back up and running :) http://bit.ly/awmuwp",
    "time": "Thu Oct 21 16:55:03 +0000 2010",
    "id": 28043651220,
    "geo": null,
    "place": null,
    "coordinates": null
  },
  {
    "text": "Crimson Fists by Les.  Check it out! http://bit.ly/aYxoiL",
    "time": "Fri Sep 24 17:03:48 +0000 2010",
    "id": 25422135023,
    "geo": null,
    "place": null,
    "coordinates": null
  },
  {
    "text": "Don't mind the lack of updates, we haven't forgotten about you! http://bit.ly/bTesCw",
    "time": "Wed Sep 22 18:50:09 +0000 2010",
    "id": 25236432188,
    "geo": null,
    "place": null,
    "coordinates": null
  },
  {
    "text": "KILL! MAIM! BURN!  http://bit.ly/99F7kq",
    "time": "Mon Sep 13 17:33:03 +0000 2010",
    "id": 24401667855,
    "geo": null,
    "place": null,
    "coordinates": null
  },
  {
    "text": "More Video, better video.  Getting the hang of taking painting footage!  http://bit.ly/cRGQwk",
    "time": "Sat Sep 11 01:05:11 +0000 2010",
    "id": 24153052727,
    "geo": null,
    "place": null,
    "coordinates": null
  },
  {
    "text": "Late link is better than no link :) http://bit.ly/cXAyTH",
    "time": "Sat Aug 28 06:19:41 +0000 2010",
    "id": 22332937675,
    "geo": null,
    "place": null,
    "coordinates": null
  },
  {
    "text": "Gamesday write ups are the new black http://bit.ly/bgkRhK",
    "time": "Tue Aug 24 23:02:20 +0000 2010",
    "id": 22038741269,
    "geo": null,
    "place": null,
    "coordinates": null
  },
  {
    "text": "Share your favorite tips and links!  http://bit.ly/bNPyXz",
    "time": "Sat Jul 31 02:13:42 +0000 2010",
    "id": 19957807044,
    "geo": null,
    "place": null,
    "coordinates": null
  },
  {
    "text": "Who's still playing Battletech?  This guy.  http://bit.ly/9PZk3N",
    "time": "Mon Jul 26 14:35:54 +0000 2010",
    "id": 19578056885,
    "geo": null,
    "place": null,
    "coordinates": null
  },
  {
    "text": "Realgenius is a bit of a genius with this one http://bit.ly/by7CcM",
    "time": "Fri Jul 23 12:52:50 +0000 2010",
    "id": 19336606215,
    "geo": null,
    "place": null,
    "coordinates": null
  },
  {
    "text": "We like count-as http://bit.ly/9Oh0yE",
    "time": "Thu Jul 22 13:13:12 +0000 2010",
    "id": 19253412931,
    "geo": null,
    "place": null,
    "coordinates": null
  },
  {
    "text": "One of the Top 5 models ever by GW http://bit.ly/c63snh",
    "time": "Wed Jul 21 15:03:23 +0000 2010",
    "id": 19082928654,
    "geo": null,
    "place": null,
    "coordinates": null
  },
  {
    "text": "Pattun's Boyz get an on the ground Commander!  http://bit.ly/dgDP5R",
    "time": "Tue Jul 20 13:39:03 +0000 2010",
    "id": 18994020037,
    "geo": null,
    "place": null,
    "coordinates": null
  },
  {
    "text": "Help a fellow reader! http://bit.ly/d37Sji",
    "time": "Mon Jul 19 15:45:48 +0000 2010",
    "id": 18925224560,
    "geo": null,
    "place": null,
    "coordinates": null
  },
  {
    "text": "RG is on the terrain warpath!  http://bit.ly/csCzcR",
    "time": "Sun Jul 18 23:49:36 +0000 2010",
    "id": 18872795434,
    "geo": null,
    "place": null,
    "coordinates": null
  },
  {
    "text": "Need an even base coat?  http://bit.ly/dvFrUo",
    "time": "Fri Jul 16 22:02:59 +0000 2010",
    "id": 18718717481,
    "geo": null,
    "place": null,
    "coordinates": null
  },
  {
    "text": "Airbrush week conintues!  grey_death is now doing video! http://bit.ly/cEUw81",
    "time": "Thu Jul 15 19:47:05 +0000 2010",
    "id": 18626796813,
    "geo": null,
    "place": null,
    "coordinates": null
  },
  {
    "text": "We want your links on airbrushing!!! http://bit.ly/bk2szw",
    "time": "Wed Jul 14 15:31:26 +0000 2010",
    "id": 18527748333,
    "geo": null,
    "place": null,
    "coordinates": null
  },
  {
    "text": "Airbrush Compressors http://bit.ly/abWyJY",
    "time": "Mon Jul 12 19:55:50 +0000 2010",
    "id": 18378279790,
    "geo": null,
    "place": null,
    "coordinates": null
  },
  {
    "text": "Airbrush Week:  Day 1 Airbrushes http://bit.ly/cfcwBy",
    "time": "Sun Jul 11 14:10:30 +0000 2010",
    "id": 18273658690,
    "geo": null,
    "place": null,
    "coordinates": null
  },
  {
    "text": "Glass Bead Rivets http://bit.ly/aL5G6l",
    "time": "Sat Jul 10 00:10:08 +0000 2010",
    "id": 18157368211,
    "geo": null,
    "place": null,
    "coordinates": null
  },
  {
    "text": "Testing out a new rust method! http://bit.ly/bDkqRo",
    "time": "Wed Jul 07 14:03:47 +0000 2010",
    "id": 17950932185,
    "geo": null,
    "place": null,
    "coordinates": null
  },
  {
    "text": "Hardboard terrain basing made easy! http://bit.ly/asvzVL",
    "time": "Mon Jul 05 23:00:42 +0000 2010",
    "id": 17823196393,
    "geo": null,
    "place": null,
    "coordinates": null
  },
  {
    "text": "Uberweathering!  http://bit.ly/bjA8BW",
    "time": "Sun Jul 04 17:39:09 +0000 2010",
    "id": 17734669642,
    "geo": null,
    "place": null,
    "coordinates": null
  },
  {
    "text": "Well, you'll have plenty of time to live in a van down by the river when you're...living in a van down by the river! http://bit.ly/aaX1CA",
    "time": "Wed Jun 30 17:31:28 +0000 2010",
    "id": 17430039155,
    "geo": null,
    "place": null,
    "coordinates": null
  },
  {
    "text": "Uh oh, it's The Claw! You're afraid of The Claw!  http://bit.ly/dxqNKQ",
    "time": "Tue Jun 29 18:31:17 +0000 2010",
    "id": 17354142835,
    "geo": null,
    "place": null,
    "coordinates": null
  },
  {
    "text": "Charity Army up for Auction http://bit.ly/byeYGm",
    "time": "Sun Jun 27 18:26:40 +0000 2010",
    "id": 17184736588,
    "geo": null,
    "place": null,
    "coordinates": null
  },
  {
    "text": "Two Color Rust Revisited http://bit.ly/bHXEGS",
    "time": "Sat Jun 26 11:27:09 +0000 2010",
    "id": 17085401943,
    "geo": null,
    "place": null,
    "coordinates": null
  },
  {
    "text": "We're running a contest celebrating our 500 follower milestone!  http://bit.ly/aApvcU",
    "time": "Mon Jun 14 14:02:44 +0000 2010",
    "id": 16149501395,
    "geo": null,
    "place": null,
    "coordinates": null
  },
  {
    "text": "Space Hulk Bases, Get more from your models! http://bit.ly/9CvTT4",
    "time": "Fri Jun 11 13:41:47 +0000 2010",
    "id": 15928712952,
    "geo": null,
    "place": null,
    "coordinates": null
  },
  {
    "text": "Kit bashed Sanguinary Priest Sighted http://bit.ly/cGuEXd",
    "time": "Thu Jun 10 15:43:55 +0000 2010",
    "id": 15858888489,
    "geo": null,
    "place": null,
    "coordinates": null
  },
  {
    "text": "Quick and Effective Blood Angels by Stahly http://bit.ly/aMpVEF",
    "time": "Wed Jun 09 12:21:41 +0000 2010",
    "id": 15777833208,
    "geo": null,
    "place": null,
    "coordinates": null
  },
  {
    "text": "Go! Donate! Do Good! Possibly win an army! http://bit.ly/bCtvZr",
    "time": "Fri Jun 04 23:55:45 +0000 2010",
    "id": 15450839912,
    "geo": null,
    "place": null,
    "coordinates": null
  },
  {
    "text": "Pigment Baseing http://bit.ly/9xE8n7",
    "time": "Fri Jun 04 13:17:26 +0000 2010",
    "id": 15414794274,
    "geo": null,
    "place": null,
    "coordinates": null
  },
  {
    "text": "Angels Sanguine Terminator Squad Complete! http://bit.ly/cvQ2kq",
    "time": "Tue Jun 01 22:34:15 +0000 2010",
    "id": 15207912874,
    "geo": null,
    "place": null,
    "coordinates": null
  },
  {
    "text": "Red Scorpion Biker http://bit.ly/aX9hh7",
    "time": "Sun May 30 21:52:42 +0000 2010",
    "id": 15066412718,
    "geo": null,
    "place": null,
    "coordinates": null
  },
  {
    "text": "Video: Angels Vermillion http://bit.ly/9YVP1R",
    "time": "Fri May 28 19:46:02 +0000 2010",
    "id": 14928272349,
    "geo": null,
    "place": null,
    "coordinates": null
  },
  {
    "text": "We likes it http://bit.ly/9TGdG5",
    "time": "Thu May 27 14:53:05 +0000 2010",
    "id": 14839564668,
    "geo": null,
    "place": null,
    "coordinates": null
  },
  {
    "text": "Field Report: Col. Gravis is awesome! http://bit.ly/9exSf0",
    "time": "Wed May 26 16:26:37 +0000 2010",
    "id": 14773920474,
    "geo": null,
    "place": null,
    "coordinates": null
  },
  {
    "text": "We are currently looking for appropriate advertisers on TPC, those interested should see the middle column for placement possible placement!",
    "time": "Tue May 25 21:19:39 +0000 2010",
    "id": 14718072134,
    "geo": null,
    "place": null,
    "coordinates": null
  },
  {
    "text": "More Angels of Death in the near future http://bit.ly/cjgx31",
    "time": "Tue May 25 15:57:26 +0000 2010",
    "id": 14701715595,
    "geo": null,
    "place": null,
    "coordinates": null
  },
  {
    "text": "Reinforcements: Angels Sanguine Terminator http://bit.ly/cmy9Sn",
    "time": "Mon May 24 19:50:49 +0000 2010",
    "id": 14643553236,
    "geo": null,
    "place": null,
    "coordinates": null
  },
  {
    "text": "Cadian Field Report:  http://bit.ly/bSIH0z",
    "time": "Sun May 23 20:20:00 +0000 2010",
    "id": 14576765881,
    "geo": null,
    "place": null,
    "coordinates": null
  },
  {
    "text": "Airbrushing Highlights http://bit.ly/aRPPzk",
    "time": "Fri May 21 18:27:54 +0000 2010",
    "id": 14445225869,
    "geo": null,
    "place": null,
    "coordinates": null
  },
  {
    "text": "ACES Rules! http://bit.ly/apO93n",
    "time": "Wed May 19 23:48:03 +0000 2010",
    "id": 14324487117,
    "geo": null,
    "place": null,
    "coordinates": null
  },
  {
    "text": "ACES on the Table! http://bit.ly/dj4mho",
    "time": "Wed May 19 00:07:01 +0000 2010",
    "id": 14259243235,
    "geo": null,
    "place": null,
    "coordinates": null
  },
  {
    "text": "Blending Field Report http://bit.ly/aCwWYz",
    "time": "Sun May 16 19:55:48 +0000 2010",
    "id": 14116979681,
    "geo": null,
    "place": null,
    "coordinates": null
  },
  {
    "text": "You Down with O t T? http://bit.ly/aKgtzl",
    "time": "Sat May 15 21:15:18 +0000 2010",
    "id": 14058915202,
    "geo": null,
    "place": null,
    "coordinates": null
  },
  {
    "text": "A weathering tip on TPC?  Who'da thought? http://bit.ly/9QJeHM",
    "time": "Fri May 14 15:39:41 +0000 2010",
    "id": 13982607600,
    "geo": null,
    "place": null,
    "coordinates": null
  },
  {
    "text": "Surplus Lysander http://bit.ly/at3dLU",
    "time": "Thu May 13 19:29:44 +0000 2010",
    "id": 13930509327,
    "geo": null,
    "place": null,
    "coordinates": null
  },
  {
    "text": "Great Ork Skin Tutorial http://bit.ly/aexuId",
    "time": "Wed May 12 21:04:06 +0000 2010",
    "id": 13871798501,
    "geo": null,
    "place": null,
    "coordinates": null
  },
  {
    "text": "Field Report Red Eldar http://bit.ly/akfFEn",
    "time": "Mon May 10 19:30:26 +0000 2010",
    "id": 13743805682,
    "geo": null,
    "place": null,
    "coordinates": null
  },
  {
    "text": "Time to Skin your Teddy Bears http://bit.ly/dxLwWO",
    "time": "Sun May 09 17:56:22 +0000 2010",
    "id": 13680091933,
    "geo": null,
    "place": null,
    "coordinates": null
  },
  {
    "text": "Freehand hints and tips from RG today! http://bit.ly/b9jMHU",
    "time": "Fri May 07 19:19:43 +0000 2010",
    "id": 13565035848,
    "geo": null,
    "place": null,
    "coordinates": null
  },
  {
    "text": "Surplus:  Dire Avengers and Wave Serpent!  http://bit.ly/aSIXy6",
    "time": "Thu May 06 23:04:33 +0000 2010",
    "id": 13513451336,
    "geo": null,
    "place": null,
    "coordinates": null
  },
  {
    "text": "Obiwan Sherlock Clousseau http://bit.ly/d4huba",
    "time": "Sun May 02 12:16:39 +0000 2010",
    "id": 13242780714,
    "geo": null,
    "place": null,
    "coordinates": null
  },
  {
    "text": "Track marks bad! Track Weathering Good!  http://bit.ly/aCmBd2",
    "time": "Fri Apr 30 15:31:37 +0000 2010",
    "id": 13135198730,
    "geo": null,
    "place": null,
    "coordinates": null
  },
  {
    "text": "Ask the Corps:  Polar Fortress http://bit.ly/c7p7Y3",
    "time": "Mon Apr 26 16:11:00 +0000 2010",
    "id": 12891196903,
    "geo": null,
    "place": null,
    "coordinates": null
  },
  {
    "text": "Big Bada Boom! http://bit.ly/bQ3tzX",
    "time": "Fri Apr 23 14:23:47 +0000 2010",
    "id": 12704763555,
    "geo": null,
    "place": null,
    "coordinates": null
  },
  {
    "text": "Hobbit Country http://bit.ly/cHvp5c",
    "time": "Thu Apr 22 19:59:34 +0000 2010",
    "id": 12658064270,
    "geo": null,
    "place": null,
    "coordinates": null
  },
  {
    "text": "Eldar on the Way http://bit.ly/aAcSt0",
    "time": "Wed Apr 21 15:45:40 +0000 2010",
    "id": 12583393513,
    "geo": null,
    "place": null,
    "coordinates": null
  },
  {
    "text": "Make it orky http://bit.ly/cIP3KI",
    "time": "Mon Apr 19 14:06:32 +0000 2010",
    "id": 12457376180,
    "geo": null,
    "place": null,
    "coordinates": null
  },
  {
    "text": "Victorian Terrain WIP's to Drool over http://bit.ly/dbgJuS",
    "time": "Sun Apr 18 16:41:11 +0000 2010",
    "id": 12406179256,
    "geo": null,
    "place": null,
    "coordinates": null
  },
  {
    "text": "A little late, but I think you'll agree it was worth the wait! http://bit.ly/bUjoMI",
    "time": "Fri Apr 16 21:07:57 +0000 2010",
    "id": 12304556292,
    "geo": null,
    "place": null,
    "coordinates": null
  },
  {
    "text": "Rockin Realism http://bit.ly/aAWnVh",
    "time": "Thu Apr 15 20:15:37 +0000 2010",
    "id": 12241995592,
    "geo": null,
    "place": null,
    "coordinates": null
  },
  {
    "text": "Lamentors: /wrist vampires http://bit.ly/bSC34v",
    "time": "Wed Apr 14 13:41:51 +0000 2010",
    "id": 12163678675,
    "geo": null,
    "place": null,
    "coordinates": null
  },
  {
    "text": "Step by Step, Day by Day... http://bit.ly/aPYJQw",
    "time": "Tue Apr 13 12:46:33 +0000 2010",
    "id": 12101610555,
    "geo": null,
    "place": null,
    "coordinates": null
  },
  {
    "text": "Son of a...Medusa?  Razorback Reinforcements! http://bit.ly/aQNuUh",
    "time": "Mon Apr 12 16:24:31 +0000 2010",
    "id": 12054260093,
    "geo": null,
    "place": null,
    "coordinates": null
  },
  {
    "text": "Paint compatibility chart! http://bit.ly/bbPjfS",
    "time": "Mon Apr 12 00:59:14 +0000 2010",
    "id": 12019644884,
    "geo": null,
    "place": null,
    "coordinates": null
  },
  {
    "text": "Treadheads, lets hear it http://bit.ly/cbuYQO",
    "time": "Sat Apr 10 20:02:13 +0000 2010",
    "id": 11953548894,
    "geo": null,
    "place": null,
    "coordinates": null
  },
  {
    "text": "Nice headlights http://bit.ly/9CCjcN",
    "time": "Fri Apr 09 18:33:48 +0000 2010",
    "id": 11894794995,
    "geo": null,
    "place": null,
    "coordinates": null
  },
  {
    "text": "Rogue Demon Open Winners http://bit.ly/9eLcR1",
    "time": "Thu Apr 08 12:31:54 +0000 2010",
    "id": 11820878538,
    "geo": null,
    "place": null,
    "coordinates": null
  },
  {
    "text": "Rogue Demon Squad/Regiment Winners http://bit.ly/bCI4gd",
    "time": "Wed Apr 07 23:23:02 +0000 2010",
    "id": 11792342279,
    "geo": null,
    "place": null,
    "coordinates": null
  },
  {
    "text": "Rogue Demon Youngblood Winners http://bit.ly/bdpSsb",
    "time": "Wed Apr 07 12:07:20 +0000 2010",
    "id": 11752822159,
    "geo": null,
    "place": null,
    "coordinates": null
  },
  {
    "text": "Rogue Demon Small Scale Winners http://bit.ly/bUc2VU",
    "time": "Wed Apr 07 03:52:09 +0000 2010",
    "id": 11737548738,
    "geo": null,
    "place": null,
    "coordinates": null
  },
  {
    "text": "Rogue Demon Large Monster/Vehicle Winners http://bit.ly/aUu36f",
    "time": "Tue Apr 06 13:21:26 +0000 2010",
    "id": 11697792660,
    "geo": null,
    "place": null,
    "coordinates": null
  },
  {
    "text": "Are you an artist or a technician?  http://bit.ly/99xleN",
    "time": "Tue Apr 06 00:57:53 +0000 2010",
    "id": 11671040454,
    "geo": null,
    "place": null,
    "coordinates": null
  },
  {
    "text": "Sci Fi Winners http://bit.ly/caEInz",
    "time": "Tue Apr 06 00:01:58 +0000 2010",
    "id": 11668384369,
    "geo": null,
    "place": null,
    "coordinates": null
  },
  {
    "text": "Reinforcements Warp Spider Exarch  http://bit.ly/bvDa6N",
    "time": "Mon Apr 05 19:54:08 +0000 2010",
    "id": 11657537292,
    "geo": null,
    "place": null,
    "coordinates": null
  },
  {
    "text": "Adepticon 2010 Single Fantasy Miniature winning minis! http://bit.ly/9ftveS",
    "time": "Sun Apr 04 23:34:59 +0000 2010",
    "id": 11611846421,
    "geo": null,
    "place": null,
    "coordinates": null
  },
  {
    "text": "Dragonforge HOOOOOOO!!  http://bit.ly/bIUExm",
    "time": "Sun Apr 04 14:51:31 +0000 2010",
    "id": 11590838565,
    "geo": null,
    "place": null,
    "coordinates": null
  },
  {
    "text": "Adepticon 2010 Rogue Demon Historical Winners http://bit.ly/cpJYDm",
    "time": "Sat Apr 03 12:50:27 +0000 2010",
    "id": 11532880551,
    "geo": null,
    "place": null,
    "coordinates": null
  },
  {
    "text": "I do my little turn on the catwalk... http://bit.ly/aEOILp",
    "time": "Fri Apr 02 20:23:46 +0000 2010",
    "id": 11498949486,
    "geo": null,
    "place": null,
    "coordinates": null
  },
  {
    "text": "The Emperor and Horus!  Adepticon continues to bring great photos.  http://bit.ly/cqqZnX",
    "time": "Wed Mar 31 02:02:23 +0000 2010",
    "id": 11341659508,
    "geo": null,
    "place": null,
    "coordinates": null
  },
  {
    "text": "Junglefight! http://bit.ly/9qG4wT",
    "time": "Tue Mar 30 12:36:33 +0000 2010",
    "id": 11305651278,
    "geo": null,
    "place": null,
    "coordinates": null
  },
  {
    "text": "Studio McVey  is now on Facebook http://bit.ly/c0V8Ff",
    "time": "Mon Mar 29 14:01:50 +0000 2010",
    "id": 11250298145,
    "geo": null,
    "place": null,
    "coordinates": null
  },
  {
    "text": "For the Greater Good...of the Hobby! http://bit.ly/azh98d",
    "time": "Mon Mar 29 13:54:41 +0000 2010",
    "id": 11249961526,
    "geo": null,
    "place": null,
    "coordinates": null
  },
  {
    "text": "Adepticon Rogue Demon Best of Show http://bit.ly/aybCCp",
    "time": "Mon Mar 29 12:55:56 +0000 2010",
    "id": 11247430844,
    "geo": null,
    "place": null,
    "coordinates": null
  },
  {
    "text": "Rogue Demon Results Up!  Pics to come soon! http://bit.ly/90geTT",
    "time": "Sun Mar 28 19:44:57 +0000 2010",
    "id": 11209448172,
    "geo": null,
    "place": null,
    "coordinates": null
  },
  {
    "text": "Be sure to check out TPC as the weekend progresses!  RG is posting updates straight from Adepticon 2010 as it goes on!",
    "time": "Sat Mar 27 18:57:11 +0000 2010",
    "id": 11157348671,
    "geo": null,
    "place": null,
    "coordinates": null
  },
  {
    "text": "Adepticon: Day 1 w/a VERY quick tip! http://bit.ly/bbyN6t",
    "time": "Fri Mar 26 16:08:53 +0000 2010",
    "id": 11096851082,
    "geo": null,
    "place": null,
    "coordinates": null
  },
  {
    "text": "Mutha Fortress!  http://bit.ly/cLGiNo",
    "time": "Thu Mar 25 21:57:06 +0000 2010",
    "id": 11055368803,
    "geo": null,
    "place": null,
    "coordinates": null
  },
  {
    "text": "Blending a go go!  http://bit.ly/c3bbWA",
    "time": "Wed Mar 24 13:33:20 +0000 2010",
    "id": 10979084258,
    "geo": null,
    "place": null,
    "coordinates": null
  },
  {
    "text": "Eldar Terrain! http://bit.ly/bq3XVH",
    "time": "Tue Mar 23 21:35:29 +0000 2010",
    "id": 10944995006,
    "geo": null,
    "place": null,
    "coordinates": null
  },
  {
    "text": "Save the  Whales!  Recycle! http://bit.ly/cfbCn4",
    "time": "Mon Mar 22 13:12:47 +0000 2010",
    "id": 10870988544,
    "geo": null,
    "place": null,
    "coordinates": null
  },
  {
    "text": "Speed kills!  Wait, what?  http://bit.ly/a4kEEo",
    "time": "Sun Mar 21 15:09:47 +0000 2010",
    "id": 10824269589,
    "geo": null,
    "place": null,
    "coordinates": null
  },
  {
    "text": "Layering FoW minis? Insanity!  http://bit.ly/aUJyJm",
    "time": "Sat Mar 20 21:02:03 +0000 2010",
    "id": 10789791060,
    "geo": null,
    "place": null,
    "coordinates": null
  },
  {
    "text": "Tearers of the Flesh! http://bit.ly/9OlKnK",
    "time": "Fri Mar 19 21:16:55 +0000 2010",
    "id": 10741535486,
    "geo": null,
    "place": null,
    "coordinates": null
  },
  {
    "text": "If you're not following Massive Voodoo yet, you're wrong! http://bit.ly/9VJu5k",
    "time": "Thu Mar 18 19:39:46 +0000 2010",
    "id": 10686128536,
    "geo": null,
    "place": null,
    "coordinates": null
  },
  {
    "text": "Mother of Pearl! http://bit.ly/ar1W0f",
    "time": "Wed Mar 17 13:38:20 +0000 2010",
    "id": 10621667063,
    "geo": null,
    "place": null,
    "coordinates": null
  },
  {
    "text": "Have something you'd like to see us cover?  Leave us a note here or at ThePaintingCorps@gmail.com!",
    "time": "Wed Mar 17 04:28:28 +0000 2010",
    "id": 10605806614,
    "geo": null,
    "place": null,
    "coordinates": null
  },
  {
    "text": "Product Reviews for the Wargamer's Soul. http://thepaintingcorps.blogspot.com/2010/03/field-report-cnc-miniature-scenery.html",
    "time": "Tue Mar 16 21:32:16 +0000 2010",
    "id": 10588579869,
    "geo": null,
    "place": null,
    "coordinates": null
  },
  {
    "text": "Scarred faces and Stubble http://thepaintingcorps.blogspot.com/2010/03/friday-quick-tip-faces-and-stubble.html",
    "time": "Sat Mar 13 01:53:30 +0000 2010",
    "id": 10401126383,
    "geo": null,
    "place": null,
    "coordinates": null
  },
  {
    "text": "Crash and Burn! http://thepaintingcorps.blogspot.com/2010/03/field-report-wreck-diorama.html",
    "time": "Fri Mar 12 02:13:27 +0000 2010",
    "id": 10351185456,
    "geo": null,
    "place": null,
    "coordinates": null
  },
  {
    "text": "No, you can't get high from them http://thepaintingcorps.blogspot.com/2010/03/field-report-roll-your-own-weeds.html",
    "time": "Wed Mar 10 14:05:46 +0000 2010",
    "id": 10272323859,
    "geo": null,
    "place": null,
    "coordinates": null
  },
  {
    "text": "Serious 'Count As' Army http://thepaintingcorps.blogspot.com/2010/03/field-report-dune-40k-army.html",
    "time": "Wed Mar 10 03:17:53 +0000 2010",
    "id": 10253212127,
    "geo": null,
    "place": null,
    "coordinates": null
  },
  {
    "text": "What's missing from your table? Hay Bales http://thepaintingcorps.blogspot.com/2010/03/field-report-15mm-hay-bales.html",
    "time": "Mon Mar 08 19:44:29 +0000 2010",
    "id": 10184885087,
    "geo": null,
    "place": null,
    "coordinates": null
  },
  {
    "text": "CoD Space Hulk http://thepaintingcorps.blogspot.com/2010/03/field-report-nedius-space-hulk.html",
    "time": "Mon Mar 08 04:11:39 +0000 2010",
    "id": 10154258537,
    "geo": null,
    "place": null,
    "coordinates": null
  },
  {
    "text": "Share your wisdom! http://thepaintingcorps.blogspot.com/2010/03/ask-corps-jungle-terrain.html",
    "time": "Sat Mar 06 23:05:46 +0000 2010",
    "id": 10093568614,
    "geo": null,
    "place": null,
    "coordinates": null
  },
  {
    "text": "Great Defiler Re-imagining http://thepaintingcorps.blogspot.com/2010/03/field-report-kmb-defiler.html",
    "time": "Thu Mar 04 20:22:28 +0000 2010",
    "id": 9989008575,
    "geo": null,
    "place": null,
    "coordinates": null
  },
  {
    "text": "Monster Mash http://thepaintingcorps.blogspot.com/2010/03/field-report-painting-monstrous-faces.html",
    "time": "Wed Mar 03 15:28:31 +0000 2010",
    "id": 9928387351,
    "geo": null,
    "place": null,
    "coordinates": null
  },
  {
    "text": "Charlie Don't Surf. http://thepaintingcorps.blogspot.com/2010/03/field-report-son-tay-prison.html",
    "time": "Tue Mar 02 14:39:46 +0000 2010",
    "id": 9876734728,
    "geo": null,
    "place": null,
    "coordinates": null
  },
  {
    "text": "Pups in Space! http://thepaintingcorps.blogspot.com/2010/03/field-report-painting-space-wolves.html",
    "time": "Mon Mar 01 15:37:18 +0000 2010",
    "id": 9829501249,
    "geo": null,
    "place": null,
    "coordinates": null
  },
  {
    "text": "Old is New! http://thepaintingcorps.blogspot.com/2010/02/field-report-cleaning-and-repairing-old.html",
    "time": "Mon Mar 01 02:56:59 +0000 2010",
    "id": 9806226561,
    "geo": null,
    "place": null,
    "coordinates": null
  },
  {
    "text": "Zombies Power Armor and Dark dank hallways http://thepaintingcorps.blogspot.com/2010/02/review-incursion.html",
    "time": "Sat Feb 27 19:57:56 +0000 2010",
    "id": 9743244659,
    "geo": null,
    "place": null,
    "coordinates": null
  },
  {
    "text": "Oils and Acrylics in the same Video! http://thepaintingcorps.blogspot.com/2010/02/les-shows-great-bit-of-info-on-wet.html",
    "time": "Sat Feb 27 01:09:56 +0000 2010",
    "id": 9706151013,
    "geo": null,
    "place": null,
    "coordinates": null
  },
  {
    "text": "Commence Oh's and Ah's http://thepaintingcorps.blogspot.com/2010/02/field-report-painting-salamanders-space.html",
    "time": "Thu Feb 25 19:37:44 +0000 2010",
    "id": 9639983479,
    "geo": null,
    "place": null,
    "coordinates": null
  },
  {
    "text": "All your basing tips are belong to us http://thepaintingcorps.blogspot.com/2010/02/field-report-guard-heavy-weapon-team.html",
    "time": "Thu Feb 25 00:35:25 +0000 2010",
    "id": 9600935330,
    "geo": null,
    "place": null,
    "coordinates": null
  },
  {
    "text": "OoooOooo Weathering... http://thepaintingcorps.blogspot.com/2010/02/field-report-forgeworld-weathering.html",
    "time": "Tue Feb 23 14:30:50 +0000 2010",
    "id": 9527693744,
    "geo": null,
    "place": null,
    "coordinates": null
  },
  {
    "text": "Wonder why he didn't review finger paints http://thepaintingcorps.blogspot.com/2010/02/field-report-paint-reviews.html",
    "time": "Mon Feb 22 18:29:23 +0000 2010",
    "id": 9487233953,
    "geo": null,
    "place": null,
    "coordinates": null
  },
  {
    "text": "Want to use an airbrush?  Check this out http://thepaintingcorps.blogspot.com/2010/02/field-report-airbrushing-minis-tips.html",
    "time": "Mon Feb 22 02:19:47 +0000 2010",
    "id": 9456500915,
    "geo": null,
    "place": null,
    "coordinates": null
  },
  {
    "text": "Strike a Pose http://thepaintingcorps.blogspot.com/2010/02/field-report-photography-thoughts.html",
    "time": "Sun Feb 21 05:52:54 +0000 2010",
    "id": 9417617605,
    "geo": null,
    "place": null,
    "coordinates": null
  },
  {
    "text": "Don't sniff the residue... http://thepaintingcorps.blogspot.com/2010/02/friday-quick-tip-resin-basing-metal.html",
    "time": "Fri Feb 19 19:09:57 +0000 2010",
    "id": 9348414510,
    "geo": null,
    "place": null,
    "coordinates": null
  },
  {
    "text": "Goo Made From Metal http://thepaintingcorps.blogspot.com/2010/02/field-report-quick-nurgle-with-solder.html",
    "time": "Thu Feb 18 20:34:08 +0000 2010",
    "id": 9299851004,
    "geo": null,
    "place": null,
    "coordinates": null
  },
  {
    "text": "Hot Hot Heat http://thepaintingcorps.blogspot.com/2010/02/field-report-hotshot-lasguns.html",
    "time": "Thu Feb 18 05:50:31 +0000 2010",
    "id": 9271448590,
    "geo": null,
    "place": null,
    "coordinates": null
  },
  {
    "text": "New Xenos Type Spotted. http://thepaintingcorps.blogspot.com/2010/02/field-report-slithering-hive-guard.html",
    "time": "Tue Feb 16 14:26:52 +0000 2010",
    "id": 9186654592,
    "geo": null,
    "place": null,
    "coordinates": null
  },
  {
    "text": "Sand Scale Is an Issue!  http://thepaintingcorps.blogspot.com/2010/02/field-report-epic-basing.html",
    "time": "Mon Feb 15 15:58:07 +0000 2010",
    "id": 9145231757,
    "geo": null,
    "place": null,
    "coordinates": null
  },
  {
    "text": "Be Amazed. http://thepaintingcorps.blogspot.com/2010/02/field-report-diorama.html",
    "time": "Sun Feb 14 19:59:53 +0000 2010",
    "id": 9110056489,
    "geo": null,
    "place": null,
    "coordinates": null
  },
  {
    "text": "Heads Up! http://thepaintingcorps.blogspot.com/2010/02/heresy-online-paintingconverting.html",
    "time": "Sun Feb 14 01:38:47 +0000 2010",
    "id": 9078663089,
    "geo": null,
    "place": null,
    "coordinates": null
  },
  {
    "text": "Score that metal http://thepaintingcorps.blogspot.com/2010/02/friday-quick-tip-scoring-metal.html",
    "time": "Fri Feb 12 18:38:36 +0000 2010",
    "id": 9020500789,
    "geo": null,
    "place": null,
    "coordinates": null
  }
]