{
  "comments": [
    {
      "threadId": "4246637791",
      "post": "If I've learned anything from this site over the years: Never get off the boat. Go Jays Go!",
      "time": "2015-10-21T19:42:59",
      "id": "2319659052"
    },
    {
      "threadId": "2793118603",
      "post": "Grew up in Calgary, have family all over rural Saskatchewan, and have lived in Toronto for two decades and I've heard (and used) \"Wobbly Pop\" in all three places. Not *constantly* but enough that I wouldn't bat an eyelash at it, personally. It does strike me as potentially more a rural slang word than an urban one though (at least if I think about the backgrounds of the people I know who use the term the most, anyway).",
      "time": "2014-06-25T16:30:51",
      "id": "1453914514"
    },
    {
      "threadId": "2585830705",
      "post": "Flash still has a higher penetration of desktop browser support over html5 (especially in enterprise with legacy browsers) and deeper hardware acceleration support - so I can think of some cases (Especially for intranet / web-app / tool / porting to stand-alone mobile app stuff) where it might be a preferable option. \n\nCertainly wouldn't recommend it for a general website though given the importance of mobile/responsive rendering.",
      "time": "2014-04-04T16:30:24",
      "id": "1318608193",
      "parentPost": "Serious and curious question: Are people really still developing websites in flash? Is there some benefit to doing it this way I'm not aware of?",
      "parentPostTime": "2014-04-04T15:56:59",
      "parentPostId": "1318537405"
    },
    {
      "threadId": "2583197668",
      "post": "Typing skills are rarely the bottleneck when it comes to a lot of types of transcribing. If you're familiar with the content and it's a clear recording then you can approach capturing in real time... but that goes out the window when you're working with things like interview footage... since comprehension (and sometimes poor audio recording quality) is a much bigger issue.",
      "time": "2014-04-03T15:28:54",
      "id": "1316843005",
      "parentPost": "It would help if s/he had fast typing skills. One should be able to type as fast as they talk. Listen and type the whole way through, then go back and refine the areas that need editing. Regardless, not happening in less than an hour.",
      "parentPostTime": "2014-04-03T14:57:53",
      "parentPostId": "1316799492"
    },
    {
      "threadId": "1918845677",
      "post": "Del Toro spoke about having more than one house during an \"in conversation with\" to the Academy of Cinema and Television during TIFF. Apparently he can't bring himself to get rid of all the books, and toys, and artwork he collects so he just buys \"extra houses\" and sets them up as personal libraries. That'll be a heck of a collection to bequeath some day!",
      "time": "2013-11-04T22:48:52",
      "id": "1108890055"
    },
    {
      "threadId": "326150249",
      "post": "Sorry, I didn't see it underneath the facebook plugin (whose width seems to breaking your design at least on Firefox and iOS - you might want to look at forcing it to 500px or so in the plugin settings). \n\nI have no idea why people who don't use Disqus would come here to comment but if you read the thread it's a pretty common issue for some reason. \n\nHaving multiple comment plugins could be part of the problem on your site (I have no way of knowing how the two interact with each other and Wordpress) - but see the comments below from \"Angel\" if you disable \"2012 interface mode\" you can sometimes re-set the comment settings and then re-enable \"2012 interface\" - and still get the result your looking for.",
      "time": "2013-06-14T17:09:49",
      "id": "930816144",
      "parentPost": "Yes, it does. Have you viewed my website..? http://myprettyblog.com",
      "parentPostTime": "2013-06-14T06:47:14",
      "parentPostId": "930250060"
    },
    {
      "threadId": "1340280020",
      "post": "I'm not a particularly fervent politco so I don't know what regular office turnover is like - but that strikes me as both high and in a very short time. Now if you want to make an argument about not being able to handle the increased pressure of recent weeks that's maybe possible - but neither the mayor nor his staff are saying that. I'm also not sure why the mayor would spin if they were fired. He was quite clear that he fired Towhey, and everyone since has \"left for other opportunities\". \n\n\n\nAs for \"coming forward\" I would presume senior staff in any type of political office who want to continue to work in politics don't volunteer information in the press, unless legally obligated. \n\nI know that if I resigned (or was fired) from my current job and I went and talked about internal discussions (or substance abuse issues) in the press I'd never work in my line of work again - even if what I said was to the benefit of my companies competitors.",
      "time": "2013-05-30T19:32:26",
      "id": "914144977",
      "parentPost": "The political climate has changed in the last 2 years...Why do you suppose NONE of them are coming forward ?After all they would be hailed as heroes wouldn't they?",
      "parentPostTime": "2013-05-30T19:08:59",
      "parentPostId": "914122481"
    },
    {
      "threadId": "1318069040",
      "post": "It's been a bit of an \"open secret\" in Toronto that this story was written, and then shelved by the Globe over a year ago. It may boil down to the fact that libel and defamation laws are much stricter in Canada than elsewhere - and one of the clearest defenses for a newspaper is demonstrating an \"immediate public interest\" - which would have to be easier now than a year ago. It also could be that more sources were willing to come forward to confirm these allegations recently.\n\nAlso important is the increasing role of David Price in the mayors office (the article alleges he was Doug's major dealing partner) when he showed up oddly a few months ago as a \"logistics director\" with no obvious experience in politics and who seems to operate more as a cartoonish \"hired goon\" for the mayor.\n\nFinally, Canadian press is (honestly) not generally in the practice of prurient muckraking. There's a number of similar \"open secrets\" I'm aware of regarding substance abuse, personal issues, and sexuality of prominent figures that aren't reported on unless it's concretely is affecting the public (for example the crack dealers dealing the alleged video also alleged sales to a number of other prominent Toronto figures which has been mostly ignored as none of them are currently the mayor of the city) . \n\nI suspect increasing concerns about Fords health and well being have shifted the lens as to how much this  family history may be applicable to the current administration (although personally I always thought it would have been applicable long ago as Fords first civic campaign significantly focused on getting drug dealers out of his district).\n",
      "time": "2013-05-25T17:04:08",
      "id": "908184263"
    },
    {
      "threadId": "1295152491",
      "post": "Yeah, unfortunately to even continue that line of debate one has to buy into the presumption that \"the MSM\" is a singular thing, and I reject that viewpoint entirely (and think it's lazy rhetoric that's hamstrung political discourse in the US). I'm sure it's true for individual writers and outlets - but if you see \"the media\" as homogenous, you're not making an effort to read enough outside of your comfort zone.\n\n\nYour singular point was that the Rob Ford case is a witch hunt which I argue it can't be given 14 years of history of bad behaviour. Federal politics has nothing to do with it.",
      "time": "2013-05-17T22:05:10",
      "id": "900747834",
      "parentPost": "Then I misunderstood what you meant by \"I absolutely believe the MSM is hard against public figures.\" My point is the MSM is hard on only the public figures they (the media) don't like. This doesn't include Justin, at least not now anyway.\nRob Ford could propose to change the name of Toronto to Laytonville and the media would still dislike him.",
      "parentPostTime": "2013-05-17T21:54:56",
      "parentPostId": "900740495"
    },
    {
      "threadId": "656423488",
      "post": "Ford's refusal to attend Pride has nothing to do with his freedoms as an individual. One of the (few) hard and fast *duty's* of a mayor beyond that of any ordinary councilor is to represent a municipality at civic functions, and Toronto Pride - as one of the oldest and largest in the world ranks. The mayor repeatedly *not* attending a single photo-op of a 10 day event can't be interpreted as anything else than taking a moral stand \"against\" something... which again, is problematic in his role as municipal figurehead, or an event that's about inclusivity and tolerance. \n\nHe absolutely has the freedom to resign as mayor if he feels that strongly about it. But it literally is his job. Increasingly I find I just feel bad for Ford, as he strikes me as someone who seems constantly surprised by what the day to day job description of a mayor *is* (and it's a job he's neither suited for, nor particularly enjoys). \n\nA friend of mine put it best that Ford seems like that guy who works in the mail-room who's convinced he could \"whip this company into shape if you gave me one week as boss\" without any comprehension of the actual logistical issues involved. \n",
      "time": "2012-04-19T18:36:17",
      "id": "502606321"
    },
    {
      "threadId": "268411784",
      "post": " For the record I'm well aware this comment is linkspam - it's just \nsuch charming linkspam, I can't bring myself to delete it.  ",
      "time": "2012-02-29T15:52:32",
      "id": "452412849",
      "parentPost": " Strawberry Shortcake, are no Mr. Hooper. ",
      "parentPostTime": "2011-12-22T07:34:31",
      "parentPostId": "392061811"
    },
    {
      "threadId": "325925334",
      "post": "I'm not going to argue that YYZ is a bargain or anything - but it's got nothing on the concourse gouging in major US hubs... heck Phoenix Skyharbor literally had to start a \"We'll do something about the prices, promise\" ad campaign it got so bad. \n\nI'll always get my bottle of water at pearson if I'm conncecting in the US... always cheaper. \n\nAlso - I agree that lowering landing fees doesn't really solve anything... current tennants cluttering up the board with lower-margin flights isn't going to improve ticket prices or quality... ",
      "time": "2011-06-09T15:50:23",
      "id": "222422357"
    },
    {
      "threadId": "297072027",
      "post": "Glad to see this great show getting some love Torontoist! \n\n\nI saw both shows in their original runs, last year - and really hope people come out to see their remount. (re)Birth was the sold out star of last years CanWest Cabaret Festival and is a really magical experience. The two should pair really well for a fantastic night of live theatre - even for folks who aren't big \"live theatre\" fans. Also, if you're willing to take a little bit of risk - Soulpepper often has a limited number of Rush tickets for $22 (or *$5* if you're under 21) available half an hour before curtain. Tough to beat that (especially given that's about what a beer will run you down in the Distillery... I kid, kid). \n",
      "time": "2011-05-06T18:33:41",
      "id": "198550970"
    },
    {
      "threadId": "247808146",
      "post": "\"Here's the thing about curling's eldrich hypnosis powers\" is how I originally started this comment. Then I realized that there was no way to end that sentence that would lead to the Internet being a better place so I deleted it and wrote this instead. \n\nConsider the hammer relinquished. \n",
      "time": "2011-03-07T19:19:39",
      "id": "161927169"
    },
    {
      "threadId": "244024441",
      "post": "Hi Darren, \n\nThanks for reading. You're absolutely correct that \"data\" isn't finite by any quantifiable measure (I was just trying to speak to Nowak's argument about \"delivery\" and \"useage\" which I think oversimplifies the issue) but rather pipeline capacity. \n\nThe rub though is that volume is the metric you use to use to provision a network to account for peak useage even if you're only concerned with throughput.\n\nLet's assume we have a hypothetical neighbourhood of 10 users, each with a 1Mb/s connection from a 5Mb/s \"trunk\". If you want to stick to a hard \"capacity limit\" you'd have to halve users connection speeds because it's conceivable under peak useage you're going to be oversubscribed by 100%. Now we all know that the likelyhood of all 10 users being on-line and wanting to use their full throughput is statistically next to nothing, so we'll do some modelling to project use patterns, and we find out that it's more than likely that trunk could support significantly more people than 10 with no perceived deterioration of service. But what exactly is tricky. So we do some basic actuarial work - modeling a spectrum of users to arrive at a conclusion that \"our network needs to support an average of 1Mb/s for X seconds a month per user\" which - of course - results in a volume calculation (Mb/ month / user). Now the easiest way to maintain this model so that no one user can break it to the detriment of everyone is to set a hard cap on the upper end of this modeled spectrum so that y the predictive model *can't* be broken (or is very limited). And then you've ended right back at having a volume based cap. \n\nThe same is exactly how water is billed. Let's be frank, no one (in Canada anyway) is worried about running out of water when you turn on the tap - but the *pressure* of the system is key. That being said the easiest way to provision the network is to monitor *volume* at every location, even though what's of the most concern is trying to make sure the system isn't oversubscribed to the point it fails when everyone flushes their toilets before overtime in a playoff hockey game. \n\nNow please don't misunderstand me: This all presumes that the predictive model is fair and honest, and I'm not saying that's the case at all. I honestly believe that the information I've seen clearly suggests to me that the level of caps, the cost of service, and the amount the ISP's have oversubscribed their networks is grossly negligent. I've stood before the CRTC and said as much directly to the major Telco's lawyers. They are facing a problem which could have been significantly mitigated with more aggressive infrastructure spending and are clearly reluctant to move back on presumably huge profit margins. Period. But that doesn't mean that the problem of overprovisioning doesn't exist. \n\nSwitching to an uncapped but speed limited service is, given all of the above, going to result in much poorer connections for the vast majority of users - just look at the wholesale bandwidth rates in most data centers. You can either provision bandwidth based on data *volume* (ensuring you have the highest possible connection standard  until you hit your cap and go into overage costs) or \"unmetered\" plans based on highly throttled connections (often with less preferred peering networks)  - AND they're more expensive to boot (plus your connection speed is going to degrade under increasing load). \n\nSo either you're looking at thoroughput expressed over time (which results in a \"volume\" figure - or hard cap) or you're suggesting a radical reinterpretation of how network connections should maintain predictive models (and you KNOW the ISP's would just look to maintain their current (flawed) practices by busting everyone down to, say, 750,000 b/s (which would mathmatically maintain  a 100 GB / month cap - just in a vastly more restrictive way for almost all users.)\n\n \n",
      "time": "2011-03-03T19:18:27",
      "id": "159942598"
    },
    {
      "threadId": "230706407",
      "post": "I just stumbled across this post again and had entirely forgotten what mistake I had made (serves me right). So for the sanity of my future forgetful self ... the goals per game average includes both goals from the home AND visiting team which brings the odds more in line with the projection. ",
      "time": "2011-02-15T19:00:10",
      "id": "147687468"
    },
    {
      "threadId": "230163384",
      "post": "The problem has nothing to do with the CRTC - because the CRTC has absolutely no mandate to make any decisions about what they *should* do, or *want* to do, or even what would be in the interest of the Canadian people. \n\nThe CRTC is only allowed to interpret the Broadcasting Act (or the Telecommunications Act) which hasn't been updated since 1991 (or 1993 respectively). So if the commission seems twenty years out of date, it's because their mandate is literally to look at modern issues through a lens that's that old. \n\nI've actually spoken in front of the commission during the net neutrality hearings, and they were engaged and (to my eyes) honestly put time and effort into understanding tricky technical and industrial issues. I saw them use things learned in earlier testimony to really call Bell and Rogers lawyers on the carpet for clear BS they were trying to shovel through undetected... but they then had to turn around a crummy decision that gave the telcos essentially everything they wanted anyway - because there was nothing in the applicable legislation that would let them turn down the requests. \n\nAll of these \"bad decisions\" (with the exception of CKLN, and If you've actually read that decision I don't think you can really call it unfounded) boil down to the real argument which is two consecutive governments like having a visible CRTC take the fall for them so that they can \"re-examine decisions\" for cheap political points (see UBB). Really *they're* the one's at fault for either not bringing legislation into the 21st century, or alternately empowering the commission with more interpretive power. \n",
      "time": "2011-02-14T22:54:20",
      "id": "146627997"
    }
  ],
  "profileInfo": {
    "username": "BradFox",
    "about": "",
    "name": "Brad Fox",
    "disable3rdPartyTrackers": false,
    "isPowerContributor": false,
    "isAnonymous": false,
    "rep": 1.220985,
    "profileUrl": "https://disqus.com/by/BradFox/",
    "url": "http://www.bradfox.com",
    "reputation": 1.220985,
    "location": "Toronto, Canada",
    "isPrivate": false,
    "signedUrl": "http://disq.us/?url=http%3A%2F%2Fwww.bradfox.com&key=vopg4jBHDfJ4DtDMH2WAyQ",
    "isPrimary": true,
    "joinedAt": "2009-01-08T06:38:03",
    "id": "183244",
    "avatar": {
      "small": {
        "permalink": "https://disqus.com/api/users/avatars/BradFox.jpg",
        "cache": "//a.disquscdn.com/uploads/users/18/3244/avatar32.jpg?1297796661"
      },
      "isCustom": true,
      "permalink": "https://disqus.com/api/users/avatars/BradFox.jpg",
      "cache": "//a.disquscdn.com/uploads/users/18/3244/avatar92.jpg?1297796661",
      "large": {
        "permalink": "https://disqus.com/api/users/avatars/BradFox.jpg",
        "cache": "//a.disquscdn.com/uploads/users/18/3244/avatar92.jpg?1297796661"
      }
    }
  }
}