{
  "comments": [
    {
      "threadId": "3706702188",
      "post": "The old site wasn't exactly bleeding edge design (not a knock on it - bleeding edge often gets in the way of readability), but it was a nice, professional magazine theme and really looked the part. It could have been fine for a few more years before it really needed a facelift.\n\nThis reskin looks like they just picked a free personal blog theme at random and just slapped it up in a rush... there is nothing iconic, unique or eye catching about it at all (I thought the old design had some semi-iconic elements). It almost seems like it's trying to be unassuming and blah on purpose (a lot of base themes do that, with the intent of being flexible so a designer can come in and make changes easily... which doesn't appear to have happened here), especially the front page layout.\n\n\nI'm sorry to say that it just looks like a hobby blog to me... there are all sorts of sub-$60 themes that look a ton better than this right out of the box. It's light years away from looking like a site to take seriously.\n\nAll of that being said, I'm really psyched about the increased content it sounds like you folks are going to be putting out. More good content is ultimately more important than having good design, but you're just not doing yourself any favors with this blah theme. Packaging matters.",
      "time": "2015-04-25T21:41:43",
      "id": "1987455493"
    },
    {
      "threadId": "3642727797",
      "post": "This guy has no idea what he's talking about. What the heck sort of status does an app give people, seriously? I listen to it - I don't talk to people on it.\n\nAnd yes, anyone using half-decent headphones can tell the difference. If you're a cheap entitled mooch, go ahead and keep the free Spotify, but if you actually care about quality, then $20 is a steal. The only better deal online is Amazon Prime.",
      "time": "2015-04-02T02:10:24",
      "id": "1941125274"
    },
    {
      "threadId": "2046339867",
      "post": "No, I mean that it's been bad for a long time. This post sort of impies that it's only now getting bad, when I've been seeing this trend for at least several years now already.\n\nAnd I wish I could agree with your comment about it \"also going to get better\", but I don't see any evidence of that. I've had to seriously be cut down on the feeds I subscribe to because of the onslaught in awful / low quality content they've been pushing out.",
      "time": "2013-12-17T11:04:56",
      "id": "1167276112",
      "parentPost": "Solomon,\nI assume you're talking about the tense of how I described that there would be lots of crap content coming out?\n\nYou're right - things are just going to get worse.\nAnd things are also just going to get better. It's just a matter of perspective and where you're digging out your intake of content ;)",
      "parentPostTime": "2013-12-17T03:14:02",
      "parentPostId": "1167009088"
    },
    {
      "threadId": "898320894",
      "post": "I'll definitely check this out when I expand into Lincoln sometime next year. Too early for me to get up and make the drive from Omaha :)",
      "time": "2013-12-11T22:35:44",
      "id": "1159320468"
    },
    {
      "threadId": "1784100339",
      "post": "There is no intellectual crisis here. Believing that women should have the right to have an abortion, should they choose to and can pay for it, does not mean that one must always support their reasons for doing so, or that it's anyone's business why they make that choice. I'm no liberal, I don't support (your quote) \"unrestricted abortion\", and there aren't many who do - so you're really talking about a very small segment of the population here.\n\nNamely, you're cherry picking those who have a fairly fringe idea of abortion rights, and also believe that the government apparently should have the power to potentially take away a right, if the reason a person is exercising it is not acceptable in their eyes. I can't imagine that more than a fringe of the public believes both of those things... really you're just playing childish little straw man games to make some lame point seem to have teeth.",
      "time": "2013-09-21T20:56:53",
      "id": "1054220732"
    },
    {
      "threadId": "596207875",
      "post": "Long live the fighters!",
      "time": "2013-09-11T04:24:59",
      "id": "1038041572"
    },
    {
      "threadId": "1667827192",
      "post": "Thanks for sharing? Maybe you could explain what you think is off base?",
      "time": "2013-09-04T18:57:00",
      "id": "1029922762",
      "parentPost": "While I agree with you that conspiracy is the wrong term, the rest of your comment is way off base.",
      "parentPostTime": "2013-08-30T14:42:53",
      "parentPostId": "1023303876"
    },
    {
      "threadId": "1688780059",
      "post": "Apt name you have there - it's beyond silly that you'd make some pointless point about how \"the feminist movement\" dictates the choice of women in the video, while ignoring the underwear clad boys.",
      "time": "2013-09-03T20:39:14",
      "id": "1028802698",
      "parentPost": "Nice to see that the feminist movement still dictates that attractive women perform in the video - unless all Auckland female lawyers are pretty.",
      "parentPostTime": "2013-09-03T20:09:06",
      "parentPostId": "1028770765"
    },
    {
      "threadId": "1630402609",
      "post": "Probably because Matthews' audience, like most Americans, see Schultz as a raging idiot.",
      "time": "2013-08-22T22:50:55",
      "id": "1014131796"
    },
    {
      "threadId": "1065402155",
      "post": "Clearly they only are interested in customers that don't have questions before they drive half way across town to try them out. I mean seriously, who needs customer service anyway? haha",
      "time": "2013-08-20T23:13:26",
      "id": "1008748328",
      "parentPost": "Well, it was best for them that you did not make contact with the club.",
      "parentPostTime": "2013-08-20T18:41:04",
      "parentPostId": "1008345756"
    },
    {
      "threadId": "1582323629",
      "post": "Because people like myself that want phones with keyboards don't care about having phones with top of the line specs. We just want the basic functionality of phone, texting, email and maybe a few other communication related apps.\n\nAnd again - they DO sell, they're just not blockbusters. The vast majority of phones aren't.",
      "time": "2013-08-08T16:40:20",
      "id": "993321042",
      "parentPost": "And probably there won't be any high-end smartphones with keyboards in the foreseeable future from the big OEMs if we are to go by what Nokia, Samsung, HTC, LG, and even Apple, have said on separate occasions in their press conferences that there is no market for smartphones with keyboards.\n\nBut I'm not aware that Sony and Motorola have said anything for or against the subject matter so maybe they might put one out for Android - but I doubt it though.",
      "parentPostTime": "2013-08-08T05:36:05",
      "parentPostId": "992550248"
    },
    {
      "threadId": "1582942437",
      "post": "It's perfectly acceptable to expect a minimum amount of editing from a site like this. This would have been caught by just writing it in Firefox even, with it's built in spellchecker. The author and editor (assuming there was one, which is unlikely) were terribly lazy.",
      "time": "2013-08-08T16:38:19",
      "id": "993318507",
      "parentPost": "Keep in with the context people.",
      "parentPostTime": "2013-08-08T03:00:54",
      "parentPostId": "992439754"
    },
    {
      "threadId": "1531423030",
      "post": "Make an effing options with a slide out keyboard damnit!",
      "time": "2013-08-01T19:43:30",
      "id": "984916632"
    },
    {
      "threadId": "1477674955",
      "post": "Awww... widdle baby wanna whine about their lazy tactics being found out by the Google five-oh? I only had a few up around then, but they all went UP, not down.",
      "time": "2013-08-01T17:48:15",
      "id": "984774164",
      "parentPost": "Shut up.",
      "parentPostTime": "2013-07-31T21:22:55",
      "parentPostId": "983074749"
    },
    {
      "threadId": "1552724150",
      "post": "This really is an embarassment for atheists and agnostics. It mirrors so many of the discriminating activities that religious groups foist upon us... really sad to see this atheist group stoop so low.",
      "time": "2013-08-01T05:18:09",
      "id": "983512107"
    },
    {
      "threadId": "1513117687",
      "post": "Thanks for sharing? I didn't say he wasn't these things. He's a total hack. It's a joke that people have him on TV at all - all I said was that it's not accurate to label the guy some left wing socialist type.",
      "time": "2013-07-21T17:56:31",
      "id": "971466849",
      "parentPost": "When he shows up it\"s inflammatory. He is annointed by the press  plain and simple.",
      "parentPostTime": "2013-07-21T12:35:58",
      "parentPostId": "971227640"
    },
    {
      "threadId": "1484836343",
      "post": "You should have a native English speaker that is familiar with this situation rewrite this. There are some confusing sections where words are used in very strange ways that don't quite make sense.",
      "time": "2013-07-10T20:32:28",
      "id": "957871457"
    },
    {
      "threadId": "1478343118",
      "post": "Yeah - what the heck does \"sales are 6 times faster\" supposed to even mean?\n\nProbably some cheaply outsourced article, from some poor sob in India or China that doesn't quite have their syntax right yet.",
      "time": "2013-07-08T18:54:45",
      "id": "955529047",
      "parentPost": "Does anyone else find this incomprehensible?",
      "parentPostTime": "2013-07-08T16:56:34",
      "parentPostId": "955416665"
    },
    {
      "threadId": "1372007075",
      "post": "Facebook ads have been the best ads around for a long time now... the level of granulation you can get into demographic and keyword wise, as well as who they follow... nothing gets close.",
      "time": "2013-06-08T21:11:01",
      "id": "923569425",
      "parentPost": "Facebook actually doing something to help Internet Marketers,I must be dreaming.",
      "parentPostTime": "2013-06-08T14:25:12",
      "parentPostId": "923295438"
    },
    {
      "threadId": "1366055037",
      "post": "It's hard to take this post seriously... I stopped at the point where he said that an idiotic comment about fat PHd students was similar to a previous statement about how female hormones might have an effect on a job interview.\n\nNot at all the same thing... and the rest of the post - similarly (not actually similar) not worth reading.",
      "time": "2013-06-05T23:48:15",
      "id": "920440415"
    },
    {
      "threadId": "1301970319",
      "post": "Go get 'em!",
      "time": "2013-05-26T06:46:54",
      "id": "908874519"
    },
    {
      "threadId": "497775527",
      "post": "Sounds perfectly reasonable to me, and this crap about shooting trick or treaters or repairmen could hardly be more cartoonish BS. HIGE gaping difference between a home invader and someone you invited there to fix something, or a kid standing on your doorstep and ringing your doorbell. Give me a break.\n\n\nIf someone breaks into your house, they're a clear and present danger to you, and/or your family. I abhor violence, and don't even own a gun, but anyone who breaks into my house is going to be mercilessly attacked - they've already violated my home, and doing so is merely self defense.",
      "time": "2011-12-08T16:42:18",
      "id": "382144593"
    },
    {
      "threadId": "458109037",
      "post": "No way. Transparency, sure, but give THE PARTIES more money?!? HELL NO. Bad in a different way, but that is not better.",
      "time": "2011-10-31T21:36:43",
      "id": "352278790"
    },
    {
      "threadId": "450720357",
      "post": "I'm sure they did notice. They just didn't have any reason to do anything about it.",
      "time": "2011-10-23T01:15:24",
      "id": "341688086"
    },
    {
      "threadId": "449018890",
      "post": "You somehow have it in your head that killing someone with a bullet from a gun held within range is any better or worse than pushing a button that releases a bullet or missile from a machine you're piloting from a distance. That's ridiculous.",
      "time": "2011-10-22T23:22:08",
      "id": "341654803"
    },
    {
      "threadId": "21101657",
      "post": "Holy cow... this Backtype tool is frakkin' awesome.",
      "time": "2009-07-27T23:50:08",
      "id": "13424647"
    },
    {
      "threadId": "21101927",
      "post": "Passion doesn't necessarily translate into best practices. This is what I see as the difference between a real entrepreneur and just some schmoe with a dream. We're on here to learn from pros that know their stuff about certain areas that we could learn from to follow our passion in a way that can make it more likely that we can profit from it.\r\n\r\nIf crappy sites make more money by using certain techniques, learn from them and beat them by making good content AND using their tricks to make money doing it. Also, they're goal is the same, and if you're going to complain that you're not making as much money, when you're not willing to (for example) trick your visitors by making ads look like a part of the site, then you need to decide which it is you care about more.",
      "time": "2009-07-27T23:39:02",
      "id": "13424349",
      "parentPost": "It's discouraging if it is actually true that crappy sites with terrible content monetize better than sites passionate people who are proud of their work.  Very interesting discussion though.",
      "parentPostTime": "2009-04-24T20:12:15",
      "parentPostId": "8665641"
    },
    {
      "threadId": "26486519",
      "post": "My only complaint about anything I've watched on here is the video player... I can't seem to fast forward to any part of the video I want. \r\n\r\nFor what? (haha) Sometimes I can't sit for a whole hour interview, and want to come back, or (like just happened) I accidentally clicked a link that took me to another page. \r\n\r\nSo what? I should be able to fast forward to where I was rather than wait (with my relatively slow connection, for it to load all the way to that point again. Would save you on bandwidth as well, and make it a bit more user friendly.\r\n\r\nNow what? Go fix it! haha\r\n\r\nEspecially since I just checked and none of the local bookstores have it in stock! (which bodes well for his sales, so congrats. heheh",
      "time": "2009-07-26T21:45:31",
      "id": "13363747"
    },
    {
      "threadId": "24473650",
      "post": "The link is in a different place than other videos I've seen. Its right above the video, not farther down. Right click on it to save it.",
      "time": "2009-07-26T19:37:00",
      "id": "13360858",
      "parentPost": "I don't know what you mean. For every program, I include an audio link.\r\nIsn't it working for you?",
      "parentPostTime": "2009-07-13T18:44:59",
      "parentPostId": "12596069"
    },
    {
      "threadId": "20992089",
      "post": "I don't see how this is a surprise to anyone. How is this different than any other social network? I have around 150 friends on Facebook, but 10-20 of them make up most of the content I see. I'm on Twitter, but I use it as a sort of news ticker, not as a way to talk to friends. I know plenty of people like this.\r\n\r\nIt was only recently that I finally got onto Twitter. That only a small percentage account for the majority of the content is common sense and you can put your bottom dollar on Twitter growing as people like me find a niche that Twitter can satisfy and more sites push their Twitter feeds onto a wider audience.",
      "time": "2009-06-10T01:39:56",
      "id": "10676684"
    },
    {
      "threadId": "20235188",
      "post": "Okay, here is where I realize that I'm not sure where the technology in my life ends... if it ends anywhere, haha.\r\n\r\nI just tried to post something on here by using the Facebook login, but that didn't work, so I signed in through Disqus.\r\n\r\nI was notified of this post a few minutes ago by a newly installed extension on Firefox that tells me of new tweets as they are posted, nearly real time. I only signed up for Twitter, which I'm not really sure is at all useful with RSS feeds seeming to be much better in every way, after being prodded by my journalista girlfriend.... and I'm typing this in through the netbook computer that was delivered to me today.\r\n\r\nI now get TMV on my phone, on Twitter, RSS feeds, Facebook and the good old fashioned webpage itself. I'm fairly certain i could be charged for cyberstalking, haha",
      "time": "2009-06-03T04:47:59",
      "id": "10411189"
    },
    {
      "threadId": "19712111",
      "post": "Hate to be the voice of dissent here, but I don't like the design at all.\n\nWhile the other design wasn't exactly awesome, it was at least easy on the eyes. This seems like a half step away from web 2.0, more blocky, less easy on the eyes and the colors up top aren't particularly complimentary.\n\nWould also probably look a bit better if the ads and widgets in the sidebar were centered within their blocks. The ad in the footer region should also be limited to smaller banner ads, if you have ads there at all (which I wouldn't)... there is an Amazon ad loaded there now that is cut because it's meant to only be a sidebar ad and it cuts off when it hits the bottom edge of the block.\n\nI do like the layout though... the top bar is good, although again it would probably be better if it was centered.\n\nAgain, sorry to be the seemingly lone voice of dissent, but you're using Wordpress (I'm more of a fan of Drupal, but Wordpress is fine for a simple blog like this) and there are literally hundreds of more visually appealing themes you can use for free and modify to make unique that I think would look much better than this. I know I'm more picky than most, as I've done a dozen or so sites myself, but when I look at this I see something that a high school kid threw up in a weekend, not the best damn political blog in the country (in my opinion).\n\nThe last thing I'll say is... I would seriously consider paying a professional to come up with a totally unique theme for you guys that isn't just okay, but sharp, professional, light and modern... if I were you. I'm a grad student and have very little disposable income, but I'd throw down a bit of cash for that if you asked. I'll read this blog regardless (I barely ever actually see the website anyway as I read it through RSS feeds), but I'd hate for you to get less click throughs and lose potential readers because of a mediocre first impression.\n\nKeep up the good content production boys and girls.",
      "time": "2009-05-29T18:27:17",
      "id": "10267213"
    },
    {
      "threadId": "16948874",
      "post": "Another step closer to another shot at a mainstream independent party.\r\n\r\nBoth parties have been pushing the RINOs and DINOs out for a generation or so now. Once the Democratic party starts pushing for more liberal issues that make mainstream independents like myself uncomfortable, and while we watch as the deficit continues to skyrocket with neither party giving anything resembling an answer to that question besides more spending... the vacuum between the parties will expand and something will arise to fill the gap... hopefully not something with a crazy billionaire leading it.",
      "time": "2009-04-29T20:26:09",
      "id": "8824940"
    },
    {
      "threadId": "15613638",
      "post": "I'll tell my brother Populi that he should get over here and comment, heheh...\r\n\r\nBut what is the problem with actually going in and using overwhelming force to get a citizen back, as long as they've not done something that actually deserves punishment?\r\n\r\nI mean, if they broke a law, even if it was a law that people in our culture deem ridiculous, then they made the mistake of breaking a law in a foreign land. But, if they were captured or otherwise harmed for no reasonably understandable cause, then what exactly would be wrong for our government to come in with overwhelming force to defend its citizen? \r\n\r\nI'm not saying we should immediately send in the Marines, but if some bad guy captures an innocent American and they say no to giving him back, they had their chance, just like the pirates did. If they catch a bullet while we send in a surgical strike to get our citizen back, they brought it on themselves.",
      "time": "2009-04-13T00:32:10",
      "id": "8104944"
    },
    {
      "threadId": "14420626",
      "post": "Normally... when I come across something extremely idiotic on a blog I read alot, I would give a long... well thought out answer as to why.\r\n\r\nBut, my god man... this idea is so amazingly stupid I'm stunned. This isn't even Big Brother bad... its like Humongous Brother... Leviathan Brother even.",
      "time": "2009-03-28T00:11:46",
      "id": "7575779"
    },
    {
      "threadId": "14149759",
      "post": "Weird... I've lived in Omaha almost my whole life and I've never heard of this.",
      "time": "2009-03-22T03:01:16",
      "id": "7408185"
    },
    {
      "threadId": "14061789",
      "post": "If they do this... I'm done, just done, with both parties.",
      "time": "2009-03-20T17:01:37",
      "id": "7377682"
    },
    {
      "threadId": "13994854",
      "post": "Oh... and as far as best moments, I'm not sure there has been one that topped when Adama was pounding that Cylon with his flashlight in the mini series that got it all started. Its like he was trying to take vengeance on that one guy for all of humanity.\r\n\r\nIn general, the soundtrack is... just... amazing. Its good on its own even.",
      "time": "2009-03-19T18:55:43",
      "id": "7354024"
    },
    {
      "threadId": "13973757",
      "post": "Sorry to burst your bubble there... but flying cars are very much real:\r\n\r\nhttp://buzz.yahoo.com/article/1:y_buzz_log:a37b3e2c72ae700cd19a858a3970443a/Finally-a-Flying-Car\r\n\r\nHellaciously expensive... but very real :)",
      "time": "2009-03-19T18:51:21",
      "id": "7353906"
    },
    {
      "threadId": "10733493",
      "post": "It makes total sense to recoup costs of skyrocketing healthcare that the government has to pay out by taxing the things that people choose to consume that end up causing those health problem. I don't see any real difference between that and taxing gasoline to pay for roads... makes a hell of a lot more sense than taxing everyone the same while a certain segment of the population are the ones causing the costs to skyrocket based on what they buy and consume.",
      "time": "2009-01-30T22:32:16",
      "id": "5713829"
    }
  ],
  "profileInfo": {
    "username": "BigOmahaSEO",
    "about": "Omaha SEO Company founder - centrist political blogging junkie - born and raised, corn fed Omaha, Nebraska boy - live in Midtown",
    "name": "Solomon Kleinsmith",
    "disable3rdPartyTrackers": false,
    "isPowerContributor": false,
    "isAnonymous": false,
    "rep": 1.264406,
    "profileUrl": "https://disqus.com/by/BigOmahaSEO/",
    "url": "http://BigOmahaSEO.com/",
    "reputation": 1.264406,
    "location": "Omaha, NE",
    "isPrivate": false,
    "signedUrl": "http://disq.us/?url=http%3A%2F%2FBigOmahaSEO.com%2F&key=v6FQ_E9ZFTAIs3x_PmsYWw",
    "isPrimary": true,
    "joinedAt": "2008-12-16T23:50:20",
    "id": "166524",
    "avatar": {
      "small": {
        "permalink": "https://disqus.com/api/users/avatars/BigOmahaSEO.jpg",
        "cache": "//a.disquscdn.com/uploads/users/16/6524/avatar32.jpg?1358207546"
      },
      "isCustom": true,
      "permalink": "https://disqus.com/api/users/avatars/BigOmahaSEO.jpg",
      "cache": "//a.disquscdn.com/uploads/users/16/6524/avatar92.jpg?1358207546",
      "large": {
        "permalink": "https://disqus.com/api/users/avatars/BigOmahaSEO.jpg",
        "cache": "//a.disquscdn.com/uploads/users/16/6524/avatar92.jpg?1358207546"
      }
    }
  }
}