{
  "comments": [
    {
      "threadId": "3960587420",
      "post": "Surprise surprise surprise...\nThanks Gomer Pyle.\n\nThere isn't a politician anywhere (outside the cities perhaps) that isn't bought and paid for by some group.\nPoliticians ALL are in the INFLUENCE PEDDLING BIZ.  Why?  Because they can that's why.\nYou can only sell what you own.  They sell out constituents BECAUSE THEY CAN.\n\nNow if the citizens had DIRECT DEMOCRACY, they might have to be public servants because the citizenry would be able to UNDO anything politicians might have done.\n\nOh and DIRECT DEMOCRACY also works to TELL the politicians what to do, in case they aren't doing it.\n\nddbc dot ca\n\nAnd Direct Democracy BC on Facebook if anyone is interested.",
      "time": "2015-07-22T22:54:41",
      "id": "2152014739"
    },
    {
      "threadId": "3896090997",
      "post": "Well how about that.  Laila is advocating direct democracy with this article. Way to go Laila.\n\nCheck out Direct Democracy BC on Facebook.",
      "time": "2015-07-01T23:22:54",
      "id": "2111531595"
    },
    {
      "threadId": "3792965277",
      "post": "I agree with Bill on this one.\nProRep is not a great panacea to regain democracy.  It will get fringe wingies elected and there is still no way to control politicians once they are in.\n\nONLY DIRECT DEMOCRACY will do that.  \nSo while the NDP may revisit their ProRep stance, maybe they should revisit Recall and Initiative that Harcourt and co stole from us.  Making the thresholds easier to achieve and initiatives BINDING on governments, would be a peachy keen way to regain democracy.",
      "time": "2015-05-26T13:14:47",
      "id": "2045836820"
    },
    {
      "threadId": "3733410563",
      "post": "Christy Clark and her pathetic bunch of trolls in her Liberal Party are vindicated as much as I am the pope.\nCuts to classrooms hurt kids. Overcrowding has hurt everyone.\nCuts to budgets and tax breaks for the rich, have degraded our province to the point of near unrecoverable.\nNo, she isn't vindicated.\nBC will however have even more to pay when the dust settles.",
      "time": "2015-05-03T23:29:48",
      "id": "2001558421"
    },
    {
      "threadId": "3695422446",
      "post": "Yes scruteneers already keep track of voter turn out.\nBut that's ONLY ON POLLS THAT ARE COVERED.\nAlong with poor voter turnout, volunteerism in political parties is waning and this information is vital to the success of a party in these areas.\nDemocracy is already being short changed by people not having control of political processes between elections.\nSomething that could be fixed by DIRECT DEMOCRACY. \nWhich is my passion. Because I believe in the collective wisdom of the voters more than any politicians or political party.",
      "time": "2015-04-20T01:17:44",
      "id": "1976630341"
    },
    {
      "threadId": "3637726434",
      "post": "Brent, I cannot believe that you actually believe anything you suggest.\nIf this is an example of the viewpoint of a conservative, I am happy living in my slightly left place then.",
      "time": "2015-03-31T04:50:45",
      "id": "1937341623"
    },
    {
      "threadId": "3604119112",
      "post": "This will probably fall under the \"SIGNIFICANT PROJECTS STREAMLINING ACT\" that GORDON CAMPBELL brought in.\nHe's the same guy who said that \"QUESTION PERIOD IS NOT ANSWER PERIOD\" or something to that effect...\n\nDemocracy is not big with the Liberals.\n\nFind Direct Democracy BC on Facebook...",
      "time": "2015-03-18T16:59:02",
      "id": "1914229611"
    },
    {
      "threadId": "3476448156",
      "post": "Laila, I was not able to vote comfortably on this one. \nNOT because I was against the concept. I'm not.\nBut unlike Brent, I am not concerned with unwieldy governments. We already have plenty of them and this could easily prune them down to a manageable size.\n\nWith a minimum per capita amount to each man and woman or family, administered by each province, only the feds will have to get smaller. Oh damn I say. Oh well...\n\nBut the only way it can work is if the minimum wage is brought up to that minimum level so that employers, like Walmart, don't get more free welfare. \nAnd, further, make the delivery of benefits part of the benefits of having employees. Union or not.\n\nThat may limit employers from their penchant of hiring only part time and convince them that full time just might be better after all.",
      "time": "2015-02-02T00:42:22",
      "id": "1829804293"
    },
    {
      "threadId": "3327383787",
      "post": "But they aren't allowed free votes, so no it doesn't.\nAnd I still maintain that since parties set the legislative agenda, and it is a rare occurrence when private members bills pass through the house, the need for voters to absolute final word on ANYTHING the politicians do, it doesn't matter a damn anyway. \nPoliticians, all of them, will do what they think they can get away with.",
      "time": "2014-12-17T19:51:48",
      "id": "1747259238",
      "parentPost": "More than 1/2 of the liberals voted in gfavor of the NDP motion for PR, the Greens, the bloc, All of the NDP , 3 out of 5 independents.  If the cons were allowed a free vote, no doubt a few of them would have voted in favor of PR.  So yes, it does matter.",
      "parentPostTime": "2014-12-17T04:15:35",
      "parentPostId": "1746181740"
    },
    {
      "threadId": "3208742682",
      "post": "Politicians are selling something when they run for office.  What are they selling?\nI-N-F-L-U-E-N-C-E\n\nThey are lying to those that vote and promising to do things for those that come across with the big money.\n\nIf you are not going to change the way donations are handled, you must apply DIRECT DEMOCRACY provisions.\nDirect Democracy should be anyway, but until a politician can no long guarantee anything because VOTERS CAN UNDO WHAT THEY HAVE DONE, nothing will ever change.\n\nYou should look at Direct Democracy BC on Facebook. And see what it says.",
      "time": "2014-11-10T01:41:24",
      "id": "1685097871"
    },
    {
      "threadId": "2955825801",
      "post": "With much face pulling I had to give this one to Brent.\nCrossing into Canada such a short distance with coal, doesn't matter what kind and using our port facilities to ship it, doesn't impact that many people that hard.\nYou are worried about exhaust emissions?  How about getting BC on the road to CNG again?  \nOnce upon a time the government subsidized Compressed Natural Gas conversions for automotive use.\nMaybe, just maybe we should revisit that now.  Gasoline is stupid expensive and terribly polluting.   Natural gas is cleaner and better. That alone would reduce harmful emissions.",
      "time": "2014-08-25T01:49:17",
      "id": "1557649636"
    },
    {
      "threadId": "2878003222",
      "post": "I gave it to Laila this week because I believe that anything the public has to pay for deserves absolute and complete openness in its decisions and operations.\nManagers and directors MUST answer for their actions, or inaction.",
      "time": "2014-07-28T15:03:03",
      "id": "1508243634"
    },
    {
      "threadId": "2739473370",
      "post": "BUT, it remains that the ONLY way to ensure some form of democracy is via DIRECT DEMOCRACY.  Every vote should be a free vote and the final word MUST belong to the voters themselves.\nVoters would reserve the right to FORCE a referendum and the results would be binding on lawmakers. \nFind \"Direct Democracy BC\" on facebook.",
      "time": "2014-06-06T16:44:06",
      "id": "1422863625"
    },
    {
      "threadId": "2712418396",
      "post": "I'm sorry. \nIs Brent a newcomer to this country or planet? Because this is a problem started by the government and yes kept alive by the BCTF which is in search of solutions. \nSomething which the government is in short supply of.\nSo, poke the snake with a stick and call it dangerous when it snaps at you.\nIt will be interesting to see how badly Brent loses this one by.\n\nOn a personal note, a question to Brent.\n\"Brent, do you actually believe the crap you write?\"",
      "time": "2014-05-26T03:14:37",
      "id": "1404283047"
    },
    {
      "threadId": "2582183657",
      "post": "It would have been awesome if they offered them up north. \nAnd if they were available here, it would be good to advertise them...",
      "time": "2014-04-03T15:51:52",
      "id": "1316891894"
    },
    {
      "threadId": "2348237451",
      "post": "While living and doing business on Vancouver Island, I was affected by the run of protests that happened there. \nThe Carmanah, Walbran valleys and the Clayoquot Sound.  It was too much in the perfect growing medium for trees that is the Island.\n\nHowever, and this is where I part company with Brent, THESE ARE TREES we are talking about on the Island.\nAnd this is not across the whole province like Gateway is.\nIt isn't a simple line of trees they are planning.  It is oily sludge that doesn't go away by itself. It doesn't just soak into the dirt like water that gives sustenance to the trees of the forest and forms pools that provide for the thirst of the animals.\nIt's black oily poison that coats and covers everything that it comes in contact with.  And sinks in water to poison river and creek beds  until it makes its way to the ocean were it pollutes and poisons that too.\n1 release in the remote wilderness can pour thousands off litres of sludge on the ground or in the water, with zero hope of remediation or even recovery.\nNo, it is not the Clayoquot sound we are talking about Brent.  Gateway is something totally different.  \nUnless the MS in my body prevents me, I will be there.",
      "time": "2014-03-03T00:58:48",
      "id": "1267930369"
    },
    {
      "threadId": "2096352593",
      "post": "Good article Bill.  Not surprisingly you are bucking the smokers who must be freaking at this sort of proposal.",
      "time": "2014-01-07T14:59:36",
      "id": "1190515507"
    },
    {
      "threadId": "2021355220",
      "post": "Look up Direct Democracy BC on facebook.\nWe are TRYING to get party status, but we need an accountant for that.\nWe want to place ALL voters, as a collective, in charge, BETWEEN elections.\nCome see our stuff.",
      "time": "2013-12-04T17:27:59",
      "id": "1150493843",
      "parentPost": "And we voted them in twice! No wonder few honest people want to run for office. How does one get into government when the liars will win anyways? We only have ourselves to blame.",
      "parentPostTime": "2013-12-03T19:06:29",
      "parentPostId": "1149096963"
    },
    {
      "threadId": "1909301866",
      "post": "Well how about that?\nNOW you appeal to the common sense of the voter Rafe. \n\nNOW you think that voters are actually smart enough to support your quest to see this stopped by a REFERENDUM.\nI do too.  But I have been beating this drum for years, on every issue.  I don't believe politicians should get a free ride just because they got elected.  And elected by a combined total of about 55% of eligible voters. \nMost politicians, and ALL political parties think voters are stupid (unless they vote for you to be elected).\nI DON'T. \n\nBut better fashionably late to the party than never. Now you ought to support a real Direct Democracy movement and help it to gain some traction instead of maligning them.\n\nhttps://www.facebook.com/CanadiansForDirectDemocracy",
      "time": "2013-10-28T18:42:27",
      "id": "1099838286"
    },
    {
      "threadId": "1384982871",
      "post": "This just wrong.  Win your seat, THEN you can play premier...",
      "time": "2013-06-10T14:04:11",
      "id": "925110888"
    },
    {
      "threadId": "1352530063",
      "post": "Couldn't possibly be all the cigarettes he smoked.  No. Not them.\n\n\nAnd this comment was brought to you by... LUCKY STRIKE!!!\nAhhh.  I had a Lucky Strike.  Lucky I never STOKED and Lucky to have lived.",
      "time": "2013-06-02T23:24:20",
      "id": "917056606"
    },
    {
      "threadId": "1179845245",
      "post": "I think Alberta should refine it's own oil.  Keystone isn't going anywhere.",
      "time": "2013-04-01T21:51:11",
      "id": "848884453",
      "parentPost": "Yet, they are trying to ram the \"Keystone pipeline\" through ... anymore questions?",
      "parentPostTime": "2013-04-01T19:10:06",
      "parentPostId": "848751771"
    },
    {
      "threadId": "1117731040",
      "post": "Cummins was one of Harper's own for such a long time, and he cares little for BC. Rather, he relishes POWER.\nThat's why he will never see it.\nBut the corruption will continue unabated...  until we get DIRECT DEMOCRACY. How ever long that may take.",
      "time": "2013-03-04T21:09:38",
      "id": "819212840",
      "parentPost": "The only viable option if one really cares about BC is the BC Conservatives.  Was wary at first, joined for a year, was convinced they are mature enough to manage this province.  Joined for 5 years.  The \"controversy\" over Cummin's leadership was completely overblown. Obviously, the libs have overstayed their welcome.  NDP are economically illiterate.  We're screwed with them.",
      "parentPostTime": "2013-03-04T20:06:19",
      "parentPostId": "819142477"
    },
    {
      "threadId": "437674538",
      "post": "Tom Fletcher is not getting it.\n\nThe electromagnetic radiation is NOT the real issue.  \nIt that the signals can be trapped and tracked.\nIt is privacy issues.  \nThe government is promising no time of day usage charges.  If that's the case, WHY DO WE NEED THESE METERS? Why can they not be hard wired?Wireless does not concern me. I don't care. But having to save money by doing laundry at 3 in the morning DOES concern me. And everywhere these meters have gone, rates have jumped.THAT'S the issue.",
      "time": "2011-10-08T16:00:52",
      "id": "329735718"
    },
    {
      "threadId": "423549540",
      "post": "Here is a suggestion for Christy that she and her government can do right now, and spare us from having to wait until the Liberals maybe win an election. Because BC cannot wait for that.Scrap the smart meter program now. Save yourself the controversy. Millions will be saved RIGHT NOW.Now is the time to do a bond issue and have a go at geothermal power generation. Save Site C for some other time. We don't need it if we go to Geothermal power generation as the Icelanders do already, (There are also Canadian companies building them in northern California)It will simultaneously provide:1. Much needed jobs in the construction industry2. Stable investment at rock bottom prices3. Stable electrical supply4. Environmentally sound supply of electric power 24/7 using free heat5. A place to put polluting grey water.6. No damage to rivers.We live on the so called Ring of Fire. Let's use it.If this isn't a win win for BC, I don't know what is.",
      "time": "2011-09-24T22:31:47",
      "id": "319257308"
    },
    {
      "threadId": "313509902",
      "post": "A consumption tax is good if that is your sole source of taxes. Then I agree with it.\nBut when you can't afford to heat your home, or turn on your lights, and you have higher prices due to business owners having to dish the money out FIRST, before they can deduct it, does hurt the poor.\nAnd this is the same bunch of liars that say one thing and do another.\nRemember the BCR? Not on the radar.\nHST? Not on the radar.\nI could go on. But I do NOT trust the Liberals to 'fix' the HST.",
      "time": "2011-05-28T15:02:39",
      "id": "213419425"
    },
    {
      "threadId": "302219710",
      "post": "Funny. You take Tielman to task because of bias.\n\nAnd you called the recall campaigns vindictive.  Memory fail you? \nLet me jog it with a little kick in the memory banks.\n\nRemember a little weasel of a man who pulled the recall them all campaign?   What was his name again? \nFalcon, Yes, Kevin Falcon.  Wait a minute!!!   This isn't the dirty bird that's a cabinet minister is it?\n\nHistory has a way of straightening everything out doesn't it?",
      "time": "2011-05-15T03:29:27",
      "id": "203888542"
    },
    {
      "threadId": "110494520",
      "post": "Small communities make up much of the north.\r\nUsing then 1.9 billion dollar number the government suggests is to be shifted onto consumers, then that means that consumers in communities with 8000 person trading areas are going to have $3.6 MILLION sucked out of the economies just to pay taxes.\r\nAnd you can trust Liberal Government numbers anyway. \r\nRemember the trade and convention center?  The provincial deficit number during the election? The roof on BC Place?  (People in northern BC are really going to benefit from that eh?)\r\nYou can't trust ANYTHING a Liberal says.\r\nRecall in January...\r\nrecall.rustad@gmail.com to volunteer or contribute.\r\n",
      "time": "2010-06-26T18:59:42",
      "id": "58773965"
    },
    {
      "threadId": "111178829",
      "post": "One issue to recall an MLA??  If it was only one that would be good. \r\nBut these buffoons aren't that limited. It just happens that this is the one that broke the camel's back.",
      "time": "2010-06-26T18:40:15",
      "id": "58772560",
      "parentPost": "\"Pat Bell said he believes people evaluate an MLA on more than a single issue.\"\r\n\r\nHow about the imcompetent way the forestry industry has been managed such as changing the Forest Practices Code for the worse?  How about Bell's support for the shady business of selling off B.C. Rail?  How about supporting the huge cuts to public services while eliminating corporate taxes to banks and large congromerates?  How about supporting the B.C. Liberals in their extremelly suspect business deals with IPPs?  How about all the extravagant, frivolous spending by the Liberals that Bell supports whole-heartedly.\r\n\r\n\r\n",
      "parentPostTime": "2010-06-25T16:28:53",
      "parentPostId": "58618837"
    },
    {
      "threadId": "16411526",
      "post": "Jonathan. I look forward to answering you at the All Candidates Meeting. Because you are a deciever at best and have issued numerous errors. Too numerous to deal with here.\r\nYou really better be at the ACM to put your flimsy arguments out.\r\nI am printing this letter to have it on hand to answer it in public.\r\nUsing your arguements of the existing Recall and Initiative legislation means that you sir have not read the act. Initiative (http://www.elections.bc.ca/index.php/referenda-recall-initiative/recall/) is worthless as written by Mike Harcourt's NDP government of the day, and recall is virtually impossible now and under the STV, the requirements do not change and will be rendered worthless as well. READ IT JONATHAN! Tell the people the truth.\r\nAnd to accuse BC Refederation of being separatist clearly means that you do not know how to read a document.\r\nLet's have it out son. See you at the meeting.\r\nI suggest to the voters, that whether you elect me or not is irrelivant.  BC STV is bad bad bad for BC and we will live to regret ever having adopted this if it goes through.\r\nHowever, BC Refederation is all about the will of the people. If the public having been duly informed chooses this, fine.  We will work with what we have and we will still work to bring absolute control of politicians to the people of BC.",
      "time": "2009-04-25T04:41:15",
      "id": "8675838"
    },
    {
      "threadId": "15811577",
      "post": "Our two supporters of STV are flat wrong. The politicians in Ireland are just as hated there as our are here. Their STV model does NOT do the one thing the proponents of STV are deluded into believing.\r\nBC STV is useless and expensive because the norther and interior ridings are bigger than Ireland is altogether and we are still stuck with the Westminster model. That's the model that has parliament (and the politicians that make it up) absolutely supreme over the citizens. \r\nThe proponents suggest that STV will make politicians \"MORE ACCOUNTABLE\". But just what is this accountability? When they use this word this way, they try to bamboozle you into thinking it means \"CONTROL\". It does not. The same politicians will continue to promise the sun, the moon and the stars during the election, and once in they will continue to do something else. And they will be able to get away with it easier than ever because they are in multiple member ridings where blame can be shuffled around to the other guy when in fact, they are all in it together thick as thieves.\r\nThe enormous ridings with a major population in the center will always dominate the small and rural communities.\r\nYou do not want this expensive and uncontrolled system of merely electing politicians. You and I both want absolute control of the beggars \"AFTER\" they are elected and when they try to stick it to us between elections. We need to be able to tell the politicians what they \"ARE\" and \"ARE NOT\" going to be doing.  That's the legacy I want my kids, grand kids, friends and neighbours to enjoy long after I am dead and gone.\r\nOh... I am also the leader of BC Refederation. we are one of those small parties that is supposed to benefit from this. I will fight this with my last breath because it will not do what the proponents say \"might, should, could, may, maybe, if\" happen with STV.  And they have ABSOLUTELY NO WAY TO GUARANTEE THAT ANY OF THEIR PROCLAMATIONS WILL HAPPEN.\r\nThat's not good enough.",
      "time": "2009-04-25T04:25:24",
      "id": "8675625"
    },
    {
      "threadId": "16557042",
      "post": "Bill is correct when he says that STV will not change the one aspect that voters really want when they look at this 'new' system. I hope Bill will look at the www.refedbc.com website and see what we offer.\r\n\r\nI would like to know about the value vote system he proposes though. Perhaps what we offer is just a rose by another name.",
      "time": "2009-04-24T10:34:01",
      "id": "8642856"
    },
    {
      "threadId": "16430315",
      "post": "Thank you for this.\r\nAs a point of clarification, Marvin Talbot was forced to withdraw for economic reasons from the Prince George-MacKenzie race.\r\nAnd Don Roberts is our candidate in Prince George-Valemount.",
      "time": "2009-04-22T21:20:43",
      "id": "8585604"
    },
    {
      "threadId": "15341193",
      "post": "I think if I hear someone else say that politicians will be accountable one more time I'll scream!!\r\n\r\nWill one of you people in pro-STV please define accountability? Or maybe an NDP candidate can explain to all of us what it is.  Carole James uses it all the time.\r\n\r\nMaybe Pat Bell or Shirley Bond can tell us what the word used in this context means.  They won't of course. Campbell swore that his would be the most accountable and democratic government in BC history didn't he?\r\n\r\nHey Gord. Is THIS your idea of democratic and accountable?\r\n\r\nIn fact, they lead people to believe that Accountability and control are the same thing. They aren't. Only the BC Refederation Party offers citizens \"CONTROL\" of politicians. \r\n\r\nAnd STV is definately NOT going to give any voter that. BC STV is bad for BC and I lead one of those small parties that is somehow supposed to benefit from STV. And I will fight STV as proposed with my dying breath.\r\n\r\nEntrench absolute controls on politicians and the political processes so that the citizens are fully empowered and THEN I will be interested. But you think what we have is bad now? Let this rubbish pass and you ain't seen nothin' yet.",
      "time": "2009-04-10T08:21:30",
      "id": "8049484"
    },
    {
      "threadId": "14854395",
      "post": "I apologize to Jonathan when I called him Todd.  I was referencing back and forth and caught Todd hamilton's name first.",
      "time": "2009-04-10T07:56:16",
      "id": "8049301"
    },
    {
      "threadId": "14833839",
      "post": "Bill is mistaken about the current MLA situation. Under our current system, the is one MLA for each constituency. There are no multiple MLA constituencies.\r\n\r\nThere is nothing good about STV. It was saddled with not being able to propose the BEST system. Instead, Campbell mandated it must be of the Westminster model. In that model, parliament rules absolutely as a dictator as noted.\r\n\r\nMultiple MLA ridings, will in the north be massive. And the MLAs will still be out of control.\r\n\r\nBill speaks of accountibility. So do all of the other political parties besides BC Refederation. Any politician says that he or she wants greater accountibility. But they aren't telling you what that actually means.\r\nAsk any voter and you will get an assumed answer of greater control. But that's not what it means and they are fooling you into believing that it means control.\r\n\r\nThe politicians aren't going to give you control. not without a fight. And even then, they will water it down as much as they can like Harcourt did with recall and initiative. And every politician since has promised to beef up that act. Have they? NO. Campbell is trying to feed you a line that he is following up on the promise by providing you with the STV option.  Campbell is not doing anything about recall and initiatives except neutering them all the way with this proposal.\r\n\r\nAnyone can ask me about the addition expense to the taxpayer as well. I can tell you about it in my sleep.\r\n\r\nMike Summers, leader, BC Refederation Party,\r\nResident of Vanderhoof\r\nvotemike@telus.net",
      "time": "2009-04-01T22:59:29",
      "id": "7728735"
    },
    {
      "threadId": "14746618",
      "post": "Marvin Talbot has moved to the Prince George Mackenzie constituency  and Prince George Valemont is being represented by Don Roberts.\r\n\r\nI am proud of the men and women from all political backgrounds who have chosen to come to the center of the political spectrum.\r\n\r\nWe are here to serve. That is not a promise. We've seen what you get for promises. We are asking for your vote so we can prove what we say.\r\n",
      "time": "2009-03-31T03:22:52",
      "id": "7655587"
    },
    {
      "threadId": "14535637",
      "post": "It should be noted that the current sham of democracy that BC has in our rediculous Recall and Initiative Acts, were brought in by Mike Harcourt and the NDP. Successive NDP and Liberal governments have promised to make them workable, but it is obvious that the Liberals and the NDP think voters are stupid and that they cannot be trusted to do what the NDP and Liberals what them to do.\r\nThey both promise greater accountibility without defining exactly what that means. BC Refederation is the ONLY BC party dedicated to handing ABSOLUTE control of politicians and political processes to the people. Something Canadians have NEVER had.\r\nBarak Obama and the BC Conservatives are promising \"Change you can believe in.\"  We are promising change that can be delivered in the first sitting if the people of BC give us the chance, \"JUST ONCE!!\"\r\nMike Summers, Leader\r\nBC Refederation Party\r\nvotemike@telus.net",
      "time": "2009-03-27T20:58:38",
      "id": "7571724"
    },
    {
      "threadId": "13445534",
      "post": "This is exactly why the new Nechako Lakes electoral district doesn't need the likes of Liberal John Rustad or whoever the NDP candidate is for this election. Both of the parties live to politicize everything they touch. The most sure fire way to see Rustad is to pull out a camera.\r\nThis is not what we need. \r\nThe BC Refederation Party will cut through the junk and get on with the job because we believe government should only administer, NOT RULE. Ours is the only BC party dedicated to handing absolute control of politicians and political processes to the voters. NOBODY else offers that. And this 011 service, just like the Cancer facility going into Prince George, should have been here long long long ago and would have if political opportunists had not been running things in their obviously uncontrolled manner.\r\nThey promise \"ACCOUNTIBILITY\" but have never told you what that meant. It means nothing.\r\nWe offer control. And that's different.\r\n911 should have been ours long ago without the political games. Let's end it May 12th.\r\nMike Summers, leader\r\nBC Refederation Party",
      "time": "2009-03-27T13:08:17",
      "id": "7555888"
    },
    {
      "threadId": "14513846",
      "post": "Someone had a camera...There's John.  It's your job to get stuff for your area John. I look forward to debating John in the coming election.\r\nThe BC Liberal government has short changed the north in exports of raw logs and letting RDBN go without 911 service that so many other communities have had for a long time.\r\nWe in the north have endured consistant political opportunism from Liberals and NDP alike and it's not going to get better if the Liberals are re-elected to a majority.\r\nNechako Lakes needs someone who hates the slimey system we have, the government waste we pay too much for, and uncontrolled politicians just doing whatever they like.\r\nTime for a change that can be delivered...not just promised.\r\nMike Summers, leader\r\nBC Refederation Party",
      "time": "2009-03-27T12:56:09",
      "id": "7555702"
    },
    {
      "threadId": "14338567",
      "post": "Damn! Judges are all about justice huh?\r\nBC Refederation wants judges to lose their \"LATITUDE\" in sentencing. Fixed penalties for crime. That will be justice.",
      "time": "2009-03-25T11:02:22",
      "id": "7489781"
    },
    {
      "threadId": "13117208",
      "post": "Reefer? You been smokin' quite a bit haven't you?\r\nBC STV is not democratic when one constituency has to elect people by over 30% while another does it by 12.5%. Is that fair or democratic? No.\r\nIf you go by constituency populations of about 45,000 as it will be on May 12, then even the most remote MLA under STV will be responsible for some 80,000 (in the north east, numbers of citizens are lower there) in a grotesquely huge riding.  Even Prince george are constituencies will have 3 mushed together to make one riding that will stretch from the far side of Smithers to the Alberta border and up to the Yukon. AND, each MLA will be representing nearly 130,000 people. It may well be the same 130,000 people as two other MLAs, but there are no divisions of responsibility, so each is resonsible for all.\r\nThen, the cost of maintaining the MLA will by my best guess triple. Since all MLA constituency offices are partisan, assuming the PRO-STV side is correct (I believe it's a reach too) then three (or more) MLAs will have their very own offices in the same communities that there are offices now. Each will have their own staff, phones, and equipment. The current cost under our FPTP system will be $850,000 each month.  Again, my best guess is that this amount will effectively triple to over $2.5MILLION each month to do exactly what we do now.\r\nAnd don't even try to suggest that we don't need personal contact with an MLA. Because for you to suggest that simply means you have never needed to talk to an MLA or had problems with government before. I have and talking to an MLA is often a sure fire way to get action.\r\nUnder existing voting patterns that the PRO-STV folks like to suggest will open up more small parties to the legislature, statistically, that won't happen because of the polarization of BC politics. I lead one of those small parties and I will resist STV with my dying breath...even if we don't elect a single MLA this time out.\r\nIreland which you STV lovers hold up as a poster child for, has had the Finna Faile as governing party for the most time since their brand of STV was adopted.\r\nBC-STV was saddled with the \"WESTMINSTER MODEL\" by Campbell from the outset. Why? Because it imposes ZERO controls on politicians and BC-STV effectively snatches our last hope of control away from us. That is the treasonous Recall and Initiative legislation BC was granted. However difficult Recall is now, will become impossible under STV because of the sheer size of populations within ridings and with multiple members, who can you blame for being lazy? Nobody. There is ZERO control of politicians and if you think simply barking at them at election time is enough, you're nuts.\r\nBC STV is the single worst thing BC voters could possibly do to themselves. And northerners should be especially afraid of this proposal.\r\nMike Summers, leader\r\nBC Refederation Party\r\nhttp://www.refedbc.com",
      "time": "2009-03-25T10:53:43",
      "id": "7489696"
    },
    {
      "threadId": "12207202",
      "post": "Thank you for the story. However, if I may make a correction.\r\n\r\nBC Refederation has a 1-2-3 plan to fix BC politics.\r\n\r\n1. First sitting as government, we enact DIRECT DEMOCRACY legislation. That empowers the people of BC to control us immediately.\r\n\r\n2. A WRITTEN CONSTITUTION. This entrenches personal rights and allows for permanent controls on politicians in BC. This shall be ratified by the people of BC in a confirming referendum. After this, no law will be beyond the grasp of voters to kill should they desire to. Under current parliamentary tradition, no laws governing one government bind any future government. We seek to change that.\r\n\r\n3. Re-negotiation of the terms of confederation based on democratic principles and fairness. That amounts to a RE-FEDERATION. Hence our name. we do not seek to withdraw from confederation. We seek only to fix it so that it is fair.\r\n\r\nOur political system is broken and we only need to be governing party \"JUST ONCE\" to fix things in BC.",
      "time": "2009-02-24T07:20:58",
      "id": "6556424"
    },
    {
      "threadId": "12182260",
      "post": "Sorry Arthur. I don't agree.  This is the same sort of logic being inflicted on BC with the Olympics.  Nobody asked the citizens. Not then or ever. \r\nNow you have a new council elected to change the way things are done.\r\nThe people in every town want the tax money that is spent, to be spent wisely, not gambled away on what ifs in a dark time in the economy.\r\nThe decision to withdraw is based on what is prudent. And as to perceptions around the world about Preince George? WHO CARES??? These people are not paying for services in the city. This is just another party that the local citizens are not invited to.\r\nMaybe if we lived in a democracy, the people could have killed it from the outset, or told council what they ARE or ARE NOT going to be doing.\r\nThe BC Refederation Party is the only BC political party bent on empowering BC citizens to control all BC politicians at all times. I am it's leader.",
      "time": "2009-02-21T02:51:06",
      "id": "6447842"
    },
    {
      "threadId": "12238947",
      "post": "Someone has a camera? That's why John Rustad is there.  ",
      "time": "2009-02-21T02:39:12",
      "id": "6447670"
    },
    {
      "threadId": "12083420",
      "post": "And there is a party planted squarely in the center. We are the BC Refederation Party. We are the ONLY BC party who seeks to govern, \"JUST ONCE\" and has a 1-2-3 plan to give voters absolute control of politicians...then you can kick us out and it won't matter any more.\r\n\r\nNothing extreme (unless you are a politician).  Obama promised change you can believe in. But can't deliver on the promise.\r\n\r\nUnlike Obama, I CAN deliver BC the change.",
      "time": "2009-02-21T02:35:55",
      "id": "6447627"
    },
    {
      "threadId": "11275586",
      "post": "Having been diagnosed with MS and having mobility issues, I find Vanderhoof sadly lacking when it comes to accessibility.  While the orange sidewalks might have some visual appeal, they are hell to walk on is you are having balance issues.\r\n\r\nThough I can still walk short distances, I own a powered chair that cannot climb up onto the sidewalks after crossing the road because the engineering of the softeners at the corners did not include storm drains to carry away the water and slush that builds up.\r\n\r\nThe sidewalk in front of the COOP at the opening near the 7-11 is especially bad.  How is it that nobody thought about storm drains when the second round of downtown devastation was taking place is beyond me.\r\n\r\nChurch Street between the Stewart and Columbia is especially bad because there is no drainage.  Often times the water is up on the sidewalks.\r\n\r\nAnd even the MLA's office is not accessible. To have the MLA on the second floor of a building without an elevator is unthinking and uncaring. \r\n\r\nEven the local medical clinic doesn't have an automatic opening door for people with mobility issues. Hopefully that will be changing someday soon. I see the clinic has had some construction started but it has come to a halt for some time it appears.\r\n\r\nLuckily, Vanderhoof doesn't have many people with mobility issues. Perhaps that's why so many move away.",
      "time": "2009-02-07T02:43:56",
      "id": "6060526"
    },
    {
      "threadId": "6330652",
      "post": "I light of how much Gordon Campbell sold the fast ferries for, I wonder how much these two ferries fetched? Although not as monsterous as the new ones, they were still useful and would have been mice on some of the smaller runs.",
      "time": "2008-11-03T09:40:05",
      "id": "3452757"
    }
  ],
  "profileInfo": {
    "username": "MikeSummers",
    "about": "I am co-founder of Direct Democracy BC, a proposed party with one aim and a predetermined shelf-life.\r\n\r\nAll parties are bought by some group of monetary giants, whether business or labour, which dictate party policies and aims, and indirectly, who runs for the party.\r\n\r\nWe believe this is wholly undemocratic and leave the common voter essentially out of decision making processes.\r\n\r\nWe want to change this, and change it by governing in BC, \"JUST ONCE\". \r\nIn one term, we can present voters with DIRECT DEMOCRACY, and offer it to them in a BINDING referendum.  If passed, it will be enacted by our government, THEN with it being the law, call an election and disappear.\r\n\r\nJUST ONCE. ",
    "name": "MikeSummers",
    "disable3rdPartyTrackers": false,
    "isPowerContributor": false,
    "isAnonymous": false,
    "rep": 1.217948,
    "profileUrl": "https://disqus.com/by/MikeSummers/",
    "url": "https://www.facebook.com/CanadiansForDirectDemocracy",
    "reputation": 1.217948,
    "location": "Vanderhoof BC (Bulkley-Nechako electoral district)",
    "isPrivate": false,
    "signedUrl": "https://disq.us/?url=https%3A%2F%2Fwww.facebook.com%2FCanadiansForDirectDemocracy&key=Sv9lywYK1LSA6Y296N6xBg",
    "isPrimary": true,
    "joinedAt": "2008-11-03T09:37:53",
    "id": "134601",
    "avatar": {
      "small": {
        "permalink": "https://disqus.com/api/users/avatars/MikeSummers.jpg",
        "cache": "//a.disquscdn.com/uploads/users/13/4601/avatar32.jpg?1281549414"
      },
      "isCustom": true,
      "permalink": "https://disqus.com/api/users/avatars/MikeSummers.jpg",
      "cache": "//a.disquscdn.com/uploads/users/13/4601/avatar92.jpg?1281549414",
      "large": {
        "permalink": "https://disqus.com/api/users/avatars/MikeSummers.jpg",
        "cache": "//a.disquscdn.com/uploads/users/13/4601/avatar92.jpg?1281549414"
      }
    }
  }
}