{
  "comments": [
    {
      "threadId": "485863841",
      "post": "Can we move away from saying \"lame\"? I think it's offensive to disable people. I prefer \"dumb ass aunt.\"",
      "time": "2011-11-28T02:23:59",
      "id": "373949734"
    },
    {
      "threadId": "451513860",
      "post": "Ninang Lissa",
      "time": "2011-10-24T00:03:45",
      "id": "342179897"
    },
    {
      "threadId": "426792024",
      "post": "STFU.\n\nI love Come Together!",
      "time": "2011-09-27T01:49:57",
      "id": "320599476"
    },
    {
      "threadId": "420883767",
      "post": "how did you rule out Megan so fast?\n",
      "time": "2011-09-21T01:37:43",
      "id": "316316102"
    },
    {
      "threadId": "415050688",
      "post": "hell ya!",
      "time": "2011-09-15T06:02:45",
      "id": "310816801"
    },
    {
      "threadId": "412638274",
      "post": "I completely agree that you should forge the note. It's a bullshit policy, so give them a bullshit note.\n",
      "time": "2011-09-13T00:58:40",
      "id": "308231668"
    },
    {
      "threadId": "405725621",
      "post": "Well, now I know how you really feel about Tanisha from Bad Girls Club.\n\n ",
      "time": "2011-09-06T00:21:53",
      "id": "303216331"
    },
    {
      "threadId": "291079333",
      "post": "You've really captured Megan's voice. Not surprised, but still, very impressed!",
      "time": "2011-04-29T22:05:12",
      "id": "194389312"
    },
    {
      "threadId": "286291521",
      "post": "I like the way that they used to look. Jeeps have their style now.",
      "time": "2011-04-22T22:35:19",
      "id": "190336193"
    },
    {
      "threadId": "277257854",
      "post": "oh, please. Lissa, this was cool.",
      "time": "2011-04-12T04:09:35",
      "id": "182939367"
    },
    {
      "threadId": "256991322",
      "post": "OMG.\n\nPICCTURRREESSSSSSS!!!!!!",
      "time": "2011-03-18T01:47:54",
      "id": "167423320"
    },
    {
      "threadId": "221472910",
      "post": "That's pretty much my tumblr without Pawn Stars, so just read my archives on like some old Mac. I'm sure you'll reach the same desired effect.",
      "time": "2011-02-03T23:07:10",
      "id": "139918754"
    },
    {
      "threadId": "167333721",
      "post": "OH your hair is so pretty.  It reminds me of Yorkie hair!  This is a compliment!",
      "time": "2010-11-04T23:58:22",
      "id": "94011826"
    },
    {
      "threadId": "167323446",
      "post": "Yuck! I don't like it's rodent like nose.  Or it, in general.  They're frightening!",
      "time": "2010-11-04T23:33:19",
      "id": "94007258"
    },
    {
      "threadId": "165969862",
      "post": "I eat plain oatmeal made with water, no salt, with scrambled eggs everyday.  Sometimes I add salsa.  It sounds nasty, but I love it!!!",
      "time": "2010-11-02T22:54:50",
      "id": "93142322"
    },
    {
      "threadId": "164938330",
      "post": "<3 u dr. bigsby!!!!!",
      "time": "2010-10-31T23:32:41",
      "id": "92279471"
    },
    {
      "threadId": "159366398",
      "post": "Lissa! I went to community college, am a bad driver, love buying useless shit, and drive a cool HONDA!  Now, I know how you really feel about me.<br><br>Also, I think you meant anatomy?",
      "time": "2010-10-23T12:13:37",
      "id": "89396703"
    },
    {
      "threadId": "160667363",
      "post": "http://www.lisavanderpump.com/",
      "time": "2010-10-23T08:45:10",
      "id": "89363050"
    },
    {
      "threadId": "159989137",
      "post": "OMG.  What channel were you watching?",
      "time": "2010-10-21T23:04:17",
      "id": "88930770"
    },
    {
      "threadId": "158311821",
      "post": "ATL!",
      "time": "2010-10-18T21:20:31",
      "id": "88011294"
    },
    {
      "threadId": "154837646",
      "post": "your mom rules.\n\n\\m/",
      "time": "2010-10-12T02:04:55",
      "id": "86081129"
    },
    {
      "threadId": "151965863",
      "post": "This is my favorite picture out of the three of this pup!",
      "time": "2010-10-06T10:58:37",
      "id": "84551879"
    },
    {
      "threadId": "141440314",
      "post": "So happy!!!!!  Congrats!!!!!!",
      "time": "2010-09-14T12:19:51",
      "id": "77493334"
    },
    {
      "threadId": "141618918",
      "post": "I thought this was Lisa \"I'm a businesswoman\" Wu-Hartwell",
      "time": "2010-09-14T12:19:09",
      "id": "77493231"
    },
    {
      "threadId": "140981209",
      "post": "http://wiki.answers.com/Q/Was_kesha_born_at_a_party&editQurl=1",
      "time": "2010-09-13T02:13:02",
      "id": "77188198"
    },
    {
      "threadId": "139332412",
      "post": "NEXT!  She majorly sux now imo.  I would have rolled my eyes.  Thankfully, I naturally come off as a snot, and so the eye rolls are usually inferred from my blank stare.<br><br>",
      "time": "2010-09-08T21:33:46",
      "id": "76182393"
    },
    {
      "threadId": "139332076",
      "post": "Should be asking themselves, WWGHD?",
      "time": "2010-09-08T21:31:53",
      "id": "76181957"
    },
    {
      "threadId": "138523103",
      "post": "#2 FTW\n\nI'm clapping.",
      "time": "2010-09-07T22:51:32",
      "id": "75854936"
    },
    {
      "threadId": "135482275",
      "post": "I was driving behind a black Civic a few days ago and the license plate said \"BLK LUV.\"\n\nme muero!",
      "time": "2010-08-30T22:46:37",
      "id": "73232469"
    },
    {
      "threadId": "131692606",
      "post": "I do this all the time.  In fact, it happened today. - my AA is OOO.\n\nThanks usesless OOO assistant.",
      "time": "2010-08-20T16:13:41",
      "id": "70233436"
    },
    {
      "threadId": "130005149",
      "post": "This is hilarious!!",
      "time": "2010-08-16T02:36:23",
      "id": "69060847"
    },
    {
      "threadId": "129045626",
      "post": "Please move!  I promise to visit a lot!",
      "time": "2010-08-12T22:43:15",
      "id": "68270304"
    },
    {
      "threadId": "128314114",
      "post": "<pant><pant><pant>\n",
      "time": "2010-08-11T00:15:09",
      "id": "67684684"
    },
    {
      "threadId": "128313937",
      "post": "OMG FUCK YES YOU DO.",
      "time": "2010-08-11T00:14:11",
      "id": "67684580"
    },
    {
      "threadId": "127850446",
      "post": "I came!",
      "time": "2010-08-09T21:26:55",
      "id": "67444520"
    },
    {
      "threadId": "126945351",
      "post": "lulz",
      "time": "2010-08-06T23:19:35",
      "id": "66918440"
    },
    {
      "threadId": "126725296",
      "post": "can not be unseen.",
      "time": "2010-08-06T11:42:40",
      "id": "66804196"
    },
    {
      "threadId": "125630373",
      "post": "I hope you agree that Kim \"G\" stole our hearts last night.\n\nGod bless her!",
      "time": "2010-08-03T22:18:08",
      "id": "65926677"
    },
    {
      "threadId": "124658072",
      "post": "1. Alicide is so hot FUCK!\n2. WRONG, TB is even better than before.  I literally live for Franklin and Tara's hilarious storyline.  Yay domestic abuse!",
      "time": "2010-08-01T22:56:37",
      "id": "65636840"
    },
    {
      "threadId": "124204643",
      "post": "The first of many I'm sure!",
      "time": "2010-07-30T21:17:04",
      "id": "65352979"
    },
    {
      "threadId": "122465443",
      "post": "Honey, I've been thinking this for years.",
      "time": "2010-07-26T22:36:37",
      "id": "64353023"
    },
    {
      "threadId": "122450687",
      "post": "Ejemplito por favor",
      "time": "2010-07-26T21:47:29",
      "id": "64342872"
    },
    {
      "threadId": "121431598",
      "post": "it's a fucking a masterpiece.",
      "time": "2010-07-24T00:19:20",
      "id": "63993953",
      "parentPost": "right!?",
      "parentPostTime": "2010-07-23T23:24:38",
      "parentPostId": "63988780"
    },
    {
      "threadId": "119874465",
      "post": "Oh totally, but she's got the same bitch face.  'Liv has delicate, refined facial features.  Probrecita's face is pretty but HARSH.  Y'know?  Re your second sentence: I FUCKING KNOW!  As if the number of hours you spent working is a merit badge.  UH no, it means that you're a fucking workaholic loser.",
      "time": "2010-07-20T00:22:19",
      "id": "63278436",
      "parentPost": "Not as pretty as Olivia either, right? How sad to be in your 20s and giving up half of your day to work! Pobre needs a hobby.",
      "parentPostTime": "2010-07-20T00:17:41",
      "parentPostId": "63277915"
    },
    {
      "threadId": "118493379",
      "post": "Alcide finally takes off his shirt.  I live...",
      "time": "2010-07-16T01:27:37",
      "id": "62460222"
    },
    {
      "threadId": "117660978",
      "post": "AHHHH! Congrats!",
      "time": "2010-07-14T02:15:40",
      "id": "62057216"
    },
    {
      "threadId": "117228910",
      "post": "Don't know if you check your webstats, but I link directly to your Ricky Martin page on my FFox toolbar.  Just thought you might want to know why your Ricky Martin page was getting all these hits.",
      "time": "2010-07-13T01:20:21",
      "id": "61807875"
    },
    {
      "threadId": "117228457",
      "post": "I hate the train!\n\nWhen are you going, maybe I can go?\n\nIs this for shopping?",
      "time": "2010-07-13T01:17:39",
      "id": "61807631"
    },
    {
      "threadId": "115359606",
      "post": "this is not megan's tumblr",
      "time": "2010-07-08T12:03:38",
      "id": "61094777"
    },
    {
      "threadId": "112950264",
      "post": "EW waht the fuck are these critt",
      "time": "2010-06-30T22:02:13",
      "id": "60053838"
    },
    {
      "threadId": "111549443",
      "post": "IN LOVE! She's huge! and muppet face.",
      "time": "2010-06-26T11:23:20",
      "id": "58737421"
    },
    {
      "threadId": "110454592",
      "post": "Lis, your hair and boobs look great. ",
      "time": "2010-06-24T01:47:19",
      "id": "58346055"
    },
    {
      "threadId": "102103727",
      "post": "So proud of you!!! This will make you know who cry like a little bitch.",
      "time": "2010-05-28T19:46:45",
      "id": "52726358"
    },
    {
      "threadId": "101844827",
      "post": "I can see her tits",
      "time": "2010-05-28T04:10:50",
      "id": "52516836"
    },
    {
      "threadId": "101302818",
      "post": "Baw taught world history…slowly",
      "time": "2010-05-26T22:28:44",
      "id": "52320286"
    },
    {
      "threadId": "100985305",
      "post": "NO!!! Andy is supposed to look like Justin Bobby!\n\nJB is hotter.",
      "time": "2010-05-26T01:28:19",
      "id": "52087504",
      "parentPost": "da-rooool. He is to die for! I should just start sending Andy pics like this so he'll take a hint and try and look like Mr. Hill. Ooooh, I wonder if he's related to Jonah?",
      "parentPostTime": "2010-05-26T01:24:34",
      "parentPostId": "52086701"
    },
    {
      "threadId": "97447768",
      "post": "Danielle Staub?",
      "time": "2010-05-20T12:21:58",
      "id": "51214096"
    },
    {
      "threadId": "94296549",
      "post": "Just texted you, but just wanted to say once more that I'm so happy for you!!!",
      "time": "2010-05-11T01:47:54",
      "id": "49439297"
    },
    {
      "threadId": "93748152",
      "post": "Dear GOD, I WISH!\r\n\r\nLove me some SUPERM!",
      "time": "2010-05-10T04:15:52",
      "id": "49258184",
      "parentPost": "Didn't we see these dudes tonight?",
      "parentPostTime": "2010-05-09T06:52:10",
      "parentPostId": "49167960"
    },
    {
      "threadId": "93189116",
      "post": "NO HE DID FUCKING NOT.\n\nYou didn't tell me this!\n\nI would've been like \"so what? here's a band-aid…BABY.\"",
      "time": "2010-05-07T04:30:55",
      "id": "48834853"
    },
    {
      "threadId": "89670172",
      "post": "Oh fuck.  I watched it too.  I hate Lo.",
      "time": "2010-04-26T00:31:04",
      "id": "46592302"
    },
    {
      "threadId": "89385775",
      "post": "yay! chicago trip for mexican food.",
      "time": "2010-04-24T21:13:58",
      "id": "46428289"
    },
    {
      "threadId": "88526888",
      "post": "HAHAHHA! love this.\n\nIt's female dog, right?  b/c we both know he's a bitch.",
      "time": "2010-04-23T00:59:19",
      "id": "46160351"
    },
    {
      "threadId": "88828271",
      "post": "Is this Mer?  Isn't she Jewish?",
      "time": "2010-04-23T00:57:51",
      "id": "46160153"
    },
    {
      "threadId": "83611566",
      "post": "oh haha",
      "time": "2010-04-08T02:20:52",
      "id": "43786836",
      "parentPost": "yes. as soon as i hit \"submit\" i thought, \"i hope he doesn't think i'm\r\nsaying this to him!\" it's my reply to your coworker defending you! :)",
      "parentPostTime": "2010-04-08T02:18:37",
      "parentPostId": "43786375"
    },
    {
      "threadId": "79417363",
      "post": "No, I didn't.  I said I wanted Alicia Keys in mine.",
      "time": "2010-03-25T22:04:57",
      "id": "41586926"
    },
    {
      "threadId": "79137849",
      "post": "I didn't know it was today!  Did she just spring it on you today?",
      "time": "2010-03-25T02:00:00",
      "id": "41476500"
    },
    {
      "threadId": "78116598",
      "post": "I went to Target today too!\n\nI want one of those folder files with 1-31 tabs and then you put whatever you're working on for the day in that slot.",
      "time": "2010-03-22T04:11:07",
      "id": "41003748"
    },
    {
      "threadId": "77526855",
      "post": "I know that you told me already, but congratulations again! I'm so excited for you!!! :D",
      "time": "2010-03-20T20:07:18",
      "id": "40690722"
    },
    {
      "threadId": "70755161",
      "post": "HAHAHAHAHA!  LOVING IT",
      "time": "2010-02-27T16:41:40",
      "id": "37239873"
    },
    {
      "threadId": "70541522",
      "post": "I'M LAUGHING SO HARD RIGHT NOW THAT MY INSIDES HURT",
      "time": "2010-02-26T23:17:18",
      "id": "37053984"
    },
    {
      "threadId": "68466517",
      "post": "This is me.  :)",
      "time": "2010-02-20T00:48:29",
      "id": "35559635"
    },
    {
      "threadId": "67504925",
      "post": "OMG submit this to hipsterpuppies.tumblr.com.\n\nDots is totally giving me a \"meaningful, authentic, alt\"-type look.\n\nIf you don't know what I'm talking about then you're not reading Hipster Runoff",
      "time": "2010-02-17T00:07:50",
      "id": "34794307"
    },
    {
      "threadId": "62091415",
      "post": "Omg I like your window treatment.  Srsly.",
      "time": "2010-01-28T04:07:45",
      "id": "31665609"
    },
    {
      "threadId": "61498114",
      "post": "Just saying:\n\n2006 Lissa: \"Nic, should I get AT&T or Verizon?\"\n2005 Nic: \"I think you should get AT&T.  I have great coverage and I never have any problems.\"\n2005 Lissa: \"I think I'm getting Verizon.\"\n\n2006 Lissa: \"I don't want an iPhone because I don't want the screen near my face after touching it.\"",
      "time": "2010-01-26T03:55:51",
      "id": "31340107"
    },
    {
      "threadId": "61473970",
      "post": "I'm 21.",
      "time": "2010-01-26T01:14:22",
      "id": "31328502"
    },
    {
      "threadId": "56232818",
      "post": "haha are you using the right zip code?",
      "time": "2010-01-06T10:53:36",
      "id": "28656107"
    },
    {
      "threadId": "56128678",
      "post": "I really think dairy is just bad for people.  I eat it occasionally, and afterward it's almost a guarantee that I'll breakout with huge acne or have indigestion problems.  A few months ago, I'd try to eat ice cream on a Thurs. or Fri. so that I could deal with the breakout over the weekend.",
      "time": "2010-01-06T00:35:41",
      "id": "28613900"
    },
    {
      "threadId": "55371026",
      "post": "I remember Jeff W. was so gay for him.  Btw, Jeff W. led me astray in terms of music choices.  Five Iron Frenzy is not better than Lenny Kravitz.  They're not even Black!",
      "time": "2010-01-03T08:07:40",
      "id": "27874877"
    },
    {
      "threadId": "55370355",
      "post": "Ya…so sorry about that.  I was so WRONG.  I've had a similar problem, but it's from weird Asian guys that share no mutual friends with me.  FB reminds me of MySpace now…",
      "time": "2010-01-03T08:01:43",
      "id": "27874780"
    },
    {
      "threadId": "55331085",
      "post": "Oh.  I didn't know that Mer liked monkeys!",
      "time": "2010-01-03T00:54:24",
      "id": "27853123"
    },
    {
      "threadId": "55254323",
      "post": "It's tough living in Loudoun!  Our X5 is not leased, btw.  :D\n\nThis is who I think it is, right?  ",
      "time": "2010-01-02T15:25:52",
      "id": "27824028"
    },
    {
      "threadId": "54642467",
      "post": "EW, Lissa I had no idea that you felt this way toward Spencer.\n\nI must Neti.",
      "time": "2009-12-30T02:36:03",
      "id": "27519526"
    },
    {
      "threadId": "54210977",
      "post": "haha I don't think Kathy Griffin is funny!  I wish it were Diane Sawyer and Wanda Sykes.  THAT is something worth watching.  I'll be here though.  Family dinner.",
      "time": "2009-12-27T19:57:07",
      "id": "27346259"
    },
    {
      "threadId": "52316689",
      "post": "LOL NO MOON!!!!",
      "time": "2009-12-16T23:25:05",
      "id": "25988050"
    },
    {
      "threadId": "51433300",
      "post": "Haha, you're right.  You didn't make fun of me.\n\nI think it's nice to stick to one scent.  It becomes your signature.  Like my scent is Kieh's Original Musk Blend No. 1.  And, Jhair's is Issey Miyake.",
      "time": "2009-12-12T21:53:13",
      "id": "25612696",
      "parentPost": "I told you, didn't make fun of you!! I guess I do deserve it. But I kind of\r\ndon't really care? Am I old? Poor? What gives?!",
      "parentPostTime": "2009-12-12T20:40:04",
      "parentPostId": "25610400"
    },
    {
      "threadId": "50868190",
      "post": "I really don't want to say this, but even Ally is too good for dirtyrichmond.",
      "time": "2009-12-12T13:56:18",
      "id": "25593867",
      "parentPost": "Dont h8 cause ally's on that site and you aren't.",
      "parentPostTime": "2009-12-10T00:44:36",
      "parentPostId": "25349858"
    },
    {
      "threadId": "50869939",
      "post": "Oh honey, thanks for the reblog.  So sweet of you to like it enough to do so.\n\nThis replaces me previous highlight of today, which was taking a big ol' turkey-sandwich-generated fart at 5 PM after holding it in since lunch...er...enjoy that image.",
      "time": "2009-12-10T01:01:18",
      "id": "25350657"
    },
    {
      "threadId": "50211558",
      "post": "haha yes! It's the one of the two dinky buildings across the fat ass Bank of America building.",
      "time": "2009-12-07T03:29:53",
      "id": "24977626"
    },
    {
      "threadId": "50193345",
      "post": "Answer: Because Shes Bad! [sic]",
      "time": "2009-12-06T23:49:06",
      "id": "24967591"
    },
    {
      "threadId": "49971382",
      "post": "HAHAHA!  Of course.",
      "time": "2009-12-05T21:10:39",
      "id": "24913387",
      "parentPost": "Can we be IRL friends?",
      "parentPostTime": "2009-12-05T15:52:50",
      "parentPostId": "24900588"
    },
    {
      "threadId": "47029351",
      "post": "I can't believe that I only wore that once!",
      "time": "2009-11-21T11:08:56",
      "id": "23695480"
    },
    {
      "threadId": "46732743",
      "post": "15 min. a day in the sun should do it.\n\nOne more reason to get a dog.",
      "time": "2009-11-19T23:32:53",
      "id": "23573520"
    },
    {
      "threadId": "46289001",
      "post": "Lissa, the flu shot is making me siiiiick, and laughing makes my whole body hurt.",
      "time": "2009-11-18T02:07:07",
      "id": "23424166"
    },
    {
      "threadId": "45570108",
      "post": "I looovvvvve people who cancel at the last minute or fail to text back [in 2009].",
      "time": "2009-11-14T15:55:06",
      "id": "23003715"
    },
    {
      "threadId": "42479485",
      "post": "YOU ARE ABSOLUTELY HILARIOUS.",
      "time": "2009-10-29T22:27:05",
      "id": "21295562"
    },
    {
      "threadId": "41462837",
      "post": "Yes it was.  When I would filter water through my Pur filter, the water in the the top reservoir had what I originally thought were grease stains mixed in the water reflecting light.  Those stains were actually Chlorine.",
      "time": "2009-10-24T10:16:19",
      "id": "20922062",
      "parentPost": "Is all of that really what your water was like??",
      "parentPostTime": "2009-10-24T01:06:27",
      "parentPostId": "20897182"
    },
    {
      "threadId": "41306576",
      "post": "This sounds like Megan, but is it Mer?",
      "time": "2009-10-23T10:17:43",
      "id": "20849265"
    },
    {
      "threadId": "40718200",
      "post": "Lissa, they look fantastic!",
      "time": "2009-10-20T21:19:43",
      "id": "20653272"
    },
    {
      "threadId": "39854166",
      "post": "The outfit is WHITE HOT, Lissa.\n\nI'm feeling the hem of the skirt and the nail polish.\n\nThe only thing missing is some embroidery or Disney.  And no, they don't have to be mutually exclusive.",
      "time": "2009-10-15T21:35:16",
      "id": "20153414"
    },
    {
      "threadId": "39279645",
      "post": "I don't think my office has a weirdo!  It can be me.  I'm usually at home either fixing my hair or doing my laundry.",
      "time": "2009-10-12T23:38:20",
      "id": "19932852"
    },
    {
      "threadId": "38604014",
      "post": "oh totally! good call.",
      "time": "2009-10-08T21:43:02",
      "id": "19607036"
    },
    {
      "threadId": "36443570",
      "post": "\"the worst idea in the history of everything.\"<br><br>1. Hollow hyperbole.<br>2. Actually the worst idea in the history of everything was made during your conception.<br><br>ZING!",
      "time": "2009-09-27T20:12:30",
      "id": "17644543"
    },
    {
      "threadId": "34626207",
      "post": "Oh this was posted before dinner...\n\nNo, I didn't.",
      "time": "2009-09-17T23:17:56",
      "id": "16846178",
      "parentPost": "The latter is the more serious offense! I just figured you'd seen this post. Or that Nipper was channeling you. Maybe she made me allergic to eggplant to bring me to her??",
      "parentPostTime": "2009-09-17T23:00:23",
      "parentPostId": "16843140"
    },
    {
      "threadId": "34824763",
      "post": "The floors are old.  That's the only bad thing.  Edit: actually another bad thing is that there's not too much closet space.",
      "time": "2009-09-17T23:12:57",
      "id": "16845968",
      "parentPost": "Seeing this overwhelmed me with emotions haha",
      "parentPostTime": "2009-09-17T23:08:41",
      "parentPostId": "16845189"
    },
    {
      "threadId": "34619754",
      "post": "We could do Outback if you want. LOL. I ate Don Pablo's at lunch time.",
      "time": "2009-09-16T20:46:25",
      "id": "16771724"
    },
    {
      "threadId": "34618673",
      "post": "OMG I'm so sorry!  I'll visit a lot.  Promise.  You and my church are here.  Duh.  Oh and my fam. \n\nOh good news for me: my mom said I don't have to give up my room to my sister.  I'm going to try and find an apartment tomorrow…\n\nPlease help me furnish it!  My mom is going to front some of the money since she didn't send me to a azn vacation when I graduated.\n\nRe: puppy\n\nI'm leaning towards glasses actually.  I might hate the puppy because it's not Millie.\n\nLastly, thank you for the kind words!  <3",
      "time": "2009-09-16T20:45:24",
      "id": "16771664"
    },
    {
      "threadId": "34486116",
      "post": "I would wreck him.",
      "time": "2009-09-16T07:44:31",
      "id": "16701693"
    },
    {
      "threadId": "33716260",
      "post": "I meant guys in general! Lazy post on my part.sowy.",
      "time": "2009-09-11T00:43:04",
      "id": "16396995"
    },
    {
      "threadId": "33085030",
      "post": "http://en.wikipedia.org/wiki/File:1913arrow.jpg\r\n\r\nI think it's a matter of the style of the times.\r\n\r\nYou can adjust the length of your tie with the number of knots.",
      "time": "2009-09-07T04:10:48",
      "id": "16083922",
      "parentPost": "In theory, yes that is where your tie should hit. But Askars is so tall, I think that is difficult to accomplish. Joel McHale who is the same height as Alexander and his ties hit the same place too. But you know, it oddly looks ok.",
      "parentPostTime": "2009-09-07T04:00:49",
      "parentPostId": "16083711"
    },
    {
      "threadId": "32485705",
      "post": "Lissa, I was at Nordstrom today too!!!  I had to get my navy suit tailored for the Globes…<br><br>I luhh the wedge on that boot.  Also, the florals are so cute.  Congrats on your steal.  Totally jealous!",
      "time": "2009-09-03T02:45:56",
      "id": "15843794"
    },
    {
      "threadId": "32443341",
      "post": ":pregnant pause: \r\n\r\nNo.",
      "time": "2009-09-03T02:41:01",
      "id": "15843610",
      "parentPost": "Where's the \"fucking love\" button? Could you breathe?",
      "parentPostTime": "2009-09-03T01:53:01",
      "parentPostId": "15841512"
    },
    {
      "threadId": "32058160",
      "post": "This is fucking hilarious.  I know the feeling.",
      "time": "2009-08-31T19:29:29",
      "id": "15663693"
    },
    {
      "threadId": "31928151",
      "post": "Lissa! No!!! You're too young to die.",
      "time": "2009-08-30T21:34:03",
      "id": "15612480",
      "parentPost": "This is being tested in Providence!? I gotta go back ASAP and try it before it never makes it to the masses!",
      "parentPostTime": "2009-08-30T21:31:13",
      "parentPostId": "15612406"
    },
    {
      "threadId": "31420498",
      "post": "Lissa, \n\nIt's amazing that you can show off your ass in such a creative way.  And no, I'm not being sarcastic.  Genius!\n\n-Nic",
      "time": "2009-08-27T03:54:19",
      "id": "15452624"
    },
    {
      "threadId": "29802619",
      "post": "OMG THE BLACK LOOKS AMAZING IN PHOTOS! bye bye beige!",
      "time": "2009-08-16T00:04:14",
      "id": "14893716"
    },
    {
      "threadId": "28730919",
      "post": "haha just hang out with me!\r\n\r\nI'm free on Sunday, and maybe tomorrow.",
      "time": "2009-08-08T01:16:41",
      "id": "14461103"
    },
    {
      "threadId": "27641253",
      "post": "NO FUCKING WAY!!!\r\n\r\nThanks Lissa.",
      "time": "2009-07-30T21:31:59",
      "id": "13693570"
    },
    {
      "threadId": "27449170",
      "post": "I'm kidding! I know who it is.",
      "time": "2009-07-30T20:47:48",
      "id": "13680298",
      "parentPost": "NO NIC",
      "parentPostTime": "2009-07-30T03:36:32",
      "parentPostId": "13610801"
    },
    {
      "threadId": "27489238",
      "post": "It's because Lissa is a masochist. Obvs.",
      "time": "2009-07-30T00:27:00",
      "id": "13581214",
      "parentPost": "You probably should of just gone to an apple store, they are much more friendly there and not retarded when it comes to computer knowledge.",
      "parentPostTime": "2009-07-29T23:13:35",
      "parentPostId": "13577715"
    },
    {
      "threadId": "27358458",
      "post": "Fabu",
      "time": "2009-07-29T02:48:27",
      "id": "13493561"
    },
    {
      "threadId": "27358352",
      "post": "Are those Tampons or Crystal Light packets?",
      "time": "2009-07-29T02:47:37",
      "id": "13493539"
    },
    {
      "threadId": "26344348",
      "post": "She is my favorite! You can't make dialogue like this up.",
      "time": "2009-07-21T15:27:51",
      "id": "12999553"
    },
    {
      "threadId": "24689270",
      "post": "oh hey Megan.  I like your new bikini top.",
      "time": "2009-07-08T18:28:31",
      "id": "12323632"
    },
    {
      "threadId": "23566677",
      "post": "I met chu at JC PENNNY.\r\nI think your name tag said JENNAAYYY.",
      "time": "2009-06-30T03:19:46",
      "id": "11922782"
    },
    {
      "threadId": "23566378",
      "post": "I'm not.\r\n\r\nHe's funny for like second, and then annoying for the rest.",
      "time": "2009-06-30T03:16:12",
      "id": "11922700"
    },
    {
      "threadId": "22776243",
      "post": "aw miss you too\r\n\r\nhouston is beyonce and kelly's hometown.",
      "time": "2009-06-24T17:14:02",
      "id": "11688923",
      "parentPost": "miss you!",
      "parentPostTime": "2009-06-24T13:24:04",
      "parentPostId": "11679180"
    },
    {
      "threadId": "22670765",
      "post": "My phone was on silent and I just saw this message.  Who was this guy again?",
      "time": "2009-06-23T01:46:58",
      "id": "11596616"
    },
    {
      "threadId": "22356774",
      "post": "oh my god i thought you would never ask! yes!",
      "time": "2009-06-19T23:14:59",
      "id": "11487135"
    },
    {
      "threadId": "22092103",
      "post": "JC, that's so fucked up.  I would be fucking pissed at them.  Hell, I would cancel and switch to a new alarm company.",
      "time": "2009-06-18T17:05:13",
      "id": "11105649"
    },
    {
      "threadId": "22076368",
      "post": "Hey, who is this guy?  Is he Filipino?",
      "time": "2009-06-18T07:58:19",
      "id": "11078604"
    },
    {
      "threadId": "22065972",
      "post": "lissa, i love your top",
      "time": "2009-06-18T03:06:23",
      "id": "11073031"
    },
    {
      "threadId": "21470492",
      "post": "AW I LOVE YOU TOO!!!",
      "time": "2009-06-13T04:20:55",
      "id": "10827155"
    },
    {
      "threadId": "21413795",
      "post": "can guys get extensions? I'm tired of waiting for my hair to grow too.",
      "time": "2009-06-12T17:36:07",
      "id": "10806424"
    },
    {
      "threadId": "21069287",
      "post": "haha thanks! :p\r\n\r\nI know...from watching Harry Potters on Fox Family last week.  It was  \r\nawesome.",
      "time": "2009-06-10T02:22:12",
      "id": "10677540",
      "parentPost": "Haha really? Did you know that or google it?\r\n\r\nI saw it on some History Channel special on the world ending.\r\n\r\nYou always keep me in the know, Nic!",
      "parentPostTime": "2009-06-10T02:19:14",
      "parentPostId": "10677477"
    },
    {
      "threadId": "20919952",
      "post": "oh I thought that was mer.\r\n\r\nsecond look.\r\n\r\nit's laura.",
      "time": "2009-06-09T03:01:31",
      "id": "10635987"
    },
    {
      "threadId": "20547899",
      "post": "I was reading the blog stuff white people like and it said that one thing was a Bob Marley phase.\r\n\r\nBut, I was like, does this really apply to Amy?",
      "time": "2009-06-05T15:36:32",
      "id": "10522542"
    },
    {
      "threadId": "20090295",
      "post": "beyond good and evil or the grundrisse?",
      "time": "2009-06-02T00:41:13",
      "id": "10370616"
    },
    {
      "threadId": "19456593",
      "post": "nope.",
      "time": "2009-05-27T04:50:35",
      "id": "10003660",
      "parentPost": "You're so nice! Is there sarcasm I am not picking up on? Ha.",
      "parentPostTime": "2009-05-27T04:19:03",
      "parentPostId": "9981567"
    },
    {
      "threadId": "19452549",
      "post": "ya then you'll be like creepy danielle from real housewives",
      "time": "2009-05-27T00:30:00",
      "id": "9976175"
    },
    {
      "threadId": "19436038",
      "post": "I saw this too, and I kind of want it.",
      "time": "2009-05-26T23:47:50",
      "id": "9975191"
    },
    {
      "threadId": "18751858",
      "post": "That birds are stupid.\r\n\r\nHave I ever told you my legitimate fear of birds?  AHHH! My imagination goes crazy thinking of all the dirty bugs and germs in their feathers.",
      "time": "2009-05-20T04:26:11",
      "id": "9564190"
    },
    {
      "threadId": "18623158",
      "post": "This is Cher from Clueless talking about guys in the 90s.",
      "time": "2009-05-19T01:49:32",
      "id": "9520522"
    },
    {
      "threadId": "18617817",
      "post": "You go Wegman's?\r\n\r\nOr are you talking about that Giant in Cascades?",
      "time": "2009-05-19T00:25:39",
      "id": "9518452"
    },
    {
      "threadId": "18617684",
      "post": "OMG STFU.\r\nI'm gonna sue JJ!",
      "time": "2009-05-19T00:23:41",
      "id": "9518419"
    },
    {
      "threadId": "18424913",
      "post": "Oh Christ this is too precious.",
      "time": "2009-05-17T01:51:00",
      "id": "9461943"
    },
    {
      "threadId": "18327037",
      "post": "Your electricity bill is a lot.  I think we pay the same amount or less.",
      "time": "2009-05-16T00:09:24",
      "id": "9378158"
    },
    {
      "threadId": "18312768",
      "post": "insert creepy stalking comment about boobs",
      "time": "2009-05-15T21:05:48",
      "id": "9373668"
    },
    {
      "threadId": "17801696",
      "post": "he plays shitty music",
      "time": "2009-05-11T00:44:35",
      "id": "9192836"
    },
    {
      "threadId": "17711566",
      "post": "before?",
      "time": "2009-05-09T17:33:02",
      "id": "9161070"
    },
    {
      "threadId": "17673307",
      "post": "oh lissa hun, this is goregous. should be your xmas card.",
      "time": "2009-05-09T03:03:01",
      "id": "9148031"
    },
    {
      "threadId": "17653047",
      "post": "Oh it's going to be outside.\r\nNow I know what to wear.\r\nThanks!",
      "time": "2009-05-09T01:34:08",
      "id": "9145897"
    },
    {
      "threadId": "17545773",
      "post": "Only if they look like Brian Kenny underneath.",
      "time": "2009-05-07T15:36:54",
      "id": "9094733",
      "parentPost": "Stop denying that you don't want furry action.",
      "parentPostTime": "2009-05-07T15:27:23",
      "parentPostId": "9094437"
    },
    {
      "threadId": "17342254",
      "post": "Oh, you have the best ones.  Lissa and I don't want to click the like button on SNPD because we don't want to seem like pervos.",
      "time": "2009-05-07T14:19:17",
      "id": "9092450"
    },
    {
      "threadId": "17468606",
      "post": "Shess gotttt the besssst!\r\nOF BOTH WORLDS\r\n<<<AIR GUITAR>>>>",
      "time": "2009-05-06T15:57:18",
      "id": "9060121"
    },
    {
      "threadId": "17464434",
      "post": "27? wtf?\r\n\r\nMy boss is a unfun 27 y/o gay loser who's addicted to cigarettes and booze too.\r\n\r\nDouble suicide.\r\n\r\nOr homicide.\r\n\r\nI wouldn't tell.\r\n\r\nThoughts?",
      "time": "2009-05-06T15:56:36",
      "id": "9060098"
    },
    {
      "threadId": "17435213",
      "post": "Harvey Levin of TMZ",
      "time": "2009-05-06T04:38:10",
      "id": "9047110",
      "parentPost": "Who's Levin? ",
      "parentPostTime": "2009-05-06T04:32:36",
      "parentPostId": "9047022"
    },
    {
      "threadId": "17423574",
      "post": "find me this youtube please.",
      "time": "2009-05-06T02:16:24",
      "id": "9035898"
    },
    {
      "threadId": "17403226",
      "post": "Why don't you ask Laura? Is it on the way to Richmond?",
      "time": "2009-05-05T20:16:55",
      "id": "9025769"
    },
    {
      "threadId": "17047281",
      "post": "http://www.aloharag.com/highseas/dept.asp?s_id=0&dept_name=COMME+DES+GARCONS&dept_id=4604&WT.svl=deptnav2",
      "time": "2009-05-04T02:49:05",
      "id": "8968202",
      "parentPost": "From where?",
      "parentPostTime": "2009-05-04T01:34:07",
      "parentPostId": "8967149"
    },
    {
      "threadId": "17173085",
      "post": "no she's saying megan is black",
      "time": "2009-05-03T02:16:41",
      "id": "8946138"
    },
    {
      "threadId": "17150751",
      "post": "uh typical [re: caption].\n\n",
      "time": "2009-05-02T03:56:38",
      "id": "8915744"
    },
    {
      "threadId": "17051119",
      "post": "Don't forget that we air guitar'd that Adam Levine lookylike.\r\nAnd he was like \"Ich get that allllll the time.\"",
      "time": "2009-04-30T21:33:32",
      "id": "8877519"
    },
    {
      "threadId": "16489710",
      "post": "The last one?\r\n\r\nFor a text.\r\n\r\nYes.",
      "time": "2009-04-23T14:56:34",
      "id": "8608431"
    },
    {
      "threadId": "16396023",
      "post": "This made me laugh out loud.",
      "time": "2009-04-22T13:52:27",
      "id": "8568974"
    },
    {
      "threadId": "16219570",
      "post": "I stopped at his quads.",
      "time": "2009-04-20T17:25:50",
      "id": "8452115",
      "parentPost": "Really? Did you check out his clubbed, no-arch feet? Ugghgh",
      "parentPostTime": "2009-04-20T17:22:18",
      "parentPostId": "8450574"
    },
    {
      "threadId": "16153696",
      "post": "I say you bail.\n\nYou're not skipping her wedding day.\n\nYou're skipping her rehearsal dinner.\n\nYour relatives would probably hate/envy you though.\n\nEW.  Lissa, you're going to eat hotdogs!\n\nWhat's Mer going to eat?  Probably nothing.  Mer is so lucky!",
      "time": "2009-04-19T22:51:09",
      "id": "8357063"
    },
    {
      "threadId": "16044067",
      "post": "Lissa, I am still up too.\r\n\r\nI changed to blue gingham and black slacks because they were more forgiving.\r\n\r\nSorry for the late notice!",
      "time": "2009-04-18T06:01:57",
      "id": "8321664"
    },
    {
      "threadId": "15912413",
      "post": "Lilac is too light.  A good medium purple.  My slacks are charcoal.",
      "time": "2009-04-16T17:13:39",
      "id": "8265592",
      "parentPost": "I know! Taking creep to the next lvl.\r\n\r\nHey...dark purple or light purple like lilac?",
      "parentPostTime": "2009-04-16T17:07:30",
      "parentPostId": "8265394"
    },
    {
      "threadId": "15787746",
      "post": "http://news.bbc.co.uk/2/hi/americas/7999260.stm",
      "time": "2009-04-15T16:42:35",
      "id": "8231055"
    },
    {
      "threadId": "15761360",
      "post": "purlple Gingham shirt and solid dark purple tie, dark grey dress slacks, brown belt, brown dress shoes, gold accessories.\n\nYou?",
      "time": "2009-04-14T18:46:50",
      "id": "8203716"
    },
    {
      "threadId": "15554160",
      "post": "ha ya\r\n\r\ndid a dashboard search for rachel zoe",
      "time": "2009-04-11T19:30:28",
      "id": "8082653",
      "parentPost": "Someone's been looking at my archives?",
      "parentPostTime": "2009-04-11T15:07:20",
      "parentPostId": "8078723"
    },
    {
      "threadId": "15530949",
      "post": "Lissa you look totally hot here.",
      "time": "2009-04-11T02:39:33",
      "id": "8071568"
    },
    {
      "threadId": "15530922",
      "post": "E-E-E-Ecstasy.",
      "time": "2009-04-11T02:38:52",
      "id": "8071558"
    },
    {
      "threadId": "15352374",
      "post": "dude, youre hot.\n don't sweat it.",
      "time": "2009-04-10T02:29:03",
      "id": "8024473"
    },
    {
      "threadId": "15428277",
      "post": "Hey thanks for that link at the bottom!  I didn't even take that (i.e. \"Just 24 percent of voters identified as Republican when Pew conducted this survey in March, which is roughly as low as that total has ever gotten.\") into account.\r\n\r\nIt wasn't my original intention to imply that Rove is unbiased…\r\n\r\nWhat I was trying to say is that the statistic he said (as crazy as it sounded) wasn't made up; it was from another source.\r\n\r\nBut, I gotcha.  Beef is with Rove mostly.\r\n\r\n=)",
      "time": "2009-04-09T18:03:20",
      "id": "8012111",
      "parentPost": "Rove's statements are not fair in any context.  Bush inherited a nation at peace and prosperous.  He spent 8 years trashing our country and polarizing the nation on everything from a so-called War on Terror and stem cell research for his own ends.  Now Obama, not even at 100 day mark yet, is being lambasted for being partisan?  Fuck that logic. His mistake is trying to appeal both side by even mentioning a post-partisan world.  He won, he should now get to that thing called governance.\r\n\r\nIn the end there are more Democrats than Republicans now.  The remaining Republicans are naturally going to be more extreme, just like 20% of the Democrats.  No matter what the facts says the fringe elements will never mutter a word of approval for their opponents.  (Read: \"Yeah I want him to fail!\")\r\n\r\nFinally, Rove was a Bush operative at the highest levels.   He was not a political appointee but as close to \"43\" as anyone could be, professionally and personally.  His opinions cannot possibly be construed as objective in any context.  Putting him on is as disingenuous as calling Dick Morris \"a former Clinton adviser\" every time he is on Faux News.  Dick was not an adviser but a place for \"42\" to hear what the most extreme elements of the GOP were saying.\r\n\r\nIn the end, I think Rove is more responsible for the partisan attitude in this country then anyone - a classic case of projection.\r\n\r\nFor a more articulate look at what these numbers actually mean, check out Nate Silver's piece:\r\nhttp://www.fivethirtyeight.com/2009/04/whigs-federalists-strongly-differ-on.html\r\n",
      "parentPostTime": "2009-04-09T17:31:36",
      "parentPostId": "8011091"
    },
    {
      "threadId": "15396680",
      "post": "I wrote \"pray 4ouy\"\n\ndumbass!",
      "time": "2009-04-09T04:00:08",
      "id": "7996631"
    },
    {
      "threadId": "15192707",
      "post": "You're nuts.  I didn't see it until you pointed it out.",
      "time": "2009-04-06T14:45:48",
      "id": "7904076"
    },
    {
      "threadId": "14862806",
      "post": "I just figured out who you were talking about and I can't stop laughing!\r\n\r\nIt's unbelievable that she actually talks and says things like that.",
      "time": "2009-04-01T17:02:28",
      "id": "7719218"
    },
    {
      "threadId": "14414620",
      "post": "I once had Channing Tatum's twin Libertarian brother kiss my hand inside a gay dance club in DC, and I had the same response.  FUCK I SHOULD HAVE SWOONED!!\n\nUGH.  He was boning my friend's friend.\n\nCruel ass shit.",
      "time": "2009-03-26T02:28:57",
      "id": "7513509"
    },
    {
      "threadId": "14377081",
      "post": "oh yes!",
      "time": "2009-03-25T16:10:38",
      "id": "7495766"
    },
    {
      "threadId": "14341619",
      "post": "Good God James!\r\n\r\nYou're freaking beautiful!",
      "time": "2009-03-25T02:45:49",
      "id": "7484698"
    },
    {
      "threadId": "14340144",
      "post": "Okay I'll schedule off.",
      "time": "2009-03-25T01:57:41",
      "id": "7483755"
    },
    {
      "threadId": "14311813",
      "post": "Lissa after they raped that poor woman they stuck a knife in her vagina and sliced her up through the abdomen.  She's still alive!!!",
      "time": "2009-03-24T17:15:19",
      "id": "7471310"
    },
    {
      "threadId": "14311730",
      "post": "I like Blistex medicated wtih SPF 15.  Eric Dane had skin cancer on his lip!!!\r\n\r\nUSE IT.",
      "time": "2009-03-24T17:13:15",
      "id": "7471246"
    },
    {
      "threadId": "14264056",
      "post": "This shit is werid",
      "time": "2009-03-23T21:56:10",
      "id": "7453713"
    },
    {
      "threadId": "14203509",
      "post": "Lisssa…i like Springsteen (lots) and I like U2 war/josh tree.\ni would never say fave badn though\n\n\nsorrry!!!\n\nstill be my friend",
      "time": "2009-03-23T00:02:38",
      "id": "7422993"
    },
    {
      "threadId": "14196176",
      "post": "oh thank god i thought that was your bridesmaid dress!!!~!",
      "time": "2009-03-23T00:01:21",
      "id": "7422975"
    },
    {
      "threadId": "13989878",
      "post": "Geez James you sure are packing!\r\n\r\nHow are you still single????\r\n\r\n:P",
      "time": "2009-03-20T03:40:05",
      "id": "7365541"
    },
    {
      "threadId": "13913582",
      "post": "hey. nice camera.",
      "time": "2009-03-18T17:36:04",
      "id": "7319779"
    },
    {
      "threadId": "13893074",
      "post": "I thought that Big Edie was Lauren Hutton, but it's Jessica Lange!\r\n\r\nWhoa, she's perfect too.",
      "time": "2009-03-18T04:28:54",
      "id": "7307900"
    },
    {
      "threadId": "13887308",
      "post": "OH you know me so well!!!\r\n\r\nI freaking sighed out loud when I saw this on DListed.\r\n\r\nYes…I SOL.\r\n\r\nMy mom was like \"what's wrong?!\"\r\n",
      "time": "2009-03-18T04:18:37",
      "id": "7307711",
      "parentPost": "I was getting ready to email this to you!  I knew you'd love it.",
      "parentPostTime": "2009-03-18T02:15:40",
      "parentPostId": "7305826"
    },
    {
      "threadId": "13790992",
      "post": "I wanna see Dottie cry. That sounds HILLLLARRRIOUS.",
      "time": "2009-03-16T18:28:03",
      "id": "7261425"
    },
    {
      "threadId": "13698292",
      "post": "Will Megan be wearing colored contacts for her wedding?",
      "time": "2009-03-14T21:36:38",
      "id": "7223661"
    },
    {
      "threadId": "13364856",
      "post": "Excerise makes you less fat and horny.\r\nAt least that's what Men's Health always tells me.\r\nI feel hungry and sleepy.",
      "time": "2009-03-10T02:59:52",
      "id": "7051345"
    },
    {
      "threadId": "13330592",
      "post": "My mind tricked me and I had to read this twice because I thought you said you had an ex that reminded you of Katy Perry.  Uh, selective reading?",
      "time": "2009-03-09T18:18:54",
      "id": "7037247"
    },
    {
      "threadId": "13276624",
      "post": "I thought it was Janice.\r\n\r\nI would have totally bought some JD maternity wear.",
      "time": "2009-03-08T21:24:52",
      "id": "6999415"
    },
    {
      "threadId": "13218880",
      "post": "This one is pretty cute.  Unlike Cocoa.",
      "time": "2009-03-08T01:16:42",
      "id": "6985072"
    },
    {
      "threadId": "13232608",
      "post": "DILF",
      "time": "2009-03-08T00:19:49",
      "id": "6984379"
    },
    {
      "threadId": "13222406",
      "post": "Why? Are they stinky?",
      "time": "2009-03-07T20:20:57",
      "id": "6981526",
      "parentPost": "I hate espadrilles. So much.",
      "parentPostTime": "2009-03-07T20:18:59",
      "parentPostId": "6981502"
    },
    {
      "threadId": "13128062",
      "post": "I wish I could <3 this entry twice, because it's hilarious!",
      "time": "2009-03-06T04:07:10",
      "id": "6936346"
    },
    {
      "threadId": "13112569",
      "post": "bitch, you're too cool!!!",
      "time": "2009-03-05T22:53:42",
      "id": "6925575"
    },
    {
      "threadId": "13098976",
      "post": "yep!",
      "time": "2009-03-05T18:39:29",
      "id": "6916082",
      "parentPost": "Yay! I'm not available til, like, 6:30 Friday. We'll chat tonight? :)",
      "parentPostTime": "2009-03-05T18:36:21",
      "parentPostId": "6915986"
    },
    {
      "threadId": "12922345",
      "post": "Nick Jonas front and center, I see.\r\nHm.\r\nCoincidence? \r\nI think not.",
      "time": "2009-03-03T04:09:16",
      "id": "6813626"
    },
    {
      "threadId": "12917823",
      "post": "this was too cute not to comment on/reblog!",
      "time": "2009-03-03T00:08:47",
      "id": "6808875"
    },
    {
      "threadId": "12796535",
      "post": "NAH UH!",
      "time": "2009-03-02T22:37:07",
      "id": "6796920",
      "parentPost": "i know that you only pretend you love megan's trashy attitude and matching taste to make me mad!!",
      "parentPostTime": "2009-03-01T21:31:23",
      "parentPostId": "6749264"
    },
    {
      "threadId": "12904247",
      "post": "oh my gosh. I love 'em!\r\n\r\nI want some Wellies too.",
      "time": "2009-03-02T19:53:33",
      "id": "6792767"
    },
    {
      "threadId": "12796430",
      "post": "I sincerely mean it when I say that I'm proud to be her friend.",
      "time": "2009-02-28T23:33:03",
      "id": "6732423"
    },
    {
      "threadId": "12680518",
      "post": "HILAR",
      "time": "2009-02-27T01:55:24",
      "id": "6675443"
    },
    {
      "threadId": "12680498",
      "post": "mama, you read my mind.",
      "time": "2009-02-27T01:54:58",
      "id": "6675431"
    },
    {
      "threadId": "12522604",
      "post": "Why is Cera such a bitch?",
      "time": "2009-02-25T05:08:40",
      "id": "6590079"
    },
    {
      "threadId": "12506362",
      "post": "Your bridesmaid dress is J. Crew???\r\n\r\nWell, it's not your wedding.",
      "time": "2009-02-24T23:35:19",
      "id": "6582583"
    },
    {
      "threadId": "12256709",
      "post": "Mexi sexy.\r\n\r\nMegan would be soooo PROUD!",
      "time": "2009-02-21T15:06:18",
      "id": "6465870"
    },
    {
      "threadId": "12244533",
      "post": "I like tiparos fish sauce.",
      "time": "2009-02-20T23:36:24",
      "id": "6444805"
    },
    {
      "threadId": "12188206",
      "post": "tee hee she's a cute one.",
      "time": "2009-02-20T02:23:13",
      "id": "6421378"
    },
    {
      "threadId": "12150688",
      "post": "I'm sorry to hear this!",
      "time": "2009-02-19T15:14:30",
      "id": "6402828"
    },
    {
      "threadId": "12019106",
      "post": "Who the fuck would make fun of you???\r\n\r\nAngry.",
      "time": "2009-02-17T17:27:07",
      "id": "6333439"
    },
    {
      "threadId": "11894576",
      "post": "OH NO!!!\r\n\r\nI'm logging on the AIM right now!",
      "time": "2009-02-16T01:44:54",
      "id": "6287978"
    },
    {
      "threadId": "11879806",
      "post": "Oh my God #3.\n\nI think I'm due too, but I not too thrilled about having to get one.",
      "time": "2009-02-16T01:41:53",
      "id": "6287929"
    },
    {
      "threadId": "11640147",
      "post": "I see the gay DMV as a major improvement over our current DMVs in Sterling and Leesburg.\r\n\r\nCHANGE HAS COME TO AMERICA!@!",
      "time": "2009-02-12T03:12:51",
      "id": "6198165"
    },
    {
      "threadId": "11619548",
      "post": "Damn you Skylor!\r\n\r\nI can't believe I laughed.\r\n\r\nPoor guy doesn't know any better.\r\n\r\nDoes that make him a crummy faggot or a shitty one?",
      "time": "2009-02-11T21:38:49",
      "id": "6187300"
    },
    {
      "threadId": "10683876",
      "post": "Lissa I freakin love this outfit!",
      "time": "2009-01-29T01:54:03",
      "id": "5634228"
    },
    {
      "threadId": "10405415",
      "post": "STFU!\r\n\r\nHe did not…",
      "time": "2009-01-23T12:07:46",
      "id": "5492025"
    },
    {
      "threadId": "10187108",
      "post": "Lissa I think it looks sexy!",
      "time": "2009-01-19T17:52:33",
      "id": "5367740"
    },
    {
      "threadId": "9816420",
      "post": "Derman and Callie aren't going to be in the wedding!?\r\n\r\nCount me out.",
      "time": "2009-01-13T04:36:40",
      "id": "5086903"
    },
    {
      "threadId": "9765134",
      "post": "Mer is right! THIS IS HILARIOUS.\r\n\r\nWho's the sex pot with the club leg? Me-ow.",
      "time": "2009-01-12T05:14:01",
      "id": "5068347"
    },
    {
      "threadId": "9768450",
      "post": "Tool Academy = Bromance, right?\r\n",
      "time": "2009-01-12T05:09:49",
      "id": "5068320"
    },
    {
      "threadId": "9678365",
      "post": "You're welcome.\r\n\r\n=)\r\n\r\nI'm glad you liked it.",
      "time": "2009-01-10T05:48:59",
      "id": "5033596"
    },
    {
      "threadId": "9201326",
      "post": "omg break my heart\r\n\r\nlove your hair.",
      "time": "2009-01-01T00:41:13",
      "id": "4806345"
    },
    {
      "threadId": "8915415",
      "post": "lol true.",
      "time": "2008-12-27T03:56:56",
      "id": "4661087"
    },
    {
      "threadId": "8551327",
      "post": "Pooh Hamm",
      "time": "2008-12-18T16:26:07",
      "id": "4482804",
      "parentPost": "Oh my goodness. I LOVE when Pooh dresses up as things!",
      "parentPostTime": "2008-12-18T13:47:22",
      "parentPostId": "4479635"
    },
    {
      "threadId": "8196092",
      "post": "me2",
      "time": "2008-12-10T17:04:34",
      "id": "4311121"
    },
    {
      "threadId": "8195834",
      "post": "Lissa you're an Aries.\r\n\r\n\"Under the tropical zodiac, the Sun is in Aries roughly from March 21 to April 19, by definition beginning at vernal equinox. Under the sidereal zodiac, it is currently there roughly from April 15 to May 15.  [The sidereal zodiac's] primary feature is that the signs of the zodiac align to the sky constellations of the same name.\"\r\n\r\nI think it's more fitting, and it explains why we get along so well.",
      "time": "2008-12-10T17:02:35",
      "id": "4311091"
    },
    {
      "threadId": "8115964",
      "post": "Toldya that the library sucks.",
      "time": "2008-12-09T03:36:30",
      "id": "4280431"
    },
    {
      "threadId": "7866950",
      "post": "From left to right:\n\nGarnier styling gel, CVS apricot scrub, CVS warming apricot scrub, man, contact lens solution, Garnier hair wax, Neutrogena men's shaving cream, toothpaste, glasses and case, Old Spice deodorant, bottled water, Gold Bond powder.\n\nWhat did I win?",
      "time": "2008-12-03T16:44:17",
      "id": "4148400"
    },
    {
      "threadId": "7770561",
      "post": "I've never seen your house so beautiful.\r\n\r\nKeep Sean away from this area.",
      "time": "2008-12-01T18:30:54",
      "id": "4085861"
    },
    {
      "threadId": "7770455",
      "post": "Ooops, my bad.\r\n\r\nI ended falling asleep and canceling my account in less than an hour.\r\n\r\nEliezer made it seem like I could meet more guys there, but I don't have a problem meeting guys so blah.",
      "time": "2008-12-01T18:29:34",
      "id": "4085835"
    },
    {
      "threadId": "7736725",
      "post": "Baby, where did you go?!\r\n",
      "time": "2008-11-30T18:52:08",
      "id": "4073559"
    },
    {
      "threadId": "7729746",
      "post": "Megan looks sexy.\r\n\r\nSorry.\r\n\r\nHad to say it.",
      "time": "2008-11-30T18:51:32",
      "id": "4073550"
    },
    {
      "threadId": "7651978",
      "post": "How Laura Bush of Megan . . .\r\n\r\nHint:\r\n\r\nGoogle \"laura bush and stop sign\"",
      "time": "2008-11-28T02:29:54",
      "id": "4044843"
    },
    {
      "threadId": "7617492",
      "post": "The exact same place Bombay used to be.",
      "time": "2008-11-27T00:18:51",
      "id": "4032183"
    },
    {
      "threadId": "7603869",
      "post": "I use 'Tea House' now with this Asian fox.\r\n\r\nI used to use 'Aja Tiger'\r\n\r\nThe tiger loves Watermelons\r\n\r\nSo very cute.",
      "time": "2008-11-26T17:53:03",
      "id": "4026650"
    },
    {
      "threadId": "7494587",
      "post": "\"Often wrong, but never in doubt.\" - Donny D",
      "time": "2008-11-24T15:57:59",
      "id": "3985363"
    },
    {
      "threadId": "7428694",
      "post": "Yes?",
      "time": "2008-11-23T03:24:46",
      "id": "3963895"
    },
    {
      "threadId": "7428676",
      "post": "Buy the tickets now.",
      "time": "2008-11-23T03:24:05",
      "id": "3963878"
    },
    {
      "threadId": "7242444",
      "post": "Hello Halloween.",
      "time": "2008-11-19T02:34:40",
      "id": "3888880"
    },
    {
      "threadId": "7128758",
      "post": "Lissa, I've had my Apple PowerBook G4 since 2004 and I've never had any problems . . . it's time to go APPLE baby!",
      "time": "2008-11-16T17:42:22",
      "id": "3806650"
    },
    {
      "threadId": "7035068",
      "post": "Your threats won't work since there's always someone to take your place.\r\n\r\ni.e. ME.\r\n\r\n\"Here comes Nic, all dressed in pink!\"",
      "time": "2008-11-14T12:39:56",
      "id": "3769194"
    },
    {
      "threadId": "7035038",
      "post": "I thought you made up a new word: \"lamer\"\r\n\r\nY'know like LaMer\r\n\r\nas in lamermer.\r\n\r\nOMG, MER IS GOING TO DIE.\r\n\r\nLAMER!",
      "time": "2008-11-14T12:38:29",
      "id": "3769189"
    },
    {
      "threadId": "6973152",
      "post": "Thanks for paying for my sour drink that made my tongue feel funny.\r\n\r\nLet's go visit him again, except I'll dress extra-gay and you can dress extra-sexy.\r\n\r\nDeal?",
      "time": "2008-11-13T02:35:09",
      "id": "3726473"
    },
    {
      "threadId": "6867005",
      "post": "Second dude is just inept.\r\n\r\nTell him to go back to school.",
      "time": "2008-11-10T18:05:57",
      "id": "3665805"
    },
    {
      "threadId": "6802590",
      "post": "Good luck with your exam tomorrow!\r\n\r\nI'll know you'll do well.",
      "time": "2008-11-09T02:56:53",
      "id": "3640244"
    },
    {
      "threadId": "6764301",
      "post": "I love it.\r\n\r\nUnfortunately the Olde English logo diminishes some of its elegance. IMO.",
      "time": "2008-11-07T23:57:03",
      "id": "3605629"
    },
    {
      "threadId": "6599456",
      "post": "LOL to the WHAS reference. I totally see it.\r\n\r\nThe artwork is adorable!",
      "time": "2008-11-04T02:43:23",
      "id": "3466518"
    },
    {
      "threadId": "6599438",
      "post": "OMG: opulence . . . you own everything.",
      "time": "2008-11-04T02:42:41",
      "id": "3466510"
    },
    {
      "threadId": "6386284",
      "post": "OMG give us a daily recap of your outfits please.\n\nWWJD?\n\nY'know?\n\nOkay bye!\n\nTalk to you soon.  I have to go to work at my second job.  I lied to my manager, and told them that I had a lobby full of clients, but I really just had to go home to do number 2.\n\nLATER!",
      "time": "2008-10-29T22:25:45",
      "id": "3381097"
    },
    {
      "threadId": "6348293",
      "post": "\"The F stands for Fascist!\" - My anarcho-Libertarian public policy professor.\n",
      "time": "2008-10-29T02:37:46",
      "id": "3356564",
      "parentPost": "FDR?\r\nYou mean the sexiest president ever? \r\nGood for you Lissa!!\r\n",
      "parentPostTime": "2008-10-28T12:58:16",
      "parentPostId": "3340905"
    },
    {
      "threadId": "6375166",
      "post": "Buy.  If your investing for the long run it's the time to buy.  Just keep buying.  Put money in the IRA (traditional, ROTH, SEP, whatever) because you're buying the same shit for a lower price.  Financial analysts are all waiting for us to hit rock bottom to start buying low, but we can't tell that we've hit rock bottom until we've passed it. \n\nFAs have been saying for years since the end of the Clinton era that we are in a secular bear market and we're going to be in it until approximately 2015.  Any rises in the market are just cyclical bull markets in the overall downward trend of the market . . . \n\nI told this to a customer, and he replied that \"sometimes analysts are wrong.\"\n\n. . . Um, touché mister.\n\nThey're called analysts, not fortune tellers.\n\nThose are called actuaries!\n\n=D",
      "time": "2008-10-29T02:35:34",
      "id": "3356535"
    },
    {
      "threadId": "6375117",
      "post": "It's okay.\n\nI can't do my hybrid drag queen look for Halloween, because guys want to meet me.  UGH.  I have to pretend to be sane for at least the first time I meet someone new.\n\nSo I'm just going to be a slutty Batman, which isn't so far from what I am right now, a slutty Bruce Wayne!\n\nTall (relatively), dark, handsome, RICH, etc.\n\n=D",
      "time": "2008-10-29T02:28:23",
      "id": "3356431"
    },
    {
      "threadId": "6375061",
      "post": "As a teller/back-up relationship banker these past two weeks, I opened two new business accounts.  I got our bank's insurance referral for the quarter and a merchant services EZ application for the month.  \r\n\r\nWHAT WHAT!?\r\n\r\n . . . my boss is only going to buy me lunch?\r\n\r\nWTF?\r\n",
      "time": "2008-10-29T02:26:23",
      "id": "3356401"
    },
    {
      "threadId": "6375022",
      "post": "Your cashier failed as a salesperson.  Three times is the minimum.  However, I don't stop.  :)\r\n\r\nWho's the catty girl from HS?  Maggie Catherwood or some other dumb bitch?",
      "time": "2008-10-29T02:24:12",
      "id": "3356362"
    },
    {
      "threadId": "6226573",
      "post": "Oooh burn.",
      "time": "2008-10-25T03:36:26",
      "id": "3288973"
    },
    {
      "threadId": "6181513",
      "post": "NO SHE DID NOT!",
      "time": "2008-10-24T14:19:18",
      "id": "3274633"
    },
    {
      "threadId": "6198951",
      "post": "Like kissing?\r\n\r\nAw, Dottie.",
      "time": "2008-10-24T14:18:47",
      "id": "3274571"
    },
    {
      "threadId": "6112817",
      "post": "Lol.\r\n\r\nRefused are fine.\r\n\r\nI was talking about Travie McHottie.\r\n\r\nIs he the one engaged to Katy Perry?",
      "time": "2008-10-23T01:57:21",
      "id": "3245116",
      "parentPost": "I knooow! Refused gets me every-time. I guess I can thank Ian for that.",
      "parentPostTime": "2008-10-22T22:13:42",
      "parentPostId": "3239085"
    },
    {
      "threadId": "6113235",
      "post": "I noticed this too!!!",
      "time": "2008-10-22T12:28:34",
      "id": "3225302"
    },
    {
      "threadId": "5943124",
      "post": "LOL\r\n\r\nSean would make a wonderful father or grandfather.\r\n\r\nHe reminds me of my dad and my dad's dad.",
      "time": "2008-10-18T03:43:36",
      "id": "3140759"
    },
    {
      "threadId": "5942320",
      "post": "He was so tall and I remember turning around and looking up and then just seeing a floating skull behind me.\r\n\r\nSuper super spooky and creepy.\r\n\r\nLike 6'4''.\r\n\r\nAND, he was the first of the many \"actors\" that started following us.\r\n\r\nI really didn't like that part.\r\n\r\nSeriously.\r\n\r\nI had a blast though!\r\n\r\n=)",
      "time": "2008-10-18T03:19:11",
      "id": "3139896"
    },
    {
      "threadId": "5722222",
      "post": "Davey's cute, he's real cute.",
      "time": "2008-10-13T15:27:39",
      "id": "3023310"
    },
    {
      "threadId": "5129575",
      "post": "I saw Chris' profile on MH before, but I didn't think anything of him then.  His pictures didn't do him any favors.  During an online conversation, he let it slide that he was packing major equipment.  I told him right off the bat that I didn't want to hook up with him since he had too much potential to be a good friend.  He has excellent taste in music (and, no that's not subjective).  He said he had no intention to hook up with me either.  Uh huh.  Anyway, in the course of the evening he managed to turn it around on me: \"Nic, I'm not interested in you\" when I asked him if I was too gay for him (I meant that as a friend).  \r\n\r\nOMG what a bitch.  I love her.",
      "time": "2008-09-29T14:35:02",
      "id": "2731625"
    },
    {
      "threadId": "5131587",
      "post": "Jose is so adorable and cherubic!\r\n\r\nLove her.",
      "time": "2008-09-29T06:30:42",
      "id": "2728893"
    },
    {
      "threadId": "5002245",
      "post": "This isn't the best face shot of Chad White because he looks very Nosferatu with his pointy ears and uni-brow.  Trust that he's a got a great face. The body is bananas though. I think he's stuffing his junk, because I've seen his wiener before, and that's not it.",
      "time": "2008-09-25T15:57:20",
      "id": "2626814"
    },
    {
      "threadId": "4990284",
      "post": "Deeze nuts!",
      "time": "2008-09-25T13:35:13",
      "id": "2624673",
      "parentPost": "HA!\r\n...you said nutbag.\r\n\r\n-L",
      "parentPostTime": "2008-09-25T12:23:36",
      "parentPostId": "2623925"
    },
    {
      "threadId": "4993718",
      "post": "Oh. Right, right, right.\r\n\r\nThere was another time I was like \"buh?\"\r\n\r\nWe were in \"the boutique whose name we can not name\" and you said \"look they make Disney villain key chains.\"\r\n\r\nFirst I was all \"wha?\"\r\n\r\nThen I managed to string words together, and say:\r\n\"But, I'm a good girl???\"\r\n\r\nSo uh, who's Dorian Grey?",
      "time": "2008-09-25T13:26:15",
      "id": "2624570",
      "parentPost": "To be fair, my first question was, \"Wait, like, as underwear?\"",
      "parentPostTime": "2008-09-25T11:05:37",
      "parentPostId": "2623364"
    },
    {
      "threadId": "4962126",
      "post": "lol\r\n\r\nI was just joshin you darlin!!!",
      "time": "2008-09-24T18:07:03",
      "id": "2572851",
      "parentPost": "Every time I try and reply it says you're not online so it can't deliver...\r\n\r\nStory of my life. I just don't deliver.\r\n\r\n",
      "parentPostTime": "2008-09-24T17:58:14",
      "parentPostId": "2572719"
    },
    {
      "threadId": "4837117",
      "post": "Wha?\r\n\r\nI don't get it.",
      "time": "2008-09-21T17:51:53",
      "id": "2509325",
      "parentPost": "http://3.bp.blogspot.com/_wGr8njEWjtI/SMme1QTKSvI/AAAAAAAAAcM/FZ_tl0FzCDc/s1600-h/Chelsea+Y.jpg",
      "parentPostTime": "2008-09-21T17:49:09",
      "parentPostId": "2509306"
    },
    {
      "threadId": "4814805",
      "post": "OMG you really make me feel guilty sometimes!\r\n\r\nFor serious.\r\n\r\nBut, I'm glad we cleared this up.\r\n\r\nNow, I'm never going to stop talking about ME ME ME!\r\n\r\nYr. welcome.\r\n\r\nALSO, I didn't do that intentionally.  I guess deep down I really am a cheap bastard.\r\n\r\n:-D",
      "time": "2008-09-21T01:08:57",
      "id": "2504036",
      "parentPost": "ew. shutthefuckup!\r\n\r\nWhen do I make you feel guilty?\r\n\r\nI do like that you got lissa to buy your drink though..",
      "parentPostTime": "2008-09-20T23:33:40",
      "parentPostId": "2503408"
    }
  ],
  "profileInfo": {
    "username": "pitseleh",
    "about": "",
    "name": "FrankieC",
    "disable3rdPartyTrackers": false,
    "isPowerContributor": false,
    "isAnonymous": false,
    "rep": 1.3394279999999998,
    "profileUrl": "https://disqus.com/by/pitseleh/",
    "url": "http://myhuckleberryfriend.tumblr.com",
    "reputation": 1.3394279999999998,
    "location": "Planet Earth",
    "isPrivate": false,
    "signedUrl": "http://disq.us/?url=http%3A%2F%2Fmyhuckleberryfriend.tumblr.com&key=vH6z6dsXK1Cynd6ZJxVxTQ",
    "isPrimary": true,
    "joinedAt": "2008-09-16T12:53:05",
    "id": "102145",
    "avatar": {
      "small": {
        "permalink": "https://disqus.com/api/users/avatars/pitseleh.jpg",
        "cache": "//a.disquscdn.com/uploads/users/10/2145/avatar32.jpg?1281549414"
      },
      "isCustom": true,
      "permalink": "https://disqus.com/api/users/avatars/pitseleh.jpg",
      "cache": "//a.disquscdn.com/uploads/users/10/2145/avatar92.jpg?1281549414",
      "large": {
        "permalink": "https://disqus.com/api/users/avatars/pitseleh.jpg",
        "cache": "//a.disquscdn.com/uploads/users/10/2145/avatar92.jpg?1281549414"
      }
    }
  }
}