{
  "comments": [
    {
      "threadId": "2741859279",
      "post": "Hi Nikko, You nailed it re: the irony of writing of the importance of something yet failing to do the very thing you write about in the first place. Do you think the NY Times can recover from this? Not recover in the sense of they're doomed for failure - 0f course not but recover to the point of \"getting it\" -- of realizing the world has changed and how information and news and content and the consumption thereof has changed - forever.",
      "time": "2014-07-14T14:00:54",
      "id": "1484289601",
      "parentPost": "\"... reporters assumed because their content was so magnificent, the world would rejoice upon reading it and spread it throughout the land.\" - This is plain complacency and a tough pill to swallow. It's ironic how they took this for granted when they themselves have written articles about it's importance. Maybe they need a fresh perspective on the importance of content and visibility? Read about it more here - http://blog.hubstaff.com/outsourced-writing-teams-and-content-marketing/",
      "parentPostTime": "2014-06-11T08:50:42",
      "parentPostId": "1429956065"
    },
    {
      "threadId": "2679254121",
      "post": "Winfield, thanks for the comment. You are spot on re: the need for a dedicated person and often times more than one \"to do social media right.\" And of course it has to be the right person(s) who knows the brand, is experienced and on and on... but thats another story for another time :)",
      "time": "2014-05-13T18:48:51",
      "id": "1383306564",
      "parentPost": "#5 is the big one I hear all the time. People don't take the labor into account; it really requires a dedicated employee to do it right.",
      "parentPostTime": "2014-05-13T13:15:47",
      "parentPostId": "1382753775"
    },
    {
      "threadId": "1997718060",
      "post": "The link to the EEC is incorrect... thanks.",
      "time": "2013-11-26T14:23:14",
      "id": "1139546609"
    },
    {
      "threadId": "1297073232",
      "post": "Is drinking entirely too much coffee a talent? Please advise...",
      "time": "2013-09-19T18:44:19",
      "id": "1051900683"
    },
    {
      "threadId": "889543793",
      "post": "Hey Tom,\n\nLong time no speak... great post. Look forward to catching up soon! All the best my friend... Steve O",
      "time": "2012-10-18T20:09:01",
      "id": "686472805"
    },
    {
      "threadId": "718210831",
      "post": "Hey great piece... would've been even better if you gave credit to the original source.  ",
      "time": "2012-06-08T15:34:42",
      "id": "551958220"
    },
    {
      "threadId": "709313497",
      "post": "Hey Eric, wow what a great and thought-provoking post. I have to admit when I first saw the title I thought the crux of the article would be about indeed how B2B marketers 'want' bad data, although for the life of me I couldn't understand why. :)\n\nBut after reading your article, I get it. Yes I can be a little slow sometimes :) But no, in all seriousness you raise some very valid points and concerns that ALL B2B marketers should take heed of....\n\nGreat, great article... \nSteve O\n\n",
      "time": "2012-05-31T13:55:00",
      "id": "543741345"
    },
    {
      "threadId": "535184173",
      "post": "Hi Jacques, \n\nThanks for sharing your blog post! I loved it... In your experience what kind of responses have you received from marketers looking to break free of the silos? ",
      "time": "2012-01-11T21:17:00",
      "id": "408114219",
      "parentPost": "In my blog post “Don’t uproot the old systems, just get them to work together intelligently!” (http://bit.ly/mBkWdk) I address how a marketer can easily deal with silo-ed information from disparate applications. The challenge for marketers, which we have solved, is that data either exists in multiple locations and applications throughout the organization hence it is impossible to get a clear view of the customer process, or the data must be centralized first before (i.e. put the customer at the center) it is possible to use the data to better service the customer. The latter approach is costly, difficult to maintain, and does not yield any benefits until later. In addition, it does not address the challenge of disparate processes (i.e. silo-ed processes) that react according to the brand/product’s sales process rather than the customer’s purchasing process.\n\nOur approach is to put the cross-channel marketing process in the center and access data from various sources as required in response to a customer event (e.g. purchase, web visit, email click…). The cross-channel process accesses the required data from the various silos in response to the customer event and then takes the appropriate actions (e.g. Send thank you message, send cross-sell message, alert sales rep…) according to the customer’s state (i.e. context – e.g. 1st time buyer, at risk customer, prospect…) at the time of the event. This approach gives the marketer free reign to develop consistent and relevant cross-channel marketing programs and campaigns in spite of working in a silo-ed environment.\n",
      "parentPostTime": "2012-01-11T19:56:44",
      "parentPostId": "408053955"
    },
    {
      "threadId": "532704744",
      "post": "Hey Julia,\n\nYou are right in that many marketers feel the need to just run right out and set up the latest social media platform... and then forget about it.\n\nAs for your \"spiraling vortex of discounting\" comment... love that phrase by the way... You are right in so much I do think the temptation will be for some businesses to \"over do it\" when it comes to offering discounts for the sake of getting someone to Like/Follow them.\n\nI think it will be very important for businesses to be prudent; they will need to reward their most loyal customers after such time they have been deemed worthy of such a perk. How and when that is will be dependent on each individual business. \n\nBut... I dont see anything wrong with offering a discount or perk, etc right up front, initially to a prospective fan. \n\nTo me the bottom line is to give consumers something of value which may or may not be in the form of a discount. Can easily be something that carries with it an \"exclusive\" feature as in an exclusive look at our new product line or something to that effect. ",
      "time": "2012-01-11T17:49:43",
      "id": "407963328",
      "parentPost": "Great post Steve! Trying to keep up with comments is the part most marketers neglect to really think about in their rush to get a Facebook page (or whatever the shiny social media object is today). My other takeaway is that so many \"fans\" are expecting discounts. Are we just opening a new spiraling vortex of discounting?",
      "parentPostTime": "2012-01-10T01:14:14",
      "parentPostId": "406717632"
    },
    {
      "threadId": "526602835",
      "post": "Hey Jim,\n\nYeah that would be a great thing if biz focused on the long term game not just short term.\n\nThe question is how we do get them to see the light?",
      "time": "2012-01-11T17:42:45",
      "id": "407958183",
      "parentPost": "I hope in 2012 and beyond ROI morphs or disappears all together and we witness getting creative by developing customized KPIs that match their overall business objectives.  What I really am trying to communicate Steve is it is time for American business to focus in on the long game.",
      "parentPostTime": "2012-01-05T14:47:45",
      "parentPostId": "401207171"
    },
    {
      "threadId": "514121889",
      "post": "Hey Jim,\n\nYou bring up a good point... do you think email will always remain the preferred method to communicate?",
      "time": "2012-01-03T19:30:28",
      "id": "399784859",
      "parentPost": "Long live email.  People on the whole don't always feel comfortable putting their thoughts out in public.",
      "parentPostTime": "2011-12-28T06:34:52",
      "parentPostId": "395549159"
    },
    {
      "threadId": "460596681",
      "post": "Well I am sorry you do not see the humor in all of this... Happy New Year! ",
      "time": "2012-01-03T19:29:16",
      "id": "399783635",
      "parentPost": "...wow. You are really disrespectful. I don't find your photos humorous. These advancements in technology are made available to us and are gifts.",
      "parentPostTime": "2012-01-02T09:08:10",
      "parentPostId": "398637410"
    },
    {
      "threadId": "511869959",
      "post": "Thanks Jim. I cant take credit for that line you reference but I knew as soon as I saw it I had to share to it...\n\nYou make some great points re: distractions. I always use the line \"life gets in the way\" but that's just an excuse plain and simple. \n\nConsumers dont care about the issues you mention, they care about being heard, about being engaged; they want to know someone on the other end is listening to them. ",
      "time": "2011-12-23T14:28:46",
      "id": "393017788",
      "parentPost": "Steve: You keep nailing it.  I like the line \"Customer engagement is the journey, customer loyalty is the destination.\"  Engagement is an art.  Unfortunately not all business people are social thus understand the art of engagement, plus get distracted by the day to day brush fires.  Case in point: Some marketing people get caught up in labeling issues, product recalls, supply chain shortfalls, creative reviews, etc.  All eventually impact the customer, but day to day they do not take timeout to have a healthy dose of customer engagement.  Too busy!",
      "parentPostTime": "2011-12-22T11:49:43",
      "parentPostId": "392168149"
    },
    {
      "threadId": "445900926",
      "post": "Thanks for sharing the links... am curious to know  why it is you think most social sites are not ideal for B2B marketing? ",
      "time": "2011-12-23T14:23:40",
      "id": "393015363",
      "parentPost": "I think social media can be very valuable for B2B companies, but most social networking websites are not ideal for B2B marketing.  Here is an interesting article on that:  http://www.findandconvert.com/2011/09/why-some-b2b-marketers-should-not-use-facebook/ ",
      "parentPostTime": "2011-12-22T06:39:42",
      "parentPostId": "392045636"
    },
    {
      "threadId": "506631554",
      "post": "Well unfortunately being cynical is becoming more and more popular these days and rightly so to some extent. \n\nThink about it.. How do we know the person we see on a Twitter profile for example is indeed that person? \n\nSame for any social media platform... how we do know when we're engaging and interacting with someone we know they are who say they are? \n\n",
      "time": "2011-12-21T14:53:51",
      "id": "391397474",
      "parentPost": "We do not, but I will be politically correct here.  I know for a fact that a majorfood  CPG company experimented with the concept of paying two students at a major university to be brand ambassadors to use FB and Twitter to hype targeted products.  I apologize for sounding cynical but if roach bait marketing was successful offline until information leaked or someone got stupid, I think it can definitely happen online.  I am still wondering if the Wheat Thins movement is authentic.",
      "parentPostTime": "2011-12-20T16:02:25",
      "parentPostId": "390713288"
    },
    {
      "threadId": "503287154",
      "post": "Hi Chamois,\n\nInteresting choice of words you used... \"new generation emerging\"... were you referring to a younger generation of a more technological savvy generation or both? ",
      "time": "2011-12-16T15:41:58",
      "id": "388023074",
      "parentPost": "Steve, your article brings up good points about Twitter and social media in general. I believe B2B companies are still struggling with potential ROI they can receive from using social media. \n\nFacebook is starting to open more eyes, but companies probably still struggle with how to proceed in the Twitter and LinkedIn space. \n\nWith time and the new generation emerging, they're bound to embrace B2B social media for cultivating leads. ",
      "parentPostTime": "2011-12-14T22:10:45",
      "parentPostId": "386772732"
    },
    {
      "threadId": "504235417",
      "post": "Hey Tom, I love this campaign too... you are so right in that it was a brilliant move by Chevy to take full advantage of a very hot idea and acted very quickly on it. \n\nThat is the world in which we live in and advertisers and marketers need to realize that the time to act is now, not after taking X of meetings and so on like in the \"old days\" \n\nThose days are gone... \n\nPLUS anytime I can hear Ray Charles singing America the Beautiful is a good thing... a VERY good thing. If you are not moved by that song as an American chances you are not an American in the first place. Not to get all political here, Tom but there's just something about that song sung by that man that gets me every time I hear it...\n\nGreat post!Steve O",
      "time": "2011-12-14T14:32:35",
      "id": "386423486"
    },
    {
      "threadId": "486478057",
      "post": "Hi Stephanie, thanks for the comment. Am curious to know your take on the ZMOT in either the B2B or B2C world or both? How do you see marketers changing to try and win the Zero Moment of Truth?",
      "time": "2011-12-09T16:42:02",
      "id": "382914127",
      "parentPost": "Great video and so nice to see Laurie Tucker sharing her perspective. Her son is one of Memphis's top rising musicians. ",
      "parentPostTime": "2011-12-08T04:27:06",
      "parentPostId": "381777388"
    },
    {
      "threadId": "479462208",
      "post": "Thanks Rod! I watched the Simon Sinek video and thought it was fantastic! Thank you so much for sharing that... And you are right in that I too am very much learning each and every day as to how we all interact and engage with one another in the online AND offline arenas.\n\nI happen to think NO ONE is a master for we are all learning as we go for this is all so new to all of us. \n\nI dont ever want to stop learning and something tells me you don, either... :)\n\nAll the best my friend,\nSteve O",
      "time": "2011-12-05T21:31:57",
      "id": "379823781",
      "parentPost": "Steve,\n\nGetting marketers (or anyone for that matter) who have been successful in established ways to come join a new perspective and practice is never easy. Someone once told me that the importance of early adopters is critical to a movement's success. Simon Sinek, a thought leader that I admire very much, talks about the tipping point in movements and the need to engage 15-18% of the total audience before the momentum is strong enough to be sustainable with the rest. He stresses the importance of attracting people who believe what you believe. (NOTE: The entire video is great, but this specific point is discussed at the 11:00 minute mark).\n\nhttp://www.youtube.com/watch?v=u4ZoJKF_VuA&list=FLIZ4cnOPd9fGdjQl0JtAI7Q&index=6&feature=plpp_video\n\nOne of the thought leaders among the word of mouth marketing association is Ed Keller of Keller-Fay. Their research and the presentation linked below points to the importance of integration between traditional offline media with online conversations.  One is the trigger for the other.\n\nhttp://www.slideshare.net/kellerfay/conversation-triggers\n\nI wish I could tell you that I had it mastered but, like you, I'm a student of this space and I'm learning daily about the way our society is being influenced and what best generates conversations and advocacy.\n\nLet's keep the conversation alive.\n\nBest,\n\nRod",
      "parentPostTime": "2011-12-03T21:13:00",
      "parentPostId": "378503907"
    },
    {
      "threadId": "468879050",
      "post": "Thanks... it's one of my all time favorite movies and I did, obviously, think it made for the perfect analogy :)\n\nBTW, who do you think will win the battle? ",
      "time": "2011-12-02T19:24:12",
      "id": "377840832",
      "parentPost": "Love the Goodfella's reference.  And it fits right in with the Facebook v Google+ battle.\n",
      "parentPostTime": "2011-11-28T18:16:15",
      "parentPostId": "374327555"
    },
    {
      "threadId": "486505912",
      "post": "Hi Terri,\n\nYou make some very valid points for sure. But taking the subject of brands and packaging in a different direction if I may, I have a question for you and your readers...\n\nDoes a brand/CMO have an ethical obligation when it comes to the kind of packaging they select for their given product? \n\nThe reason I ask is based off this (link below)... a recent post of mine which is pretty self-explanatory... \nhttp://www.stargroup1.com/blog/most-misleading-packaging-design-i-have-ever-seen\n\n\n ",
      "time": "2011-11-28T21:10:33",
      "id": "374444611"
    },
    {
      "threadId": "475321768",
      "post": "You make some very valid points... and I love your thinking re: businesses need to foster those cultures that reward the use of social media... great idea!",
      "time": "2011-11-23T15:57:46",
      "id": "370849187",
      "parentPost": "I think fear is definitely part of it, particularly in healthcare and pharma where there are regulatory concerns (and little in the way of specific guidance for overcoming those concerns). But I think some of this also goes beyond Social Media itself and deeper into the culture of organizations and even the current economic troubles. Some workplace cultures , either explicitly or implicitly, favor conservative decision-making and discourage bold risk-taking that might challenge the higher-ups’ way of thinking. And with the unemployment rate being so high and jobs so hard to come by, I think a lot of people are afraid to take risks that, whatever the potential upside, could cost them their jobs if they backfire. So people, even in marketing, may be more averse to risk-taking these days. \n\n\nI think businesses need to start by fostering a culture that rewards the daring and the bold, that encourages using new tools like Social Media not only for external marketing, but also for internal communication. Do that, and businesses will feel more encouraged to learn the capabilities of these tools and how to use them properly.",
      "parentPostTime": "2011-11-22T16:13:58",
      "parentPostId": "370142824"
    },
    {
      "threadId": "471649578",
      "post": "Hi KP,\n\nThey did what? Moved social to IT? Please tell me you're kidding... ",
      "time": "2011-11-22T15:54:46",
      "id": "370125423",
      "parentPost": "I could not agree more. Just interviewed with a large corporation who moved their social media to IT shared services because marketing had no desire to use it. What? ",
      "parentPostTime": "2011-11-19T00:49:30",
      "parentPostId": "367982681"
    },
    {
      "threadId": "452190959",
      "post": "Hi Mark,\n\nWow, I would LOVE to see that ad you reference. This is exactly what I mean re: moral and ethical obligation. If you can scan, please email me a copy at solenski@stargroup1.com. Thanks Mark! ",
      "time": "2011-11-22T15:53:56",
      "id": "370124903",
      "parentPost": "I have an old award book from the 1970s, In it there's a public service ad from a life insurance company that showed two glasses side by side filled with a golden liquid. \"Cleaning fluid looks just like ginger ale when you're 2-1/2.\" That said, I don't think it matters what it says on the package; it frankly looks delicious and if you can't read, like most 2-1/2 year olds, it looks tempting. I don't know who created this package or what they were thinking, but I could probably write a great comedy sketch off of it. But it would be a very dark comedy.",
      "parentPostTime": "2011-11-18T12:13:11",
      "parentPostId": "367427702"
    },
    {
      "threadId": "472900345",
      "post": "Oh I am all for creative advertising... I just think there should be some things, areas, etc that are off limits... Do you agree? Or do you think everything is fair game these days? ",
      "time": "2011-11-17T21:40:01",
      "id": "366964108",
      "parentPost": "Biggest issue with advertising is \"good, effective\" advertising. There is garbage everywhere but it's all a process and recognizing what works and what doesn't keeps us opening towards even more creativity.",
      "parentPostTime": "2011-11-17T18:17:12",
      "parentPostId": "366819527"
    },
    {
      "threadId": "446854815",
      "post": "Thanks Colin, I figured that's what you meant but wanted to be sure... good luck! ",
      "time": "2011-11-17T21:36:49",
      "id": "366962064",
      "parentPost": "Definitely along the \"standing out from the crowd\" perspective. Getting attention with pure juxtaposition and humor. I would guess, in some instances, that will work. I'd like to take my campaigns in the more integrated and sleek route whilst focusing more on getting the most relevant ads and emails to the right audience. In other words: not just throwing things around and waiting for something to stick. thanks again for the article ",
      "parentPostTime": "2011-11-15T19:16:21",
      "parentPostId": "363898504"
    },
    {
      "threadId": "457871335",
      "post": "You bring up a good point re: regulations and the perception perhaps that consumers have when it comes to TV and the Internet and legitimacy... ",
      "time": "2011-11-03T18:41:38",
      "id": "354913863",
      "parentPost": "\"Internet\" is such a broad term I wonder what the respondents thought of when they got the question.  Banner ads are different from chat rooms are different from opinion/review sites are different from blogs are different from product websites. You may not trust a banner ad or a website that seems amateurish but would trust an opinion from a reputable blogger. And TV advertising isn't the same as getting Oprah to endorse a product.  But one thing I do think is true is that TV advertising lends a product a certain legitimacy especially with an older consumer and maybe in countries with limited internet access.  It subconsciously communicates that there is a company of some substance backing the product and because there is a certain amount of regulation there might be a \"they couldn't say it if it wasn't true\" mentality.  ",
      "parentPostTime": "2011-11-03T16:58:18",
      "parentPostId": "354833163"
    },
    {
      "threadId": "445900422",
      "post": "Hi and thanks for your comment...\n\nYou actually bring up a very interesting and intriguing set of questions for I believe there will be a need in the very near future for someone to \"steer the integrated marketing\" ship if you will within organizations. \n\nSomeone whose job it is to ensure the same message is being delivered across all mediums. This person will need to be adept and experienced at working in both the offline and online/digital world. \n\nHowever until such jobs/positions are created, I would suggest account management for someone with your skillsets\n\nYou ask if the message should be the same whether it's via an offline medium or online and the answer is a resounding yes but this is not always the case, unfortunately... \n\nHope this helps and feel free to drop me a line if you have any more questions at solenski@stargroup1.com \n\nThanks!\n\n",
      "time": "2011-11-03T16:02:17",
      "id": "354796809",
      "parentPost": "Hello,\nI am a Integrated Marketing Communications Master's student coming from an Intercultural Communications Undergrad background. I am a little stumped on my degree (believe it or not). I fell in love with marketing during my last year of Undergrad and leapt into the IMC once I saw that it involved marketing and comm. However, I have no idea what kind of jobs to apply for with this degree. So, I have two questions (maybe more as I get on a roll, lol). \nWhat kind of jobs can I apply for with this degree under my academic belt?\nIf a company is marketing a product online or offline, won't it still carry the same message? How can it differ? Integrating all the modes of marketing I understand, but I don't get how someone in IMC does that. Does each department (advertising, marketing, etc.) report to this person what they are doing? Then what...? What does this IMC person(s) actually \"do\"?",
      "parentPostTime": "2011-11-03T08:39:40",
      "parentPostId": "354516355"
    },
    {
      "threadId": "459824810",
      "post": "Thanks Shari, yeah I agree, obviously, that retailers and marketers need to make sure they are ready, willing and able from a mobile and online experience this holiday shopping season! ",
      "time": "2011-11-03T15:54:59",
      "id": "354792296",
      "parentPost": "70% of women would give up sex instead of the mobile phone?  That's funny !  Don't know what conclusion I would draw from that... well I do.. but not something I would put in writing for the world to see... \nI am not one of the 70%.. I have a phone because I am expected to .. \nOtherwise I would be just dandy! The retailers best here your advice however, as mobile is the best way to price shop.. and that's what everyone is doing this year. Period! Great article !",
      "parentPostTime": "2011-11-02T21:20:45",
      "parentPostId": "354183221"
    },
    {
      "threadId": "446165772",
      "post": "Hi Kemp,\n\nThanks for sharing that info you received from the Facebook rep, very interesting! ",
      "time": "2011-11-02T17:09:46",
      "id": "354000324",
      "parentPost": "Hi Steve,\n\nInteresting to see this unscientific analysis rehashed as previously posted by EdgeRankChecker. In your two post comparison you are posting from Tweetdeck but you are also posting what is essentially a tweet on Facebook. \n\nHootSuite allows users to post to Facebook with no limit on characters and create engaging content whether posting an image or a link to Facebook in the way that Facebook users are used to seeing and interacting with content. The reason your posts saw such weak numbers was that you had not customized your post for the network on which it was posted.\n\nI was lucky enough last night to enjoy an event where a Facebook representative was kind enough to inform us of two key points that I thought I'd pass along: \n\n1. There is no such thing as edgerank on Facebook\n2. Facebook does not penalize posts from 3rd party tools",
      "parentPostTime": "2011-11-02T15:59:53",
      "parentPostId": "353899003"
    },
    {
      "threadId": "452915009",
      "post": "Hi Nancy, Thanks for the info re: Navigate Boomer Media... AARP the Magazine has over 35.5 million readers alone. You mention 112 million boomers. How does your company stack up against ALL that AARP can offer in terms of sheer numbers of readers/views/etc?",
      "time": "2011-10-31T17:41:08",
      "id": "352127264",
      "parentPost": "Hi Steve, Thank you for posting. There are a two major problems advertisers will encounter with AARP Ad Network and why Navigate Boomer Media has been growing for 2 years delivering 112 million monthly boomers (boomers go to multiple sites) over 140 sites. 1) Complete transparency - we give our advertisers a dashboard for real time metrics. 2) Sponsorship packages with content, social media, eNewsletter ads, email, mobile and ads all in one neat online boomer package. We work with Razorfish, Starcom MediaVest and Digitas now and will continue to for these reasons. Nancy Shonka Padberg, CEO Navigate Boomer Media",
      "parentPostTime": "2011-10-25T20:03:59",
      "parentPostId": "344062819"
    },
    {
      "threadId": "445900447",
      "post": "Hi Bruce,\n\nLook forward to seeing the articles you write...thank you! ",
      "time": "2011-10-25T16:20:38",
      "id": "343788599",
      "parentPost": "Thanks, Steve. At $247, it's a little too expensive for us. Nevertheless, it does raise some interesting points. \n\nI wonder if their analysis of effectiveness took into account the targeting of their audience (i.e. lead quality). I also find their numbers a little questionable when you consider that 66% of the people were at least somewhat affected by print advertising - the lowest rated action.\n\nWe're currently writing some interesting articles on a similar topic. I'll shoot you a copy once they're completed to see if you want to include them on your blog. \n\nBruce",
      "parentPostTime": "2011-10-20T15:52:25",
      "parentPostId": "339949288"
    },
    {
      "threadId": "445969028",
      "post": "Totally agree that a company must protect its brand and provide good service and in this case good customer service and social media allows companies to do this in a very real time yet why are so many not? ",
      "time": "2011-10-20T14:33:32",
      "id": "339900555",
      "parentPost": "At the very minimum, companies should use social media for customer service and support. This article explains why and we agree! If your company can't do it then outsource the work. You must protect your brand and you want to give good service, and social media allows you to do both. jpwilliam.wordpress.com",
      "parentPostTime": "2011-10-18T15:07:00",
      "parentPostId": "338216662"
    },
    {
      "threadId": "446145354",
      "post": "Hi Alma, you are spot on when you say \"they\" understand that these tools can be a distraction and create a disconnect from the now, \"they\" want you to use these tools to keep connections, not sever relationships. I think that is the message the company was trying to convey.. ",
      "time": "2011-10-20T14:31:39",
      "id": "339899403",
      "parentPost": "I think it is a great way for a company to show that they are supporting what many of us experience. They still show the product, still show the demographic, but address the issue that many experience when they see yet another commercial for a phone.\n\nThey are being transparent. We understand that these tools can be a distraction and create a disconnect from the now, we want you to use these tools to keep connections, not sever relationships.",
      "parentPostTime": "2011-10-18T19:31:42",
      "parentPostId": "338419087"
    },
    {
      "threadId": "447890620",
      "post": "Thanks Steve! Appreciate the kind words... ",
      "time": "2011-10-20T14:28:01",
      "id": "339897126",
      "parentPost": "great info!",
      "parentPostTime": "2011-10-20T14:24:20",
      "parentPostId": "339894806"
    },
    {
      "threadId": "425689115",
      "post": "Ah yes another nameless commenter... I do love it when people don't have the temerity to use their own name when commenting.\n\nBut be that as is it may... I want to thank you for taking the time out of your busy day to leave such a perspicacious elucidation. I do in fact venerate myself, at least where it's legal and I do in fact scribe as if I am toddler of 3, well maybe 34 months tops. \n\nHave a wonderful day my friend...\nSteve Olenski \nCommanding Officer, Ground Forces\nGuantanamo Bay, Cuba",
      "time": "2011-09-27T13:41:42",
      "id": "320870401",
      "parentPost": "What a lame article. This guy loves himself way too much and writes like a 3-year-old.",
      "parentPostTime": "2011-09-26T05:54:06",
      "parentPostId": "319985813"
    },
    {
      "threadId": "413364251",
      "post": "Awesome post... really. Far too often we forget what is REALLY important, especially today with so many things at the ready waiting to distract us and deter us from focusing what it right in front of us... those that love us unconditionally. ",
      "time": "2011-09-14T17:31:42",
      "id": "310022251"
    },
    {
      "threadId": "409533408",
      "post": "Hey Will,\n\nFirst off I owe you a response to your email a million years ago or a few months or somewhere in between... \n\nAs for your post... my brother you described me to a tee. I am absolutely an idea person and I say that will all humility intact. They (ideas) come to me, as they obviously do to you, at any given moment of any given day... and the ideas can range far and wide. \n\nYour idea re: your phone is an excellent one and one that I have used in the past and will continue to do so in the future. \n\nWe're not talking about sacrificing significant time with one's family to devote to a given idea... we're talking about just enough time to make a proverbial note about the idea else risk losing the idea altogether. \n\nGreat, great post and one that resonated completely with me...\n\nAll the best my friend,\nSteve O\n\n",
      "time": "2011-09-09T19:18:34",
      "id": "306116757"
    },
    {
      "threadId": "338670629",
      "post": "Hey Adam, I too pass these same billboards going to and coming from work every day. I often wonder too how they can afford to keep these boards as long as they do but hey, more power to them.\n\nBut when I see these boards I can't help thinking these are targeted at not folks like you and I, who mostly \"get it\" :) but to those who only \"hear\" about SEO and Google and they know enough to know they should be on Page 1. Perhaps small business owners, blue collar businesses kind of thing who know they should be online but dont know how to go about it... they see these boards promising Online Royalty, AKA Page 1 and... \n\nBut it is somewhat ironic that an SEO company should rely on \"other\" forms of advertising other than their own rank generating abilities :)\n\nGreat post! \nSteve O",
      "time": "2011-08-10T12:51:40",
      "id": "282178353"
    },
    {
      "threadId": "371920639",
      "post": "Hey Tom,\n\nHadnt heard of The Halo Effect, will definitely check it out but as for your line, \"there s no such thing as permanent greatness in business!\" try telling that to Mr. Jobs, et al... :) \n\nHave a great day! \nSteve O",
      "time": "2011-08-01T13:13:56",
      "id": "272735292",
      "parentPost": "Thanks for the comment, Steve!\nWhat's interesting about Good to Great is that the companies Jim Collins studied and praised as champions of greatness have all fallen to mediocre since... or gone bust (Circuit City). Another great book called The Halo Effect explains why really well... there s no such thing as permanent greatness in business!\nhttp://www.amazon.com/Halo-Effect-Business-Delusions-Managers/dp/0743291255\nCheers, \nTom",
      "parentPostTime": "2011-07-29T18:10:20",
      "parentPostId": "268860379"
    },
    {
      "threadId": "370265028",
      "post": "Wow, this is incredibly insightful stuff here, Eric. I am sharing your post with everyone on my digital team for sure! \n\nSteve O",
      "time": "2011-07-27T20:47:38",
      "id": "266793271"
    },
    {
      "threadId": "368773720",
      "post": "If imitation is the sincerest form of flattery... you can just keep your flattery thank you very much.... :)\n\nMore power to you Jessica! \n\nSteve O",
      "time": "2011-07-26T14:30:30",
      "id": "265424553"
    },
    {
      "threadId": "367850437",
      "post": "Hey Dan,\n\nYou have surely inspired me to write my own Quid Pro Quo: 20 Things You Probably Didn’t Know About Me\n\nAnd I will do ASAP... and will let you know when my Quid Pro Quo is live... \n\nthank you, again, for the great post. \n\nAns yes I am an organ donor. :)\n\nAll the best my brother,\nSteve O",
      "time": "2011-07-25T13:01:03",
      "id": "263419410"
    },
    {
      "threadId": "360380375",
      "post": "Hey Dan,\n\nFull disclosure: I have never seen any of The Matrix movies. If this is cause for permanent barring from your blog and permanent exile from said rabbit hole, so be it... :)\n\nBut on the off chance I am allowed to stay and play...\n\nFor me, I consider myself to be a writer and a blogger and dont really give a damn about any rules, regulations or commandments. \n\nI have prided myself of being different for essentially my entire life, for coloring not only outside the lines but outside the damn coloring book... :)\n\nHowever, in my current role professionally I try and keep the bulk of my posts on my company's blog http://www.stargroup1.com/blog related to the marketing/advertising industry. Hey. its my job and I think I'm pretty damn good at it. \n\nBut I always infuse my personality, my conversational tone into every post. \n\nNow on my personal blog http://www.thesteveozone.blogspot.com/ I am much more \"wide open\" if you will but I admit i dont post to that blog as much as I should because I can tell you there is ALWAYS something floating in my over-caffeinated head that I want to get off my chest. \n\nI blog/I write because I like it. Period. \n\nI mean I really like it... Is that so wrong? Please tell me its not wrong, Dan!!! \n\nIn all seriousness, something I try to be as little as I can (serious), this is one of those thought-provoking posts you speak of and I commend you for a continuing job well done.\n\nYou have a lot to say, you're not afraid to say it and you're damn good at getting your point across... 3 things I admire in anyone. \n\nAll the best my friend,\nSteve O",
      "time": "2011-07-21T20:43:44",
      "id": "259926003"
    },
    {
      "threadId": "352831901",
      "post": "Thanks for this... makes for a great follow up to my article in June... http://bit.ly/q4BhTZ ",
      "time": "2011-07-11T14:34:52",
      "id": "247670791"
    },
    {
      "threadId": "293085510",
      "post": "Hi Mikinzie,\n\nDont want to make a big deal out of this but I completely disagree with a lot of what you wrote... in particular this \"the voice behind the Cobra was just doing what everyone already knows (or should know) to do: be conversational, tap into relevant topics and engage. Tweeting isn’t brain surgery, folks.\"\n\nNo, no, no... that's the whole idea... everyone does NOT how to do \"social media\" in this case Twitter. Everyone does NOT know how to be conversational. \n\nAnd maybe I'm just caffeine-deficient, but are you contradicting yourself by saying on one hand, Tweeting isn't brain surgery and Tweeting is easy and on the other hand saying \"Just because you know how to type 140 characters doesn’t make you qualified...\" ???\n\nIf Twitter/Tweeting is as easy as you say, then yes, just because someone knows how to type 140 characters DOES make them qualified\" does it not?\n\nI of course dont believe that and I'm sure you dont, either. \n\nThere is obviously, you point out, much more to it than just Tweeting but as one who sees many a Tweet during the course of a given day, Tweeting is not easy for if it were so many people wouldn't be doing it wrong. \n\nGreat post for sure.. if nothing else it got me engaged :) \n\nThanks!\nSteve O",
      "time": "2011-05-03T19:29:40",
      "id": "196509256"
    },
    {
      "threadId": "294329249",
      "post": "Hi Roger,\n\nBeing the huge sports fan that I am, you're post immediately resonated with me. Your correlation between quarterbacks and CEOs is spot on. \n\nPerhaps a more apt title for your article would be CEOs Should Be More Like \"Certain\" Quarterbacks, however...:) For as you astutely pointed out in your reference to JaMarcus Russell, there are a plethora of QBs who are quite simply and bluntly... Busts, with a capital B. \n\nAnother analogy between CEO's and \"Certain\" QBs is their ability to \"stand tall in the pocket\" in the face of oncoming pressure. For every Joe Montana, there are at least 10-20 Donovan McNabbs. (Am from Philly so I know ALL about Donnie Mac) \n\nThe best CEOs of course handle pressure and adversity the same way Joe Cool did... a   calming influence in the huddle (boardroom), the confidence, ability and wherewithal to call an audible at the line of scrimmage (i.e, eve of a new product launch, CEO spots a flaw, calls it off; changes the play), knows who on his team he needed to kick in the ass and who needed to pat on the back... \n\nThe analogies of course are endless. \n\nThe bottom line of course is the bottom line... or is it? \n\n\n\n",
      "time": "2011-05-03T17:56:37",
      "id": "196424330"
    },
    {
      "threadId": "286190036",
      "post": "Great article, Andrew. It is truly the yin and the yang... First, traditional agencies needed to be more digital. Now digital agencies need to be more traditional. \n\nThe best and most-successful agencies are those that identify a new trend/breakthrough/revolution, in this case \"digital\" and absorb it into their existing strategies. They realize that marketing and advertising, at its very core, is reaching the intended target customer via the best mediums possible. \n\nAnd they realize that everything, EVERYTHING must always work in harmony with one another, that no matter how much fanfare and accolades a given hot topic receives, one medium/method will never replace all others that came before it. \n\nIt has always been about integration and it always will be... \n\n\n",
      "time": "2011-04-26T14:19:05",
      "id": "192041046"
    },
    {
      "threadId": "220503776",
      "post": "\"Havent you heard? Social Media is fad, it's a sham... it doesnt work.\" - he said with tongue planted firmly in cheek... :) \n\n",
      "time": "2011-03-29T13:50:51",
      "id": "174056019"
    },
    {
      "threadId": "262000064",
      "post": "Hi Jeremiah,\n\nI think Carri nailed it on the proverbial head... her entire response was spot but especially this stanza... \n\n\"It's my personal belief that nobody should be \"running\" social media within a company unless he/she has already created thousands of posts and built up thousands of friends, fans or followers.\"\n\nYes, yes a thousand times yes! \n\nIt happens to be my personal belief that many companies, large and small alike, establish/fund/staff a social media team because they think they have to; they fear being left out...  they can then announce to the world that yes, they have their own dedicated social media team... all sounds, operative word being sounds, fantastic. \n\nIn reality, however, these same companies are woefully equipped to deal with day-to-day, nuts and bolts and whatever other euphemism you want to throw out when it comes to social media. \n\nGreat post and lots of food for thought... thank you!\nSteve O",
      "time": "2011-03-28T18:20:07",
      "id": "173441503"
    },
    {
      "threadId": "233882595",
      "post": "Love this! I've been wearing baseball hats for many years... and it absolutely is part of my brand. I dont even want to tell you how many I have :) \n\nNow, how does your hat figure into the discussion that came up a while back re: appropriate attire? ",
      "time": "2011-02-18T17:49:34",
      "id": "151492278"
    },
    {
      "threadId": "233079127",
      "post": "Could not disagree with you more... Taco Bell = Social Media Fail http://bit.ly/hYarkq ",
      "time": "2011-02-18T15:29:15",
      "id": "151319902"
    },
    {
      "threadId": "229856280",
      "post": "I'm one of those right side brain folks, or is it left side? The side that deals with creativity... yeah, that one. So I tend have problems digesting and disseminating graphs, charts, algorithms & the like...\n\nBut holy obvious Batman... people follow us on Twitter cause they like what we're saying... \n\nYou should print out Tom Collin's reply and tape it your wall as a reminder...\n\n",
      "time": "2011-02-14T21:39:28",
      "id": "146508069"
    },
    {
      "threadId": "215106975",
      "post": "Amen, Amen and AMEN... \n\nWrote about this very topic not long ago myself... http://bit.ly/ej0ogZ",
      "time": "2011-01-26T16:29:21",
      "id": "134859376"
    },
    {
      "threadId": "207256391",
      "post": "Hi Tiffany,\n\nAs you will see from a blog post of my own (link below), I too have a major problem with those who are in charge of programming and commercial placement...\n\nhttp://bit.ly/fLrSZv\n\nThanks and GREAT post!\nSteve O\n\n",
      "time": "2011-01-11T18:12:52",
      "id": "127685357"
    },
    {
      "threadId": "199601917",
      "post": "Hi Michelle, \n\nAwesome, awesome post... very well-written and clever and anytime someone can weave in an 80s fictional hero into a post, I'm there...\n\nReading this post I am reminded of a classic line from one of the Star Trek movies from, when else, the 80's\n\n\"The needs of the many outweigh the needs of the few.\"\n\nThat's how a MacGyver sees it.\n\nA MacGruber of course sees it the other way around. \n\nAgain, great post Michelle!\n\nAll the best,\nSteve O\n\n",
      "time": "2011-01-10T22:26:33",
      "id": "127087306"
    },
    {
      "threadId": "204728587",
      "post": "Great job! Can't wait to see more!\n\nOne suggestion... Change it to Wright's Wramblings ... i'm a big fan of alliterations... :) And who cares if its spelled wrong, its yours, you call it what YOU want! \n\nJust a suggestion... :)\n\nKeep up the great work!\nSteve O",
      "time": "2011-01-07T17:52:31",
      "id": "125727604"
    },
    {
      "threadId": "202078119",
      "post": "Hey Kristen,\n\nFirst off, thanks for including me in your \"amazing\" list... am most humbled for sure. \n\nI must admit I do not utilize lists as much as I should.... hopefully your post will inspire me!\n\nAnd I love the new site!!\n\nAll the best,\nSteve O",
      "time": "2011-01-04T19:47:37",
      "id": "123991119"
    },
    {
      "threadId": "147961986",
      "post": "Hey Dan,\n\nThank you for sharing such a personal story... it is a very awakening story for many I am sure, myself included. \n\nUnfortunately we all fall into the \"life gets in the way\" excuse and that is truly all it is, an excuse... an excuse not to tell the people you love that you love them, not to tell those close to you just how special they are because one day, we are not going to have the chance. \n\nThanks again and here's to a wonderful, blessed and joyous holiday for you and your family.\n\nAll the best,\nSteve O\n\n\n\n\n\n",
      "time": "2010-12-23T21:09:25",
      "id": "117743279"
    },
    {
      "threadId": "187969563",
      "post": "I like the premise but would have made the man who initially thought he was not invited more angry, upset that he wasnt invited. Would have made for a better \"shift\" as he went from being irate/angry to \"Oh wait, I am invited..\"",
      "time": "2010-12-10T19:29:44",
      "id": "110018101"
    },
    {
      "threadId": "186546534",
      "post": "Mother of God of all things big and small, please tell me this is a joke, a stunt to get attention, whatever... anything but the fact that these are legitimate attempts to create new logos... ",
      "time": "2010-12-08T19:23:26",
      "id": "108763813"
    },
    {
      "threadId": "174361778",
      "post": "I am neither jaded nor bitter... I'm just tired of seeing the same thing over and over again... apparently you dont mind seeing unoriginal advertising... that's great.\n\nAnd yes, I know all too well re: the client has the final say so I am not blaming the agency per se...\n\nAs far as a better suggestion goes... dont hold your breath. \n\n",
      "time": "2010-11-18T14:04:36",
      "id": "98783654",
      "parentPost": "Wow .. hard to tell if you're jaded or just bitter. Either way, didn't hear a better suggestion anywhere in there.",
      "parentPostTime": "2010-11-17T20:46:29",
      "parentPostId": "98486345"
    },
    {
      "threadId": "172949996",
      "post": "Hi Michelle,\n\nA very intriguing topic you've touched on... I think a lot of this (this being the panelists attitude toward young Seth) can be couched under the heading of FEAR.\n\nWe fear what we do not know... we FEAR what is different.\n\nI also happen to think that the connotation of the word \"coupon\" is at play here. \n\nPeople's (businesses & general public alike) perception of the word \"coupon\"... would make for a fascinating survey re: what is your perception or what;'s the first thing you think of when you hear \"coupon\"... Does the word in some way \"cheapen\" the product, service or ware in question?\n\nOr does it have the opposite effect and entice you to try the product, service or ware in question?\n\nVery, very interesting topic for sure...\n\nThanks Michelle!\nSteve O\n\n",
      "time": "2010-11-15T16:29:16",
      "id": "97462092"
    },
    {
      "threadId": "169047223",
      "post": "A very simple yet very powerful message... just a damn shame we all need reminders of what's really important.\n\nI guess that's part of being human. We all, from time to time, lose perspective... life gets in the way as I put it, but that's just one big cop out... \n\nThanks for sharing this...\n\nSteve O",
      "time": "2010-11-11T19:01:45",
      "id": "96248694"
    },
    {
      "threadId": "163551033",
      "post": "Hey Pam,\n\nI agree with everything you say (write)... I certainly try (operative word) to provide value, even if its in the form of my opinion... which I am always happy to share on any given topic :)... \n\nBut, I think social media is akin to \"beauty is in the eye of the beholder...\" \n\nIn social media terms the value is in the of eye of the beholder meaning what one person finds valuable, the other may not and so on...\n",
      "time": "2010-10-29T12:37:42",
      "id": "91418757"
    },
    {
      "threadId": "155709382",
      "post": "Hey Kirsten,\n\nI consider Steve & Lisa to be good \"friends\" (I say \"friends\" because much like yourself, I havent had the pleasure of meeting in person but hope to one day)... and they are both very passionate and knowledgeable when it comes to leadership and they love to share their experiences. \n\nThanks for sharing this!\nSteve O\n\n",
      "time": "2010-10-13T17:24:04",
      "id": "86629242"
    },
    {
      "threadId": "152749872",
      "post": "Dennis,\n\nThis is one your better articles... excellent even... seriously, very well-written and to the point... keep up the good work!\n\nSteve I=O",
      "time": "2010-10-09T17:54:46",
      "id": "85535471"
    },
    {
      "threadId": "151462982",
      "post": "I am constantly amazed at presenters who either forget or are clueless to the fact that their contact info is MIA...\n\nIt's actually mind boggling but hey, it's their loss... ",
      "time": "2010-10-05T13:08:07",
      "id": "84280034"
    },
    {
      "threadId": "150947108",
      "post": "Ok, first off its the SIX Million Dollar Man, watch that... :) \n\nAnd you gotta love anyone who uses the word \"sorta\" in a sentence... \n\nAnd of course you have to remember that whole imitation and flattery and the sincerest form and all that crap...\n\nYour points are spot on of course and as one, like you, who did the corporate America two-step for far too long, I know all too well the wonders of hearing some suit tell me it was a good thing that they stole my idea and made it their own... funny how I still can't quite grasp that concept...\n",
      "time": "2010-10-05T12:23:20",
      "id": "84269116"
    },
    {
      "threadId": "149736883",
      "post": "Sorry my comment go posted before I was finished!\n\nI have to tell you ever since I first heard of this story I thought it was something out of a movie or a parody of some sort...\n\nI simply could not believe someone, anyone would go to such lengths to discredit and smear a student college president let alone the assistant AG of a state!\n\nI saw the interview with Mr. Shirvell on Anderson Cooper the night it aired live and I was completely appalled by his (Mr. Shirvell's) vitriolic comments. \n\nAnd as you astutely and wisely point out, how Mr. Cox can keep him in his position one second longer while they BOTH hide behind the 1st Amendment is laughable. ",
      "time": "2010-10-01T16:33:33",
      "id": "83083333"
    },
    {
      "threadId": "146055889",
      "post": "\"Action is the new social currency...\" I like that. Ties in perfectly with the fact that my all time favorite superhero is Spiderman ...\n\nLyric from the song... \"Action is his reward.\"\nhttp://www.youtube.com/watch?v=4o29VoxtsFk\n\n",
      "time": "2010-09-27T17:54:33",
      "id": "81182687"
    },
    {
      "threadId": "146063703",
      "post": "Hey Michelle, (with TWO L's)... LOL\r\n\r\nWhat a great post. It is literally chock full of valuable information and learnings. \r\n\r\nI have worked with many interns in the past I would never, with a capital NEH and a captial VER have them do any menial tasks that I would not do myself. Man do I abhor that when I see others doing it. \r\n\r\nThere are always contructive things interns can be doing... especially in the world of advertising and social media. \r\n\r\nIf I were Aesop, and I am surely not, I would say the moral of your post is be nice to everyone you meet, treat them the way you wish to be treated. It's akin to the whole \"the people you meet on the way up the ladder cause you may meet them and need them on the way down.\"\r\n\r\nNot exactly the moral but I haven't had a cup of coffee in over 5 minutes so my brain is on its own... scary. \r\n\r\nGreat post Michelle and I love the Apprentice tie in! \r\n\r\nAll the best,\r\nSteve O",
      "time": "2010-09-23T20:20:24",
      "id": "80384841"
    },
    {
      "threadId": "144893738",
      "post": "Dino,\n\nsorry you don't agree with me but hey, that's why we live in America right. We can all voice our opinion.\n\nAs I mentioned it came down to the Texans vs. the Bears and I thought beating Dallas was too impressive to pass up... was close either way. But the Texans are a very good team for sure. \n\nAs for the Packers, I had them at #1 the previous week and the Saints were not that impressive in beating the Niners. \n\nAnd as for the Chargers, am just curious, where would you rank them? ",
      "time": "2010-09-21T18:52:50",
      "id": "79782792"
    },
    {
      "threadId": "143110112",
      "post": "Wow, you can't make this stuff up... it's truly amazing that a company that's supposedly tech savvy like a hosting company doesn't \"get it.\"\n\nAnd I love the \"Don't call...\" Tweet they put out... are you freaking kidding me? \n\nAnd you were so right re: the sarcasm... of which I am a huge fan of :)\n\nBut you can't \"Introduce\" your sarcasm during a crisis when you've havent been doing anything re: Twitter/SM the whole time! Hello McFly! Jeezus... people are so damn dumb sometimes... ",
      "time": "2010-09-17T12:53:26",
      "id": "78518159"
    },
    {
      "threadId": "110177396",
      "post": "And what is wrong with Laverne & Shirley?!?!?! LOL...\n\n\"If you’ve forgotten the words, then find them.\" Or write new ones... write new lyrics. Who says you can't? \n\nAs for singing... your post reminded of me one I scribed not long ago... http://blog.fmidm.com/index.php/2010/08/16/sing-a-song-itll-make-your-day/\n\nAnd for some reason after reading your post, this song from Sesame Street is in my head...\n\nSing\nSing a song\nSing out loud\nSing out strong\nSing of good things, not bad\nSing of happy, not sad\n\nSing\nSing a song\nMake it simple\nTo last your whole life long\nDon't worry that it's not good enough\nFor anyone else to hear\nSing\nSing a song ",
      "time": "2010-09-08T15:09:09",
      "id": "76054082"
    },
    {
      "threadId": "130881909",
      "post": "Am quite frankly surprised that number is not much higher... ",
      "time": "2010-08-31T12:43:10",
      "id": "73490975"
    },
    {
      "threadId": "105605942",
      "post": "\"When did they stop looking back to you?\"\n\nIt was 2004. My daughter, who is now 10 going on 21 was 5 years old. We were in our backyard playing on the swing set. We have one of those multi-functional swing sets that also includes a sliding board.\n\nIt was a clear, crisp November Philly day... yes, I remember it as vividly as anyone can remember anything. \n\nMy daughter ascended to the stop rung of the slide and I, the dutiful dad, was right behind her. She was a little afraid of climbing to the top of the slide by herself so I assured and reassured her...\n\n'It's ok... daddy's right here.'\n\nShe turned, looked back at me and asked...\n\n\"Will you always be there for me, daddy?\"\n\nEven now as I am sharing this with you all these years later, I am brought to tears... \n\nI want my daughter AND my son to know they can always look back and that I will always be there for them.\n\nThank you for sharing this story, Ann. If time really does fly when you're having fun then I must have be having the time of my life... \n",
      "time": "2010-08-30T15:14:26",
      "id": "73122925"
    },
    {
      "threadId": "134348256",
      "post": "I have to tell you that if you were looking for people to only challenge the norm re: Social Media, I would not waste my time in responding. However, since you broadened the scope to include social media, marketing, advertising, public relations and communications... then hell yeah, I'm interested. \n\nAs for challenging the status quo... http://blog.fmidm.com/index.php/2010/08/16/sing-a-song-itll-make-your-day/\n\n\n\n\n\n\n\n\n\n",
      "time": "2010-08-27T14:11:47",
      "id": "72585032"
    },
    {
      "threadId": "134246321",
      "post": "Hey Pam,\n\nFantastic post... how many companies will tell you what they do then dont tell you WHY you need them?!?!?! \n\nHello McFly!!!! LOL... ",
      "time": "2010-08-27T13:03:49",
      "id": "72574732"
    },
    {
      "threadId": "133496509",
      "post": "I have to admit Amber when I first read this line \"...laying a foundation upon which we can build this next generation of human connectivity.\" my initial thought was, 'whoa, getting a little grandiose there, aren't we? I mean, \"next generation of human connectivity?\" \n\nBut then I realized she's right on the money ... it's damn imposing to think of the magnitude of this shift, if you will, in the way we communicate. \n\nI'm not sure many people realize the scope of what is truly going on right before their eyes... ",
      "time": "2010-08-26T13:02:37",
      "id": "72378241"
    },
    {
      "threadId": "132902024",
      "post": "Hey Pam,\n\nGreat, great post as usual... and thank you, THANK YOU for the props in your video!!!! ",
      "time": "2010-08-25T17:46:54",
      "id": "71503907"
    },
    {
      "threadId": "132398503",
      "post": "I think you are being far too conservative in your \"people, in general, suck sometimes\" edict... \n\nSorry but I think there's a whole lotta jackoffs running around today. I seem to get behind them all either in line at the supermarket or on the road going thru a toll booth...\n\nHell we had people filing insurance claims after 9/11 and they were hundreds of miles away for chrissakes... \n\nDamn, now my blood's boiling nice and hot... thanks Jason and Edward... damn you both to hell... ok, maybe not hell, but someplace hot. ",
      "time": "2010-08-23T20:02:34",
      "id": "70836294",
      "parentPost": "Fair point, my friend. And good idea all around. I just think we're a nation\r\nof whiners. There will always be 10 or so people taking advantage to every\r\none that is offering criticism in a constructive fashion. Not saying that\r\nmeans we don't open the doors, but we need to be aware of it. People, in\r\ngeneral, suck sometimes.",
      "parentPostTime": "2010-08-23T18:31:53",
      "parentPostId": "70816702"
    },
    {
      "threadId": "112943640",
      "post": "Thanks for the inspiration Amber... http://thesteveozone.blogspot.com/2010/08/long-aarm-of-steve-o.html\n\n",
      "time": "2010-08-23T12:15:21",
      "id": "70755828"
    },
    {
      "threadId": "131014519",
      "post": "Hey Amber, I did read the post but I will admit I glossed over this part (hard to do since its near the beginning of your post but...)\n\n\"There’s a point where self-deprecating humor goes too far, and starts feeling as though you’re pandering for attention or fishing for compliments.\"\n\nThat and the \"Learn to take compliments\" is a huge problem for me... I am always uncomfortable just doing what comes naturally to me, i.e. writing. My wife tells me all the time that most people can't do what I do and I should take the compliment and move on, so to speak. \n\nIn fact, I think you've inspired a blog post about this very topic... will be sure to give you inspirational props as I did my man Tom Martin a while back.. http://blog.fmidm.com/index.php/2010/07/15/whats-on-your-game-film/\n\nAnd you didnt pick up on my Billy Joel reference? Had you pegged as Piano Man fan... take another look...",
      "time": "2010-08-19T17:23:11",
      "id": "70034480",
      "parentPost": "Hey Steve - Did you happen to read the post about laughing at yourself? It wasn't so much about not taking yourself too seriously as it was being careful about being self deprecating all the time. Perhaps you still disagree, and that's okay. :)",
      "parentPostTime": "2010-08-19T14:09:51",
      "parentPostId": "69991571"
    },
    {
      "threadId": "120667760",
      "post": "Hi Robert, first off, thanks for posting a response to my post on SocialMedia.com, much appreciated.\n\nYou absolutely nailed it on the head when you wrote: The bad news is that many businesses that rely on the boom period of social media to make a living will go bankrupt...\"\n\nIn my post, I wrote: \"I am not here to tell those folks who consider Social Media a waste of time that Social Media is some magic elixir. Far from it. Social Media needs to be one part... ONE PART of a comprehensive and cohesive marketing/advertising campaign.\"\n\nAnyone who thinks Social Media is the answer to all their advertising/marketing prayers is kidding themselves and/or has been sold a bill of goods by one of those snake oil salesmen.\n",
      "time": "2010-07-22T16:55:26",
      "id": "63740508"
    },
    {
      "threadId": "120508309",
      "post": "\"quick-to-lynch environment\" as in say this... http://tinyurl.com/3xmkdvp\n\nBTW, great post Amber. As one who likes to debate (another operative word), there are rules of decorum for sure that must be and should be abided by...",
      "time": "2010-07-22T16:12:27",
      "id": "63733904"
    },
    {
      "threadId": "119738128",
      "post": "When I was 27 I had a can of Spam for a brain. The only smart thing I knew was I found the one person, and to this day, the only person who can stomach me for more than 5 minutes... my wife. \n\nI tell people that all the time... especially \"kids\" who are in their 20s. I tell them I had no clue what I wanted to do with my life. No clue. Course still not sure only now I'm a dad and husband...\n\nThanks for the inspiring post, Amber.\nSteve O",
      "time": "2010-07-20T15:08:23",
      "id": "63360970"
    },
    {
      "threadId": "119595578",
      "post": "Hey Justin, just re-tweeted this post which of course you care two shits about, being an asshole and all... this was actually quite refreshing to read something in the voice and WTF tone I prefer... I genuinely like people and like helping people, too... but I ain't here to hold hands and sing kum-bay-ya either... ",
      "time": "2010-07-19T15:53:53",
      "id": "63203367"
    },
    {
      "threadId": "110950185",
      "post": "Not as bad as when I had my colonoscopy... ",
      "time": "2010-06-25T18:29:44",
      "id": "58638932",
      "parentPost": "Steve, how did it feel? ;-)",
      "parentPostTime": "2010-06-25T18:27:33",
      "parentPostId": "58638558"
    },
    {
      "threadId": "108041441",
      "post": "Hey Kirsten, good luck re: Blog World! and here's my latest silly endeavor... http://twokindsofdumb.posterous.com/\n",
      "time": "2010-06-16T17:06:20",
      "id": "57099531"
    },
    {
      "threadId": "94567952",
      "post": "Great piece Chris... thoroughly enjoyed it... I especially liked the part where you used the phrase \"reticular activating system\" instead of peripheral vision... great stuff!!! ",
      "time": "2010-05-25T17:33:35",
      "id": "51971946"
    },
    {
      "threadId": "92292545",
      "post": "Lots of great comments but a few in particular were disconcerting. Full disclosure: I abhor \"business writing\"... I've been in adv/mtkg for almost 20 years and I write the way people speak.Or at least I try to... :) The client of course has final say. \n\nThe comments that were disconcerting were those that mentioned the word \"fear\" and another that uses the phrase \"to help the reader suffer through it.\"\n\nFirst off, fear is the enemy of advertising... REAL advertising. There is most assuredly safety in numbers and you need not look any further than the majority of advertisers/companies alike that default to the Safe Path when it comes to advertising. \n\nAnd to the \"to help the reader suffer through it\" comment... \n\nThe author of this comment misses the point entirely. \n\nThe point is to write in a voice and tone that engages and entertains the reader while educating and informing at the same time! No one need suffer reading something that has to be there anyway. Where is it written that business writing = boring? ",
      "time": "2010-05-11T18:03:55",
      "id": "49773216"
    },
    {
      "threadId": "90948583",
      "post": "Just came across this and thought of your post... http://blogs.imediaconnection.com/blogdetail.aspx?blogid=1349\n",
      "time": "2010-04-30T18:19:02",
      "id": "47701471"
    },
    {
      "threadId": "76621811",
      "post": "Chevy sounds like they \"get it\" re: Social Media... if Company X truly wants to know what people think then they need to not put boundaries, provisions, etc on the same people they hope will buy their wares. Thanks for sharing this, Jason. Steve O",
      "time": "2010-03-18T16:02:50",
      "id": "40324539"
    },
    {
      "threadId": "25780294",
      "post": "I agree that the answer to this erudite-esque query cannot be answered in Twitter-speak and I most assuredly agree with the \"self-imposed asking more questions mantra.\" The key, however, will be to adhering to these tasks well beyond the 14-day timeframe. Of course one could substitute 2 for 3, 4 and so on and so on... what could you do in 37 weeks to change the next 37 decades? Ok, maybe every number doesnt work. ",
      "time": "2009-07-16T21:26:40",
      "id": "12767130"
    },
    {
      "threadId": "13605428",
      "post": "Hi Scott, reading this post, particularly the \"Asking for Referrals Before You’ve Earned Them\" edict reminded me of something I blogged about back in January and that is the E Generation, The Entitlement Generation as I refer to anyone under the age of 30. Why do I think that The E Generation are the ones predominantly asking for referrals before actually earning them? \r\n\r\nHere's the original post below. Thanks.\r\n\r\nhttp://thesteveozone.blogspot.com/2009/01/generation-e.html\r\n\r\n",
      "time": "2009-03-18T16:15:56",
      "id": "7317533"
    },
    {
      "threadId": "9172410",
      "post": "Thanks Alan for your feedback... have a safe and Happy New Year!",
      "time": "2008-12-31T23:27:19",
      "id": "4805699",
      "parentPost": "@Stan - glad you liked it and a very Happy New Year for you as well.\r\n\r\n@Anca - nice riff on artists and narcissists. Happy New Year to you as well and thank you for all your insightful commentary.\r\n\r\n@Steve - Many popular magazines touch on a number of different topics. My friend Noah Brier's blog (noahbrier.com) veers off in any number of directions but is always a fascinating and topical read. I don't think you need to worry about sticking to one topic. Self-promotion also helps a blog get readers and you should not be afraid to continue to do so.\r\n\r\n@Beth - I'd never know you felt writing didn't come naturally to you- your blog is quite well written. I've enjoyed getting to know you too. Happy New Year.",
      "parentPostTime": "2008-12-31T21:19:07",
      "parentPostId": "4803459"
    }
  ],
  "profileInfo": {
    "username": "steveolenski",
    "about": "Writer with a unabashed love for his wife, kids, sports, food and sleeping. Oh yeah, and coffee, too. ",
    "name": "steveolenski",
    "disable3rdPartyTrackers": false,
    "isPowerContributor": false,
    "isAnonymous": false,
    "rep": 1.29152,
    "profileUrl": "https://disqus.com/by/steveolenski/",
    "url": "http://twitter.com/#!/steveolenski/",
    "reputation": 1.29152,
    "location": "Philly",
    "isPrivate": false,
    "signedUrl": "http://disq.us/?url=http%3A%2F%2Ftwitter.com%2F%23%21%2Fsteveolenski%2F&key=2hAxsqHZ_iL3SDf8-7HCJQ",
    "isPrimary": true,
    "joinedAt": "2008-12-31T17:44:27",
    "id": "177420",
    "avatar": {
      "small": {
        "permalink": "https://disqus.com/api/users/avatars/steveolenski.jpg",
        "cache": "//a.disquscdn.com/uploads/users/17/7420/avatar32.jpg?1405346455"
      },
      "isCustom": true,
      "permalink": "https://disqus.com/api/users/avatars/steveolenski.jpg",
      "cache": "//a.disquscdn.com/uploads/users/17/7420/avatar92.jpg?1405346455",
      "large": {
        "permalink": "https://disqus.com/api/users/avatars/steveolenski.jpg",
        "cache": "//a.disquscdn.com/uploads/users/17/7420/avatar92.jpg?1405346455"
      }
    }
  }
}