{
  "comments": [
    {
      "threadId": "3944789982",
      "post": "Stunning pictures. Love these photo journal posts.",
      "time": "2015-07-20T13:46:59",
      "id": "2146623952"
    },
    {
      "threadId": "3544879054",
      "post": "Thanks, James! That's great to hear!",
      "time": "2015-02-25T15:57:24",
      "id": "1874890312",
      "parentPost": "I have never actually wondered where you got the idea for Fulcrum from, always assuming it was borne out of need within your company, so this was a good read. And I am glad you persisted like you did. Fulcrum has almost become part of our vernacular at VicTrack!",
      "parentPostTime": "2015-02-25T02:57:40",
      "parentPostId": "1874049919"
    },
    {
      "threadId": "1788784672",
      "post": "Handy for when you upgrade on accident. Thanks!",
      "time": "2014-12-25T16:20:52",
      "id": "1758765446"
    },
    {
      "threadId": "3189393522",
      "post": "This is great!\n\n\nWhen you add tasks, do you add _everything_ to a context? Or only a certain percentage of activities?",
      "time": "2014-11-28T06:08:31",
      "id": "1716169235"
    },
    {
      "threadId": "2791350061",
      "post": "This is definitely a cool idea, and something we're thinking about. Would be great for look-up tables, and just cross-referencing between datasets.",
      "time": "2014-07-11T17:21:43",
      "id": "1480735003",
      "parentPost": "Would love to see if this could work to link Fulcrum Apps together from within each other. For instance, we have a wetland collection app that asks if there are any streams in the wetland. If there is we then have to open up our streams app. It would be nice to have a link to the streams app in the wetlands app.",
      "parentPostTime": "2014-07-11T16:56:16",
      "parentPostId": "1480699460"
    },
    {
      "threadId": "2422968443",
      "post": "Hi @disqus_PPsiSpoMEG:disqus - the data sharing functionality is going to be exactly what you're looking for! Coming very soon...",
      "time": "2014-03-20T11:50:30",
      "id": "1292986519",
      "parentPost": "Coleman we are heavily using fulcrumapp for our data collection and loving the service however one of the frustration I have now that I'm experiencing is exporting the data out every time I need to do something or update my map or analysis. Fulcrum should stamp itself as \"the point of truth\" were data is stored and updated. Fulcrum should build more on integrations like the upcoming sharing function. Integration not only to mapping service like cartoDB, mapbox, Google map engine, QGIS, and ARCMAP but also with data analysis package like Tableau and others. We've subscribe to arc2earth but there was no joy there, love the concept but to do extra steps hampers our process of getting something out quickly. Anyway, looking forward to sharing functionality.",
      "parentPostTime": "2014-03-14T01:30:14",
      "parentPostId": "1283901024"
    },
    {
      "threadId": "1983591035",
      "post": "Thanks, Gary! Working on adding even more awesome stuff, too. :)",
      "time": "2013-11-22T13:01:00",
      "id": "1134337169",
      "parentPost": "This is one of the most important upgrades to this APP. Good Job!",
      "parentPostTime": "2013-11-22T12:50:36",
      "parentPostId": "1134329510"
    },
    {
      "threadId": "1745959886",
      "post": "This is coming to Fulcrum soon, we're working hard to make sure we get this right. Stay tuned.",
      "time": "2013-09-10T21:10:51",
      "id": "1037637382",
      "parentPost": "Not to beat a dead horse, but if you guys simply enabled many-to-one relationships via related tables and foreign keys in your exported tables, we would not need this script as part of our workflow.",
      "parentPostTime": "2013-09-10T19:42:03",
      "parentPostId": "1037529918"
    },
    {
      "threadId": "872928477",
      "post": "My favorite app for GPS traces on iOS is called GPS Kit:\n\nhttp://gpskit.garafa.com/GPSKit/\n\n\n\nIt doesn't support direct integration to OSM, but has a great interface for making GPS tracks. You can upload them to OSM for tracing.",
      "time": "2013-03-12T13:23:20",
      "id": "826764519",
      "parentPost": "I'm interested in finding out what the best iPhone tracer is for tracing things like bike routes, hikes, etc. This app seems useful also, but I also want to be able to export data to add to OSM.",
      "parentPostTime": "2013-02-15T13:16:17",
      "parentPostId": "800247103"
    },
    {
      "threadId": "736973588",
      "post": "That is awesome. Reminds me of <a href=\"http://en.wikipedia.org/wiki/Batteries_Not_Included_(film)\">Batteries Not Included</a>.",
      "time": "2012-07-06T02:32:57",
      "id": "577668123"
    },
    {
      "threadId": "710721396",
      "post": "Hi Simon, currently you have to create an account on the web (at http://fulcrumapp.com), then you can login on the app. We're working on building in device-side registration soon.",
      "time": "2012-06-09T17:27:41",
      "id": "553238471",
      "parentPost": "Ok, so I downloaded a copy of the new Fulcrum App to trial, but I need to create an account, and there doesn't seem to be any way to do that from the App.",
      "parentPostTime": "2012-06-03T09:51:33",
      "parentPostId": "546185726"
    },
    {
      "threadId": "675689558",
      "post": "It's possible to export as a PostGIS-compatible format (like shapefile or GeoJSON) and import into a PostGIS database using something like QGIS or the GDAL command-line tools. And of course with the API you could write a custom connector, as well.",
      "time": "2012-05-09T16:47:13",
      "id": "524575094",
      "parentPost": "hi, and congrats for this annoucement !\nis it possible today to import (or link) postgis data in fulcrumapp ?\nthanks ",
      "parentPostTime": "2012-05-09T13:27:41",
      "parentPostId": "524365152"
    },
    {
      "threadId": "568851910",
      "post": "@a207e75ac002cb781b56c68f6ac8555a:disqus Our Android app is still in development, but it's surely on its way! Here's a quick preview of the coming-soon Android client:",
      "time": "2012-02-09T22:05:40",
      "id": "434410887"
    },
    {
      "threadId": "371092742",
      "post": "Wow, that's nice! ",
      "time": "2011-07-28T19:39:58",
      "id": "267955738"
    },
    {
      "threadId": "76075088",
      "post": "Holy Awesome.",
      "time": "2010-03-16T03:41:06",
      "id": "39972493"
    },
    {
      "threadId": "61989279",
      "post": "Haha, good point... I'm not sure, didn't notice that before.",
      "time": "2010-03-01T22:18:01",
      "id": "37514500",
      "parentPost": "Is there any reason there is a second Pakistan where Burma should be???",
      "parentPostTime": "2010-03-01T22:14:19",
      "parentPostId": "37514186"
    },
    {
      "threadId": "30653800",
      "post": "I don't think \"stealing thunder\" means one is better than the other.  He's saying that, come opening day, Avatar won't seem as original as it would have without a District 9 preceding it.",
      "time": "2009-08-21T23:25:06",
      "id": "15214706",
      "parentPost": "Because he's basically saying District 9 is better than a movie that only has a trailer out, how can you say one movie is \"stealing the thunder\" of another when it doesn't even come out for 4 months and you haven't even fuckin' seen it. Cameron's keeping the most exciting stuff for opening day, and to jump to these conclusions now is just stupid. ",
      "parentPostTime": "2009-08-21T20:25:13",
      "parentPostId": "15208546"
    },
    {
      "threadId": "27538448",
      "post": "I was not aware that THE TWILIGHT SAGA: ECLIPSE required rehearsal time.",
      "time": "2009-07-30T18:21:51",
      "id": "13671003"
    },
    {
      "threadId": "25509990",
      "post": "Jack Shafer wrote a <a href=\"http://www.slate.com/id/2222941/pagenum/all/#p2\">good column</a> in Slate magazine about the book industry getting sapped by pirates the way Napster did to the music industry.",
      "time": "2009-07-17T12:45:27",
      "id": "12809504"
    },
    {
      "threadId": "25731422",
      "post": "Bill Nighy is fantastic.\r\n\r\nEveryone should watch his performance in the <em>State of Play</em> BBC series.  His character is the best.",
      "time": "2009-07-17T01:44:00",
      "id": "12795989"
    },
    {
      "threadId": "22893731",
      "post": "I'd like to see the IMAX shots, but <i>damn</i>, I <i>really</i> don't want to give things like this the \"go ahead, make another one\" with my $12.",
      "time": "2009-06-26T21:35:56",
      "id": "11803452"
    },
    {
      "threadId": "19789849",
      "post": "That's one majestic pups.",
      "time": "2009-05-29T18:48:09",
      "id": "10267996"
    },
    {
      "threadId": "19763975",
      "post": "I'm hungry again.  Thanks a bunch.",
      "time": "2009-05-29T15:37:50",
      "id": "10260754"
    },
    {
      "threadId": "14485119",
      "post": "I'm completely horrified.",
      "time": "2009-03-27T01:56:00",
      "id": "7547080"
    },
    {
      "threadId": "13858598",
      "post": "No A2DP or MMS for original iPhones.  LOSS.",
      "time": "2009-03-17T18:40:19",
      "id": "7294701"
    },
    {
      "threadId": "13601816",
      "post": "The crowd was ridiculous...",
      "time": "2009-03-13T16:20:19",
      "id": "7171171"
    },
    {
      "threadId": "13554446",
      "post": "Please, somebody, make more of these.",
      "time": "2009-03-12T20:37:42",
      "id": "7151775"
    },
    {
      "threadId": "11453430",
      "post": "Hahaha, it's already a hilarious show",
      "time": "2009-02-09T20:41:25",
      "id": "6121862"
    },
    {
      "threadId": "6754313",
      "post": "Hella jealousy.  <em>Hella</em>.",
      "time": "2008-11-07T19:25:19",
      "id": "3596761"
    },
    {
      "threadId": "6445711",
      "post": "Normal until or unless I get annoyed and feel like I'm wasting my time.  If I have to replay something over and over and over, I don't really feel like the developer was creating a \"challenge\" so much as a artificial hurdle to make their game feel like there's more to it.  It seems like this happens most often in games that are otherwise just <em>barely</em> interesting enough to play in the first place.\r\n\r\nClassic example of a great/difficult video game challenge: the climactic battle of the HL2: Episode 2 finale.",
      "time": "2008-10-30T23:28:24",
      "id": "3400443"
    },
    {
      "threadId": "4771510",
      "post": "The Duke is my hero.",
      "time": "2008-09-19T20:46:00",
      "id": "2446837"
    },
    {
      "threadId": "3022486",
      "post": "Turns out it doesn't matter in this case.  The movie blows.",
      "time": "2008-09-12T15:47:30",
      "id": "2302408"
    },
    {
      "threadId": "1532575",
      "post": "Played the first couple gardens.  Definitely fun, but might get pretty tired after a few hours.",
      "time": "2008-09-04T20:54:32",
      "id": "2114878"
    },
    {
      "threadId": "3511316",
      "post": "I totally agree.  Most of people's complaints in previews were about the guns.  Like either people wanted to have full range of motion while they have a gun <em>or</em> they wanted the guns removed.  I vote for the latter.  I just wanna disarm bitches and throw them off rooftops.",
      "time": "2008-08-22T14:04:12",
      "id": "1731019",
      "parentPost": "It feels like a big fat fucking cop-out that they let you shoot dudes. Like, hey, wouldn't Portal be better with guns?",
      "parentPostTime": "2008-08-22T07:28:02",
      "parentPostId": "1729002"
    },
    {
      "threadId": "3497282",
      "post": "It pretty much is.",
      "time": "2008-08-21T22:08:39",
      "id": "1725512"
    },
    {
      "threadId": "2443968",
      "post": "Just listened to your appearance this morning.  Top notch.\r\n\r\nAs a reader of yours and many others discussed in your conversation with Michael, I think someone in that crowd should put together a regular podcast.  I thoroughly enjoy all your appearances on 1UP Yours, but we need more N'Gai on the mic.  You, Stephen, Leigh, Michael, Shawn Elliott, etc.  The \"Furious Five\" of the gaming industry.",
      "time": "2008-08-04T16:56:54",
      "id": "1092776"
    },
    {
      "threadId": "2117169",
      "post": "I've read a couple McCarthy books (No Country and The Road) and wanted to check out Blood Meridian.  Is it bad or did you just lose interest?",
      "time": "2008-07-24T15:43:11",
      "id": "989221"
    },
    {
      "threadId": "1991453",
      "post": "e.  pic.",
      "time": "2008-07-18T14:52:15",
      "id": "932648"
    },
    {
      "threadId": "1933864",
      "post": "Let's see us some more plastic drum sets.",
      "time": "2008-07-16T03:14:12",
      "id": "906422"
    },
    {
      "threadId": "1760827",
      "post": "And to all the skeptics and haters out there, I'd much rather see Harmonix continually make iterative improvements on an already solid game than to start <a href=\"http://en.wikipedia.org/wiki/Tony_Hawk%27s_(series)\">milking</a> <a href=\"http://en.wikipedia.org/wiki/Spider-Man:_The_Movie#See_Also\">their</a> <a href=\"http://en.wikipedia.org/wiki/Guitar_Hero_%28series%29\">brand</a> for everything it's worth like <a href=\"http://en.wikipedia.org/wiki/Activision\">someone else</a> might.",
      "time": "2008-07-09T20:55:47",
      "id": "848240"
    },
    {
      "threadId": "1666100",
      "post": "Is that the final garden?  Or are there a lot more?",
      "time": "2008-07-07T20:20:40",
      "id": "829943"
    },
    {
      "threadId": "1421139",
      "post": "You can just draw roads with the Wii remote.  Can we get this on the PC now?",
      "time": "2008-06-25T20:51:03",
      "id": "748779"
    },
    {
      "threadId": "1187398",
      "post": "You only really need to look at the screenshot, not the actual video.",
      "time": "2008-06-13T06:56:18",
      "id": "651989"
    },
    {
      "threadId": "1181489",
      "post": "Hmm, sounds like it might work.  I wish Adblock wasn't so ruthless... the ads you guys have on HM are completely not intrusive, and they're _all_ very relevant.",
      "time": "2008-06-12T21:39:19",
      "id": "649196",
      "parentPost": "Not sure, we were thinking of something sneaky like serving stuff from\r\nads.hypem.com :)\r\n\r\n----\r\nTaylor McKnight",
      "parentPostTime": "2008-06-12T21:30:06",
      "parentPostId": "649127"
    },
    {
      "threadId": "1166799",
      "post": "Putain! C'est la vie!",
      "time": "2008-06-12T04:18:32",
      "id": "643114"
    },
    {
      "threadId": "899368",
      "post": "The guy mentions The Opera in the article.  But I never really got into that.",
      "time": "2008-05-29T20:22:16",
      "id": "552226"
    },
    {
      "threadId": "881841",
      "post": "The story or whatever definitely looks throwaway, but the art style (at least in the screenshots) looks original.",
      "time": "2008-05-29T01:49:08",
      "id": "546286"
    },
    {
      "threadId": "861550",
      "post": "This is a test of the emergency commenting system.",
      "time": "2008-05-28T16:43:41",
      "id": "542654"
    }
  ],
  "profileInfo": {
    "username": "colemanm",
    "about": "",
    "name": "colemanm",
    "disable3rdPartyTrackers": false,
    "isPowerContributor": false,
    "isAnonymous": false,
    "rep": 1.2591789999999998,
    "profileUrl": "https://disqus.com/by/colemanm/",
    "url": "http://colemanm.org",
    "reputation": 1.2591789999999998,
    "location": "St. Petersburg, FL",
    "isPrivate": false,
    "signedUrl": "http://disq.us/?url=http%3A%2F%2Fcolemanm.org&key=_I8fmnoe67YuP9_JjI009Q",
    "isPrimary": true,
    "joinedAt": "2008-05-28T16:35:14",
    "id": "38501",
    "avatar": {
      "small": {
        "permalink": "https://disqus.com/api/users/avatars/colemanm.jpg",
        "cache": "//a.disquscdn.com/uploads/users/3/8501/avatar32.jpg?1437400021"
      },
      "isCustom": true,
      "permalink": "https://disqus.com/api/users/avatars/colemanm.jpg",
      "cache": "//a.disquscdn.com/uploads/users/3/8501/avatar92.jpg?1437400021",
      "large": {
        "permalink": "https://disqus.com/api/users/avatars/colemanm.jpg",
        "cache": "//a.disquscdn.com/uploads/users/3/8501/avatar92.jpg?1437400021"
      }
    }
  }
}