{
  "comments": [
    {
      "threadId": "80753807",
      "post": "From the original post, I would assume that he means via e-mail, at the discretion of the individual contributors receiving them from readers.\n\nI consider it somewhat of an even trade: the amount of time spent each day combing through online comments versus the amount of time spent by authors having to read through each e-mail and deciding which to post. I say somewhat, because each has its own pros and cons.\n\nI also understand the sense of exasperation on both sides on this issue, the editors and the commentators. My personal hope is that things will return to a modified sense of what they are now after the three months has expired.",
      "time": "2010-03-30T13:50:13",
      "id": "42272290"
    },
    {
      "threadId": "80399306",
      "post": "If I may: the commentators in this thread, even knowing that commenting might be completely gone in the next 24 hours, have still remained civil and respectful regarding a topic that, on the whole, they disagree with. It's been refreshing to see this level of discourse on the net. I hope to see it again, someday.",
      "time": "2010-03-29T18:22:37",
      "id": "42141626"
    },
    {
      "threadId": "69306562",
      "post": "Joe, I would add that the Congress is dysfunctional in separate degrees, depending on which chamber we're looking at. The House of Representatives has its own issues, but since there's such a large mix of people combined with smaller voting districts, members are more likely to vote for their constituents and perhaps break with their party.\n\nThe Senate is where the majority of stagnation seems to be these days, as members are more concerned with their own peacock tails and pocket linings than their constituents. The chance of a member actually breaking from the party (whichever party that might be) is horridly low. It's more a club of prestige than a representation of their peers.",
      "time": "2010-02-23T03:11:26",
      "id": "36017086"
    },
    {
      "threadId": "67803109",
      "post": "Patrick, thanks for the link to this story. It was refreshing to read :)",
      "time": "2010-02-18T04:54:42",
      "id": "34986676"
    },
    {
      "threadId": "66863544",
      "post": "Keep in mind that, under most circumstances, it isn't the government that is keeping records on cell phone users, but rather the phone companies. The government's standpoint is that it has a right to view those records, to a varying lack of judicial oversight.\n\nIn essence, then, the conversation needs to be had along two fronts: (1) what line should be drawn for the government to need judicial oversight for viewing such records; (2) what are the stated versus actual reasons for companies to maintain such records? In my opinion, it is the latter of these which needs a stronger spotlight while the former is meted out.\n\nFor example, is there any added benefit to a company in tracking the cell tower usage of millions of customers, individually, over the course of six months versus one? What about call history, or text messages? After all, the government isn't able to access data that no longer exists.",
      "time": "2010-02-15T01:47:12",
      "id": "34230152"
    },
    {
      "threadId": "66710548",
      "post": "DLS wrote:<blockquote>In either case, it'll be defended and you won't hear liberal concerns about an \"Imperial Presidency\" or another \"constitutional crisis.\"</blockquote>Oh, I don't know about that. I consider myself fairly liberal in certain areas, yet also believe the Federal government's desire towards imperialism has stretched across a number of decades. The current Administration and Congress is simply an extension of that tradition.",
      "time": "2010-02-14T03:42:33",
      "id": "34151828",
      "parentPost": "\"Apparently the 'progressives' are hell bent on herding the Lemmings over the cliff\"\r\n\r\nI wonder to what extent that's true about the following, and to what it extent it's just power hunger.\r\n\r\n(In either case, it'll be defended and you won't hear liberal concerns about an \"Imperial Presidency\" or another \"constitutional crisis.\")\r\n\r\nhttp://www.nytimes.com/2010/02/13/us/politics/13obama.html\r\n\r\n",
      "parentPostTime": "2010-02-14T02:53:20",
      "parentPostId": "34150093"
    },
    {
      "threadId": "65534899",
      "post": "Father_Time wrote:<blockquote>Well, that is one way to rationalize away the president’s inability to lead more diversity than one’s plate can carry.</blockquote>I'm not interested in rationalizing anything done in the Federal government. I'm interested in getting to the root cause and either changing it or supporting it, regardless of what labels someone wants to wear or put on someone else. If you are so inclined as to frame matters as \"Democratic vs Republican,\" you are more than welcome to. I won't be partaking.<blockquote>Yes it is a country of two parties. One that’s united and one that is not. As far as \"sheep and celebrities\" well, choose your own rhetoric I suppose.</blockquote>If we are still on the subject of Democratic and Republican, I'll disagree with you - as will a growing portion of the independent voters disenfranchised with either of those groups.",
      "time": "2010-02-10T22:11:47",
      "id": "33477895",
      "parentPost": "",
      "parentPostTime": "2010-02-10T19:52:05",
      "parentPostId": "33459544"
    },
    {
      "threadId": "65630891",
      "post": "PJBFan wrote:<blockquote>Now if we could only get the rest of the corrupt idiots out of the NY State Government...although that would leave open pretty much every position.</blockquote>Keep in mind that it's the Senate, not the Assembly, where most of the squandering of this legislative cycle has occurred. A number of Assembly members are very concerned that they, too, will receive a backlash from voters in the coming elections, even though they had no (or little) part in the soap opera that the Senate became.",
      "time": "2010-02-10T10:59:35",
      "id": "33375804",
      "parentPost": "Thank heavens.  Now if we could only get the rest of the corrupt idiots out of the NY State Government...although that would leave open pretty much every position.  Ahh well, better no government than the idiots in power now.  ",
      "parentPostTime": "2010-02-10T04:09:13",
      "parentPostId": "33352270"
    },
    {
      "threadId": "65343244",
      "post": "A regular theme in life: you don't realize how potent something is or was until its presence is no more. Earlier in life, I would say that much of my persona was developed via my father's influence. It wasn't until later that I realized how very much my mother's beliefs and actions did as well. Luckily, I've had the chance to tell both how valued they've been to me during that process.",
      "time": "2010-02-10T01:11:02",
      "id": "33336233"
    },
    {
      "threadId": "65264327",
      "post": "Father_Time wrote:<blockquote>Yeah, not that there is not an incredible amount of \"bloviating\" right here on this liberal blog site.</blockquote>Oh, I don't know. Compared to a good proportion of news sites, TMV is usually fairly tame in that regard.\n\nI agree with Joe, in the desire to see news outlets actually focus on quality and respect of individuals involved in stories rather than the race to break stories and perspectives as has become the modus operandi as of late. I don't need to see explicit tales of victims' reactions when the reporters don't even know how to portray the broader picture of the event itself.\n\nThis is why, to some extent, I prefer gathering my news online versus watching anything on television. I can skip the flashy tabloid-esque exposes and instead focus more intently on the actual facts at hand. Plus, I don't have to wait for those commercial breaks right before the Big Details are finally explained in the last segment of the show. Bleh.",
      "time": "2010-02-08T23:30:01",
      "id": "33139325",
      "parentPost": "",
      "parentPostTime": "2010-02-08T22:48:37",
      "parentPostId": "33136231"
    },
    {
      "threadId": "65006887",
      "post": "The bigger question: will any alleged issue be a significant enough distraction for the Legislature to be able to pass a watered down version of the ethics reform that's being argued with the Governor's office?",
      "time": "2010-02-08T02:45:53",
      "id": "32977200"
    },
    {
      "threadId": "64129473",
      "post": "Mike9022 wrote:<blockquote>If that's the case, you can just as easily call someone a \"bigot\" because they're opposed to murderers, embezzlers, thieves, and so on.</blockquote>I believe (though I could be wrong) that Father_time is using the \"bigot\" label somewhat tongue-in-cheek, much akin to your last statement. I read it with sarcasm attached, though it may or may not have been there.\n\nAs for Mr. Gibson, I disagree with a number of his personal beliefs, but enjoy most of his movies. Even Disney learns that its \"invincible\" kid stars eventually become human and, thus, flawed.",
      "time": "2010-02-04T23:59:21",
      "id": "32671322",
      "parentPost": "Really, someone is a \"bigot\" because they voice their disapproval of people who have racist and/or anti-Semitic beliefs? I don't think so. If that's the case, you can just as easily call someone a \"bigot\" because they're opposed to murderers, embezzlers, thieves, and so on.",
      "parentPostTime": "2010-02-04T23:27:08",
      "parentPostId": "32667856"
    },
    {
      "threadId": "63042178",
      "post": "Unfortunately, there are very few these days that are willing to practice patience in many things, especially politics and our governing system. Public attitude, which guides the governing system more than vice versa (regardless of what people might like to think) takes time to evolve - even if it seems like it can change in a moment of the evening news. The latter has more to do with the evening news' focus than public attitude.\n\nChange takes time. So do large projects in politics. *soft shrug* So, give 'em a little.",
      "time": "2010-02-01T03:24:10",
      "id": "32256449"
    },
    {
      "threadId": "62194977",
      "post": "I find it interesting that the larger political issues at hand are not being given the credit which is due: the increasing number of Americans which are unaffiliated with any political party, and the low percentage of Americans that participate in election cycles each year. Personally, I'm not particularly concerned with affiliation to parties, but I understand the \"team spirit\" which some wish to follow.\n\nThe larger concern, for me, is the relatively low percentage which participate in voting, whether it be on bond measures, referendums, or, yes, election of politicians. A variety of factors play into this, ranging from inability to reach the polling facilities to apathy. Again personally, I place the fuller amount of blame on the latter. Much talk has been given to alleviate the underlying issues, but few solutions have been attempted and/or realized. This allows for the more vocal members of each established party to have their say, from local voting matters all the way to national.\n\nI bring this up due to the increasing dialogue of the \"warring parties\" within many assemblies of the United States. Would this idea of \"obstructionism\" occur if the notion of public finance were to be established? What if the political structure actualized suddenly what is occurring gradually: the dissolving of the political party structure? Would we, as citizens of societies local and national, be better off by having the Political Party Labels removed from each of our duly elected representatives? Would the representatives themselves benefit, by not having to toe party lines?\n\nIt would, in the least, be interesting :).",
      "time": "2010-01-28T17:16:12",
      "id": "31820067"
    },
    {
      "threadId": "42088517",
      "post": "Tidbits wrote:<blockquote>Your reply included the implication that I believe the girl should be held criminally responsible for her own rape. In your words, \"The young girl who had the misfortune of being targeted in this atrocity: is she also to be implicated of (sic) the crime committed against her?\" That is deeply and personally offensive! An apology is in order. I regret that you haven't the honor to offer one.</blockquote>I shall assume, then, that your answer to my question would be no. Another thing which we agree upon.\n\nAs an aside, what you have quoted from me is, in fact, a question that I posed to you. Were I to have implied, I wouldn't have asked in such a way. I didn't write anything that was misrepresenting you; you read it as if I were. You demand an apology for something I did not do, holding further healthy debates as ransom. It's a rather unfortunate turn of events.",
      "time": "2009-10-28T22:23:30",
      "id": "21216974",
      "parentPost": "No, this is not about agreeing to disagree, something I have done many times.\r\n\r\nYou misrepresented what I said.  Period.  That has nothing to do with your position on any underlying issue.  When you misrepresent what someone said, take responsibility for having done so.    \r\n\r\nYour reply included the implication that I believe the girl should be held criminally responsible for her own rape.  In your words, \"The young girl who had the misfortune of being targeted in this atrocity: is she also to be implicated of (sic) the crime committed against her?\"    That is deeply and personally offensive!  An apology is in order.  I regret that you haven't the honor to offer one.\r\n\r\nIf you take responbsibility for having misrepresented my position, we can have a discussion about the underlying issues.  Until then, you do not warrant the respect necessary for  discussion of those issues.  In my opinion, you are not only cold hearted and insensitive vis-a-vis the incident reported in the article, you are equally insensitive to your own faults and the offense you visit upon others with that insensitivity.",
      "parentPostTime": "2009-10-28T04:29:28",
      "parentPostId": "21156318"
    },
    {
      "threadId": "41077571",
      "post": "Mark wrote:<blockquote>Our absorption with things sexual seems disproportionately obsessive to me.</blockquote>Humans are social, sexual creatures. We can survive without society, without sex, but it is not part of our natural makeup. Further, history has shown that if a society tries to impart a stigma of some fashion on that which is human nature, members of society will, in time, overturn that stigma. If some make a buck or two without harming others, then no harm has truly been done.\n\nNow, as far as \"hypersexualization\" is concerned, I'm of the firm opinion that there's more hyperventilating than anything else. As Leonidas mentioned, we are one of the more prude nations of the world. Other nations have (again, my opinion) rightfully come to the conclusion that more open expressions of sexuality are not only normal, but healthy for their citizenry. Why create a taboo on a subject for which we are supposed to be proud?\n\nI wager that, for every woman that is said to \"dress too scantily\" for Halloween, even more examples can be made of women who don't believe that they are beautiful. These women (and, correspondingly, men) use the \"excuse\" of Halloween to boost their confidence. Why dissuade them? Sure, it could be argued that they can gain confidence other ways. But even David through parties in the streets. After all, humans were also given the capacity for fun and laughter.\n\nTo be fair, I think that one of the sexiest things a woman can wear is a properly fitted sweater and jeans. But that's my heterosexual male mind just doing what it does best :D.",
      "time": "2009-10-23T03:34:02",
      "id": "20835113",
      "parentPost": "Leonidas:\nNo one is arguing about people's rights. At least I'm not. Of course, people have the freedom to choose to wear whatever they wish. \n\nI just find it interesting how we sexualize so many things and then monetize sexuality. \n\nOur absorption with things sexual seems disproportionately obsessive to me.",
      "parentPostTime": "2009-10-23T00:04:44",
      "parentPostId": "20813793"
    },
    {
      "threadId": "36659962",
      "post": "Gadgets should, unless subsidized, be open to running whatever software will work with their operating system and hardware. If PCs are able to run iTunes and play music from the Apple store, then any other hardware that can achieve the same functionality should be allowed as well. A loose analogy would be like trying to restrict mopeds from being able to use the gasoline from a certain station, even though cars and trucks were freely allowed to purchase.\n\nPersonally, I would be highly surprised if the app store for Apple remains under such stringent approval processes for extended periods of time.",
      "time": "2009-09-29T03:43:02",
      "id": "17755798"
    },
    {
      "threadId": "36468495",
      "post": "I don't believe that all cell phone usage should be banned while driving. Used properly (speaker phone or headset), cell phones have about as much distraction as chatting to a passenger. I will grant that some drivers are more prone to accidents during both than others.\n\nI rarely text while driving (a quick, \"on my way,\" while at a red light or such), but would welcome a ban on the practice. Then again, I would also welcome a ban on teenagers driving anything that goes over 35 mph, but that's me :).",
      "time": "2009-09-28T05:29:26",
      "id": "17703514",
      "parentPost": "I'd love a ban on texting and cellphone use by all drivers.  If its that important, pull over, stop,  and don't endanger other drivers.",
      "parentPostTime": "2009-09-28T03:44:36",
      "parentPostId": "17701478"
    },
    {
      "threadId": "34444418",
      "post": "If anything, this \"slip\" is going to help the President's image aside from a few areas of the public. No real harm done, and nothing that they have to apologize for. If he does, in fact, apologize for use of that language, then we've gotten way to politically-correct than needed.",
      "time": "2009-09-16T02:50:13",
      "id": "16693773"
    },
    {
      "threadId": "34129237",
      "post": "Austin wrote:<blockquote>If you are implying it was a book by Glenn Beck, wrong answer!</blockquote>I was stating, not implying. Glenn Beck currently holds the #1 spot for paperback non-fiction. Michelle Malkin holds the #1 spot for hardcover non-fiction. If it is not these two, then which non-fiction might it be?\n\nBy the way, I don't accept books of mythology as non-fiction. As such, the Christian Bible, Koran,  Tanakh, Sruti, or a dozen others don't apply.",
      "time": "2009-09-15T12:44:21",
      "id": "16622583",
      "parentPost": "If you are implying it was a book by Glenn Beck, wrong answer!",
      "parentPostTime": "2009-09-14T11:19:02",
      "parentPostId": "16571700"
    },
    {
      "threadId": "34025833",
      "post": " Gegenschattenbild  wrote:<blockquote>Unless maybe you're someone who works at an abortion clinic.</blockquote>I agree and yet I disagree. Those who protest peacefully are not one and the same with those who act violently and take life. There are extremely significant differences in the mindsets between the two.\n\nI'll go one step further, in saying that abortion-clinic murderers are still not of the same ilk as the Taliban: they do not disagree with over 75% of the modern American mindset. Yes, they are still murderers and thus wrong, but the focus of one who murders over abortion is different than one who murders over ethnicity or even levels of education.\n\nI have to take a moment to explain that, for few things in life am I adamant about one's usage of labels or words in politics; it is what it is, and hyperboles abound. However, throwing around the mark of \"Taliban\" (as with other labels) dilutes the real issue while exaggerating the lesser one being discussed. It is because of this that I can't accept a mixing of the two.",
      "time": "2009-09-14T03:06:26",
      "id": "16556672",
      "parentPost": "Unless maybe you're someone who works at an abortion clinic. ",
      "parentPostTime": "2009-09-13T10:57:59",
      "parentPostId": "16533639"
    },
    {
      "threadId": "32794597",
      "post": "I wish that I needed a permission slip when younger, for having my parents force me to watch most State of the Union addresses - and that was after school, in the safety of my own home. I would have loved, at that point, to have been able to skip the political science lesson and focus more on my own interests. For me, the President was just a stodgy old guy talking to other stodgy old people who clapped every now and then.\n\nNow that I'm a little closer in age to that \"old guy,\" and directly due to my having watched so many speeches that I didn't want to, I have a much better appreciation for what's going on in my country, and its government. It also taught me a valuable lesson: I may not agree with what your speech says, but I'd be a damned bit better off hearing it and scowling than smiling as I pretended it never happened. Ignorance may be bliss, but intentional stupidity is just plain... stupid.",
      "time": "2009-09-04T22:37:13",
      "id": "15998342"
    },
    {
      "threadId": "32296534",
      "post": "DLS wrote:<blockquote>The celebrity or tabloid aspect of it is what is disgusting, as well as the whiff of anti-children radicalism here.</blockquote>Far from it, actually. I adore children; that doesn't mean that I want to try to repopulate the earth within two family generations. Moderation. It's a good thing.",
      "time": "2009-09-02T18:17:10",
      "id": "15773692",
      "parentPost": "The celebrity or tabloid aspect of it is what is disgusting, as well as the whiff of anti-children radicalism here.\r\n\r\n",
      "parentPostTime": "2009-09-02T17:34:18",
      "parentPostId": "15770467"
    },
    {
      "threadId": "30708859",
      "post": "Good on them. Undoubtedly news which we'll hear about on Prairie Home Companion.",
      "time": "2009-08-22T00:26:42",
      "id": "15216360"
    },
    {
      "threadId": "30553283",
      "post": "Leonidas, I would agree with this sentiment. I would even go one step further, in stating that I would be willing to pay more taxes if my lifestyle choices required a government-funded health care option to have to pay more for correcting those choices.",
      "time": "2009-08-21T11:02:24",
      "id": "15187201"
    },
    {
      "threadId": "30472794",
      "post": "DLS's politicizing attempts aside, the four websites which were on display in the original post are more indicative of the way tools have changed in journalism than journalism itself. An investigative journalist - whether they be considered professional or amateur - is now able to more easily gather information on a given subject than ever before. I've used at least two of those sites, myself, to find new information on current topics. \r\n\r\nPerhaps this, more than anything, is where journalism is changing once more. Before the Associated Press and other conglomerates, local news would allow for independent reporters or citizens to investigate stories. The editor's job remained somewhat the same as now: verifying the information present. Over time, the staff reporter was all that was allowed in the paper.  Now, however, that scheme isn't held as acceptable by a growing number of readership. For that matter, the same can be said true for viewership of the last journalistic trend: television.",
      "time": "2009-08-20T18:48:06",
      "id": "15140589"
    },
    {
      "threadId": "30062228",
      "post": "superdestroyer wrote:<blockquote>Why should someone who gets up and goes to work have exactly the same healthcare benefits as those of the welfare class, illegal aliens, and those who refuse to work?</blockquote>\n\nThese are important questions. So, too, is the question as to why someone who works 3 jobs cannot have health care benefits at all? Or, perhaps someone who works 1 job, salaried at 50 hrs/wk, for a small employer who can't afford to provide health care? What about children, who aren't eligible to work?\n\nExamples can easily be made on the extremes of issues, like health care, on why reform is a good or a bad thing. However, somewhere in the middle is a much more agreeable area than what is touted by the vocal minorities on each side.",
      "time": "2009-08-18T13:51:56",
      "id": "15009020"
    },
    {
      "threadId": "29893204",
      "post": "I wouldn't exactly call the health care debate a defeat for Obama, considering it's still ongoing. There will at least be some sort of health care reform legislation passed this year, of which wouldn't have come to fruition if the Administration kept quiet on the issue. It's the typical politics of asking for 30 when you really only want 10. As it stands, he and others are still going to end up with something around 12-15, which is still above what was considered feasible even three years ago.",
      "time": "2009-08-17T00:22:16",
      "id": "14924161"
    },
    {
      "threadId": "28732504",
      "post": "Paraphrasing one of my friends at a park, \"Don't you think that selling cornsticks to kids should be outlawed? It's entirely too suggestive. Not to mention all the other foods they sell here.\"\r\n\r\nMind you, he said this sarcastically, as just about anything can be taken any which way the observer chooses. Shall we discuss Barbies, or Teletubbies, or what about fountain pens? Water slide parks, hot dogs, summer squash?\r\n\r\nOf course not. Let it go, Silhouette. There are other, more important issues that children face in their lives that we can change, right now. The name of an ice cream truck really isn't one of them.",
      "time": "2009-08-08T15:40:12",
      "id": "14489641",
      "parentPost": "Oh I get it, advertising homosexuality to their main clientele: children.\r\n\r\nMaking the rainbow and ice cream [something you lick and stick in your mouth] synonymous.  Interesting.  Frued would have a field-day with the subliminal symbolism.\r\n\r\n",
      "parentPostTime": "2009-08-08T13:32:50",
      "parentPostId": "14471478"
    },
    {
      "threadId": "28438863",
      "post": "I've had various ex-girlfriends tell me that I might have one psychological disorder or the other, depending on what mood strikes their fancy. Secretly, I harbour thoughts that my attraction to such women might be the disorder itself, hiding in plain sight. Of course, no one has tried to stopped me being attracted to them. Maybe I'm not trying hard enough.",
      "time": "2009-08-06T03:01:49",
      "id": "14017121",
      "parentPost": "Are you serious?\r\n\r\nThe APA said in 1975 that homosexuality is not a psychological disorder. It's not a psychological disorder; it's not chosen behavior or lifestyle; it's not changeable; and it's no more \"abnormal\" than having blue eyes (as I do) or being left-handed (as I am).\r\n\r\nHomophobia, however, is a different story. I don't believe that homophobia is a psychological disorder, though. I think it's a dysfunctional learned thinking pattern that develops over years of environmental exposure. Richard Rodgers' <a href=\"http://www.stlyrics.com/lyrics/southpacific/youvegottobecarefullytaught.htm\">expression of this idea</a> is still one of the best. (Rodgers, although undoubtedly a wise observer of human nature, should not be confused with <a href=\"http://en.wikipedia.org/wiki/Carl_Rogers\">Carl Rogers</a>, the well-known psychologist who founded the humanistic, or individual-centered, approach to psychology.)",
      "parentPostTime": "2009-08-06T02:29:49",
      "parentPostId": "14015101"
    },
    {
      "threadId": "22012318",
      "post": "Jeremy wrote:<blockquote>If you doubt my wisdom, try challenging your drill instructor, run a red light in view of a police car or fail to file your income tax returns. Life isn’t always fair on you terms.</blockquote>\n\n...all circumstances that have little to do with a graduation ceremony. You can bet that, were I to blow a kiss at my mother and be deemed ineligible for graduation due to it, my mother and father (who are divorced), extended family, and half of the school would have been in an uproar over the incident. Will it now be considered indecent to wink at the crowd, as it, too, is an unplanned gesture?\n\nDuring my eighth-grade graduation ceremony, we were also given a set of rules. One of those was to wear a suit and tie (for the boys). I obliged - with a black suit and hawaiian-themed tie. The principal, unamused, could do nothing. If it were not for the conversations that she had previously had with my (and other) parents over the rules of conduct, I'm sure that she would have held onto that diploma tighter. But, unlike Mr.s Lukas it seems, she knew how to act like an adult and take it in stride.",
      "time": "2009-06-17T18:44:43",
      "id": "11055775"
    },
    {
      "threadId": "21894582",
      "post": "CS: Free speech doesn't mean that the library or auditorium will be available any time that you want to use it. It simply means that you can complain about it to the closed sign on the door instead of inside the building.\r\n\r\nIf what you have to say has any merit to it, I'm fairly certain that you'll find another avenue to express it should one of several not be available to you at the time. Otherwise, it really wasn't that pressing.",
      "time": "2009-06-16T23:09:29",
      "id": "11021737"
    },
    {
      "threadId": "21675644",
      "post": "Putting the political aspect of a single country aside, for the moment, I've been pleasantly surprised at the impact of the Internet in this development. Cell phones, international television, radio, and many Internet sites have been shut down or otherwise blocked by the national (Iranian) government. Protesters, and even some supporters, are now using newer technologies to organize communications both in and out of the country: Twitter, web blogs, Internet proxies, etc. As some of these sites are blocked, other avenues are being created by foreigners to keep the lines of communication open.\r\n\r\nTime has shown, again and again, that the younger generations will yearn for some sort of change if they are given the chance - thus the reason why many political rallies and activist groups target younger people. The more successful, long-term organizations realize that the seeds of change are planted in the first or second wave of followers, who become more accepting older generations as time passes.\r\n\r\nStepping back into Iranian demographics, roughly 70% of the population is at or under 30 years of age. If even a quarter of this group is participating in the protests, that means that 17% of the population will grow older and accepting that change is necessary for their country. Should nothing change, and suppression still follow, I would wager that those seeking change would only increase in time.\r\n\r\nAn interesting case study between Tehran and Tiennenman could be made, as one of the key differences between the two situations is the degree of communications available in either situation. In the former, stories are being relayed every second; for the latter, stories are still being discovered decades later. The effect of this, alone, can make things quite difficult for those in power to spin different versions to their benefit.",
      "time": "2009-06-15T14:59:24",
      "id": "10931836"
    },
    {
      "threadId": "17183286",
      "post": "Silhouette began with:<blockquote>Add that to the fact that gay culture factually seeks to recruit [see my post above discussing gay events thrown and advertised towards \"bi-curious\" youth],</blockquote>\nActually, it can easily be demonstrated how homosexual culture \"factually seeks to recruit\" as well. Boiled down to the similar thread that weaves between the two, humanity's sex drive seeks to recruit. After all, regardless of the target to our desires nor the reasoning behind them, they are (quite simply) desires. In order to achieve the goals that most sex drives exhibit, you have to recruit someone, somewhere :).\n\nThe above was concluded via:<blockquote> you have a problem with how deviant marriage being mainstreamed will affect future populations.</blockquote>\nIt's in humanity's better interest to stop the exponential population growth that it's currently experiencing, given the continual strain on food and other resources. This is not to say that a reduction in numbers is preferred, mind you, simply that not all marriages require offspring these days in order to maintain the human race's survival. This is already seen in heterosexual marriages, where procreation is not deemed necessary. On the other hand, there are multiple instances where gay, lesbian, polyamory, or other relationships do produce children.\n\nIn other words, the population seems to be handling itself quite well these days.",
      "time": "2009-05-03T03:41:57",
      "id": "8947176",
      "parentPost": "No polimom, that IS the debate since homosexuals are arguing \"descrimination\" as the basis for their pleas to be allowed to marry.  Adopting a cultural behavior during puberty does not a \"minority group\" make.  But even if it did, we must look at the fact that if sexual-preference is learned, it follows logically that it can also be taught.\r\n\r\nAdd that to the fact that gay culture factually seeks to recruit [see my post above discussing gay events thrown and advertised towards \"bi-curious\" youth], you have a problem with how deviant marriage being mainstreamed will affect future populations.\r\n\r\nIt is as if men are suddenly campaigning to be allowed in women's bathrooms or vice versa.  Deviant is deviant, hetero is hetero and we shouldn't blend the two definitions by melding of one into the other.\r\n\r\nThe majority of voting americans believe that hetero sex is the only normal sex there is [nature supports this theory as well...nevermind religious opinon for which has little weight in american politics].  Sex is a behavior, not a physical trait.  Gender is a physical trait.  Black skin isn't a behavior, it's a physical trait.  Judiasm is a faith, a philosophy, not a behavior.\r\n\r\nHuman behavior is contagious...it really is, whereas no one can \"catch\" a darker skin color or \"catch\" the need to not eat pork.  Sexuality is a very animalistic behavior that is malleable and complex...not fully comprehended though many studies do have data on it as being acquired.  An entire industry banks on the malleable fixation of sexual preference and it's that potential to be reflexively fixated and \"permanent\" that we should pay very close attention to when playing with social fire of normalizing a behavior that patently isn't normal..",
      "parentPostTime": "2009-05-02T18:51:24",
      "parentPostId": "8934115"
    },
    {
      "threadId": "14032847",
      "post": "I'd love to see some of the ideas for replacing inflatable tires come onto the marketplace. Would probably halve the number of calls due to breakdowns on the road.\r\n\r\nThat aside, the household couch could use a rewrite. Get some sturdier materials, and you've got a lot more storage space than you'd otherwise expect. Or perhaps something more convertible, or other ideas here and there.",
      "time": "2009-03-20T04:46:11",
      "id": "7366540"
    },
    {
      "threadId": "9077499",
      "post": "I've smoked for close to 12 years. On the high end, I would smoke 3/4 of a pack a day. Typically, however, I smoked 3-5 cigarettes a day. These days, I smoke maybe a cigarette or less a week. About once a month or so, I'll smoke from a (tobacco) pipe for idle amusement. (My friends that smoke more often label me as a non-smoker or \"pseudo-smoker\".)\r\n\r\nMy body enjoys the sensation of the nicotine, but my throat prefers that I stay away from the things. As with anything else of that nature, it's a matter of self control and moderation: I've made the adult decision to enjoy them, and the equally adult decisions not to over-indulge and accept the consequences thereof. Some people prefer different paths - either to quit completely or smoke more.\r\n\r\nAs Jerry wrote, if the President of the country is able to make the country's citizens safer, more prosperous, and more healthy... who cares if he himself smokes a few cigarettes now and then? I'd rather have someone with a few minor health issues and wise decision-making at the helm than someone in perfect health but with poor decision-making skills. C'mon now.",
      "time": "2008-12-30T00:43:07",
      "id": "4735436"
    },
    {
      "threadId": "5160879",
      "post": "Jim, I've been living with extremely little credit for the past 7-10 years. Every apartment and house I've rented has been done via cash deposit or otherwise. Most purchases are for full amounts or down payments with payment plans. For the most part, I've lived within my means, which varied between $15-40k/year.\r\n\r\nIt's not as comfy as amassing good credit ratings. You don't get the flashy car you want right away. That nice leather coat will have to wait until next year. Some repairs, you learn to do yourself instead of charge them to a handyman. Sometimes, you have to make hard choices and give up things you like (to take up again when you can).\r\n\r\nPeople will suffer, I agree. For a time, I did. Being financially strapped isn't that grand. Families will lose their homes. Some families won't have as much money for food. Belts will be tightened.\r\n\r\nBut... American society as a whole can and will change in the face of it. Families might move in together after being apart for a while. Maybe they'll cook at home more often to save money. Kids will have to use their imagination instead of instant gratification. Those aren't bad requirements to have in life again.",
      "time": "2008-09-30T03:44:32",
      "id": "2744656"
    },
    {
      "threadId": "5020479",
      "post": "I'm a mix of liberal and conservatism when it comes to fiscal issues in government. I don't like this bailout, and I'm roughly 90% against it. There are other issues, and other sectors, in the economy that could use a boost before the largest corporations get their fill.\r\n\r\nWhat happens to the small businesses of 100 or fewer employees? Don't you think that they've had a tough time... for the last 3 or more years? This isn't a new situation of the past 5 weeks. If anything, large corporations should have been prepared for it better than anyone else, given their assets. Help the others that couldn't.\r\n\r\n1. Provide short-term, bankrupt-proof loans of $5-15k to small businesses with 2% finance fees over the course of 1-5 years.\r\n\r\n2. Provide medium-term, bankrupt proof loans of $25-$50k to small or medium (100-250 people) with 4% finance fee over the course of 5-10 years.\r\n\r\n3. Provide an emergency family loan of $250-$1k at 0% financing over the course of 1 year. If it's paid off, families are eligible for repeat loans. Continue this program for 5 years. If need be, up financing to 0.5%.\r\n\r\n4. Expand federal school loan programs to encompass students of any age (for those losing jobs), and at longer payment schedules if needed.\r\n\r\n5. Finance a public works programs for roads, bridges, and other infrastructure needing repair. Limit contracts to same-state companies and local workers as the first priority, with price secondary.\r\n\r\n6. Provide some system of protection where people 55+ can transfer their retirement funds from the stock market to government bonds without facing the threat of taxation during said transfer.\r\n\r\n7. Let the stock market self correct.\r\n\r\n8. Let the greedy large corporations lose their money and hold on America.\r\n\r\n9. Let Americans grow up and do the hard work of cleaning up the crap their government created when Americans got a bit lazy themselves.",
      "time": "2008-09-26T03:02:09",
      "id": "2636098"
    },
    {
      "threadId": "4932868",
      "post": "Good. I'm glad to hear that. Hopefully, a second trial will be granted.",
      "time": "2008-09-24T01:31:36",
      "id": "2554201"
    },
    {
      "threadId": "4437333",
      "post": "Many of the media spots that I read or listen to are discussing the rarity of policy discussions in this campaign. With hope, the result in this recent spate will be that the media will wake up and provide/research what they've been complaining about lacking.\n\nFrom DLS:<blockquote>The Obama campaign (and after the statement, the media) is the party at fault here. Let's not mischaracterize the situation, Dennis.</blockquote>\n\nHow about we just let the situation go? Seriously... do you want to debate actual positions on Iraq, Afghanistan, education, etc.? DLS, are you saying that this issue is more important than those?",
      "time": "2008-09-11T19:58:52",
      "id": "2290952"
    },
    {
      "threadId": "4419270",
      "post": "From jwest:<blockquote>What information in the article is not accurate?</blockquote>\r\n\r\nThis is the wrong question to ask, as Sarah Palin's initial wording on this subject was, \"I told Congress thanks but no thanks on that Bridge to Nowhere.\" Her phrasing implies that she was the decision-maker on the federal funding on the bridge, when, in fact, that decision against funding had already been made without her input.\r\n\r\nNow, I will grant you that the actions following that decision by Congress are good to know, and provide some more insight into the situation than is generally known... but, as it was originally phrased and introduced to the public, Sarah Palin was at the least lying via omission and crafty wording.",
      "time": "2008-09-11T14:39:06",
      "id": "2284715"
    },
    {
      "threadId": "4400857",
      "post": "I had seen this bit earlier in the day, from Chris Matthews. I made sure to send a message to his show in appreciation for those views expressed. More journalists need not only wake up to what's going on with these \"window dressing\" issues, but do something about it.",
      "time": "2008-09-11T00:34:58",
      "id": "2275438"
    },
    {
      "threadId": "4366255",
      "post": "Well, I suppose that there's a pot (marijuana) at the end of the rainbow (gay pride) in this issue, where come hell (religious connotations) or high water (New Orleans), any good Samaritan (religious preference) can get stuck up a blind (medical impairment) alley (class warfare) simply by shooting (NRA) straight (homophobic) instead of walking on eggshells (embryos).\r\n\r\nAfter all, who wants to debate policies when matters more important to fifth graders than their parents can be bantered back and forth? It's not like health care, war, recession, or growing illiteracy are anywhere <i>near</i> as important.\r\n\r\n</end sarcasm>\r\n\r\nSure, politicians need to grow thicker skins. But I turn that back on the electorate, as well: grow up. Otherwise, neither will your representatives.",
      "time": "2008-09-10T03:06:20",
      "id": "2255448"
    },
    {
      "threadId": "4349481",
      "post": "Thank you for that, Dorian. I ride a motorcycle for 95% of my travel, so this is very important information.",
      "time": "2008-09-09T16:03:06",
      "id": "2246868"
    },
    {
      "threadId": "4317430",
      "post": "From jwest:<blockquote>It wouldn’t matter if I joined with you and D.E. to deny the flag story at every opportunity.\r\n\r\nIt doesn’t matter.</blockquote>\r\n\r\nActually, it does. The reaction(s) of yourself, and others, to stories presented by the media is exactly what matters.\r\n\r\nFor quite a long while, I listened to various reports and read articles online on how public representatives were deceiving, or otherwise manipulating, the public. My standard response had been to conduct research for my own intellectual gain, and rarely participate in political conversation with others - if only because I was more interested in hearing their views and trying to understand their rationale. At that point in time, I would have stated what you just wrote (and probably have in the recent past).\r\n\r\nI then came to realize how disingenuous this position was... to myself. By silently allowing misconceptions to flow through a dialogue, I was letting myself down on one of the goals I have for personal growth: accepting the reality of every situation instead of ignoring.\r\n\r\nNow, I will agree with you that the impact of both you and I stating to others that this particular story is untrue might be very little at this point in time. The question, then, is if such knowledge also correlates into less value in such a situation for yourself as a person in standing up against something you know to be untrue. For me, the cost of taking 30 seconds to attempt a correction of someone's knowledge in this area is fairly minimal compared to what I'd be giving up.\r\n\r\n(Two notes: I'd say this just as much about a story promulgated by the one political group as another. And, on an amusing tone, I don't carry a soap box with me just in case the couple behind me in the store are muttering privately to themselves about it... my family wishes that extended to them at times ;).)",
      "time": "2008-09-08T21:36:25",
      "id": "2237712"
    },
    {
      "threadId": "4306597",
      "post": "From DLS:<blockquote>Now he (with no executive experience, unlike Palin, and little in Washington) is touted (Biden is clumsily ignored) as \"the one with experience.\"</blockquote>\r\n\r\nIn all fairness, it is interesting that you \"clumsily ignored\" John McCain's lack of executive experience in that same thread of thought.\r\n\r\nThere are enough difference between the actual candidates for President, Barack Obama and McCain, than to spend time on non-issues such as these. Our last Governor-turned-President was George Bush. Is this really a line that the Republican Party wants to encourage?",
      "time": "2008-09-08T15:01:56",
      "id": "2230887",
      "parentPost": "\"democrat’s diss of small town mayorship\"\r\n\r\nWhich, of course, failed among the intelligent to evade the real issue, that Palin has executive experience, not only as a mayor, but as a _governor_, the most relevent kind of experience for someone in a leadership position in the executive branch of the federal government, the kind of experience of which Obama has none -- \"ZERO.\"\r\n\r\nObama has been touted as having as an _asset_ that he is inexperienced in Congress, that he is not a fixture or establishment figure there -- until the selection of Palin by McCain for Vice President.  Now he (with no executive experience, unlike Palin, and little in Washington) is touted (Biden is clumsily ignored) as \"the one with experience.\"  Poof!  Another Obama campaign reversal of position presents itself.\r\n",
      "parentPostTime": "2008-09-08T13:45:25",
      "parentPostId": "2230020"
    },
    {
      "threadId": "4252487",
      "post": "From superdestroyer:<blockquote>It is hard to argue that Repubicans are the ones who want to do away with the First Amendment when it is the Democrats who want to...</blockquote>\r\n\r\nBoth parties, when in their interests, want to limit transparency and/or knowledge amongst the electorate in order to further those interests. It isn't exclusive to either, and is a well-known and historied tactic. The individual methods may vary as much as the interests themselves, but the underlying theme remains universal.\r\n\r\nPublic officials - which includes every government position from local street cleaner to President - sometimes forget that such jobs are meant to serve the people's interest of the district that empowered them. Freedom of speech, of the press, and expression comes in waves depending on how solid those officials believe their job security and grasp of \"power.\"\r\n\r\nIs it any surprise that both major parties court the growing independent voting \"bloc\" as much as they currently strive? Again, the methods may vary, but the goal between the two parties remains the same: re-/establish their authority over said electorate.",
      "time": "2008-09-07T06:38:11",
      "id": "2193790",
      "parentPost": "It is hard to argue that Repubicans are the ones who want to do away with the First Amendment when it is the Democrats who want to regluate political speech, who want to limit the quantity of speech, who want to use the MSM as gatekeepers on the media, who want to bring back the fairness doctrine in order to elimiante conservative speech from the airwaves, and who want to use hate crime laws to limit individuals abilityto petition the government \r\n\r\nIn the real world, the nanny state in incombatible with free speech, free press, and free assembly. \r\n",
      "parentPostTime": "2008-09-07T00:09:25",
      "parentPostId": "2190033"
    },
    {
      "threadId": "4251790",
      "post": "From www.usa-flag-site.org:\n<blockquote>Furthermore, many municipalities have contacted USA Flag Site for what they should do with unserviceable flags. The only definitive answer is found in the US Flag Code. TITLE 4 > CHAPTER 1 > Sec. 8(k). It states:\n\n\"The flag, when it is in such condition that it is no longer a fitting emblem for display, should be destroyed in a dignified way, preferably by burning\"</blockquote>\n\nWhich begs the question: which would have been the bigger story, finding unused flags near a dumpster, or burning unused flags after festivities?\n\nOn a personal note, I used to be a Boy Scout, and was allowed to be a flag bearer during my early school years. We brought the flag in at the notion of rain, or snow. The flag, today, has been commercialized much more than I would prefer to see. \n\nUnder such circumstances, where you can buy a $.50 flag for your car's bumper, such things are still undesired, but also unavoidable. I'd like to see us make a pass back to the olden times... but then, there are a lot of things I think of on that, and doubt just as much it will come to be.",
      "time": "2008-09-06T23:46:25",
      "id": "2189855"
    },
    {
      "threadId": "4194436",
      "post": "Shaun, I'm a little left of center in my beliefs as well... but don't think that a main post on this observation was entirely necessary. Given the presence that blogs have on the internet today, most readers are accustomed to adverse statements in the comment sections - especially political blogs.\r\n\r\nLet's look at this from a different perspective. I'll assume, for the moment, that your goal is to shift the nature of political discussion and actuality more to the left, liberal viewpoint. I'm also going to state, for the sake of this conversation, that the validity of whether commentators are trolls is from your perspective. I may or may not agree (as would others), but that's besides my point.\r\n\r\nIn some of the comment sections that I've read in the past week (at least), those supporting the right, conservative, viewpoint have lamented that TMV has strayed a bit in its goal to provide balanced reporting in favor (or quantity) of more progressive contributors. In this, I see your goal already achieving ground.\r\n\r\nNow, here's where it gets sticky, for that goal. In authoring a main article such as the above, you're (from this reader's perspective) distracting and devaluing your own message by paying attention to something that shouldn't matter in the first place. Indeed, some readers probably never pay attention to the comment system. Conceivably, your public attention to the matter may even pique the interest of other conservative commentators, who then register on the site and increase the quantity and/or quality of those disagreements.\r\n\r\nAs a final possibility (and I write hypothetically, here, so please keep that in mind), Joe Gandleman or other main contributors to the site might read that article and say, \"Hey, you know, maybe we should have a few more conservative writers than we do right now.\" I don't presume to know Joe's thought process on this issue, but I bring it up as a possible hinderance to your political goal, as I stated as assumed above.\r\n\r\nPersonally, I'm all for ignoring trolls and ad hominem attacks. Having experienced flame wars on usenet, chat, and blogs for the past 10 years (generally as a commentator than main author), I'd much prefer to see them put to pasture... rather than given the limelight or my time - neither of which they probably deserve.",
      "time": "2008-09-05T13:50:41",
      "id": "2142975"
    },
    {
      "threadId": "4193571",
      "post": "Among the many questions I would like to have answered by both Sarah Palin and Joe Biden, chief amongst those is, \"What do you want to achieve as Vice President?\" Second on that list is, \"Have you discussed with <running partner> what your duties will be?\"\r\n\r\nKeep in mind, I understand that there are constitutional roles for the Vice President. I'm not talking about those duties, but rather the extended roles that each President has decided to grant their VP.",
      "time": "2008-09-05T13:04:14",
      "id": "2142436"
    },
    {
      "threadId": "4192274",
      "post": "I can see the ad benefiting Bill Gates' persona... but so far it does nothing for me in regards to Vista. Sure, there might be a longer narrative at play with this series... but the opener would have caused me to change the channel.",
      "time": "2008-09-05T12:38:47",
      "id": "2142211"
    },
    {
      "threadId": "4156050",
      "post": "There are two tags included for this post: satire, humor. Just as if I were to read a similar article on Biden, Obama, Bush, or Clinton... they're meant to be taken lightly, so I judge them through that lens. Not everything in politics has to be serious (thankfully... otherwise we'd all be Gore or Dole).",
      "time": "2008-09-04T21:37:34",
      "id": "2125483"
    },
    {
      "threadId": "4126616",
      "post": "From Leonidas:<blockquote>Downside of being a forceful woman, the liberals will absolutely hate you because they have convinced themselves that only a liberal woman can be independent and forceful.</blockquote>\n\nOh, I don't know about that. Coming from a family full of independently thinking, strong-willed women, you don't tend to develop the illusion that such traits are inherent to one political persuasion or the other. Plus, having been in the South for over ten years, I've had much more liberal friends than I admire those traits in conservative women as well - if perhaps grudgingly :).",
      "time": "2008-09-04T08:14:27",
      "id": "2102453"
    },
    {
      "threadId": "4123665",
      "post": "From redfish:<blockquote>I'm not new, I know that the goal of the moderate voice, instead of being centrist, is to have people from across the spectrum, but when I read here, I almost uniformly find the blog posts left of center.</blockquote>\r\n\r\nI agree that the current trend of active bloggers at TMV tends to be a bit more to the left of the spectrum. There are a couple of posts here and there that are far to the left, and I tend to wince at those as much as I would any that were from the far right.\r\n\r\nWhat I particularly enjoy at TMV is the fairly decent level of discussion about those posts that happens in the comment section. As the election grows nearer, the quantity has picked up quite a bit from what I'm used to... but I still value not being called various terms from either fringe when I add my input. Besides, life's too complicated to let one label define you ;).",
      "time": "2008-09-04T07:49:09",
      "id": "2102357"
    },
    {
      "threadId": "4099687",
      "post": "From Leonidas:<blockquote>As long as some states had abortion available it would be inconvienient but folkes could go there if they felt strongly about having an abortion. If they couldn't be troubled to drive a few hundred miles, or hop on a plane, they proably didn't feel strongly about it anyhow.</blockquote>\r\n\r\nThis restricts the options for those that cannot afford to drive those miles or hop on a plane, specifically the lowest to lower middle class families and individuals. Limiting abortion rights to those that can brings an economic injustice in one of the more basic abilities, namely family planning.\r\n\r\nFrom DLS: <blockquote>The correct terms are \"pro-abortion\" and \"anti-abortion\"; \"choice\" has been the weasel word of choice by those who prefer euphemism and evasion in the form of imprecision through over-generality.</blockquote>\r\n\r\nWhile this is true, the same can be said about the use of \"pro-life\" instead of \"anti-abortion.\"\r\n\r\n\r\nA strong sense of duty towards family and the decision for abortion aren't mutually exclusive to each other. Personally, I would like the energy shown by both sides of this debate to shift their focus to solving our adoption/foster problems before more children are brought into such situations as they exist now. Unfortunately, it seems that arguing about potential children is more newsworthy than benefiting the ones we already have amongst us.",
      "time": "2008-09-04T00:41:53",
      "id": "2095371"
    },
    {
      "threadId": "4066327",
      "post": "When it comes to national politics, I try to look at any and all information that I read from two perspectives: how I personally feel about it, how the general population might feel about it. Granted, one I have a bit more authority over than the other in that speculation, but that's what makes conversation about national politics interesting.\r\n\r\nMy original response was intended to discuss the impact that this issue will have on the general electorate. As we've found via other politician's \"possible links\" to controversial issues, the link itself can sometimes itself be immaterial as long as it exists. Often, it doesn't even have to reach that threshold. That Sarah Palin has a link (and, if it is her husband, it is a close one in the eye of the general public) to a secessionist party in Alaska is one of those controversial issues.\r\n\r\nAs you've said, there are often very different ways to look at secession. Other places are the same, like in Taiwan (where my brother lives). How the methods vary only changes the severity that any possible impact might have on a politician.",
      "time": "2008-09-03T15:16:14",
      "id": "2030556",
      "parentPost": "And I was asking about how they propose to achieve their secessionist desires, through violence or peaceful means. I do thinks there is a HUGE difference (as one technically is treason, the other is not).\r\n\r\nI also said I wasn't in the mood to check, and wondered if anyone knew, so calling em lazy doesn't hurt my feelings on this; I already announced I was being lazy.\r\n\r\nAs for the Hawaii secessionists, there are two groups, one that recently took over Iolani Palace by force (again), and one that has tries to use the courts. Their is a difference in the Hawaii movement, I believe, as even the legal-strategy has, at its core, the desire to sever all ties to the US, and deny citizenship to all people of non-Hawaiian ancestry, and restore a Monarchy where the Ali'i (ruling class) own all the land, and the Maka'ainana (commoners) are barely more than surfs.\r\n\r\nNow, you state 'any possible link'. Well, if her husband, or other relatives, were active members, that is still immaterial. If she herself was an active member and has not since denounced that position, or maybe was in a position of authority, that would be a different matter.\r\n\r\nAnd please do not think of me as a Palin supporter. I have been clear from the beginning that IMO this choice was a huge mistake.",
      "parentPostTime": "2008-09-03T13:27:44",
      "parentPostId": "2029247"
    },
    {
      "threadId": "4048983",
      "post": "CStanley, I'm enjoying the extended conversation... thank you.\n\n<blockquote>Virtually all politicians would answer 'yes' to keeping the current prohibitions on hard drugs, for example, but I wouldn't call into question their sincerity on that belief if their children were in rehab.</blockquote>\n\nThere is a difference between being arrested for possession or usage of hard drugs and being in rehab for usage of said drugs. Not to equate the two morally, but pregnancy is not rehab for sexual activity - it's getting caught by life's consequences. A politician that literally brings their child to the stage when they run is implying that they raised that child upon the beliefs that they are publicizing. If a child is caught directly opposing that belief system, then the fact that they have done so should also be made public as a refutation of the implication that the politician offered.\n\n<blockquote>Peter, of course the analogy you use is frivolous though, because kids dying their hair doesn't involve moral questions that potentially involve killing a human being, if one believes that a fetus is a human being. That's why there's no comparison; people who are prolife can't condone the 'choice' of abortion because we believe that killing is involved.</blockquote>\n\nI wasn't talking about abortion in any sense during that example, but rather the support of abstinence-only sexual education. Sarah Palin has supported abstinence-only programs in schools. One would assume that this is a practice that she's espoused in her private life, as well (otherwise, she's being hypocritical, which is not the point of my argument).\n\nThe conscious decision by Palin to place her children on stage with her, in front of the media, actively invites scrutiny over whether or not those children have followed the belief system that Palin has implied she has taught them. There are a variety of reasons for this, but the primary one being that Palin introduced them as \"supporting cast\" to her character and perceived parenting abilities. Secondary to this is the implied argument that she has taught them her belief system, ie abstinence-only.\n\nWhen one of those children - and a minor, at that - is found to have not followed that belief system as taught by their parent, then it is worth noting for two reasons. First, for some reason the belief system did not work for that child. Second, it weakens the argument brought forth by Palin that her children are supporting her belief systems. Note: I'm only talking about sexual conduct here, not pregnancy. The pregnancy itself is only proof to the fact that Bristol was sexually active.\n\nWe can save the discussion about abortion for a later time ;).",
      "time": "2008-09-02T21:36:02",
      "id": "2018574"
    },
    {
      "threadId": "3987601",
      "post": "<blockquote>In closing, I would note that it probably seems like I’ve been doing an awful lot of slamming of Team McCain over the last 96 hours, but rest assured that I have not joined the masses of the Obama faithful.</blockquote>\r\n\r\nAnd here I was, starting to get concerned about your health. Good to see that my fears were unfounded ;). ",
      "time": "2008-09-01T13:46:16",
      "id": "1976183"
    },
    {
      "threadId": "3924745",
      "post": "Awesome clip, and story. Great to hear that you had such a fun time.",
      "time": "2008-08-31T05:25:28",
      "id": "1936256"
    },
    {
      "threadId": "3911781",
      "post": "casualobserver:\r\n\r\nFor what it's worth, I consider myself leaning towards Obama, but still uncommitted. One doesn't commit to a candidate until they vote, after all :). Secondly, McCain's pick of VP has as much of an impact on my decision as Obama's: just another notch in the belt of learning the difference between the three (including Barr).",
      "time": "2008-08-30T18:39:36",
      "id": "1930083"
    },
    {
      "threadId": "2975485",
      "post": "I would agree on this being a non-issue. Given the amount of flight time these jets are undergoing, it wouldn't surprise me to hear that one (or both) would experience some mechanical issues.\r\n\r\nIs the media now going to debate how unnecessary dispatching emergency equipment is in such a situation? I sincerely hope not.",
      "time": "2008-08-15T06:29:46",
      "id": "1466377"
    },
    {
      "threadId": "2977813",
      "post": "In my opinion, partisan politics become more important the larger the office that is being contended. If you look at local school boards, town chairs, and even some cities, the party affiliation tends to be less a factor than the actual stated beliefs of each individual candidate. For that matter, some areas might elect candidates from one party for the local and state offices, but prefer another party for federal positions.\n\nViable third parties will, more than likely, emerge at the state level (such as the <a href=\"http://en.wikipedia.org/wiki/Independence_Party_of_New_York\">Independence Party</a> in New York) far before they affect the federal offices. Many voters believe that, in these instances, third parties are \"spoilers\" rather than viable options. \n\nWhether or not this actually holds true, the belief itself causes them to migrate back towards the two largest parties that are believed to have a better chance of winning the election. The more local the contest, the less votes are needed to win. Thus (in my opinion), the less group mentality is deemed necessary.\n\nIn a sense, this is a result of our Constitution's system of government. Were we to have a system where smaller parties had a better chance of becoming representatives in the federal government, then the point would be moot - or at least far less present than it is now.",
      "time": "2008-08-15T06:22:22",
      "id": "1466347"
    },
    {
      "threadId": "2979919",
      "post": "<blockquote>Many of the people I talk to, some Obama supporters some not, believe Georgia will surprise the pollsters and pundits come November.</blockquote>\r\n\r\nIn a related note, The Kentucky News-Enterprise <a href=\"http://www.thenewsenterprise.com/cgi-bin/c2.cgi?053+article+Opinion.Editorial+20080808222958053018\">discussed</a> the potential effects that cell phones might have on the polls. Having a number of friends that live in cellular-only homes, I am growing increasingly curious on how, exactly, the pollsters can discount this section of the electorate from its process.",
      "time": "2008-08-15T05:59:56",
      "id": "1466247"
    },
    {
      "threadId": "1513002",
      "post": "Neocon, believe it or not, it's easy to do both at the same time. I'm glad to hear that the bill has passed; I give little praise of its passage to President Bush.",
      "time": "2008-07-01T05:38:28",
      "id": "787317"
    },
    {
      "threadId": "1247157",
      "post": "This is almost set up as a lose/lose argument: if Obama goes to Iraq, he could end up being criticized for his opinions; if he doesn't, he will be criticized by the Republicans later in the general campaign. The third option is that his campaign staff will arrange it to look positive for the cameras, but the above barely mentions this.\n\nJazz, I agree with you, in that today's technology allows for multiple video conferences to occur. These do not receive the same media attention - nor do they have the same weight in average Americans' minds - as those meetings conducted in person.  Some Americans have come to believe that the President hasn't been as involved in the process as they would prefer; by having a candidate portray themselves as willing to go to lengths further than the President, said Americans might come out with a more positive outlook for that candidate.\n\nI also respect your viewpoint as a veteran, as you have more experience in those shoes than I most likely will for my lifetime. If Obama is able to surround himself with representatives from the armed forces who give him the strong, open,  support in his stated decision to leave Iraq, then I will also be (pleasantly) surprised. I don't discount it as a possibility, however.\n\nAs an aside, I will be glad when the role of President isn't kept on such a high pedestal that we expect perfection from our candidates. I imagine that, due to the last seven years, Americans are wanting someone of a higher caliber than our current administration has to offer. The extent which both remaining candidates are being hounded for the most minute actual or hypothetical errors, however, is a wee bit much for my taste. The country's image and strengths have so much more contributing to them than just one human being.\n\nEdit: My reference to \"the above\" meant the original opinion, not the comment that Jazz posted while I was typing :).",
      "time": "2008-06-16T23:30:31",
      "id": "687695"
    },
    {
      "threadId": "843098",
      "post": "I'm probably amongst a minority of people, but I rely on cable only for Internet access. I haven't owned a television for over a decade, now, and don't really miss it that much.\r\n\r\nMy news and entertainment comes via the Internet, and anything else comes from me going outside rather than sitting on the couch each evening. I may not know what the latest scandal is with the leading pop stars... but I've found that \"drug\" to have less of an effect on me as time passed by.",
      "time": "2008-05-27T16:57:06",
      "id": "536193"
    },
    {
      "threadId": "722517",
      "post": "Austin:\r\n\r\nNo worries. There are a number of issues where I have a distrust of the MSM as well, for the spin and poorly researched positions that I have seen them take in the past (on either party). Be it via omission, lack of context, or otherwise, loud voices within that group do not make it easy to see an issue even close to its entirety.",
      "time": "2008-05-16T15:31:59",
      "id": "477796",
      "parentPost": "Peter -\r\n\r\nI wasn't (and am not) aware of the WH aides' comments. If true (and I have no reason to doubt you), them that of course makes this an Emily Litella moment for me. (showing my age with THAT reference) ",
      "parentPostTime": "2008-05-16T07:47:13",
      "parentPostId": "476067"
    },
    {
      "threadId": "477654",
      "post": "I have to agree with Jim on the capital gains tax issue. There are a variety of issues which resulted in the increase of tax revenue; to phrase a question such that one factor in that increase was the only factor is unfair to the person having to answer.\r\n\r\nI think that both moderators felt that they had to be tough on the candidates. There were some slight stumbles by both, but, overall, I consider it a draw. If I were an Obama supporter, I would more than likely stay; If I were a Clinton supporter, the same. It also didn't do much to swing undecideds, either, except if they needed a tiny nudge here or there.\r\n\r\nOne area that I was somewhat relieved to see was in both candidates aiming arguments at McCain, and talking of a sense of unity after this primary is over. Call me a cynic, but I don't think this debate really did anything more than rehash some older issues that have already been discussed. Very little \"new\" here.",
      "time": "2008-04-17T02:09:50",
      "id": "345360"
    },
    {
      "threadId": "394596",
      "post": "Given the number of troops we have stationed in North Carolina, one would think that ~he~ would have thought before relaying that story as he had.  Senator or not, he isn't an active member of the military; the \"two-bit guard\" should be commended for following orders.",
      "time": "2008-04-04T19:38:49",
      "id": "302282"
    },
    {
      "threadId": "389304",
      "post": "Political supporters are somewhat like relatives. You can't really pick who you want in life, only how much you associate yourself with them. Regardless of how little you actually do associate, people still try to define you by those supporters and/or relatives to varying degrees. Is it important? Yes, because it is still a factor. How important it is depends on each voter's perspective.\r\n\r\nThere are certain supporters that I will give more weight to than others. If I think poorly about a given supporter, the weight will be less. Now, if a given candidate actively seeks said supporter's approval, only then do those negative aspects of the supporter start to sway my opinion of the candidate. Instead of looking at it from the supporter's perspective on associations and reasonings, I then look at it from the candidate's. To do so beforehand (in my opinion) is unfair to any candidate.\r\n\r\nTo reach the full spectrum of the conversation, I agree that there are individuals and/or groups that I have decided have enough negative connotations associated with them where denouncing support is preferred over neutrality on the part of the candidate. But, again, this varies per voter.",
      "time": "2008-04-03T18:59:03",
      "id": "298270"
    },
    {
      "threadId": "273308",
      "post": "Denise, what was the general mood of those around you? Could you pick out any underlying issues that were more important than others?",
      "time": "2008-03-09T03:14:50",
      "id": "212110",
      "parentPost": "I'm sorry, I should have proof read better.  I meant to say the larger counties are Natrona, Laramie. Albany, Sweetwater, Campbell.  ",
      "parentPostTime": "2008-03-09T03:00:31",
      "parentPostId": "212082"
    },
    {
      "threadId": "268208",
      "post": "Holly, that's perception. Literal qualifications for being President are actually quite easy to surpass. Now, what each voter defines as their own personal qualifications for the person holding that office is mere opinion.\r\n\r\n\"Hundreds of thousands\" of core Republicans have voted for a Democratic nominee in the preliminaries, and many of those plan to vote the same in the general election. A much more diverse electorate's opinions of the current political landscape has led, not only to examples of such cross-party voting, but the record numbers of those doing said voting.\r\n\r\nYou say tomato, I say tomahto... my neighbor says celery *shrug*.",
      "time": "2008-03-07T14:51:47",
      "id": "207818"
    },
    {
      "threadId": "259113",
      "post": "That's the second time that I've noticed that, with the disappearing comments...  I was trying to figure out what I had said wrong the first time it happened ;).\r\n\r\nAlthough saying it twice never hurts: awesome job on the reporting.",
      "time": "2008-03-04T21:15:38",
      "id": "200241"
    },
    {
      "threadId": "259017",
      "post": "Wonderful original reporting there. The video was very well laid out, and fun to watch.\r\n\r\nI don't discredit any of the woman's misgivings on her voting; it goes to show how close this primary contest has been between the two candidates. On the one hand, people respect candidate A and enjoy their message. On the other, they really want to support candidate B for symbolism and other matters. It's tough to make a decision when you like both.\r\n\r\nKeep up the good work :).",
      "time": "2008-03-04T19:57:43",
      "id": "199935"
    },
    {
      "threadId": "228327",
      "post": "Interesting. The first instance that I show of it mentioned in the news is a month ago (via Google). Should this appear in the debate coming up, I'll be one of the many to want to hear an explanation.",
      "time": "2008-02-26T07:13:17",
      "id": "179670"
    },
    {
      "threadId": "226366",
      "post": "Oh, I wasn't following the issue about concern for his safety, but the last sentence of the post.\r\n\r\nPoliticians, no matter their stripe or schtick, are always targets. It's unfortunate and repulsive, but a fact of life. To factor in voting for or against someone because they may get killed? No, thanks.",
      "time": "2008-02-26T01:40:00",
      "id": "179097"
    },
    {
      "threadId": "216849",
      "post": "I applaud you telling them what for. I don't think that I would have been as polite.\r\n\r\nI agree, progress has been made. Every day, we get a little further, and the bar can be set a little higher for the next day's goal :).",
      "time": "2008-02-22T03:11:29",
      "id": "168759"
    },
    {
      "threadId": "199745",
      "post": "There are a number of states that require certain safety classes, and other requirements, for obtaining a gun permit. When comparing these to driving permits, the problem lies in the inherent difference between the two. Both are fairly easy to obtain without permits (or licenses), but one is much easier to conceal than the other. This makes it easier for police to track/monitor cars, but difficult to understand that guns may even exist on a person (or in a location) at any given point in time.\r\n\r\nI agree with Shaun that the availability of guns causes an increase of related increase of violence in our communities. It is important, however, to distinguish between legal and illegal means of obtaining guns and to separate the crimes committed by each when having a discussion about the root causes for said crimes. Each has their own distinctions that need to be addressed separately.\r\n\r\nWhile I am not a gun owner, I am also not opposed to owning one for protection of house and home, or hunting purposes. The results of those that disobey the laws, like in many other sectors of life, continues to hamper the abilities of those that abide by them - rather than find other means to restrict the underlying reasons why such law-breaking exists.\r\n\r\nUsing the analogy to medicine, it's not an easy pill to swallow that some aspects of society need a complete overhaul. To continually discuss the after-effects and conduct reactionary measures rather than resolve underlying causes for why such situations exist is akin to ignoring a doctor's advice on living healthy and then requesting surgery to repair the results.",
      "time": "2008-02-16T17:08:31",
      "id": "154471"
    },
    {
      "threadId": "190889",
      "post": "There are some valid points to having Clinton as President, as there are for McCain and Obama. At the core, the three candidates are similar in many ways; how they've acted and some of their history makes the difference in how people are going to react towards them.\r\n\r\nI support Obama's pursuit of the Presidency precisely because he doesn't have all of the weight from years spent in the Federal environment to guide his actions. Will he make a couple of mistakes once he has the job? Assuredly no moreso than any other President has during their own time.\r\n\r\nSecondly, I look at the reactions that a number of friends outside of the US have had in contemplating each candidate. Many see the continuation of foreign affairs as they have been in the past 20 years under possible Clinton or McCain administrations. They are more intrigued and open to an Obama administration, because it would represent, to them, a fresher start to many discussions. You can't say whether they are right or wrong until that administration is actually formed, but I will at least pay attention to what those perceptions are as our nation lessens its stature as less of a world leader to more of a star player on the global team.\r\n\r\nIn any campaign season, there are going to be cliques which form, be it Democratic vs Republican, young vs old, rich vs poor, etc. Most often, people look through the lens of their own team, and it becomes unfortunate: words become harsher, criticisms become more prevalent, and divisiveness ensues. Yet, at the end of the day, we still wave to the same neighbor, buy from the same cashier, and go about our business.\r\n\r\nPerhaps, rather than casting discussion in the negative, it would be better to change people's minds via constructive discussion over the implications of each candidate, and their platforms. After all, three or four ads really aren't going to compare - in the long run - to bills proposed once someone moves in to that house on the hill. Most people realize this, and will listen more readily than to any negativity.",
      "time": "2008-02-13T18:36:01",
      "id": "146396"
    }
  ],
  "profileInfo": {
    "username": "Peter_Allen",
    "about": "",
    "name": "Shard",
    "disable3rdPartyTrackers": false,
    "isPowerContributor": false,
    "isAnonymous": false,
    "rep": 1.273342,
    "profileUrl": "https://disqus.com/by/Peter_Allen/",
    "url": "http://www.twitter.com/wintershard",
    "reputation": 1.273342,
    "location": "",
    "isPrivate": false,
    "signedUrl": "http://disq.us/?url=http%3A%2F%2Fwww.twitter.com%2Fwintershard&key=QsnuKgE0-GIEd4GI9OZQ5g",
    "isPrimary": true,
    "joinedAt": "2008-02-13T18:16:40",
    "id": "10586",
    "avatar": {
      "small": {
        "permalink": "https://disqus.com/api/users/avatars/Peter_Allen.jpg",
        "cache": "//a.disquscdn.com/uploads/users/10586/avatar32.jpg?1281549414"
      },
      "isCustom": true,
      "permalink": "https://disqus.com/api/users/avatars/Peter_Allen.jpg",
      "cache": "//a.disquscdn.com/uploads/users/10586/avatar92.jpg?1281549414",
      "large": {
        "permalink": "https://disqus.com/api/users/avatars/Peter_Allen.jpg",
        "cache": "//a.disquscdn.com/uploads/users/10586/avatar92.jpg?1281549414"
      }
    }
  }
}