{
  "comments": [
    {
      "threadId": "4237193847",
      "post": "I would add:  1) become better allies with parents;  2) serve my community (local schools, parks, etc more consistently; and 3) make disciples via example not program -- invite them into my prayer life and personal journal.   \n\n\nBy the way, this is a great article.  I have been in youth ministry for 30 years in some form or another (planted churches in Detroit for 10 years as well). THANKS FOR SHARING!",
      "time": "2015-10-27T17:15:11",
      "id": "2329455948"
    },
    {
      "threadId": "3889361566",
      "post": "I ALWAYS appreciate your advice.  I'm really learning to appreciate the tool: periscope! You're a blessing! I miss interacting more frequently with you!",
      "time": "2015-10-03T17:59:08",
      "id": "2288139744"
    },
    {
      "threadId": "3712663303",
      "post": "brilliant!  of course, I'd be happy with ANY Apple watch!!",
      "time": "2015-04-25T22:38:17",
      "id": "1987523457"
    },
    {
      "threadId": "3572736593",
      "post": "Thank you Carey.  It sucks seeing people upset or jaded. Ultimately, a church didn't hurt you, a person in a church did.  We're imperfect.  \n-- thanks again! Good stuff!",
      "time": "2015-04-02T19:03:04",
      "id": "1942601719"
    },
    {
      "threadId": "3626666702",
      "post": "bright, interesting, comfortable SOCKS!",
      "time": "2015-03-28T22:59:48",
      "id": "1933730490"
    },
    {
      "threadId": "3513695470",
      "post": "Thank you for sharing this.  I am in this stage of transition right now -- this will be very helpful.  IF I could add a #10 it would probably be about family/children:  \"How is the church designed to strengthen marriages and families (including that of the pastor)?\" ... something like that?  Thanks again!",
      "time": "2015-02-16T18:10:02",
      "id": "1858423960"
    },
    {
      "threadId": "2906352503",
      "post": "I wrote a blog when it was announced that Jimmy Fallon was the new host: http://ichilly.com/is-jay-leno-your-pastor -- I think it goes well with this article! Really enjoyed it! Thanks!",
      "time": "2014-08-10T02:22:59",
      "id": "1535611961"
    },
    {
      "threadId": "2888500007",
      "post": "I still love and read your stuff! Thank you for being faithful! One of the churches where I'm on staff is talking about bringing you in -- I'll be in touch!",
      "time": "2014-08-05T18:07:21",
      "id": "1528761245"
    },
    {
      "threadId": "2742032118",
      "post": "It's fun to think outside the box but these suggestions don't work. Where would we use Howard (not First base or DH)? And we give away lots of youth for OLD men. And, the other trade, sure Longoria would be awesome (especially next to Iglesias NEXT year) but the other two parts are unneeded and we would again lose too much youth. \n\nHow about trade Jackson -- for a solid number 5 or 6 bat? Our outfield can survive his absence.",
      "time": "2014-06-06T18:25:31",
      "id": "1423007366"
    },
    {
      "threadId": "2100719692",
      "post": "how he wears his hat is the least of my concerns. and, for the record, Simms was NO Johnny Unitas or Joe Montana... he seems irritated about something or someone ALL the time. Let's hear him do a piece that finds the good in someone.",
      "time": "2014-01-08T20:33:29",
      "id": "1192696063"
    },
    {
      "threadId": "470943172",
      "post": "Always a TIMELY word! Thanks Scott!",
      "time": "2013-10-30T21:34:15",
      "id": "1102812677"
    },
    {
      "threadId": "1674329449",
      "post": "Choose LOVE my friends:\n\"Love is patient, love is kind. It does not envy, it does not boast, it is not proud. It does not dishonor others, it is not self-seeking, it is not easily angered, it keeps no record of wrongs. (1 Corinthians 13:4, 5 NIV)",
      "time": "2013-09-13T02:38:57",
      "id": "1041385456"
    },
    {
      "threadId": "1647354198",
      "post": "Insecurity and people pleasing can make monsters out of anyone. I've seen bizarre behavior and compromise in many leaders all in the name of conformity and relevance. \n\nWe, as leaders, and simply as Christians, must choose to find the courage and conviction to be the person God has created us to be. To walk in His footsteps and obey His instructions. Our love for others must come from the Father's heart and not some need to be liked or admired.\n\n\"Do you think I am trying to make people accept me? No, God is the One I am trying to please. Am I trying to please people? If I still wanted to please people, I would not be a servant of Christ.\" Galatians 1:10\n\n\n\nGreat thoughts Scott! Thank you.\n-- I didn't watch the VMA's but I have seen Miley recently and my heart was broken.  I'm praying for her. Now, I need to look in the mirror and see IF any 'miley' is in me too...",
      "time": "2013-08-26T13:40:05",
      "id": "1017786745"
    },
    {
      "threadId": "1370264287",
      "post": "Where's the Celtic's UGLY FIVE: Bird, Parrish, Johnson, McHale & Ainge??",
      "time": "2013-07-26T19:54:10",
      "id": "977658370"
    },
    {
      "threadId": "1295275757",
      "post": "This quote, by Kierkegaard, was spoken over 150 years ago in Denmark. It was in regards to how Christians were watering down their message and accepting a worldly lifestyle in order to appeal to and be accepted by society. Think about how much worse it's gotten since then... \n\nAnd, of course, there are Christians in places around the world that are hated & hunted every day because of their faith in Christ. This quote is meant for those in the western world where Christianity is practiced freely & openly.",
      "time": "2013-05-30T00:57:57",
      "id": "913366653",
      "parentPost": "\"The biggest problem with Christians today is that no one wants to kill them anymore.\"\n\n100,000 or more Christians are killed each year for their faith in Christ so Søren Kierkegaard can now rest in peace.\n\nAs the saying goes, \"Coming to a neighborhood near you?\"",
      "parentPostTime": "2013-05-30T00:47:12",
      "parentPostId": "913358448"
    },
    {
      "threadId": "642044057",
      "post": "My staff DOES all work for FREE! And, they're ALL amazing!",
      "time": "2013-03-15T04:43:46",
      "id": "829783232"
    },
    {
      "threadId": "1111283499",
      "post": "Pick me! I'll spread the word in Detroit!",
      "time": "2013-03-01T05:44:36",
      "id": "816215361"
    },
    {
      "threadId": "940121299",
      "post": "Very practical and true.\n\n\nPeople should be warned that IF they are not absolutely sure that God has called them to plant, they should do something (anything) else. And, IF they are confident God has called them, behave like it and be strong and courageous. It's the greatest adventure (and trust) of all!",
      "time": "2012-11-24T04:22:41",
      "id": "717935069"
    },
    {
      "threadId": "899791243",
      "post": "great post! you were born an original, don't die a copy! ;)",
      "time": "2012-10-31T05:26:20",
      "id": "696754051"
    },
    {
      "threadId": "906966515",
      "post": "Key word: SHARE\n-- the world is always made better by generous people!",
      "time": "2012-10-31T04:29:35",
      "id": "696723359"
    },
    {
      "threadId": "494375145",
      "post": "LOVE it! We must win the battle between our ears!",
      "time": "2012-10-31T04:28:05",
      "id": "696722302"
    },
    {
      "threadId": "870482253",
      "post": "I preach from iPad too. I've bounced back & forth between evernote, ibook & pages ... appreciate your post!",
      "time": "2012-10-10T17:43:23",
      "id": "678412658"
    },
    {
      "threadId": "845387406",
      "post": "thanks for the heads-up Pastor Tim! ",
      "time": "2012-09-15T16:34:28",
      "id": "651533090"
    },
    {
      "threadId": "798958453",
      "post": "Thanks for making this available to guys like me unable to check it out LIVE! \n(and I love: At this point in Pastor Bill’s talk #wcagls is the 3rd trending topic on Twitter)\n-- making global impact at the global summit!\n",
      "time": "2012-08-10T04:02:33",
      "id": "615212954"
    },
    {
      "threadId": "782294573",
      "post": "“The motto of all true servants of God must be, ‘We preach Christ; and him crucified.’ A sermon without Christ in it is like a loaf of bread without any flour in it. No Christ in your sermon, sir? Then go home, and never preach again until you have something worth preaching.” ~ Spurgeon 1876",
      "time": "2012-08-03T23:48:51",
      "id": "609243271"
    },
    {
      "threadId": "781310437",
      "post": "I need some video work done for Courage Church -- can I hire your son??!",
      "time": "2012-07-26T22:33:16",
      "id": "598997552"
    },
    {
      "threadId": "770333109",
      "post": "when Christ lives in us, we love what (who) He loves and have the power to do something about it. \n\ngreat word my friend!",
      "time": "2012-07-18T22:32:39",
      "id": "591467678"
    },
    {
      "threadId": "755245856",
      "post": "Great wisdom, bro!",
      "time": "2012-07-07T16:47:47",
      "id": "579837150"
    },
    {
      "threadId": "743677956",
      "post": "It's hard to call today's ruling a victory or a defeat ...\n\nI work in the inner-city of Detroit. And, yes, it's true anyone can go to the hospital and get treatment but many, MANY, are not simply living off the government. No, MANY have jobs and work hard. It's those individuals that leave the hospitals with bills in the thousands or tens of thousands that they must pay. They are dedicated and trustworthy employees. They are honest. Many have moved to be part of our work here in the city. They are living selfless & sacrificial lives but cannot afford healthcare. But, because of an accident or unexpected illness, they now owe so much to the hospitals (or their collection agencies) that they cannot afford adequate housing, transportation or sustenance...  \n\n\nI'm not for socialism. I'm not for enabling people to exploit the government through unmonitored welfare and laziness. \n\n\nI find it interesting that 'christians' in America will raise millions to provide healthcare to the needy around the world but snub those right in their own cities. 80% of the African-Americans in Detroit have some form of HIV -- we jump on programs like RED for this epidemic in Africa -- but in our own backyards? Well, not so much...\n\n\nI'm praying that God will use ME to be part of the solution. Blaming the government or siding with a political party will not change my community. Apathy & sarcasm won't feed the hungry. \n\n\nI will answer for my life & opportunities I've been given. \n\n\nJust thoughts from my heart...",
      "time": "2012-06-28T16:19:19",
      "id": "570534722"
    },
    {
      "threadId": "673403986",
      "post": "Yes, we did - indeed - get a picture of the license plate of the 'Joker' but the police chose not to get involved since I did not want to increase my already inflated 'Gotham' car insurance!",
      "time": "2012-05-22T14:09:58",
      "id": "535703665",
      "parentPost": "Good morning, Mr. Bruce Wayne. :) I'm sorry about what happened to your bat mobile. LOL Where were you when it all happened? There must be at least one camera around. You'll be able to find a guy with some footage of what happened.",
      "parentPostTime": "2012-05-22T13:46:39",
      "parentPostId": "535686219"
    },
    {
      "threadId": "685820412",
      "post": "Man, I felt connected to you throughout your time in Africa. I prayed everyday. Yeah, maybe because - in part - I have a compassion kid in Tanzania (and I'm a compassion blogger) but MORE because of your heart for the needy. I love that about you. \n\nOne day, you and I will sit down and talk about life, pray for the world (and each other) and plan something eternal. I believe this.\n\nUntil then! Press on! I'm praying and cheering from Detroit!",
      "time": "2012-05-12T00:28:41",
      "id": "526861071"
    },
    {
      "threadId": "674435795",
      "post": "being a pastor is complicated (like anything beautiful)... it's not that acrostics or steps are always wrong or parables & stories are always right -- we're in the unique, and wonderful, position of loving others with Christ's power & love. Conviction, surrender, repentance, change, vision, destiny, miracles are ALL things that should happen in and through us.\n\nthanks for the post and also pointing me to Packiam's post.\n\nstriving to serve better...",
      "time": "2012-05-04T01:38:55",
      "id": "518167302"
    },
    {
      "threadId": "671870268",
      "post": "\"But it’s as difficult as it ever was to make someone feel something.\"\n\n-- wow, so true. we can't invent a 'move of God' but we can allow God to move in (and through) us -- using our gifts, talents, dreams & influence. Then when we create with His help, even we are moved! \n",
      "time": "2012-05-01T22:27:38",
      "id": "515436438"
    },
    {
      "threadId": "671448549",
      "post": "Life, like war, is a series of mistakes, and he is not the best Christian nor the best general who makes the fewest mistakes. Poor mediocrity may secure that, but he is best who wins the most splendid victories by the retrieval of mistakes. Frederick W. Robertson ",
      "time": "2012-05-01T17:11:41",
      "id": "515131990"
    },
    {
      "threadId": "670984673",
      "post": "Such a cool picture. This is what we do... it's who we are!\n\nLOVE IT!",
      "time": "2012-05-01T03:30:45",
      "id": "514706481"
    },
    {
      "threadId": "670006205",
      "post": "... anyone else immediately hear \"love is a verb\" by DC Talk?? Ha! ",
      "time": "2012-05-01T03:29:18",
      "id": "514705808"
    },
    {
      "threadId": "670263309",
      "post": "\"If you only focus on your job and not your dreams, I believe that you can squelch your inner creativity, energy, passion and zeal.\" BOOM!! Totally agree!\nSomething I read earlier today: \"God the Holy Ghost calls for crusaders… How many ministers would be in church if it were not their job? The answer will be found in the number who never go to the job that is outside.\" ~ Samuel Chadwick",
      "time": "2012-05-01T03:04:33",
      "id": "514690744"
    },
    {
      "threadId": "658954194",
      "post": "Nose Garbage! ",
      "time": "2012-04-22T04:26:33",
      "id": "505933385",
      "parentPost": "4.  I couldn't really help with much... but I got this one...  from webmd...  see what happens when you ask for comments!!\n\nlol!\n\nMucus (a.k.a. snot) is the sticky liquid that coats the skin and hairs in your nose. It has a special bacteria-killing chemical, and it also keeps junk from reaching your lungs, explains Branzei. \"Snot is so important that your nose makes a new batch every 20 minutes.\"\nBoogers are actually \"nose garbage,\" she writes. \"Each day, you suck in a small roomful of air. If the air was only gas, you would not even make boogers. But the air is filled with dust, smoke, grit, bacteria, tiny fungi, pollen, soot, little metal pieces, ash, fuzz, sand, and even itty bitty meteorites. One job of the nose is to clean the stuff out.\"\nThis nose-cleaning system is so effective that the nasal area is one of the cleanest parts of your body, Branzei adds. However, allergies and pollutants will trigger inflammation in the sinus lining, which creates sinus drainage, Horesh explains. \"For some people, that means a runny nose, for other people, it's post-nasal drip.\"\nNasal sprays may help with post-nasal drip. Allergy shots and pills can control allergic reactions. \"If air quality is a problem, another option is to move to Colorado,\" Horesh says.\nAnother tidbit: \"The reason that smokers have more sinus and upper respiratory infections is because smoking damages the cilia, the hairs lining the sinus membranes which interfere with the natural snot mechanism,\" Horesh explains",
      "parentPostTime": "2012-04-22T01:32:32",
      "parentPostId": "505873752"
    },
    {
      "threadId": "652682313",
      "post": "I love Marla & Gabe too! Great stuff from great people!",
      "time": "2012-04-18T02:37:04",
      "id": "500411658",
      "parentPost": "1. Choosing to blog is totally up to you, but I still enjoy reading them. I rarely have time to comment, though. Like right now my kids are vying for my attention & keep interrupting even this comment. Lol\n2. I like shorter formats but not because I can't read longer ones; it's because I like to read them as soon as I see there is one out, I like to read it, & I can't necessarily respond right away. Then I forget. :)\n3. My favorite blog I read right now is http://www.marlataviano.com \n",
      "parentPostTime": "2012-04-17T13:01:01",
      "parentPostId": "499763924"
    },
    {
      "threadId": "638428238",
      "post": "Jamie, thanks for the comments ... \n\nI certainly didn't say, \"all big and small decisions need to be ran by counsel just to appease the people.\" In fact, I said: \"Now understand, I don’t think we owe an explanation for every decision that we make - big or small - but I think there is a clear, biblical, pattern to seek wise counsel for decisions when they are life changing or impact the lives of others.\" -- I don't run every decision by my leaders, that would be impossible (and I'd lose my mentors! Ha!) \n\nThe attitude that we do it to \"appease\" people sounds like you're saying that leaders are trying to rule your life or micromanage your ministry - I doubt that this is the case and caution giving consideration to such thoughts. \n\nThere have been many times I was SURE that I heard from God -- I still ran it through my mentors and was totally open to their questions, correction or even disagreement. I did not go into it with an attitude like: \"God already told me, so I'm just telling you because it's the thing to do; but my mind's made up\" -  I have to be willing to believe that maybe God is testing my willingness to obey but will use another to redirect me. \n\nQ: What if Abraham had not obeyed the angel because he had already heard from God himself?  A: goodbye Isaac!  \n\nI must be humble enough to KNOW that in regards to God's will & voice:  I can 'miss it' or 'manipulate it' -- so, I'm seeking counsel every time.\n\nThanks, again, for your comments -- excellent things to consider!",
      "time": "2012-04-08T00:30:01",
      "id": "490919747",
      "parentPost": "I think this is a really thought provoking post and I appreciate the conversation that came from it. I think we need to remember \"we have never seen this before\" each situation is a new one. As wise counsel, you cannot assume that questions are not allowed or even wanted just because situation in the past prove otherwise. Often times with me personally I have to BEG people to ask me questions or give me their thoughts. If that's how people perceive me, that's my problem but I am also the first and hungry for people's thoughts and honest questions. Not what I want to hear. \n\nI also think their is a fine line between giving \"wise\" counsel and deciding for people, or strong suggesting in such a way they feel they have no other choice but to do what you say or they are turning their back completely on the 'counsel'. If people don't agree it shouldn't be taken personally. \n\nAnd I know in my life when God tells me to do something, I am going to do it. It doesn't matter what counsel will say. My mind won't be changed because the God of Creation has instructed me. My first and foremost counsel comes from Him. So I don't know if I necessarily agree that all big an small decisions need to be ran by counsel just to appease the people. I do think counsel is very important and necessary when things aren't clear. Questions and things still need to be walked through even if the decision is \"made\". \n\nSo I encourage you, if you have questions. Ask them. ",
      "parentPostTime": "2012-04-07T23:48:39",
      "parentPostId": "490890169"
    },
    {
      "threadId": "594039544",
      "post": "Yes, SHOUT!",
      "time": "2012-03-01T16:16:19",
      "id": "453474514",
      "parentPost": "What a great reminder. Our shouting inspires forgetfulness. Just as I can forget about myself by shouting about Jesus, I can turn it around and forget about Jesus by shouting about anything or anyone else. If I'm not careful, I can quickly switch from shouting about Jesus to shouting about myself without even realizing I've done it. I have to be constantly checking myself and asking God, \"Who am I shouting about?\" When I am determined to shout about Jesus, I truly forget all other factors.\nThanks Pastor",
      "parentPostTime": "2012-03-01T15:48:02",
      "parentPostId": "453450858"
    },
    {
      "threadId": "583094402",
      "post": "Forgiveness is SO powerful. \n\nI'm humbled by how much God has forgiven and forgotten from my life (so far)... grace.",
      "time": "2012-03-01T01:59:28",
      "id": "452920884"
    },
    {
      "threadId": "593900763",
      "post": "I remember when God dropped it into my heart: \"increase your capability\" - YES, that's what I wanted and then, I backed up - again - and, read \"prove your dependability\"... BOOM! That was crucial!\n\nToday, I have lots of very capable people come in and out of my life without ever grasping or pursing ALL that they could be simply because they wanted to pick & choose when (and to who) they are dependable. ",
      "time": "2012-02-29T19:25:29",
      "id": "452588212",
      "parentPost": "The Lord doesn’t ask about your ability, only your availability; and, if you prove your dependability, the Lord will increase your capability.\nI have only ever caught the first part of your quote, but to hear and see the second part is even more crazy challenging!",
      "parentPostTime": "2012-02-29T19:10:34",
      "parentPostId": "452576117"
    },
    {
      "threadId": "580416761",
      "post": "Very interesting. I know that I certainly have to work hard on fitness & diet. This article makes me think of a few questions:\n\nSo, do we start with the Spiritual or the Physical? \nCan Jesus be seen in a fat man or an unkept homeless man? \nHow can we be sure that we don't become obsessed with diet or fitness and totally blow the spiritual stuff. \n\nWhat do you think Paul meant when he spoke the verse you closed with?\n\nOr what did God mean in 1 Samuel 16:7? Was David a wimp?\n\nAhhh, so many questions! Thanks for the challenge!\n\nGoodnight!",
      "time": "2012-02-18T07:39:54",
      "id": "442649092"
    },
    {
      "threadId": "577185390",
      "post": "I'm praying that you and Jeremy find strength in the power of the Holy Spirit. And, remember, the safest place to be is in the will of God (if you're certain you're living in His will, turn the scare upside down and go after the enemy!). \n\nLove you both!",
      "time": "2012-02-15T22:18:17",
      "id": "440224891",
      "parentPost": "thank you for sharing this. since we were robbed two weeks ago, i have been leaning toward the 'fear' mentality of always wondering if someone is watching me or gonna come break in while i'm home. but i have NOT been given a spirit of fear. MUST pray!!!!!! :) ",
      "parentPostTime": "2012-02-15T22:05:19",
      "parentPostId": "440212961"
    },
    {
      "threadId": "575336782",
      "post": "Appreciate your thoughts on this. Very cool reflection & challenge. \nMiss ya, cc",
      "time": "2012-02-14T21:43:34",
      "id": "439275147",
      "parentPost": "They just gave away a new song today on noisetrade. Its the first option called 25 Love Songs. Their song is called 'Sugar.' Hopefully that will satisfy until the album comes out. \n\nThis song is absolutely amazing. I got done reading an excellent book called \"Insurrection\" by Peter Rollins. He initiates the book by drawing on Dietrich Bonhoeffer's explanation of the deus ex machina and how we die to ourselves through actually experiencing the crucifixion in our own lives. Just like how Jesus felt forsaken by God. It's about dying,being reborn, and transformed, so we are no long the same.  It coincides with the song about the beauty of mistakes and failures in our lives, and thus brings about a better life.\n\n",
      "parentPostTime": "2012-02-14T18:53:31",
      "parentPostId": "439124269"
    },
    {
      "threadId": "575171202",
      "post": "well, beyond \"believe\" in, I know God. \n~ case closed.",
      "time": "2012-02-14T01:46:17",
      "id": "438284143"
    },
    {
      "threadId": "519555428",
      "post": "I have some thoughts about this...\n\nBut, I'll defer to Him (the Answer)... \n\nFor God is not a God of confusion but of peace. (1 Corinthians 14:33 ESV)\n- He doesn't shrug His shoulders or wring His hands. \n- And, He DOES answer.\n\n\"Less of me & More (and MORE) of Him\" has always been the equation that leads me through the confusion\n",
      "time": "2011-12-30T06:45:50",
      "id": "397078452"
    },
    {
      "threadId": "171170710",
      "post": "Fantastic Article! Thanks Mark!!",
      "time": "2011-11-15T05:31:55",
      "id": "363354009"
    },
    {
      "threadId": "466957634",
      "post": "True! I think it was Spurgeon that said \"it's the tree with fruit that boys throw stones at...\" (my paraphrase). ",
      "time": "2011-11-11T18:12:25",
      "id": "361221690",
      "parentPost": "Great article Chilly. Thanks for bringing some perspective. I heard a line the other day from a Taylor Swift song that said, \"people throw stones at things that shine.\". So true but we cant let that keep us from accepting challenge, growinetch aging hard and strong.......etc.  Such a testimony  that one's ministry and life could shine so brightly that people want To throw stones. ",
      "parentPostTime": "2011-11-11T17:43:56",
      "parentPostId": "361203883"
    },
    {
      "threadId": "464776192",
      "post": "very cool... like!!",
      "time": "2011-11-08T03:34:17",
      "id": "358133667"
    },
    {
      "threadId": "454637231",
      "post": "we're on the same page here -- reread my entire post with that in mind...  (see what I mean?)",
      "time": "2011-10-28T19:20:36",
      "id": "348420625",
      "parentPost": "@Chilly Chilton: Although accurate as far as it goes, your definition only reflects one possible meaning of \"dignity.\" The word also means (and I believe the author is referring to this sense) \"the quality or state of being worthy\"--having worth or value, as the rest of your post suggests that you might believe of all human beings.",
      "parentPostTime": "2011-10-28T14:08:40",
      "parentPostId": "348219091"
    },
    {
      "threadId": "389638998",
      "post": "BOOM! Forgiveness = Freedom! That's it! \"who the Son sets free is free indeed\" ~ Jesus",
      "time": "2011-08-18T18:08:59",
      "id": "290255049",
      "parentPost": "I was an example of all of the above and forgiving was something that wasn't even in my bones.....\nI had years of holding on to hurt and the grudge that kept me from wanting to be loved. Forgiveness freed everything I held in almost my entire life ",
      "parentPostTime": "2011-08-18T16:57:11",
      "parentPostId": "290196148"
    },
    {
      "threadId": "355136091",
      "post": "And, the Assemblies of God, is growing MUCH faster outside of the USA. \"Go into all the world and make disciples\" - the great commission not option! Proud to be A/G, Chilly",
      "time": "2011-07-11T15:53:49",
      "id": "247713128"
    },
    {
      "threadId": "336239150",
      "post": "IF I've talked about your family in a way that's hurtful or inappropriate (tears or no tears), my sincere apologies.\n\nNo human understands what you and your family are going through. Christ, however, does. He's with you and available to all. I'm so grateful for this fact.\n\nLove you Jaime and because of this, I love your family too. My continued prayers are with you all.  ",
      "time": "2011-06-19T04:29:58",
      "id": "229665320"
    },
    {
      "threadId": "334574143",
      "post": "wow. very cool.",
      "time": "2011-06-17T05:27:22",
      "id": "227932257"
    },
    {
      "threadId": "301936643",
      "post": "GREAT post ... humbled to be connected with such servants. Detroit is a tough, hurting city ... \"where sin increased, grace abounded all the more\" Romans 5:20\n\nLiving the GRACE story!",
      "time": "2011-05-13T04:52:39",
      "id": "202880630"
    },
    {
      "threadId": "290576399",
      "post": "Great thoughts Aaron. Specifically liked: \"grace without truth is weak at best\"\n~ I hope my comments also reflect this heart...",
      "time": "2011-04-28T16:48:13",
      "id": "193435541",
      "parentPost": "As much as I appreciate the 'coaching' approach to the suggestions, where does the truth come in? I completely understand this website/organization is devoted to grace, but grace without truth is weak at best. I would worry that 'walking with them' might give the perception you're validating their actions. Where are the consequences in this? Again I completely understand and agree with the rock bottom experience, but aren't most rock bottom experiences too late to salvage what may be lost? Again, I understand grace and redemption and forgiveness, but their spouse might not see it the same way, or their children, or anyone else intimately involved. Doesn't it seem rock bottom experiences happen when people have no one to turn to? Aloneness? Constant phone calls and check-ins might make someone think you are seeing how this pseudo relationship is going...\n\nI completely affirm counseling people going through this process and pointing them in the right direction. I don't encourage ostracizing these hurting people, but rather exposing them to truth and grace - combined. That would probably include therapy. But I wouldn't be too quick to brush away reminders of consequences. It's not our job to bring the hammer down, but the hammer will come down one way or another. \n\nCraig Gross tells a story about a guy he knew who's best friend went to jail for child pornography charges. Craig asked his friend if there was any sign the man's friend was struggling... could he have done something? The man said he'd be asking himself that question for the next 5-10 years.\n\nIntervention is key. Grace and truth are essential.",
      "parentPostTime": "2011-04-28T16:03:05",
      "parentPostId": "193402742"
    },
    {
      "threadId": "282510083",
      "post": "I don't think it's our job to judge the hearts & motives of wounded kids. We serve because Jesus served. Period. \n\nSo, yeah, I guess I don't think the answer is that complicated. Grace is NEVER earned - not by those who say thanks or those who spit in our faces. We give what's been given to us. Ultimately, God's Word never returns empty - it works even when we can't see it... so does LOVE! Just be obedient, be generous, be joyful. HE won't lead you into foolish decisions but HE may lead you to do something you find, at the time, unwise. That's because He's not just concerned about them, but also concerned about growing trust & character in us.\n\nNote: I've worked with inner-city kids & teens for 2 decades. I find joy in serving probably because I don't look for applause or results - I just keep looking for Jesus and I've found Him most often among \"the least of these\"... \n\nListen, I understand where you're coming from - been there too - so, please accept my words as simply another point of view.  Peace :)\n",
      "time": "2011-04-19T04:27:20",
      "id": "187384373",
      "parentPost": "For me, the hardest part is figuring out how to show grace, while still being smart about it.  I work with kids in the city, where we tend to see three categories of response here:  kids who need grace and are grateful for it, kids who need grace but don't know it, and kids who need grace but reject it or want to take advantage of it.\n\nIt's easy to give grace to the ones who know they need it, and we see God working with the ones who don't know they need it.  The ones who want to take advantage of it?  That's just a really tough balance between grace and being street smart.  Unfortunately there's no easy answer for that.",
      "parentPostTime": "2011-04-19T01:06:17",
      "parentPostId": "187221168"
    },
    {
      "threadId": "276695279",
      "post": "\"Passion keeps you going at 3AM for the fourth night in a row.\"\n~ try for the 25th year in a row! ;)\n\nGreat post Dr. Mo!",
      "time": "2011-04-11T19:43:42",
      "id": "182673255"
    },
    {
      "threadId": "265907227",
      "post": "I'm Mohan's pastor and friend. He models everything he writes in this post. He's a man of grace, encouragement & hope to SO many! But, I'm not just posting an endorsement (not that he needs it anyways) but also recognizing some challenges for my life. Specifically, I'm really thinking about:\n\nWhat could you be the best in the world at, if you continued down that path?\n-- I know what it isn't ... but, whoa, what could it be??! That's a fun thought to take to prayer this afternoon!\n\nThanks Dr. Mo! So glad you're in my life & on our team here in the D!",
      "time": "2011-03-29T20:19:39",
      "id": "174332562"
    },
    {
      "threadId": "262980053",
      "post": "We love and miss you! Thanks for sharing a glimpse into your new life - it helps us pray! \n~ Chilly",
      "time": "2011-03-29T03:02:09",
      "id": "173759274"
    },
    {
      "threadId": "218705425",
      "post": "... very good. stay tuned ... I'm going to use a quote from this! ;)",
      "time": "2011-01-30T04:07:11",
      "id": "137040291"
    },
    {
      "threadId": "215525674",
      "post": "\"As you move forward through your life, what are you allowing to change you?\"\n~ for me, the question is: what are you NOT allowing to change you?\n\nWell written post from an authentic Christian who really lives it.",
      "time": "2011-01-25T05:37:32",
      "id": "134169100"
    },
    {
      "threadId": "210518185",
      "post": "do you plan to expound upon any/all of these 4 gems?",
      "time": "2011-01-17T04:59:02",
      "id": "129938195"
    },
    {
      "threadId": "205721216",
      "post": "Looks great Tony! Looking forward to following along...",
      "time": "2011-01-10T19:20:17",
      "id": "126924674"
    },
    {
      "threadId": "177577295",
      "post": "Wow, this is such an important message & challenge to us all. Thank you!",
      "time": "2010-11-22T19:25:10",
      "id": "100760533"
    },
    {
      "threadId": "165701401",
      "post": "simple: names & labels hurt. we should stop.\n\nthanks!",
      "time": "2010-11-02T15:39:43",
      "id": "93006773"
    },
    {
      "threadId": "149744682",
      "post": "man, what a great reminder! we must constantly be striving to 'catch people doing things right'! praise looks good on anyone!\n\nso, yeah, brush those teeth, smile big and promote the good in others! anyone can do this - and what better way to open up dialog about the Reason for our joy?!",
      "time": "2010-10-01T16:18:14",
      "id": "83075485"
    },
    {
      "threadId": "133027345",
      "post": "unless a hockey player wore the red sweater with the flying tire on the front, he could never be truly 'great'!\n\nGOD IS GREAT (said with Tony the Tiger enthusiasm)!!",
      "time": "2010-08-24T14:18:33",
      "id": "70959432"
    },
    {
      "threadId": "129656034",
      "post": "how do 'we' fear the Lord? we want the blessing but may not be sure what 'fear' means... please advise. ;)",
      "time": "2010-08-14T20:20:23",
      "id": "68757695"
    },
    {
      "threadId": "104480015",
      "post": "I love it when 'Aslan' speaks into my heart ... words of hope, destiny & power!",
      "time": "2010-06-05T04:12:02",
      "id": "54846749"
    },
    {
      "threadId": "11836943",
      "post": "My twitter updates automatically on my Facebook status... and my blog, http://iChilly.com, updates automatically on my LinkdIn.  \r\n\r\nI try to streamline my social networking as efficiently as possible.",
      "time": "2009-02-15T00:21:01",
      "id": "6266575"
    },
    {
      "threadId": "8123030",
      "post": "Spiritual answer: YouVersion\r\nUse answer: Twitterific \r\nFun answer: ... but for fun, live poker (texas hold'em) - I'm makin' tons of pretend $$",
      "time": "2008-12-09T06:47:17",
      "id": "4284384"
    },
    {
      "threadId": "8022055",
      "post": "... uh, yeah, give me two smoked salmon, one pound of elk jerky, a pouch of leaf tobacco, oh, and the Sufjan Stevens Christmas CD ...\r\n",
      "time": "2008-12-06T21:12:27",
      "id": "4227222"
    },
    {
      "threadId": "7751882",
      "post": "If that's \"Christmas in the City\", then we must be \"Christmas in the Ghetto\"!!\r\n~ that's how we roll...\r\n\r\nYou guys to incredible stuff!  An inspiration!",
      "time": "2008-12-01T05:34:08",
      "id": "4079566"
    },
    {
      "threadId": "7572976",
      "post": "Grungy (the forgotten 8th dwarf)",
      "time": "2008-11-12T06:11:49",
      "id": "3698264"
    }
  ],
  "profileInfo": {
    "username": "iChilly",
    "about": "",
    "name": "iChilly",
    "disable3rdPartyTrackers": false,
    "isPowerContributor": false,
    "isAnonymous": false,
    "rep": 1.2717159999999998,
    "profileUrl": "https://disqus.com/by/iChilly/",
    "url": "http://iChilly.com",
    "reputation": 1.2717159999999998,
    "location": "Detroit",
    "isPrivate": false,
    "signedUrl": "http://disq.us/?url=http%3A%2F%2FiChilly.com&key=24IpmJK-wVDeUSe4mJjaKw",
    "isPrimary": true,
    "joinedAt": "2008-12-06T21:12:27",
    "id": "159189",
    "avatar": {
      "small": {
        "permalink": "https://disqus.com/api/users/avatars/iChilly.jpg",
        "cache": "//a.disquscdn.com/uploads/users/15/9189/avatar32.jpg?1281549414"
      },
      "isCustom": true,
      "permalink": "https://disqus.com/api/users/avatars/iChilly.jpg",
      "cache": "//a.disquscdn.com/uploads/users/15/9189/avatar92.jpg?1281549414",
      "large": {
        "permalink": "https://disqus.com/api/users/avatars/iChilly.jpg",
        "cache": "//a.disquscdn.com/uploads/users/15/9189/avatar92.jpg?1281549414"
      }
    }
  }
}