{
  "comments": [
    {
      "threadId": "1037167364",
      "post": "I picked it up from Fry's - it's the normal retail version / white. I'm on Cox.",
      "time": "2014-11-18T00:13:09",
      "id": "1698313212",
      "parentPost": "Where did you purchase it from? What type of box did it come in? And what ISP do you have?",
      "parentPostTime": "2014-11-17T19:03:44",
      "parentPostId": "1697785212"
    },
    {
      "threadId": "2596208141",
      "post": "I was thinking the exact same thing. You really have to squint to see that burger.",
      "time": "2014-04-08T21:34:52",
      "id": "1324805690",
      "parentPost": "Interesting read. I wonder what would happen if you made the menu trigger button it's own prominent icon on the top menu. I see now that it's a bit hidden next to the logo. Maybe the engagement was low because of this?",
      "parentPostTime": "2014-04-08T17:10:16",
      "parentPostId": "1324329233"
    },
    {
      "threadId": "42633197",
      "post": "That totally made my morning a LOT more enjoyable. Thanks!",
      "time": "2009-10-30T18:27:12",
      "id": "21374310"
    },
    {
      "threadId": "3534330",
      "post": "Have a rainbow roll for me!",
      "time": "2008-08-23T02:00:13",
      "id": "1738863",
      "parentPost": "Likely, the latter.\r\n\r\nThe rate isn't scheduled to change.\r\n\r\nBTW: THE PODCAST IS UP, FOR THOSE THAT ARE STILL AROUND.\r\n\r\nI am off to go eat some sushi. Have a good night!",
      "parentPostTime": "2008-08-23T01:48:26",
      "parentPostId": "1738776"
    },
    {
      "threadId": "3487639",
      "post": "Try squinting harder.",
      "time": "2008-08-21T20:13:44",
      "id": "1723594",
      "parentPost": "I thought they were tits...I suppose they were no nipples though...drat!\r\n\r\nSkål!",
      "parentPostTime": "2008-08-21T19:44:34",
      "parentPostId": "1723271"
    },
    {
      "threadId": "3429674",
      "post": "So I've got this joke:\r\n\r\nWarren Buffet, Bill Gates, and a Bernanke walk into a bar...",
      "time": "2008-08-20T19:43:25",
      "id": "1704595",
      "parentPost": "Not sure if you heard,  but there was something about Bill Gates and Warren Buffet at their place..  Look what a couple of Billionaires can do just by showing their face at a company..  I guess my main question is if it would keep ANR from dropping and should I close out my puts since this has gone sideways for the last few days and is now going up with CNQ",
      "parentPostTime": "2008-08-20T19:03:56",
      "parentPostId": "1703955"
    },
    {
      "threadId": "2946668",
      "post": "I'll drink to that.",
      "time": "2008-08-15T03:46:02",
      "id": "1464447",
      "parentPost": "If anyone is looking for a good short I would go SWIM.  Congrats Jeff!\r\n\r\nhttp://www.screencast.com/users/Artythe1manparty/folders/Jing/media/e493b902-1751-42c7-84d5-cc22b5a6f901\r\n\r\nCheers,\r\nArty",
      "parentPostTime": "2008-08-14T19:13:16",
      "parentPostId": "1438381"
    },
    {
      "threadId": "2636332",
      "post": "it's good to be back!",
      "time": "2008-08-12T13:34:35",
      "id": "1167460",
      "parentPost": "Congratulations N Celebrations !!!!\r\nWe missed you Cam.\r\n",
      "parentPostTime": "2008-08-12T10:50:54",
      "parentPostId": "1166565"
    },
    {
      "threadId": "2633454",
      "post": "No kidding... I think I stole her heart!  OOOhhh... cue the cheesy music.\r\n\r\nNow that the engagment thing is over it's good to be getting back to OA; i'm already taking out some trades like we pwned the frenchies in the 400m relay last night. Traders beware, I'm back!",
      "time": "2008-08-11T20:08:01",
      "id": "1161295",
      "parentPost": "Sorry for the OT post, but I wanna give a huge Congrats to our own IamCam for his recent engagement! \r\n\r\nCongrats man! Just remember, marriage is punishment for shoplifting in some countries! =)",
      "parentPostTime": "2008-08-11T20:02:24",
      "parentPostId": "1161223"
    },
    {
      "threadId": "2376756",
      "post": "The breakfast of champions!",
      "time": "2008-08-01T20:09:57",
      "id": "1074900"
    },
    {
      "threadId": "2325789",
      "post": "This is awesome!",
      "time": "2008-07-30T23:48:32",
      "id": "1055890"
    },
    {
      "threadId": "2165074",
      "post": "I can't wait for this! Can I make special request for a summertime drink/recipe of the week on Fridays? Those were awesome.",
      "time": "2008-07-28T22:46:37",
      "id": "1024893"
    },
    {
      "threadId": "2258608",
      "post": "YES!!!!",
      "time": "2008-07-28T22:39:08",
      "id": "1024827"
    },
    {
      "threadId": "2094594",
      "post": "Touche! Sure I'll give you credit. I'm just having fun at this point.\r\n\r\nTake care, man.",
      "time": "2008-07-22T18:51:18",
      "id": "968786",
      "parentPost": "You mean you don't want to give me credit for a good zinger?!!",
      "parentPostTime": "2008-07-22T18:41:24",
      "parentPostId": "968689"
    },
    {
      "threadId": "2008757",
      "post": "Classic.",
      "time": "2008-07-19T16:32:06",
      "id": "942064",
      "parentPost": "Hick? Whatchoo thinkin, essay? Don't you know he's loco?\r\n\r\nIf tapped, a Jeff Kohler Index Trade could power the country of Australia for 44 minutes.\r\n\r\nJeff Kohler can divide by zero.\r\n\r\nJeff Kohler beat a brick wall in a game of tennis.\r\n\r\nJeff Kohler once downed an entire bottle of sleeping pills. They made him blink.\r\n\r\nJeff Kohler beat the Sun in a staring contest.\r\n\r\nJeff Kohler is allowed to talk about Fight Club.\r\n\r\nAs a teen, Jeff Kohler impregnated every nun in a convent tucked away in the hills of Tuscany. Nine months later the nuns gave birth to the 1972 Miami Dolphins, the only undefeated and untied team in professional football history.",
      "parentPostTime": "2008-07-19T03:17:35",
      "parentPostId": "939299"
    },
    {
      "threadId": "2008727",
      "post": "what do your rules say? ;-)",
      "time": "2008-07-18T22:16:44",
      "id": "937282",
      "parentPost": "Chris,\r\n\r\nShould I hold that over earnings?",
      "parentPostTime": "2008-07-18T21:45:39",
      "parentPostId": "937057"
    },
    {
      "threadId": "2005756",
      "post": "Check your email. Just be prepared - there are a ton of premium  \r\nsellers in that group, and I'm doing my best to spread the OA love,  \r\nespecially after all of their ICs blew out this month. ;-) They could  \r\nuse a hug.",
      "time": "2008-07-18T20:09:13",
      "id": "936258",
      "parentPost": "Cam-\r\n\r\nShoot me an e-mail off chat, will ya? I'm wondering about the user group tomorrow.\r\n\r\nspartachris at gmail dot com. ",
      "parentPostTime": "2008-07-18T18:36:00",
      "parentPostId": "935202"
    },
    {
      "threadId": "1982034",
      "post": "Small deltas turn in to big deltas, and when you're wrong on a small delta it doesn't hurt as much. Jeff picks stocks that are going to move, so choosing 1 strike OTM (sometimes even 2) isn't a bad idea around here... some would say preferable.",
      "time": "2008-07-18T05:59:11",
      "id": "929794",
      "parentPost": "I've experienced the Deltas to be horrendous for OTM options, hard to get traction.  Now I know why you 'Swing for the Bleachers'!",
      "parentPostTime": "2008-07-18T03:56:31",
      "parentPostId": "929218"
    },
    {
      "threadId": "1978603",
      "post": "(after-hours)",
      "time": "2008-07-17T20:08:11",
      "id": "925253",
      "parentPost": "Wow, GOOG taking it on the chin...",
      "parentPostTime": "2008-07-17T20:02:37",
      "parentPostId": "925174"
    },
    {
      "threadId": "1953553",
      "post": "Of those two I've only read Trading in the Zone, but i HIGHLY recommend it! It's changed my outlook on trading - especially taking losses. It all boils down to realizing you are trading with an edge and the market is a game of probabilities, not absolutes. You will lose some. You will win some. In the end playing your edge over and over will make you money - just like the Casinos make money on a consistent basis...\r\n\r\nGo buy it. :)",
      "time": "2008-07-16T22:43:06",
      "id": "915178",
      "parentPost": "Which should I read first \"Trading In the Zone\" or \"The Disciplined Trader\"?",
      "parentPostTime": "2008-07-16T21:31:11",
      "parentPostId": "914546"
    },
    {
      "threadId": "1945061",
      "post": "I think we can all relate here. It's liminality - the shared  \r\nexperience of the struggle.\r\n\r\nMe? I'm almost 100% in cash right now.",
      "time": "2008-07-16T20:15:09",
      "id": "913783",
      "parentPost": "Oh I know, just gut wrenching when trying to do trade the plan.",
      "parentPostTime": "2008-07-16T20:01:56",
      "parentPostId": "913634"
    },
    {
      "threadId": "1916460",
      "post": "The only thing that concerns me about adding puts near/on earnings day is the likelihood of the vol crush the day(s) following. Either way - I like the idea of adding on some of these fake-out earnings rallies.",
      "time": "2008-07-15T20:00:53",
      "id": "902980",
      "parentPost": "Yeah...A great point to reload.\r\n\r\nHe brings up a good point. Easy with banks over earnings. They will overreact to any news.",
      "parentPostTime": "2008-07-15T15:53:59",
      "parentPostId": "897528"
    },
    {
      "threadId": "1895487",
      "post": "Give it a rest, already, and stop using the caps lock key! My goodness. Is your keyboard broken or something?",
      "time": "2008-07-15T00:41:30",
      "id": "892405",
      "parentPost": "JEFF YOU HAD TO LIKE THE BREAK ON BIDU TODAY TANK TANK TANK TANK TANK TANK TANK TANK TANK TANK TANK TANK TANK TANK TANK TANK",
      "parentPostTime": "2008-07-14T23:36:45",
      "parentPostId": "891964"
    },
    {
      "threadId": "1787736",
      "post": "Wish I could make it this year. When are we going to have get-togethers after you're finished at IT? Ski/Snowboard trips to Utah? Mexican resorts? Caribbean cruises?",
      "time": "2008-07-10T19:47:36",
      "id": "857966",
      "parentPost": "Likely :)",
      "parentPostTime": "2008-07-10T17:16:25",
      "parentPostId": "856374"
    },
    {
      "threadId": "1762214",
      "post": "I'm pretty hesitant to add anything right now. The last several days  \r\nhave had some pretty hard hits that have taken some otherwise great  \r\nprofits down a notch or two. I  also have a history or getting  \r\nwalloped pretty good when the broader market turns, or nears turning  \r\npoints. Recognizing my own shortfalls of not being nimble enough to  \r\nmake it through these changes is enough for me to play the wiser game  \r\nof being patient for the periods I'm much more confident about nailing.\r\n\r\nGood luck and go make us some money!",
      "time": "2008-07-09T22:31:06",
      "id": "849194",
      "parentPost": "All of those are on my 'maybe tomorrow' list except for TS which bit me hard when it stopped me out yesterday at the low of the day.",
      "parentPostTime": "2008-07-09T21:34:00",
      "parentPostId": "848651"
    },
    {
      "threadId": "1738873",
      "post": "ditto. Taking trades off one by one as all the puts have stopped performing. I'm OK with sitting out for a few days.",
      "time": "2008-07-09T15:42:20",
      "id": "844828",
      "parentPost": "A lot of volatility in the market. I think I'm gonna stay in cash for now...",
      "parentPostTime": "2008-07-09T14:50:35",
      "parentPostId": "844303"
    },
    {
      "threadId": "1737113",
      "post": "Berk is enjoying the USD/EUR pair gain value right now (which you may already know). He'll be back in another week and a half.",
      "time": "2008-07-08T20:39:02",
      "id": "838927",
      "parentPost": "Berk's gotta be stoked to see this video make it to the blog.. ",
      "parentPostTime": "2008-07-08T20:20:09",
      "parentPostId": "838760"
    },
    {
      "threadId": "1734957",
      "post": "i'm getting crushed all of a sudden. yikes!\r\n\r\n",
      "time": "2008-07-08T19:09:08",
      "id": "838050"
    },
    {
      "threadId": "1725276",
      "post": "I'm not sure these stocks will hit targets with enough time to spare. Are you trading these to hit their targets in a week and a half, or are you just trying to scalp some $$$ here?",
      "time": "2008-07-08T17:24:46",
      "id": "837109",
      "parentPost": "Why August and not July?",
      "parentPostTime": "2008-07-08T15:48:57",
      "parentPostId": "836195"
    },
    {
      "threadId": "1729361",
      "post": "Yeah. Perhaps I'm selling off some of my positions too soon. I finally exited my BAC position after a nice drop from the low 30s. Sitting in front of a 4.5% rally isn't the most fun.\r\n",
      "time": "2008-07-08T16:35:22",
      "id": "836672",
      "parentPost": "Here cometh a rally.. maybe.. for the 8th time today.",
      "parentPostTime": "2008-07-08T16:30:45",
      "parentPostId": "836618"
    },
    {
      "threadId": "1727823",
      "post": "There are some really nice setups in here ... others  are getting there.\r\n\r\nA couple I like from this list: CELG CPHD FLIR GMXR MYGN NUVA VRTX",
      "time": "2008-07-08T15:51:18",
      "id": "836227"
    },
    {
      "threadId": "1694904",
      "post": "Let's see him out the door ;-)\r\n\r\nI'm so tempted to go all to cash right now. The anticipation of a real rally plus the see-saw action in my portfolio is getting old real quick.",
      "time": "2008-07-08T13:47:43",
      "id": "835049",
      "parentPost": "Okay, here she goes again - another rally attempt.",
      "parentPostTime": "2008-07-08T13:46:08",
      "parentPostId": "835031"
    },
    {
      "threadId": "1689051",
      "post": "Took a very tiny anticipatory nibble on PH at close.\r\n\r\nI was tempted by CPX but I wasn't quite ready.",
      "time": "2008-07-07T20:05:13",
      "id": "829778"
    },
    {
      "threadId": "1664109",
      "post": "I'm out of town and completely away from all interwebs on Friday, so I'm either closing Thursday EOD, or placing an order to close on friday near EOD, if not sooner.",
      "time": "2008-07-07T17:09:17",
      "id": "828250",
      "parentPost": "I already got in on some August Paper..  I am waitng to see if I can get a lttle profit on my July paper befor I close out..   When are you thinking about closing your July's",
      "parentPostTime": "2008-07-07T16:25:45",
      "parentPostId": "827871"
    },
    {
      "threadId": "1565207",
      "post": "Arty isn't joking. This is the best blog on earth. And the Greatest Hits posts are worth their weight in gold.  Arty knows what he's talking about. Listen to him.",
      "time": "2008-07-03T21:47:56",
      "id": "810147",
      "parentPost": "Hello Jeff,\r\nI'm new to your blog and just recently started swing trading.  I've been trading intra-day setups a la Wall St. Warrior style and its been pretty much stop and go-too many headfakes and stop outs.  Wanted to get your input on ESI.  Its formed a cup & handle w/ resistance at $80.  It looks like its in a re-test phase of that level.  I've been long it several times around $85 and have been stopped out ( i just recently read one of your posts about waiting until EOD for the close - if i had read it earlier i wouldn't have been stopped out).  Low of the cup is around $45, so theoretically target price is $115.  Your thoughts and advice are greatly appreciated.",
      "parentPostTime": "2008-07-03T18:05:27",
      "parentPostId": "808584"
    },
    {
      "threadId": "1561205",
      "post": "my thoughts exactly. I probably don't want to know.",
      "time": "2008-07-03T17:38:11",
      "id": "808361",
      "parentPost": "furry handcuffs???????",
      "parentPostTime": "2008-07-03T17:34:58",
      "parentPostId": "808335"
    },
    {
      "threadId": "1551046",
      "post": "...like my HAS Jul 40s. 0x0.10.  Not worth selling yet.",
      "time": "2008-07-03T15:24:02",
      "id": "807218",
      "parentPost": "If they're worthless, you've got nothing to lose holding them.",
      "parentPostTime": "2008-07-03T15:14:02",
      "parentPostId": "807124"
    },
    {
      "threadId": "1542422",
      "post": "I was going to say... I'm roughly delta neutral, but skewed bearish with energy and oil stocks. I had purchased an OTM DIA call to balance things out, and of course it lost value as the day dragged on. Really, this is in anticipation of a bounce in the dow, which we all know is quite oversold. My plan, if anything, was to take some of the bite out of the losses I could suffer from this rally.\r\n\r\nSo I'm wondering if I should have just ditched that call once it appeared the markets were declining for the day. The call is still in place and ready to do its job if need be. I'm also wondering if I should have been a little more OTM than what I am so losses like today don't dampen my profit potential.\r\n\r\nRamblings. I'm going to bed!",
      "time": "2008-07-03T07:41:42",
      "id": "805220",
      "parentPost": "Yes, absolutely, as soon as I get past break-even I close that sucker. Just there to mitigate my losses. We all have been whipsawed in the last few weeks - today is a great example. So, I always keep some cash around to dive into some cubes and ride it out. Of course this strategy only makes sense if you have longer term positions that you want to ride out. Especially during these sucker rallies - might as well turn the table and cash into the insanity instead of letting it hurt you.\n\nUPDATE: wanted to throw in that I didn't hedge today - I was delta neutral. When the market flipped around again, some of my long positions dropped off, which initially made me a lot of money. Then my shorts started picking up steam and I finished the day up 10%. I'm up over 60% in my portfolio in one week - unless of course I get killed tomorrow - LOL.",
      "parentPostTime": "2008-07-03T00:31:31",
      "parentPostId": "802929"
    },
    {
      "threadId": "1539878",
      "post": "the bounce would be a retest of S/R near 170ish. If what I'm looking at right here was EOD with 1.5x volume and break of that support I'd probably call this a good EE for puts.",
      "time": "2008-07-02T17:23:21",
      "id": "799290",
      "parentPost": "iamcam    \r\n\r\nX at 159.  Next key support level is 155.  Got to be some bounce at some point (thats certainly meaningless)",
      "parentPostTime": "2008-07-02T16:34:20",
      "parentPostId": "798776"
    },
    {
      "threadId": "1527897",
      "post": "How did I miss entry in CHK? *sigh* Congrats, Sarah. Feels good, don't it!?",
      "time": "2008-07-02T13:41:47",
      "id": "797278",
      "parentPost": "CHK may make my month. Jeff a big bow to you :)",
      "parentPostTime": "2008-07-02T13:30:05",
      "parentPostId": "797209"
    },
    {
      "threadId": "1525554",
      "post": "Does it seem to be off by a couple of minutes or a  couple timezones (or both)?\r\n\r\nI'm guessing the blog might be taking the time you load the post page for the timestamp.  And it's probably the server that is inserting the time into a date field.",
      "time": "2008-07-01T21:40:32",
      "id": "793346",
      "parentPost": "My time stamp is probably broken. Its been mentioned before. I am pretty sure it starts as soon as a new post opens.",
      "parentPostTime": "2008-07-01T20:34:16",
      "parentPostId": "792783"
    },
    {
      "threadId": "1523394",
      "post": "Jeff,\r\n\r\nYour watch lists the last couple weeks have been.... unbelievable. I'm finally back in the black from my rookie mistakes (errors) I made last year, and I've learned so much from you and everyone here over the last several months that I'm confident I'm on the right trajectory to being consistently profitable. It may or may not be right now, but I know it's at least on the horizon.\r\n\r\nSo Jeff, THANKS!!! Seriously. I probably would have quit trading by now if it wasn't for this blog.\r\n",
      "time": "2008-07-01T16:11:55",
      "id": "790190"
    },
    {
      "threadId": "1508894",
      "post": "...roughly there. Today looks like just more same ol'. pick a color, but we're still headed higher, IMO",
      "time": "2008-07-01T13:50:44",
      "id": "788877",
      "parentPost": "Anyone else have a $90 target on BTU? Or are you going to just ride the trend? ",
      "parentPostTime": "2008-07-01T01:13:59",
      "parentPostId": "786098"
    },
    {
      "threadId": "1504278",
      "post": "clean cups.... post moved there.",
      "time": "2008-06-30T20:03:44",
      "id": "784086"
    },
    {
      "threadId": "1496820",
      "post": "FLIR has a good EE right now.\r\n",
      "time": "2008-06-30T15:15:23",
      "id": "781698"
    },
    {
      "threadId": "1461357",
      "post": "\"What's Beta?\"\r\n\r\nJust kidding. I know what it is. I personally don't know anyone who trades using beta as any kind of useful measure on individual positions unless you have a ton on and use the aggregate beta to help you hedge your positions. I myself have found that beta is only slightly truthful across my portfolio. Good example was this last week. Beta weighting my positions against the various indexes I was almost exactly delta neutral at times, but the action in my portfolio showed a very different story - profitable on the way down, took some good hits on the way up. \r\n\r\nLong story short - trade the tape. I almost exclusively use price, volume, support, and resistance to take my trades. and it's been working alright just that way as I'm getting better at reading price movement. More importantly, come up with a set of rules and stick to them. That, more than anything, will help you become a better trader.",
      "time": "2008-06-28T22:44:05",
      "id": "771830",
      "parentPost": "Jeff (or anyone else who can weigh in) ~\r\n\r\nHow much importance do you put on the Beta of a particular stock, or do you consider it at all?  Given two stocks from the same Industry group or Sector, with similar chart patterns, and everything else being pretty much equal - will you defer to the one with a higher Beta?  And if so, where do you get your Beta rating from?  I notice that Yahoo Finance and MSN Money will give much different Beta ratings.  Which, in your opinion, is more reliable?\r\n\r\nAnd please don't flame me for not having an Avatar.  I've registered and I've tried to upload the image....but to this point....no dice.    ",
      "parentPostTime": "2008-06-28T22:27:15",
      "parentPostId": "771785"
    },
    {
      "threadId": "1459978",
      "post": "FWIW (for what it's worth.... gotta teach some of the abbreviations around here):\r\n\r\nSome of the big money managers are looking at food companies for defensive positions. We have a family friends who is one of those guys... actually one of the top one of those guys... and is suggesting the CALM investment in particular.",
      "time": "2008-06-27T19:50:47",
      "id": "764771",
      "parentPost": "I dont know how it survived the last few days. failed breakdown? Point as new support.",
      "parentPostTime": "2008-06-27T19:31:22",
      "parentPostId": "764571"
    },
    {
      "threadId": "1456149",
      "post": "With gas prices as they are, I'd take the monkey. You won't believe  \r\nthe milage this heap gets.",
      "time": "2008-06-27T19:25:11",
      "id": "764514",
      "parentPost": "all I got was a monkey...",
      "parentPostTime": "2008-06-27T16:34:43",
      "parentPostId": "762958"
    },
    {
      "threadId": "1458388",
      "post": "Pandora is awesome. LOVE IT!\r\n",
      "time": "2008-06-27T17:44:50",
      "id": "763561",
      "parentPost": "Look forward to it! In the mean time enjoying Pandora radio (thanks to whoever posted it), great tennis on the tube and green on my computer screen (thanks to JK).' What a country'!\r\nTomSC",
      "parentPostTime": "2008-06-27T17:19:21",
      "parentPostId": "763345"
    },
    {
      "threadId": "1457658",
      "post": "Which one??",
      "time": "2008-06-27T16:40:31",
      "id": "762990",
      "parentPost": "I liked the crystal ball better ;) Have a great weekend Jeff.  Off to Sea World.  Need a damn crackberry to monitor my trades while away from the laptop.  Sigh.",
      "parentPostTime": "2008-06-27T16:35:45",
      "parentPostId": "762962"
    },
    {
      "threadId": "1441928",
      "post": "I concur",
      "time": "2008-06-27T13:40:51",
      "id": "761610",
      "parentPost": "Jeff-\r\n\r\nReally great market cast tonight. \r\n\r\nAs I was listening, I realized how much more I have to learn. I can't wait to get there! \r\n\r\nliz",
      "parentPostTime": "2008-06-27T05:19:33",
      "parentPostId": "760120"
    },
    {
      "threadId": "1438815",
      "post": "I love this headline from CNBC: \"Shorting stocks Could Be Way to Play This Market\"\r\nhttp://biz.yahoo.com/cnbc/080626/25391526.html\r\n\r\nA little late, don't you think?\r\n\r\n",
      "time": "2008-06-26T19:16:44",
      "id": "756338"
    },
    {
      "threadId": "1436023",
      "post": "Looks like my positions in HAS and BIG may get closed out today (at least BIG is below trendline support). And RTH isn't showing strength lately.\r\n\r\nIs anybody seeing any long setups that aren't energy- or commodity-related?",
      "time": "2008-06-26T16:01:39",
      "id": "754474"
    },
    {
      "threadId": "1422486",
      "post": "Wendi --\r\n\r\nI just hit my max ever - 10 - by adding two this afternoon. Lots of great setups make you want to take everything, but you just need to have discipline. Maybe exit trades that are underperforming compared to others in the sector. 10 seems pretty manageable if your timeframe is more than a few days.\r\n\r\n",
      "time": "2008-06-26T01:06:57",
      "id": "750340",
      "parentPost": "Wow, that's a lot of positions to watch!  Are you really able to manage that many positions at one time, especially in such a volatile, irratic market?  Whew! makes me tired just thinking about it.  Maybe you should trim off your top 10 - 15 so you can manage them better.  \r\n\r\n ",
      "parentPostTime": "2008-06-26T00:43:03",
      "parentPostId": "750211"
    },
    {
      "threadId": "1417446",
      "post": "Let me know ahead of time, if you can.",
      "time": "2008-06-25T19:38:17",
      "id": "748161",
      "parentPost": "Roger that! I'll definitely plan on making an appearance, sign some autographs, you know.. =) ",
      "parentPostTime": "2008-06-25T18:22:22",
      "parentPostId": "747425"
    },
    {
      "threadId": "1403047",
      "post": "I got in yesterday EOD. Unfortunately it's the one of the few stocks in my portfolio that is making money right now. Just not enough.",
      "time": "2008-06-25T15:31:17",
      "id": "745824",
      "parentPost": "Since we are all pissed about what ISNT working... Lets talk about what IS, as we remain patient for the rest of our portfolio to give us an exit, or work. \r\n\r\nBIG is bouncing off the trend line and a prior high. Was a great entry late yesterday or early this morning. Anyone with me?",
      "parentPostTime": "2008-06-25T14:54:26",
      "parentPostId": "745495"
    },
    {
      "threadId": "1402070",
      "post": "well, let's cross our fingers :)",
      "time": "2008-06-24T19:43:26",
      "id": "740050",
      "parentPost": "nono, im expecting the fed to piss off investors.",
      "parentPostTime": "2008-06-24T19:41:46",
      "parentPostId": "740032"
    },
    {
      "threadId": "1398153",
      "post": "I think it was the frustration of the puts losing money and calls not participating in the rally. ",
      "time": "2008-06-24T17:33:39",
      "id": "738986",
      "parentPost": "What, being patient?",
      "parentPostTime": "2008-06-24T17:26:26",
      "parentPostId": "738927"
    },
    {
      "threadId": "1382279",
      "post": "for what it's worth, ATW didn't break out. It stopped right at my resistance yesterday. Volume is also super low today. I think the only thing we have to worry about for oil-related stocks is the fed announcement on wed, then later any kinds of laws that might be passed to curb speculation (though even those are doubtful)",
      "time": "2008-06-24T14:40:51",
      "id": "737605",
      "parentPost": "ATW fake-out",
      "parentPostTime": "2008-06-24T13:49:33",
      "parentPostId": "737244"
    },
    {
      "threadId": "1328810",
      "post": "Just a reminder to everyone, FOMC meeting begins on Monday, with the announcement on Wednesday at 2:15 EST.",
      "time": "2008-06-21T19:01:24",
      "id": "722552"
    },
    {
      "threadId": "1300328",
      "post": "I have a 3x5\" index card sitting right in front of me, at the base of the computer monitor. It reads one thing in large, back letters:\r\n\r\nPatience\r\n\r\nOdd as it sounds, it helps. It reminds me not to force trades, chase trades, trade for the sake of trading, enter or exit on impulse, and the list goes on.",
      "time": "2008-06-19T16:02:14",
      "id": "707539"
    },
    {
      "threadId": "1286689",
      "post": "BTU is my friend!",
      "time": "2008-06-19T13:32:14",
      "id": "706414"
    },
    {
      "threadId": "1282436",
      "post": "It's below my original EE, but it's so close and still sticking to the trend line that I may just hold on. Volume is super low, too, so I'm not even worried about having to go short on it here.",
      "time": "2008-06-18T18:51:54",
      "id": "701205",
      "parentPost": "I'm thinking maybe ROST puts.  I was gonna buy calls on the breakout but its breaking through trend support. ",
      "parentPostTime": "2008-06-18T18:25:26",
      "parentPostId": "700968"
    },
    {
      "threadId": "1260256",
      "post": "I know others who tried trading on vacation... no bueno. One of the hardest things I've found was getting reliable connections to the net, or ones that were fast enough that you could actually trade with.\r\n\r\nMaybe you can set trailing stops on some of your winners. At least it'll keep catastrophes from ruining your time away.",
      "time": "2008-06-17T15:44:33",
      "id": "691553",
      "parentPost": "Happy Birthday to Jax coming straight from Hot-Lanta!!\r\n\r\nJeff,\r\n\r\nPerhaps you could address my question about leaving the country and how to trade while on vacation...  Planning on closing out the majority of my positions, but am wondering if things like SEP 75C in TRA are worth the risk...Sure I think the trend is going to continue, but I have no way to manage (close or add) from where I will be, so everything will have to be per-set contingant orders.\r\n\r\nANY advice you have would be fantastic, as I am really starting to fret this during \"crunch time.\"\r\n\r\nThanks again in advance, and one more Happy Birthday to Jaxon....Enjoy your day!",
      "parentPostTime": "2008-06-17T15:20:06",
      "parentPostId": "691354"
    },
    {
      "threadId": "1242789",
      "post": "Be patient! Wait.",
      "time": "2008-06-17T13:51:03",
      "id": "690609",
      "parentPost": "Ouch!  All my puts are way in the red!  Do I cut losses now and switch to Calls?",
      "parentPostTime": "2008-06-17T13:44:15",
      "parentPostId": "690549"
    },
    {
      "threadId": "1239483",
      "post": "Sue,\r\n\r\nI forgot - where do you live again? I went to UCSD and LOVED to go hiking around there at least once a week during those nice cool summer evenings right before sunset. Absolutely beautiful.",
      "time": "2008-06-16T16:48:31",
      "id": "684468",
      "parentPost": "Long: Torey Pines!!   (My gorgeous wedding site.)\nShort: Rocco\n\nGo Tiger!",
      "parentPostTime": "2008-06-16T16:14:01",
      "parentPostId": "684194"
    },
    {
      "threadId": "1196220",
      "post": "yeah. -1 for the name, -1 for the pic.",
      "time": "2008-06-16T07:00:41",
      "id": "682180",
      "parentPost": "I agree.  Crosses the good taste line...IMO",
      "parentPostTime": "2008-06-16T02:35:12",
      "parentPostId": "681538"
    },
    {
      "threadId": "1192754",
      "post": "I miss those days. I wonder if we'll ever go back to the drink/recipe of the week on Fridays. There were some great ideas there.",
      "time": "2008-06-13T16:39:05",
      "id": "670346",
      "parentPost": "Jeff,\r\nI have decided as a tribute to the Old Classic Market Cast I am going to have lunch in the pool, a cuke sandy with a husky glass of Pinot, and I am going to look to the formations in my patio structure for price patterns.  How bout that shit?  Talk about contrarian!\r\n\r\nCheers,\r\narty",
      "parentPostTime": "2008-06-13T16:28:57",
      "parentPostId": "670253"
    },
    {
      "threadId": "1182051",
      "post": "Technically it was 64.94, but who's counting?",
      "time": "2008-06-13T14:25:05",
      "id": "669125",
      "parentPost": "Did GNK really print 65 this morning for a moment or are my Profit Charts hosed?",
      "parentPostTime": "2008-06-13T14:13:40",
      "parentPostId": "669035"
    },
    {
      "threadId": "1178968",
      "post": "Jeff,\r\n\r\nI heard you carry around one of those Dirty Harry .44 Magnum revolvers for \"special\" stocks. Is it true?",
      "time": "2008-06-12T20:11:18",
      "id": "648410",
      "parentPost": "I reloaded.",
      "parentPostTime": "2008-06-12T19:23:12",
      "parentPostId": "647892"
    },
    {
      "threadId": "1174761",
      "post": "I have the horizontal S/R up near 46, and my diagonal support is a  \r\nhair steeper.",
      "time": "2008-06-12T19:22:08",
      "id": "647879",
      "parentPost": "WFT as I see it\r\nhttp://img65.imageshack.us/my.php?image=wftprophetab4.png",
      "parentPostTime": "2008-06-12T16:11:18",
      "parentPostId": "646173"
    },
    {
      "threadId": "1161983",
      "post": "CLEAN CUPS!!!!!!\r\n\r\n(New Posts)",
      "time": "2008-06-12T14:20:56",
      "id": "645168"
    },
    {
      "threadId": "1174701",
      "post": "clean cups",
      "time": "2008-06-12T14:11:00",
      "id": "645084"
    },
    {
      "threadId": "1156644",
      "post": "Check-out Jeff's Greatest Hits link on the left. There's a lot on entires/exits, limiting risk, etc. Many of us use EE (E/E, REE, etc) to define the place where we will enter and exit a trade - usually support or resistance. The idea is to enter close to your line in the sand so losses are kept small and gains relatively larger. Should the stock cross that line in the sand, exit. Pretty simple in concept. Actually doing it takes some practice.",
      "time": "2008-06-12T07:00:25",
      "id": "643629",
      "parentPost": "I am still trying to figure out what my loss rules are. A percentage would be good since I use percentage targets. Working out the percent is the hard part.. 20%.. 50%.. I don't know",
      "parentPostTime": "2008-06-12T04:33:34",
      "parentPostId": "643164"
    },
    {
      "threadId": "1140392",
      "post": "I'm looking at a bear flag pattern: maybe 7 points or so, which puts it right at support.",
      "time": "2008-06-10T20:06:06",
      "id": "632191",
      "parentPost": "What's the price target for CHL to fall to?",
      "parentPostTime": "2008-06-10T20:01:09",
      "parentPostId": "632156"
    },
    {
      "threadId": "1123565",
      "post": "Wherever you set it!\r\n\r\nSorry, not to be a douche bag, but we're more likely to help if there's a specific concept you need help with rather than you asking us to trade for you. Asking for EE and target prices won't help you learn, but asking for help making that determination will.",
      "time": "2008-06-10T16:19:42",
      "id": "630299",
      "parentPost": "What is the target price for SOL, Thanks",
      "parentPostTime": "2008-06-10T16:06:28",
      "parentPostId": "630180"
    },
    {
      "threadId": "1070699",
      "post": "Totally...\r\n\r\nbut I have the problem of not taking them when I could/should, so a lot end up small gains, or losses. I decided to take gains on my better performing june options today, even though they didn't necessarily reach targets. Is that a bad thing?",
      "time": "2008-06-06T20:22:35",
      "id": "609927",
      "parentPost": "Unrealized gains come and go...plan the trade, trade the plan.",
      "parentPostTime": "2008-06-06T19:36:51",
      "parentPostId": "609510"
    },
    {
      "threadId": "1052710",
      "post": "Perfect! my puts should be fine then...",
      "time": "2008-06-05T20:07:49",
      "id": "601761",
      "parentPost": "Cramer Just pumped RIO  on CNBC( says its going to 44) ,lets see if the Cramer curse works for all of us who own puts.",
      "parentPostTime": "2008-06-05T18:48:44",
      "parentPostId": "601001"
    },
    {
      "threadId": "1052086",
      "post": "MA is too expensive for  me, but the setup looks decent.",
      "time": "2008-06-05T16:30:49",
      "id": "599767"
    },
    {
      "threadId": "1033517",
      "post": "So who else is having a completely rotten trading day today? I think I just experienced the perfect storm. One winner, two roughly break-even, and five huge losers for the day.\r\n\r\nI think it's time for a nap.",
      "time": "2008-06-04T19:55:19",
      "id": "592792"
    },
    {
      "threadId": "1030904",
      "post": "Mind sharing the details?",
      "time": "2008-06-04T16:37:43",
      "id": "590710",
      "parentPost": "Good thing I moved up my stop.  I had a programmed exit that kept me profitable.   Now... just keep doing that.",
      "parentPostTime": "2008-06-04T16:24:58",
      "parentPostId": "590570"
    },
    {
      "threadId": "1019405",
      "post": "Thanks! But seriously... don't give me too much credit. ;-) I'm still learning, too. ",
      "time": "2008-06-04T15:17:09",
      "id": "589823",
      "parentPost": "Hi iamcam\r\n\r\nI've been in UNH for almost a week and I'm seeing what you are -- I'll make my decision to get out or stay in by day's end. You're experienced at this - I'm still a beginner - but I think UNH comes under the category of better opportunities elsewhere? Best to you - and I always appreciate your commentary.",
      "parentPostTime": "2008-06-04T15:02:11",
      "parentPostId": "589655"
    },
    {
      "threadId": "1012099",
      "post": "I see the same thing - H&S setup",
      "time": "2008-06-03T19:35:04",
      "id": "581685",
      "parentPost": "Sold on stop loss. Looks like a H&S put opportunity.",
      "parentPostTime": "2008-06-03T17:20:25",
      "parentPostId": "580485"
    },
    {
      "threadId": "1009669",
      "post": "Ah geeze kids. I'm not asking you for the target - I could do that on my own if I had a clue on a chart like this. That's what I'm trying to figure out. I'm looking at this chart and I'm at a bit of a loss to figure out reasonable targets. Simple diagonal S/R line extended out (my guess is this)? Distance between prev support and this new S/R?\r\n\r\nI know better than to ask for a target.",
      "time": "2008-06-03T16:07:22",
      "id": "579885",
      "parentPost": "Sooo... how do you figure a price target om something like this?",
      "parentPostTime": "2008-06-03T15:13:04",
      "parentPostId": "579451"
    },
    {
      "threadId": "928634",
      "post": "I got out today. I don't have my charts open so I can't tell you exactly what they have, but I know it moved past some horiz resist. I had drawn in. Losses were getting relatively expensive, too. There will be a better entry for me later.",
      "time": "2008-05-30T20:19:57",
      "id": "559765",
      "parentPost": "Has anyone been following BOOM?  If I am not mistaken it is hitting its resistance...but it is possible it may break through the way it has been moving today.  ",
      "parentPostTime": "2008-05-30T15:56:45",
      "parentPostId": "557604"
    },
    {
      "threadId": "918841",
      "post": "Negative. GMXR is one of many that got away (see yesterday's comment about work getting in the way of making money ;-).",
      "time": "2008-05-30T14:39:45",
      "id": "556957",
      "parentPost": "I still get freaked out at your avatar.\r\n\r\nDid you happen to get in on GMXR or AAPL?  short term trades with quick pops.",
      "parentPostTime": "2008-05-30T14:23:11",
      "parentPostId": "556848"
    },
    {
      "threadId": "899392",
      "post": "I need some tips.\r\n\r\nMy work environment hasn't been so good for trading lately - 30 minutes to find good trades, do the analysis, and actually get decent fills. I've got constant yapping in my ear (shared office space - no cubicles), endless distractions, and no concept  of what's going on in the market until I fire up ToS. Open charts during the day isn't an option. It feels like an up-hill battle for this EOD trader.\r\n\r\nThanks!",
      "time": "2008-05-29T20:12:46",
      "id": "552144"
    },
    {
      "threadId": "834845",
      "post": "I LOVED Prague. Was there a year ago this week. Absolutely beautiful. How long are you there for?",
      "time": "2008-05-27T18:42:32",
      "id": "536923",
      "parentPost": "I am in Prague this week.  :)",
      "parentPostTime": "2008-05-27T17:52:52",
      "parentPostId": "536579"
    },
    {
      "threadId": "795089",
      "post": "How about trading reversals - reversing your position? \r\n\r\nExample, many of us were long NYX until it broke diagonal support. We could have bought puts right there and made some good profits. I've never done that sort of trade before, but it's interesting to me and I wonder how the pros decide it's a good opportunity to reverse their positions.",
      "time": "2008-05-23T16:36:08",
      "id": "518387",
      "parentPost": "Hey folks, what is the theme of the day? I need another exercise or topic to write about. I've been selling out of a lot of positions to get ready to travel, so I am not watching much to enter here today.",
      "parentPostTime": "2008-05-23T14:30:37",
      "parentPostId": "517388"
    },
    {
      "threadId": "785965",
      "post": "A friend of mine who trades the Woodies CCI method sent me this link to a screencast with Mark Douglas - the guy who wrote Trading in the Zone.\r\nhttp://www.woodiescciclub.com/Lectures/mark-douglas/index.htm\r\n\r\nIf you haven't read the book yet definitely listen to it. If you have, you may or may not get something out of this.\r\n\r\nEnjoy",
      "time": "2008-05-22T13:28:56",
      "id": "509621"
    },
    {
      "threadId": "780682",
      "post": "Jeff,\r\n\r\nThanks for the perspective. Something about it just clicked for me.\r\n\r\nThanks!!",
      "time": "2008-05-21T15:40:04",
      "id": "503317",
      "parentPost": "There will be a big storm to weather in between.\r\n\r\nAre you willing to risk all your gains to make it to that target?",
      "parentPostTime": "2008-05-21T14:52:05",
      "parentPostId": "503002"
    },
    {
      "threadId": "772624",
      "post": "Also available on iTunes: http://phobos.apple.com/WebObjects/MZStore.woa/wa/viewPodcast?id=256831937\r\n",
      "time": "2008-05-21T04:06:17",
      "id": "501006",
      "parentPost": "Yes.......like how can I download the Marketcast into my mp3 to play later?",
      "parentPostTime": "2008-05-21T03:45:06",
      "parentPostId": "500921"
    },
    {
      "threadId": "763374",
      "post": "another day or two of this and it's time to start buying again ;-)\r\n",
      "time": "2008-05-20T16:06:28",
      "id": "496822",
      "parentPost": "Yup...Major down-moves punctuated with sharp counter-trend rallies\r\n",
      "parentPostTime": "2008-05-20T15:15:34",
      "parentPostId": "496466"
    },
    {
      "threadId": "761656",
      "post": "The legendary EB!",
      "time": "2008-05-20T03:39:22",
      "id": "494430",
      "parentPost": "Jeff -\r\n\r\nAs per your request and the sniffling from Raimo - my trading buddy I am back. As he told you all we have formed a friendship and bond that is unstoppable. More to follow later. Glad to be back.\r\n\r\nEB",
      "parentPostTime": "2008-05-19T20:13:02",
      "parentPostId": "492377"
    },
    {
      "threadId": "754012",
      "post": "dropped it like it was hot on Friday. It broke my diag resistance on good volume and an ugly, bearish candle - part of my rules for an exit.",
      "time": "2008-05-19T19:08:24",
      "id": "491816",
      "parentPost": "NYX - has anyone dropped it yet, everything about it is pissing me off. The stock price rises and my option value plumets. This sucks. ",
      "parentPostTime": "2008-05-19T16:58:40",
      "parentPostId": "490794"
    },
    {
      "threadId": "729531",
      "post": "Wow, that's a HUGE compliment! Congrats.",
      "time": "2008-05-16T21:23:44",
      "id": "480379",
      "parentPost": "A few weeks ago in the Capital Markets program they had us all go through a mock 40 period trading program using only candles, not even volume.  Option Addicts took home the gold.  Even Kelly Allman said he wouldn't mind if I traded his account for him!  That was because I voiced my rules and followed them.  Of course it helps that I know how to read a chart too.",
      "parentPostTime": "2008-05-16T21:05:40",
      "parentPostId": "480287"
    },
    {
      "threadId": "717195",
      "post": "ESRX forming a bit of a double-top near 74?",
      "time": "2008-05-15T15:54:04",
      "id": "470927"
    },
    {
      "threadId": "710918",
      "post": "Prophet is separate from ToS charts.",
      "time": "2008-05-15T06:21:21",
      "id": "468785",
      "parentPost": "Is there a reason my watch list in the main TOS window does not transfer to the watch list tab in prophet chart?",
      "parentPostTime": "2008-05-15T04:28:34",
      "parentPostId": "468388"
    },
    {
      "threadId": "706854",
      "post": "not sure right now. i'm at a company lunch right now so i'm holding\r\ntight until close w/ tos on the phone",
      "time": "2008-05-14T19:48:03",
      "id": "464823",
      "parentPost": "Is it a divorce, dissolution, or just a temporary restraining order?",
      "parentPostTime": "2008-05-14T19:23:36",
      "parentPostId": "464616"
    },
    {
      "threadId": "704842",
      "post": "I'm short RTI, but i'm getting out EOD today. My line at 45 has been crossed.",
      "time": "2008-05-14T17:01:11",
      "id": "463361",
      "parentPost": "Anyone short / put on RTI ?",
      "parentPostTime": "2008-05-14T15:56:43",
      "parentPostId": "462804"
    },
    {
      "threadId": "694844",
      "post": "My rules have pretty much always told me to stay out of trades over earnings.  I'm starting to re-evaluate whether or not I think the risk is all that substantial enough to completely exit entire positions (as some of you suggest exiting 50% or more to protect yourself). I'm on the fence partly because I don't have a lot of contracts to work with - even 50% in still seems a little risky to me right now.\r\n \r\nI sold the entire position while IV is in my favor, and maybe I can re-enter later, at a more favorable price, to continue the trend.",
      "time": "2008-05-13T20:56:27",
      "id": "458441",
      "parentPost": "I'm debating whether or not I should hold on to my DSX calls over earnings (BMO tomorrow). I have two contracts, so it's not a lot to work with. Any advice?",
      "parentPostTime": "2008-05-13T18:37:55",
      "parentPostId": "457506"
    },
    {
      "threadId": "692457",
      "post": "I'm wrong... but the new link isn't showing up at the top of the page. Sorry!",
      "time": "2008-05-13T18:33:55",
      "id": "457480",
      "parentPost": "Clean cups!  Bring a hot pad!",
      "parentPostTime": "2008-05-13T18:27:34",
      "parentPostId": "457437"
    },
    {
      "threadId": "692309",
      "post": "If that's how it works, do you think you can recommend to my boss that I get a raise?",
      "time": "2008-05-13T16:22:56",
      "id": "456670",
      "parentPost": "My recommendation last week.",
      "parentPostTime": "2008-05-13T14:58:29",
      "parentPostId": "456086"
    },
    {
      "threadId": "682466",
      "post": "Still in it.",
      "time": "2008-05-13T04:08:59",
      "id": "454418",
      "parentPost": "Anyone still in GME? I snoozed grabbing my points and it went up for a retest. Is anyone trading puts on this?",
      "parentPostTime": "2008-05-13T02:32:32",
      "parentPostId": "454112"
    },
    {
      "threadId": "673851",
      "post": "Sure, why not? Risk is pretty easy to manage here. Where's your EE line? I\"m showing in the neighborhood of $60.50ish",
      "time": "2008-05-12T16:20:11",
      "id": "450883",
      "parentPost": "Thinking of getting into some LFC calls here. I have a support line around 62ish.\r\n",
      "parentPostTime": "2008-05-12T16:02:06",
      "parentPostId": "450776"
    },
    {
      "threadId": "652362",
      "post": "Oh, in that case, you might want to exit soon, seeing as how you  \r\ndon't have much time remaining. You can always pick up june paper.",
      "time": "2008-05-09T16:54:03",
      "id": "438322",
      "parentPost": "I bought some May 35's calls.  Sitting right at support, may bounce before earnings...",
      "parentPostTime": "2008-05-09T16:48:11",
      "parentPostId": "438279"
    },
    {
      "threadId": "645684",
      "post": "I had calls at  -130. I'm stll sittin' pretty!",
      "time": "2008-05-09T13:28:02",
      "id": "436901",
      "parentPost": "pisssed you didn't buy the bottom? and it was -421 thank you...",
      "parentPostTime": "2008-05-09T12:01:50",
      "parentPostId": "436588"
    },
    {
      "threadId": "644163",
      "post": "rules had me exit yesterday. I'm looking for a bit more conviction to the upside (i.e. clearer breakout) for my entry",
      "time": "2008-05-08T19:57:16",
      "id": "433938",
      "parentPost": "Jeff - You still in ILMN expecting a break up and out?",
      "parentPostTime": "2008-05-08T18:58:13",
      "parentPostId": "433524"
    },
    {
      "threadId": "643580",
      "post": "Either of you mind sharing? ;-)",
      "time": "2008-05-08T16:28:58",
      "id": "432575",
      "parentPost": "It's On!!!",
      "parentPostTime": "2008-05-08T16:20:02",
      "parentPostId": "432518"
    },
    {
      "threadId": "636407",
      "post": "The setup is starting to look good but as I look closer at the charts I notice it doesn't move a whole lot. 5 points in 2.5 months isn't enough for me to justify a trade on this stock. But like I said - the patterns look pretty decent otherwise.",
      "time": "2008-05-07T21:35:07",
      "id": "429122",
      "parentPost": "CMC: nice setup for some upside movement\r\n\r\nhttp://screencast.com/t/HqsQqgRhgtX",
      "parentPostTime": "2008-05-07T20:37:03",
      "parentPostId": "428783"
    },
    {
      "threadId": "633231",
      "post": "I'm not liking this red candle today. I'm going to pass regardless.",
      "time": "2008-05-07T18:46:20",
      "id": "428100",
      "parentPost": "Ctas currently sitting right at support. Pretty low volume so far on today's pull back. ",
      "parentPostTime": "2008-05-07T18:19:26",
      "parentPostId": "427943"
    },
    {
      "threadId": "614551",
      "post": "Hey Jodi,\r\n\r\nWould you settle for the same info but the day after?\r\n\r\nI\"ll even cut you a deal on the \"should have\" trades - both entries and exits. I can offer those as far into the past as you like.",
      "time": "2008-05-05T20:33:21",
      "id": "417983",
      "parentPost": "I would have expected more from you Jeff.......could you please give us the stock name, number of contracts, strike & expiry, the day before the move so that we don't lose time value.........  ;-)\r\n",
      "parentPostTime": "2008-05-05T17:45:01",
      "parentPostId": "417168"
    },
    {
      "threadId": "586203",
      "post": "And now we see why Jeff is/was a little concerned.",
      "time": "2008-05-02T15:02:51",
      "id": "407235",
      "parentPost": "IT(SWIM) down big premarket due to a SEC investigation. makes me giggle for some reason. mostly at the SEC",
      "parentPostTime": "2008-05-02T13:24:25",
      "parentPostId": "406723"
    },
    {
      "threadId": "583925",
      "post": "I think you're upping your price target every time somebody asks you. I'm on to you Kohler ;-)",
      "time": "2008-05-01T18:55:48",
      "id": "403572",
      "parentPost": "$190.",
      "parentPostTime": "2008-05-01T17:38:08",
      "parentPostId": "403108"
    },
    {
      "threadId": "582644",
      "post": "I've considered rolling before, but for the same reasons you gave have not. But there have got to be times in the past where you held the option, theta was starting to get really expensive, and you had a lot of movement left in the underlying to your target. Are you typically giving yourself more than 15 days til expir on your contracts? That would seem reasonable to me, but I know some people will buy all the way up to the last week if the anticipated move is big enough, just as a matter of preference.",
      "time": "2008-05-01T16:21:54",
      "id": "402593",
      "parentPost": "I treat it no different than any other trade. When I get a signal, I take it down.\r\n\r\nCould you imagine rolling V into a more expensive contract here in the high 80's right ahead of a pullback?\r\n\r\nOuch! Kiss those profits good bye.",
      "parentPostTime": "2008-05-01T15:55:35",
      "parentPostId": "402417"
    },
    {
      "threadId": "568877",
      "post": "The volume wasn't high enough to be a convincing trend reversal. Connect the bottoms of the candle bodies from Jan, Mar, and April lows and you'll see it's fine. But do keep an eye on it.",
      "time": "2008-04-30T13:44:29",
      "id": "396985",
      "parentPost": "It seems DNR may have turned from potential bull to bear: \r\n\r\nhttp://screencast.com/t/OJBqtx6qouT\r\n\r\nWhat do guys see?\r\n\r\n",
      "parentPostTime": "2008-04-30T13:22:15",
      "parentPostId": "396878"
    },
    {
      "threadId": "564505",
      "post": "Nah, we like you too much! But sorry for that loss! What are you going to do? Hold on and hope some of the price recovers (if at all possible)?\r\n\r\nI had a similar situation with a stock two weeks ago. The earnings icon appeared on the screen AFTER they were announced. Then later that day the earnings icon vanished. I don't trust prophet for that reason alone.",
      "time": "2008-04-29T15:19:00",
      "id": "392146",
      "parentPost": "I didn't see the FDP earnings sign. Kill me now.",
      "parentPostTime": "2008-04-29T14:43:42",
      "parentPostId": "391946"
    },
    {
      "threadId": "555548",
      "post": "Would you like me to turn the night light on when you go to bed ;-)",
      "time": "2008-04-29T02:46:19",
      "id": "390384",
      "parentPost": "I am sorry but your avatar freaks me out.",
      "parentPostTime": "2008-04-28T23:02:18",
      "parentPostId": "389682"
    },
    {
      "threadId": "553759",
      "post": "Fantastic list!\r\n\r\nDo I hear moo-ing off in the distance?",
      "time": "2008-04-28T07:45:38",
      "id": "386948"
    },
    {
      "threadId": "537484",
      "post": "I don't like the volume on that candle. I'm also looking at the failure to break overhead resistance... and earnings are coming up soon. I would personally look for something else since *I* would be exiting before the report.",
      "time": "2008-04-25T19:44:35",
      "id": "380823",
      "parentPost": "RSTI- low risk e/e on the retest of the breakout. ",
      "parentPostTime": "2008-04-25T19:40:20",
      "parentPostId": "380799"
    },
    {
      "threadId": "529991",
      "post": "I'm still in LVS - more potential downside than BYI, which I exited today. Didn't like the volume on that candle.\r\n\r\nI'm also sticking to my rules on LVS - another reason to stay in. I didn't have a clear enough exit signal on it yet (for me, but you may disagree).",
      "time": "2008-04-24T20:16:07",
      "id": "376551",
      "parentPost": "Any views on LVS anyone? ",
      "parentPostTime": "2008-04-24T19:35:15",
      "parentPostId": "376344"
    },
    {
      "threadId": "529798",
      "post": "Awesome! I can't wait to see what you have in store for us!\r\n\r\nBring it!",
      "time": "2008-04-24T16:22:21",
      "id": "375420"
    },
    {
      "threadId": "521413",
      "post": "Looks like we should have gone...\r\n\r\nOuch! That's going to leave a mark!",
      "time": "2008-04-24T13:48:15",
      "id": "374574",
      "parentPost": "From the beginning, or should I pick it up there.\r\n\r\nThe same decision's buggin' me...\r\n\r\n(you do the spanish...LOL)\r\n\r\nTomorrow is another day...",
      "parentPostTime": "2008-04-23T20:05:41",
      "parentPostId": "371713"
    },
    {
      "threadId": "521212",
      "post": "I was afraid you were going to say that ;-)\r\n\r\nThanks!",
      "time": "2008-04-23T16:05:35",
      "id": "370371",
      "parentPost": "This is a likely outcome when you buy near resistance. Like I have been saying, I buy a small position size in anticipation and add on confirmation. There is a clear line at $90, which is where I plan to get out on a breakdown.",
      "parentPostTime": "2008-04-23T16:02:25",
      "parentPostId": "370350"
    },
    {
      "threadId": "514605",
      "post": "You're right. Besides looking at the investools site, do you know of any quick and easy ways to get that information. I think I often find these good set-ups and enter them before thinking about the possible implications of __fill_in_the_blank__ (like industries, etc)",
      "time": "2008-04-23T15:48:21",
      "id": "370244",
      "parentPost": "Just one other quick observation - diversify!  DE/RSTI same industry - BYI/LVS - same industry also.  You're getting twice the bang for the buck, but also 2x the exposure if you're wrong.",
      "parentPostTime": "2008-04-23T14:37:13",
      "parentPostId": "369825"
    },
    {
      "threadId": "513294",
      "post": "I loved DNR (it's OK... was better), got in a little late for the move on TSO, but I think it wants to love me back.\r\n\r\nDE is testing my patience.",
      "time": "2008-04-22T18:38:55",
      "id": "365809",
      "parentPost": "I love TSO, TJX, DNR and FXE today. Oh, yeah, and FSLR. \r\n\r\nSo did not love NFLX and I am not liking PCLN today. ",
      "parentPostTime": "2008-04-22T17:45:48",
      "parentPostId": "365532"
    },
    {
      "threadId": "512611",
      "post": "Oh my beloved DE. What will I do with you today? You've given me some OK profits, but now what will you do?\r\n\r\nUgh. I think this only illustrates my lack of good exit rules on profits when stocks don't hit their target. Didn't jeff write something about that?",
      "time": "2008-04-22T16:38:53",
      "id": "365213"
    },
    {
      "threadId": "502261",
      "post": "I traded FDP a few times last month. Just watch out for wide bid/ask spreads. There are times when it can work OK, but just make sure your entry and exit are during those times, not when the MM want to make you pay 30% of the premium just to get out.",
      "time": "2008-04-22T13:47:12",
      "id": "364327",
      "parentPost": "FDP - looking at the ascending triangle, considering it took November - April to form (pending breakout), would you look all the way until October for options?  I like the set-up, but not sure about going that far out.  Thanks!",
      "parentPostTime": "2008-04-22T01:38:34",
      "parentPostId": "363028"
    },
    {
      "threadId": "489743",
      "post": "Gocha. I'm hesitant to put on *more* bullish positions, as I'm already 4:1 right now bulls to bears. I'm going to take another look at SCHN again on Monday to see how things go. May 90s have a good R/R.\r\n\r\nJeff,\r\nI forgot - what was your stance on steel companies right now?",
      "time": "2008-04-18T20:03:32",
      "id": "353747",
      "parentPost": "Cam, \r\nI have a text note on my chart that says, \"This stock hates you!!\"\r\nIt's like CROX, I never win on it.\r\n",
      "parentPostTime": "2008-04-18T19:55:42",
      "parentPostId": "353689"
    },
    {
      "threadId": "488899",
      "post": "Liz,\r\n\r\nForgot to mention I was up in Pasadena last weekend (grew up in Arcadia). Do you go to the IT user group up there - the one Brian Cox organizes?",
      "time": "2008-04-18T18:37:00",
      "id": "353275",
      "parentPost": "SpartaChris-\r\n\r\nThere was a microquake in Pasadena at 4 this morning. And then I went back to sleep as well. And yes, we're overdue for the big one. Lovely thought, right?\r\n\r\nI'm liking the earthquakes taking off in the market though! ",
      "parentPostTime": "2008-04-18T17:04:01",
      "parentPostId": "352701"
    },
    {
      "threadId": "483673",
      "post": "It's really interesting to me (and helpful). Keep it coming!",
      "time": "2008-04-18T16:27:31",
      "id": "352493",
      "parentPost": "I was not sure the reaction I would get when I posted the info, given it is \r\nnot really chart info.  If the group finds it helpful, I can keep posting \r\nit, or if it is annoying, I can stop.  The next two months are key.",
      "parentPostTime": "2008-04-18T14:43:05",
      "parentPostId": "351896"
    },
    {
      "threadId": "481695",
      "post": "Hey Step,\r\n\r\nUnrelated to this thread.... I'm going to take a look at your discussion board posts you were pointing me towards yesterday. I should have some time tonight... I'm thinking of doing the same thing. How's it been working for you?\r\n",
      "time": "2008-04-17T20:03:47",
      "id": "348911",
      "parentPost": "Jeff would you say this is perfect retest on CMA Comerica (or Kramerica as I prefer to call it)?    ",
      "parentPostTime": "2008-04-17T17:54:50",
      "parentPostId": "348097"
    },
    {
      "threadId": "475872",
      "post": "I think all of Jeff's recs from yesterday are taking a healthy pull-back. DE is the only one I entered, but I'm thinking of taking down some JOYG myself, and maybe RSTI.\r\n\r\nAny shorts out there? I'm pretty heavy on the call side right now.",
      "time": "2008-04-17T15:50:04",
      "id": "347424",
      "parentPost": "From Jeff's machinery expose, JOYG seems to be pulling back nicely near E/E for those interested.  TOS alerts rock.",
      "parentPostTime": "2008-04-17T15:42:54",
      "parentPostId": "347379"
    },
    {
      "threadId": "474455",
      "post": "I personally don't like this entry, but I also tend to be a lot more conservative on the entry/exit side of trading, so take it for what it's worth.",
      "time": "2008-04-16T19:31:13",
      "id": "343717",
      "parentPost": "What about a re-entry on HOLX today? Moved up pretty signifigantly, just going with the market or uptrending?",
      "parentPostTime": "2008-04-16T19:12:35",
      "parentPostId": "343610"
    },
    {
      "threadId": "473734",
      "post": "I show a neckline a little closer to 68... maybe 67.75(ish) - using a line chart, though candles would confirm a similar assessment, IMO.\r\n\r\nI'm looking forward for the H&S entry on ESRX as well.",
      "time": "2008-04-16T16:10:28",
      "id": "342627",
      "parentPost": "Sarah,\r\nI read your comments abut ESRX and yesterday being the best day to enter. I am seeing the neckline at about 67 on a candle chart. Did you use the line chart?\r\n\r\nI always appreciate your perspective.",
      "parentPostTime": "2008-04-16T15:42:10",
      "parentPostId": "342428"
    },
    {
      "threadId": "465843",
      "post": "I totally agree with this statement. Keeping in mind that I'm still learning this EE method and refining it (i.e., getting rid of the emotion and sticking to my rules), I've spent more in commissions this year than I've actually made, but over the last couple weeks I see my skill improving and that becoming less and less of a problem.\r\n\r\nThat said, one thing that is particularly hard for me is trying to be around the market enough during the day to get a feel for the pulse enough that I can make some really good decisions on entries/exits. 20-30 minutes at lunch can only go so far. Likewise, I see my father who cannot spend any time during the day looking at charts, and makes all his decisions in the evening, so he takes the active investing approach... and it works well for him. Really well.\r\n\r\nIt just goes to show you don't have to be an OptionAddict, or a market junkie, to make money.",
      "time": "2008-04-15T16:21:13",
      "id": "338227",
      "parentPost": "This market creates a lot of emotion- which lead to a lot of over trading, mistakes, and bad trades in general. \r\n\r\nYou can still take an active approach, but not be glued to a screen everyday.",
      "parentPostTime": "2008-04-15T16:11:43",
      "parentPostId": "338176"
    },
    {
      "threadId": "460567",
      "post": "Is anyone else in the ALXN trade? I half expected more out of this stock by now.\r\n\r\nGoing back to my AKAM roll idea yesterday -  I'm still debating whether or not I should roll, as it seems like it wants to hesitate at $29. Since I'm up in the trade I'm leaning on just taking whatever profits I have at the end of the day.",
      "time": "2008-04-15T16:07:03",
      "id": "338150"
    },
    {
      "threadId": "457016",
      "post": "I'm holding off until tomorrow to see what happens, but no longer than that.  If it appears that it will keep heading south I might roll-out (but more likely exit and wait for a re-entry signal). Otherwise I'm taking whatever money is left on the table and will come back another day to take their money. =)",
      "time": "2008-04-14T20:02:51",
      "id": "335060",
      "parentPost": "Cam,\r\n\r\nWhat strike are you holding, and which strike has the largest open interest.  If you are holding a strike that will be ITM if the stock closes @ the highest O.I., you can hold (but be prepared to exit).  If not, I would consider rolling at the next opportunity.\r\n\r\n",
      "parentPostTime": "2008-04-14T19:49:13",
      "parentPostId": "334998"
    },
    {
      "threadId": "454331",
      "post": "Jeff,\n\nGreat watchlist - tons of good setups coming this week.\n\nOne question  - why did FMC end up on your sell list? I saw a break-out 4/7, with that line held since.",
      "time": "2008-04-14T07:34:25",
      "id": "332965"
    },
    {
      "threadId": "441003",
      "post": "Of course I bought a full position! I'm the one-contract wonder.\n\nDon't worry - they were cheap and I planned on losing the entire premium. ",
      "time": "2008-04-12T13:42:02",
      "id": "328414",
      "parentPost": "Hope you didn't grab a full position!",
      "parentPostTime": "2008-04-12T12:38:51",
      "parentPostId": "328303"
    },
    {
      "threadId": "440155",
      "post": "Nah - I got in at the retest of support on Wed. My trade history shows mark $51.11. It's not a painful trade, but frustrating to have such a nice day yesterday to be erased today.",
      "time": "2008-04-11T17:07:58",
      "id": "325502",
      "parentPost": "When did you get in Cam?  Do you happen to be using the High of the Low Day entry?",
      "parentPostTime": "2008-04-11T16:23:43",
      "parentPostId": "325281"
    },
    {
      "threadId": "434859",
      "post": "My longs tody.... ouch.\r\n\r\nMGM hit my target at 52.50, so I'm out already. Got a decent fill and now to wait for another rip to short it some more.  Now just gotta wait for the rest of the portfolio to work itself out today.",
      "time": "2008-04-11T13:44:04",
      "id": "324428"
    },
    {
      "threadId": "434134",
      "post": "Any time!\r\n\r\nI looked at GE yesterday but wanted to wait to see what was going on today with it. I will look near the end of the day. I don't really like holding over earnings if I can help it, but that's my personal style.",
      "time": "2008-04-10T18:49:38",
      "id": "321434",
      "parentPost": "Thanks for your help the other night on the secert weapon. Are you entering today or waiting till after the earnings? I just wanted to test as well and say thanks!",
      "parentPostTime": "2008-04-10T18:46:49",
      "parentPostId": "321421"
    }
  ],
  "profileInfo": {
    "username": "iamcam",
    "about": "",
    "name": "iamcam",
    "disable3rdPartyTrackers": false,
    "isPowerContributor": false,
    "isAnonymous": false,
    "rep": 1.411953,
    "profileUrl": "https://disqus.com/by/iamcam/",
    "url": "http://iamcam.wordpress.com",
    "reputation": 1.411953,
    "location": "chair",
    "isPrivate": false,
    "signedUrl": "http://disq.us/?url=http%3A%2F%2Fiamcam.wordpress.com&key=pzTDT9cJtpHJOm11zzKi5Q",
    "isPrimary": true,
    "joinedAt": "2008-04-10T18:19:37",
    "id": "21628",
    "avatar": {
      "small": {
        "permalink": "https://disqus.com/api/users/avatars/iamcam.jpg",
        "cache": "//a.disquscdn.com/uploads/users/21628/avatar32.jpg?1281549414"
      },
      "isCustom": true,
      "permalink": "https://disqus.com/api/users/avatars/iamcam.jpg",
      "cache": "//a.disquscdn.com/uploads/users/21628/avatar92.jpg?1281549414",
      "large": {
        "permalink": "https://disqus.com/api/users/avatars/iamcam.jpg",
        "cache": "//a.disquscdn.com/uploads/users/21628/avatar92.jpg?1281549414"
      }
    }
  }
}