{
  "comments": [
    {
      "threadId": "3468524589",
      "post": "This story is so ridiculous, it's like an Onion story. Pure technopanic-fanning FUD. KITV, you know better. I'm embarrassed for you.",
      "time": "2015-01-30T05:43:49",
      "id": "1825036060"
    },
    {
      "threadId": "3420408848",
      "post": "Looks like they worked out the kinks from this early beta version... https://www.youtube.com/watch?v=GijLoiVkmYI",
      "time": "2015-01-14T19:14:30",
      "id": "1792643650"
    },
    {
      "threadId": "3290599245",
      "post": "Great introduction to Creative Commons for Honolulu.",
      "time": "2014-12-04T21:19:55",
      "id": "1726085505"
    },
    {
      "threadId": "3250835400",
      "post": "You need the username of a current member to join Tsu. Mine is 'hawaii' (easy to remember!), or you can use Pete's (the reporter) username of 'petecage'. See you on the inside!",
      "time": "2014-11-22T20:45:00",
      "id": "1707511995"
    },
    {
      "threadId": "3033976713",
      "post": "At our store in Honolulu, the Apple staff announced that they would not be selling any unlocked phones, only carrier-linked phones, and about 20 people left.",
      "time": "2014-09-19T19:52:38",
      "id": "1596886814"
    },
    {
      "threadId": "2800520825",
      "post": "I don't think Facebook's TOS gets around standard requirements for informed consent.\n\nhttp://answers.hhs.gov/ohrp/categories/1566",
      "time": "2014-06-28T05:04:00",
      "id": "1458835955"
    },
    {
      "threadId": "232163126",
      "post": "Approve--\nRyan Kawailani Ozawa\nryanozawa@gmail.com\nSocial: http://about.me/hawaii\nSecure: http://www.hawaiiweblog.com/about/key",
      "time": "2014-03-14T21:08:44",
      "id": "1285030561",
      "parentPost": "Hope to get this for our library (BYU–Hawaii) - mahalo!",
      "parentPostTime": "2014-03-14T21:06:09",
      "parentPostId": "1285027499"
    },
    {
      "threadId": "1850635009",
      "post": "Hey, Jeff! I'm trying to spend more time here, for sure. And while I might post things I post elsewhere, I'm trying to post natively most of the time, and customize the presentation for the Tumblr community.",
      "time": "2013-10-15T22:01:59",
      "id": "1083682352",
      "parentPost": "",
      "parentPostTime": "2013-10-15T07:53:32",
      "parentPostId": "1082833626"
    },
    {
      "threadId": "1301928952",
      "post": "Honolulu hosted an IconLocal on Saturday!\n\nhttp://www.youtube.com/watch?v=EjmSw72QeIs",
      "time": "2013-08-21T06:29:51",
      "id": "1009634028"
    },
    {
      "threadId": "1110019999",
      "post": "Registered in under two, got first choice: Manchester Grand Hyatt. See you there, Jim?",
      "time": "2013-02-28T15:17:48",
      "id": "815455254",
      "parentPost": "Got Hyatt Manchester, but as a backup to my orginal choices for downtown",
      "parentPostTime": "2013-02-28T13:13:41",
      "parentPostId": "815325919"
    },
    {
      "threadId": "983425338",
      "post": "I'm sorry. I'm dense. The end of the first page of the article reads, \"Continue to Page 2, as Dexter's new frenemy Isaak is discussed.\" I can't figure out how to get to Page 2. There's a simple trick to the IGN layout that I'm obviously missing.",
      "time": "2012-12-20T01:29:59",
      "id": "743226939"
    },
    {
      "threadId": "812429541",
      "post": "Very cool. Neat site, too.",
      "time": "2012-10-16T17:23:48",
      "id": "684344102"
    },
    {
      "threadId": "770070697",
      "post": "Awesome! Congratulations. Looking forward to all the updates!",
      "time": "2012-07-19T18:06:39",
      "id": "592226776"
    },
    {
      "threadId": "737000095",
      "post": "Thanks for the correction!",
      "time": "2012-06-25T22:09:27",
      "id": "567059602",
      "parentPost": "Hey Ryan, \nThanks for the support! One correction: The first class, “Introduction to Social Media Marketing,” starts on July 10, and will be led by Quincy Solano. Yancey will be teaching later courses, but not that particular one. Mahalo! ",
      "parentPostTime": "2012-06-25T21:54:27",
      "parentPostId": "567047733"
    },
    {
      "threadId": "722896750",
      "post": "Excellent stuff. Jared has already made waves with his work with campaign finance data. This is much more ambitious, but obviously much more relevant to the average citizen.",
      "time": "2012-06-12T20:46:35",
      "id": "555502950"
    },
    {
      "threadId": "709928934",
      "post": "I love to share links. I shared this article. And I never thought to use the built-in buttons. Because of the many different versions of these widgets and frames and buttons and the like, I never know if it's going to generate something that includes a citation, if it's just going to be a truncated headline, or be anything but a mess. Manual sharing provides for more consistent and coherent context, and I agree that the extra bit of effort increases the threshold of determining if something is really worth sharing.\n\n\nAnd no, Disqus, I don't want to share this comment on Twitter or Facebook.",
      "time": "2012-05-31T21:43:17",
      "id": "544169970"
    },
    {
      "threadId": "694224112",
      "post": "Thanks for catching that, Jasmine! Should have noticed the 'before' and 'after' captions in the Island Brew photo gallery on Facebook. Updated!",
      "time": "2012-05-18T18:06:07",
      "id": "532312746",
      "parentPost": "I'm a regular at Island Brew, and it looks nothing like the photograph.  That's what it looked like when the previous owners ran it.  The new owners renovated it completely before opening and IT IS STUNNING.  I think it's awesome you took the time to write about a good indy biz, but it might be worthwhile to include a photograph or two of what it really looks like....",
      "parentPostTime": "2012-05-18T17:58:51",
      "parentPostId": "532306571"
    },
    {
      "threadId": "671816186",
      "post": "Yeah, I commented on Twitter that PBN would probably have much better traction with social media savvy local businesses by being more engaged via social media. As it stands I'm figuring a lot of their response is coming from print readers. And that possibly reveals an interesting disconnect between the typical PBN reader and the typical local social media enthusiast.\n\n\nThe @PacificBizNews:twitter account, until the conversation about their engagement started last night, was only an automated feed of headlines and links. @jmagin:twitter had replied to another user only once all year... again, until last night. I was glad @DShimogawa:twitter chimed in to list a few other PBN users active on Twitter. There are a few. Admittedly, Twitter isn't the end-all, be-all of social engagement, but it's one of the three networks the national contest is focused on (along with Facebook and LinkedIn).\nThe metrics by which the contest will be judged are also problematic... but none of these contests really go well (remember the whole Audi flap last year?). As something light and fun, this is all great, but it's odd how seriously it's being positioned.",
      "time": "2012-05-01T19:04:59",
      "id": "515231910",
      "parentPost": "Interesting. I barely know the names of those nominated. And PBN never struck me as social powerhouse (I'm probably in the wrong circles) which could explain the low turnout??",
      "parentPostTime": "2012-05-01T18:51:57",
      "parentPostId": "515216668"
    },
    {
      "threadId": "643770835",
      "post": "Good catch! That was the table as provided by OAD.",
      "time": "2012-04-10T19:41:34",
      "id": "493537089",
      "parentPost": "Mama’s Fish House is on Maui",
      "parentPostTime": "2012-04-10T19:15:08",
      "parentPostId": "493516403"
    },
    {
      "threadId": "637742296",
      "post": "I wish HBO allowed ala-carte subscriptions to people who want the content but not the cable service. But that tight relationship is still HBO's bread and butter. \"Game of Thrones\" is a pretty good series!\n\nThe idea of reversing the up/down ratio (to get 30Mbps up) is a heck of a technology shift, and great for content creators. Upstream limits have been my primary complaint for years, not download speeds.\n\nYou \"went for it at a reduced cost\"? That's between $10 and $17 a month for a $36/month service (going by your previous link)? Is that the benefit of ocHui membership? ",
      "time": "2012-04-05T15:53:11",
      "id": "487375641"
    },
    {
      "threadId": "600065167",
      "post": "Wow, Christopher. Thanks so much for sparing the time to listen to our ramblings! I hope our love for your work comes through, and we do very much look forward to Season 2!",
      "time": "2012-03-07T05:43:47",
      "id": "458467506",
      "parentPost": "Hey! Thanks so much for the terrifically kind words! So glad you enjoyed the show. A reaction like yours is all I could have wanted when I was struggling to piece together the show when I started working on it.",
      "parentPostTime": "2012-03-06T06:43:38",
      "parentPostId": "457605636"
    },
    {
      "threadId": "601412970",
      "post": "Those are great! Thanks for sharing!",
      "time": "2012-03-07T05:43:08",
      "id": "458467220",
      "parentPost": "Hey guys - Greetings from Hooterville!\n\nNice to hear you back - enjoyed the CoverSpotting episode - Isley Bros FTW!\n\nHere's a little cover mixtape I put together last week after Davey Jones passed away.\n\nFour versions of Monkees tunes by Shonen Knife, Mike Auldrige, Taj Mahal & Paul Butterfield\n\nLinks for Google Music and Spotify\n\nhttp://spoti.fi/Ag9XIM on Spotify\n\nhttp://bit.ly/xhmeiV on Google Music\n\nThanks and take care!",
      "parentPostTime": "2012-03-07T02:47:27",
      "parentPostId": "458369935"
    },
    {
      "threadId": "576441924",
      "post": "Cool! I'm 'hawaii' and Jen is 'kalbiqueen' (and our show account, as mentioned, is 'popspotting'). Mo, another listener, chimed in with 'mohalen'!",
      "time": "2012-02-18T01:53:49",
      "id": "442531067"
    },
    {
      "threadId": "570275202",
      "post": "What does upside-down 'ALOHA' mean? Aloha in distress?",
      "time": "2012-02-11T19:22:21",
      "id": "436276969"
    },
    {
      "threadId": "557167309",
      "post": "Thanks for letting us know where else we can find Jodie Whittaker!\n\nhttp://www.imdb.com/title/tt0964587/",
      "time": "2012-02-08T01:20:04",
      "id": "432496875",
      "parentPost": "I saw Attack The Block at the Metrenome in San Francisco last year. I can't remember how I heard about it but I made a point to see it - it only played there for a few days. Anyway, just like you guys, I thought it was great and hit on all cylinders. I think I'll add it to my netflix queue and watch it again. You mentioned it had some good featurettes. \nFYI: Jodie Whittaker who plays Sam looked familiar to me so when I got home I looked her up on IMDB. She played Beverly, the receptionist, in St. Trinian's (2007). If you haven't seen St. Trinian's, you'll have to get on Netflix or something to rent it. St. Trinians's is a gem. Just check out the cast list on IMDB. Great cast, campy plot, lots of humor and some great music, too. It's a bit offbeat for mainstream audiences but its right up my alley. I think you (Jen and Ryan) will like it a lot. \n",
      "parentPostTime": "2012-02-02T00:50:23",
      "parentPostId": "426826955"
    },
    {
      "threadId": "561008748",
      "post": "It's great to get your review, Matt. It's come up often enough that we know we have to give it a shot, even though we might have been put off by the \"soapy\" label.",
      "time": "2012-02-08T01:19:00",
      "id": "432495927",
      "parentPost": "I checked out Revenge after a previous guest mentioned it a few months ago and I have to say it's definitely a fun show. Like Andrea mentioned, I was surprised and got caught up in the elaborate plot by Emily to get revenge on the people that wronged her father. In many ways it's a more adult version of Gossip Girl--basically really rich people fighting with one another.\n\nHowever, it's not done in a trashy way. Emily's plan is really well thought out and it's one of the things that drew me into the show. At first you're really rooting for her to win, but then there are a few story elements that show just how cold and calculating she really is, which then make you question if what she's doing is really right.\n\nJust when I think they couldn't do any more with the show . . . they do find something else that'll make you go \"WHAT THE HECK!?!\" I've stop trying to guess what'll happen and am just having fun seeing what happens next.",
      "parentPostTime": "2012-02-04T21:27:23",
      "parentPostId": "429636124"
    },
    {
      "threadId": "565540497",
      "post": "Given the 'found footage' style, this film should work just as well on the small screen... or perhaps even better!",
      "time": "2012-02-08T01:18:11",
      "id": "432495207",
      "parentPost": "Thought the trailer looked intriguing.  Glad to her your review.  I will check it out (probably on Netflix or Amazon) when it comes out.",
      "parentPostTime": "2012-02-06T16:45:07",
      "parentPostId": "430892197"
    },
    {
      "threadId": "566984860",
      "post": "It's at least worth the two-hour premiere! Enjoy. Hope you'll write in with your review!",
      "time": "2012-02-08T01:17:29",
      "id": "432494621",
      "parentPost": "Looking forward to this show! ",
      "parentPostTime": "2012-02-07T17:44:40",
      "parentPostId": "432069823"
    },
    {
      "threadId": "543229939",
      "post": "So glad we delivered! Now, indeed, it's up to you to make the most of the information. Here's the deal: If you can get to Honolulu, lunch is on us! Saving pennies right there! ",
      "time": "2012-01-30T21:42:24",
      "id": "424647014",
      "parentPost": "Thank you, thank you, thank you!  This is exactly what I wanted from the show with the original question.  What a gift you have given us non-Hawaiians.  Now to figure out how to get there (saving lots of pennies)...",
      "parentPostTime": "2012-01-20T16:04:36",
      "parentPostId": "416725980"
    },
    {
      "threadId": "514038996",
      "post": "Mele Kalikimaka!",
      "time": "2011-12-24T01:02:55",
      "id": "393445345"
    },
    {
      "threadId": "510027709",
      "post": "I've mentioned this many times before, but why not again? I've long been interested in HPD crime data. For years the claim was that it just wasn't available in an easily processable format. But now HPD is sending a feed to CrimeMapping.com. If a private company can get this public data, why can't the public? HPD is already sanitizing it for specific crimes and throttling updates:\n\nhttp://www.honolulupd.org/statistics/crimemapping.htm\n\nAlso, this data should be in an open format:\n\nhttp://www4.honolulu.gov/hpdtraffic/\n\nFrom what I gather, some sites are scraping this page and parsing it, but that's just silly.",
      "time": "2011-12-20T02:02:13",
      "id": "390329425"
    },
    {
      "threadId": "503249653",
      "post": "Aloha!",
      "time": "2011-12-14T03:30:32",
      "id": "386114180"
    },
    {
      "threadId": "501563987",
      "post": "Great. Now you've gone and done it... Heh.",
      "time": "2011-12-12T23:35:25",
      "id": "385218662",
      "parentPost": "Hey ve-a resemble-a thet remerk! Ell yuoor Smeeths und Junes. Um gesh dee bork, bork!.. bureeng!",
      "parentPostTime": "2011-12-12T23:07:24",
      "parentPostId": "385203717"
    },
    {
      "threadId": "490546733",
      "post": "It's catchy! I'm bummed to read a lot of reviews that didn't like the original songs from the Flight of the Conchords team. I liked them!",
      "time": "2011-12-06T18:10:27",
      "id": "380444794",
      "parentPost": "Am I a Man? Or Am I a Muppet?  = is so stuck in my head!  We all enjoyed it very much.",
      "parentPostTime": "2011-12-05T06:57:41",
      "parentPostId": "379360075"
    },
    {
      "threadId": "461545092",
      "post": "Yep, the Apollo Bar was a nice touch. With all the emphasis on forgotten mines, I was half expecting to also see a fragment or two from Jughead (or a donkey wheel!) down there, too!",
      "time": "2011-12-06T18:09:17",
      "id": "380443983",
      "parentPost": "About Once Upon a Time, LOVE IT! Not to be missed! but --- Please tell me someone else saw the APOLLO BAR in the episode \"That Still Small Voice.\"  I was so happy to see a LOST shoutout! I hear the writers are from LOST. Love it. P.S. Still loving Hawaii Five-0 for my ultimate Hawaii fix.",
      "parentPostTime": "2011-12-05T16:12:36",
      "parentPostId": "379563515"
    },
    {
      "threadId": "494190904",
      "post": "Aloha from Hawaii!",
      "time": "2011-12-06T04:59:10",
      "id": "380098218"
    },
    {
      "threadId": "481983304",
      "post": "So, did the holiday weekend give you time to dive into \"Revenge\"? Or was there just way too much turkey to deal with?",
      "time": "2011-11-28T21:47:57",
      "id": "374466523",
      "parentPost": "I'm interested in listening to this episode since I've heard a few good things about the TV show Revenge (which I think is on ABC, not NBC). Heard it's kind of loosely based on the Count of Monte Cristo. What she has to say will probably sway me into checking this series out. Being really selective since my DVR is hovering around 70% capacity. Hopefully this holiday weekend I can bring it down. :)",
      "parentPostTime": "2011-11-24T02:54:06",
      "parentPostId": "371259837"
    },
    {
      "threadId": "479798855",
      "post": "That's an excellent point, David. I didn't realize that it was the fall finale date, and not the episode, that served as the hard stop last week, but it makes perfect sense. Fortunately I enjoyed the MOTW enough that I didn't have a gripe with it leading us into the break, though definitely the preview for Episode 8 was the closest thing to a cliffhanger that we got to wrap 2011.",
      "time": "2011-11-22T16:54:44",
      "id": "370168579",
      "parentPost": "Implied, perhaps, but definitely left unsaid in your discussion of the fall finale of \"Fringe\" is that this episode was never intended to fill that role. \n\nBased on the previews, episode 8, which will be broadcast on January 13, 2012, looked appropriately mythology-heavy for a split season-ender, but the World Series ran a day late because of a rainout, thus bumping Fringe back a week. \n\nFOX was committed to airing no \"Fringe\" episodes after last Friday, so here we are, with a nice MOTW episode, but a somewhat ho-hum fall finale.\n\n\n\n",
      "parentPostTime": "2011-11-22T16:44:24",
      "parentPostId": "370160788"
    },
    {
      "threadId": "334437393",
      "post": "Okay, now this is a test of a comment that should only appear on Episode #164.",
      "time": "2011-11-17T21:16:35",
      "id": "366948706"
    },
    {
      "threadId": "453264604",
      "post": "Ah, Kuhio Grill! We might have to go back, I only have faint memories of the place. But I hadn't thought that much about the Hilo International Airport waiting area, but you're right!\n\nAs for the tsunami museum being in a tsunami inundation zone, that's also true of the Pacific Tsunami Warning Center!",
      "time": "2011-11-10T23:26:47",
      "id": "360440624",
      "parentPost": "The funny thing about the Pacific Tsunami Museum is that it is located in a tsunami inundation zone. The place could be damaged if another series of big seismic waves would hit Hilo. Most of downtown Hilo is located in a tsunami inundation zone.\n \nhttp://www.co.hawaii.hi.us/cd/tsunami/Map1.pdf\n \nBesides the eating places you mentioned, I also like Kuhio Grill near the Kuhio Mall shopping center. I like their fried rice.\n \nAnd as funny as Hilo International Airport is, I like  the laid back atmosphere of the place. You rarely feel rushed when you're there. Plus the downstairs waiting area is the most plush in Hawaii - filled with living room furniture instead of the usual plastic seats that you find in other airports.\n \nhttp://www.flickr.com/photos/macprohawaii/sets/72157611317408048/\n \nhttp://www.flickr.com/photos/macprohawaii/galleries/72157622827504535/\n \nFinally, you're assessment of Lilioukalani Park is spot on. It is my favorite place in Hilo.\n \nhttp://www.flickr.com/photos/macprohawaii/6082223464/\n \nHilo photos - http://www.flickr.com/photos/macprohawaii/sets/72157627859176123/",
      "parentPostTime": "2011-10-26T16:27:50",
      "parentPostId": "345790253"
    },
    {
      "threadId": "438145384",
      "post": "I hear you, Greg.",
      "time": "2011-10-24T21:58:00",
      "id": "343322520",
      "parentPost": "I attended the conference and it was a great social media event for Hawaii.  The speakers were insightful and very willing to share their knowledge and experiences.  But there seemed to be <a href=\"http://www.pulpconnection.net/2011/10/the-secret-of-social-media-success/\">one trait common among the speakers...</a>",
      "parentPostTime": "2011-10-22T06:54:30",
      "parentPostId": "341254885"
    },
    {
      "threadId": "446314662",
      "post": "Always a thrill to have your feedback! For our Tuesday show, we'll talk a bit about other shows, then talk about \"Fringe\" before tackling \"Breaking Bad.\" You probably will want to skip that section... but be sure to come back to it after you're all caught up!",
      "time": "2011-10-24T18:10:12",
      "id": "342894456",
      "parentPost": "Always a thrill to be quoted on your podcast!\nI have a request for next tuesday.  I am only on Season 2 of Breaking Bad and trying to stay spoiler free - so could you please give us a heads up before you discuss the Season 4 finale?\nI hope you are enjoying Fringe as much as I am.  I really love the new direction the show is taking and I am hopeful it will go at least 5 seasons.  ps. you should know that Clint and Darrell at the Fringepodcast said this season is now on Itunes.  I also hope y'all might call in sometime and leave some feedback over there.  That would be a real treat for us cross-over from LOST fans!",
      "parentPostTime": "2011-10-21T18:44:24",
      "parentPostId": "340894806"
    },
    {
      "threadId": "432489801",
      "post": "Thanks for the review, Al! of course, you will have to give 'Say Anything' another chance. I never loved 'Weird Science' as much as my fellow geeks did, so maybe I need to give it another look myself!",
      "time": "2011-10-24T17:35:06",
      "id": "342813444",
      "parentPost": "OK, let's take your pairing suggestions and put a reverse mix on them.\n\nI think the most off the wall movies of John Hughes and John Cusack are \"Weird Science\" and \"Midnight in the Garden of Good and Evil\" respectively.\n\n\"Weird\", while on its face more a standard teen sex comedy than you would normally likely see from John Hughes, (and I suppose it does have its moments of enjoyable titilation). But at its heart it's more like another odd, enjoyable flick - \"Real Genius\" - which are both stories of smart kids trying to adjust into the adult world through the lens of their brave new world, a world of women out of their reach, of new understanding of where they stand in new social world, of creating their own forms of family as their parents are no longer the key authorities in their lives.  Weird Science despite having broad comedy and slapstick throughout has interesting undertones of sweetness and real friendship:  Kelly LeBrock ends up as much a guidance counseller and prankster genie as a MILF Bride of Frankenstein and evil brother Chet learns to respect his younger sibling.\n\n\"Midnight\" is the adult side of the same coin.  Sultry and eccentric Savannah is the playground for Jim Williams, Lady Chablis, and John Cusack's journalist character as our guide, and getting our wishes fulfilled is more dangerous because real lives are affected by our dreams and desires becoming reality.   People get killed, or go to jail, or at least have to suffer the indignaties of being a social outcast based on living a life less chosen.  But despite the seriousness of the plots main events, its a playful film, one in which (the real world) Chablis is a delightful and charismatic presence, and Spacey's Williams is a charming rogue, and voodoo might be real.  The moral of this world seems to be, you can create your own world if you are willing to pay the price\n.\nCusack is a quiet and amiable presence in this movie, different for him but successful since the plot needed a real world lens for us to look through the sometimes fanciful events, It reminds me of his more silly role in \"Better off Dead\", a deadpan everyman who remarks upon the odd friends and unusual events he happens upon.\n\nBoth movies had effective pop soundtracks.  Oingo Boingo's catchy title song highlighted a 80's cavalcade of \"stars\" (OMD, Wall of Voodoo, Los Lobos, Kim Wilde) and \"Midnight\"had director Clint Eastwood's now customarily quirky soundtrack, mainly populated with Johnny Mercer favorites, appropriate both in tone and the locale of Savannah's native son.\n\nNeither of these flicks were the best of the Johns (Hughes and Cusack) but both are quirky, take a few chances, bring a smile to my face each time I watch them, and take somevery good actors to interesting places where they can stretch their wings a bit.  \n\nBoth recommended.",
      "parentPostTime": "2011-10-03T23:44:24",
      "parentPostId": "325966754"
    },
    {
      "threadId": "448242457",
      "post": "I'm sure you mentioned Brandon, Daniel. We had such a great talk, a whole lot of good stuff unfortunately got cut. I love that the \"Wheel of Time\" series is such a coherent universe that it can live beyond Robert Jordan!",
      "time": "2011-10-21T00:06:27",
      "id": "340302923",
      "parentPost": "So I can't believe I forgot to mention the author who has taken over the Wheel of Time series with the passing of Robert Jordan -- Brandon Sanderson.  He has done an amazing job taking over the reins of the series and has fully realized Robert Jordan's vision.",
      "parentPostTime": "2011-10-20T01:58:06",
      "parentPostId": "339590180"
    },
    {
      "threadId": "445250821",
      "post": "Cliche is right. So much potential! When the 'big reveal' came halfway through the film, I admit I spent some time waiting for an imaginary other shoe to drop. I figured that couldn't be it. But it was.",
      "time": "2011-10-18T01:02:47",
      "id": "337405312",
      "parentPost": "I usually don't see movies in their opening weekend, however this one had been on my radar for months, so there was no stopping me. Temptations of power blurs the line between politics and morality, and in this movie with each twist and revelation, it was tough for the characters to focus. I too was disappointed in the plot crisis, it was too cliche and left me saying, \"Seriously that's the juiciest crisis in politics?\" :)",
      "parentPostTime": "2011-10-17T23:30:21",
      "parentPostId": "337275942"
    },
    {
      "threadId": "436620498",
      "post": "Thanks, Jwrollins. That seems to be the consensus. But we're glad you're willing to share your time with us, however it turns out!",
      "time": "2011-10-13T23:42:56",
      "id": "334164023",
      "parentPost": "Hows about 3 weeks on, one week off.  I'll listen however it finally works out.",
      "parentPostTime": "2011-10-12T01:41:37",
      "parentPostId": "332183500"
    },
    {
      "threadId": "419714006",
      "post": "D'oh! Thanks, David. The perils of recording in advance, AND of being generally ignorant of premiere dates since we just let our TiVos find everything!\n\nThanks for the '2 Broke Girls\" take and the link to \"Ringer\" (which we missed). A pity we have to wait for October for some of the most interesting stuff!",
      "time": "2011-09-20T17:06:53",
      "id": "316027334",
      "parentPost": "Ryan/Jen,\n\nI just listened to Popspotting #132 and wanted to offer a few comments and clarifications.\n\nNBC's \"The Playboy Club\" did not premiere over the past weekend. In fact, it first aired last night (Monday). I agree with you that of the two \"Mad Men\" wannabes on the broadcast networks, I'm more interested in \"Pan Am.\"\n\nThe memory retention abilities of Poppy Montgomery's character in \"Unforgettable\" are based in part on those of Marilu Henner - whom you probably remember from the old sitcom \"Taxi.\" Henner was featured in a \"60 Minutes\" interview last year, in which it was revealed that she has the ability to remember every day of her life. More at http://www.cbsnews.com/stories/2010/12/20/earlyshow/leisure/celebspot/main7167813 .\n\nWhen you mentioned both \"Unforgettable\" and \"New Girl,\" you referred to the premieres of each as having occurred \"yesterday.\" Given that this podcast is dated Tuesday, September 20, the actual date of each of each show's first airing, I'm afraid that may confuse your listeners and lead them to miss tonight's premieres.\n\nI watched the pilot of \"Ringer\" last week, which you can still catch on The CW's website (http://www.cwtv.com/cw-video/ringer/?tab=2). It was okay - not great - but I'm willing to give it a couple of episodes before I make a final decision about the show. \n\nThe pilot for \"2 Broke Girls\" was pretty mediocre - until the last two minutes, when the two main characters stopped behaving lilke sitcom cliches and began interacting more like real people. Both leads are very appealing, and I'm going to keep watching this one.\n\nLike you, I'm also very intrigued by \"Once Upon a Time,\" the trailers for it are incredibly compelling.\n\nThanks!",
      "parentPostTime": "2011-09-20T14:12:34",
      "parentPostId": "315925719"
    },
    {
      "threadId": "400092299",
      "post": "Happy Aloha Friday!",
      "time": "2011-09-02T19:41:51",
      "id": "301274211"
    },
    {
      "threadId": "396091400",
      "post": "I thought Photovine was an excellent app, and an Android version was in the works. A pity if it can't be maintained somehow.",
      "time": "2011-08-26T06:00:44",
      "id": "295713394"
    },
    {
      "threadId": "393500638",
      "post": "I totally see what you're saying. And really, Dexter's core struggle is whether he can break free of what Harry says he'll always be. The 'code' helps rationalize his actions, pulling Dexter an extra step away from facing the morality of those actions. And I think as the series reaches an eventual conclusion, his interactions with/visions of Harry will play a key part. If Harry's not in the final two or three scenes of \"Dexter,\" I'd be surprised.",
      "time": "2011-08-23T20:59:31",
      "id": "293981666",
      "parentPost": "Ryan,\n\nI understand what you're saying about Harry being a convenient exposition device, and I hope you won't think that I'm arguing with you, I think your point is valid.\n\nBut to me, when we see Harry not in flashback, he is literally the Dark Passenger, often he'll be seen in the front seat with Dexter as he drives. I think it's important that we see this dark side of Dexter separate from Dex, because I feel that in many ways, Harry really really messed Dexter up. Although there was a great deal of Harry's code that was necessary for Dexter's survival, there was a certain amount of \"Dexter, you'll never be normal, Dexter, you'll never be , well, human, you can't hope for a better life.\"\n\nMy wife and I have conversations that center on is Dexter really a monster (well, I guess he is), or is he as bad a monster as Harry thought Dexter could become? Is Dexter irredeemable? The Dark Passenger might say so, but the Dark Passenger's existence depends on Dexter's full faith in Harry.\n\nAnyway, that's why I put Harry up as Dexter's biggest Nemesis, which really is a cop out on my part, since it's like saying Dexter is his own biggest enemy.\n\nThank you again for covering Dexter, and for the podcast in general.\n\nBest regards to you all,\n\nPat in Maryland",
      "parentPostTime": "2011-08-23T20:54:49",
      "parentPostId": "293977380"
    },
    {
      "threadId": "388161775",
      "post": "We did enjoy the \"Explosions in the Sky\" album I bought that time I visited you in Austin. It was the perfect sound for my noise-cancelling headphones during the long flights home.\n\n\nThanks for the additional recommendations. Though I think @twitter-17203:disqus did give that Duran Duran album a listen, and wasn't a fan.",
      "time": "2011-08-19T20:57:19",
      "id": "291315771",
      "parentPost": "Considering you both are also Friday Night Lights fans, I was wondering if you all have had a chance to check out Explosions in the Sky. The band did the soundtrack to the original movie, and a lot of music from their early albums was featured prominently in season 1.\n\nCan't say I'm moved by the latest album, \"Take Care Take Care Take Care\", but the one before it, \"All of a Sudden I Miss Everyone\" is stellar.\n\nThe second volume of the FNL TV soundtrack also includes W. Snuffy Walden's Explosions-like theme song, plus a whole bunch of rustic alt-country that I think might appeal to you both.\n\nAnd from the Musicwhore.org Favorite Edition 2011 list, might I recommend:\n\n-- Abigail Washburn, \"City of Refuge\". She's a banjo player in the style of Dr. Ralph Stanley\n-- The Decemberists, \"The King is Dead\". How much more R.E.M. can this band get? None. None more R.E.M.\n-- Duran Duran, \"All You Need Is Now\". Mark Ronson set out to help the band make the follow-up to \"Rio\" it never recorded, and I think he did it.\n",
      "parentPostTime": "2011-08-19T02:09:52",
      "parentPostId": "290530505"
    },
    {
      "threadId": "383856195",
      "post": "Glad you found us, Sally! Thanks for listening, and hope to hear from you often. If you've got any TV or music we should check out, fire away!",
      "time": "2011-08-13T19:31:36",
      "id": "285614631",
      "parentPost": "Hey - I'm so glad you're back!  Somehow iTunes wasn't recognizing my subscription to Popspotting, and I tried again after seeing the ComicCon videos.  Glad you're doing both TV and music, shout outs to FNL and BNL!  Loved the look back at Lost as that's how I first found you.  Mahalo!",
      "parentPostTime": "2011-08-12T17:12:34",
      "parentPostId": "284679307"
    },
    {
      "threadId": "382715519",
      "post": "We podcasters are like family! Thanks for being on the show, Jimmy!",
      "time": "2011-08-12T19:47:58",
      "id": "284772573",
      "parentPost": "Since Ryan and Jenn are famous for their LOST podcast, I just noticed that in my photo, I have on my Jay and Jack Lost Podcast t-shirt and have three of my LOST drawing hanging on the wall behind me:  Desmond, Sayid and Jack.",
      "parentPostTime": "2011-08-11T02:48:57",
      "parentPostId": "283098721"
    },
    {
      "threadId": "350616472",
      "post": "I have not, but Googling him, I see his most recent book, \"Molokai,\" is about Kalaupapa here in Hawaii! Very interesting.",
      "time": "2011-08-10T01:42:28",
      "id": "281653573",
      "parentPost": "I've downloaded a sample to my Kindle, and they have it at my library. Have you read anything by Alan Brennert?",
      "parentPostTime": "2011-08-08T23:54:30",
      "parentPostId": "280829684"
    },
    {
      "threadId": "379899059",
      "post": "Heh. No worries, I knew you meant you had to turn off this episode. I've done the same when the hosts are clearly flailing about in waters they know nothing about! I'm glad you're enjoying Popspotting, as different as it is from The Transmission. We hope to hear from you often!",
      "time": "2011-08-09T21:59:30",
      "id": "281531310",
      "parentPost": "OMG, I don't want you to think that I stopped listening to the podcast, I didn't... I just meant this individual one because it was hard to hear the criticism of one of my favorite comic book characters.  Again, it wasn't a slant against you so much as it was just hard for me to hear it.  Again, love your show now as much as I loved The Transmission.  \n\nAs someone who knows Dum Dum, I think he was played fairly true to form, thus I was a miffed that you didn't get that.  Again, not your fault, you don't knkow the character, but I was truly happy with the overall performacne and the sentiment of the movie itself.\n\nTrust me, I'm a fan of the show and always wil be.",
      "parentPostTime": "2011-08-09T12:36:02",
      "parentPostId": "281167249"
    },
    {
      "threadId": "380759579",
      "post": "Yes! A great tribute.",
      "time": "2011-08-09T05:28:34",
      "id": "280981394",
      "parentPost": "Did you read this? http://www.grantland.com/story/_/id/6766070/clear-eyes-full-hearts-lose\n",
      "parentPostTime": "2011-08-09T03:37:41",
      "parentPostId": "280943024"
    },
    {
      "threadId": "231678642",
      "post": "Nice blog! You're in Hawaii? You have a sous chef?",
      "time": "2011-08-05T05:58:19",
      "id": "278149151",
      "parentPost": "www.simplytotaste.com",
      "parentPostTime": "2011-08-04T05:52:40",
      "parentPostId": "276804916"
    },
    {
      "threadId": "375506196",
      "post": "Thanks! It's a pretty arbitrary milestone since we counted every segment we recorded since March 2005. And episode #100 may very well be 'Glee.' Sigh.",
      "time": "2011-08-03T06:04:05",
      "id": "275863666",
      "parentPost": "And it looks like we're also coming close to getting Episode #100 soon! Cheers! ",
      "parentPostTime": "2011-08-03T02:37:02",
      "parentPostId": "275784074"
    },
    {
      "threadId": "351644650",
      "post": "The invite window was open for about four hours. Closed already. If they doubled their field trial userbase in that time, that's impressive.",
      "time": "2011-07-07T05:46:55",
      "id": "244712636"
    },
    {
      "threadId": "340009168",
      "post": "Thanks, Adam. A tantalizing suggestion! We do know that we tease a bit with every show leaving a third category untouched... but we were hoping it'd also keep everyone curious. But we aren't strict about unused categories coming back the next week anymore, either. I like the \"winner takes all\" idea, though, but that would have to be an even harder question!",
      "time": "2011-06-27T19:13:24",
      "id": "236132053",
      "parentPost": "Haven't listened to this episode yet, but wanted to comment on the Trivia Thursday section. I think if the guest doesn't win both of the categories that they picked they should get to try the third category... or have a \"winner takes all\" question.  Give them a chance to come back and win the day!",
      "parentPostTime": "2011-06-23T21:31:54",
      "parentPostId": "233624259"
    },
    {
      "threadId": "340748674",
      "post": "We'd cover Android if we had any experience with it. I liked my NexusOne, but not enough to keep it! Thanks for sharing your \"live acts\" picks, though!",
      "time": "2011-06-27T18:27:55",
      "id": "236103860",
      "parentPost": "Hey Ryan I gotta say... I'm with you on your Weird Al fandom!\n\nI would love for you guys to include some Android coverage in your hitech coverage; I'm afraid the iPhone is getting some serious competition.\n\nMy top 3 must see acts before I croak:\n\nU2\nYes\nand the key pick.... Pink Floyd.",
      "parentPostTime": "2011-06-27T17:50:17",
      "parentPostId": "236072670"
    },
    {
      "threadId": "343005680",
      "post": "That's disappointing, but as an ongoing business concern, I guess they have to seriously reconsider leaving what's probably a metric buttload of money on the table. But I'm not convinced \"Cars 2\" needed a sequel, really, and would rather see Pixar commit to an original, albeit riskier, story, than continuing one that's already had three chapters.",
      "time": "2011-06-27T18:26:55",
      "id": "236103227",
      "parentPost": "Oh, and there's this, posted just today about the possibility (likelihood?) of a fourth Toy Story movie: http://pixartimes.com/2011/06/27/pixar-already-working-on-toy-story-4/",
      "parentPostTime": "2011-06-27T14:10:27",
      "parentPostId": "235951118"
    },
    {
      "threadId": "336886825",
      "post": "Very good observation, Adam! I confess not knowing much about the Blaxploitation genre, so didn't automatically know that's where he was going. Thanks!",
      "time": "2011-06-25T01:29:57",
      "id": "234467825",
      "parentPost": "I don't think it was mentioned that Jackie Brown is also an homage to the Blaxploitation films of the 70's.  So Tarantino didn't write the source material, but was still playing his game of trying to match a style of film making.  His love for the art of film is what I've always enjoyed.",
      "parentPostTime": "2011-06-23T21:38:15",
      "parentPostId": "233630016"
    },
    {
      "threadId": "314723045",
      "post": "Excellent! Do you know dates and times?",
      "time": "2011-06-17T21:20:43",
      "id": "228612528",
      "parentPost": "We've been working with the show on behalf of the Hawaii Visitors and Convention Bureau and they will be here next week filming four trucks on Oahu...Camille's on Wheels, Flipt Out Eats, Opal Thai, and Soul Patrol. Stoked to have them coming out here!",
      "parentPostTime": "2011-06-17T21:15:04",
      "parentPostId": "228606154"
    },
    {
      "threadId": "332506071",
      "post": "Thanks for your comment, Frank! Camera+ is great. I'm still on the fence about tiltshift effects, but I've started to use it sparingly in Instagram.",
      "time": "2011-06-16T20:17:43",
      "id": "227595449",
      "parentPost": "My favorite app is Camera+ because of its various effects and borders. From time to time I crop pics with it, save them, use Tiltshift Gen and then I ad borders again with Camera+ Although pics loose some of their quality they still look quite good. I post my pics on my Tumblog, on facebook and on Flickr via email.",
      "parentPostTime": "2011-06-15T20:36:02",
      "parentPostId": "226681223"
    },
    {
      "threadId": "327265461",
      "post": "Thanks for the vote, Fred! I guess I'm intimidated a bit by how big this universe seems to be, with variations on stars and gates and the like. I've lost track of where it all started, and whether or not other shows are part of the same franchise. Wikipedia to the rescue!",
      "time": "2011-06-16T17:56:57",
      "id": "227480095",
      "parentPost": "Re: Stargate SG-1, of course I hope you get a chance to check out the series. It might help to know that Richard Dean Anderson (best known as Macguyver, of course) brings a lot of humor to the show from the first episode onwards. The first few episodes are rough, as the characters and actors find their stride, but eventually they display the teamwork and affection that is the core of the show. There are episodes that are downright hilarious (intentionally!), and the Deluise family name (Dom, Peter, and Michael) appears many times.",
      "parentPostTime": "2011-06-15T17:47:39",
      "parentPostId": "226525649"
    },
    {
      "threadId": "331256530",
      "post": "Glad \"Breaking Bad\" is in your queue! And thanks for the link! The full article was by Rick Porter at Zap2It. The season one finale of \"Five-0\" surprised us and raised expectations, so I can't wait to see what Lenkov and friends have in store.",
      "time": "2011-06-14T18:25:40",
      "id": "225833016",
      "parentPost": "Yeah, definitely need to watch this series. I'm all set to do it to since I just purchased season 3, however, I'm still need to clear off shows that wrapped last month. All in due time I guess.\n\nThe main reason I wanted to comment though was that since it's TV Tuesday, not sure if you guys saw this interview or not with executive producer Peter Lenkov from Hawaii 5-0 where he talks about some of the stuff they've got in mind for next season. Great excerpts: http://screenrant.com/hawaii-five-0-season-2-characters-locales-yman-119325/\n",
      "parentPostTime": "2011-06-14T08:16:50",
      "parentPostId": "225568679"
    },
    {
      "threadId": "330006100",
      "post": "Thanks, @Yoda808! And for sure, the heart and soul of the movie was the kids. And the \"bigger than life\" monster-vs.-military backdrop is classic Spielberg. I just think the two threads could've been tied up a little more decisively at the very end. A gazing-into-the-bright-light-in-the-sky moment is only magical if there's some semblance of a connection. Either way, though, a great movie!",
      "time": "2011-06-14T01:17:22",
      "id": "225215414",
      "parentPost": "Don't want to sound like a broken record but I have to agree with you guys that Super 8 was a great film. You definitely felt that this was a film done by JJ Abrams, but was also influenced by Steven Spielberg . . . so much so that going off of something you guys mentioned in the podcast, I thought this film was just one film and not two. I think similar to LOST, this movie is about the kids and their struggles set against the backdrop of the train crash and the alien. While the alien was frightening and had a decent story arc, it was always the kids, their film, and their relationships that I was most interested in. Keep up the great work on the podcast!",
      "parentPostTime": "2011-06-13T20:00:36",
      "parentPostId": "224953455"
    },
    {
      "threadId": "325202009",
      "post": "Great to hear from you, Cat! And love that you're hooked on and burning through \"Hunger Games\" so quickly. Thanks for your comment!",
      "time": "2011-06-13T17:33:11",
      "id": "224871332",
      "parentPost": "Just had to right and say that after your review of The Hunger Games I had to have a read - and I'm hooked! Managed to read half the book in a day and would have finished it if my 2yo isn't in the habit of getting up at 5am. I can't wait to see the film adaptation and think the casting of Woody Harrleson as Haymitch is genius.\nI'm amazed at the depth of character, story pace and dark theme in a YA book - it better written than some \"grown up\" books I've read. The genuine peril of The Games is just thrilling and I've not even finished it yet.\nThanks for the great recommendation. \nCat Parkinson\n@catparky",
      "parentPostTime": "2011-06-12T05:26:28",
      "parentPostId": "224128591"
    },
    {
      "threadId": "326214151",
      "post": "Correct. Thanks, David. We've heard from several Ferris and hockey fans already! Jen, who was only looking for Howe's name, and who is truly a hockey fan, regrets the error. Meanwhile, this means Robin doesn't even get his half point, meaning a rematch is all but assured!",
      "time": "2011-06-10T00:40:14",
      "id": "222877985",
      "parentPost": "New Jersey Devils? Gordie Howe? Not so much. \n\nhttp://199x.org/graphics/cameron.jpg\n\nThat would be the Detroit Red Wings.",
      "parentPostTime": "2011-06-09T23:02:31",
      "parentPostId": "222819854"
    },
    {
      "threadId": "318060160",
      "post": "Wow. Where are people rushing to judgement on Chin? I would only assume he's up to something, and feels the best way to help will be from inside HPD. But yes, Chin and Kono are barely the merry chorus. Here's to a more well-rounded ensemble in Season 2.",
      "time": "2011-06-01T00:29:05",
      "id": "215135045",
      "parentPost": "I don't know why everyone is rushing to say that Chin (in 5-0) is screwing Steve because he arrested him. Chin could just as reasonably be proving to the HPD that he can be trusted while still working in Steve's interest behind the scenes. I almost don't care what they do to as long as they give her things to DO. I come 5-0 to Leverage, another show with multiple protagonists, but one where everyone gets to shine each episode. Sometimes I feel like Chin and Kono are red shirts. ",
      "parentPostTime": "2011-05-31T06:18:02",
      "parentPostId": "214653708"
    },
    {
      "threadId": "313025380",
      "post": "Thanks, Cat! \"Never Let Me Go\" is on Jen's list. As for \"Game of Thrones,\" we're curious, but we have no access to premium cable. Curses!",
      "time": "2011-05-31T04:39:40",
      "id": "214613920",
      "parentPost": "Hi Jen,\nI am in a couple of bookclubs but just finished \"Never let me go\" by Kazuo Ishiguru,  It is really quite interesting.  I read it before I saw the movie which is the way to do it because the best part of the book is trying to figure out what in the world is going and getting little bits and pieces as the main character starts to understand things.\n\nAlso having fun watching and reading Game of Thrones.",
      "parentPostTime": "2011-05-26T23:57:11",
      "parentPostId": "212513707"
    },
    {
      "threadId": "314878261",
      "post": "Looks like it's a must watch, or at least a must try!",
      "time": "2011-05-31T04:38:16",
      "id": "214613216",
      "parentPost": "I agree you have to watch Modern Family. It's so funny! ",
      "parentPostTime": "2011-05-29T21:59:19",
      "parentPostId": "213987795"
    },
    {
      "threadId": "317228771",
      "post": "Jen almost had to drag me, though I can appreciate big dumb fun as well as anyone. It helped that the film wasn't at all self conscious and just went for it.",
      "time": "2011-05-31T04:34:10",
      "id": "214611501",
      "parentPost": "Utterly agree on Fast Five - true escapist stuff, easy to get into and out of, and very watchable, with good laughs and phenomenal action. Only went in as it fitted between two other films I'd wanted to see that day and I'm so very glad I did! ",
      "parentPostTime": "2011-05-30T19:56:47",
      "parentPostId": "214424151"
    },
    {
      "threadId": "311618571",
      "post": "Thanks so much for giving us a whirl, Nancy! We're enjoying the \"chunks\" approach, too! Hopefully we can be squeezed in between some of our more epic-length counterparts!",
      "time": "2011-05-31T04:14:02",
      "id": "214601422",
      "parentPost": "I really liked the \"small chunks\" format.  As much as I loved The Transmission it was sometimes hard to find the time to listen.  It's great Popspotting is finally up and running.",
      "parentPostTime": "2011-05-30T18:14:34",
      "parentPostId": "214368341"
    },
    {
      "threadId": "311940541",
      "post": "They better have Joshua Jackson back as a regular, or there'll be riots! Just now sure how they'll explain it. Will he go full ghost-spirit as he did partway through last season? If he's physically present in some universe, who would have been his parents if not Walter and his wife?",
      "time": "2011-05-25T18:22:58",
      "id": "211624933",
      "parentPost": "Aloha Ryan and Jen, glad you caught on to Fringe, I too think Peter is real and we will see him in the next season. I like your format, Podspotting, and maybe we should have you talk at one of the Cyberpizza meetings. Thanks for all you do for the techie community.  Courtney",
      "parentPostTime": "2011-05-24T09:16:28",
      "parentPostId": "210511719"
    },
    {
      "threadId": "302511427",
      "post": "Here's @seanpower:twitter's Twitter stream, with inline photos and replies, in chronological order via @storify:twitter: http://j.mp/preycaught",
      "time": "2011-05-13T19:43:57",
      "id": "203217392"
    },
    {
      "threadId": "293123849",
      "post": "Here's most of his key tweets and the tweets of the people he was interacting with:\n\nhttp://storify.com/hawaii/sohaib-athar\n",
      "time": "2011-05-02T06:53:19",
      "id": "195496193"
    },
    {
      "threadId": "264788983",
      "post": "I think if there's a list that's based on 'nominations' or explicit moderation, that should be a tab, rather than the main display. Again, the development of a 'clique' mentality is something I think many are concerned about.\n\nIf anything, I'd rather see a distinction made between 'individuals' and 'organizations' before we talk about 'influencers' versus 'conversationalists.' For example, news organizations (which are all well represented on the site). Separating them out seems a much less tricky call than, say, taking out a massively eager Justin Bieber fan simply because she doesn't speak our language.\n\nIn any case, thanks for taking the feedback, and remaining responsive!",
      "time": "2011-03-30T15:23:46",
      "id": "174911029",
      "parentPost": "Thanks Ryan, all totally valid points!  What is important to put into perspective is Klout is not perfect yet and is looking for ways to be more accurate (I would love to have a discussion offline which may interest you based on a recent conversation with their CEO, its just not public knowledge yet) so when we identify \"Influencers\" this is not determined by a metric, this is only visualized by a metric.  It is up to the community to decide who is an influencer and who is not.  As such, the new version I am about to launch (hopefully tonight or tomorrow morning) will allow nominations or peer recommendations if a member should appear in the homepage's influencer list.  \n\nI am really interested in hearing more opinions and am happy to factor in their responses into our local methods.\n\n(Missed you at GB today, we need to connect soon!)\nAloha,\nRob",
      "parentPostTime": "2011-03-30T03:05:26",
      "parentPostId": "174615138"
    },
    {
      "threadId": "246439693",
      "post": "How much longer will people want \"devices made for gaming as the main focus\"? I'm sure there are still mobile phones designed mainly for making mobile phone calls, but... I haven't seen one in a while.",
      "time": "2011-03-06T02:44:16",
      "id": "161133574",
      "parentPost": "I mean for devices made for gaming as the main focus. The 360 has a lot of other options but its main use is gaming. And for \"traditional\" gaming - i.e. with an actual controller - the 360 can't be beat. ",
      "parentPostTime": "2011-03-05T23:28:48",
      "parentPostId": "161059562"
    },
    {
      "threadId": "232316645",
      "post": "That is a fabulous point. A simple visual flourish with a great impact!",
      "time": "2011-02-24T20:00:24",
      "id": "155519832",
      "parentPost": "Should have pushed the rice and gravy over a skoshi bit for some yin-yang action.",
      "parentPostTime": "2011-02-24T19:58:50",
      "parentPostId": "155517743"
    },
    {
      "threadId": "232242756",
      "post": "Surely! Nonstop Honolulu is fast becoming the go-to food blog for the breadth and volume of coverage. I love Reid of Ono Kine Grindz, but he needs four or five clones of himself to catch up!",
      "time": "2011-02-23T03:20:09",
      "id": "154404691",
      "parentPost": "Mahalo for the mention here!",
      "parentPostTime": "2011-02-23T02:24:18",
      "parentPostId": "154381505"
    },
    {
      "threadId": "230346362",
      "post": "Very cool, Amber!",
      "time": "2011-02-15T15:15:30",
      "id": "147485774",
      "parentPost": "Heh, the full booklet is actually 50 questions for each gender. Uploaded here:\n\nhttp://www.flickr.com/photos/tiabla/sets/72157605047200616/",
      "parentPostTime": "2011-02-15T00:37:54",
      "parentPostId": "146754200"
    },
    {
      "threadId": "212068468",
      "post": "Oh my! I'd much rather play an unrecognizable dead body! But thanks for the huge vote of... geekiness!",
      "time": "2011-01-19T08:46:35",
      "id": "131208591"
    },
    {
      "threadId": "168722508",
      "post": "Where are Hawaii and Alaska?",
      "time": "2010-12-11T01:51:57",
      "id": "110149871"
    },
    {
      "threadId": "162081016",
      "post": "The parking lot rendezvous was definitely the 9th floor roof deck of the Dole Cannery parking structure. I work there and remember them setting up for filming!",
      "time": "2010-10-29T04:44:55",
      "id": "91369305"
    },
    {
      "threadId": "162651988",
      "post": "I thought it was very interesting that Laurie Au basically said that what Neenz did on her \"personal\" account did not equate an act by the official campaign, when Neenz is the social media director for the campaign. Especially in social media, the lines between the various hats we wear are blurred. Neenz is definitely someone who is herself in whatever role she assumes, so the distinction seemed awkward to me.",
      "time": "2010-10-28T18:06:40",
      "id": "91221434",
      "parentPost": "The more interesting question here is how are Twitter followers supposed to understand that these tweets are that of an individual, rather than for the client? Was the connection between the sender and the campaign openly disclosed? \n\nIts hard for the social media community to distinguish the difference when connections aren't transparent. ",
      "parentPostTime": "2010-10-28T06:55:04",
      "parentPostId": "91055875"
    },
    {
      "threadId": "154935644",
      "post": "Minor spot? When Chin Ho Kelly rides up on his motorcycle to meet McGarrett and Danno (right after their interview at Monterey Bay Canners), they're behind Keola Lai, one of the new massive high-rise condos near Queen St. and Kawaihao St.\n\nhttp://maps.google.com/maps?f=q&source=s_q&hl=en&geocode=&q=Queen+St.,+Honolulu,+HI&sll=37.0625,-95.677068&sspn=53.212719,79.013672&ie=UTF8&hq=&hnear=Queen+St,+Honolulu,+Hawaii&ll=21.302807,-157.857052&spn=0.000971,0.001206&t=h&z=20&layer=c&cbll=21.302807,-157.857052&panoid=CKg0o5xoM_GxA41_XO1aGw&cbp=12,206.97,,0,-29.24",
      "time": "2010-10-14T22:42:29",
      "id": "87040333"
    },
    {
      "threadId": "151422843",
      "post": "Not sure about the pizza shop but it's not La Pizza Rina. The red curtains and side room look really familar to me, but I can't place it.\n\nThe chop shop looks like it might be in Kalihi. There's a very brief glimpse of a mural on a building in the background that looks a little like the UPW building on N. School St.\n\nUp for advance location spotting? In the brief preview for next week, we see the pavilion at Kakaako Waterfront Park, and the federal building near the courthouse off Punchbowl St.",
      "time": "2010-10-05T21:01:32",
      "id": "84398655"
    },
    {
      "threadId": "144786266",
      "post": "No, the Aina Haina house was where McGarrett and Danno had their talk on the beach. Inside was McGarrett's father's toolbox and car, and his murder crime scene. The house where Danno picked up his daughter is up in Portlock somewhere, I'm sure you can find it with Google Street View.\n\nNo idea where the camp was, but guessed it was somewhere near Kualoa.",
      "time": "2010-09-22T02:06:31",
      "id": "79878246",
      "parentPost": "Ah, Aina Haina! That was the house where he picked up his daughter with the stuffed bunny? I liked Scott Caan in the role...\n\nDid you happen to know where the camp with the dreadlocked hoodlum was? Narrow, lush valley, but I couldn't make out the features well enough to say...",
      "parentPostTime": "2010-09-22T02:01:32",
      "parentPostId": "79877567"
    },
    {
      "threadId": "145135947",
      "post": "You mean you've never heard of Kukui High School?\n\nhttp://www.kukuihigh.com",
      "time": "2010-09-22T00:52:27",
      "id": "79864611"
    },
    {
      "threadId": "144681908",
      "post": "You've really got my brain cells spinning, Jared. Another good thought, \"the spiral of silence.\" A net positive for a popular campaign, but a negative for the minority. Perhaps Mufi supporters felt outnumbered or drowned out on Twitter, and just didn't jump into the fray? And honestly, if a Mufi supporter had joined the \"#hivote\" stream, boosting his candidate or criticizing Abercrombie, I wonder how civil the majority would have been?\n\nBut like ParkRat, if I don't have a strong feeling one way or another in a given race, I'd definitely be swayed to vote the way a friend voted. If I don't care, I should at least take note of the views of someone who does. I agree this probably happens often, in real life and now amplified by social networks.",
      "time": "2010-09-21T22:42:06",
      "id": "79840924",
      "parentPost": "Ditto on the demographic I watch (pretty much anyone from Hawaii). But the \"loud\" people in social media were definitely in Neil's camp. I don't think I know any \"loud\" people in Mufi's camp. Note that \"loud\" isn't just volume, it's also built audience through time. I don't minimize the strength (and work) in building and sustaining an audience.\n\nFor those that have studied mass communications, there's an old theory of the spiral of silence. It basically says that people are less likely to voice their opinion if they believe they are in the minority in fear of isolation from the majority. I tend to think this is one the theories that can tie to why there is such a \"wildfire\" effect in social media. It's preaching to the choir and having the noise get louder and louder.\n\nIn fact I remember reading a little thing from Russ (@ParkRat) about voting for people his friends were voting for because it makes sense that if someone he knows and trust is voting for someone, he'd feel the same. That just came to mind as you said your friends were Abercrombie supporters... and it may be safe to say many of their friends also are supporters.",
      "parentPostTime": "2010-09-21T22:37:12",
      "parentPostId": "79839831"
    },
    {
      "threadId": "143443237",
      "post": "Thanks for your comment, Mari. I would disagree that you're a \"social media newbie,\" but even if you are, you won't be for long! You and the Nonstop Honolulu team are a shining example of what such tools can bring to an \"in real life\" community.",
      "time": "2010-09-19T00:43:29",
      "id": "79074750"
    },
    {
      "threadId": "132858023",
      "post": "I love Delicious. It's never been pretty, but it's powerful and wonderfully barebones. I wish more people used it! I'm at:\n\nhttp://www.delicious.com/hawaii\n",
      "time": "2010-08-28T18:25:23",
      "id": "72839078"
    },
    {
      "threadId": "133363170",
      "post": "Thanks for the comment, Tara! I'm pretty sure some local campaigns, such as Neil Abercrombie's gubernatorial run, would beg to differ on the assertion that they're not using social media. But however they're using it, they could always do it better.",
      "time": "2010-08-25T22:54:38",
      "id": "71941769",
      "parentPost": "Thanks for the shout-out Ryan! It would be great to have an ongoing dialogue of both political uses of social media as well as engagement.  ",
      "parentPostTime": "2010-08-25T21:11:05",
      "parentPostId": "71797388"
    },
    {
      "threadId": "133049846",
      "post": "It was great having you on, Jeremiah. Thanks for sharing your insights. I hope the HVCB makes some of the findings public!",
      "time": "2010-08-24T17:43:20",
      "id": "70995243"
    },
    {
      "threadId": "129104189",
      "post": "Cool. I'm a fan of Automattic, but I think Disqus is simply a more mature platform and, obviously, considerably more widespread. And just this week they unveiled their commenter profiles!",
      "time": "2010-08-13T02:01:33",
      "id": "68296095"
    },
    {
      "threadId": "47118985",
      "post": "Thanks for the link! I was also watching them film there today. Posted a full report and a brief video clip to YouTube:\n\nhttp://www.youtube.com/watch?v=0cDDPYcAVC4",
      "time": "2009-11-22T01:06:00",
      "id": "23769698"
    },
    {
      "threadId": "35906364",
      "post": "Gowalla just unveiled it's mobile web version, which so far works for Android and adds the iPod touch, and hopefully will work for Blackberry and other devices soon.",
      "time": "2009-11-07T20:30:19",
      "id": "22144201"
    },
    {
      "threadId": "36137984",
      "post": "Foursquare has great buzz, but Gowalla's got a refined UI and fantastic fit and finish. Foursquare's reliance on street addresses will be its downfall. Gowalla is GPS savvy, and I love that I can create a \"spot\" that might not even be on a street -- say, a favorite tree within a park, or a lookout point along a trail.\r\n\r\nI reviewed several of these social geolocation services this week, and am happy to see others comparing and thinking about them.\r\n\r\nhttp://www.hawaiiweblog.com/2009/11/02/geolocation",
      "time": "2009-11-04T03:38:54",
      "id": "21826597"
    },
    {
      "threadId": "19260384",
      "post": "Aloha e Leo! Thanks for the embed! We were livestreaming her launch on both Qik (there are two other clips) and Ustream. You might also be interested in this edited video:\r\n\r\nhttp://www.youtube.com/watch?v=wTkQHIl3NZ0&fmt=22\r\n\r\nIf you can use any of the clips, feel free to download the same video here:\r\n\r\nhttp://hawaii.blip.tv/file/2159598/",
      "time": "2009-05-26T15:22:53",
      "id": "9954751"
    },
    {
      "threadId": "18296233",
      "post": "Was this custom coded, or a plugin for whichever CMS runs the site. If you're doing user-agent sniffing to autoserve the mobile version, watch for false positives!",
      "time": "2009-05-15T18:35:38",
      "id": "9368785"
    },
    {
      "threadId": "18243765",
      "post": "Fun video. And Matthew Ebel is perfect for any geek scene.",
      "time": "2009-05-15T07:42:29",
      "id": "9355337"
    },
    {
      "threadId": "17981534",
      "post": "Fun stuff!",
      "time": "2009-05-13T00:42:10",
      "id": "9263049"
    },
    {
      "threadId": "14086071",
      "post": "It was great to see you again, finally. I'm a social media professional? Has anyone told my boss? I'll make do with geek for now. But I agree, SXSW was worth it. Among the most rewarding and valuable and enjoyable conferences I've ever attended. I don't know how I'm going to afford it next year, but I'm going to find a way.",
      "time": "2009-04-01T05:33:13",
      "id": "7707782"
    },
    {
      "threadId": "9977809",
      "post": "\"Most residents of Oahu use digital cable or satellite television, so they already have the proper set-top boxes. Residents who had spliced into the analog cable signal may have lost their stolen service today, however.\"\r\n\r\nI'm not sure what you mean here.  We have basic analog cable service, and as expected, were not affected. I don't think analog cable service suddenly became digital, locking people out.",
      "time": "2009-01-16T20:10:10",
      "id": "5169849"
    },
    {
      "threadId": "9337958",
      "post": "It's not intuitive. Find a \"Friend of...\" item in your FriendFeed stream. Click \"Hide.\" That'll bring up a popup that lets you select other options. That second popup will allow you to hide all \"Friend of...\" updates.",
      "time": "2009-01-06T20:58:15",
      "id": "4938691",
      "parentPost": "So how do you change that setting? I can't seem to find it...",
      "parentPostTime": "2009-01-06T20:56:48",
      "parentPostId": "4938665"
    },
    {
      "threadId": "9216064",
      "post": "Aloha! Thanks for the great write-up! We've been heartened to see educators using our site for various applications. We've been working hard on adding new features, include question tags.  If there's anything you'd like to see, let us know!",
      "time": "2009-01-01T17:15:36",
      "id": "4814865"
    },
    {
      "threadId": "7221739",
      "post": "First time I saw the \"<a href=\"http://www.flickr.com/photos/hawaii/2921143520/\">Failerpillar</a>\" was Oct. 6. A few other folks also captured it for posterity. Though I guess his cool friend still needs a nickname...",
      "time": "2008-11-18T19:30:25",
      "id": "3881945"
    },
    {
      "threadId": "3842308",
      "post": "This is a test of a Disqus powered comment.",
      "time": "2008-08-28T18:44:09",
      "id": "1898994"
    },
    {
      "threadId": "1442913",
      "post": "Enjoy Disqus!",
      "time": "2008-06-26T21:25:20",
      "id": "757393"
    },
    {
      "threadId": "115129",
      "post": "This is a test comment. Had this been a real comment, it'd have been interesting.",
      "time": "2008-01-14T20:14:05",
      "id": "77195"
    }
  ],
  "profileInfo": {
    "username": "hawaii",
    "about": "Father, husband, and web geek in paradise.",
    "name": "hawaii",
    "disable3rdPartyTrackers": false,
    "isPowerContributor": false,
    "isAnonymous": false,
    "rep": 1.610567,
    "profileUrl": "https://disqus.com/by/hawaii/",
    "url": "http://www.hawaiiweblog.com",
    "reputation": 1.610567,
    "location": "Hawaii",
    "isPrivate": false,
    "signedUrl": "http://disq.us/?url=http%3A%2F%2Fwww.hawaiiweblog.com&key=MHGZ6CHZvBp8HnE6bXFtEg",
    "isPrimary": true,
    "joinedAt": "2007-10-30T19:05:46",
    "id": "763",
    "avatar": {
      "small": {
        "permalink": "https://disqus.com/api/users/avatars/hawaii.jpg",
        "cache": "//a.disquscdn.com/uploads/users/763/avatar32.jpg?1281465766"
      },
      "isCustom": true,
      "permalink": "https://disqus.com/api/users/avatars/hawaii.jpg",
      "cache": "//a.disquscdn.com/uploads/users/763/avatar92.jpg?1281465766",
      "large": {
        "permalink": "https://disqus.com/api/users/avatars/hawaii.jpg",
        "cache": "//a.disquscdn.com/uploads/users/763/avatar92.jpg?1281465766"
      }
    }
  }
}