{
  "comments": [
    {
      "threadId": "3491990971",
      "post": "I'm curious about gender breakdowns per country. Could you make that data available?",
      "time": "2015-03-09T19:53:47",
      "id": "1897460499"
    },
    {
      "threadId": "3552603967",
      "post": "Oh my goodness! Thank you for clarifying the technicality -- it makes SUCH a difference. </sarcasm>",
      "time": "2015-02-27T23:53:08",
      "id": "1879591549",
      "parentPost": "Calling their plan a 'ban' is rather hyperbolic. They never said you couldn't post it. THAT is a ban. \n\nThat said, yes I agree that their new system for regulating access was draconian. But I also get the conundrum they are in regarding the laws over such items. After all a warning click through is too easy for someone to just click and say yes when they really aren't 18+. And having the sites fully indexed defeats the purpose of such warnings if it means the kids can see even part of the 'adult materials'\n\nSo they need to do something to avoid the various laws. Perhaps rather than making the sites invite only they should make them registered accounts only. Then they can invoke rules like anyone found to be lying about their age gets their account yanked. Searches can be safe search on for non registered folks with registration required to turn it off. \n\nOn the page side they can better enforce rules about marking those pages. If someone is caught repeatedly not marking adult material as such, yank their page. Hurt the ones who aren't being responsible but leave the grownups who are out of it. ",
      "parentPostTime": "2015-02-27T15:23:28",
      "parentPostId": "1878724344"
    },
    {
      "threadId": "2168575680",
      "post": "And I don't want to pay for corporation's mistakes. Life's a bitch and then you die.",
      "time": "2015-02-08T06:08:22",
      "id": "1841555177",
      "parentPost": "I just don't want my tax dollars to pay for someone else's libido issues.",
      "parentPostTime": "2015-02-06T04:01:35",
      "parentPostId": "1837823135"
    },
    {
      "threadId": "3418202265",
      "post": "I strongly encourage you to read the paper -- not because you hope to agree or disagree, but because science is worth reading.",
      "time": "2015-01-27T02:39:24",
      "id": "1818921410",
      "parentPost": "I'll confess I only read the abstract of your silverback link, but \"Rank was a significant predictor of copulations with both multiparous \nand nulliparous females, although copulations were more evenly \ndistributed between the three top ranking males than previously \nreported\" does not sound at all like \"the alpha male silverback gorilla doesn’t get significantly more sexual opportunities than, say, beta and gamma males.\" Would I agree with your take if I read the whole paper?",
      "parentPostTime": "2015-01-25T08:06:35",
      "parentPostId": "1815765069"
    },
    {
      "threadId": "3044857886",
      "post": "I understand this is deeply upsetting, but likening Facebook to the Third Reich is unhelpful to people facing this situation and offensive to those whose lives and families were impacted by Nazi atrocities. ",
      "time": "2014-10-17T00:55:00",
      "id": "1639914563",
      "parentPost": "facebook is becoming way too controlling and invasive. Perhaps we need a new social network so that this nazi network has some competition.",
      "parentPostTime": "2014-09-25T17:30:13",
      "parentPostId": "1605510075"
    },
    {
      "threadId": "2798847264",
      "post": "I stored the URL redirect through PornEarn and those links all still work. They redirect to FetLife itself, however, and there appears to be no mirror site holding profiles.",
      "time": "2014-07-01T20:40:04",
      "id": "1463989870",
      "parentPost": "The site got shut down today.However,your article was inaccurate...when I clicked on names that came on a search,I would get a 5-second ad from either PornEarn or AdFly and then be allowed to \"Skip Ad\" to the Fetlife profiles in question.",
      "parentPostTime": "2014-06-29T00:59:21",
      "parentPostId": "1459807886"
    },
    {
      "threadId": "2703785049",
      "post": "You and me both! :)",
      "time": "2014-05-24T00:05:11",
      "id": "1401773484",
      "parentPost": "The last one made me laugh out loud. \n\nI guess at least a week.",
      "parentPostTime": "2014-05-23T16:00:22",
      "parentPostId": "1401103884"
    },
    {
      "threadId": "2632651850",
      "post": "Performers use their legal names to get a bank account. It's easy to infer where money is coming from when you are depositing checks from adult companies. Additionally, a number of performers have business accounts for companies tied to their performer names. As far as Teagan Presley is concerned, her legal name is a Wikipedia search away.",
      "time": "2014-04-29T17:44:51",
      "id": "1361110552",
      "parentPost": "How does chase bank have access to performers legal names? When did JP Morgan Chase start using moral grounds for making business decisions?",
      "parentPostTime": "2014-04-24T21:51:44",
      "parentPostId": "1354243151"
    },
    {
      "threadId": "2605609178",
      "post": "Thank you for calling for diligence in researching the medical literature. I will go over the available papers and cover more recent information on the link between porn and erectile dysfunction.",
      "time": "2014-04-15T01:18:39",
      "id": "1337069090",
      "parentPost": "Why would the author consult David Ley, (author of \"The Myth of Sex Addiction\") who has blogged extensively and antagonistically against porn-induced problems, such as ED? Unlike the following experts, Ley is not a Medical Doctor, nor is his specialty sexology. \n\nWhy didn't the author mention the Urologist who was interviewed for the Canadian program 16×9?  It was Dr. Abraham Morgentaler, Director of Men’s Health Boston and Clinical Professor of Urology at Harvard Medical School, who has published research (unlike Ley), and has written 4 books on men's sexual health. \n\nQUOTE from Dr. Abraham Morgentaler,\n\"It's hard to know exactly how many young men are  suffering from porn-induced ED. But it's clear that this is a new  phenomenon, and it's not rare.\" \n\nWhy did the author sneer at the Dr. Oz show on PIED, while not mentioning the 3 highly qualified guests who all treat PIED?\n1) Andrew C. Kramer, MD, Assistant Professor of Urology, University of Maryland \n2) Sudeepta Varma, MD, Psychiatrist\n3) Ian Kerner PhD., Sexologist\n\nFor about 40 more experts discussing PIED, see this link - http://www.yourbrainonporn.com/porn-induced-ed-media",
      "parentPostTime": "2014-04-14T21:07:14",
      "parentPostId": "1336464668"
    },
    {
      "threadId": "1793744994",
      "post": "Though RallyHero has nothing in its terms indicating that adult content is disallowed, it works with WePay, which -- based on recent events involving Fundly -- we know is not adult-friendly. Look at this post for more information, Marc: http://slantist.com/fundly-wepay-paypal/",
      "time": "2014-03-27T23:58:58",
      "id": "1307234041",
      "parentPost": "RallyHero is on online fundraising website for just about anything. \nOur platform allows you to create beautiful fundraisers in a matter of minutes. \nYou can raise money for causes, ideas, music, art, tragedy, vacation, personal \nneeds, medical needs, wedding, and much more\n<a href=\"http://www.rallyhero.com/\">www.rallyhero.com</a>\n  <a\n  href=\"http://www.rallyhero.com/\">Raise Money Online</a>",
      "parentPostTime": "2014-03-27T20:29:50",
      "parentPostId": "1306856433"
    },
    {
      "threadId": "2363039370",
      "post": "Your belief that your right to agency is being denied when people don't agree with you betrays how little you understand what I'm talking about. \n\nBelle Knox is right to take care to research how sites and studios she is considering working with treat their performers, but that doesn't mean she is saying that she was not treated well. Her response is an attempt to shift the conversation from a condemnation of rough sex to one where the ethics of pornography are defined by sites' and studios' treatment of workers. Effectively, Knox is turning a conversation where the topic is revulsion of rough sex to one where the topic is labor issues. This is not an admission of abuse. \n\nMany members of the public seem to need to create a hierarchy of porn where some porn is \"okay\" and other porn is \"not okay\" based on how the performers behave in the film. This is useless for with regard to the well-being of performers that you and many \"concerned\" people claim to be arguing for. Porn should be viewed as a labor situation, where \"ethical\" is a term used to refer to the treatment of workers, not the story-line of films. We should be fighting for fair practices within the industry to ensure the well-being of performers and rights outside the industry to enable performers to lead full lives where participating in the sex industry doesn't bar entry to other fields.\n\nThe focus on the story-lines within has nothing to do with the well-being of a performer. The notion that the scene in which Knox participated is not consensual is an opinion that willfully ignores Knox's own statements to the contrary and takes her words out of context. Knox may regret doing it because she is being demonized for it, but that doesn't mean her consent was violated. If she feels her consent was violated during the filming, then that is what we should be discussing. But that's not what you are discussing. You are discussing your belief that certain types of fantasy that portray a woman in a certain way are \"misogynist\" and \"sick and wrong,\" even if a woman willingly participates. \n\nThis ignores the agency of a woman to determine what activity she wants to participate in. \n\n\"Are you saying that sort of video is OK with you, as long as the actress gets paid for it?\" No. I am saying that this act (whether it's filmed or not) is okay as long as all people participating in it have consented and continue to consent throughout the act. If the consent involves that one participant receive payment, then that participant must receive payment, but payment is not necessary for this activity to be acceptable. The only thing necessary is consent. \n\n\"That might have been a consensual act by Belle Knox. But the video doesn't portray it as a consensual act. [...] The video is portrayed like it is a violent man who is stripping a woman of her 'agency'! So it's freakin' scary! Get it?\" I suppose we ought to suppress mainstream films and books that show domestic violence and murder next. \n\nObjectification is casting a person in the role of object (an object is that which is acted upon) as opposed to one of subject (that which acts, or the agent). When you ignore what a woman is saying about her own experience -- like Belle Knox saying the conditions she has experienced in the adult industry have not been abusive -- and point out her past behavior with the intent to discredit her ability to make decisions that are in her own interest, you deny her agency, and effectively objectify her. Conversations about the portrayal of women in the media (including porn) that dismiss the voices of women in said media are, as a result, highly suspect to me.",
      "time": "2014-03-21T02:34:21",
      "id": "1294301707",
      "parentPost": "I don't think Belle Knox owes me anything. But an actor's body (or a Porn Star's body) are their vehicle for communication. It is part of their profession. So they open themselves up to comment about that. Cutting is a very serious issue, and I don't think it should be swept under the rug. I'm not making demands that Belle Knox present herself any way. But I certainly have a Right to make suggestions. I certainly have a Right to comment. I'm not denying Belle Knox's agency! Why are you denying me MY Right to agency, MY Right to voice an opinion?\n\nBen Affleck will be starring as Batman in the movies. I suggest he do a better job than he did with Daredevil. I'm not denying Ben Affleck his agency. I'm just stating an opinion.\n\nLet's bring this back to Belle Knox's opinion and HER agency, and the video of hers that I'm most offended by.\n\n\nhttp://www.xojane.com/sex/belle-knox-duke-porn-star-rough-sex-feminism-kink\n\nBelle Knox says, \"The more I have read criticism of the site [she is speaking about facialabuse.com], the more I realize that if I do another rough sex scene, I will more thoroughly research the company and how they treat their performers.\" In other words, she didn't like how she was treated. And she isn't fully endorsing the end product. I agree with her!\n\nShe continues, \"Do I regret shooting a scene with this website? Yes. Do I think I deserve to be demonized for it? Absolutely not.\"\n\nDo I think Belle Knox should be demonized for doing a scene for facialabuse.com? No! But, can she be justly criticized for doing that scene? I think so. That scene is horrific. It's NOT about consensual Dominance/Submission. It's not about KINK. It's about violent misogyny! It promotes and normalizes violence against women! That's sick and wrong.  Are you saying that sort of video is OK with you, as long as the actress gets paid for it? That violent misogyny might be just a fantasy. That might have been a consensual act by Belle Knox. But the video doesn't portray it as a consensual act. The man in the video calls Belle Knox a liar, when she claims she likes rough sex, and then he goes about trying to PROVE that she is a liar by roughing her up...a lot. The video is portrayed like it is a violent man who is stripping a woman of her \"agency\"! So it's freakin' scary! Get it?\n\nWhy is it OK to criticize the Objectification of Women in the Media when it comes to Advertising, but it's not OK to criticize how women are portrayed in Porn?\n\nI'm not denying Belle Knox's agency. I'm saying that what she does is important work. So it's important that she truly consider the roles and scenes that she takes on, and their greater impact on Society. That's not denying Belle Knox her agency, that's recognizing Belle Knox has some power and influence (agency), and asking her to use that power wisely.",
      "parentPostTime": "2014-03-19T14:32:33",
      "parentPostId": "1291386889"
    },
    {
      "threadId": "1656824215",
      "post": "I don't know the answer to that, Kim, but there's a hot start-up idea in it.",
      "time": "2013-09-03T22:05:19",
      "id": "1028885582",
      "parentPost": "Speaking as someone who writes non-standard romance novels, I can assure you that for all that readers scream out that they want \"different\", sales numbers reflect that they want \"the same\".  For those of us who actually do want \"different\", it's really hard to find because publishers know that the market actually wants \"same\", so they don't publish \"different\" often, and even in the rare case where they do it's not necessarily the \"different\" a given reader is looking for.\n\n\nAs in, I actively don't want to read erotica because I want the order from chaos story, but I want it to come with steamy sex.  However I also want that sex to be hetero and what is insultingly called \"vanilla\", as if those of us not into the kink du jour are lesser sexual beings undeserving of fulfillment.  My general reading choices are standard tropey romances that offend my feminist principles and have meh-written sex scenes, or else 50 Shades and its clones which also offend my feminist principles and have sex scenes that put me off.\n\nSo what's the solution?  Surely there are people out there writing what I want to read, but it's really hard to find (especially at professional-level quality).  How do we pair readers who want a particular thing with the writers who are providing it, and do it in a professional context where it's okay for the readers to expect high quality, editing, and good stories but the writers can actually make it financially worthwhile to work at that level for only a small audience?",
      "parentPostTime": "2013-08-28T06:50:21",
      "parentPostId": "1020196898"
    },
    {
      "threadId": "1662169060",
      "post": "I'm okay with science magic -- I love Jurassic Park! -- but I do resent science magic being the standard go-to deus ex machina.",
      "time": "2013-09-03T22:03:00",
      "id": "1028883604",
      "parentPost": "I think much the same could be said of science. Scientists like to wring their hands over whether science is reasonably portrayed in films like Prometheus, and while I'd argue that accurate science usually better serves narrative than inaccurate science does, I don't really care as long as I'm entertained. We don't *really* think that the unwashed masses really think they're learning about the scientific method from a Ridley Scott film, do we?",
      "parentPostTime": "2013-08-29T22:32:15",
      "parentPostId": "1022599702"
    },
    {
      "threadId": "1667576867",
      "post": "He's \"the bad guy\" because he didn't stop when he was told no. He asked a performer for a private, when she turned that down saying it was too much like prostitution, he approached her under the guise of shooting. This isn't a case of something not yet being released. It's a case of someone not caring what it takes to get what they want.",
      "time": "2013-09-03T06:09:49",
      "id": "1027417888",
      "parentPost": "Wait, he's the bad guy because the movies haven't been released yet? There are big budget Hollywood actors with movies that haven't been released.",
      "parentPostTime": "2013-08-29T22:43:32",
      "parentPostId": "1022610857"
    },
    {
      "threadId": "1651458865",
      "post": "Nor are there many scenarios that require you to disclose that an individual is transgender; however, because you argue that you would determine the proper use of pronouns based on biology alone, you are basically saying that as a journalist, you would have to request that any source that doesn't clearly present as male or female to you, show you their genitals.",
      "time": "2013-08-28T02:20:20",
      "id": "1020034658",
      "parentPost": "With compassion. \n\nIn the short time I've spent learning from the Intersex Society of North America's website, I've come to the conclusion that the intersex condition is quite a bit different from the one we've discussed with regards to \"trans people.\"\n\nHaving never encountered this situation in a professional setting I would have to proceed on a case-by-case basis with an underlying policy of honoring the request or identity (gender assignment) of the individual.\n\nI think it would have to do with the focus fo the story. There aren't too may scenarios in a news story where I would need to disclose the intersex identity of an individual.",
      "parentPostTime": "2013-08-28T01:11:58",
      "parentPostId": "1019978039"
    },
    {
      "threadId": "1630938429",
      "post": "Some legislation introduced to combat revenge porn has narrowly defined \"revenge porn\" as sexual images depicting an identifiable person. When I speak about revenge porn, I am not using the legal definition, which continues to evolve, and will continue to evolve as these laws are tried. \n\n\nWhen I say \"revenge porn,\" I am referring specifically to images received for the purpose of communicating desire that are distributed, without the sender's consent, with the intent to shame or humiliate. Even if the men whose images are used in this exhibit never know their dick pix were put on display, the intent of the show is obvious: to shame all men out of sending such images.\n\n\nThis exhibit is just as wrong as sites that post images of women that were intended for their partners and not a public audience, even if the women portrayed are never identified.",
      "time": "2013-08-23T07:46:45",
      "id": "1014556224",
      "parentPost": "If the photos collected are simply dick pix--- penises with no faces or names ---it's hardly revenge porn, and doesn't fit under any of the bills discussed.  And the gallery show is likely to be hilarious. Guys will come, stand by the larger faceless, nameless penises, and hint to passing art babes that, \"y'know, that's me...\"",
      "parentPostTime": "2013-08-23T01:53:32",
      "parentPostId": "1014285513"
    },
    {
      "threadId": "1618115596",
      "post": "What an excellent panel idea. Best of luck to the both of you.",
      "time": "2013-08-20T23:25:54",
      "id": "1008773090"
    },
    {
      "threadId": "1611228894",
      "post": "After Glass made a debut at a Manhattan strip club, I wrote about some of the issues sex workers face when it comes to accessible devices that make it easy for the public to record live footage (goo.gl/X3YMEk). While I can't imagine this panel will address such issues, I do hope it enables people to develop a better understanding of professional courtesy.",
      "time": "2013-08-19T23:06:00",
      "id": "1007183523"
    },
    {
      "threadId": "1582926500",
      "post": "It's a really unfortunate situation -- and one we have seen before not too long ago. Katy Perry's \"Ur So Gay\" also does a standup job of policing masculinity, though without the blatant misogyny that Ke$ha displays. Makes me miss the Cocteau Twins.",
      "time": "2013-08-08T23:44:10",
      "id": "993766629",
      "parentPost": "WTF.  So if a dude doesn't have emotions he's a jerk, but if he does he's not a real man?  What century does this idiot live in?\n\nThe whole thing sounds like she'll do anything for a buck regardless of principles.  We've got some really inappropriate, anti-feminist, anti-sex-freedom words in our language for that too. :p",
      "parentPostTime": "2013-08-08T01:16:02",
      "parentPostId": "992319656"
    },
    {
      "threadId": "1341847400",
      "post": "Thank you for responding to the post with regard to the status of this product. This is a very unfortunate situation and your speed in engaging with developing discussions is commendable and important. It is our hope that Mr. Lowe will recover as well, though I think looking into the matter and determining what the mitigating circumstances may have been so that future users will know what not to do is also very important.",
      "time": "2013-05-31T23:40:09",
      "id": "915541403",
      "parentPost": "Actually @A.V. Flox, this product is in fact regulated by the FDA. We at Kama Sutra follow very specific protocol and guidelines provided by the FDA when formulating our Pleasure Balm Prolonging Gel as seen by our Drug Facts panel. In fact, Kama Sutra goes above and beyond normal industry standards by putting all of our products through vigorous testing such as, RIPT, Microbial Challenge, Stability Tests as well as a Latex Compatibility Test.  Our manufacturing facility is FDA regulated, as well as licensed for both drug and medical devices.  For these reasons, Kama Sutra is confident that our tested product with a 40+ year proven record of safety and reliability is not the cause of Mr. Lowe's injuries. While we of course sympathize for Mr. Lowe's disconcerting problem, we trust he had a speedy recovery as shown by his recent MMA victory.  His allegations are not consistent with our scientific reviews of our ingredients. Without knowing all the factors in Mr. Lowe's case we can only assume other  mitigating details must be involved.  We sincerely appreciate the overwhelming support we have received.",
      "parentPostTime": "2013-05-31T17:26:51",
      "parentPostId": "915190089"
    },
    {
      "threadId": "1236580266",
      "post": "I vaguely recall an older cousin trying to explain sex to me and my sister when we were kids. She had read about fluids involved, but lacking any actual knowledge, she could only summarize what she knew, and since the only fluid she'd ever seen around the genitals was urine, that's what we got. I tried to explain this couldn't be the right system, but my little sister became terrified of using the toilet right before or after a boy, as it may lead to the accidental creation of a toilet baby.\n\n\nSigh.",
      "time": "2013-04-30T00:22:09",
      "id": "880027737",
      "parentPost": "When I was a kid and read about \"rubbers\" in Stephen King's \"Carrie\" I asked my mother what that meant.  I got a no-nonsense definition of it being a thing a man puts on his penis so sperm won't get into the lady and get her pregnant.\n\n\nAnd for years after I thought it was a plug in the tip and I was utterly, utterly terrified that if one was ever used in me it'd shoot out and get stuck in me.\n\n\nWhich goes to show that you can educate your kid openly and properly about sex and they can still end up messed up about it.",
      "parentPostTime": "2013-04-27T00:34:45",
      "parentPostId": "877278735"
    },
    {
      "threadId": "1232012339",
      "post": "Actually, I picked that up from the Doctor. You're welcome to assist my efforts in popularizing it. :)",
      "time": "2013-04-30T00:18:17",
      "id": "880025571",
      "parentPost": "\"Go do a handstand on the roof and point your dick at the moon\" is my new favourite insult phrase.  I kind of want to go quote it in the geek question of the day today...can I, and if so, cite you on there? :D",
      "parentPostTime": "2013-04-25T02:00:20",
      "parentPostId": "874848019"
    },
    {
      "threadId": "1222973745",
      "post": "Thanks for pointing that out, Kimberly! After how many years of using and writing about sex toys, it's not hard for me to conclude what something is for without having to look at the manual. I often forget that's not the case for ... well, anyone else. \n\n\nThe makers of Revel Body state very clearly in the video and elsewhere on their marketing tools that they find most packaging for sex toys to suffer from \"pornographic branding,\" which they want to move away from. This approach is not new; you'll see a lot of the more luxury brands are moving away from such graphic imagery as well and putting serious thought into packaging and general design. \n\n\nThe problem arises when it's taken too far, though, completely sanitizing the product and in so doing, decontextualizing it to the point where users just don't know what goes where. Not only that, such an approach also suggests that there is something a little wrong with actually using the product for that -- that very dirty thing we can't even suggest without a bathtub very close by to wash our tongues immediately after doing so!\n\n\n\nI'm sure this isn't what Revel Body was thinking, but it's a very good point to bring up to them (and other toy manufacturers) because there is a balance here. Discreet and minimal packaging is elegant for anything, but let's not go so far that we accidentally undermine the message that pleasure is a good thing.",
      "time": "2013-04-23T21:44:43",
      "id": "873636254",
      "parentPost": "Well I'm all for promoting sexual health and women having pleasure time and all of that, and boy howdy I wish I had a gorgeous and clean massive apartment like the lady in the video, but all of the snazzy production values aside, I'm having trouble discerning exactly what goes where, so I'll raise my hand and bluntly ask: is it just a pulsating pink dot to press against whatever you want pulsed?\n\nBecause personally, I need both vaginal and clitoral stimulation so this doesn't appeal to me even if the quieter, more variable motor does.  I wish they had a more blunt \"this is how to use it\" diagram somewhere.  Seems to me that'd help with the whole promotion of normalizing female masturbation thing.",
      "parentPostTime": "2013-04-19T22:24:45",
      "parentPostId": "868674025"
    },
    {
      "threadId": "1201837091",
      "post": "These are very valid concerns -- we saw the backlash against studies of duck genitalia not too long ago (http://www.slate.com/articles/health_and_science/science/2013/04/duck_penis_controversy_nsf_is_right_to_fund_basic_research_that_conservatives.html) and we know how much the conservative right despises academia. We live in a country where political and religious leaders alike continuously bash higher education and efforts to pursue knowledge. \n\nHow did Pat Robertson put it when he was asked why we don't have more miracles in the U.S. while people in Africa do? \"Cause people overseas didn't go to Ivy League schools! We're so sophisticated. We think we've got everything figured out. We know about evolution, we know about Darwin, we know about all these things that say God isn't real. We know about all this stuff and if we've been in many schools, the more advanced schools, we have been inundated with skepticism and secularism. And overseas they're simple, humble, you tell them God loves them and they say 'okay he loves me.' And you tell them God will do miracles and they say 'okay, we believe you.' And that's what God's looking for. That's why they have miracles.\" (http://www.theatlantic.com/national/archive/2013/04/why-are-there-so-few-resurrected-corpses-in-the-united-states/274681/)",
      "time": "2013-04-11T00:51:27",
      "id": "859184741",
      "parentPost": "This move concerns me on a wide variety of levels.  Beyond the obvious issue of censorship, the idea that digitally rendered (i.e. not even real individuals) approximations of nude males for a research study would be more offensive than a sculpture boggles my mind.  I am going to go highly speculative and wonder if some anti-intellectualism is also involved here (on top of the obvious discomfort with basic human anatomy).  Presumably FB admin became involved following complaints.  It seems strange to me that there would be so many complaints for this particular case, unless the idea of researching sexual appeal was particularly unappealing to many readers/viewers, which I'll bet it was.",
      "parentPostTime": "2013-04-10T23:50:23",
      "parentPostId": "859148600"
    },
    {
      "threadId": "1136209046",
      "post": "Elsewhere, Michael Vanhise -- the man who offered to pay Valle to kidnap a woman -- was arrested in New Jersey in January. He <a href=http://www.nytimes.com/2013/01/05/nyregion/man-accused-of-conspiring-with-officer-to-kidnap-woman.html>was arraigned</a> on charges of kidnapping conspiracy and is being held without bail.\n\nIn February, two men were arrested in Canterbury in the U.K. in connection with the Valle case for \"conspiracy offenses, grooming and possession of child abuse images,\" <a href=http://www.nytimes.com/2013/03/01/nyregion/prosecutors-try-to-bolster-core-idea-in-cannibal-case.html>reported</a> the <em>New York Times</em>. No further information was disclosed.",
      "time": "2013-03-14T06:46:06",
      "id": "828847136"
    },
    {
      "threadId": "1120703574",
      "post": "Isn't it just the very image of housewifery and motherhood as conjured by notions of The Good Old Days?",
      "time": "2013-03-07T07:54:53",
      "id": "821767158",
      "parentPost": "Goodness me, the illustration is even more, erm, evocative than the photograph.",
      "parentPostTime": "2013-03-07T07:29:29",
      "parentPostId": "821756939"
    },
    {
      "threadId": "1122445064",
      "post": "The segment wouldn't have inspired as many blog posts if the story had been presented without the panic-mongering created by a pan around a room full of lace and cuts as far as possible from full-coverage. Not that I think there is anything wrong with such cuts of underthings. So what if a girl wears a thong or satin or lace? Or red? The notion that the cut of a garment (that most people aren't even going to get to see) has the power to turn her into some beast incapable of controlling her appetites is absurd.",
      "time": "2013-03-07T07:53:36",
      "id": "821766735",
      "parentPost": "What the eff?! That TV \"specialist\" is \"special\" indeed! What a load of crap. That mother was just letting her daughter buy cute underwear. And it was ridiculous that the video journalist went into VS showing racy panties when that's not what the mother was showing everyone the type of underwear she ACTUALLY bought! Ridiculous.\n\n\nMy mother always bought me cute underwear and I remember when I got my first bra in 6th grade and I wanted to show it off to the world! \"Look, world, I have enough boobies to qualify that I need a bra!\" It's a rite of passage. By grade 7 I wanted lace bras to show off in the gym locker room... my mom wasn't pleased, but she found a modest style that she was okay buying for me.\n\n\nIt's silly that anyone is critisizing this mother. The government should stay out of our bedroom and TV hosts should stay out of our panty drawer.",
      "parentPostTime": "2013-03-07T05:06:34",
      "parentPostId": "821682452"
    },
    {
      "threadId": "1055460234",
      "post": "Kudos to Penepole for being a power blogger and turning her passion into revenue, but let's not forget that everyone is fallible. She did leave out options. There are ways to provide and to be around for your kids -- and there are ways to make it work even if both parents are working without the nannies, too.\n\nAs for the jealousy, though -- I couldn't do it. I couldn't just stay home while my husband worked. You need a source of stimulation beyond the connections you make in your schedule. You need connections with people who will work with you to achieve things and give you a sense of well-being. You also need opportunities to change the setting, get out of town, get the responsibilities shaken up with something interesting.\n\n\n\nThat's the biggest hurdle, I think, to the joy of staying home. People on the other side think it's amazing, you get to stay home and go to the spa and manage your own time. They're not wrong, but you do need a bit of the uncertainty of new, exciting challenges, varied locales and alliances with new people, and that aspect is lacking. The key, I think, is finding a way to make it so you get a little of both worlds.\n\n\nYou work, so you have some challenges and options for achievement and working with other people, but I think you may need to look into varied locales and some of those perks that corporate life affords, too -- beyond conferences. Something like a retreat with people in your line of work that is both motivating and deeply satisfying. \n\n\nThat or a spa day the next time I'm in town. I don't have a private jet, but I have been told I am slightly amusing.",
      "time": "2013-02-05T01:58:58",
      "id": "788836904"
    },
    {
      "threadId": "689210158",
      "post": "Thank you for excerpting this post, Jaeleen. Glad to know you understand my point of view on this.",
      "time": "2012-05-17T00:51:01",
      "id": "530772724",
      "parentPost": "This article has been reproduced here without the consent of its author. I ask Jaeleen to extend some courtesy to professionals who make their living by writing online and choose one of the following: 1.) excerpt this piece to no more than three paragraphs and provide a link to the original; 2.) send me an e-mail address where I can invoice Bondassage for single publishing rights; or 3.) remove this piece from the site.\n\nJaeleen, I have left you a voice mail on the number you list in the site's contact information. You can call me back to discuss this further, or you can drop me an e-mail using this form: http://avflox.com/contact",
      "parentPostTime": "2012-05-17T00:06:31",
      "parentPostId": "530750439"
    },
    {
      "threadId": "664119072",
      "post": "And I am getting positively flogged on BlogHer for having the audacity to speak up about all the problems this book engenders for BDSM and for people trying it as a new thing. The irony is not lost on me.",
      "time": "2012-04-26T02:40:20",
      "id": "509348052",
      "parentPost": "",
      "parentPostTime": "2012-04-26T02:32:34",
      "parentPostId": "509342784"
    },
    {
      "threadId": "651895027",
      "post": "I hate that video.\n\nThe inability of activists to see the difference between trafficking victims and sex workers who engage in prostitution by choice hurts everyone involved. Knee-jerk reactions to campaigns conflating the two invariably lead to the criminalization of prostitution, creating environments where exploitation, abuse, coercion and trafficking are made easier, not harder. \nPoliticians pat themselves on the back for taking down Craigslist, which does what? Trafficking doesn't stop because a site is gone, and it certainly doesn't improve the situation if half the organizations fighting for abolition can't tell the difference between a slave and a sex worker. This is how you end up with things like the Anti-Prostitution Pledge which denies funds to governments and non-governmental organizations who \"support prostitution\" (i.e., work with sex workers, even if that means only providing them with condoms and other health services). This is what happens when we throw the best intentions into sensationalism: we end up with policy that helps no one and hurts everyone involved.\n\nTrafficking won't stop until we learn to tell the difference between those who are coerced into prostitution and those who aren't. Painting the entire red light district in Amsterdam -- one of the few places where sex work is legal and sex workers have rights -- as a trafficking zone will only result in criminalizing prostitution, putting all sex workers at risk of exploitation. How is this a better option that working with sex workers there to find trafficking victims? The sex workers who work there by choice know their rights and are much better able to educate those who come in about them and to sniff out those who are victims than any foreigner across an ocean who is up in arms over a sensationalist video about all the dancers who are turned into hookers.\n\n",
      "time": "2012-04-17T03:30:46",
      "id": "499484211"
    },
    {
      "threadId": "482011798",
      "post": "I think a variety of systems representing value for specific industries would deal a more serious blow to Klout than a call asking people to opt out of it.",
      "time": "2011-11-24T11:44:41",
      "id": "371429519",
      "parentPost": "",
      "parentPostTime": "2011-11-24T10:42:08",
      "parentPostId": "371397353"
    },
    {
      "threadId": "436044316",
      "post": "This is a very complex problem. The issue of disordered eating is not to be overlooked, whether the disorder is overeating or undereating. Wording messages carefully is essential in preventing people from going to extremes. There is, after all, a middle ground, though very few seem to recognize that. Arguing for weight loss does not mean one is arguing for anorexia. But arguing for whales -- however cute that may be, is not helpful, either.\n\nTo understand the complexities of these issues, we need to get away from euphemism and metaphor: what is a healthy weight? We cannot know what that is with all the messages in the media suggesting that thin is normal because this is also not the case, and neither can we do this by normalizing being dangerously heavy. But what exactly is healthy? \n\nHere is where I come face to face with the one thing I hate most in these conversations: the confounded Body Mass Index, which fails to account for a lot of body types and ethnic backgrounds. People wield it like some kind of absolute standard when it is not. I don't even think it's a very good diagnostic tool. But there it is. Until we get a better understanding of what we're talking about, we're not going to be able to craft the right message. Without this message, we will continue to bombard our kids and ourselves with contradictions: fat is beautiful! But! All the beautiful people on the TV and magazines are thin!\n\nThat is a recipe for disaster. That and arguing, as Jim does below, that we should consider our weight in terms of attracting mates. Despite scientific evidence that suggests the human animal is attracted to symbols of health and fertility, we have to recognize that much of this \"attraction\" is a product of social conditioning. Look back before Coco Chanel got her tan while on a yacht and you'll find that tan was not associated with beauty and health. Look back several centuries and you'll find heavy -- even dangerously so -- was a symbol of health and highly admired. Thin wasn't really embraced until the 60s, and it didn't seriously take off until the 90s. It's a construct, something we can shape. It's up to us to shape it in a way that doesn't destroy our species in the process.",
      "time": "2011-10-13T09:51:45",
      "id": "333463874"
    },
    {
      "threadId": "413003708",
      "post": "In the craziness of BlogHer and other engagements, I completely forgot to pay my phone bill. I get so many e-mails a day and was having so much trouble catching up, that I missed the e-mails to this effect as well. I have no idea how many days went by before I noticed the phone wasn't working. I asked myself: do I really need a telephone? I do about two to four interviews over the phone per month and I can't expect everyone to have Skype, so I might. But do I need unlimited minutes, texts and data? I know I don't. I hate talking on the phone. I don't hate text messages, but not having these or phone calls to distract me over a few days showed me what it's like to really pay attention to people. I didn't realize how much disruption phones can cause until I lost my service. And I sure as hell didn't realize how much I would like it when it happened.",
      "time": "2011-09-13T11:43:55",
      "id": "308544998"
    },
    {
      "threadId": "347038696",
      "post": "I read it and here is what's wrong with your post: you can, in fact, export stuff from Facebook. That's been available for almost a year now. Creating a plugin that enables Google+ to integrate that data isn't so far-fetched. ",
      "time": "2011-07-01T22:08:46",
      "id": "240291298",
      "parentPost": "Assume you didn't read the post. Certainly you didn't understand it.  It's a commentary on basic economics and psychology.   I value dissent but this is lousy hit and run feedback.",
      "parentPostTime": "2011-07-01T21:34:21",
      "parentPostId": "240278378"
    },
    {
      "threadId": "336307599",
      "post": "I\n would like to see this argument put in context with negative and \npositive reinforcement findings, and maybe even the theory of inclusive \nfitness. Having said that, I differ in my opinion of you as an activist.\n You rant and rave, but you are incredibly supportive and exhibit \nastonishing warmth in your leadership. \n\nIt's important to espouse diversity for this reason, because people are \nnot two-dimensional as \"personal brand\" culture would have us believe. \nWe're multi-faceted. I consider myself a very polite and somewhat \npassive activist, I rarely go in guns blazin', but I do send in my \nlittle Trojan horses, even in the most seemingly inane and vanilla \npieces. But I have been known, from time to time, to totally lose my \ncool and pull out the nukes. (I know you hate military language used in \nterms of anything unrelated and I appreciate you humoring me and seeing \nbeyond that!)\n\nNevertheless, you are right about this, impact happens in different ways\n and I'm glad you chronicled the meat of the discussion that unfolded \nhere.\n\n ",
      "time": "2011-06-30T04:11:55",
      "id": "238432611"
    },
    {
      "threadId": "262213650",
      "post": "I know, it's really going to be something!",
      "time": "2011-03-18T03:31:00",
      "id": "171145119",
      "parentPost": "i REALLY wish i could be there!",
      "parentPostTime": "2011-03-18T00:28:00",
      "parentPostId": "171145082"
    },
    {
      "threadId": "253906427",
      "post": "Excellent points made, George. It really is unfortunate the conversation took that turn, but at that point, I would have withdrawn as well.",
      "time": "2011-03-03T04:29:00",
      "id": "165713862",
      "parentPost": "It sounds like Paul's heart started out in the right place, but he got caught up in some unresolved emotional issues that don't have anything to do with Opera Girl's well-being.  Obviously it hasn't been long since their break-up, and the way things ended seem like they left him without full closure (the circumstances and the way he tells the story make it clear that he's still struggling with whose \"fault\" it is).\n\nIt's great to still care about someone as a friend after your romantic relationship ends, but once he got the text saying she was OK it changed from \"I'm concerned about her\" to \"I'm concerned about who she might be with.\"  Hard as it may be to accept, it's not his business anymore.  Does it make a difference whether the \"fuck off\" text came from Opera Girl or someone else?  It shouldn't - if it wasn't from her, it was from someone close enough to her to send that text from her phone.\n\nIt's always hard to let go, but you have to realize when things are over and just. walk. away.  If she wants to be his friend she'll find a way to get back in touch, if not he'll never hear from her again.  Either way, he should move on.",
      "parentPostTime": "2011-03-03T03:35:00",
      "parentPostId": "165713823"
    },
    {
      "threadId": "253906348",
      "post": "It was a lot of fun!",
      "time": "2011-02-24T10:15:00",
      "id": "165713797",
      "parentPost": "Ha! You and Jess driving around UCLA looking for a frat to do a naked shoot. Pfft spit my drink at my screen. Priceless !",
      "parentPostTime": "2011-02-24T05:29:00",
      "parentPostId": "165713751"
    },
    {
      "threadId": "227246603",
      "post": "They don't seem to care where they come from, so it's worth a shot. Moral of the story? Don't pass your nudes around like it's nothing. They just may end up online.",
      "time": "2011-02-02T05:35:00",
      "id": "144273155",
      "parentPost": "LOL at this \"Ia Anyone Up\" blog.. I wonder if I Can submit the 10 cock pics I get in my email daily to them?",
      "parentPostTime": "2011-02-01T10:07:00",
      "parentPostId": "144273130"
    },
    {
      "threadId": "227246246",
      "post": "Be sure to tell us if anything interesting unfolds...",
      "time": "2011-02-01T03:37:00",
      "id": "144273096",
      "parentPost": "This alone is enough reason to hang out near the woman's restroom in whole foods",
      "parentPostTime": "2011-01-29T01:38:00",
      "parentPostId": "144272917"
    },
    {
      "threadId": "227246388",
      "post": "Agreed!",
      "time": "2011-02-01T03:36:00",
      "id": "144273064",
      "parentPost": "That was some funny stuff. Someone had way too much time on there hands.",
      "parentPostTime": "2011-02-01T00:45:00",
      "parentPostId": "144272981"
    },
    {
      "threadId": "227246429",
      "post": "This is true -- I believe they were engaged at the time. Perhaps it was the Sapphic nature of the encounter that made it awkward for him?",
      "time": "2011-02-01T03:36:00",
      "id": "144273033",
      "parentPost": "interesting. If i remember correctly this is the same guy that filmed his wifes sex scene in his own movie the fountain....",
      "parentPostTime": "2011-02-01T01:36:00",
      "parentPostId": "144273011"
    },
    {
      "threadId": "227246017",
      "post": "I'd like to see men's activity put up against how they rate a woman as well, but I am not certain OKCupid collects this data. It's an interesting study and if they developed it further and found all the data you indicate, it may transcend from interesting dinner party fodder to something more substantial. \n\nAs for game theory and mate selection: ooooh. Decision making versus biology -- sounds like an interesting discussion to save for the salon.",
      "time": "2011-01-11T00:15:00",
      "id": "144272802",
      "parentPost": "The problem I have with the interpretation of the OkC data is that they don't include any data on the men themselves. While the results themselves are interesting, and worth exploring, I think the interpretation overreaches. I'm not convinced that game theory applies to mate selection.\n\nAlso, I'd like to see some correlations between the men's ratings of an individual and their choice to contact that same individual.",
      "parentPostTime": "2011-01-10T23:50:00",
      "parentPostId": "144272742"
    },
    {
      "threadId": "227245676",
      "post": "If you ever do another show about this, I'm in.",
      "time": "2010-12-31T09:59:00",
      "id": "144272632",
      "parentPost": "Pickup routines go nowhere, in fact most men are worse off trying to use them. For men who want to be effective meeting women it starts with taking control of the only variable they can control, themselves. \n\nfix yourself and you can have the world if you want it.",
      "parentPostTime": "2010-12-31T07:41:00",
      "parentPostId": "144272425"
    },
    {
      "threadId": "227245463",
      "post": "I can't imagine you'd ever appreciate a cipher, however cutesy, Barbie darling.",
      "time": "2010-12-22T07:46:00",
      "id": "144272328",
      "parentPost": "Gag x 1,000,000. Barf, too. I got mini \"why not me?\" tingles reading Assange's emails. Up until they got a little pleady/creepy.\n\nEllipses abuse is better than sexual abuse, though. At least he's in the clear for one of the two.",
      "parentPostTime": "2010-12-21T22:12:00",
      "parentPostId": "144272226"
    },
    {
      "threadId": "227245166",
      "post": "I can only imagine what he would do then...",
      "time": "2010-12-14T01:20:00",
      "id": "144272022",
      "parentPost": "Tasty. Make sure you tell him not to call you \"sugar\".",
      "parentPostTime": "2010-12-11T01:40:00",
      "parentPostId": "144271815"
    },
    {
      "threadId": "227245215",
      "post": "We hope you get everything you want!",
      "time": "2010-12-14T01:20:00",
      "id": "144271956",
      "parentPost": "Ok this made me LOL!  Thanx for posting this, the collage idea is a cute one!",
      "parentPostTime": "2010-12-11T02:02:00",
      "parentPostId": "144271904"
    },
    {
      "threadId": "227241357",
      "post": "Oh, sweet Jesus. I just hope they don't start breeding.",
      "time": "2010-12-09T22:20:00",
      "id": "144266352"
    },
    {
      "threadId": "227244524",
      "post": "Only one way to find out, right? I'm kidding.",
      "time": "2010-12-09T22:12:00",
      "id": "144271644",
      "parentPost": "Great! However, This would make my girl stick around even longer.  I'd be better off actually popping the question to scare her off.",
      "parentPostTime": "2010-12-04T00:16:00",
      "parentPostId": "144270863"
    },
    {
      "threadId": "227244756",
      "post": "If you'd like us to a do a collage of your wishlist, Aaliyah, shoot us the link to your wishlist to @avflox on Twitter and we'll throw it together.",
      "time": "2010-12-09T22:11:00",
      "id": "144271581",
      "parentPost": "I do have an amazon wishlist and I love searching thru other girl's wishlists and seeing what it is that they desire.  A lot of times I find a girl who has really good taste and end up copying half of her list onto mine!  I think I stole almost all of Ariel Rebel's amazon wishlist a couple weeks ago hehe:) \n\nAaliyah Love XOXO <3",
      "parentPostTime": "2010-12-09T03:29:00",
      "parentPostId": "144271233"
    },
    {
      "threadId": "227244911",
      "post": "Ваш английский превосходен, г-н Pornbot.",
      "time": "2010-12-09T21:51:00",
      "id": "144271530",
      "parentPost": "It would be nice if I could get a blowjob from Sasha Grey or Nautica Thorn in full view at the expo, but that's ok. My dreams may be crushed, yet I soldier on.  By the way, I'm a porn bot.",
      "parentPostTime": "2010-12-09T20:59:00",
      "parentPostId": "144271469"
    },
    {
      "threadId": "388084657",
      "post": "Oh, sweet Jesus. I just hope they don't start breeding.",
      "time": "2010-12-09T21:20:00",
      "id": "288526189"
    },
    {
      "threadId": "227244560",
      "post": "You need to join Fetlife in order to be able to comment to let organizers know you plan to attend and ask any other questions. Sorry about the inconvenience!",
      "time": "2010-12-09T20:04:00",
      "id": "144271395",
      "parentPost": "Where you click to RSVP for the Shibari class?\n\nThanks! :)",
      "parentPostTime": "2010-12-04T09:00:00",
      "parentPostId": "144270922"
    },
    {
      "threadId": "227243853",
      "post": "And this one isn't? http://www.youtube.com/watch?v=GUKzZIgpMzQ",
      "time": "2010-11-09T21:56:00",
      "id": "144270033",
      "parentPost": "It's because it's PG-rated.",
      "parentPostTime": "2010-11-09T18:03:00",
      "parentPostId": "144269978"
    },
    {
      "threadId": "227243680",
      "post": "Who says a man puts no effort into a shot? I'm as intellectually driven as you, if not more, but I still enjoy the sharing that is involved in a nude photo. Especially when it's a clear visual representation of the arousal someone is experiencing while engaging with me.",
      "time": "2010-11-05T19:38:00",
      "id": "144269776",
      "parentPost": "I've always thought words were much hotter from the get go.  So sexting...definitely not dead.  Sending pictures of an unsexy (read: desk chair? bleh) scenario of a dude putting in little to no effort (read: looking bored)...yeah that...definitely dead.  Though I'd wager it was never alive (read: awesome) to begin with.",
      "parentPostTime": "2010-11-05T07:01:00",
      "parentPostId": "144269699"
    },
    {
      "threadId": "194787080",
      "post": "Oops! That should be \"udder\". xo",
      "time": "2010-10-15T01:55:00",
      "id": "115496236"
    },
    {
      "threadId": "227242584",
      "post": "I am sorry that you were in a situation in which you felt ending your life was the only answer and I'm glad you chose against it. Having said that, forgive me, but I can't quite fault a person for entertaining a conversation with you. If you are upset by her inability to grasp the gravity of the situation at that time, I strongly recommend making it known to her directly, not going around the internet leaving comments on random blogs.",
      "time": "2010-10-06T06:57:00",
      "id": "144268115",
      "parentPost": "That girl is insane, and I don't mean that in the good way. I met her through a friend and spent the majority of our awful conversation planning elaborate ways in which I could kill myself.",
      "parentPostTime": "2010-10-03T00:30:00",
      "parentPostId": "144268057"
    },
    {
      "threadId": "227242505",
      "post": "Abso-fucking-lutely, G.!",
      "time": "2010-10-01T02:05:00",
      "id": "144268011",
      "parentPost": "Carpe Diem or in my case Carpe Omnia.",
      "parentPostTime": "2010-09-30T22:06:00",
      "parentPostId": "144267919"
    },
    {
      "threadId": "227241027",
      "post": "Great angle on the topic, Jamie.",
      "time": "2010-09-30T22:06:00",
      "id": "144265971"
    },
    {
      "threadId": "388084281",
      "post": "Great angle on the topic, Jamie.",
      "time": "2010-09-30T21:06:00",
      "id": "288525756"
    },
    {
      "threadId": "227242148",
      "post": "Sounds like he was forced to develop his skill as a result of his situation. What a shame that these were the conditions under which he did so. Sometimes there is such a thing as too big.",
      "time": "2010-09-13T23:37:00",
      "id": "144267395",
      "parentPost": "The most endowed man I ever slept with gave amazing oral.  Mostly because he had an enormous cock, and most women he'd been with found penetrative sex uncomfortable at best, and painful at worst (I was in the 'painful' camp - no matter how much lube we used, how warmed up I got, how slow and gentle he was - a few strokes in, and I was in pain).",
      "parentPostTime": "2010-09-13T22:00:00",
      "parentPostId": "144267316"
    },
    {
      "threadId": "227241979",
      "post": "#win.",
      "time": "2010-09-02T02:03:00",
      "id": "144267152",
      "parentPost": "Talking about your equipment in third person can't help your odds of having sex with a third person. Or a second.",
      "parentPostTime": "2010-09-02T01:48:00",
      "parentPostId": "144267089"
    },
    {
      "threadId": "134907846",
      "post": "Don't take the bait, V. ",
      "time": "2010-08-29T05:08:40",
      "id": "72925578",
      "parentPost": "I'm just going to assume you are kidding here. ",
      "parentPostTime": "2010-08-29T04:28:26",
      "parentPostId": "72917533"
    },
    {
      "threadId": "112144194",
      "post": "We need to get her to come visit L.A.!",
      "time": "2010-06-29T03:17:00",
      "id": "59072121"
    },
    {
      "threadId": "100614469",
      "post": "The UI is clunky and the site is not very pretty. It has potential, but not in the same way PostSecret or even TFLN do. I think the judgment element helps traffic, because it will keep some posters coming back to check feedback, but I personally hate that aspect. Overall, a cute novelty site, but no long-term potential.\n\nBasically, we'll cheat on our daily reads with it today and then go back to cheating with FAIL blog.",
      "time": "2010-05-25T23:27:18",
      "id": "52060724"
    },
    {
      "threadId": "95988975",
      "post": "Funny, I read the title \"Steve Jobs Would Ruin America Better than Obama.\" I think that fits much better. ",
      "time": "2010-05-15T23:11:48",
      "id": "50539798"
    },
    {
      "threadId": "194777867",
      "post": "Epic mfing win.",
      "time": "2010-04-28T07:53:00",
      "id": "115475962"
    },
    {
      "threadId": "89712279",
      "post": "OMG. What about the concept of \"boobquake\" is safe for work to you? LOL",
      "time": "2010-04-27T00:13:41",
      "id": "46837399",
      "parentPost": "NSFW!\n\nBut quite lovely, just the same.  ",
      "parentPostTime": "2010-04-26T17:51:28",
      "parentPostId": "46787430"
    },
    {
      "threadId": "86254699",
      "post": "At least 100 views from me on Bad Romance. At least. As for Telephone -- I must have watched it 50 times or so. It's too lolz not to. ",
      "time": "2010-04-15T01:44:25",
      "id": "44836084"
    },
    {
      "threadId": "71975978",
      "post": "Oh, thank you sweetness! I look forward to it and to our interview. xo",
      "time": "2010-03-03T22:27:51",
      "id": "37866162",
      "parentPost": "Aw, thanks. I'm so very glad that you came along. One of my favorite shots in the episode is you toasting with a Mexican coke in a bottle--classic! I'll host one again and you're always welcomed to be part of it! ",
      "parentPostTime": "2010-03-03T17:16:43",
      "parentPostId": "37820474"
    },
    {
      "threadId": "65681882",
      "post": "OHAI!!!!! ",
      "time": "2010-02-10T08:56:08",
      "id": "33372503"
    },
    {
      "threadId": "61948493",
      "post": "Paul, you're so hot when you do tech. Why did you ever think you needed to bother with flowers? ;)",
      "time": "2010-01-27T18:56:51",
      "id": "31548175"
    },
    {
      "threadId": "28286633",
      "post": "HAHHAHAHAHA!!!! I bet you sales are rocking. I might have to buy one, too. LOLOL",
      "time": "2009-08-05T23:22:30",
      "id": "14008699"
    },
    {
      "threadId": "27969717",
      "post": ":)",
      "time": "2009-08-03T20:47:17",
      "id": "13850060",
      "parentPost": "LOL. Thats awesome. I guess thats my tactic as well, to pretend to be your mother... :)\r\n\r\nActually, I try to be mr. supercool. Like nothing bothers me. I think how would Prince handle it, or like Al Capone. Unflappable.",
      "parentPostTime": "2009-08-03T20:44:57",
      "parentPostId": "13849976"
    },
    {
      "threadId": "27954303",
      "post": "Standing ovation.",
      "time": "2009-08-02T19:28:14",
      "id": "13815083"
    },
    {
      "threadId": "26792682",
      "post": "Only around 50. But as others have stated before, I would rather engage with real users than have what appear to be big numbers comprised largely of spam accounts.",
      "time": "2009-07-24T13:16:46",
      "id": "13268571"
    },
    {
      "threadId": "26424815",
      "post": "I'm listening to it now.",
      "time": "2009-07-22T01:32:53",
      "id": "13088880"
    },
    {
      "threadId": "24664660",
      "post": "Yes, there is.",
      "time": "2009-07-08T15:04:56",
      "id": "12313342"
    },
    {
      "threadId": "22052660",
      "post": "Nom nom!",
      "time": "2009-06-18T00:02:18",
      "id": "11068023"
    },
    {
      "threadId": "194766619",
      "post": "More than his talent as far as composition and his love of color, Josh captures the essence of the moment in a way I've never seen anyone else do it. He lives LA and you can feel that in every photo. Nice to see his work in my fave publication. ",
      "time": "2009-06-09T08:30:00",
      "id": "115448779"
    },
    {
      "threadId": "16568576",
      "post": "Oooh!",
      "time": "2009-04-24T13:47:33",
      "id": "8648647"
    },
    {
      "threadId": "14394106",
      "post": "There we are with Mummy!",
      "time": "2009-04-15T01:36:06",
      "id": "8216044"
    },
    {
      "threadId": "14906952",
      "post": "You bet your sweet ass I'll be tuning in.\r\n\r\nI told my friend about it and now she wants us to try and see if we get on the show as well. Can two tech darlings make it in the wilderness or have we moved so far into the digital and out of the analog that we are no longer able to connect with our primal instincts?\r\n\r\n\r\n",
      "time": "2009-04-02T07:09:39",
      "id": "7737334"
    },
    {
      "threadId": "13839411",
      "post": "Excellent post, Yongfook. ",
      "time": "2009-03-17T21:35:45",
      "id": "7300505"
    },
    {
      "threadId": "12635286",
      "post": "OMFGLOL.",
      "time": "2009-02-26T14:19:22",
      "id": "6654740"
    },
    {
      "threadId": "193098573",
      "post": "I love that only after I'd clicked \"Post\", I read what it said: \"All reader comments are subject to our Terms of Use. By clicking 'Post', you acknowledge that you have reviewed and agree to these Terms. \"\n\nI wonder what they are...",
      "time": "2009-02-21T01:16:00",
      "id": "113903189"
    },
    {
      "threadId": "10893424",
      "post": "Talking to you today has made me desperately want to reread Radical Chic and Mauu Mauing the Flak Catchers. It would fit with that story you're considering writing! Oh, and if you haven't read it yet... I'LL KEEL YOO!",
      "time": "2009-01-31T21:05:32",
      "id": "5733344"
    },
    {
      "threadId": "10892485",
      "post": "It's a weird balance. It can't be too easy, but he can't be too  cool, either.\r\n\r\nI'm a bizarre product of web 2.0 in that I need instant responses to everything and interaction on multiple levels. It's the idea of ambient awareness--the feeling of being in the same virtual room because you share so many social networks together. I want to be able to \"see\" you on Gtalk, know what you're doing on Twitter, where you are on Brightkite, what you're listening to on Blip or Last.fm, maybe even see you live on 12seconds. Just within reach, right there where I can see you. Not all over my space, but there.\r\n\r\nI think this is why I like the internet better than phones. Phones demand a response. The web doesn't. You can convey so much without demanding anything back: a response to a tweet, an e-mail with no subject that just says hi, even though we're both available on Gtalk. A Gtalk status message playing off my own Gtalk status message (me: \"Lunch?\" you: \"I'm buying.\"). A comment on a blog post. A retweet. Inside jokes on the public timeline on Twitter that no one gets and that you don't tell me about, just let me find them on my own when I trend you later. \r\n \r\nIt creates the subtle illusion of connection without actually being on your space. Is that having it both ways or doing it totally differently? ",
      "time": "2009-01-31T21:01:25",
      "id": "5733270"
    },
    {
      "threadId": "8435209",
      "post": "Elvis over Las Vegas Boulevard!\r\nhttp://www.flickr.com/photos/avflox/181921763/",
      "time": "2008-12-16T07:29:55",
      "id": "4425567"
    },
    {
      "threadId": "8415417",
      "post": "I found your blog after you added me on Twitter and I'm loving it. Glad you found me and thanks for connecting!",
      "time": "2008-12-15T21:21:55",
      "id": "4415719"
    },
    {
      "threadId": "6955565",
      "post": "Although that quote is actually mine and not Anais Nin's. :)\r\nIt's OK, I'm Anaiis, too. Nice to meet you!",
      "time": "2008-11-16T20:30:57",
      "id": "3842861",
      "parentPost": "Thank you!  She is certainly inspired by Anaiis (without the whole sex with literary giants thing, but then, she is just 15.)  ",
      "parentPostTime": "2008-11-16T20:24:24",
      "parentPostId": "3842790"
    },
    {
      "threadId": "5948923",
      "post": "Now this is the kind of toilet humor I can hang with.",
      "time": "2008-10-18T07:14:39",
      "id": "3142418"
    },
    {
      "threadId": "4809574",
      "post": "ARE YOU MAD AT ME? AM I FIRED?",
      "time": "2008-09-20T21:59:51",
      "id": "2502783"
    },
    {
      "threadId": "4402073",
      "post": "A lot of journalists use Twitter to <a href=http://www.washingtonpost.com/wp-dyn/content/article/2008/08/25/AR2008082502516_pf.html>collect notes</a>. The information taken by Morson would likely have ended up in a piece about the event. Doing it like this, in real time, is new--it's a new medium of communication and a much more instant thing. Does that make it tasteless--not any more than television make such ceremonies and tragic events tasteless.\r\n\r\nFurther, the piece in question is an aside and the editors make it clear it is presented as is--in the language of Twitter--fast and furious. I think it succeeds in bringing the event closer to readers. We can hear the sound of earth drop on the coffin--we're connected to the story in a way we, perfect strangers would never be. It's not out of some prurient desire for the gory details of the burial, but because we have all lost someone dear and without the editing and glossing over that happens in such stories, without the relocation of this piece to some section of the paper we would never chance to see, we can experience this as the real tragedy it is. The boy is no longer a casualty, now he has a face, a family, people who will miss him and there is no way for any of us to miss that.\r\n\r\nIt was a gutsy editorial move and I commend the Rocky Mountain News for it.\r\n",
      "time": "2008-09-12T16:33:58",
      "id": "2303206"
    },
    {
      "threadId": "4202926",
      "post": "That's genius.",
      "time": "2008-09-05T18:00:32",
      "id": "2146925"
    },
    {
      "threadId": "4117226",
      "post": "How fun! I'm trying it now.",
      "time": "2008-09-03T23:38:31",
      "id": "2094589"
    }
  ],
  "profileInfo": {
    "username": "avflox",
    "about": "Sex, science and thank-you notes.",
    "name": "AV Flox",
    "disable3rdPartyTrackers": false,
    "isPowerContributor": false,
    "isAnonymous": false,
    "rep": 0.896068,
    "profileUrl": "https://disqus.com/by/avflox/",
    "url": "http://slantist.com/",
    "reputation": 0.896068,
    "location": "",
    "isPrivate": false,
    "signedUrl": "http://disq.us/?url=http%3A%2F%2Fslantist.com%2F&key=bOQlTv7E_qVZaY1RYkhffQ",
    "isPrimary": true,
    "joinedAt": "2008-07-22T04:29:21",
    "id": "66190",
    "avatar": {
      "small": {
        "permalink": "https://disqus.com/api/users/avatars/avflox.jpg",
        "cache": "//a.disquscdn.com/uploads/users/6/6190/avatar32.jpg?1425930829"
      },
      "isCustom": true,
      "permalink": "https://disqus.com/api/users/avatars/avflox.jpg",
      "cache": "//a.disquscdn.com/uploads/users/6/6190/avatar92.jpg?1425930829",
      "large": {
        "permalink": "https://disqus.com/api/users/avatars/avflox.jpg",
        "cache": "//a.disquscdn.com/uploads/users/6/6190/avatar92.jpg?1425930829"
      }
    }
  }
}