{
  "comments": [
    {
      "threadId": "1633383959",
      "post": "Haha, I'm with you. It's silly but sadly, simply changing a URL is why Weev is sitting inside a prison cell. http://en.wikipedia.org/wiki/Weev \n\n\nAlso, changing an IP to access a website can violate US law - http://arstechnica.com/tech-policy/2013/08/changing-ip-address-to-access-public-website-ruled-violation-of-us-law/\n\n\n\nI know the above examples are based on US law. However, in spirit, I'm sure the same could be argued here. It's the principle of accessing that of which is not yours or do not have rights to, similar to trespassing on property. It might be there, but it doesn't mean you're allowed to access it. I doubt COJ will do anything though.",
      "time": "2013-08-23T13:58:44",
      "id": "1014845787",
      "parentPost": "Why don't a bunch of you go and hand yourselves in at your nearest police stations, and confess the crime of gaining unauthorised access to information by inquisitively typing in a different number in the URL after obtaining your own invoice?",
      "parentPostTime": "2013-08-23T13:08:31",
      "parentPostId": "1014797037"
    },
    {
      "threadId": "1308790773",
      "post": "If you're based in Johannesburg coffee is on me. I'd be happy to share my views with you in person.",
      "time": "2013-05-24T12:11:17",
      "id": "906823860",
      "parentPost": "pure unadulterated genius. Napster really did change everything, which is how we got iTunes and the Amazon store. governments and central bankers are shitting bricks over reasoning like this, I can guarantee you. Goldman Sachs and the City of London are radically reconfiguring their business models. Oh, wait. I thought this was The Onion and I was going along with this parody of reasoning and research. If you are serious, remind me: how is a completely unregulated \"currency\" going to prevent big centralized money from doing the same BS to it that it currently does to moderately regulated currency? Bitcoin and other schemes like it are asinine, because if they succeed--ie, if they become big enough to actually attract the attention of the real money in our world--they fail, because real money will swallow them whole. If you don't understand why, I'm willing to bet you know very, very little about how global finance actually works.",
      "parentPostTime": "2013-05-24T02:09:05",
      "parentPostId": "906420252"
    },
    {
      "threadId": "1227800876",
      "post": "A great post Jason. It just proves that sometimes, the more things change the more they stay the same.  While in theory e-commerce should cost less than bricks and mortar, there are lots of unknowns or variables that people don't take into account which might not cost the same in real monetary terms but can equally be resource and time consuming (re: online vs. bricks and mortar).\n\nI whole heartedly agree, without traffic it's all pointless. The problem is illustrated quite well by companies like Gumtree et al who still invest in traditional ad spend (tv and radio), which speaks to your point that it's not just about PPC, SEO or even Social Media.\n\nI think HumanWrit.es rocks and I'm sure the time and effort yourself and the team put in will one day look like an over night success, even though I'd argue that it is successful in its own right. Keep on keeping on dude.",
      "time": "2013-04-22T14:12:52",
      "id": "872236241"
    },
    {
      "threadId": "1202276192",
      "post": "As far as I know Blackberry is next up on the list, within the next 8 - 12 weeks. I'm not aware of any immediate plan for Windows Phone.",
      "time": "2013-04-11T13:51:37",
      "id": "859681257",
      "parentPost": "What about an app for Windows Phone? Don't we count?",
      "parentPostTime": "2013-04-11T12:44:28",
      "parentPostId": "859632507"
    },
    {
      "threadId": "1072923893",
      "post": "While Apple are at it, they should get around to fixing the disabled Wi-Fi issue for the iPhone 4S they introduced in iOS 6.0 which is still present in iOS 6.1. I've had the issue since November and coupled with the 3G issue it's been a terrible experiencing using my 4S for the last 2 months or so.\n\n\nI think Apple believe if they ignore issues they will simply go away or people will simply upgrade to a newer device. I'm pretty keen to switch over to an Android based device - at least if something goes wrong I can hack around to try and fix it. With an Apple device, I simply have to hope and pray they do something about it.\n\nOne can Google to find a tonne of threads similar to this 188 page thread on Apple's forums, with no response from Apple. https://discussions.apple.com/thread/4310121?start=0&tstart=0",
      "time": "2013-02-09T12:14:41",
      "id": "793831109"
    },
    {
      "threadId": "842213831",
      "post": "I really enjoyed this. It's good to see business can be done on a handshake, even if it family. I'd love to see more interviews like this in the future. What about recording them as well?",
      "time": "2012-09-13T21:39:24",
      "id": "649577062"
    },
    {
      "threadId": "795031889",
      "post": "I still don't understand why I can't pay for an online / mobile stream of the Olympics. I'd happily pay a premium for access and YouTube would have been the ideal platform to try this out on. They've been streaming live events regularly now. *sigh*",
      "time": "2012-08-06T20:29:09",
      "id": "611335584"
    },
    {
      "threadId": "788521157",
      "post": "Congrats on all the recent success Paul!",
      "time": "2012-08-01T16:18:55",
      "id": "606442550"
    },
    {
      "threadId": "681995478",
      "post": "The least you could do is match the background colour to your \"iOS 6.0\" botch. It kept me from enjoying your article. It's the attention to detail.",
      "time": "2012-05-09T12:28:41",
      "id": "524321651"
    },
    {
      "threadId": "619071574",
      "post": "Great post Paul. Basecamp has always been a winner for me. I've tried switching away to many of the other project management tools out there, but I keep going to back to Basecamp. I recently used Asana for a while. It's really great, but as soon Basecamp Next was launched I moved back.\n\nSimilarly to you I have found that once you create a structured process for handling projects that the team become familiar with, Basecamp makes it much easier to manage projects and are able to progress without \"hand holding\". A good process and good tool can really allow people to manage themselves efficiently, which is obviously good for everyone.",
      "time": "2012-03-21T11:02:54",
      "id": "472221767"
    },
    {
      "threadId": "599324945",
      "post": "I have also experienced this first hand, from both sides of the coin. One could argue that the constraints of not having enough money could force one to be a lot more creative in their decision making. However in my experience, I noted that my thinking was aimed more at short term gains vs long term goals, which can be strategically damaging for a startup. I am not sure though, as with everything it can always depend on other circumstances and the individual(s) themselves. I agree in general though, great post!",
      "time": "2012-03-05T20:01:28",
      "id": "457125163"
    },
    {
      "threadId": "585844601",
      "post": "Interesting! It's not often the legal aspects of services like this are explored enough - for us ordinary folk. Thanks for putting the effort into this.\n\nOn a side note: It's worth mentioning that FNB / RMB have removed OTP via SMS on login and will simply send an email notification now.",
      "time": "2012-02-23T08:05:58",
      "id": "446708361"
    },
    {
      "threadId": "583708217",
      "post": "A great story. Thanks for sharing Jon!",
      "time": "2012-02-21T11:34:53",
      "id": "444672641"
    },
    {
      "threadId": "476141348",
      "post": "Elan (and Avusa team), I am sure that you will receive some negative feedback. I am sure there are those who will tell you they saw this coming. I will tell you the same thing, but it's the same thing I say about every new startup / product / service because failure is the default. Therefore I'll statistically be right more often (which isn't right at all).\n\nHowever, I would like to say kudos for failing, making it public and for failing fast. I don't think many corporates would have let the product fail within its first year, many would have poured more cash in just to see how far they could go to avoid failure.\n\nNow that Zappon is defunct you can focus time and attention on new ideas. By failing fast  you'll be able to innovate and out pace your competitors. I look forward to seeing what is next.",
      "time": "2011-11-18T11:42:55",
      "id": "367417684"
    },
    {
      "threadId": "469537690",
      "post": "I think this post relates well to the statement \"some things need to be believed to be seen\", taken from the 12 lessons Guy Kawasaki learned from Steve Jobs.\nI think wonder about the following though in bad times. What if Foursquare didn't weather the storm against Facebook Places. Would it's investors still have faith to keep funding it to fulfill that roadmap (or most of it)?",
      "time": "2011-11-12T15:36:24",
      "id": "361861815"
    },
    {
      "threadId": "453442149",
      "post": "Awesome work dude!",
      "time": "2011-10-26T12:57:41",
      "id": "345475941"
    },
    {
      "threadId": "192186409",
      "post": "Hey Jacob,\n\nThanks for the mention of MobilePress - really appreciate it. We're working on some fantastic new features, coming soon, as it's been a while since our last update. In case you would like to link to the plugin in the article, it's downloadable from the WordPress plugins directory at http://wordpress.org/extend/plugins/mobilepress\n\nThanks again for the mention!",
      "time": "2010-12-16T21:25:47",
      "id": "113150395"
    },
    {
      "threadId": "190829516",
      "post": "A really interesting read - all the best Sean & Bev! :)",
      "time": "2010-12-15T12:27:26",
      "id": "112170080"
    },
    {
      "threadId": "96701404",
      "post": "I didn't expect flames from you! :) Just everyone else... haha!",
      "time": "2010-05-18T11:05:23",
      "id": "50878903",
      "parentPost": "No flames, I appreciate your feedback. Would be interesting to see what others think. ",
      "parentPostTime": "2010-05-18T11:04:33",
      "parentPostId": "50878863"
    },
    {
      "threadId": "8477399",
      "post": "I've added the issue to our bug list, we will do some testing and attempt to determine the problem. Once we have a fix, we will put it into our next release.",
      "time": "2009-01-12T07:29:31",
      "id": "5069498",
      "parentPost": "Thanks for reading! I'm really enjoying MobilePress and it makes me wonder if I even need WPTouch at all.\r\n\r\nOne problem I've noticed this morning - Lijit seems to be clashing with MobilePress on my site if you try to view comments. I guess Lijit+MobilePress+DISQUS is asking for trouble, but I don't even know where to start for troubleshooting.",
      "parentPostTime": "2009-01-12T03:51:04",
      "parentPostId": "5065576"
    }
  ],
  "profileInfo": {
    "username": "tylerreed",
    "about": "Disruptive Tech Entrepreneur, Hacker, Curve Jumper & Walker of the Unbeaten Path.",
    "name": "Tyler Reed",
    "disable3rdPartyTrackers": false,
    "isPowerContributor": false,
    "isAnonymous": false,
    "rep": 1.265296,
    "profileUrl": "https://disqus.com/by/tylerreed/",
    "url": "http://tylerreed.com/",
    "reputation": 1.265296,
    "location": "South Africa",
    "isPrivate": false,
    "signedUrl": "http://disq.us/?url=http%3A%2F%2Ftylerreed.com%2F&key=v7_zHySxGbJKaXL33bS1_Q",
    "isPrimary": true,
    "joinedAt": "2009-01-10T12:32:38",
    "id": "185296",
    "avatar": {
      "small": {
        "permalink": "https://disqus.com/api/users/avatars/tylerreed.jpg",
        "cache": "//a.disquscdn.com/uploads/users/18/5296/avatar32.jpg?1378321855"
      },
      "isCustom": true,
      "permalink": "https://disqus.com/api/users/avatars/tylerreed.jpg",
      "cache": "//a.disquscdn.com/uploads/users/18/5296/avatar92.jpg?1378321855",
      "large": {
        "permalink": "https://disqus.com/api/users/avatars/tylerreed.jpg",
        "cache": "//a.disquscdn.com/uploads/users/18/5296/avatar92.jpg?1378321855"
      }
    }
  }
}