{
  "comments": [
    {
      "threadId": "24313694",
      "post": "jajaja... hace años vi algo muy parecido a la bicicleta en un episodio de popeye el marino xD... seguramente este tipo se inspiro en el cartoon :P",
      "time": "2009-07-07T06:49:26",
      "id": "12242926"
    },
    {
      "threadId": "8667227",
      "post": "probando disqus",
      "time": "2008-12-20T22:30:30",
      "id": "4545456"
    }
  ],
  "profileInfo": {
    "username": "jcmo3d",
    "about": "",
    "name": "chino87",
    "disable3rdPartyTrackers": false,
    "isPowerContributor": false,
    "isAnonymous": false,
    "rep": 1.252932,
    "profileUrl": "https://disqus.com/by/jcmo3d/",
    "url": "http://twitter.com/chino87",
    "reputation": 1.252932,
    "location": "Nicaragua, CA",
    "isPrivate": false,
    "signedUrl": "http://disq.us/?url=http%3A%2F%2Ftwitter.com%2Fchino87&key=qDHmQi_5pCWm80eMTQZvng",
    "isPrimary": true,
    "joinedAt": "2008-12-20T22:13:15",
    "id": "170160",
    "avatar": {
      "small": {
        "permalink": "https://disqus.com/api/users/avatars/jcmo3d.jpg",
        "cache": "//a.disquscdn.com/uploads/users/17/160/avatar32.jpg?1281549414"
      },
      "isCustom": true,
      "permalink": "https://disqus.com/api/users/avatars/jcmo3d.jpg",
      "cache": "//a.disquscdn.com/uploads/users/17/160/avatar92.jpg?1281549414",
      "large": {
        "permalink": "https://disqus.com/api/users/avatars/jcmo3d.jpg",
        "cache": "//a.disquscdn.com/uploads/users/17/160/avatar92.jpg?1281549414"
      }
    }
  }
}