{
  "comments": [
    {
      "threadId": "3616602962",
      "post": "open for discuss..\nSo what should we do to a rich thief who rob million of ur money from investment scam, u want him to go for 2-3 years prison n release (normally u wont get ur money) or lets do something extreme to this white collar thief.\n\n\n\n\n\n\n",
      "time": "2015-03-27T21:32:55",
      "id": "1932094214",
      "parentPost": "If UMNO, Najib supports Hudud, he must cast the first stone",
      "parentPostTime": "2015-03-23T00:37:01",
      "parentPostId": "1922577761"
    },
    {
      "threadId": "2278500226",
      "post": "Tq for your post, i want to try this at my laptop, may i know, do i need to create partition on NTFS , EXT or FAT32 before install android?",
      "time": "2014-04-28T17:39:45",
      "id": "1359296928"
    },
    {
      "threadId": "484763317",
      "post": "opkos boleh..beli disini www.ked.ai/hargaemas",
      "time": "2013-05-15T06:35:45",
      "id": "897861125",
      "parentPost": "salam saya ingin bertanya, blhkah saya mmbeli gelang tgan dengan bermodalkan rm1400-1600/",
      "parentPostTime": "2013-04-14T01:22:08",
      "parentPostId": "862623810"
    },
    {
      "threadId": "484763124",
      "post": "we sell 138/g today..check www.ked.ai/hargaemas",
      "time": "2013-05-15T06:33:17",
      "id": "897860092",
      "parentPost": "hi.. i need to know about the prices of 916 on today ?",
      "parentPostTime": "2013-05-13T11:17:31",
      "parentPostId": "895762399"
    },
    {
      "threadId": "484763536",
      "post": "ya, kebiasaan lebih mahal dijual lebih2 lagi emas putih + berlian",
      "time": "2013-05-15T06:32:58",
      "id": "897859965",
      "parentPost": "EMAS PUTIH LAGI MAHAL DARI EMAS BIASE KE??",
      "parentPostTime": "2013-05-15T05:14:44",
      "parentPostId": "897830405"
    },
    {
      "threadId": "484763132",
      "post": "kecuali susut masa buat kilat je guna mesin kilat...bukan masa sadur cik exora89.. nak menipu pun agak2 la..meniaga nak menipu ni x lama..",
      "time": "2013-04-10T12:00:57",
      "id": "858497005",
      "parentPost": "Mmg la mcm tu da masuk\nAsid balik ..bukan main rndam ngan emas n..ingat cuci gune sabun ke? hahahhaaxpyh cuci la kalo xnk .senang ...",
      "parentPostTime": "2013-02-18T10:59:00",
      "parentPostId": "802848401"
    },
    {
      "threadId": "1123357489",
      "post": "if philipine dont like sulu or else mindanao, we really happy to help n develop infrastructure to our brother at south philipine...there are no financially support for arm at south philipines, we only help for food, health n education before..libya did support with arm and bombing stuff...not malaysia.. we respect philipines, we have no profit to fight against philipines, anyway, historically we r coming from same race, root, we did talk in same language in sultanate era (Remember Enrique of Malacca can speak easily with Philipines Native on Magellan Voyage) , things has changed when Britain control Malaya, Spain control Philipines n Dutch control Indonesia....Lets keep ASEAN spirit together",
      "time": "2013-03-08T02:18:48",
      "id": "822510430",
      "parentPost": "Malaysia is dead wrong  if they believe that wiping out the followers of the Sultan of Sulu who are in Sabah will end the Sultanate's claim and struggle in Sabah.\n\nIt will only add to the growing aspirations of Filipinos Muslims to reclaim Sabah. MAlaysia and PH govts should study the muslim insurgency in Mindanao, its origin, consequesnces, etc.\n ",
      "parentPostTime": "2013-03-08T01:47:12",
      "parentPostId": "822494338"
    },
    {
      "threadId": "708914417",
      "post": "Harga boleh tgk di www.hrg.ms, brubah stp hari",
      "time": "2012-12-24T11:56:18",
      "id": "746791480",
      "parentPost": "Assalamu'alaikum,\nKalo jual pd tuan skrg, berapa rm segram tuan beli?",
      "parentPostTime": "2012-12-16T03:58:25",
      "parentPostId": "738145838"
    },
    {
      "threadId": "484763551",
      "post": "Klik sini www.hrg.ms",
      "time": "2012-12-24T11:54:18",
      "id": "746790542",
      "parentPost": "Nk tgok harga emas semasa",
      "parentPostTime": "2012-12-24T11:48:35",
      "parentPostId": "746787471"
    },
    {
      "threadId": "484763188",
      "post": "haha in komen kelakar,,,",
      "time": "2012-12-13T05:00:09",
      "id": "734565984",
      "parentPost": "Admin, cuba pegang hujung emas dengan tangan, kemudian hujung sebelah lagi geserken pada iPad. ada tindak balas pada iPad tersebut.",
      "parentPostTime": "2012-12-01T12:45:19",
      "parentPostId": "724822203"
    },
    {
      "threadId": "484763284",
      "post": "tuan mahu harga emas dihantar ke email tuan setiap hari? tuan ok ke macam tu, nanti flooding email tuan..",
      "time": "2012-12-13T04:28:37",
      "id": "734553196",
      "parentPost": "Saya  mahukn harga emas semasa dihntr ke e mail saya dimana saya boleh dpt k ",
      "parentPostTime": "2012-12-07T19:32:07",
      "parentPostId": "730407613"
    },
    {
      "threadId": "901056513",
      "post": "harga emas berubah setiap hari, better tuan check di kalkulator...kalau saya comment disini, esok harga dah jadi lain...",
      "time": "2012-12-13T04:27:52",
      "id": "734552894",
      "parentPost": "saya ada gelang emas 999 berat yang beratnya 9gram++.saya ingin tahu berapa yang saya bakal perolehi jika menjual emas itu dalam masa terdekat.",
      "parentPostTime": "2012-12-08T02:21:54",
      "parentPostId": "730686365"
    },
    {
      "threadId": "484763609",
      "post": "encik boleh call sms saya, nanti saya call, shahrul 012-2301015",
      "time": "2012-12-13T04:26:09",
      "id": "734552219",
      "parentPost": "saya cadang nak jual emas 999 (100g). Siapa nak beli?nyatakan harga.",
      "parentPostTime": "2012-12-10T04:10:20",
      "parentPostId": "732042668"
    },
    {
      "threadId": "497644223",
      "post": "Di front page laman web ini ada tertulis harga emas terkini setiap hari...",
      "time": "2012-11-17T10:43:09",
      "id": "712540871",
      "parentPost": "saya ingin bertanya mcamana kita nak tahu harga emas setiap gram berapa.",
      "parentPostTime": "2012-11-13T08:15:23",
      "parentPostId": "708872576"
    },
    {
      "threadId": "523728077",
      "post": "masalah berlaku kerana harga emas jatuh spjg tahun ini (first time mcm ni spjg berbelas tahun) serta polisi2 arrahnu yg sering bertukar..",
      "time": "2012-07-20T02:10:50",
      "id": "592689125",
      "parentPost": "Saya rasa macam tertipu plak, naper? Sbb saya Ada beli mas dgn kos RM 100,000.00 Dan dapat mas galah Dan pasir almost 1/2 kilo. Yg lecehnya saya dah Penang masuk 7 bln Dan bila nak jual semua saya lost 25 percent dari kos asal, so kat mana untungnya tu? Yg saya nampak pembeli rugi sakan tapi yg untung pen jual.",
      "parentPostTime": "2012-07-17T16:02:49",
      "parentPostId": "590263041"
    },
    {
      "threadId": "663878300",
      "post": "harga emas adalah standard, u xleh nak push mna syarikat utk buyback tinggi jika harga emas sendiri jatuh spt skrg, better just beli sbg simpanan je...",
      "time": "2012-07-20T02:09:13",
      "id": "592687841",
      "parentPost": "salam,saya berminat untuk membeli emas dalam 2-3g,jd bagai mana sy nak kenal pasti syarikat yg akan beli balik semula mas saya ni dengan harga yg tinggi?boleh emailkan jawapan di email sy pencari_arya@yahoo.com",
      "parentPostTime": "2012-07-18T08:14:25",
      "parentPostId": "590867858"
    },
    {
      "threadId": "484763239",
      "post": "Apa niiii?",
      "time": "2012-06-23T06:51:43",
      "id": "565189101",
      "parentPost": "Nak tau gred dia? Gred dia ialah= \"Boleh main depan dengan belakang\" depan emas tak banyak, belakang banyak emas dan bijih timah.... ha,ha,ha....!!!",
      "parentPostTime": "2012-06-23T01:33:16",
      "parentPostId": "565011217"
    },
    {
      "threadId": "484763300",
      "post": "kalau atas 50k, bank akan bagi tempoh masa lama sikit, cuba call cawangan ar-rahnu yang tuan letak brg, rasanya mrk ada beri kelonggaran untuk 50k keatas",
      "time": "2012-06-19T05:41:44",
      "id": "561584709",
      "parentPost": "agro sekrang da tetapkan pinjaman maximum hanya 50k sahaja...sedia ada pinjaman saya 77k++...matang pada 1/7 nie....upah simpan selama 6 bulan adalah 5k++  ...contoh kalo before tarikh matang ..harga naik dari harga asal yakni RM193.4/g ...naik kepada 200/g ....COntoh........ sya xdapat nk refinance la kan?...sebb pinjaman saya dah lebih dari 50k? ..kena bayar upah simpan pakai duit sendiri dulu ke...\nminta panduan tuan ..",
      "parentPostTime": "2012-06-01T04:49:55",
      "parentPostId": "544505181"
    },
    {
      "threadId": "514044572",
      "post": "boleh....nak bayar selama mana? 6 bulan?",
      "time": "2012-06-18T02:37:26",
      "id": "560730161",
      "parentPost": "kalau HARGAEMAS tebuskan dari ar-rahnu dan owner emas byr ansuran semula dengan HARGAEMAS untuk dapatkan semula emasnya boleh ker?  ",
      "parentPostTime": "2012-06-03T12:10:47",
      "parentPostId": "546230471"
    },
    {
      "threadId": "495851119",
      "post": "cuba upload gambar kupan emas tuan di www.facebook.com/hargaemas ..nanti kami komen dan bagitahu harga",
      "time": "2012-06-18T02:36:11",
      "id": "560729672",
      "parentPost": " salam..sy.ada emas lama yg di namakan emas kupan(bunga emas)....blh sy tahu berapa nilai harga dan dimana  harus sy niaga",
      "parentPostTime": "2012-06-16T17:47:50",
      "parentPostId": "559907598"
    },
    {
      "threadId": "484763288",
      "post": "boleh hntr kepada kami untuk kami test batuan tuan, boleh datang ke pejabat kami, berkenaan peraturan, tuan boleh rujuk kepada jabatan tanah dan galian di kawasan tuan",
      "time": "2012-05-28T04:00:47",
      "id": "540092303",
      "parentPost": "nak tanya...beberapa bulan yg lepas kami telah terjumpa beberapa ketul batu bewarna emas di salah satu kawasan terjun di kawasan pergunungan...selepas menjumpai batu2 tersebut..kami terus mencari di dalam tanah berdekatan...yg lain2 hanya lah ketulan kecil sahaj tp warna yg sama...Adakah itu adalah emas tulen atau sekadar batu yg berwarna emas...Jika benar2 emas, adakah menjadi kesalahan memiliki batu tersebut n bagaimana dan di mana kita boleh jual tampa di anggap satu kesalahan?",
      "parentPostTime": "2012-05-28T03:42:04",
      "parentPostId": "540085992"
    },
    {
      "threadId": "484763206",
      "post": "x buat,,",
      "time": "2012-05-24T05:07:08",
      "id": "537199290",
      "parentPost": "kalo kita beli gelang tangan n request untuk tulis nama atas gelang...7 huruf, upah kira mcm mana ye",
      "parentPostTime": "2012-05-24T02:42:48",
      "parentPostId": "537113548"
    },
    {
      "threadId": "484763353",
      "post": "jika cik order, biasa dalam tempoh 24 jam akan dapat, ansuran x dapat, tp cik boleh guna ar-rahnu, bayar ansur kepada bank atau b.rakyat, nak beli berapa gram?",
      "time": "2012-04-20T08:41:55",
      "id": "503652198",
      "parentPost": "kalau sy nk beli barang kemas...brapa lma sy boleh dpt n boleh x byar ansuran",
      "parentPostTime": "2012-04-20T07:50:35",
      "parentPostId": "503565506"
    },
    {
      "threadId": "484763595",
      "post": "boleh je nak jual, kami beli, hubungi 012-2301015",
      "time": "2012-04-14T14:40:25",
      "id": "497523159",
      "parentPost": "saya ada emas \nmetal fineness : AU 999,9\nMetal weight : 1g\n\nada 2..nak jual boleh?",
      "parentPostTime": "2012-04-10T09:48:13",
      "parentPostId": "493045275"
    },
    {
      "threadId": "568233928",
      "post": "hubungi kami 0122864232",
      "time": "2012-04-03T03:39:04",
      "id": "484087368",
      "parentPost": "bagaimana caranya ya jika berminat..",
      "parentPostTime": "2012-03-17T08:40:52",
      "parentPostId": "467602537"
    },
    {
      "threadId": "484763474",
      "post": "yup, sila lengkapkan tempahan di www.hargaemas.my/store , beli.item mengikut bajet",
      "time": "2012-04-03T03:26:49",
      "id": "484081814",
      "parentPost": "slm..ble jelaskan byrn y dibuat u pendaftaran untuk dikira sbg agent adalah 100% u beli emas/ ada byrn lain?sekiranya byrn pendaftaran adalah untuk beli emas,adakah boleh dipilih produk tersebut?bagaimana cara agent  ble mendapatkan produk setelah ditempah?adakah perlu mengambilnya/ sykt akan hantar?tksh",
      "parentPostTime": "2012-03-30T14:42:42",
      "parentPostId": "480810313"
    },
    {
      "threadId": "484763403",
      "post": "terus sahaja dtg ke ofis kami, buat masa ini, kami tidak sempat mengadakan kursus",
      "time": "2012-03-06T03:44:48",
      "id": "457468457",
      "parentPost": "salam,sy baru terbuka n terbaca berkaitan dgn prniagaan emas ini n sy amat brminat utk sertai kursus anjuran pihak tuan.Blh sertakan detail blkah akan diadakan lg courses trsebut.",
      "parentPostTime": "2012-02-26T14:30:18",
      "parentPostId": "449256345"
    },
    {
      "threadId": "484763480",
      "post": "thanks suggestion tuan, kami dah buat... http://hargaemas.my/store",
      "time": "2012-03-06T02:48:26",
      "id": "457415079",
      "parentPost": "SALAM...UNTUK RUANG MEMBELI EMAS DARI PIHAK KAMU INI,LEBIH SEMPURNA KALAU KAMU LETAKKAN SEKALI GAMBAR SETIAP PATEN YANG DINIAGAKAN.... ",
      "parentPostTime": "2012-03-01T00:42:39",
      "parentPostId": "452864202"
    },
    {
      "threadId": "484763102",
      "post": "sebelum jual kuantiti yg banyak cuba check laman web ini dulu http://hargaemas.zendesk.com",
      "time": "2012-03-06T02:39:32",
      "id": "457407100",
      "parentPost": "Saya ada jumpe emas dlm satu kotak kasut..boleh kah saya jual dlam kuantiti yg bnyak???",
      "parentPostTime": "2012-03-04T03:22:00",
      "parentPostId": "455703408"
    },
    {
      "threadId": "551291410",
      "post": "ada sesetengah android phone, x dpt search apps ni...ttp kebanyakan phone dapat, galaxy note, galaxy tab..mmg stkt ni  x dpt..",
      "time": "2012-03-06T02:37:26",
      "id": "457405283",
      "parentPost": "Xde pn apps ni kt android market",
      "parentPostTime": "2012-03-06T00:35:15",
      "parentPostId": "457316612"
    },
    {
      "threadId": "551529776",
      "post": "hahaha :)",
      "time": "2012-02-09T10:09:32",
      "id": "433839871",
      "parentPost": "rakyat cina\n",
      "parentPostTime": "2012-02-02T05:57:37",
      "parentPostId": "427345310"
    },
    {
      "threadId": "487118554",
      "post": "yes, sure can :)",
      "time": "2012-02-09T09:59:34",
      "id": "433837077",
      "parentPost": "Kalau saya ada 30gm gold bar dan ditukar kpd brg kemas dan tambahan lg 70gm utk terus jd dealer blh tak?",
      "parentPostTime": "2012-02-07T14:20:18",
      "parentPostId": "431881535"
    },
    {
      "threadId": "484763421",
      "post": "maaf cik, ini promosi march 2011, tunggu promosi berikutnya k :)",
      "time": "2012-01-16T02:28:51",
      "id": "412334736",
      "parentPost": "sy sangat berminat dengan promosi ini ... blh sy walk in dan beli ",
      "parentPostTime": "2012-01-15T23:32:30",
      "parentPostId": "412267737"
    },
    {
      "threadId": "484763413",
      "post": "x perlu...buy sell at home only :)",
      "time": "2012-01-05T21:26:26",
      "id": "401617541",
      "parentPost": "wow...bestnye,\ntak sabo tunggu...maknanye cuma bid secara online je kan...tak perlu ke KL?\nsbb sya jauh kat jb ni..",
      "parentPostTime": "2011-03-30T07:05:38",
      "parentPostId": "372904482"
    },
    {
      "threadId": "508927270",
      "post": "daftar disini www.hargaemas.com.my/daftar-agent",
      "time": "2012-01-05T20:20:02",
      "id": "401554956",
      "parentPost": "macamner nk mula biz gold nie???",
      "parentPostTime": "2012-01-05T17:44:55",
      "parentPostId": "401354153"
    },
    {
      "threadId": "507532575",
      "post": "betul..",
      "time": "2012-01-04T04:04:12",
      "id": "400082586",
      "parentPost": "from my opinion, the most thing effect emas turun sbb chinese new year. . investor terbesar emas adalah negara china. . thats why setiap january emas akan byk trading sbb dorang nk guna duit utk kegunaan mereka. . price is depend on demand. . ",
      "parentPostTime": "2012-01-03T16:34:19",
      "parentPostId": "399658474"
    },
    {
      "threadId": "508124328",
      "post": "who have withdraw one?",
      "time": "2011-12-28T02:42:35",
      "id": "395460390",
      "parentPost": "can ",
      "parentPostTime": "2011-12-24T06:24:26",
      "parentPostId": "393546065"
    },
    {
      "threadId": "486592177",
      "post": "kami ada 10gram, sila order di www.hargaemas.biz",
      "time": "2011-12-22T02:44:49",
      "id": "391946940",
      "parentPost": "saya ada menempah emas pamp suisse tapi saya tak tahu berapa berat setiap bar.. maaf. boleh saya tahu berat 1 bar? saya ada bajet maksimum 10g sahaja\n\nmaaf atas kesulitan",
      "parentPostTime": "2011-12-19T13:12:44",
      "parentPostId": "389826658"
    },
    {
      "threadId": "484763462",
      "post": "pengeluar emas terbesar didunia, pembeli emas terbesar didunia adalah India",
      "time": "2011-12-22T02:44:10",
      "id": "391946670",
      "parentPost": "china adalah pengeluar emas terbesar dunia? betul ke statement ni? atau china adalah pembeli terbesar dunia? ",
      "parentPostTime": "2011-12-19T15:39:54",
      "parentPostId": "389900778"
    },
    {
      "threadId": "504810152",
      "post": "check di kitco @ goldprice..",
      "time": "2011-12-16T04:14:01",
      "id": "387754553",
      "parentPost": "Bleh tolong extend garisan 200DMA ke belakang dlm 2-3 tahun sebab nampak mcm sebelum 2009 pun harga di bawah 200DMA. just nak tahu berapa lama harga emas berada di bawah 200DMA sebelum naik balik melepasi garisan 200DMA pada february 2009 (seperti yang dibulatkan)",
      "parentPostTime": "2011-12-15T13:47:04",
      "parentPostId": "387165999"
    },
    {
      "threadId": "484763589",
      "post": "917 pun 22 karat, sama saja, xde beza sangat 916 dan 917...",
      "time": "2011-12-15T00:51:11",
      "id": "386857929",
      "parentPost": "1 dinar kelantan bersamaan dengan 917.0 GOLD, berapa carat tu? sebab kalau 916 adalah 22k",
      "parentPostTime": "2011-12-14T17:26:54",
      "parentPostId": "386563284"
    },
    {
      "threadId": "499090790",
      "post": "Salam bro khai, artikel ini bukan ditulis pihak.kami.. dan xde sbb kami nk halang sesiapa untuk menyuarakan pndapat, saudara khai pun bleh tulis pndpt 'khai' disini, dn kami x halang... periuk nasi siapa tertutup? Xkanlah saudara dan beribu lg kelaparan sbb ada artikel ni, xkn public gold je sumber periuk nasi bro? Lg satu, dari sibuk provok sbb  tutup.prriuk nasi bro, baik explain faktor2 lg bernas knp public menjadi sumber.utama  kehidupan saudara.. beribu.lg nk dgrrrrrrrrr",
      "time": "2011-12-10T08:55:32",
      "id": "383362617",
      "parentPost": "salam bro... saya pun dealer PG jugak... pasal problem bro yg utama tu, saya x rase itu silap public gold... bagi saya, apa yg saya buat & jugak yg telah diajar pada saya, setiap kali jumpe client@customer, even diorg x beli pun, saya akan mintak diorg isi borang customer PG. So, x kire diorg beli direct ke, saya dah lock die sbgai customer, saya tetap dpt komisyen tu... even die x tulis saya sbgai introducer masa beli direct dgn office... saya x nampak masalah pun kat sini... cuba tgk silap sendiri dulu... artikel ni boleh merosakkan periuk nasi org... bkn sorang dua, tapi beribu2... tau la yg u punye blog ni top dlm google... x baik bro buat camni...",
      "parentPostTime": "2011-12-10T07:01:08",
      "parentPostId": "383331784"
    },
    {
      "threadId": "484763393",
      "post": "sabtu ini, di ofis kami....",
      "time": "2011-12-08T16:03:41",
      "id": "382109427",
      "parentPost": "Salam tuan admin,\nBila lagi agaknya kursus seperti ni akan diadakan? kalau ada lgi sy ingin meneyrtainya.TQ",
      "parentPostTime": "2011-12-08T14:30:56",
      "parentPostId": "382031186"
    },
    {
      "threadId": "492522751",
      "post": "TQ for your 1st comment :)",
      "time": "2011-12-05T04:01:21",
      "id": "379311888",
      "parentPost": "no comments yet, thank you\n",
      "parentPostTime": "2011-12-04T15:18:48",
      "parentPostId": "378958489"
    },
    {
      "threadId": "492678907",
      "post": "Tuuu bukan jersi cardiff keee, apa kaitan dgn QPR",
      "time": "2011-12-04T08:10:18",
      "id": "378835359"
    },
    {
      "threadId": "484770413",
      "post": "1. Pinjaman atau pajakan arrahnu boleh dibayar bulanan atau pada bulan last untuk menebus item itu, tempohbayaran adalah selama 6 bulan tetapi boleh diextend sehingga 9 bulan, jika tuan overlap surat, tempoh masa ditambah lagi 6 bulan seterusnya setiap kali overlap. tiada faedah dikenakan, cuma upah simpan 0.75%\n2. Proses pajakan boleh extend sehingga 9 bulan (budi bicara, ikut bank tersebut)\n3. Zakat untuk emas yang milik tuan sepenuhnya sahaja, emas yang ada di arrahnu masih belum milik tuan...",
      "time": "2011-12-02T03:03:58",
      "id": "377246634",
      "parentPost": " Assalamualaikum wbt.\n\nAda sedikit persoalan berkenaan pelaburan Ar-Rahnu ini:\n\n1. Perlaburan ni melibatkan pinjaman, jadi adakah ada proses pembayaran balik terhadap pinjaman tersebut?jika ada,berapa lama tempoh pembayaran balik tersebut dan faedah yang akan dikenakan?\n\n2. Bagi proses pemajakkan, adakah memang ditetapkan 6 bulan sekali seperti tempoh pembaharuan surat?\n\n3. Adakah bayaran upah tersebut termasuk dalam bayaran zakat emas ini?\n",
      "parentPostTime": "2011-11-30T03:35:21",
      "parentPostId": "375524477"
    },
    {
      "threadId": "486969737",
      "post": "Konsep deposit ini cuma locking harga, apabila emas sampai, baru tuan jelas semua pembayaran secara tunai. Ini tidak menyalahi mana2 hukum dan ini bukan penangguhan, sila refer kepada pihak yang lebih arif.",
      "time": "2011-12-01T22:31:08",
      "id": "377091963",
      "parentPost": "syarat paling utama jual beli emas ni mesti cash and carry dan tidak boleh ade penangguhan.\nso apakah maksud bayaran deposit dalam urusan jual beli emas yg dilaksanakan Hargaemas ni?",
      "parentPostTime": "2011-12-01T10:06:42",
      "parentPostId": "376567710"
    },
    {
      "threadId": "486778892",
      "post": "x...dalam banyak2 gambar tu, kami jual dinar emas je, gambar lain kami x jual :) :) ..nice comment.....",
      "time": "2011-12-01T22:21:00",
      "id": "377085312",
      "parentPost": "Menarik, so incik ade jual ke brg2 diatas..?",
      "parentPostTime": "2011-12-01T12:52:44",
      "parentPostId": "376626015"
    },
    {
      "threadId": "484763376",
      "post": "www.hargaemas.com.my/harga ...harga emas berubah setiap masa...tuan kena slalu chek",
      "time": "2011-11-30T18:47:23",
      "id": "376107040",
      "parentPost": "brp harga gelang belah rotan utk hari ni - 30-11-2011",
      "parentPostTime": "2011-11-30T02:39:31",
      "parentPostId": "375433506"
    },
    {
      "threadId": "485198742",
      "post": "test writeeee",
      "time": "2011-11-27T09:19:52",
      "id": "373493537"
    },
    {
      "threadId": "481077618",
      "post": "wartawan tahiiiiii.........yang gi tanya soalan negatif kenapa?? bodoh punye wartawan...",
      "time": "2011-11-23T07:38:54",
      "id": "370658589"
    },
    {
      "threadId": "155696307",
      "post": "doesnt work well...how we know it use font or Fonts???",
      "time": "2010-12-14T17:52:23",
      "id": "111621366"
    },
    {
      "threadId": "6114422",
      "post": "ye ye, saya baru tahu kat navbar ada link untuk let user register under kita, anyway, ini just tutorial untuk siapa yang nak buang... x perlu ikit xpe.. hehe...",
      "time": "2008-10-25T14:58:13",
      "id": "3298082",
      "parentPost": "tapi kalau kita remove navbar kita...so x dapatlah kita nak daftar member kita duduk kat bawah kita?",
      "parentPostTime": "2008-10-24T04:55:46",
      "parentPostId": "3268877"
    },
    {
      "threadId": "6032336",
      "post": "kalau u tanya di artikel ni, maksudnya nak tahu mcam mana nak guna adsense ni kan?\r\n\r\nok, simple, bila u dah ada blog di blogstarz.my, setiap hari masuk blog u, dan click 200 kali adsense disitu (setiap hari) selama sebulan.. nanti u tgk la brp u untung bulan tuh.. bulan pertama pun mesti dah dapat bayar balik fee yg u bayar tu...settle, so untuk bulan2 yang seterusnya.. teruskan dengan click utk cari duit side income... faham.???",
      "time": "2008-10-25T14:47:01",
      "id": "3298010",
      "parentPost": "cara penggunaan nya macam mana tu....",
      "parentPostTime": "2008-10-25T14:18:52",
      "parentPostId": "3297813"
    },
    {
      "threadId": "5999806",
      "post": "i install disqus in my blog, but there are no comment box appear even i already setting blogger comment to not appear... then i try to reinstalling again, it make my blog have two disqus box... what a weird..\r\n\r\nwhat make it more worst.. all new article have no comment box?? what has happen.. i try to uninstalling disqus.. but the code look everywhere in my template... well i think use disqus is easy, but to uninstall is trouble.. i though disqus is not a program, it is Malware into your template.. easy to in, but hard to out.. ",
      "time": "2008-10-22T13:25:24",
      "id": "3225993"
    },
    {
      "threadId": "6060839",
      "post": "yups, malaysiakini is belong to chinese/indian off course they will try to show malay is bad race, malay is kronisme, malay is this malay is that...\r\nwhy you must listen to them..?? doesnt matter they will say they are \"clean\" or not bias, since they are chinese/indian, they will not stop until they can control malaysia.. bastard mlaysiakini",
      "time": "2008-10-21T09:10:50",
      "id": "3198960"
    },
    {
      "threadId": "6029959",
      "post": "80% boleh dipercayai.. tukang sapu... hopefully benar (adakah ini azab), sbb tulisan anda akan menjadi bualan umum disebabkan menulis disini... post ini akan dibaca beribu-ribu pengguna internet..",
      "time": "2008-10-20T17:02:26",
      "id": "3170996",
      "parentPost": "mengikut sumber yang 80% boleh dipercayai...20% hanya menanti kebenaran",
      "parentPostTime": "2008-10-20T16:39:37",
      "parentPostId": "3170657"
    },
    {
      "threadId": "5846796",
      "post": "lawat blog iEn www.muncet.com or klik link dia kat atas, dia ada share dlm blog dia :-) TQ for asking... abang sapu..",
      "time": "2008-10-16T11:49:51",
      "id": "3086967",
      "parentPost": "apo alamat nyo?",
      "parentPostTime": "2008-10-16T11:41:54",
      "parentPostId": "3086912"
    },
    {
      "threadId": "5816679",
      "post": "test 1 2 3",
      "time": "2008-10-15T17:35:39",
      "id": "3072599"
    },
    {
      "threadId": "5644780",
      "post": "mukhriz menang 65 pertarungan?? suatu yang menarik... dari 82 match.. hanya kalah 9 kali.. memang nampak jelas.. aura mukhriz cukup kuat kat alam maya ni..",
      "time": "2008-10-14T11:42:09",
      "id": "3039452"
    },
    {
      "threadId": "5628141",
      "post": "dah jauh tinggalkan khairy, 40 berbalas 19.. nampaknya confirm.. khairy takkan jadi ketua pemuda kerana NS dan perak pun boikot khairy..",
      "time": "2008-10-14T08:40:16",
      "id": "3038677"
    },
    {
      "threadId": "5550690",
      "post": "kadang2 kalau ada yang menarik, memang ada orang kutip... utk share.. blog bro mmg syok.. kongsi la kat sini, artikel2 yang lain.. user pun boleh gi ke blog bro, link ada kat atas kan..",
      "time": "2008-10-12T12:55:57",
      "id": "3006960",
      "parentPost": "mcmmana artikel aku bleh ada kat sini ek?",
      "parentPostTime": "2008-10-11T17:00:23",
      "parentPostId": "2999157"
    },
    {
      "threadId": "5674738",
      "post": "haha.. isi tempat kosong? banyak sgt, ini soalan khas untuk PMR bahasa melayu ke?\r\nsusah nye soalan zaman leni..",
      "time": "2008-10-12T12:55:19",
      "id": "3006955"
    },
    {
      "threadId": "5626449",
      "post": "one more time",
      "time": "2008-10-10T21:35:11",
      "id": "2987453"
    },
    {
      "threadId": "5626435",
      "post": "test this",
      "time": "2008-10-10T21:34:53",
      "id": "2987448"
    },
    {
      "threadId": "5555142",
      "post": "suatu seni olah yang menakjubkan dari penulis berita ini :-) hasbullah pit boleh kesan",
      "time": "2008-10-09T07:53:29",
      "id": "2958700"
    },
    {
      "threadId": "5551062",
      "post": "aku x pahamlah, apsal mudah sgt kena scam mcm ni.. erm.. pelik jugak.. mcm mana la pandai sgt mamat tuh ayat awek melayu kita nih",
      "time": "2008-10-09T07:39:16",
      "id": "2958639"
    },
    {
      "threadId": "5550392",
      "post": "tell me what do you think? nice story or not?",
      "time": "2008-10-09T05:17:48",
      "id": "2957283"
    },
    {
      "threadId": "5551226",
      "post": "ada terbaca di blog lagiberita.blogspot.com , paklah berkata, najib boleh menjadi pm jika menang semasa pengundian umno mac 2009 nanti dan mungkin akan dicabar.. gandingan zhidi-paklah pastinya ada di kategori timbalan PM",
      "time": "2008-10-09T05:04:52",
      "id": "2957198"
    },
    {
      "threadId": "5550506",
      "post": "betul ke ni?",
      "time": "2008-10-09T04:15:04",
      "id": "2956832"
    }
  ],
  "profileInfo": {
    "username": "lochoe",
    "about": "Hargaemas Resources, Call Us 03-92264232",
    "name": "Hargaemas",
    "disable3rdPartyTrackers": false,
    "isPowerContributor": false,
    "isAnonymous": false,
    "rep": 1.314782,
    "profileUrl": "https://disqus.com/by/lochoe/",
    "url": "http://www.facebook.com/hargaemas",
    "reputation": 1.314782,
    "location": "Kuala Lumpur",
    "isPrivate": false,
    "signedUrl": "http://disq.us/?url=http%3A%2F%2Fwww.facebook.com%2Fhargaemas&key=oW0Ud2x3BTpP7t88IrmFCQ",
    "isPrimary": true,
    "joinedAt": "2008-09-16T10:24:09",
    "id": "102099",
    "avatar": {
      "small": {
        "permalink": "https://disqus.com/api/users/avatars/lochoe.jpg",
        "cache": "//a.disquscdn.com/uploads/users/10/2099/avatar32.jpg?1427491976"
      },
      "isCustom": true,
      "permalink": "https://disqus.com/api/users/avatars/lochoe.jpg",
      "cache": "//a.disquscdn.com/uploads/users/10/2099/avatar92.jpg?1427491976",
      "large": {
        "permalink": "https://disqus.com/api/users/avatars/lochoe.jpg",
        "cache": "//a.disquscdn.com/uploads/users/10/2099/avatar92.jpg?1427491976"
      }
    }
  }
}