{
  "comments": [
    {
      "threadId": "3843814553",
      "post": "While all three of these are awesome updates, the captions in multiple languages is my favorite in this round. Although I always love more options for getting data out of video/project performance as well, one of the overall best parts of the Wistia platform IMO! :)\n\n\nWe have customers all around the world at WooThemes and being able to offer captions in other languages on our educational videos will be fantastic. We don't publish a video without making sure we have captions for anyone that has a hearing disability. Now we can make sure to cover non-English speaking customers as well. +100",
      "time": "2015-06-15T17:54:10",
      "id": "2080368490"
    },
    {
      "threadId": "2868169824",
      "post": "Hi Ashish,\n\nWhile using Product Vendors and Bookings you'll currently only get 50% of the way there, sorry to say.\n\nThis easily lets other vendors create bookable products, but it doesn't let them manage their appointments, orders, or bookings calendar just yet. They would get access to sales reports for their bookings, but that is all at the moment.\n\nWe'd definitely love to have your ideas added to our ideas board for further feedback and to see others vote on it and leave their ideas as well. --> http://ideas.woothemes.com/forums/133476-woocommerce",
      "time": "2014-10-28T13:59:37",
      "id": "1657467397",
      "parentPost": "hi, could you please confirm if it support multi vendor, where each vendor can create there booking slots and check there sales and appointment",
      "parentPostTime": "2014-10-25T04:58:55",
      "parentPostId": "1652794649"
    },
    {
      "threadId": "2295092416",
      "post": "Way to go Mrs. Pantaleo!\n\nAwesome to see you writing here. :)",
      "time": "2014-02-21T19:26:26",
      "id": "1255217525"
    },
    {
      "threadId": "2082697328",
      "post": "Holy guacamole, awesome. You and Patrick R. are some crazy guys for not only blogging for a month straight but then building plugins for the contest. \n\nI couldn't see most of the code in the video, but it was awesome to watch it take shape! :P",
      "time": "2013-12-31T01:16:51",
      "id": "1181855862"
    },
    {
      "threadId": "2029943991",
      "post": "Somewhat true perhaps, but with the issues mentioned it doesn't make sense to risk the malware to just test them out. Maybe costing you more in the long run to shore up your install again after malicious code has done its deeds.\n\n\nPlus the product you \"pirate\", as seen above, will most likely be far out of date. Which if not full of malware gives you a very sub par experience, and could lead you to not even purchasing it.\n\nSay you did download Superstore to test it out with WooCommerce, well the version you downloaded freely won't even work with the latest version of WooCommerce. Leading you to say, \"Oh, this theme (or WooCommerce) is crap.\"\n\nIn the case with our products from WooThemes, it makes more sense to know we have a 30 day money back guarantee (as most should). Buy the product from the source, you get access to resources and support to help you test the theme per say. If you end up not liking it, ask for a refund.\n\nJust my two cents. ;)",
      "time": "2013-12-06T15:01:18",
      "id": "1152903094",
      "parentPost": "True, true.\nBut you miss the only benefit from getting such themes and plugins. In some cases payed plugins and themes are not 100% described, so you can't be sure if this piece of work can fit your needs.\nSo in this way you can check the functionality and if it fit the requirements you can purchase it :)",
      "parentPostTime": "2013-12-06T13:43:15",
      "parentPostId": "1152829249"
    },
    {
      "threadId": "1566775986",
      "post": "Current version is 3.7.1, WordPress 3.8 (coming in December) has a nice UI refresh.\n\nWhat was the MP6 plugin has been merged into core for 3.8, as well as a few other plugins, all of which you can test in the first beta for 3.8. See all the goods here. - http://wordpress.org/news/2013/11/wordpress-3-8-beta-1/",
      "time": "2013-11-29T23:20:41",
      "id": "1144690115",
      "parentPost": "Thanks for letting us know, we will have a look at it immediately. :-)",
      "parentPostTime": "2013-08-05T05:33:56",
      "parentPostId": "988897512"
    },
    {
      "threadId": "1777853528",
      "post": "We didn't do this in hopes of directly taking features from Standard and their way of implementing their features, but it could be a plus side of the situation. \n\n\nIn particular with the feedback from the Standard community perhaps making its way into our Canvas theme.",
      "time": "2013-09-23T20:18:08",
      "id": "1056306422",
      "parentPost": "Does your reply mean that you´re planning to keep Standard as a supported theme for just a year and then kind of dismantle it to use pieces of it for other themes? Man, I´m glad I took my time to take the decision to buy it and then I was late!",
      "parentPostTime": "2013-09-23T11:45:49",
      "parentPostId": "1055680624"
    },
    {
      "threadId": "1777302975",
      "post": "I think you'd enjoy the <a href=\"https://twitter.com/search?q=%23woobandnames&src=hash\">#woobandnames</a> hashtag with your WooClan comment. ;)",
      "time": "2013-09-19T16:43:13",
      "id": "1051722101",
      "parentPost": "Congrats John! Makes me wish I would have held off on purchasing Genesis 2.0 - but I'm excited to see what the Woo clan (see what I did there??) does with the epic platform you and 8BIT built.",
      "parentPostTime": "2013-09-19T12:29:47",
      "parentPostId": "1051328725"
    },
    {
      "threadId": "1557476768",
      "post": "I second and third this, I'd thoroughly enjoy the beers! :)",
      "time": "2013-08-02T02:58:42",
      "id": "985302124",
      "parentPost": "Looking forward to enjoying those beers someday Chris ;-)",
      "parentPostTime": "2013-08-01T20:43:12",
      "parentPostId": "984994729"
    },
    {
      "threadId": "1147151984",
      "post": "Honestly about time! I would have expected it much sooner, especially after Andy's post.\n\nWe contacted Andy and worked it out where we could make a WordPress theme from the design too. - http://www.woothemes.com/products/currents/",
      "time": "2013-03-18T19:09:39",
      "id": "833842062"
    },
    {
      "threadId": "1040605039",
      "post": "Hi Sarah,\n\nReally glad to hear you're enjoying the plugin so far, we'd definitely love to have your ideas for future versions of Sensei! Feel free to submit them here, it's much appreciated! - http://ideas.woothemes.com/forums/191508-sensei",
      "time": "2013-01-22T18:25:58",
      "id": "774998371",
      "parentPost": "HI Stacy, I have a copy of Sensei and installed it this morning. I'm loving it so far, it makes a lot of the membership pages for you so you have the right ones in the right place and only have to populate them. That means it's very fast to set up an online course once you have the content.\n\n\nI'd like to see landing pages built in and the option to drip feed content as well.",
      "parentPostTime": "2013-01-22T17:10:34",
      "parentPostId": "774930862"
    },
    {
      "threadId": "1000877861",
      "post": "Thank you! We hope to have a highlight reel of our videos as well soon! :)",
      "time": "2012-12-31T15:57:16",
      "id": "752020081",
      "parentPost": "A great bunch for 2012 - Thanks for posting!",
      "parentPostTime": "2012-12-31T06:56:00",
      "parentPostId": "751843089"
    },
    {
      "threadId": "869004096",
      "post": "We still have a ticket for two pumpkins, if we can find out if they are stil good we'll be hollarin'!",
      "time": "2012-10-12T23:09:10",
      "id": "680296035",
      "parentPost": "these are soosososoosos cute.  seriously.  if you ever want to go back here, give us a hollar!! :) ",
      "parentPostTime": "2012-10-08T01:45:15",
      "parentPostId": "675466782"
    },
    {
      "threadId": "871728580",
      "post": "It was, we had to grab a bag of kettle corn while there! Glad you liked the video!",
      "time": "2012-10-06T05:08:47",
      "id": "673065000",
      "parentPost": "was that mrs stack with the popcorn?? omg guys this definitely hits home :) thanks so much!",
      "parentPostTime": "2012-10-04T23:59:21",
      "parentPostId": "671580563"
    },
    {
      "threadId": "871181038",
      "post": "If you are looking for a wonderfully high quality lav at an awesome price, we think this is one of the best options out there. Especially since this includes a FREE MiCon connector, not to mention the awesome protective case that comes with the lav.\n\n\nWe use a pair of these when filming weddings with the MiCon-2 connector, each plugged into a Zoom H1. We normally mic the groom and officiant, and stuff the H1 in a jacket pocket.\n\nIt's turned out wonderfully with these mics. Perfect sound quality and perfect price!",
      "time": "2012-10-04T14:25:30",
      "id": "671074877"
    },
    {
      "threadId": "556275043",
      "post": "Hey Ashley,\n\nIf still interested in getting in contact with the owners shoot us an email, we can send you their contact info. - hello@twoarebetter.us",
      "time": "2012-09-04T17:44:09",
      "id": "639565289",
      "parentPost": "I have been seaching for this farm for about a month now. I drove to belle couldnt find it I have treid to call belle conservation but the number I had is disconnected. My wedding is set for june 2013. I wanted this as my venue. I have no idea of the location or where to contact the owners. I just seen a picture of it. Someone showed it to me and said located in belle. Didnt give me a number or name of the barn. Congrats on the big day I know it will be beautiful the pictures are spectacular. ",
      "parentPostTime": "2012-09-03T17:49:22",
      "parentPostId": "638738895"
    },
    {
      "threadId": "798150287",
      "post": "Do you mean when he retroactively retired, but still signed the Bain documents? It's not really clear when he officially left Bain, at least to me yet.",
      "time": "2012-08-16T15:52:56",
      "id": "621157602",
      "parentPost": "how about that new add about Romney being responsible for a man losing his job, and then his wife passing away and suffering because he didnt have benefits because he lost his job because of Romney? biggest bunch of bs and simply out there to mask the fact that this economy is screwed up because of Obama and his failed bailout policies. turns out Romney left Bain two and a half years before the man lost his job. nice try, guess they had to try something different since the old \"republicans hate women\" ploy was getting old!\n   lmfao",
      "parentPostTime": "2012-08-09T22:39:28",
      "parentPostId": "614957068"
    },
    {
      "threadId": "731601742",
      "post": "Yup, ideally I think you should have the option of the default Twitter client. The notifications would then take you to your app of choice.\n\nNow c'mon Apple! You can do it!",
      "time": "2012-08-10T20:42:34",
      "id": "615925036",
      "parentPost": "Nice. As I'm writing this, I'm on a 15\" MBP with 2  21\" monitors hooked up to it and still find myself using the main 15\" screen most of the time. \n\nThat makes sense for the @woothemes account, couldn't remember what tool you guys use, since multiple people monitor and use that account, though it does show the posting source on twitter.com, haha. \n\nI haven't clicked on any of the notifications, didn't realize it takes you to the main site, just seeing it is convenient though. I stopped using the native client when I wanted to be able to monitor multiple streams at the same time.",
      "parentPostTime": "2012-08-10T20:37:40",
      "parentPostId": "615921863"
    },
    {
      "threadId": "769813010",
      "post": "We really appreciate it Megan, hopefully Meredith & Jake shared the proofs with you so you could see ALL of them. If not, I'm sure you'll see them soon. :)",
      "time": "2012-07-19T02:48:26",
      "id": "591631722",
      "parentPost": "Awwwwwwe! You guys did an amazing and fantastic job!!",
      "parentPostTime": "2012-07-18T17:25:12",
      "parentPostId": "591206550"
    },
    {
      "threadId": "736124280",
      "post": "Thanks mother! :D",
      "time": "2012-06-25T05:41:12",
      "id": "566439588",
      "parentPost": "Beautiful!  ",
      "parentPostTime": "2012-06-22T21:36:02",
      "parentPostId": "564877148"
    },
    {
      "threadId": "733410822",
      "post": "Thank you Lindsey! Really think the final product was worth it! :D",
      "time": "2012-06-22T20:07:35",
      "id": "564809517",
      "parentPost": "I LOVE IT!!!! THANKS SO MUCH GUYS!!!",
      "parentPostTime": "2012-06-22T14:43:49",
      "parentPostId": "564527002"
    },
    {
      "threadId": "696750464",
      "post": "Thanks Mom, but these are all real lashes. Oh, you mean Mindy's!",
      "time": "2012-05-21T06:15:44",
      "id": "534141906",
      "parentPost": "You are beautiful inside and out! I've always wanted to have false eyelashes!!\n",
      "parentPostTime": "2012-05-20T00:46:37",
      "parentPostId": "533324310"
    },
    {
      "threadId": "669176719",
      "post": "We're currently experiencing issues with the framework update functionality that lets you update from within the theme options. Two of our guys are working with our new host to figure it out and get that working, so for now follow the instructions in the blog post here. - http://www.woothemes.com/2012/04/framework-shortcode-exploit-has-been-fixed/\n\n\nYou can get the updated framework there and of course read the instructions on how to update manually.",
      "time": "2012-05-01T22:55:15",
      "id": "515470335",
      "parentPost": "Ah yes, good old fashioned email. I forget about that sometimes!",
      "parentPostTime": "2012-04-30T16:34:04",
      "parentPostId": "514247512"
    },
    {
      "threadId": "644051361",
      "post": "Here's the secret locale. ;) - http://bit.ly/IfqDX9",
      "time": "2012-04-10T22:38:06",
      "id": "493701102",
      "parentPost": "Where is this amazing place? ",
      "parentPostTime": "2012-04-10T22:13:35",
      "parentPostId": "493679736"
    },
    {
      "threadId": "634518328",
      "post": "Maybe they make a slobber bib in the right color for him?",
      "time": "2012-04-04T19:04:30",
      "id": "486265325",
      "parentPost": " haha love this!  we are excited!  im on the hunt for little suspenders for little man! :)",
      "parentPostTime": "2012-04-04T14:44:01",
      "parentPostId": "486053438"
    },
    {
      "threadId": "541770740",
      "post": "Do shoot Billy an email here. - hello@bourgeatea.com :)",
      "time": "2012-03-27T19:05:41",
      "id": "477666870",
      "parentPost": "Hey Chris!\n\nKendra Johnson here (Nathan Johnsons wife)..I was just curious if you blend teas for people? We have a friends wedding coming up and she was wanting a gourmet tea and loves black tea and even darjeeling...I didnt know if you had any suggestions.\n\nLet me know!\n\nKendra Johnson\nkendralingle@gmail.com ",
      "parentPostTime": "2012-03-27T18:47:30",
      "parentPostId": "477649712"
    },
    {
      "threadId": "563746896",
      "post": "Heh, whenever we can buy a house we'll get paint in these colors only! Until then the wedding has to do. ;)",
      "time": "2012-02-11T01:58:08",
      "id": "435828994",
      "parentPost": "Beautiful. These are my colors - the southwest influence of the terra cotta, which you have softened with the turquoise shades and cream. Exquisite! Love it. Do the whole house this way.\nMimi",
      "parentPostTime": "2012-02-10T03:10:59",
      "parentPostId": "434708060"
    },
    {
      "threadId": "544816813",
      "post": "Thanks the for very kind comment Courtney, awesome to hear your feedback on all of them, it's much appreciated! Look forward to posting more this year! :)",
      "time": "2012-01-23T20:03:09",
      "id": "418920845",
      "parentPost": "Wow these are all amazing my favorites, the little girl with the balloons, it makes me wonder what she is seeing like what if there is a carnival right behind the trees. I love cody's where he is tugging on his jacket, his smirk behind the turf guy look, and the reflection in the glasses it is like two in one picture. Last but not least is the the couple with all the negative space behind them. When you first look it seems like there should be no one in the picture, but then your focus goes only to them and it makes your really see the beauty of there relationship, that love is simple and free. Thanks for sharing guys everything you both do is mind blowing and very inspiring.  ",
      "parentPostTime": "2012-01-23T20:00:31",
      "parentPostId": "418919001"
    },
    {
      "threadId": "535597575",
      "post": "Adam Tee BayBee, you da best.",
      "time": "2012-01-12T04:43:57",
      "id": "408381190",
      "parentPost": "Hahahaha awesome!",
      "parentPostTime": "2012-01-12T02:24:06",
      "parentPostId": "408309778"
    },
    {
      "threadId": "529195147",
      "post": "Thanks for the comment Courtney, I'd definitely agree. :)\n\n\nI'm a drummer myself and while listening it was cool to hear what came through each section.",
      "time": "2012-01-06T18:41:14",
      "id": "402654367",
      "parentPost": "This is amazing I love there transitions throughout the song, the sound is constantly changing, and it keeps you on your toes the whole time. I just figured I would check this out, then I couldn't walk away.\n",
      "parentPostTime": "2012-01-06T17:58:29",
      "parentPostId": "402581853"
    },
    {
      "threadId": "526970628",
      "post": "Thanks Mike! :)",
      "time": "2012-01-05T18:16:23",
      "id": "401377469",
      "parentPost": "Congratulations you two :)",
      "parentPostTime": "2012-01-04T23:58:19",
      "parentPostId": "400845671"
    },
    {
      "threadId": "517363263",
      "post": "We'd like to think so too, we love the pictures as much as they do. :)",
      "time": "2011-12-27T17:46:27",
      "id": "395079958",
      "parentPost": "Congrats to Brent and Lindsay! They are so lucky to have you two capture this beautiful surprise!!!",
      "parentPostTime": "2011-12-27T17:44:52",
      "parentPostId": "395079098"
    },
    {
      "threadId": "470142036",
      "post": "Simon has a non-disclosure agreement that doesn't allow him to appear in short videos. ;)\n\nI didn't get him to sign a waiver.",
      "time": "2011-11-14T15:06:03",
      "id": "362818102",
      "parentPost": "Very nice!  Makes me want to make the journey too!!!\nI was hoping to see pictures of Simon when you showed your company!\nLove you Ryan boy!! <3",
      "parentPostTime": "2011-11-13T13:43:22",
      "parentPostId": "362299619"
    },
    {
      "threadId": "460092271",
      "post": "At the moment I use the iOS mail app for only iCloud. Use an app called Mailroom for gmail accounts currently as I need at least the ability to add labels, etc...\n\nIf Sparrow brought it's features from OS X to iOS it would be great! I'd replace mail with it easily.",
      "time": "2011-11-02T21:18:00",
      "id": "354181640",
      "parentPost": "What would have to be in it to have you switch form the mail app?",
      "parentPostTime": "2011-11-02T19:38:02",
      "parentPostId": "354121949"
    },
    {
      "threadId": "441236534",
      "post": "Psst, I assume iOS is meant and not iPS? ;)",
      "time": "2011-10-12T15:38:14",
      "id": "332712984"
    },
    {
      "threadId": "440567819",
      "post": "The price vs what you get with SMS is crazy. I'm still grandfathered in on unlimited data for $30 a month and that's what we also pay for texting.\n\n\nWhich requires more bandwidth and support, but they still cost the same?",
      "time": "2011-10-11T22:15:50",
      "id": "332046583"
    },
    {
      "threadId": "432746741",
      "post": "While not offering a true framework Canvas get's fairly close. :)",
      "time": "2011-10-05T03:49:15",
      "id": "326867411",
      "parentPost": "Woothemes offers themes, not frameworks, which is why they weren't included.",
      "parentPostTime": "2011-10-04T15:46:24",
      "parentPostId": "326409721"
    },
    {
      "threadId": "424229876",
      "post": "That'd be one brave bride, and lots of fun!\n",
      "time": "2011-09-25T04:32:01",
      "id": "319383628",
      "parentPost": "I was thinking there'd be some mud or paint in this post! Teehee.",
      "parentPostTime": "2011-09-24T04:14:38",
      "parentPostId": "318788814"
    },
    {
      "threadId": "421942013",
      "post": "This gallery is very nice! ;)\n\nI like the pics in it though, gallery or not.",
      "time": "2011-09-22T04:06:47",
      "id": "317172671"
    },
    {
      "threadId": "418735094",
      "post": "Nice work girl! The song is a perfect match. ;)",
      "time": "2011-09-20T13:17:01",
      "id": "315894921"
    },
    {
      "threadId": "208175689",
      "post": "It has, as I no longer need MPEG stream clip. I'll post an update to this sometime soon!",
      "time": "2011-09-15T22:04:13",
      "id": "312111409",
      "parentPost": "Alright, now I'm 100% sure about buying this 7D beauty ! Your workflow changed with FCP X btw ? ",
      "parentPostTime": "2011-09-15T21:12:04",
      "parentPostId": "312079039"
    },
    {
      "threadId": "405465836",
      "post": "This turkey bacon was even better than the ones we've tried before. I'll cook it for you when you come visit. ;)",
      "time": "2011-09-05T19:04:20",
      "id": "303059086",
      "parentPost": "Yum!  I want!  I had coffee, almonds, and cereal.  My usual ;)",
      "parentPostTime": "2011-09-05T18:57:07",
      "parentPostId": "303054835"
    },
    {
      "threadId": "402868811",
      "post": "I'm sure someday you'll master the upside down aeropress, I don't even think about it now. :)",
      "time": "2011-09-05T17:50:30",
      "id": "303017346",
      "parentPost": "Aw that's sad... I'm glad I make THE best coffee! ;) Except when I try to make it upside down... lol jk",
      "parentPostTime": "2011-09-02T20:47:05",
      "parentPostId": "301316938"
    },
    {
      "threadId": "401532194",
      "post": "Alright, at least one person! I'll get some more styles done soon and post them, look forward to seeing what you think. :)",
      "time": "2011-09-01T19:44:21",
      "id": "300608214",
      "parentPost": "Patiently waiting ;)",
      "parentPostTime": "2011-09-01T08:22:55",
      "parentPostId": "300220069"
    },
    {
      "threadId": "394646022",
      "post": "Many thanks Mark! This was my first project cutting my teeth in FCP X and Motion 5. :)",
      "time": "2011-08-24T12:48:10",
      "id": "294353437",
      "parentPost": "Some great shots, lovely lighting!",
      "parentPostTime": "2011-08-24T12:31:14",
      "parentPostId": "294346728"
    },
    {
      "threadId": "393446521",
      "post": "Lots and lots of fun! Nick and Lindsey are great and made it wonderful. ;)",
      "time": "2011-08-23T13:23:44",
      "id": "293654558",
      "parentPost": "I bet this was SO FUN for you two to do together!!",
      "parentPostTime": "2011-08-23T02:44:18",
      "parentPostId": "293421718"
    },
    {
      "threadId": "376661773",
      "post": "Nah, couldn't be me! :)",
      "time": "2011-08-04T16:12:07",
      "id": "277426084",
      "parentPost": "Ryan is involved I am sure - Of course 2 are better!",
      "parentPostTime": "2011-08-04T16:07:02",
      "parentPostId": "277423103"
    },
    {
      "threadId": "371460866",
      "post": "I have a reflector I could have brought, or we also need to get some ND filters for our newer lenses. :)",
      "time": "2011-07-29T04:26:19",
      "id": "268357455",
      "parentPost": "I love the ones with grass backlit, but his face is in shadows... anyway to add light in editing this?  Also, really like the one where he is standing in light of what looks like window that's behind you",
      "parentPostTime": "2011-07-29T04:21:05",
      "parentPostId": "268352079"
    },
    {
      "threadId": "364831876",
      "post": "Ahh, the L's help make some nice images. :)",
      "time": "2011-07-22T05:01:04",
      "id": "260439821"
    },
    {
      "threadId": "363512162",
      "post": "Wooaahh.... interesting indeed.",
      "time": "2011-07-20T16:17:54",
      "id": "258788288"
    },
    {
      "threadId": "362348171",
      "post": "I approve of these Cake Pops, very tasty. Perhaps you need to make chocolate or other types of cake in these. ;)",
      "time": "2011-07-20T04:34:10",
      "id": "258148487"
    },
    {
      "threadId": "362977370",
      "post": "So was the last GM build seeded the one released? ;)",
      "time": "2011-07-20T03:12:21",
      "id": "258100782"
    },
    {
      "threadId": "360933901",
      "post": "I'd rather swim in the ocean too. ;)",
      "time": "2011-07-18T18:05:34",
      "id": "256187287"
    },
    {
      "threadId": "361630704",
      "post": "She's a cutie, awesome work. My favorite is the first three combined. :)",
      "time": "2011-07-18T18:04:37",
      "id": "256186010"
    },
    {
      "threadId": "358835891",
      "post": "Dock",
      "time": "2011-07-15T02:44:13",
      "id": "252517020"
    },
    {
      "threadId": "355903590",
      "post": "Thanks Rahul,\n\nMindy learned from the best, well maybe just me. ;)",
      "time": "2011-07-12T15:19:40",
      "id": "249293152",
      "parentPost": "Awesome Video Ryan... and the images too...\nAnd Mindy the you took were awesome too...\n\nNice shots :)",
      "parentPostTime": "2011-07-12T05:02:42",
      "parentPostId": "248567997"
    },
    {
      "threadId": "345247613",
      "post": "I can't answer your questions about the decisions Apple has made with this release, and won't make up reasons to justify their actions since I'm not involved in making their decisions.\n\n\nI do agree there was a lot of information missing with the release, but professionals should know when a software has been re-written they might want to wait for initial reviews and gripes before jumping in. I'm more in the \"prosumer\" category of video editing, and I knew to hold back and wait for initial reviews. Not that I wanted other people to be my guinea pigs, but I wanted to hear what people like David Pogue/New York Times had to say before spending my $300 on it.\n\nApple has since said that most of what professionals are whining about is coming, the only thing AFAIK is that legacy support is just impossible. Makes sense with a whole new way to edit and software architecture. When I made the jump from iMovie '06 to Final Cut, I also got rid of my tape workflow. I also do my own coloring and sound editing. Therefore the only thing I've really missed is multi-cam support. I don't often shoot where I need multi-cam support, but I have before and really liked how FCP did it.\nI like the push towards getting rid of tape, that's just me though. Apple seems to like to help push tech forward, if you'll call it that. Killing of the floppy, trying to do away with CD drive, not ever putting Blu-Ray in their computers since they want digital distro, etc... I think it is just some reality for people using tape still, that tape is on it's way out. Not that Apple put the nail in the coffin, but they've shown you where they want to go.\n\nAlso, nothing happened to your existing FCP 7. I don't like that you can't get it anymore, but hopefully Apple lightens up and brings it back for sale. Otherwise, just torrent it. :)\n\nI'm finishing up my projects in FCP7 and doing new projects in FCPX if possible, ie - multicam.\n\nJust have some patience and use the tools that work for you, and post with a better name next time. At least make it FCPX SUX!!!!11!!1!! ;)",
      "time": "2011-06-30T15:57:50",
      "id": "238841387",
      "parentPost": "Why didn't apple release this when the software first came out?  Why didn't Apple tell FCP users that these were going to be issues before it came out so we could prepare?  Why did they say that old projects would be supported a few days ago, and now they aren't?  Why did they end FCP7?  Why did they get rid of tape based capturing when pretty much every broadcast station or professional house masters and archives to tape and has done so for a decade?  Those questions should be answered.\n\nIt is the way Apple has handled this whole thing that people, the whiners you speak of, are disappointed about.  Apple has completely dropped the ball, and this so called FAQ solves nothing.  It even has a few answers that read \"Yes, you can do that.  But you have to get another program (automatic duck) because FCPX doesn't.\"  What a joke.  Automatic duck is a $500 program.  So in reality, Apple is saying, F*#K off and figure it out yourself, it's not our problem that you don't want to embrace the future\".\n\nNo, everything will not be there as was.  And if you believe that, you're part of the problem.",
      "parentPostTime": "2011-06-30T15:42:23",
      "parentPostId": "238833018"
    },
    {
      "threadId": "346272324",
      "post": "I'd hope they'd go through the RC and GM phase before dumping Lion on us. Maybe they know more than I do. ;)",
      "time": "2011-06-30T15:15:54",
      "id": "238801225"
    },
    {
      "threadId": "207348933",
      "post": "Interesting and good to know Partha, thanks for the heads up. Definitely something to consider as you formulate a strategy for video. :)",
      "time": "2011-06-27T06:28:58",
      "id": "235598483",
      "parentPost": "Ryan, a good comparison between the two! I've a few points to add.\n\nThere is no restriction in the types of videos uploaded to YouTube subject of course to the broad guidelines like the videos being non-racist, non-vulgar, non-violent, etc. \n\nThe downside with Vimeo is that it doesn't allow promotional videos. There's no grudge though because it is their policy. So the bottomline is if anyone wants to promote something like her business or a product or service, the best place is YouTube.",
      "parentPostTime": "2011-06-14T05:08:58",
      "parentPostId": "225424793"
    },
    {
      "threadId": "339517651",
      "post": "Yeah, for a pro app probably should have just held onto a bit longer until ready. They've really got some pissed off people.\n\n\nI've just started playing in it today and have enjoyed it a lot. I've finished my FCP7 projects and have just started new ones in FCP X, luckily don't need multicam edits for the current one I'm working on. :)",
      "time": "2011-06-22T19:24:02",
      "id": "232165904",
      "parentPost": "Not sure, but it seems like a measured move, especially if it just wasn't ready yet.",
      "parentPostTime": "2011-06-22T19:22:06",
      "parentPostId": "232163726"
    },
    {
      "threadId": "320062714",
      "post": "I agree, I like reading it from way over here in London. ;)",
      "time": "2011-06-03T09:40:04",
      "id": "217122740",
      "parentPost": "Nice \"ketchup\"!  It's nice to see a new blog! \n ",
      "parentPostTime": "2011-06-02T13:02:41",
      "parentPostId": "216438070"
    },
    {
      "threadId": "313749206",
      "post": "Hey Braun!\n\nI've been creeping on your work since Michael shared a link of the engagement shots. Such great images, and great work. Too bad you guys aren't closer to the Indy area, if you ever think about having a workshop let me know. :)",
      "time": "2011-05-26T14:16:26",
      "id": "212170071"
    },
    {
      "threadId": "313756556",
      "post": "Probably should rent a semi the next time we make our way to IKEA",
      "time": "2011-05-26T05:44:23",
      "id": "211947186"
    },
    {
      "threadId": "305338305",
      "post": " Down for me in Indy.",
      "time": "2011-05-16T19:23:37",
      "id": "204636514"
    },
    {
      "threadId": "293906715",
      "post": "Yes! Good job! :)",
      "time": "2011-05-04T01:37:08",
      "id": "196666983"
    },
    {
      "threadId": "289966037",
      "post": "I keep my software receipts and serial codes in 1Password. This auto syncs to Dropbox, and I at least feel like it's more secure in 1Password. :)",
      "time": "2011-04-27T21:18:35",
      "id": "192954732"
    },
    {
      "threadId": "288905789",
      "post": "I like the new price, but I've yet to be impressed by virus software for Macs.\n\nI currently use MacKeeper, it's been pretty good and offers lots more than virus protection. It's still just kind of been meh. :)",
      "time": "2011-04-26T16:34:44",
      "id": "192122566"
    },
    {
      "threadId": "278715749",
      "post": "Thanks a ton Rahul, it's been great thus far.",
      "time": "2011-04-14T06:09:29",
      "id": "184229253",
      "parentPost": "Hey dude, congratulation on your job bro :)",
      "parentPostTime": "2011-04-14T04:54:49",
      "parentPostId": "184210768"
    },
    {
      "threadId": "278011679",
      "post": "Please be available soon, you can't demo this and make us wait too long. :)",
      "time": "2011-04-13T02:56:35",
      "id": "183535544"
    },
    {
      "threadId": "264091612",
      "post": "*trees, Mother. You correct my grammar and I'll watch your spelling. ;)",
      "time": "2011-04-11T20:59:33",
      "id": "182721044",
      "parentPost": "I'm so jealous that you got to a Jimmy John's before me! lol\n\nThe tress.... oh, the Spanish moss! \n\nI love living trips through you guys! Keep the pictures coming!",
      "parentPostTime": "2011-03-27T12:03:44",
      "parentPostId": "172724498"
    },
    {
      "threadId": "276077599",
      "post": "I neeeed this, can't wait to see what's in store. :)",
      "time": "2011-04-10T16:39:02",
      "id": "181938778"
    },
    {
      "threadId": "577415463",
      "post": "Keep raging my friend, I love having you in my Twitter feed. :)",
      "time": "2011-04-09T02:32:46",
      "id": "181278768"
    },
    {
      "threadId": "259175886",
      "post": "Hey now, I come to see everyone just the same. Actually just you two ladies. :)",
      "time": "2011-03-21T22:04:10",
      "id": "169233311",
      "parentPost": "Hey, hey, hey.... I know he mainly comes to see you but, don't forget about the momma here! He can bring his new apple to see me too! lol",
      "parentPostTime": "2011-03-21T21:33:19",
      "parentPostId": "169220650"
    },
    {
      "threadId": "257660923",
      "post": "Automatically change your plan and increase it by at least $20?!?! Seems slightly illegal to do so. I pay for unlimited data and shall do with it as I please.",
      "time": "2011-03-18T21:21:12",
      "id": "167917988"
    },
    {
      "threadId": "254695818",
      "post": "Your title rhymed, come visit again soon. :)",
      "time": "2011-03-16T15:43:14",
      "id": "166646824"
    },
    {
      "threadId": "243287172",
      "post": "Hah, ;) I just like to keep you guessing.",
      "time": "2011-03-02T14:55:13",
      "id": "158982087",
      "parentPost": "I will refrain from saying anything further if that's how you feel :)",
      "parentPostTime": "2011-03-02T03:04:22",
      "parentPostId": "158772295"
    },
    {
      "threadId": "239780264",
      "post": "Thanks for the sweet post :) I should also add it's the only place I get my themes from, I don't even buy them anymore I subscribe to them.",
      "time": "2011-02-25T05:46:26",
      "id": "155757967"
    },
    {
      "threadId": "239047420",
      "post": "Thanks Bourgea, you're the man!",
      "time": "2011-02-25T02:08:50",
      "id": "155677571",
      "parentPost": "Dude.... You would be awesome for this position. ",
      "parentPostTime": "2011-02-24T22:02:05",
      "parentPostId": "155595017"
    },
    {
      "threadId": "237538535",
      "post": "Whoever did that video, they did alright...",
      "time": "2011-02-24T03:12:10",
      "id": "155155645"
    },
    {
      "threadId": "238391182",
      "post": "Does this mean it's time to sell my current iPad?!@",
      "time": "2011-02-23T17:58:02",
      "id": "154745781"
    },
    {
      "threadId": "232542427",
      "post": "I think they are great, I like that their outfits work really well with the environment and colors. :)",
      "time": "2011-02-18T14:09:50",
      "id": "151252162"
    },
    {
      "threadId": "224790786",
      "post": "Another year of firsts for us, We'll be able to hang out on both Valentines day AND Spring Break this time around!",
      "time": "2011-02-09T07:14:22",
      "id": "143237683"
    },
    {
      "threadId": "223507042",
      "post": "You need to go into business, or open up shop as they say. :)",
      "time": "2011-02-07T03:17:47",
      "id": "141760643"
    },
    {
      "threadId": "222790151",
      "post": "How valentiney ;)",
      "time": "2011-02-04T20:36:03",
      "id": "140788188"
    },
    {
      "threadId": "221443235",
      "post": "Funny that this now happened, I just wrote about why I've made the switch to Reddit. Digg was my gateway drug to Reddit, hah.\n\nhttp://www.ryancannonray.com/reddit-vs-digg/",
      "time": "2011-02-03T06:26:42",
      "id": "139331271"
    },
    {
      "threadId": "221356891",
      "post": "On the front facing camera rumor... herp derp. It's the only device, besides the AppleTV, without one at the moment.",
      "time": "2011-02-03T00:45:17",
      "id": "139096076"
    },
    {
      "threadId": "220724455",
      "post": "Well, I got up about 9:30. Had some breakfast and started in on editing some pictures. I then ventured out in it and filmed a little. Came back in watched some movies and stayed as warm as possible!",
      "time": "2011-02-02T05:46:46",
      "id": "138630703"
    },
    {
      "threadId": "219987012",
      "post": "Pat, U jelly?",
      "time": "2011-02-01T03:41:04",
      "id": "137993005"
    },
    {
      "threadId": "219719214",
      "post": "Just a friendly suggestion, these types of posts seem better left as tweets with a link to the real article...",
      "time": "2011-01-31T20:51:06",
      "id": "137783624"
    },
    {
      "threadId": "219155130",
      "post": "You liked your drink, just pretended not to. lol ;)",
      "time": "2011-01-31T16:23:54",
      "id": "137659932"
    },
    {
      "threadId": "218208242",
      "post": "Oh yes, Mindy's Drobo too. I think I'll buy a couple more... :)",
      "time": "2011-01-29T23:16:39",
      "id": "136897720",
      "parentPost": "Soo organized and tidy.  :)  Wouldn't expect anything else from you. You forgot to mention that it is my Drobo too, ahem.  :)",
      "parentPostTime": "2011-01-29T21:32:40",
      "parentPostId": "136853593"
    },
    {
      "threadId": "217578254",
      "post": "Exactly, this was more spur of the moment. We worked with what we had. I'll be sure to make a sequel next year!",
      "time": "2011-01-28T23:38:01",
      "id": "136271200",
      "parentPost": "dude!!! next time, try a longer fuse and bigger explosives! :D",
      "parentPostTime": "2011-01-28T19:40:01",
      "parentPostId": "136144838"
    },
    {
      "threadId": "217157344",
      "post": "I've been slowly leaning towards dropping iChat and going all to Skype. Maybe the new interface will help convince me and others I work with.",
      "time": "2011-01-27T16:45:22",
      "id": "135390384"
    },
    {
      "threadId": "216133610",
      "post": "Thanks Kristy, I think when the winter theme melts off the blog we'll see more color! Thanks for some good feedback. :)",
      "time": "2011-01-27T04:19:52",
      "id": "135153834",
      "parentPost": "The new layout is great, Mindy! Nice work Ryan. My only suggestion... add a little bit of color maybe? I really like the sidebars though, very nice.",
      "parentPostTime": "2011-01-26T22:10:57",
      "parentPostId": "135040941"
    },
    {
      "threadId": "213846012",
      "post": "I think these rock, and the others are going to be so good!",
      "time": "2011-01-25T20:53:57",
      "id": "134469583"
    },
    {
      "threadId": "209447049",
      "post": "Show me more! :)",
      "time": "2011-01-15T04:15:43",
      "id": "129303523"
    },
    {
      "threadId": "207533092",
      "post": "It's super attractive! :)",
      "time": "2011-01-12T17:38:48",
      "id": "128256941"
    },
    {
      "threadId": "205957605",
      "post": "One more darned semester! Keep working hard! :)",
      "time": "2011-01-11T07:34:27",
      "id": "127497477"
    },
    {
      "threadId": "205508803",
      "post": "Hah, what kind of prize?",
      "time": "2011-01-11T03:52:24",
      "id": "127404383",
      "parentPost": "AWESOME you sneaky iPhone photographer :o)  You should win a prize or something!",
      "parentPostTime": "2011-01-09T01:23:51",
      "parentPostId": "126350715"
    },
    {
      "threadId": "205484747",
      "post": "Stupid lab credit... ;)",
      "time": "2011-01-09T00:36:40",
      "id": "126334991"
    },
    {
      "threadId": "203473020",
      "post": "Are you calling me fat?! ",
      "time": "2011-01-06T05:40:43",
      "id": "124852929"
    },
    {
      "threadId": "203685670",
      "post": "I think it'd be awesome to see more of your photo tutorials, heh. :)\n\nOr maybe some desktop backgrounds or prints :D",
      "time": "2011-01-06T05:40:22",
      "id": "124852880"
    },
    {
      "threadId": "202914198",
      "post": "This is an awesome post, what's next? Patchworking in 2011?",
      "time": "2011-01-05T19:34:09",
      "id": "124522409"
    },
    {
      "threadId": "201751612",
      "post": "I love the city, thanks for the congrats!",
      "time": "2011-01-03T15:31:46",
      "id": "123496162",
      "parentPost": "Love all your photos of downtown Indy!  As I was scrolling, I thought... hey, I've been there!\n\nCongrats to Ryan on his graduation!  Woohoo!",
      "parentPostTime": "2011-01-03T14:57:38",
      "parentPostId": "123486625"
    },
    {
      "threadId": "191256374",
      "post": "Hey man,\n\nI can answer for you since I shot them, hah. I shoot with a Canon 7D and I had on a 50mm which was at I believe f/2.2. Post was done all in Aperture.",
      "time": "2010-12-19T00:10:59",
      "id": "114561715",
      "parentPost": "what camera and lens was the first pic taken with?? you look beautiful. :D",
      "parentPostTime": "2010-12-16T02:36:54",
      "parentPostId": "112606932"
    },
    {
      "threadId": "193191934",
      "post": "I'll count her in for her, she says YES! Hah.",
      "time": "2010-12-18T17:02:32",
      "id": "114360521",
      "parentPost": "I LOVE the video!!!!!!  Especially when you were \"pushing\" yourself down the hill after you were off of your sled!  I think that when Ryan comes back to Indy you should come with him and we should have a Winter Date Weekend!!!!  Here is what I imagine to be on the agenda for the weekend...\n\n-Ice Skating at Pan Am Plaza\n-Possibly checking out a hockey match (could be interesting)\n-Dinner at the Old Spaghetti Factory downtown\n-Sipping lots of warm coffee and tea by the fireplace\n-Fun games\n-Fun picture time\n-Moving Ryan in and getting him settled\n-Making a yummy dinner together\n\nWhat do you think...are you in?!??!?!  Say YES!! :)",
      "parentPostTime": "2010-12-18T15:41:37",
      "parentPostId": "114327044"
    },
    {
      "threadId": "189246601",
      "post": "Seriously, 40,000... Haha",
      "time": "2010-12-14T07:44:00",
      "id": "111461655",
      "parentPost": "wow you are very subtle! :)",
      "parentPostTime": "2010-12-13T21:51:36",
      "parentPostId": "111261954"
    },
    {
      "threadId": "186115296",
      "post": "Look at you, you'll be addicted to video soon too! ;)",
      "time": "2010-12-08T00:38:20",
      "id": "108489427"
    },
    {
      "threadId": "183885277",
      "post": "I think you are just copying off of me! ;)",
      "time": "2010-12-04T00:19:53",
      "id": "106539885"
    },
    {
      "threadId": "183218978",
      "post": "I approve of this, looks just like Christmas!",
      "time": "2010-12-02T05:12:25",
      "id": "105792492"
    },
    {
      "threadId": "179750542",
      "post": "I'm so glad you can come with us, we should keep doing the breakfast for dinner too! Sounds more tasty than more turkey!",
      "time": "2010-11-27T02:42:59",
      "id": "103678433"
    },
    {
      "threadId": "178481129",
      "post": "I wonder why we didn't start this earlier when I saw Todd doing it!",
      "time": "2010-11-24T08:21:50",
      "id": "101666395"
    },
    {
      "threadId": "174756514",
      "post": "Oh absolutely! C'mon Mindy, I'd love a visit to Canada. Where are you in Canada?",
      "time": "2010-11-18T16:09:52",
      "id": "98850959",
      "parentPost": "Come on over to Canada, I'd love a photoshoot!",
      "parentPostTime": "2010-11-18T15:46:48",
      "parentPostId": "98835045"
    },
    {
      "threadId": "93003281",
      "post": "I've actually been using a plugin within Aperture to do my HDR now. :)",
      "time": "2010-11-18T02:05:37",
      "id": "98650131",
      "parentPost": "which software you do prefer for HDR Making ?\nSo far I used Photoshop CS5, I do not know at all Photomatix, thanks for your video, I am looking at it right now",
      "parentPostTime": "2010-09-27T11:22:31",
      "parentPostId": "81108163"
    },
    {
      "threadId": "173650468",
      "post": "Hah, yeah they are good bros. Your blog doesn't fall under the category of friends. Girlfriend yes, but not just friends!",
      "time": "2010-11-16T22:01:04",
      "id": "98037684",
      "parentPost": "Aw, I love this post!!  I know that these guys are sooo appreciative of what you do to help them and I can't wait to see where this will lead them in the future!  So exciting and awesome that you can help them in the process of achieving their goals/dreams.  Can I brag on you and say you are so talented too in what you do to help them?!? :)\n  \nOh but one thing... you forgot to add my blog and how it's going to be famous.  :)  Haha jk!",
      "parentPostTime": "2010-11-16T17:33:13",
      "parentPostId": "97896234"
    },
    {
      "threadId": "172687277",
      "post": "It's true, the oils from tea and coffee left overs don't mix well. Glass is known to hold in those flavors from past brews and it would taste funky if you made coffee then brewed tea in the same glass. Trust me, I've done it before to see. It tastes like peanuts were melted into your tea... blech :)",
      "time": "2010-11-15T15:02:16",
      "id": "97412120"
    },
    {
      "threadId": "172533178",
      "post": "They are just really tall, five foot nothing isn't short! ;)",
      "time": "2010-11-15T00:08:06",
      "id": "97150537"
    },
    {
      "threadId": "167229759",
      "post": "I know I always say this, but these are super good! You should probably forget college and do this all the time!",
      "time": "2010-11-12T15:15:12",
      "id": "96540232"
    },
    {
      "threadId": "168313073",
      "post": "That mustache looks good on you! ;)",
      "time": "2010-11-12T15:14:13",
      "id": "96539903"
    },
    {
      "threadId": "169198513",
      "post": "You're just so dang good! Can't wait to see more.",
      "time": "2010-11-12T15:13:12",
      "id": "96539526"
    },
    {
      "threadId": "170015616",
      "post": "The late night was worth it, definitely can't wait to see some of my new pics :)",
      "time": "2010-11-12T15:12:18",
      "id": "96539268"
    },
    {
      "threadId": "170338508",
      "post": "I'll be there next week... ;)",
      "time": "2010-11-12T15:11:31",
      "id": "96539044"
    },
    {
      "threadId": "170965392",
      "post": "Perhaps we should join forces like Bobbi + Mike, but I shoot video instead of a second photog. ;)",
      "time": "2010-11-12T15:06:42",
      "id": "96537761"
    },
    {
      "threadId": "163904597",
      "post": "You won't have to drag me back if you take me to Northern California/Oregon!",
      "time": "2010-11-08T23:24:48",
      "id": "95196673",
      "parentPost": "So when I drag you back next time, which side should we visit?!?! lol",
      "parentPostTime": "2010-10-30T18:27:19",
      "parentPostId": "91785894"
    },
    {
      "threadId": "162894960",
      "post": "Thanks for the comment Michele,\n\nThe blog post still didn't really give me any clarity to why the shows went the way they did, i.e. not enough viewers, ratings, budget, etc... I do understand though that that might be information Rev3 will keep private. I wrote the post in a state of shock, so take it as is. I loved those shows and do hope you guys have more great stuff in store. Hopefully to diversify from the %100 tech tinted shows.\n\nI like what Rev3 is doing, otherwise I wouldn't care enough to post about it. Thanks again for the comment! I'll be looking forward to some new content.",
      "time": "2010-11-08T23:15:08",
      "id": "95194669",
      "parentPost": "Hey Ryan\nJust wanted to say thanks for being a loyal Rev3 viewer and for sharing your feedback. We blogged about this a few weeks ago (http://revision3.com/blog/2010/10/26/programming-update-food-mob-rofl/) but probably could have done a better job getting the word out, so please forgive us for random blindsides. Meanwhile, stay tuned for announcements on some great new shows we've got in the hopper. Hopefully somethings that you and your girlfriend will both enjoy! \nKeep the feedback coming (you can always email us at info@revision3.com) and thanks again for watching.\n-Michele (Revision3) ",
      "parentPostTime": "2010-11-08T19:51:41",
      "parentPostId": "95148854"
    },
    {
      "threadId": "168858978",
      "post": "2 Tandem? ;)",
      "time": "2010-11-08T14:33:02",
      "id": "95061534"
    },
    {
      "threadId": "167766403",
      "post": "You're sweet, I'm also wearing that same outfit (on accident) as I am in those pictures! Hah",
      "time": "2010-11-05T20:51:49",
      "id": "94300482"
    },
    {
      "threadId": "165584600",
      "post": "All the kids looks in this are great, hah!",
      "time": "2010-11-03T01:31:06",
      "id": "93170444"
    },
    {
      "threadId": "164543828",
      "post": "I was REAL excited to hear this over your other silly test grade ;). Just kidding you are always super smart!",
      "time": "2010-10-31T01:33:12",
      "id": "91906059"
    },
    {
      "threadId": "162558141",
      "post": "Just talk Mindy into coming to visit me and we'll both come take pictures! hah :)",
      "time": "2010-10-28T02:27:46",
      "id": "90988673",
      "parentPost": "these look great mindy!!! come to indiana to do carters pics for me :)",
      "parentPostTime": "2010-10-27T15:04:59",
      "parentPostId": "90757380"
    },
    {
      "threadId": "154716099",
      "post": "You should edit it and post it for me to see, thanks man!",
      "time": "2010-10-26T05:35:28",
      "id": "90168687",
      "parentPost": "I like this man! I shot some stuff on my phone on my way home this weekend... you kinda inspired me! Always good stuff breh!",
      "parentPostTime": "2010-10-25T20:01:02",
      "parentPostId": "89973614"
    },
    {
      "threadId": "161963491",
      "post": "Grandslam on the first try! Keep going! :)",
      "time": "2010-10-26T03:27:07",
      "id": "90143947"
    },
    {
      "threadId": "161396642",
      "post": "Hah, this is funny! Don't quit writing please!",
      "time": "2010-10-25T02:08:51",
      "id": "89737614"
    },
    {
      "threadId": "160061008",
      "post": "Yeah, seriously!\n\nI like her pumpkin straw idea, I could go for a pumpkin latte right now!",
      "time": "2010-10-22T23:20:22",
      "id": "89281628",
      "parentPost": "Man that first set of pictures are adorable! Y'all did a great job! I can't wait for Spring so you can do a photo shot then with her! Thanks y'all did a great job!",
      "parentPostTime": "2010-10-22T13:15:10",
      "parentPostId": "89078902"
    },
    {
      "threadId": "160014051",
      "post": "Shirt #3 is so good, it also is my favorite song. Win win for me!",
      "time": "2010-10-22T23:18:33",
      "id": "89281309"
    },
    {
      "threadId": "158994575",
      "post": "You are rocking it so far, I'm excited to see the rest. I also wish I could shoot with you, I'm jealous! ",
      "time": "2010-10-20T04:27:35",
      "id": "88424683"
    },
    {
      "threadId": "157033640",
      "post": "Nice! I can't wait to see the pictures. Also when can we hang out!",
      "time": "2010-10-16T10:23:06",
      "id": "87384183"
    },
    {
      "threadId": "154371405",
      "post": "I like these kinds of posts, plus you already knew that Fall is my favorite season!",
      "time": "2010-10-11T17:53:24",
      "id": "85975608"
    },
    {
      "threadId": "151277132",
      "post": "You're making me blush!",
      "time": "2010-10-05T01:38:24",
      "id": "84162467"
    },
    {
      "threadId": "149482888",
      "post": "I don't look so sweet, maybe crazed... :)",
      "time": "2010-10-01T04:14:57",
      "id": "82732765"
    },
    {
      "threadId": "148266611",
      "post": "The french press measures different than any US measurements. I think that's why you see differences in cup amounts. Or maybe I'm just lying!",
      "time": "2010-09-28T18:48:51",
      "id": "81630047"
    },
    {
      "threadId": "146233559",
      "post": "Can you come hang out and skip class again this weekend? PLEEASSEE!",
      "time": "2010-09-24T16:45:16",
      "id": "80585400"
    },
    {
      "threadId": "135978804",
      "post": "Now we can both be nerds and study computers and chemistry, *pushes up glasses*, OH BOY ",
      "time": "2010-09-01T01:11:46",
      "id": "73643896"
    },
    {
      "threadId": "135088150",
      "post": "You should buy the drive in and fix it up! Then show good movies! :)",
      "time": "2010-08-29T22:45:38",
      "id": "73026583"
    },
    {
      "threadId": "133095817",
      "post": "You're the man.",
      "time": "2010-08-24T17:11:08",
      "id": "70989873"
    },
    {
      "threadId": "132854152",
      "post": "I'm not ashamed to be the only man there, we'll see what we can do though about getting back for this awesome weekend!",
      "time": "2010-08-24T04:18:19",
      "id": "70904823"
    },
    {
      "threadId": "132149064",
      "post": "So colorful and sleek, definitely the best yet. Welp, now onto the next project! You better get a lot of readers now with such a functional and fun blog! :)",
      "time": "2010-08-22T19:23:00",
      "id": "70630258"
    },
    {
      "threadId": "108851749",
      "post": "Hah, never heard it called big girl blogging. Also you guys both have M2 blogs!",
      "time": "2010-06-19T03:40:12",
      "id": "57563052",
      "parentPost": "Beautiful! And tell Ryan I said YAY for helping you move to a \"big girl\" blog on WordPress ;)",
      "parentPostTime": "2010-06-18T22:17:23",
      "parentPostId": "57525772"
    },
    {
      "threadId": "108695312",
      "post": "I love the song Skeleton Bones, awesome description of his style too. Check out John Tibbs if you want something similar!",
      "time": "2010-06-17T16:25:20",
      "id": "57251065"
    },
    {
      "threadId": "106753732",
      "post": "The problem I see with the iPhone and it's competitors is that the ease of use with the software just doesn't match up. Apple has a giant lead in this area, the hardware specs will always line up pretty evenly no matter the phone. I just think that Apple puts together the whole package a heck of a lot better than any other phone manufacturer. Just IMHO though! ",
      "time": "2010-06-15T20:33:27",
      "id": "56934426",
      "parentPost": "How do you feel about people making the claims that Sprint beat the iPhone to the punchline with the EVO 4G? I will always be loyal to Apple so I side with you, however I also feel that when it comes to quality you can't beat the iPhone's construction and reliability...so I refuse to like Sprint's creations lol.",
      "parentPostTime": "2010-06-12T00:35:36",
      "parentPostId": "56316142"
    },
    {
      "threadId": "106259804",
      "post": "Ooo, you and Todd will be fighting out for the rights to call this your favorite!",
      "time": "2010-06-11T00:50:22",
      "id": "55833703",
      "parentPost": "My favorite.  :)",
      "parentPostTime": "2010-06-11T00:49:20",
      "parentPostId": "55833575"
    },
    {
      "threadId": "105490301",
      "post": "SICK NASTY, I remember at PA camp you and Todd working out the guitar parts to this. It's funny watching some of the YouTube videos of it from then and now listening to this.",
      "time": "2010-06-09T00:11:34",
      "id": "55395699"
    },
    {
      "threadId": "104802570",
      "post": "Definitely my favorite song from Origins, as they say K.I.S.S.\n\nKeep It Simple Stupid.",
      "time": "2010-06-06T16:53:56",
      "id": "55020606"
    },
    {
      "threadId": "103992005",
      "post": "You know I'll be the first commenter, I think this song will be great to have worked into any worship set. Keep up the good song writing.",
      "time": "2010-06-03T17:52:43",
      "id": "54130064"
    },
    {
      "threadId": "102872293",
      "post": "One of my favorite songs off of Origins, can't wait for everyone else to hear the rest!",
      "time": "2010-06-01T18:34:58",
      "id": "53405997"
    },
    {
      "threadId": "101720808",
      "post": "I was alone at the time, driving in quiet solitude :)",
      "time": "2010-05-27T21:32:27",
      "id": "52464773",
      "parentPost": "Nice :)\nThough it's kind of a funny song as you're going to your girlfriend's house?  lol ",
      "parentPostTime": "2010-05-27T20:23:34",
      "parentPostId": "52457356"
    },
    {
      "threadId": "94566351",
      "post": "I'm working hard to do so! There are always a few things I can never get to getting done or doing the way I thought I would, I guess that's just life though!",
      "time": "2010-05-25T04:05:42",
      "id": "51784051",
      "parentPost": "I am a huge \"list\" person!\n\nGood luck with your list...I am sure you will conquer it will flying colors!",
      "parentPostTime": "2010-05-24T19:04:31",
      "parentPostId": "51731810"
    },
    {
      "threadId": "97156129",
      "post": "Yeah they are awesome, and those are on the low end of their bikes! They have a great warranty on the bikes though, lifetime frame warranty and everything else is 5 years. \n\n",
      "time": "2010-05-19T19:25:05",
      "id": "51095301",
      "parentPost": "I would love to get a new bike as well but they are pricey..it's awesome you guys got new ones though!!",
      "parentPostTime": "2010-05-19T18:48:09",
      "parentPostId": "51089861"
    },
    {
      "threadId": "96988825",
      "post": "I'd be cool with traveling the world and making videos of my travels, or if we just go as a group and play music for everyone.\n\nI'm gonna go give Crash Kings a listen soon.",
      "time": "2010-05-19T05:27:29",
      "id": "51008597"
    },
    {
      "threadId": "95956324",
      "post": "Sick playing brehs! Can't wait to huck together soon.",
      "time": "2010-05-15T20:09:28",
      "id": "50526194"
    },
    {
      "threadId": "95901317",
      "post": "Social media is no doubt a great tool to come from the internet, as anything though it will be abused. It still offers a great way to form relationships with people like yourself or completely different than you. This of course can be leveraged by leaders of churches to hopefully make the church more personable.\n\nFor instance a youth pastor could make himself more available over Twitter for important questions. Or gather input from outside sources about his youth program. Even with no interaction you could get a sense of what's popular with that age group. Facebook covers even more people as you can find a lot of parents and the older generation more on Facebook than Twitter.\n\nThey are all great and free tools, just be sure to make a focused use out of them.",
      "time": "2010-05-15T15:42:17",
      "id": "50486856"
    },
    {
      "threadId": "92975623",
      "post": "My pleasure, I assume it's up and working fine! Enjoy your tunes :)",
      "time": "2010-05-12T18:56:50",
      "id": "49944677",
      "parentPost": "Thank you bro I could not have done it without you peace!",
      "parentPostTime": "2010-05-12T18:38:41",
      "parentPostId": "49940888"
    },
    {
      "threadId": "81589645",
      "post": "What a horrible waste of a post. Why would anyone take this \"review\" seriously?!\n\n;)",
      "time": "2010-04-01T19:47:45",
      "id": "42744330"
    },
    {
      "threadId": "1381056",
      "post": "My three big profiles I use are Facebook, Digg & Twitter. I think those three have quite a bit of value in them. Atleast I get the value out of it. The other ones seem to have not survived or aren't as significant.",
      "time": "2008-06-23T22:30:44",
      "id": "734038"
    },
    {
      "threadId": "1362027",
      "post": "Of course I have FF3 running on my mac, but i still find it hard to give up Safari. FF just got better though definitely with FF3. I'm going to keep trying it out.",
      "time": "2008-06-23T14:35:46",
      "id": "730299"
    }
  ],
  "profileInfo": {
    "username": "Ryanr14",
    "about": "",
    "name": "Ryan Ray",
    "disable3rdPartyTrackers": false,
    "isPowerContributor": false,
    "isAnonymous": false,
    "rep": 1.289447,
    "profileUrl": "https://disqus.com/by/Ryanr14/",
    "url": "http://ryanray.co",
    "reputation": 1.289447,
    "location": "",
    "isPrivate": false,
    "signedUrl": "http://disq.us/?url=http%3A%2F%2Fryanray.co&key=VcH9LmX5CIftVzeGyIPchQ",
    "isPrimary": true,
    "joinedAt": "2008-06-23T14:35:46",
    "id": "49859",
    "avatar": {
      "small": {
        "permalink": "https://disqus.com/api/users/avatars/Ryanr14.jpg",
        "cache": "//a.disquscdn.com/uploads/users/4/9859/avatar32.jpg?1434466545"
      },
      "isCustom": true,
      "permalink": "https://disqus.com/api/users/avatars/Ryanr14.jpg",
      "cache": "//a.disquscdn.com/uploads/users/4/9859/avatar92.jpg?1434466545",
      "large": {
        "permalink": "https://disqus.com/api/users/avatars/Ryanr14.jpg",
        "cache": "//a.disquscdn.com/uploads/users/4/9859/avatar92.jpg?1434466545"
      }
    }
  }
}