{
  "comments": [
    {
      "threadId": "3757747625",
      "post": "Hey, I think we're saying the same thing.  I believe the way it has been done is dying...fast.",
      "time": "2015-05-14T19:07:57",
      "id": "2025110804",
      "parentPost": "\"I think the buying a domain name, setting up a Wordpress site, selling banner ads way of the world is fading fast.\" \n\n\nI share your concerns, but are we sure that the way it _has_ been done is the way it _should_ be done? What if the new way of doing things is vastly more profitable for the creator?",
      "parentPostTime": "2015-05-14T19:06:45",
      "parentPostId": "2025107799"
    },
    {
      "threadId": "2954794538",
      "post": "I think of it like this - if we were to build a new city or colonize another planet, we likely wouldn't lay fiber underground.  We'd use something like mesh networks as they're cheaper, software upgradeable, and take advantage of everyone being a beacon with devices in their pocket.  I undoubtedly believe the Comcast of our generation will be based off of mesh networks.  We all have \"nodes\" sitting in our pockets now.\n\nMy biggest question has always been around the multi hop problem.  There's been some good research papers on it (http://www.strixsystems.com/products/datasheets/strixwhitepaper_multihop.pdf), but we're talking a much larger scale here.  This is where a big software advance needs to happen.  My one worry is that since it plays into radio frequencies, you're looking at potential government oversight.  Solve this and make it way for thousands of red hooks to spring up and you're looking at the future.  \n\nIf you're interested in further reading, there's a great subreddit here that I follow - http://www.reddit.com/r/darknetplan .",
      "time": "2014-08-25T00:06:44",
      "id": "1557570842"
    },
    {
      "threadId": "2209142959",
      "post": "Hey Ritz,\n\nThis is clearly not true, sorry if we did not see your support request.  If you go into your Onswipe dashboard, you can set your Google Analytics ID - http://cl.ly/image/0i0V2v3i0l2D.  If this isn't set, you won't see it reporting into your account.  We also support: Chartbeat, Quantcast, Comscore, and Omniture.  We work with many of the largest publishers in the world and frankly we'd be out of business if we didn't support+report their analytics :).  Hope this helps, thank you!",
      "time": "2014-02-04T16:31:22",
      "id": "1230591348"
    },
    {
      "threadId": "2057513658",
      "post": "Yep, that's what we expect is happening.\n\n\nFor clarity, we measure traffic worldwide and are the largest independent media platform according to Comscore.  It's a large data set.",
      "time": "2013-12-18T15:12:20",
      "id": "1168781415",
      "parentPost": "At the store i work at we have about 60,000 Samsung tablets in the warehouse. No one buys them, but we keep ordering them just blindy hoping they will sell. \n\nAlso the browser usage numbers from a small ad company who only counts Canada and US web traffic that hit their sites totally isn't biased. I mean Canada and US totally accounts for world wide usage and the business based clients the ad network has definitely accounts for tablet usage as a whole.\n\nWhat a load of BS.",
      "parentPostTime": "2013-12-18T14:36:48",
      "parentPostId": "1168735013"
    },
    {
      "threadId": "745171163",
      "post": "Good question!  We hear ya and Android is something we think is important.  Stay tuned for Android awesomeness... ",
      "time": "2012-06-30T04:08:42",
      "id": "572721413",
      "parentPost": "And I venture to take a guess that most who frequent this site are most likely Android users. \nWhen I think ipad or iphone,  I think Verizon.   When I think Verizon,  I think Republicans.   But that's just me.",
      "parentPostTime": "2012-06-30T03:56:59",
      "parentPostId": "572688891"
    },
    {
      "threadId": "736994718",
      "post": "Let's break this down objectively:\n\nDisclosure:  Enstitute works out of our offices and we gave it to them for free.  They've only ever bought us lunch today in return, but the nacho chips were stale by the time I got to them.  They're also good friends.\n\nThe largest costs of living in NYC for a 20 something is easily housing.  That's covered. \n\nThe other major costs such as food and transportation? Covered. \n\nOther cash in order to enjoy NYC?  Covered by a stipend, which I'm sure is small.\n\nIf all they were providing was the opportunity and zero costs covered, I'd get the slant, but that's not the case.  In reality this is probably more than an individual founder would be getting in their pocket from YCombinator or Techstars (excluding the 150k / 100k convertible notes).  \n\nAlso, the members of the program can leave if they want and I'm sure some of the students will get snagged up fast by the companies they're with.  ",
      "time": "2012-06-22T21:41:54",
      "id": "564881748"
    },
    {
      "threadId": "485930792",
      "post": "It was an honor having you with us from day one growing the operations from when it was just Andres and I in January to 16 people strong .  Thanks for believing in us over the past 8 months to be a part of the wild ride.  Love you man.",
      "time": "2011-11-28T04:51:56",
      "id": "373998446"
    },
    {
      "threadId": "342965625",
      "post": "Was great meeting you that morning too at Techstars.  Appreciate the feedback and figured it would be good to address a few of the points.\n\nGlad you like Brad's blog and its look+feel.  A lot of that layout was inspired by your comment to focus on readability of content.  We want the web to be more enjoyable and focus on the reading experience.\n\nWe'd love for you to show everybody Brad's blog, but what we're doing doesn't work on the desktop.  It works only on tablet touch (right now iPad) web browsers. You should have been redirected to the desktop version if accessing from Safari on the desktop.  \n\nAs for the Wordpress implementation, our goal is to make that experience a lot more like Brad's blog.  What's up on Wordpress now is older technology.  The new technology you see on Brad's blog, WILL make its way to Wordpress and very soon hopefully.  It would have been there by now, but it is literally not even a week old.  We're on it, we hear you, and it will happen.",
      "time": "2011-06-27T15:43:45",
      "id": "235998507"
    },
    {
      "threadId": "343283292",
      "post": "Brad, thanks for the awesome post and support along the way.  We originally built Onswipe for people like you: personal publishers that want their content to look great on the tablet web without any work.  ",
      "time": "2011-06-27T12:43:31",
      "id": "235915638"
    },
    {
      "threadId": "282336466",
      "post": "Greg- thank you for the kind words, they made me smile :).  ",
      "time": "2011-04-19T04:53:07",
      "id": "187402091"
    },
    {
      "threadId": "35012412",
      "post": "Craigslist-  SF\r\nFoursquare- NYC and a handful of others\r\nFacebook- Harvard\r\nTumblr- avant garde crowd\r\nTwitter (and a plethora of other services)- Tech crowd\r\nMyspace- hollywood crowd\r\n\r\nI'll think of others. hope this helps.\r\n\r\n-jlb\r\n772.801.1058\r\nCEO of OnSwipe\r\nYou Should Check Out My Writing at OnStartups.com <http://onstartups.com/>\r\n and JasonLBaptiste.com <http://www.jasonlbaptiste.com/>",
      "time": "2011-03-06T20:05:09",
      "id": "161416074",
      "parentPost": "Could you please give some examples of companies that started with a maximal viable market?\n\nk thx.",
      "parentPostTime": "2011-03-06T20:00:55",
      "parentPostId": "161413413"
    },
    {
      "threadId": "222623622",
      "post": "Brad, was awesome to have you come by.  Top of mind was really useful for us as a growing company trying to be the best founders possible.  Many many thanks again.  Looking forward to having you on board as an alpha user :).",
      "time": "2011-02-04T17:35:09",
      "id": "140644120"
    },
    {
      "threadId": "212232481",
      "post": "The point and click web still has a lot left in it, but the innovation and more time is probably going to be spent on mobile/touch devices.  Part of it because of the huge growth of the devices, but also because it's just a lot more fun for developers to build on.  I think we'll soon hit a topping point where users look down on an app/site if it doesn't have a mobile counterpart.  ",
      "time": "2011-01-19T15:06:54",
      "id": "131331633"
    },
    {
      "threadId": "202778276",
      "post": "No worries. My guess is miss CES and miss the Apple announcement at the end of January. \r\n\r\n\r\n-jlb\r\n772.801.1058\r\nYou Should Check Out My Writing at OnStartups.com and JasonLBaptiste.com",
      "time": "2011-01-04T20:17:09",
      "id": "124003779",
      "parentPost": "yep, my bad, fixed!",
      "parentPostTime": "2011-01-04T20:16:16",
      "parentPostId": "124003485"
    },
    {
      "threadId": "162833420",
      "post": "Zferral is absolutely awesome, people should check them out.  We may still release flow as open source software.",
      "time": "2010-10-27T18:34:53",
      "id": "90816053",
      "parentPost": "If anyone is looking for a \"launched\" affiliate program for SaaS check out http://zferral.com/",
      "parentPostTime": "2010-10-27T17:43:50",
      "parentPostId": "90801370"
    },
    {
      "threadId": "158207648",
      "post": "Thank you vlad :).  Comments like this are exactly what I'm looking for, so\r\nwe're even.\r\n\r\n-jlb\r\n772.801.1058\r\nYou Should Check Out JasonLBaptiste.com <http://www.JasonLBaptiste.com>",
      "time": "2010-10-18T20:27:15",
      "id": "87982724",
      "parentPost": "Great post Jason, starting to love your postings, just what i was looking for, it's like you read my mind. ",
      "parentPostTime": "2010-10-18T20:25:06",
      "parentPostId": "87981740"
    },
    {
      "threadId": "137047909",
      "post": "Wow, well said and I forgot about this.  Startup digest does this well too!\r\n\r\n-jlb\r\n772.801.1058\r\nYou Should Check Out  http://www.JasonLBaptiste.com",
      "time": "2010-10-12T03:47:45",
      "id": "86095476",
      "parentPost": "Another channel is franchising: TEDx, Yahoo! Japan (operated by Softbank), Yahoo! China (operated by Alibaba).",
      "parentPostTime": "2010-10-08T21:28:55",
      "parentPostId": "85330538"
    },
    {
      "threadId": "154742094",
      "post": "Well said Chris.  I'm going to rephrase Wu-Tang a bit and say: C.R.E.A.M. stands for CUSTOMERS Rule Everything Around Me.  Another good example, where Apple prioritizes customers and what the carriers don't get: http://daringfireball.net/linked/2010/10/11/telstra\n\nFor small/medium businesses a great customer experience (service is one part of it) can be the differentiating factor.  ",
      "time": "2010-10-11T21:29:58",
      "id": "86028609"
    },
    {
      "threadId": "154431201",
      "post": "Derek,\n\nThank you for having me on the list.  It's an honor to be around such great company+smart people.",
      "time": "2010-10-11T15:34:59",
      "id": "85934610"
    },
    {
      "threadId": "149229837",
      "post": "That's the goal :). Though they should get other viewpoints from close\r\nfriends via in-depth conversations.\r\n\r\nSent from my iPad Nano",
      "time": "2010-10-02T16:54:18",
      "id": "83337546",
      "parentPost": "This is really well done. I think people can stop blogging about college/drop-out now and just link to this post!",
      "parentPostTime": "2010-10-02T16:50:11",
      "parentPostId": "83337009"
    },
    {
      "threadId": "145393607",
      "post": "That's the problem with ad based businesses.  They take quite a long time to gain the scale needed to be profitable or even generate significant revenue.  A few things that might be worth looking at:\n\n-  What is the customer acquisition cost per 1,000 views in each case?  (Ad based businesses usually have low CAC)\n-  What are the pageviews generated by free plans as opposed to premium plans. % breakdown might be nice.  \n-  Difference in costs to operate each business per 1,000 pageviews.  SaaS usually has more in terms of security + there is a storage component to some of the apps.  At scale my guess is that the difference between the two isn't much.  ie- 50,000 pageviews on a SaaS app costs a small amount more than 50,000 pageviews on an ad supported site.  The pageviews on a SaaS app are more valuable.\n\nI've been thinking of ways to turn the pageviews of free plans/non converting customers into a number that's worth >0.  Curious on ideas there (I have some).  I know it's essentially lead gen/marketing expense to convert into paid plans, but my thought is, how do you make more revenue from those users in addition to x% that convert to paid plans.\n\nGreat great post Chris.  Pimping it out.\n",
      "time": "2010-09-22T15:10:21",
      "id": "80057242"
    },
    {
      "threadId": "109983802",
      "post": "Thank you!\r\n\r\nSent from my iPad Nano",
      "time": "2010-09-22T13:40:19",
      "id": "80038224",
      "parentPost": "gr8 post",
      "parentPostTime": "2010-09-22T12:26:12",
      "parentPostId": "80025331"
    },
    {
      "threadId": "133538958",
      "post": "I'd say just build great things that show off your skills and write really\r\nsmart things as well.  Have a specific product style and writing style.\r\n\r\n-jlb\r\n772.801.1058\r\nYou Should Check Out JasonLBaptiste.com <http://www.JasonLBaptiste.com>",
      "time": "2010-08-30T19:09:53",
      "id": "73176227",
      "parentPost": "Great post Jason. I plan on sharing this frequently. Let's just say for the sake of argument that a person meets all of these requirements so exactly, that its as if you wrote this about that specific person...any suggestions for how one goes about branding himself in this regard? This article was necessary because too many don't recognize the need for all those other attributes and just go with the cheapest hourly developer they can find. So my question is, how does one stand out from all of them and present themselves as a good fit for this for people such as Rooperstar who is having a hard time finding them?",
      "parentPostTime": "2010-08-30T19:08:04",
      "parentPostId": "73175656"
    },
    {
      "threadId": "130019268",
      "post": "Thank you Patrick!  Great articles on the rec. reading list there.\r\n\r\n-jlb\r\n772.801.1058\r\nYou Should Check Out JasonLBaptiste.com <http://www.JasonLBaptiste.com>",
      "time": "2010-08-16T12:57:23",
      "id": "69106921",
      "parentPost": "Great, compelling and complete write up Jason! Thanks!\r\nI've just added it to our startup library, so more startup entrepreneurs and wannapreneurs can benefit from your experience and wisdom! Please see: http://www.seedaccelerator.com/startuplibrary.html (under the startup section)\r\n\r\nCheers, \r\n\r\n\r\nPatrick \r\n@PatrickDriessen / @SeedAccelerator",
      "parentPostTime": "2010-08-16T12:50:16",
      "parentPostId": "69106111"
    },
    {
      "threadId": "128956483",
      "post": "Being in the SF Bay Area is a huge help for funding,but not a prime indicator.  Ron Conway does most of his deals in NYC now and Boston has always had a strong funding community.\n\nKnowing a VC personally helps get in the door, but this isn't the Red Cross.  They're not going to fund something absolutely horrible since they're your neighbor.\n\nTC and Press helps get you hype and credibility for sure.  ",
      "time": "2010-08-13T12:54:32",
      "id": "68495154",
      "parentPost": "- They got funding because they were located in SF Bay Area\n- They got funding because they knew the VC personally (their neighbor)\n- They got funding because VentureBeat, TechCrunch, GigaOm hyped the product for some reason (spoke a Starbucks)\n",
      "parentPostTime": "2010-08-13T09:14:49",
      "parentPostId": "68449774"
    },
    {
      "threadId": "126756204",
      "post": "Apple certainly has a lot of shortcomings with their approval process.  With\r\nthat said, think back a little over 2 years.  If you had a mobile app and\r\nwanted distribution, it meant deals with a carrier.  Typing that sentence\r\nalone makes me feel pain.\r\n\r\n-jlb\r\n772.801.1058\r\nYou Should Check Out JasonLBaptiste.com <http://www.JasonLBaptiste.com>",
      "time": "2010-08-06T16:05:00",
      "id": "66843761",
      "parentPost": "\" iTunes app store\" hardly is an example to give for \"Zero Barrier Distribution\", because it actually is :)\nOther than that, I agree.\nEven on Video HD. The US are late on high speed internet, but new technologies are being developed and experimented, things are moving fast, and what is possible today was not just 2 years ago.",
      "parentPostTime": "2010-08-06T15:56:09",
      "parentPostId": "66842336"
    },
    {
      "threadId": "122770454",
      "post": "thank you!\r\n\r\n-jlb\r\n772.801.1058\r\nYou Should Check Out JasonLBaptiste.com <http://www.JasonLBaptiste.com>",
      "time": "2010-07-28T13:33:38",
      "id": "64850173",
      "parentPost": "A real neat aggregation what an entrepreneur should worry about from day one of his execution. Nice write-up.",
      "parentPostTime": "2010-07-28T13:27:07",
      "parentPostId": "64848882"
    },
    {
      "threadId": "120106390",
      "post": "Sure! Please just attribute the source. I've noticed the linkhay\r\ntraffic which seems to be a big site in Vietnam.  Would love to have\r\nit in the native language.  Thank you!\r\n\r\nSent from my iPad Nano",
      "time": "2010-07-25T18:44:59",
      "id": "64176713",
      "parentPost": "Hi jasonlbaptiste!\nCan  I  translate and edit it into Vietnam languages. Hope you accept, I promisse I will specify the source.\nThanks",
      "parentPostTime": "2010-07-25T18:20:35",
      "parentPostId": "64174510"
    },
    {
      "threadId": "117668813",
      "post": "wow, thank you Rajat.  I'm working on something more Tumblr like and streamlined.  I originally had the fonts larger for iPad optimization.",
      "time": "2010-07-14T17:55:30",
      "id": "62242825",
      "parentPost": "Even if you just tone up the 'Fonts' similar to http://37signals.com/svn the website would become much more readable...Anyways...its an excellent post from you as usual....normally i read each of your article atleast 2-3 times...good post",
      "parentPostTime": "2010-07-14T15:04:52",
      "parentPostId": "62214986"
    },
    {
      "threadId": "113176745",
      "post": "Aggregation is important here.  Yippit does this well too.",
      "time": "2010-07-07T21:32:06",
      "id": "60992245",
      "parentPost": "Groupon is amazingly successful, doing a great job -- and spawning lots of competition.  One of the most formidable competitors is called The Dealmap (www.thedealmap.com).  It  aggregates more than 300,000 deals from hundreds of sites, and also offers daily emails tailored to users' preference.  Groupon is just one of the sites it crawls.  Robert Scoble interviewed one of the founders recently:\r\nhttp://scobleizer.com/2010/06/17/two-location-companies-more-important-than-foursquare/\r\nWorth a watch.\r\n\r\n\r\nKrista",
      "parentPostTime": "2010-07-07T16:35:59",
      "parentPostId": "60953003"
    },
    {
      "threadId": "112789146",
      "post": "I'm a big believer in the email newsletter business (things like thrillist, geekchicdaily, or Thrillist), but I don't know how I feel about it for personal use.  I write long form content on my blog to spread to as many people as possible in order to meet new smart people.  Doing it strictly via email greatly restricts that.  On the other hand, it allows me to have a more intimate audience.  I think having the best of both worlds might make sense:  email is by far the best mechanism for retaining a reader (Ups Lifetime value).  Also publish a select group of articles/posts on the web in order to get the distribution+retention of blogging (Lowers Customer acquisition cost).  Use email for reader retention and blog for reader acquisition.",
      "time": "2010-07-01T18:55:35",
      "id": "60177641"
    },
    {
      "threadId": "25114397",
      "post": "Nope, look great actually.",
      "time": "2010-06-22T18:54:17",
      "id": "58088174",
      "parentPost": "It might be stable, but at 5'3 138 you probably look like a soaked cat. lulz",
      "parentPostTime": "2010-06-22T18:53:04",
      "parentPostId": "58087944"
    },
    {
      "threadId": "107610535",
      "post": "Awesome.  There's a very good chance it will go open source.  Will drop you an email re: this.  As long as it's a start, that's what matters :).",
      "time": "2010-06-15T14:39:57",
      "id": "56870104",
      "parentPost": "I liked the Applets video. Concept is there, but man do I have some questions as to its use as a replacement for the numerous Excel projects out there. If it were ever to get to OpenSource, I would be test driving it.",
      "parentPostTime": "2010-06-15T11:22:26",
      "parentPostId": "56803180"
    },
    {
      "threadId": "102867110",
      "post": "Ha, I left the mistypings there to show it's not perfect :)\r\n\r\nI'm using pterm which is an upscaled iPhone app. It's green text and a\r\nblack bg, so it's okay :D\r\n\r\nGet it fast since AT&T is killing unlimited 3G!\r\n\r\nSent from my iPad Nano",
      "time": "2010-06-05T04:14:30",
      "id": "54846946",
      "parentPost": "Great rundown Jason. The comparison with the early iPod is amazing and very telling... I really should be getting one  regardless of the current shortcomings.\n\nYou can actually tell this was written on the iPad by the telltale \"missingmspaces\" - On the iPhone keyboard it's usually a \"b\" when I type a fast. Annoying as hell.\n\nOne more thing... what are you using as your Terminal app?",
      "parentPostTime": "2010-06-03T14:12:25",
      "parentPostId": "54003585"
    },
    {
      "threadId": "88721732",
      "post": "Fun show!  Thanks for having us.  \n\n",
      "time": "2010-04-22T23:53:26",
      "id": "46150283"
    },
    {
      "threadId": "87273349",
      "post": "Here's one slide we've been using in Cloudomatic presentations (investor pitches or just normal event talks) to tell help tell the narrative of where the market is going: http://imgur.com/XyHoC",
      "time": "2010-04-18T14:11:09",
      "id": "45366330"
    },
    {
      "threadId": "82984802",
      "post": "So I went to the Apple store yesterday to play with one (i'm waiting for the 3g version).  It's really great for version zero, but there are certainly some short comings.  A lot can be fixed with software and hopefully that's addressed on thursday with v4 of the iPhone OS.  Here's why I think the iPad with 3G (and possibly other tablets) will change everything:\n\n- Everything is now a \"mobile app\".  We usually think of the phone itself as the only mobile app platform, but once our computers/tablets have the same level of ubiquitous internet, then the same happens there.\n-  HTML5 Web Apps will be bigger than the iTunes app store for the work/productivity space.  Offline access + a constant connection means that you can work anywhere on any screen with the same data using SaaS apps.  We have close to 350 SaaS / business web apps on the Cloudomatic.com app store.  Most of those have only been released in the past 18 months, and I think that's just the start.  HTML5+Ubiquitous internet via 3G will boost that number way way up, especially in \"on the move\" professions like healthcare, construction, restaurants, etc.",
      "time": "2010-04-06T14:53:33",
      "id": "43492004"
    },
    {
      "threadId": "80602693",
      "post": "Congrats Daniel!  Really glad you're happy with the decision and some smart people helped you make it.",
      "time": "2010-03-30T01:21:32",
      "id": "42197081"
    },
    {
      "threadId": "75681970",
      "post": "I agree.  Only if I really need it now or if shipping is a major issue, will I go to a local store.  What about the things that I can't get online and only can get in person?  We need to stop looking at ecommerce as an extension of what already exists, but as a way to enable things that just aren't possible without the web.  ",
      "time": "2010-03-17T03:05:32",
      "id": "40135789",
      "parentPost": "FWIW, I have never understood the \"local shopping\" value proposition of someone like Milo. Why would I want to buy electronics locally when I can use FedEx/UPS and Amazon? Maybe Milo + mobile works so that if I'm walking around in the real world and want something, I can shop for it that way? \n\nAside from food, entertainment and clothing, I'm long FedEx/UPS and the web (on iPad, Laptop, Netbook, PC - anything with a largish screen) as the way people will buy. \n\nWhen online commerce becomes as content rich as going to a store, there are fewer types of stores that can survive in the real world: namely those with a real time component or a physical experience aspect. To me Apple is a good example of someone who has competed in the real world and won. They've made the experience of buying in their store compelling enough that it can effectively compete with a great website and the convenience of FedEx. It's hard to think of anyone else who has done this in electronics? I'd almost rather go to the dentist than go to most any electronics retailer. ",
      "parentPostTime": "2010-03-14T15:23:32",
      "parentPostId": "39627483"
    },
    {
      "threadId": "71200651",
      "post": "Appreciate it Bryan.  1999 clipart was the shit.  does anyone even use \"clipart\" now?",
      "time": "2010-03-08T17:30:07",
      "id": "38569140",
      "parentPost": "Ha love it.  The 1999-esque trophy clip art is priceless, too.",
      "parentPostTime": "2010-03-01T06:30:26",
      "parentPostId": "37421792"
    },
    {
      "threadId": "66851952",
      "post": "have you seen the secret london group success on FB (theres copycats now including secretnyc fyi)?  http://eu.techcrunch.com/2010/02/07/startup-to-launch-after-secret-london-facebook-group-amasses-180000/\n\nI'm not sure if this is the right way to go about it, BUT there has to be some way to collectively organize everyone's hidden local tips/spots for a city.  ",
      "time": "2010-02-14T22:02:17",
      "id": "34219818"
    },
    {
      "threadId": "66605536",
      "post": "LA Fitness makes you physically mail the form in, which is ridiculous.  There should be some type of app that lets you find all gyms in the area, has one consistent offer per gym, and makes money off of lead gen.  ",
      "time": "2010-02-14T01:26:27",
      "id": "34144601"
    },
    {
      "threadId": "66046787",
      "post": "yeah, pg open sourced it with arc, but he's made a lot of other improvements.  id say just go with Pligg or use slinkset since those are a lot easier to deal with.",
      "time": "2010-02-12T02:19:02",
      "id": "33963600",
      "parentPost": "yeah, they could use the software that powers hacker news. i think it might be open source.",
      "parentPostTime": "2010-02-12T02:12:18",
      "parentPostId": "33963200"
    },
    {
      "threadId": "65711732",
      "post": "oh, have you seen the \"Great hatsby project\".  It basically goes through livejournal, finds two random screennames and connects them together with a screenname in the middle.\n\nhttp://thenoisychannel.com/2008/11/22/the-great-hatsby-and-other-im-bots/\n\n",
      "time": "2010-02-10T16:26:56",
      "id": "33415897"
    },
    {
      "threadId": "64319041",
      "post": "what app(s)?",
      "time": "2010-02-05T21:01:29",
      "id": "32779388",
      "parentPost": "I run with Adwhirl and aggregate VideoEgg, MdotM, and Quattro.  Quattro FAR exceeds what I get from the other ad providers.",
      "parentPostTime": "2010-02-05T20:52:05",
      "parentPostId": "32778213"
    },
    {
      "threadId": "62072968",
      "post": "iPad will change the game.  zero doubt about it.",
      "time": "2010-01-28T02:19:14",
      "id": "31656338"
    },
    {
      "threadId": "60125278",
      "post": "Once again, the same could have been said for wikipedia back in the day, and things turned out pretty well I believe.  I'm not suggesting peer editing/ wiki style editing either.",
      "time": "2010-01-26T00:21:36",
      "id": "31314933",
      "parentPost": "As Wikipedia's problems with expertise show, this isn't the case at all.  Wikipedia truth is about who is the most persistent editor, not who actually knows what they are talking about. Editing and fact checking is long, tireless and thankless work. It doesn't get done properly unless you pay someone good money to do it. \r\n\r\nYou've got caught up in the cult of the amateur ( http://andrewkeen.typepad.com/the_great_seduction/2006/10/my_book_now_not.html ) - that somehow experts and their knowledge don't have any place in education. What sort of society do you expect to build with half-arsed textbooks? One that falls even further behind the education standards of the rest of the world.\r\n\r\nYou know what textbooks are going to be published for $10 - the ones that assert evolution is wrong (and don't think that the creationists won't get involved in your little peer group editing project), that MMR vaccine causes autism (lots of motivated editors there) and that Global Warming is a hippy plot.",
      "parentPostTime": "2010-01-25T23:48:53",
      "parentPostId": "31312642"
    },
    {
      "threadId": "59311224",
      "post": "Thanks Darren! Just something I really wanted to get out.",
      "time": "2010-01-17T23:52:02",
      "id": "30108615",
      "parentPost": "Surprisingly useful and thought-provoking piece.\r\n\r\nKeep up the good posts!",
      "parentPostTime": "2010-01-17T23:47:44",
      "parentPostId": "30108410"
    },
    {
      "threadId": "58770321",
      "post": "Check out what water.org has done with donating your status on twitter:\n\nhttp://rt.water.org/\n\nI believe the code is open source too.",
      "time": "2010-01-15T15:44:38",
      "id": "29967937"
    },
    {
      "threadId": "57998210",
      "post": "what programs are missing?",
      "time": "2010-01-13T21:23:16",
      "id": "29684721",
      "parentPost": "Lack of sports programming would be the killer for me. I don't watch much TV but what little I do watch is not available online.",
      "parentPostTime": "2010-01-13T20:16:33",
      "parentPostId": "29669430"
    },
    {
      "threadId": "57574726",
      "post": "This is why heavily capable smart phones like Android and the iPhone (or iTouch) are so important - they're the \"Tabula Rasa of Hardware\".  They replace the need for a large group of stand alone devices- navigation, remotes for HTPCs, video cameras, and a ton more.  Creating a new hardware device is normally an in-depth project that takes a ton of funding and time. Not anymore. The iPhone makes that possible for two guys with a lot of redbull in a weekend.",
      "time": "2010-01-11T16:16:55",
      "id": "29362310"
    },
    {
      "threadId": "55848814",
      "post": "All are great problems that need solving, but Numbers 2 and 4 excite me the most.\n\nFor Number 2, I've always felt this would be a useful tool.  Let me catalog what I own and share it with the world.  I think a DreamIT ventures company tried to/is doing this, along with a few others.  I think that's only the first step.  Once you have enough of people's stuff in there, you can do some interesting things.  First of which is: \"I'm thinking of buying phone x, show me which friends have it, so I can ask them about it\".  Second is: It could be the sleeper \"next eBay\".  The hardest problem anyone would have creating a marketplace is having a critical mass of items for sale.  Once inventory hits critical mass, you flip a switch that enables someone to say: \"i'd be willing to part with this item for x dollars\".\n\nFor Number 4, It's a huge problem that needs a good solution.  Local advertising budgets are shifting away from print media.  Companies need someone to guide them through using the web for local marketing (foursquare promotions, facebook ads, simple google optimization,etc.).  I read a report last year that 91% of local businesses are not satisfied with their local marketing efforts.  Reach Local is going public and has been a huge success, but the problem comes down to their overhead: a large on the ground sales staff.  They're providing new marketing with an old school sales approach.  How do you do what ReachLocal has done without the overhead of a huge sales staff?",
      "time": "2010-01-05T17:33:34",
      "id": "28407687"
    },
    {
      "threadId": "55251468",
      "post": "I've always thought that there is a ton of opportunity in regards to the home schooled market+education.  I don't know the market numbers, but I do know you can get past the bureaucracy as individual parents have the ability to try something new.",
      "time": "2010-01-03T05:35:17",
      "id": "27870910",
      "parentPost": "i think you have to stay away from established schools if you want to do\r\nanything innovative in education\r\n\r\nthey are like the record labels in the music business\r\n\r\nthey have entrenched interests and don't have the right incentives to adopt\r\nmassive game changing technologies",
      "parentPostTime": "2010-01-02T23:56:45",
      "parentPostId": "27850745"
    },
    {
      "threadId": "53147161",
      "post": "why not target home schooled kids?  each parent can make it mandatory instead of waiting for the education system to implement it, and more importantly implement it correctly.",
      "time": "2009-12-21T23:35:21",
      "id": "26901771",
      "parentPost": "",
      "parentPostTime": "2009-12-21T23:31:32",
      "parentPostId": "26901589"
    },
    {
      "threadId": "52187039",
      "post": "Why did Boxee's original plans to be a hardware play scare you?  Not disagreeing, just really curious.",
      "time": "2009-12-16T22:53:40",
      "id": "25986539"
    },
    {
      "threadId": "48646105",
      "post": "What does everyone think of the litl netbook?  The price is quite high, but it's beautiful and shows some promise.",
      "time": "2009-11-30T15:31:23",
      "id": "24341439",
      "parentPost": "Waiting for the apple tablet. that will be a game changer for the \"netbook\" market.",
      "parentPostTime": "2009-11-30T15:15:04",
      "parentPostId": "24339727"
    },
    {
      "threadId": "48647942",
      "post": "I've always found separating people out to be a necessity.  You can do it with multiple inboxes and filters, but that's a pain and after 2-3 columns on gmail, things look awkward.  I'd rather have a column for family, company, people working on a certain project,etc.  Labels could work too, but I'd make them more like tags and have columns be the purpose of what labels are now. ",
      "time": "2009-11-30T14:49:11",
      "id": "24332579",
      "parentPost": "Like this idea Jason. Gmail's labels seemingly could help here. You could create labels for the different people to create the separation of different emails. But I like the column approach, great visual for the latest across the different lists.",
      "parentPostTime": "2009-11-30T14:03:21",
      "parentPostId": "24330749"
    },
    {
      "threadId": "44874359",
      "post": "Still on for speaking at the Future of Web Apps Conference down here in Miami in Feb?  Always a great crowd, that matches up with your post on what conferences you like to go to.  Warm weather in February doesn't hurt either.  ",
      "time": "2009-11-11T16:19:56",
      "id": "22738628"
    },
    {
      "threadId": "40549044",
      "post": "AWESOME interview Andrew.  There's zero doubt email newsletters and marketing is still very effective.  A lot of people write it off due to it not being the hot trend of the moment, but it's still the most effective.  It brings forth retention and people pay attention to it.  There less noise and more signal.  Deliverability is an issue, but with a great email sender (i rec. mailchimp) you should be fine.  Here's a post I recently wrote looking into the email newsletter business (you should interview Peter Shankman from HARO asap btw):\n\nhttp://jasonlbaptiste.com/commentary/email-newsletters-business/\n\nAlso a statistic re: what people pay attention to when it comes to local media:\n\nemail newsletters are up 35%, only second to search.  Everything else such as newspapers, radio,etc. are down.\n\nhttp://www.mediapost.com/publications/?fa=Articles.showArticle&art_aid=99952\n\nThanks again for the transcripts, they helped me browse through, though I often use my mixergy playlist when on long car drives to listen to the audio.\n\n-jlb",
      "time": "2009-10-20T18:54:10",
      "id": "20643013"
    },
    {
      "threadId": "37766306",
      "post": "Thanks Elina!  Love what you guys are upto.  I'll be waiting to update the post with the full success story of Mamaista in the future :-).  ",
      "time": "2009-10-10T18:50:03",
      "id": "19801739",
      "parentPost": "Thanks for the mention. A very serious business indeed!\r\n",
      "parentPostTime": "2009-10-10T18:40:41",
      "parentPostId": "19801444"
    },
    {
      "threadId": "30064948",
      "post": "Odds of someone stealing the EXACT idea you have, ACTUALLY executing it, and executing it like you would? 0%\r\n\r\nOdds of meeting great people and getting great feedback? ~100%",
      "time": "2009-10-10T02:51:44",
      "id": "19720822",
      "parentPost": "Oh and btw VERY SMART to be more interested in feedback than focused on someone stealing your idea. If only more could realize that is the only way to succeed. To find out what the people want before building it!",
      "parentPostTime": "2009-10-10T00:47:25",
      "parentPostId": "19712719"
    },
    {
      "threadId": "30745959",
      "post": "im pretty sure I understand the \"internets\" very well.  More so I'm pretty sure you don't understand how to:\r\n\r\na) not be a troll\r\nb) make a comment with a supporting explanation\r\nc) not be a douche",
      "time": "2009-09-11T20:50:30",
      "id": "16441059",
      "parentPost": "You don't understand the internets. So sad.",
      "parentPostTime": "2009-09-11T19:26:14",
      "parentPostId": "16437120"
    },
    {
      "threadId": "12672332",
      "post": "On hacker news I posted a comment: \" College is a check box, not a select all button\".\r\n\r\nI left college for 18 months to run a startup full time back in 07.  I decided to leave my startup in November for various reasons, and am taking the next year to finish college while formulating what to do next full time as an entrepreneur.  College is a check box to me. It's something I'd like to finish, because I've always found academics important to *me*, not as some sort of validation to the outside world.\r\n\r\nAfter doing startups for a few years and \"stopping out\" of college, I can honestly say college has had no impact on entrepreneurship for me.  Most people think I actually finished.  \r\n\r\nIf you're thinking of dropping out / stopping out, here are the questions I asked myself when deciding to leave, maybe they'll help you:\r\n\r\na) Will the subject matter or degree give you any useful skillsets that you can use as an entrepreneur? \r\nb) If you graduated tomorrow, would you plan on doing anything different than your startup?\r\n\r\nIf both answers are no, then stopping out might be a smart option.",
      "time": "2009-02-27T04:09:01",
      "id": "6678367"
    },
    {
      "threadId": "9275871",
      "post": "Testing fb connect on my blog.",
      "time": "2009-01-02T23:49:13",
      "id": "4856078"
    }
  ],
  "profileInfo": {
    "username": "jasonlbaptiste",
    "about": "Founder of Onswipe, Author \"The Ultralight Startup\"",
    "name": "Jason L. Baptiste",
    "disable3rdPartyTrackers": false,
    "isPowerContributor": false,
    "isAnonymous": false,
    "rep": 1.324531,
    "profileUrl": "https://disqus.com/by/jasonlbaptiste/",
    "url": "http://www.jasonlbaptiste.com",
    "reputation": 1.324531,
    "location": "New York,NY",
    "isPrivate": false,
    "signedUrl": "http://disq.us/?url=http%3A%2F%2Fwww.jasonlbaptiste.com&key=Dux6On2dtizxd9vPVurO0Q",
    "isPrimary": true,
    "joinedAt": "2008-09-17T23:32:33",
    "id": "103605",
    "avatar": {
      "small": {
        "permalink": "https://disqus.com/api/users/avatars/jasonlbaptiste.jpg",
        "cache": "//a.disquscdn.com/uploads/users/10/3605/avatar32.jpg?1431612937"
      },
      "isCustom": true,
      "permalink": "https://disqus.com/api/users/avatars/jasonlbaptiste.jpg",
      "cache": "//a.disquscdn.com/uploads/users/10/3605/avatar92.jpg?1431612937",
      "large": {
        "permalink": "https://disqus.com/api/users/avatars/jasonlbaptiste.jpg",
        "cache": "//a.disquscdn.com/uploads/users/10/3605/avatar92.jpg?1431612937"
      }
    }
  }
}