{
  "comments": [
    {
      "threadId": "4159636331",
      "post": "That's a shame that you have that limitation. I never mind people, especially non-profits, using my work. It's just hard being a creator and trying to scratch out some compensation when your work is used so freely. Thank you for doing the best you are able. :)",
      "time": "2016-05-28T03:58:16",
      "id": "2699505338",
      "parentPost": "Hi Tracy. Our photo credits aren't \"hot\" links - you can't click on them. It's a system limitation. But if you enter the credit URL into a browser - HTTP://TINYURL.COM/ZHY2XDG - it goes to your Flickr photo. The second URL goes to the CC license. I want to make sure you are comfortable with this. Definitely want you to have credit, and we appreciate the great value CC images add to the community, especially for non-profits.",
      "parentPostTime": "2016-05-28T01:31:45",
      "parentPostId": "2699336823"
    },
    {
      "threadId": "2882558680",
      "post": "CC... You're the best! :)",
      "time": "2014-08-02T03:02:39",
      "id": "1521501408"
    },
    {
      "threadId": "2738941860",
      "post": "Yes, that would be a mistake. I have been reading through AJ's site. Lots of great things there. I hadn't realised what he has been up to.",
      "time": "2014-06-06T15:54:08",
      "id": "1422787216",
      "parentPost": "Great to see you last night and I'm glad you enjoyed this.\n\nI honestly can't imagine the team letting this get too big and losing the magic. It means too much to them.",
      "parentPostTime": "2014-06-06T15:21:03",
      "parentPostId": "1422729630"
    },
    {
      "threadId": "1788168848",
      "post": "Lots of room for new adventures!",
      "time": "2013-12-03T15:48:08",
      "id": "1148823895",
      "parentPost": "But a sweet one! :)",
      "parentPostTime": "2013-12-03T15:34:32",
      "parentPostId": "1148808594"
    },
    {
      "threadId": "408661553",
      "post": "The proper use of my photo is to have it linked to its page on Flickr, not stored on your servers. Please fix this. I am honoured that you chose to use it, you just need to abide by Flickr's ToS and the rights usage.\n\nThe original photo can be found here: http://www.flickr.com/photos/tracylee/88004452/",
      "time": "2012-06-21T21:12:14",
      "id": "563954316"
    },
    {
      "threadId": "426340074",
      "post": "Thanks for a great post, Amber! It is good to get reminders to help stay focused and on track, especially for those of us who have been around this for a long time. Excellent advice for those starting out! You ROCK! (But we already knew that... ;)",
      "time": "2011-09-26T20:13:30",
      "id": "320419281"
    },
    {
      "threadId": "407204821",
      "post": "I have always tried to live this way. I'm not always successful, but I do try to let the people I care about know that they are important to me. The ironic thing is while I first started reading this, my 26 year old came up to me to tell me that one of her good friends from high school just died. You just never know which is all the more reason to let those you love know how you feel.\n\nGreat post! BTW... It has been too long since I have seen the two of you. Perhaps sometime before ski season there's a trip to Boston in my future.",
      "time": "2011-09-07T17:01:02",
      "id": "304312797"
    },
    {
      "threadId": "399965693",
      "post": "Cherry Garcia is my all time favourite Ben and Jerry's. :)",
      "time": "2011-08-30T16:12:18",
      "id": "298757941"
    },
    {
      "threadId": "276812930",
      "post": "Thank You AJ! I'd love to come back to Avon and take more photos there. Someday... :)",
      "time": "2011-04-14T19:24:09",
      "id": "184589027",
      "parentPost": "Glad to hear that, Tracy. I appreciate you. \n\nps - I love your Flickr photos. :)",
      "parentPostTime": "2011-04-14T16:21:21",
      "parentPostId": "184461976"
    },
    {
      "threadId": "265570361",
      "post": "Even better is the TextFree with Voice app. My daughter and I use it constantly to keep in touch while she is living in Germany. \n\nhttp://itunes.apple.com/us/app/textfree-with-voice/id399355755?mt=8&ign-mpt=uo%3D2",
      "time": "2011-03-29T05:14:34",
      "id": "173834028"
    },
    {
      "threadId": "141242965",
      "post": "Yup, I'm not loving it, can't find the reason why. Hard to find your friends and understand about which games and...and...and...",
      "time": "2010-09-13T18:01:39",
      "id": "77302474"
    },
    {
      "threadId": "140041039",
      "post": "This is so sad. Hopefully there is some group that could step up and take it over. This makes it all the more important to attend this year.",
      "time": "2010-09-10T13:31:08",
      "id": "76664031"
    },
    {
      "threadId": "138780086",
      "post": "I LOVE the new logo!! One comment though. I would stick to a white only outline of the Old Man on the red version. The black line detracts from the overall look. \n\nExcellent job Amanda!! :)",
      "time": "2010-09-07T19:12:45",
      "id": "75782191"
    },
    {
      "threadId": "135760564",
      "post": "AMEN!!! I have been shouting this for yeas now as my oldest set are 27 and 25, I have seen the changes in the world and the lack of growth to follow in the educational realm. I do not know what the answer is, but I do know just as our medical system is complete broken, so is our educational system. By all rights, both should be totally revamped from the ground up, but that isn't going to happen any time soon. There is too much red tape and people with their heads stuck in the mud for real change to occur. Unfortunately, as the speed of technology and forward thinking rages on, our schools and our children are going to drop further and further behind, except for the fortunate ones to have parents like you and I.\n\nMy hope is that we can set the stage so that when these children grow, they will recognise what change needs to happen and make it a priority to see it through to fruition. Sadly, I think that's the best we can hope for. Our work is to start breaking down the walls so that they may rebuild.",
      "time": "2010-09-01T02:02:23",
      "id": "73650864"
    },
    {
      "threadId": "132363204",
      "post": "He's lord of his empire. Why would he allow you to block him? And would it really matter if you did?",
      "time": "2010-08-22T21:30:31",
      "id": "70645850"
    },
    {
      "threadId": "130773846",
      "post": "I think you are right on the money. I know I don't use any of the services the same way and while there is overlap of my friends on each service, the levels to which I share and what I share are totally different 90 percent of the time. I'm not going to go back through my Facebook and reorganise my privacy yet again...even if I did trust them. I like 4sq and I like how I have it set up and I know what I am sharing when and with whom. I'll keep things just the way they are.",
      "time": "2010-08-18T05:58:51",
      "id": "69496624"
    },
    {
      "threadId": "129825533",
      "post": "Wow, who would have thought you had too much time on your hands? ;)",
      "time": "2010-08-16T01:50:45",
      "id": "69056761"
    },
    {
      "threadId": "124314890",
      "post": "Funny, I was thinking of writing a post on commenting earlier this week. Personally, I don't understand why people don't comment. I understand the value of sharing something on Twitter, Facebook and the like, but there are many good reasons to leave a comment. First and foremost in my mind, I like to leave a comment just to let the content provider know that not only was I there, but I read/viewed/listened to what they published and found it of value. I think it is important, and as a content provider, I do know its value. Everyone likes to know that someone out there is actually on the receiving end of what they are sharing.\n\nI do hear people complain (and this pertains mostly to photosharing) about getting short, non-informative comments like, \"Nice job!\" and \"Awesome!\". Their beef is that they want more from a comment, that they are looking for constructive criticism. To those people I say, be glad someone thought enough to not only view your work, but left their mark to let you know they were there. If you want more informative comments, ask for them.\n\nSo, as someone who does comment, I am glad to see your post and I hope you don't stop writing. I don't comment as much as I would like and I don't get around to reading nearly half of what I want to, but I do like to let people know I find value in what they contribute. In short...\n\nKeep it up! :)",
      "time": "2010-07-31T04:00:37",
      "id": "65396310"
    },
    {
      "threadId": "121641804",
      "post": "Make sure she gets enough vitamin B12!\n\nhttp://www.vegetarian-nutrition.info/positions/english/b12-vegetarian.php",
      "time": "2010-07-24T15:13:11",
      "id": "64052468"
    },
    {
      "threadId": "110324629",
      "post": "I was torn between Nashua, NH and Boston and Boston has won out. I wish there was a way to attend both, but that's just not possible.",
      "time": "2010-06-30T17:03:42",
      "id": "60012560"
    },
    {
      "threadId": "61925581",
      "post": "Any solution? I just found myself in this same situation.",
      "time": "2010-05-01T15:24:26",
      "id": "47864935"
    },
    {
      "threadId": "88979694",
      "post": "You know, I have an alternate account that I only use with two people and it totally hosed for me for about two weeks. Because it wasn't my main account, I wasn't too concerned and quite honestly, I was too tapped out with other things to get into a tech support nightmare over. Things have resumed to operating normally, but had it been my main account, I would have been dead in the water.",
      "time": "2010-04-23T13:53:24",
      "id": "46231702"
    },
    {
      "threadId": "78117209",
      "post": "Brian,\n\nThis is a well organised, insightful article. I am sure this will be helpful to many people trying to navigate this space and understand how it is applicable to them.\n\nThank you for posting this and I look forward to reading your book.",
      "time": "2010-03-22T23:08:27",
      "id": "41131177"
    },
    {
      "threadId": "55588668",
      "post": "I was going to call you out on using that photo 4 months ago. ;) David King is a great photographer in the DC area and there is a thorough history on Ben's Chili Bowl if you <a href=\"http://www.flickr.com/photos/bootbearwdc/15542832/\" rel=\"nofollow\">click through to the photo page on Flickr</a>.",
      "time": "2010-01-05T12:49:56",
      "id": "28251541",
      "parentPost": "I've now used that picture twice (it's off Flickr), and people say that all the time. Great to sneak in a passion association, eh? : ) ",
      "parentPostTime": "2010-01-04T14:22:30",
      "parentPostId": "27985925"
    },
    {
      "threadId": "53472550",
      "post": "She is adorable!! What beautiful eyes!",
      "time": "2009-12-23T05:12:44",
      "id": "27063309"
    },
    {
      "threadId": "48229713",
      "post": "Okay, now I'm jealous! I'm hoping to start next Saturday.",
      "time": "2009-11-27T03:49:18",
      "id": "24155544"
    },
    {
      "threadId": "47292991",
      "post": "Sometimes Chris, your timing is in peccable. This is just what I needed to read at this moment.\n\nIt is interesting how a tiny revolution (fueled by a revelation) can actually consist of several tinier revolutions.\n\n(And next time I am going to try and remember to sign on to Disqus first, before loosing my post and trying to recreate it!)",
      "time": "2009-11-22T20:19:39",
      "id": "23827700"
    },
    {
      "threadId": "16797071",
      "post": "Congratulations on a huge success! You guys totally ROCK! Thank you for all you did! :)",
      "time": "2009-11-11T03:30:27",
      "id": "22685099"
    },
    {
      "threadId": "42541102",
      "post": "See, I was there... Haunting the place! ;)\n\nLooks like I missed the party of a lifetime. Can we just turn back the clocks and do it all over again?",
      "time": "2009-10-30T10:58:32",
      "id": "21344921"
    },
    {
      "threadId": "42523486",
      "post": "This sounds like it was an amazing event!! I'm so sorry I couldn't make it. :(",
      "time": "2009-10-30T03:50:40",
      "id": "21333149"
    },
    {
      "threadId": "42128685",
      "post": "Amber and I both watched it and loved it. We are going to share it with the Ning network I made for her school (and other schools that I'm trying to get onboard). \n\nGreat job Violette!",
      "time": "2009-10-28T11:59:22",
      "id": "21169078"
    },
    {
      "threadId": "17223306",
      "post": "Having had two leave the nest already (well, one is still attached with gossamer strings), I can say that is the best approach to take. Give them the tools they need, then let them fly! The more mistakes they can make under your wing, the less they will have to make when flying on their own.",
      "time": "2009-09-06T18:09:41",
      "id": "16066327"
    },
    {
      "threadId": "32995957",
      "post": "I think you are spot on Chris, with the additional caveat that startabuzz brings up. You really have to know the right method for the person you are contacting. There are certain people I will only email, others only Twitter and still other that I can only reach by phone. Personally, I am very happy when others understand the rules and choose the correct the level of interruption for the importance of the message, but often they don't.",
      "time": "2009-09-06T15:38:21",
      "id": "16062363"
    },
    {
      "threadId": "25488753",
      "post": "Amazing to look at this photo and see how much he has aged already since this photo (taken January 8, 2008)",
      "time": "2009-08-28T02:55:05",
      "id": "15512376"
    },
    {
      "threadId": "9531275",
      "post": "Wow, I just found this. Thanks for thinking of me and sorry I'm getting here so late. I hope things are going well for you. I'm sure you are way past this number and more by now. :)",
      "time": "2009-06-18T00:32:43",
      "id": "11068810"
    },
    {
      "threadId": "17710774",
      "post": "Awww.... :) I want one.",
      "time": "2009-05-09T17:23:34",
      "id": "9160780"
    },
    {
      "threadId": "17510282",
      "post": "Well, yeah... D'uh! ;)",
      "time": "2009-05-07T16:22:06",
      "id": "9096033",
      "parentPost": "Nice. Did you come up with dessert having two ss, because you always  \r\nwant a second helping too?\r\n\r\n:-)",
      "parentPostTime": "2009-05-07T04:57:17",
      "parentPostId": "9084200"
    },
    {
      "threadId": "16618602",
      "post": "Some day Todd... Some day. :)",
      "time": "2009-04-28T14:07:14",
      "id": "8774602",
      "parentPost": "I've often wondered how many folks would recognize me from Flickr.  It'd be funny to have that happen. What is good though is to have folks I do plan to meet know who I am instantly from all of the pictures I share.  They also already recognize my wife. :)",
      "parentPostTime": "2009-04-28T14:01:58",
      "parentPostId": "8774471"
    },
    {
      "threadId": "8770113",
      "post": "Excellent article! A must for all people new to Twitter.\r\n\r\nOne thing I would add... If you really want to have someone follow you back, start a conversation with them. I know I have enough people that I follow already. I don't need to follow anyone who is not going to add value to my world.",
      "time": "2009-01-06T04:34:32",
      "id": "4925869"
    },
    {
      "threadId": "1335993",
      "post": "I like it! Nice job. :)",
      "time": "2008-11-24T05:18:17",
      "id": "3978534"
    },
    {
      "threadId": "5984819",
      "post": "Excellent article! Very well documented thought process that led to the decision to endorse Barack Obama. Having listened to and photographed the candidates for the past year, I do not understand who someone who does not look at the facts and personally listen to the men speak would choose any other than Barak Obama.\r\n\r\nThe thing I find most scary today is the amount of ignorance in this country where people will believe whatever they are told and do not bother to do the homework themselves.",
      "time": "2008-10-19T13:02:37",
      "id": "3155437"
    },
    {
      "threadId": "5586284",
      "post": "CONGRATULATIONS!! :)\r\n\r\nBig type for a big HURRAH!\r\n\r\nI was just thinking yesterday of getting a Wii Fit. I hear they are hard to get though.",
      "time": "2008-10-10T02:02:15",
      "id": "2973441"
    },
    {
      "threadId": "3450441",
      "post": "Excellent post Todd! As for me, the thing I am going to do to follow my dreams is to follow them straight off to bed.\r\n\r\nTomorrow is another day...",
      "time": "2008-08-21T02:46:54",
      "id": "1712337"
    },
    {
      "threadId": "3179318",
      "post": "So ... When does the top go??  ;)\r\n\r\nI paid my dues.",
      "time": "2008-08-17T21:20:26",
      "id": "1575526"
    },
    {
      "threadId": "2139791",
      "post": "Then Koontz is a good choice. I don't remember what I have read by him off the top of my head. I'll give it some thought and let you know.  I think one was <u>Dragon Tears</u>",
      "time": "2008-07-26T03:46:54",
      "id": "1006688"
    }
  ],
  "profileInfo": {
    "username": "tracylee",
    "about": "Photographer, Married to a wonderful man, mother to four children of various ages and grandmother to one fabulous little boy!",
    "name": "Tracy Lee",
    "disable3rdPartyTrackers": false,
    "isPowerContributor": false,
    "isAnonymous": false,
    "rep": 1.259294,
    "profileUrl": "https://disqus.com/by/tracylee/",
    "url": "http://flickr.com/tracylee",
    "reputation": 1.259294,
    "location": "New Hampshire",
    "isPrivate": false,
    "signedUrl": "http://disq.us/?url=http%3A%2F%2Fflickr.com%2Ftracylee&key=lYH5x6UEU2WPviuK7S7u4Q",
    "isPrimary": true,
    "joinedAt": "2008-07-26T03:35:56",
    "id": "68901",
    "avatar": {
      "small": {
        "permalink": "https://disqus.com/api/users/avatars/tracylee.jpg",
        "cache": "//a.disquscdn.com/uploads/users/6/8901/avatar32.jpg?1281549414"
      },
      "isCustom": true,
      "permalink": "https://disqus.com/api/users/avatars/tracylee.jpg",
      "cache": "//a.disquscdn.com/uploads/users/6/8901/avatar92.jpg?1281549414",
      "large": {
        "permalink": "https://disqus.com/api/users/avatars/tracylee.jpg",
        "cache": "//a.disquscdn.com/uploads/users/6/8901/avatar92.jpg?1281549414"
      }
    }
  }
}