{
  "comments": [
    {
      "threadId": "4610521399",
      "post": "FYI - SendGrid has a free plan as well, which allows you to send up to 12,000 emails per month.",
      "time": "2016-02-25T16:44:27",
      "id": "2534872635"
    },
    {
      "threadId": "4610621382",
      "post": "FYI for your spreadsheet - SendGrid does have a free plan with 12,000 emails per month.",
      "time": "2016-02-25T16:38:46",
      "id": "2534862333"
    },
    {
      "threadId": "3258496975",
      "post": "I go back and forth. I do a lot of client work in WordPress, mostly because it's the software non-technical software have heard of somewhere. There are a few interesting things going on with it, like the <a href=\"https://wordpress.org/plugins/json-rest-api/\">rest API</a>, but other things have been getting my attention lately.\n\nThe <a href=\"https://buildwithcraft.com/\">Craft</a> CMS uses PHP and MySQL like WordPress, but offers flexibility without the workarounds and kludges.\n\nAnd I have to admit, I've been <strong>really</strong> interested in the latest versions of Microsoft's web stack. C# + ASP.NET 5 + MVC 6 looks like a really good combination, especially now that they're open sourcing things and allowing them to run on OS X and Linux in addition to Windows.\n\n\n\nI haven't looked at Flask for quite awhile, but it looks nice. Python is the bomb.",
      "time": "2015-04-10T02:58:24",
      "id": "1956607042",
      "parentPost": "I've been playing around with Flask/Python lately.  I've decided to not go back into the land of Wordpress.",
      "parentPostTime": "2015-04-10T02:29:31",
      "parentPostId": "1956578691"
    },
    {
      "threadId": "2851676998",
      "post": "That's a really good idea. I think I remember Marco saying that he had the ability to load and play arbitrary files enabled in some of his development versions, but obviously he hasn't made that available to the public (yet).\n\nMy workaround for this is to drop an mp3 into dropbox, grab the public link for it, then add it to my <a href=\"https://huffduffer.com/\">Huffduffer</a> feed, which Overcast visits an few minutes later and then grabs the file. Not a great solution, but it gets the job done.",
      "time": "2015-02-23T04:20:57",
      "id": "1870199738",
      "parentPost": "I've only had Overcast a few days, but I'm already loving the audio features. My greatest frustration is that I can't also use those features with audiobooks. It'd be great if the app could accept an M4b audiobook, perhaps by placing it in Dropbox folder and importing it from there. It could be treated as a podcast.\n\n\nI already know that importing from Dropbox works. That's how I got my OPML podcast list from iTunes in my Mac into Overcast. I placed it in a Dropbox folder. Then I opened the Dropbox app on my iPhone and one of the options was to Open in Overcast. \n\n\nEven better would be if Overcast could open files in Dropbox directly.",
      "parentPostTime": "2015-02-22T23:38:49",
      "parentPostId": "1869866442"
    },
    {
      "threadId": "2742473773",
      "post": "Information overload? Not really. I have them sorted in a priority system, so the ones I listen to the most automatically go to the top of the list. The others I usually ignore unless I've already played my favorites or I'm looking for something a little different.",
      "time": "2014-07-09T20:27:58",
      "id": "1477683754",
      "parentPost": "50 different podcasts?!  Do you ever fee information overload. Or feel like you might dilute some thought gems in a sea of interesting things? ",
      "parentPostTime": "2014-07-09T18:17:29",
      "parentPostId": "1477225590"
    },
    {
      "threadId": "1137476608",
      "post": "I'm currently using Feedly, but am willing to give Digg Reader another try. It's iPhone app was a mess out of the gate, while Feedly works well with Reeder, which I previously used with Google Reader.",
      "time": "2013-09-10T03:34:07",
      "id": "1036615550",
      "parentPost": "digg and feedly are there on my browser, but not oft used.",
      "parentPostTime": "2013-09-10T03:30:07",
      "parentPostId": "1036608756"
    },
    {
      "threadId": "603405008",
      "post": "My wife and I thought this one was ridiculous when it came out last month. \"I found the canned peach slices appealing\". I had trouble getting past that sentence.",
      "time": "2012-03-08T20:16:42",
      "id": "460033249",
      "parentPost": "Hagerty also reviewed Pizza Ranch recently: http://www.grandforksherald.com/event/article/id/228788/publisher_ID/40/",
      "parentPostTime": "2012-03-08T16:32:38",
      "parentPostId": "459865177"
    },
    {
      "threadId": "505570527",
      "post": "If you haven't read it already, I suggest taking a look at the <a href=\"\nhttp://www.businessweek.com/printer/magazine/lego-is-for-girls-12142011.html\">Businessweek article</a> NPR linked to in their post. Long story short, Lego has spent four years researching, designing, and testing the <em>Lego Friends</em> line for girls - including extensive anthropological studies of how kids play.  They ended up finding some big differences in boys and girls. A key excerpt:\n----------------------\n<blockquote>\nEncouraged by what it had learned about boys, Lego sent its team back out to scrutinize girls, starting in 2007. The company was surprised to learn that in their eyes, Lego suffered from an aesthetic deficit. “The greatest concern for girls really was beauty,” says Hanne Groth, Lego’s market research manager. Beauty, on the face of it, is an unsurprising virtue for a girl-friendly toy, but based on the ways girls played, Groth says, it came, as “mastery” had for boys, to stand for fairly specific needs: harmony (a pleasing, everything-in-its-right-place sense of order); friendlier colors; and a high level of detail.\n\n“It was an education,” recalls Fenella Blaize Holden, an under-30 British designer, on the process of getting Lego Friends made. “No one could understand, why do we need more than one handbag? So I’d have to say, well, is one sword enough for the knights, or is it better to have a dagger, too? And then they’d come around.”\n\nLego confirmed that girls favor role-play, but they also love to build—just not the same way as boys. Whereas boys tend to be “linear”—building rapidly, even against the clock, to finish a kit so it looks just like what’s on the box—girls prefer “stops along the way,” and to begin storytelling and rearranging. Lego has bagged the pieces in Lego Friends boxes so that girls can begin playing various scenarios without finishing the whole model. Lego Friends also introduces six new Lego colors—including Easter-egg-like shades of azure and lavender. (Bright pink was already in the Lego palette.)\n\nThen there are the lady figures. Twenty-nine mini-doll figures will be introduced in 2012, all 5 millimeters taller and curvier than the standard dwarf minifig. There are five main characters. Like American Girl Dolls, which are sold with their own book-length biographies, these five come with names and backstories. Their adventures have a backdrop: Heartlake City, which has a salon, a horse academy, a veterinary clinic, and a café. “We had nine nationalities on the team to make certain the underlying experience would work in many cultures,” says Nanna Ulrich Gudum, senior creative director.\n\nThe key difference between girls and the ladyfig and boys and the minifig was that many more girls projected themselves onto the ladyfig—she became an avatar. Boys tend to play with minifigs in the third person. “The girls needed a figure they could identify with, that looks like them,” says Rosario Costa, a Lego design director. The Lego team knew they were on to something when girls told them, “I want to shrink down and be there.”\n\nThe Lego Friends team is aware of the paradox at the heart of its work: To break down old stereotypes about how girls play, it risks reinforcing others. “If it takes color-coding or ponies and hairdressers to get girls playing with Lego, I’ll put up with it, at least for now, because it’s just so good for little girls’ brains,” says Lise Eliot. A neuroscientist at the Rosalind Franklin University of Medicine and Science in Chicago, Eliot is the author of Pink Brain Blue Brain, a 2009 survey of hundreds of scientific papers on gender differences in children. “Especially on television, the advertising explicitly shows who should be playing with a toy, and kids pick up on those cues,” Eliot says. “There is no reason to think Lego is more intrinsically appealing to boys.”\n</blockquote>\n----------------------\nMy initial reaction to hearing about Legos for girls was the same as yours, but this article changed my mind. I just know that I'd rather have my daughter play with a Lego Friends set instead of Barbie dolls.",
      "time": "2011-12-15T21:15:02",
      "id": "387563193"
    },
    {
      "threadId": "400129768",
      "post": "Jesus - that's always been a fear, but I can't imagine it _actually_ happening, you know? \n\nGrand Forks isn't very friendly for cyclers yet, but thankfully most of my route to work is on a designated bike route with very little interaction with vehicles. I _do_ need to do a better job of wearing my helmet though, because I get lazy and leave it in the garage sometimes.\n\nGood tip about the shotgun too.",
      "time": "2011-09-24T14:35:50",
      "id": "318980007",
      "parentPost": "I  was biking for 90% of my travel from about Aug 2010 to Feb 2011.  Then I got hit by a car.  (circumstance:  I was blazing down the sidewalk, due to lack of bike lane, wasn't paying attention, and neither was the driver)  It took me 6 months to get back on and now I've been using it for only 25%.  Anyway some advice:  Wear a helmet; use lights; and carry a shotgun; and what the hell, mount one to the bicycle too.   ",
      "parentPostTime": "2011-09-24T14:23:09",
      "parentPostId": "318969298"
    },
    {
      "threadId": "378056502",
      "post": "Boing Boing <a href=\"http://boingboing.net/2011/07/24/bb-gets-wordpress-disqus-new-machines.html\">recently</a> moved over to WordPress, so they're no longer using Movable Type.",
      "time": "2011-08-31T20:23:52",
      "id": "299876400"
    },
    {
      "threadId": "306694448",
      "post": "Ha. Thanks for the tip.\n\n(NOT written on a Cr-48)",
      "time": "2011-05-19T19:26:35",
      "id": "207283993",
      "parentPost": " It turns out deleting is \"alt-backspace\". I just found that out myself. seems dumb. \n\nWritten slowly on a CR-48.",
      "parentPostTime": "2011-05-19T19:25:08",
      "parentPostId": "207283283"
    },
    {
      "threadId": "266320766",
      "post": "Ev is a three-time founder by my count:\n1. Blogger\n2. Odeo\n3. Twitter",
      "time": "2011-03-30T02:29:18",
      "id": "174599669"
    },
    {
      "threadId": "156701123",
      "post": "I had to give <a href=\"http://twitter.com/#!/scottsimpson/status/16411947200\">this tweet</a> from @scottsimpson a big ol' star when I read it:\n\n\"My new standard of cool: when I'm hanging out with you, I never see your phone ever ever ever.\"\n\nI'll get there someday.",
      "time": "2010-10-17T02:48:39",
      "id": "87517520"
    },
    {
      "threadId": "145433873",
      "post": "A good rule for sites selling audio/video: if it's faster or easier for customers to get the same content on bittorrent or similar sites/services, you're probably doing it wrong, and need to start over. ",
      "time": "2010-09-23T01:55:53",
      "id": "80193531"
    },
    {
      "threadId": "135591954",
      "post": "It looks like you can combine Priority Inbox and filters to always or never mark certain types of messages as important: http://mail.google.com/support/bin/answer.py?hl=en&answer=186541",
      "time": "2010-08-31T05:42:39",
      "id": "73330693"
    },
    {
      "threadId": "125518055",
      "post": "Maybe you missed it, but back on June 1st, Andy Rubin of Google/Android <a href=\"http://techcrunch.com/2010/06/01/android-chief-andy-rubin-updates-will-eventually-come-once-a-year/\">said they will be moving to a yearly update cycle</a>: \n\n\"Our product cycle is now, basically twice a year, and it will probably end up being once a year when things start settling down, because a platform that’s moving — it’s hard for developers to keep up. I want developers to basically leverage the innovation. I don’t want developers to have to predict the innovation.\"\n",
      "time": "2010-08-03T15:43:49",
      "id": "65862152"
    },
    {
      "threadId": "108695945",
      "post": "Is $11 really that much to support the developers of software we use and get a real benefit from? I'm all for free software, but I also think it's important to support the developer community if I want to see it grow and thrive.",
      "time": "2010-06-21T20:25:17",
      "id": "57938572"
    },
    {
      "threadId": "13819837",
      "post": "Thanks for the head's up on the NET Bible. I recently finished The Teaching Company's \"Story of the Bible\", so I'm really interested in the process of translation and interpretation. \r\n\r\nIt's great to see a completely new translation done with honesty and accuracy as the primary goals. ",
      "time": "2009-03-30T15:53:21",
      "id": "7634748"
    },
    {
      "threadId": "1923728",
      "post": "Phil:\r\n\r\nJust wanted to say thanks for your code here. I just added this plug-in to my blog, and remembered your seeing your post about hacking it for bit.ly support earlier this year, so I hunted it down.\r\n\r\nHave you seen that they have version 2.0 of their API out now? If you have a bit.ly account, it looks like you can have it submit the URL under it for easier tracking.\r\n",
      "time": "2008-11-14T15:55:14",
      "id": "3771850"
    },
    {
      "threadId": "1814215",
      "post": "Thanks for sharing - there's a lot of great info and advice in that list.",
      "time": "2008-07-11T15:18:47",
      "id": "865180"
    }
  ],
  "profileInfo": {
    "username": "berberich",
    "about": "",
    "name": "Jason Berberich",
    "disable3rdPartyTrackers": false,
    "isPowerContributor": false,
    "isAnonymous": false,
    "rep": 1.264166,
    "profileUrl": "https://disqus.com/by/berberich/",
    "url": "http://berbs.us",
    "reputation": 1.264166,
    "location": "Grand Forks, ND",
    "isPrivate": false,
    "signedUrl": "http://disq.us/?url=http%3A%2F%2Fberbs.us&key=ll1gJ4SOARZMuarh9hrrog",
    "isPrimary": true,
    "joinedAt": "2008-07-11T15:18:47",
    "id": "59207",
    "avatar": {
      "small": {
        "permalink": "https://disqus.com/api/users/avatars/berberich.jpg",
        "cache": "//a.disquscdn.com/uploads/users/5/9207/avatar32.jpg?1456418668"
      },
      "isCustom": true,
      "permalink": "https://disqus.com/api/users/avatars/berberich.jpg",
      "cache": "//a.disquscdn.com/uploads/users/5/9207/avatar92.jpg?1456418668",
      "large": {
        "permalink": "https://disqus.com/api/users/avatars/berberich.jpg",
        "cache": "//a.disquscdn.com/uploads/users/5/9207/avatar92.jpg?1456418668"
      }
    }
  }
}