{
  "comments": [
    {
      "threadId": "4388137492",
      "post": "He was doing things in his classroom 8-10 years ago that people would consider innovative today. But beyond that, he was just a wonderful human being! Bob, you will be missed, but you will be remembered... ",
      "time": "2015-12-10T05:55:23",
      "id": "2402672734"
    },
    {
      "threadId": "4228363873",
      "post": "Great article!\n\nWhile I see that all of the things you mention 'matter', what seems to matter most these days is that 'mob rules' circumvent all that matters. I'm not sure how to combat trollers that want nothing more than to jump on the bandwagon and attack people for poor choices. The irony is when I see attacking hate with hate or worse yet violent threats. And the most challenging part of it is that these responses seem to be done by people who have no concern over the negative digital footprint they are leaving behind. \n\nWhat can be done to circumvent this? I don't know, and what's worse, I see people who try end up being targets themselves, like Josh Olin: http://www.gamespot.com/articles/former-evolve-community-manager-shares-his-side-of/1100-6432171/\nPerhaps the framework you speak of is critical. Get the message to as many students as possible and maybe we will see a kinder, gentler internet of things in the near future! :)",
      "time": "2015-11-16T04:44:16",
      "id": "2361903888"
    },
    {
      "threadId": "3287110462",
      "post": "Gord Holden works with immersive technology/virtual worlds and he has shared with me on more than one occasion that with his high flyers he finds that rubrics and exemplars end up setting the bar too low... That rather than showing them 'targets' that they will meet, he let's them soar without the parameters that an exemplar might suggest. \nThis is by no means a statement against exemplars being appropriate sometimes, but certainly recognizes that exemplars can actually limit the expectations and create false targets when working on big 'messy' projects. ",
      "time": "2014-12-11T04:58:13",
      "id": "1736286746"
    },
    {
      "threadId": "2854519941",
      "post": "Love the innovation conference idea, just remember to look at innovation within as well as from outside. \nI'm looking at running some small events in our district next year to share pockets of brilliance that are happening in classrooms & schools. Nothing that big, but highlight innovation and 'stuff that works' from teachers that don't usually get a spotlight on them, but probably should. \nLooking outside of edu would also be good, especially to the maker and hacker communities and businesses that are small, agile, and local. Thanks for helping me think beyond the scope that I was!",
      "time": "2014-07-20T20:23:37",
      "id": "1494509600"
    },
    {
      "threadId": "2614061982",
      "post": "Technology has shifted from games and tools that used to isolate us, to social connections that extend our reach. \n\nI started to really connect with you on Connected Principals... While I was living in China! \n\nI shared each of your personal stories mentioned above, and in the few times we've met f2f I have shared stories with you as I would with a friend I've known 'forever'. How different that would have been 20 years ago... And no, we likely wouldn't have been pen pals! ;)",
      "time": "2014-04-18T06:14:46",
      "id": "1344398049"
    },
    {
      "threadId": "2610619922",
      "post": "Great perspective Justin!\nI remember when I was in China and faced an interesting challenge dealing with an email from a parent at my school. I was flabbergasted and had no idea how to respond? I sent an email out to a handful of principals I knew... 3 colleagues and friends from 'back home' and 4 from Twitter - none of whom I'd met face-to-face at that point (but have met in the 3 years since). \nThe advice was equally as good from all of them! My point: I had 'go to' people I could both count on and trust the opinions of, and geography didn't matter. Knowing them f2f didn't matter either. What mattered was that I valued and trusted them as wise advisors because of a personal connection to them... Through face to face interactions and friendships as well as online ones. \nI think that used well, connections of trust and understanding can develop on Twitter but it takes effort. You have quickly become someone whom I value and pay attention to, with your email updates being one of the few that get pushed to me. But it has been blog comments and a few emails that have helped to build that relationship... Not just tweets.\n~Dave",
      "time": "2014-04-14T13:23:10",
      "id": "1335711673"
    },
    {
      "threadId": "2543099626",
      "post": "Not sure if I should apologize for the socks or the Canucks, but unless you are wearing shorts or going pantless no one will know:)",
      "time": "2014-03-31T16:56:28",
      "id": "1312006980",
      "parentPost": "Totally. FYI, I wore your socks today. ",
      "parentPostTime": "2014-03-30T19:35:36",
      "parentPostId": "1310957619"
    },
    {
      "threadId": "2251409206",
      "post": "Hi Vicki,\nYou reminded me of a post I wrote about a new social-emotional tragedy of the commons we seem to be experiencing:\nhttp://pairadimes.davidtruss.com/a-new-tragedy-of-the-commons/\n\nAs I read your post a couple questions came to mind:\n1. How do we reduce the influence of big media and commercialization on our younger students? \n2. Do we need to 'bring back' anything, or is the issue that we need to 'go forward' and develop a (counter-culture?) new way valuing and sharing what is good in world? I think that sometimes we romanticize what used to be, but can never really get back to. \nThanks for sharing this, I will be reflecting on my own influence as a result! ~ Dave",
      "time": "2014-02-16T17:47:14",
      "id": "1246970385"
    },
    {
      "threadId": "2033124686",
      "post": "What's really interesting about supporting byod with providing students in need is that time & again I read about how well those devices are taken care of. \nAs an aside, I'm a fan of BYOL (laptop or some of the newer tablets) and BYOOD - Bring Your Own Other Device... I don't think equity is meaningfully supported when one student has a laptop and another just has an old iPod Touch. For now, my bias is multi-tasking devices and keyboards... That may change as devices get smarter & students grow up maximizing the production/creation of work on lesser devices. \n~Dave\nPs. Case-in-point - This comment took me more than twice as long to do on my phone & had I not copied the text in the Feedly app before signing into Disqus & having it disappear on me, I would have lost it and needed to start over, (bitten by this before).",
      "time": "2013-12-07T17:54:27",
      "id": "1154180438"
    },
    {
      "threadId": "1912772943",
      "post": "I wrote a post about how I've flipped Pro-D:\n http://pairadimes.davidtruss.com/pro-d-flip/\nI no longer feel I've completed a professional development session until I've blogged about it. In fact, I had some great sessions I attended on Friday and the 'work' doesn't feel complete because I haven't yet formulated my thoughts on the topic. It is amazing how this process brings the content and the learning alive! ",
      "time": "2013-10-29T03:48:36",
      "id": "1100403410"
    },
    {
      "threadId": "1894876035",
      "post": "Great insight George. Just a little pushback on 'saving time'. I think sometimes things that are easier for educators are perceived as better for students, and a lot of things that 'save time' are actually not what is best for kids. Further to that, often trying something new (and different) is front-end loaded with effort and learning and time consumption, so again the 'saving time' message is not perceived or well received. \nThat said I love the concept of different, not more (such as more formative assessment, less grading of tests and quizzes). I also love the idea that different may not be better and that we need to be asking ourselves 'is this better for our students?' as we try different strategies and tools. \n~Dave ",
      "time": "2013-10-24T14:34:24",
      "id": "1095146086"
    },
    {
      "threadId": "1521013002",
      "post": "I wrote about, and created an image for, my Pro-D (PD) Flip a while back: http://pairadimes.davidtruss.com/pro-d-flip/ \nEven before I hit 'publish' I felt something was missing... And I see now that it is relationships. I've created some pretty meaningful connections through online activity, primarily my blog & twitter, but those PD opportunities that I've had with these same people have been incredibly powerful! They in-turn have introduced me to others that I then continue the learning with online, long after we've met for a PD function. \n\"Who owns the learning?\" is often asked of teachers about their students. Why isn't this asked of teachers and their learning experiences? To me, if a teacher can't model this, if it isn't embedded in what they do, then how do we expect them to model it and expect them to nurture it in students? We are thankfully past the era of 'do what I say and not what I do', and the more I read and learn, the more I realize that teachers are not in the teaching business, they are in the learning business.  ~And like you, I find that we use the wrong words all the time... Teaching and learning is not a business, I'm just not sure how else to express that? \nCheers, Dave ",
      "time": "2013-07-23T15:08:15",
      "id": "973478465"
    },
    {
      "threadId": "1518198170",
      "post": "George,\nI have a lot of things still to learn as a leader, but this is one I've been able to follow through with a few times. It's such a powerful thing to do... With students as much as with adults. Great story to make the point, thanks for sharing!\n~Dave",
      "time": "2013-07-21T23:37:19",
      "id": "971719277"
    },
    {
      "threadId": "1500249492",
      "post": "I really enjoy http://ChrisWejr.com & http://cultureofyes.ca for insight with heart (as well as http://GeorgeCouros.ca but I know he's on your list). I can say the same for my newest addition http://RoyanLee.com\nVideo blogging has also captured me but mostly because I'm a fan of the people doing them, whom I've grown to know over time. Check out Darren Kuropatwa and Rodd Lucier on Socialcam. They both keep me thinking. \nLooking forward to checking out more additions to this list.  ",
      "time": "2013-07-16T14:42:48",
      "id": "964352915"
    },
    {
      "threadId": "1047237491",
      "post": "I'm still hung up on laptops/keyboards/multi-tasking devices. I'm a big fan of ByoLaptop along with an option to BYOD -> Bring Your OTHER Device(s)... ",
      "time": "2013-04-13T04:48:30",
      "id": "861642840"
    },
    {
      "threadId": "1163713834",
      "post": "Excellent point Scott Beasley.\n\n If you follow the link in the \"Literacy, Applied\" box above, you can see the course learning outcomes which include these: (Unit 4)\n\n* Analyze, evaluate and select the appropriate digital tools for a particular stage of inquiry\n* Demonstrate overtly the innate human drive to being an inquiry learner – connect/wonder, investigate, construct, express and reflect\n* Effectively utilize a research process when investigating an inquiry\n* Independently and strategically manage/control inquiry skills toward a particular goal or purpose\n* Evaluate the authenticity and reliability of information\n* Seek out and engage with mentors and experts\n\nOne question I have for you as well as for Sue Osborne is, other than practicing these skills of sifting information with students, using student driven (authentic) questions, how do we 'teach' such skills?",
      "time": "2013-03-30T04:50:36",
      "id": "846786357",
      "parentPost": "Scott: in the Library world we call that information literacy and we teach it alongside digital literacy, as well as note-taking skills. Not only do people need to know how to locate and sift through information, they also need to know how to interpret the information into their own notes as well. I agree with you, the information literacy and digital literacy instruction should go hand in hand.",
      "parentPostTime": "2013-03-27T21:55:30",
      "parentPostId": "844319322"
    },
    {
      "threadId": "927659047",
      "post": "This post would have taken me an hour, maybe an hour-and-a-half. I'm a 'slow blogger' and so I can relate to others that find writing challenging. Still, I do it because so many ideas get flushed out through comments and feedback if not simply by the process of trying to share the ideas 'out loud'.\n\nAs an alternative, I really like Darren Kuropatwa's 'While Walking' video blog: http://www.youtube.com/playlist?list=PLWR3gmxq_cOU_MrfZFthZxodRrtWzr-wk&feature=plcp The are usually 1.5 to 3 minutes and worth watching. The main challenge with this format is searchability for future reference.",
      "time": "2012-11-16T14:10:39",
      "id": "711781651"
    },
    {
      "threadId": "898628565",
      "post": "My thoughts about this 'tech tool that works': http://pairadimes.davidtruss.com/classes-of-donkeys/ Not sure that I'd put this in that category, and even your own 'Varying Experiences' would suggest the same.",
      "time": "2012-10-30T17:11:14",
      "id": "696320425"
    },
    {
      "threadId": "864249222",
      "post": "Sorry, not based on research, but rather on a blog post: http://pairadimes.davidtruss.com/transformative-or-just-flashy-educational-tools/ ~ The 6 items here and a 7th, 'Play', inspired by a David Warlick comment. ",
      "time": "2012-10-01T03:12:38",
      "id": "667234169"
    },
    {
      "threadId": "793393555",
      "post": "I love the idea of finding 'peace with the pit'! I don't want to ever lose that feeling. I lost it as a wedding photography (a past hobby of mine)... I was heading to about my 70th wedding & realized I wasn't nervous, and thus the acute alertness that came with the nerves wasn't there. It was really hard to be excited about wedding photos after that. \nWith blogging, I haven't lost that feeling before I hit 'Publish' but I have found myself in a rut recently. Thanks for the metaphor, I think finding 'peace with the pit' will help me get past the slump I've been feeling... Writing posts in my head that I never put to digital ink.\n~Dave",
      "time": "2012-09-06T14:19:57",
      "id": "641985338"
    },
    {
      "threadId": "747790961",
      "post": "Hey Doug,\nI noticed that when I click on your badge, your identification is your email address. What if everyone were given their life-long 5 letter code? The badges could have that code on them, making them unique to the owner, and with all other verification being the same you won't have to share something as personal as an email address.\nPerhaps I don't know enough about this, but just thinking out loud.\nDave. ",
      "time": "2012-07-02T06:05:14",
      "id": "574009556"
    },
    {
      "threadId": "729299109",
      "post": "I haven't read Seth Godin's book Tribes yet, but I  think it needs to be a summer read.  Enjoyed the  Rodney Mullin TED talk and really see parallels to education. Not sure I would have watched it without it being shared, and really appreciated seeing it ~ Thanks!\n\n\"Our voices become more authentic, our lives become more transparent, and our relationships become more meaningful.\" \n\nIt is the authentic nature of the connections that are probably the surprising thing to people that 'don't get it'... I keep going back to the idea that geography has lost its' hold as a relationship barrier. It would seem that geography has been replaced by connectivity as a barrier. If we have the ability to connect, we can find those common bonds that attract people around ideas, beliefs and common experiences which build in authenticity to the people we connect with. Be it blogs, Twitter or social networks, or even Skype, we are sharing so much more of ourselves and in sharing, we extend our 'true' selves in ways we never have before. \n\n\nThe only cautionary concern that I have is in people looking beyond there physical communities (such as those in their own school) while those very same colleagues in our schools are reaching out and looking for the connections we couldn't find when we felt the same way. ",
      "time": "2012-06-18T13:37:28",
      "id": "561000344"
    },
    {
      "threadId": "722772150",
      "post": "Wonderful! I didn't see the value until I became more of a lurker myself. Recently I've had way less time for Twitter and Blogging and yet I still follow hash tags and throw things out there... but I do this in waves, and while there is an ebb between the waves, I'm actually still there, lurking, clicking links and opening up tabs to look at and read later. \nI was just recently asked to show twitter to a few people and the first thing I thought I'd do is set them up following some hashtags on Flipboard for their iPads. \"There is power in lurking.\" ~Absolutely! ",
      "time": "2012-06-12T15:23:47",
      "id": "555249434"
    },
    {
      "threadId": "708195159",
      "post": "Duly noted. My point, which perhaps wasn't clear, is that there is a huge appeal for corporate/private creation of learning analytics software to be sold as the next best thing. Either instead of textbooks or as embedded parts of a digital textbook. Money that will, in the coming years, be inappropriately spent by schools & districts. This is a fear I have, and your comment only reinforces why this is a scary thought. ",
      "time": "2012-05-30T23:41:07",
      "id": "542389685",
      "parentPost": "Aside from being a vulgar fetish, learning analytics is complete nonsense. Khan is selling a poor implementation of Math Blaster based on the misguided notion that learning is sequential and that you can't have your pudding until you've eaten your vegetables.\n\nAside from his profound ignorance of how learning occurs and his remarkable contempt for educators, I marvel at the fact that Khan knows so little about 1) software design; 2) that drill and practice and integrated \"learning\" systems have been the holy grail since WW II and 3) that these efforts have largely failed educationally and financially. \n\nSo, for the record, he knows too little about learning, sound pedagogical practice, the history of school reform, software development AND business.",
      "parentPostTime": "2012-05-30T22:58:02",
      "parentPostId": "542355639"
    },
    {
      "threadId": "654750498",
      "post": "Great stuff Dean!\nI let Grade 10's assess themselves in Planning. All my feedback was anecdotal. For their midterm & final grades (required for report cards) I gave them a survey asking them to share their best work, and something they could improve on, and the mark they thought they deserved, (among a few other questions). 59 students in two classes, and I had a challenging conversation with 4 of them about their chosen marks... 3 to discuss if their work demonstrated such a high mark, one because it was too low. \nOne IB student told me that this was his lowest mark (although still an 'A'). I asked if he wanted to redo anything and he declined, but wanted me to know. \nIt was my first attempt, the assignments and delivery was a bit messier than I would have liked, but it worked and with Grade 10's:)\nI was promoted after that semester, and haven't taught a course since, but I get to do so next September at our new Inquiry Hub... Your Assignment link is going to come in handy. \nThank you,\nDave. ",
      "time": "2012-04-19T02:53:16",
      "id": "501489360"
    },
    {
      "threadId": "652115788",
      "post": "I opted my kids out of the FSA testing at Grades 4 & 7 this year, here in BC, Canada. Although not a high stakes test, it is a test that is used to rank schools. Teachers oppose the test, and thus do not use the test data in any way.  I have a hard time with subjecting students, my kids, with tests that are not used as assessment of/for learning... Especially when the data is used for unfair, one-dimensional ranking. A colleague & good friend is one of the principals I wrote to, and one of my daughter's teachers is a teacher I worked with & truly respect... This isn't personal, it's a principled decision.\n\nI congratulate you for not just your choice, but your voice... Thanks for making this personal decision so public! \n\n\nDave\nPs. I didn't hold back any punches when I spoke up here, a few years ago: http://pairadimes.davidtruss.com/open-letter-to-fraser-institute/",
      "time": "2012-04-17T16:47:41",
      "id": "499944393"
    },
    {
      "threadId": "521665329",
      "post": "Hi Lee,\nWhen I talk about listing things in my posts I'm speaking of lists like this : http://pairadimes.davidtruss.com/transformative-or-just-flashy-educational-tools/\nI guess I could make the enclosed list the title of my post, but I don't really think that way. To be honest, when I started the post, I'm not sure I was going in the direction of a list... But there it is 6 things that could have been a good attention-grabbing title, and still a list despite the title. I think my realization is that 'Top 10 Lists' where the list has a 'magical' number to fill in the blanks doesn't work for me. \nDoes that make sense or am I talking out of my ear? :/",
      "time": "2012-01-01T20:58:11",
      "id": "398398635"
    },
    {
      "threadId": "460143531",
      "post": "Welcome to the blogosphere Martin... although as a truly valued commenter, it seems weird to say that to you. \n\nI have been on a little bit of a rant recently regarding the fact that so many people talk about how education is 'broken', and so it is really refreshing to hear this perspective. \n\nI'm a typical (immigrant) Canadian that agrees fully with you that we are privileged to be able to call this wonderful country home. \n\nI look forward to your PostDewey insights!\n~Dave",
      "time": "2011-11-02T20:31:19",
      "id": "354154044"
    },
    {
      "threadId": "421849767",
      "post": "I love this:\nDigital writing is still a fringe idea. As with most things, unless their writing and writing in online spaces, they'll simply see writing as a course to be taught and not as essential to being a human being in 2011.",
      "time": "2011-10-29T15:17:41",
      "id": "348805942"
    },
    {
      "threadId": "409259537",
      "post": "Thanks so much Vicki,\nThe simplicity of this is what I really enjoy... a nice easy formula to present ideas in a way where 'by design' we make things easier to read and/or more pleasing to the eye. \nNot sure why but no external critic has ever phased me, yet my internal critic is inescapable and still makes hitting the 'post' button difficult even 5+ years along! Keep sharing ANYWAY because you teach so many and so well:-) ",
      "time": "2011-09-10T16:25:41",
      "id": "306693859"
    },
    {
      "threadId": "395856061",
      "post": "How do you think this affects or should affect high schools?",
      "time": "2011-08-26T06:10:08",
      "id": "295717732"
    },
    {
      "threadId": "363872795",
      "post": "Kudos to you! I think too many teachers forget that principals start out as (and continue to be) educators and that they want to stay on top of what works and is effective. I believe that most administrators would appreciate teachers sharing enthusiastically with them and that approaches such as you suggest would be very well received.  \nThanks for sharing! ",
      "time": "2011-08-05T23:26:07",
      "id": "278905320"
    },
    {
      "threadId": "330750712",
      "post": "Truly humbled by the company you have put me with. \nThank you! ",
      "time": "2011-06-14T00:08:57",
      "id": "225158664"
    },
    {
      "threadId": "296487743",
      "post": "http://www.youtube.com/watch?v=YHZyrz0NcuE\n\n“The appropriate penalty for missing work, is getting the work done” ~ Dr. Douglas Reeves\n\nRaise the level of concern... make the kid do it at school. Same idea of holding them in and having a nice long conference with them to help them (which I mentioned in my comment). Do that a few times and it is easier for them to get the work done than to have to put up with your long supportive conferences. Keep at it and in the end... make them do the work.",
      "time": "2011-05-18T22:03:52",
      "id": "206411007",
      "parentPost": "Tom and David,\nI appreciate your comments about taking off marks, homework and how these do not help students become more responsible.  I hoped that was the premise of the post -- assuming students won't \"do it\" when points aren't in play.  Let's assume the assignment was co-created by the student and the teacher, and then Johnny decides he no longer wants to do it.  Beyond the \"develop a positive relationship\" fluffy rhetoric, what practical strategies can teachers share with each other?  ",
      "parentPostTime": "2011-05-18T18:41:03",
      "parentPostId": "206272762"
    },
    {
      "threadId": "290140400",
      "post": "Hi Darren,\n\nI find it interesting that my post & comments are something you consider 'groupthink'. You say,\n<i>\"Sadly, many members of our community have no idea what it really takes to write a dissertation or to complete a Ph.D.\"</i>\n\nHowever, I admit in this light-hearted post that my entire statement is an exaggeration, and that \"the focus and intent of my writing [on my blog] has been far from such a standard, and sure to be rejected as a dissertation.\" The post is more about the love of learning than about the quality of my work. \n\nThen comments on the post come from at least 2 people who have PhD's and one just about to start his dissertation. I'm sure they know what it takes to go through the process. Furthermore, the comments tend to disagree with me, calling my blog more like an e-portfolio and even 'a public diary with frequent readers'. \n\nI don't doubt that I am susceptible to groupthink at times and that it can indeed be evident other times in the edublogosphere, I just wonder about using this specific post & comments as an example of groupthink when it is evident that, firstly the post was written with intended humour & secondly there seems to be little agreement with it. I fail to see this is any kind of example of 'groupthink' and so look to you for insight. \n\n~Dave. ",
      "time": "2011-05-15T06:49:34",
      "id": "203933650"
    },
    {
      "threadId": "298012971",
      "post": "This is now attempt #3 at this comment. I'm challenged by this post.\n\nAttempt 1. Thought I'd share this post (& subsequent comments) regarding a tool is just a tool... it's how you use it that matters: http://pairadimes.davidtruss.com/transformative-or-just-flashy-educational-tools/...and so the terminology isn't important, the implementation is key.\n\nAttempt 2: That you are so right, the use of 'technology is just a tool' essentially downplays 'the significant potential and shift of emerging technologies'. ...and so the terminology is very important, it prevents the opportunities for implementation by downplaying significance. \n\nAnd now attempt 3: The real message of this post is the quote you shared: \n“If we change the vocabulary and consider schools as learning environments, however, it makes no sense to talk about them being broken because environments don’t break.”... we don't need to make repairs, we need to rebuild... construct something new, create 'learning spaces' that could never have been built before some of the technological tools that we now have. So, when you say, \n\"Of course we currently aren’t using technology to create learning environments at best we’re embedding them into our current system.\" ... you are essentially saying, we are still stuck in the 'tool is just a tool' paradigm. I wonder if the terminology doesn't still have a place...To call out the use of technology to promote old things in new ways? If the term is being used to downplay what's possible, I agree with you that it's worth probing for that reason. I just wonder if it isn't also a valuable term to identify when technology is being underutilized or used as candy-coated frosting?",
      "time": "2011-05-09T12:03:27",
      "id": "200086244"
    },
    {
      "threadId": "276147390",
      "post": "Great stuff Tom, \nI look forward to continuing the learning adventure with you at your new gig! ",
      "time": "2011-04-24T07:19:38",
      "id": "190986001"
    },
    {
      "threadId": "277498599",
      "post": "Hi Darren,\n\nThanks for your thoughtful response to my comment.\n\nI think that being open creates 'unintentional' by-products... yes we intentionally decide to be more open, but we don't know that it will make us so much more reflective, and we don't know that it will create convenience for us (when we start out, things actually tend to be harder). So you are correct in assuming that from <i>'being open, reflective practice is a natural consequence?'</i> (IMHO)\nAnd, you are also correct that 'closed' teachers do not find openness convenient... 'I mean, if everyone is sharing everything, how am I supposed to use the same tests I've used for the past 12 years?' ~ (uhhhg!) But, as you become more open and connected, it gets easier and easier, (read as more convenient), to share and reap the benefits of being in sharing networks and communities. \n\nHaving said all that, it is evident that my sentence in the comment above (and below) does not make its' intended message clear:\n<i>“Being “open” unintentionally changes us so that doing things in new ways isn’t just a possibility, but a necessity and a convenience. </i>\nMaybe:\n“Being “open” has some natural consequences which include being more reflective, and also developing networks and communities that are advantageous to teaching differently, and more effectively in a globally connected classroom. \n\nI think it still needs work, and I both value and like the pushback on the statements I've made. Great points of clarification that you've asked here!  ",
      "time": "2011-04-19T00:25:08",
      "id": "187208163",
      "parentPost": "I like your Manifesto, Dave, but am still a little unclear on the\r\n\"unintentional\" part.\r\n\r\nWhile some educators may naturally \"be open,\" others - arguably most - must\r\nintentionally change toward such a position. They must change their\r\nattitudes and their practices.\r\n\r\nI'm also a little vague on how necessity ties to being a reflective\r\neducator. Are you saying that openness is a necessity because you feel that\r\neducators need to be more reflective? Or are you saying that in being open,\r\nreflective practice is a natural consequence?\r\n\r\nAs for convenience, I think that many of the closed teachers out there (you\r\nknow the ones that have taught the same lessons the same ways for the last\r\ntwenty years) might argue that a change to openness is anything but\r\nconvenient.\r\n\r\nInteresting ideas, Dave. Thanks for your comments!",
      "parentPostTime": "2011-04-14T21:49:58",
      "parentPostId": "184689751"
    },
    {
      "threadId": "266598158",
      "post": "Thanks Viki,\n\nYou were one of the first people in my Google Reader, or actually some other now defunct reader that I can't seem to recall the name of. It feels in some ways like we've known each other forever... even though we just met last month in Beijing. I think we've shared a lot of resources & ideas with each other over the past 4+ years and so yes - a heck of a lot more change than a \"pair a dimes!\"\nWe are at least on to a Starbucks Coffee now;-)\n\nSo, I raise my coffee mug to you... Here is to the next 5 years of learning from, and with, each other!\nCheers! \\_/)",
      "time": "2011-03-31T13:49:14",
      "id": "175502465"
    },
    {
      "threadId": "261013620",
      "post": "Here it is: http://blip.tv/file/1262079 You and Julie show up in the wiki section on an image with the Flat Classroom wiki... I was following along from the start:-)\n\nI wasn't embarrassed, but rather honoured. Here I was coming to finally meet some people I really look up to, and the conference opens with you saying, \"Where is Dave Truss?\" and sharing how we've learned so much from each other over a span of years, having never met face to face. \n\nThen when you called on me to share something, I thought: \"We need to do this more!\" \n\nWe go to conferences and we have incredible wisdom in the crowd and we have a culture of sharing that we foster online, and yet we don't necessarily harness it at conferences. My reflection post will go deeper into this, but I think it's time we 'exploited' the talents at our conferences and called in our PLN's to be co-teachers in the room.\n\nYou've inspired me to get my butt in gear and finally finish my Flat Classroom reflection post. Thanks as always for the learning conversation! ",
      "time": "2011-03-24T01:01:03",
      "id": "170640035",
      "parentPost": "I need to find your video! Glad I didn't too much embarrass you at the conference! I have followed you a long time as well, my friend. Thank you for the ongoing conversation and inspiration.\r\n\r\nVicki Davis\r\nCool Cat Teacher Blog\r\n\r\nBuilding the bridges of today that the society of tomorrow will walk across. \r\n\r\nSent from my iPod touch",
      "parentPostTime": "2011-03-24T00:25:22",
      "parentPostId": "170615474"
    },
    {
      "threadId": "255718101",
      "post": "Great stuff Vicki,\n\nI still have to finish writing my reflection for the Flat Classroom Conference, but I love to see some of the projects taking action. I've got one that will hopefully start soon with your school & Miss Dixon! \n\nI just wanted to share this great link with your Movement 9 group: http://ethisphere.com/2011-worlds-most-ethical-companies/ and I wonder if @craigkielburger can help out with http://www.metowe.com/ or http://www.freethechildren.com/ ",
      "time": "2011-03-20T02:06:32",
      "id": "168411955"
    },
    {
      "threadId": "255580234",
      "post": "Call out the elephant in the room and it becomes the mouse... a pesky animal that you need to deal with rather than ignore, but at least it is a manageable pest & not a beast waiting to crush you, whether intentionally or accidentally. \n\nI love the saying, <i>\"If there is an elephant in the room with you... introduce it!\"</i>\n\nGreat post! ",
      "time": "2011-03-20T01:42:17",
      "id": "168404773"
    },
    {
      "threadId": "250766285",
      "post": "Great post Vicki,\n\nWith respect to tech being invisible, I use a quote my buddy Dave Sands taught me in a presentation a while back on how POD's, Personally Owned Devices are coming into our schools whether we want them or not... \"To the fish, water is invisible\". Well technology is becoming ubiquitous and our kids don't 'see' it, they just use it, but they use it in very specific ways and seldom know how to use it for educational purposes without it being explicitly taught. Unleash a Grade 4 on Powerpoint and you get volumes of plagiarized slides, filled with text and nothing to compliment the points visually, and with transitions that distract (and delay) the presentation, rather than compliment it. We can't assume that because we unleash a kid on a tool and they are able to find things the tool is capable of doing faster than most adults, that they have a clue about design, or using visuals to persuade etc. Using technology (well) still needs to be taught.\n\nOn another topic, it infuriates me to read comments like Brian's and see teachers wanting to use the tech, and their own districts shut them down. I live in China and have to deal with blocking, but here is a teacher in the 'Free' world & he has to go underground to use free social tools because they 'might' be used poorly by students. The next time someone writes on one of the school walls with a pencil, maybe we should ban all pencils from school. \n\nHere are a poster I'd like to share with teachers like Brian. In my blog post about this poster, I said to post it in your front entrance, but maybe the better place is on the doors of your head office and school administrator. \n\nhttp://www.flickr.com/photos/datruss/4408321697/ ",
      "time": "2011-03-20T01:25:03",
      "id": "168398933"
    },
    {
      "threadId": "170437222",
      "post": "Well said Tom!\nI came across a link recently which basically cut and pasted my entire blog post and felt a little perturbed. Then I realized that it was non-commercial and a Member of a county Board of Education sharing it with his district and giving me full credit... that's fair use!\n\nUsing your Interesting Ways commercially is UNfair use! It's a great resource that I shared just today on Plurk with Kevin Honeycutt (and educators he was talking to in Kansas), and also here in a comment: http://jo-online.vsb.bc.ca/bondi/?p=377 It is a fantastic resource shared by many educators for educators and it is completely underhanded for it to be 'used' for commercial purposes against the cc license it is so generously shared!\n\nI'm glad you are making a stand! ",
      "time": "2010-11-11T14:32:30",
      "id": "96184080"
    },
    {
      "threadId": "136886488",
      "post": "Great article, it really brings up an important point that is so often overlooked. Online behavior is just one of many things such as 'respecting others' that are on a continuum of things we should monitor, model and mentor for kids! \nI think this presentation will 'appeal' to you: http://www.slideshare.net/datruss/parenting-digitalageslideshare/46\nSee slides 46-53. \nCheers!",
      "time": "2010-09-09T21:08:57",
      "id": "76444893"
    },
    {
      "threadId": "124809145",
      "post": "Yes, Kathy was/is that good! I do miss her blog. \nOne thing that I often think about is how to help students find that passion or interest. Do we 'push' them in an area when they are young and want to give up, or will that push work against us? An 8 year old wanting to quit piano is different than a teenager wanting to spend time with their friends instead, is different than a 20 year old quitting. One of the hardest things to 'teach' is perseverance.  Does a typical kid know 'what they’re both good at and interested in'?",
      "time": "2010-08-01T19:18:03",
      "id": "65619302"
    },
    {
      "threadId": "88213547",
      "post": "Wow, thank you so much for sharing this candid and personal history. \r\nI love how you identified key people that supported you in small ways and yet made a very big difference in your life. Inspiring!\r\n\r\nI wrote a post a while back called <i>\"My blog is my PhD\"</i>: http://pairadimes.davidtruss.com/my-blog-is-my-phd/ I mention this because I think a real <i>wild card</i> approach would be to deliver your thesis on informal learning in an informal way. Don't talk about it, but live/breath it! \r\n\r\nQuantifying how a comment on your blog or a discussion on twitter contributed to your learning experience could only be enriched by having that engagement happen as part of writing your thesis. \r\n\r\nYour words here say it all, <i>\"...my mind will certainly see a path to informal learning that will lift me higher, and that will lift my professional work as well.\"</i> You will be seeking the informal learning anyway, why not marry that to the formal process and do one <i>for</i> the other? ",
      "time": "2010-04-22T08:42:42",
      "id": "45962701"
    },
    {
      "threadId": "83645029",
      "post": "Great post Joe!\nMy favourite line: <i>However, to remain true to Kohn’s definition of radical, I want to get radical. No cuts should ever be made to the root of our education system  – the teaching and the learning. However, if we needed to find a place to save money, let’s look at the tendrils of our system – standardized testing.</i>\nI get a nice visual of 'standardized tests' as a tendril, an appendage, of assessment that can be severed from the body of 'Evaluation' and have the body live on... the tests themselves are not the problem, but how they are used certainly are... pitting schools against each other, on a single strand (a single tendril), of poorly used evidence. \n\nI wrote a post a while back on the misuse of standardized testing, and in response to a comment from one of the propagators who wanted me to volunteer my service to improve the way schools are compared, I said: \n<i>Imagine coaches spending an entire year assessing rhythmic gymnastics for creativity and execution of skills and then having someone evaluate the athletes with a stop watch. More accurate stop watches won’t help the athletes.</i>\n(From 'An open letter to the Fraser Institute' on my Pairadimes blog)\n\nSo what can we do? I think we need to start with our own attitudes. \n\nWe are not sprockets in an educational wheel, spinning in circles, doing the same old thing. \n\nWe are designers of our students' education, and if we believe we are 'agents of change', and if we act as though we can 'be the change', then we can't help but to make a difference! \n~Dave.\n<i>Think good thoughts, say good words, do good deeds. </i>",
      "time": "2010-04-12T14:38:47",
      "id": "44430394"
    },
    {
      "threadId": "80104368",
      "post": "It's not the elimination of grades, but I read about a school a while ago that gave 3 levels for evaluation:\n'A' - Exceeds expectations in meeting outcomes.\n'B' - Meets expectations.\n'I' - In Progress... working towards meeting expectations.\nIn the grand scheme of things... what else do you need? ...especially with \"narrative evaluations, rubrics, and clear learning goals\" added to this!",
      "time": "2010-04-02T01:11:25",
      "id": "42784430"
    },
    {
      "threadId": "49918775",
      "post": "Thank you for posting this video and I’m glad that you like it!\nI’ve been grappling with the thought that this video ‘preaches to the converted’ and I’m not so sure how much it engages someone new to sharing and engaging with students online?\nThat said, it was made to describe my personal journey and as such it has meant a lot to me to see others appreciating and sharing it… thanks again,\nDave.",
      "time": "2009-12-05T23:50:14",
      "id": "24919575"
    },
    {
      "threadId": "47724941",
      "post": "Greetings from a Canadian educator working in Dalian China,\n\nFirst of all, for those people that do not know how to get the dvd working, there is no need for shame, simply find an expert in your class (and call them just that 'our class expert') and before you even run into problems, ask them to help you. (Hint: watch them and learn.)\n\nNext, I'd like to share this because unlike you, I do not have very much experience fixing things and I'm only good with computers when they are working. Here is a wonderful cartoon that sums up my method for solving computer problems: http://xkcd.com/627/\n\nAnd finally on a more personal note, here is a presentation that I did on using POD's - Personally Owned Devices, cell phones, iPods etc., in the classroom: http://www.slideshare.net/datruss/the-pods-are-coming\n\nThis is a great list of 20 'starters', well done!",
      "time": "2009-12-05T23:43:58",
      "id": "24919416"
    },
    {
      "threadId": "42800295",
      "post": "@tombarrett Great stuff here! I explored the Paris Map a couple nights ago when you shared it on Twitter. I love that it is created by a team and see great value in having kids create their own problems too. Way to go!",
      "time": "2009-11-06T17:19:10",
      "id": "22048059"
    },
    {
      "threadId": "38854510",
      "post": "No apologies for the wonderful comment are needed. \r\nI think you are absolutely correct about putting portable technology into the hands of teachers. It is why my big push at my new school is to provide every classroom teacher with an LCD projector and every teacher with a netbook... small, portable and powerful! I also agree with the reflection time (that I have limited control over) so I have implemented something equally important... collaboration time! It's amazing what teachers can do (and how professional they are) when you give them time together in a classroom. \r\nAgain, thanks for such a thoughtful response, I appreciate the extra time you put into it!\r\n~Dave.",
      "time": "2009-11-03T05:10:34",
      "id": "21731027",
      "parentPost": "Hi David,\r\n\r\nI really appreciate your blog, I find it interesting and an important read.  I have only just discovered it and I found this entry to be one that really spoke to me.  Believe it or not less than 10 months ago I was a Luddite when it came to technology and education and I have moved very far in a short time.  You ask the question of what will shake people from the 'fear' that you very accurately describe?  Can I suggest some things that changed the way I look at technology and education.  First of all I got my hands on an Apple iTouch, and it very, very quickly revolutionized the way I lived my life so I began to think about ways that it could revolutionize my classes.  Therefore I think one thing that teachers need is to have the technology given to them, and I mean put it in their hands so they have it all the time, as opposed to just at school, the technology must be portable.  The second thing that has made a difference is that in my new position I have something more precious than any other teaching tool I've ever had.  Time for reflection, instead of feeling part of the treadmill of marking and meeting and whatever else, I've had time to reflect about how I could put technology into place.  There are of course other things that I think have made a difference but those two alone have changed the way I look at things.  Ironically of course I am now no longer in the classroom full-time.  Sorry for the long response, and if you might have covered this somewhere else that I haven't yet discovered, cheers.",
      "parentPostTime": "2009-11-03T04:50:54",
      "parentPostId": "21730391"
    },
    {
      "threadId": "39657168",
      "post": "Amalia,\r\nTwo great quotes... they both remind me of the Zoroastrian quote that I end all my emails with: <i>\"Think Good Thoughts, Say Good Words, Do Good Deeds.\"</i> -A simple reminder to nurture all that is positive in this world.\r\n\r\nJeanne,\r\nWonderful to hear! I didn't dream up this post, I lived it, then I wrote about it. Being at an International school, I decided to start a staff meeting with these videos and share my views. I had to add the update with the dropio video files to accommodate my teachers since they can't get YouTube.  I completely agree that global responsibility should be embedded into the curriculum. I'd love to hear about how you embed this into your 5 year tech plan!",
      "time": "2009-10-25T16:06:59",
      "id": "20985706"
    },
    {
      "threadId": "39017118",
      "post": "Chris,\nExcellent arguments. \nYou bring up two very valid points above all that have challenge my thinking around this topic:\n1. <i>\"what value does being Friends [with students] add?\"</i>\n          - I have not experienced much that I couldn't find elsewhere.\n2. <i>\"teachers using Facebook now are much less tech savvy than those who were using it 3 years ago.\"</i>\n          - I have noticed that there are all at once both:\na)  A clueless 'generation' of teachers that struggle with online tools and would find setting up these permissions properly a challenge, and \nb) A 'generation' of teachers that are more savvy than most, but digitally share far more of their public life than I would feel comfortable doing. \n\nI thought 'Facebook Revisited' would be a final visit of this topic for me on my blog, but it seems my thinking has been challenged and perhaps I still have more to consider.\n\nThank you for contributing to my learning Chris!",
      "time": "2009-10-15T07:49:10",
      "id": "20105239",
      "parentPost": "Dave,\r\n\r\nAnother thought on my earlier post. I find that teachers using Facebook now are much less tech savy than those who were using it 3 years ago (the early adopters).  As these teachers get on Facebook, they no much less about security settings, and are more likely to make mistakes with their settings.  I understand the largest growth in Facebook is in the over 50 crowd - people who likely will have little experience with security settings.  Another reason that Facebook friends for these teachers and their students could be problematic.\r\n\r\nChris",
      "parentPostTime": "2009-10-15T04:18:54",
      "parentPostId": "20096923"
    },
    {
      "threadId": "38854536",
      "post": "We really do live in a connected world. \r\n\r\n<i>\"The relationship between East and West began then. Openness, acceptance, tolerance, and even respect and admiration are being built now between the two like long-lost lovers in an embrace.\"</i>\r\n\r\nBeautiful words. ",
      "time": "2009-10-10T13:50:12",
      "id": "19737382",
      "parentPost": "My favorite part about Xi'an was it's connection with the Silk Road, for two reasons.  First of all, it was the first city in China where I felt cultural diversity, and I have missed that.  When we visited the Great Mosque, a gentleman called Maya \"Azizam\".  That's a Persian/Arabic term of endearment for 'beloved one' or 'dear'. I'm familiar with it because of my Persian friends.  But this guy was clearly Chinese. It really struck a chord with me.\r\n\r\nThe second reason is because of that link (the Silk Road) I am essentially a descendant of those early sojourners. The relationship between East and West began then.  Openness, acceptance, tolerance, and even respect and admiration are being built now between the two like long-lost lovers in an embrace.  \r\n\r\nSo we live here now, and are learning tolerance and acceptance as one would in a marriage after the honeymoon phase, at a very intimate level.  And you've showed me now how powerful a medium the Internet is in sharing that learning.  Thanks for passing it on.  I will do my best to follow the example set by you and the many you have connected me with.",
      "parentPostTime": "2009-10-06T03:44:20",
      "parentPostId": "19722620"
    },
    {
      "threadId": "4893650",
      "post": "There are so many absolutes that are being stated here... starting with me in the video: \"Can you teach without technology? Yes but why would you want to?\"\r\n\r\nDarren: \"In spending so much time to create (shallow?) connections with such a wide range of educators on a global level, isn't it possible that one might also neglect local relationships that are equally (if not more) important?\"\r\n\r\nJan: \"...it depends on what grade level they teach\"\r\n\r\nBill: \"But this only applies to \"excellent\" teachers.\"\r\n\r\nJen: \"What can we do to consistently maintain a healthy perspective?\r\nDisconnect.\"\r\n\r\nMike: \"I do believe we are losing something very important, like people and life skills. Things that can only be taught when face to face with a real live person.\"\r\n\r\nHad these statements been part of a live (unrecorded) conversation they would have been fleeting statements probably unremembered and probably uncontested. Here they are analyzed, criticized and galvanized. \r\n\r\nYou can teach with or without technology. For what pedagogical reasons?\r\nOnline connections can be equally as rich and meaningful or shallow and insignificant as face-to-face connections.\r\nEvery grade can meaningfully engage learners digitally and every grade can use technology in ways that detract from the learning.\r\nExcellent teachers can shine in a digital environment and mediocre teachers might be forced to be more reflective and improve their teaching. \r\nA healthy perspective need not come only from disconnecting.\r\nTechnology does not replace f2f.  \r\n\r\nThere is a difference between leaving someone intentionally 'behind' and choosing to work only with those willing to change. There is a difference between teaching with technology and using technology to engage learners. There is a difference between being a lifelong learner and being too busy to learn. \r\n\r\nThe video is my story... an atypical story... not a road map for others. My intent was to show that digital interactions have made my learning experiences and the learning experiences (of just some, unfortunately not all) of my students more meaningful. \r\n\r\nI think the video speaks to a lot of teachers that have had parallel (tho not necessarily similar) experiences. It connects to the part of them that 'gets' it. But it also scares them in that it can be perceived as a turn-off to newbies that 'don't have time for this stuff'. \r\n\r\nIt is a story, a metaphor for what is possible... not a thesis to be dissected... but I put it out there in digital format and it will be dissected. \r\n\r\nDarren, you may be tired, but you are still asking the right questions that encourage discourse and make myself and others think. \r\n\r\nThis post has been -as meaningful as- many of the thought provoking face-to-face conversations that I've had recently. There need not be a \"competition\" between the two... despite the fun I had with a competition in the video.",
      "time": "2008-09-23T07:04:52",
      "id": "2538424"
    },
    {
      "threadId": "3052502",
      "post": "Thanks for the reminder. I concur, blogging is just so much more than publishing... the connections are real, the conversation extends beyond the words printed, and the act of being a blogger helps us grow as students and learners ourselves.\r\nDave Truss",
      "time": "2008-08-16T00:45:51",
      "id": "1487431"
    }
  ],
  "profileInfo": {
    "username": "datruss",
    "about": "Educator. Think Good Thoughts, Say Good Words, Do Good Deeds.",
    "name": "datruss",
    "disable3rdPartyTrackers": false,
    "isPowerContributor": false,
    "isAnonymous": false,
    "rep": 1.306749,
    "profileUrl": "https://disqus.com/by/datruss/",
    "url": "http://pairadimes.davidtruss.com/",
    "reputation": 1.306749,
    "location": "Coquitlam, BC, Canada",
    "isPrivate": false,
    "signedUrl": "http://disq.us/?url=http%3A%2F%2Fpairadimes.davidtruss.com%2F&key=7EnDi1zjOR1r9_HMKkLa-w",
    "isPrimary": true,
    "joinedAt": "2008-08-12T19:58:23",
    "id": "81391",
    "avatar": {
      "small": {
        "permalink": "https://disqus.com/api/users/avatars/datruss.jpg",
        "cache": "//a.disquscdn.com/uploads/users/8/1391/avatar32.jpg?1449726924"
      },
      "isCustom": true,
      "permalink": "https://disqus.com/api/users/avatars/datruss.jpg",
      "cache": "//a.disquscdn.com/uploads/users/8/1391/avatar92.jpg?1449726924",
      "large": {
        "permalink": "https://disqus.com/api/users/avatars/datruss.jpg",
        "cache": "//a.disquscdn.com/uploads/users/8/1391/avatar92.jpg?1449726924"
      }
    }
  }
}