{
  "comments": [
    {
      "threadId": "3953963124",
      "post": "I agree when it comes to filtering records, but I think it might be the best way to specify a default sort order.",
      "time": "2015-12-15T22:16:40",
      "id": "2411589809"
    },
    {
      "threadId": "927077573",
      "post": "compose.io has ElasticSearch support",
      "time": "2015-01-15T05:47:26",
      "id": "1793463327"
    },
    {
      "threadId": "2222824375",
      "post": "Thank you very much for this post! It worked for me. The only difference is that the Web.config I got from the project template didn't contain \"System.Web.WebPages.Razor\" anywhere, so I didn't make that replacement.",
      "time": "2014-05-20T02:53:39",
      "id": "1394861172"
    },
    {
      "threadId": "2117194998",
      "post": "Nice blog! I appreciate that you mentioned doge in your second post! Keep them coming!",
      "time": "2014-05-07T21:33:42",
      "id": "1374167828"
    },
    {
      "threadId": "2300354250",
      "post": "Wow.",
      "time": "2014-03-25T16:38:38",
      "id": "1301860895"
    },
    {
      "threadId": "1957404734",
      "post": "It would be hard to make an argument that it isn't a scam. It has all of the markers of a scam. The fee is exorbitant, and they get people in a situation where it would be awkward and inconvenient to avoid paying the fee.\n\n\nIt doesn't make sense to me for an airline to run something that's clearly a scam. I think it will piss off the wrong people (including you) and it will cause damage in the long term.\nI can't see why they don't just stick to more underhanded techniques to get extra revenue from customers.\n\nBesides not making sense to me from the airline's perspective it just sounds ludicrous from the perspective of the travelers. Not all travelers have a hundred dollars to their name, and some of those who do have a hundred dollars won't be able to pay bills if they spend a hundred dollars. I can picture people who are stranded at the airport because they can't afford transportation out of it (which is expensive at DIA due to its remote location) and people using Western Union or Wire Transfers to get enough funds to fly.\n\nDoes David Siegel really want to be in the business of screwing over many of their customers just to encourage people to use their own website instead of a third-party booking service?",
      "time": "2013-11-12T06:13:12",
      "id": "1119122102"
    },
    {
      "threadId": "452953933",
      "post": "this is unacceptable",
      "time": "2013-05-13T04:52:38",
      "id": "895594261"
    },
    {
      "threadId": "1250611940",
      "post": "A colander would be more appropriate for Pastafarians.",
      "time": "2013-05-02T04:47:59",
      "id": "881908849",
      "parentPost": "No bowl for Pastafarians... \nThis man needs to be touched by his noodly appendage and gifted with ramen. ",
      "parentPostTime": "2013-05-02T02:26:43",
      "parentPostId": "881840852"
    },
    {
      "threadId": "1189075301",
      "post": "IMO it's a useful convention to use an anonymous function if the last argument is a function and it isn't being used anywhere else. \"function cb() {}\" is a code smell.",
      "time": "2013-04-05T21:01:33",
      "id": "853490847"
    },
    {
      "threadId": "1111755530",
      "post": "Did you look at Beanstream?",
      "time": "2013-03-02T02:31:18",
      "id": "817068827"
    },
    {
      "threadId": "1085556759",
      "post": "Read it again. It didn't say that Qt came from KDE.",
      "time": "2013-02-16T16:12:15",
      "id": "801503844",
      "parentPost": "No it didn't. KDE used Qt, but Qt existed before Qt. in fact, that Qt was originally a closed source commercial product was the biggest issue with KDE's initial adoption. The GPL version sweetened the blow, but that came some time in to the project. ",
      "parentPostTime": "2013-02-16T11:52:17",
      "parentPostId": "801302513"
    },
    {
      "threadId": "988464479",
      "post": "Awesome, and even more so in retrospect. This does all that the Vine player does 99% of the time. I don't want it to loop and I rarely want to listen to the audio. Many are silent, anyways. :)",
      "time": "2013-02-06T01:37:56",
      "id": "790011900"
    },
    {
      "threadId": "1057358670",
      "post": "That's a nice video. Got me looking through the vimeo staff picks and I found this one: http://vimeo.com/channels/staffpicks/49786954\n",
      "time": "2013-01-31T18:08:39",
      "id": "784761447"
    },
    {
      "threadId": "1057142693",
      "post": "Is nothing sacred?",
      "time": "2013-01-31T17:55:18",
      "id": "784744313"
    },
    {
      "threadId": "1033512383",
      "post": "Yeah no, that isn't what happened in my case. I am very careful with my computer. What happened is that Google Chrome downloaded a file that can't harm my computer, because I'm on Mac OS X rather than Windows.",
      "time": "2013-01-26T04:06:20",
      "id": "778493048",
      "parentPost": "Please don't ignore the possibility of something other than Chrome being responsible for the drive-by download. Some other malware that was already present on your computer might have triggered that download when certain resources from The Pirate Bay (a certain advertisement, most likely) was downloaded.\n\nThis is a plausible situation, so please keep an open mind about topics like this. If you do not, you risk hot-headed arguments and insults.",
      "parentPostTime": "2013-01-26T03:57:52",
      "parentPostId": "778487255"
    },
    {
      "threadId": "1026162539",
      "post": "I still think someone's playing with the cat's butt, like in Trololo Cat.",
      "time": "2013-01-15T04:19:09",
      "id": "768189357",
      "parentPost": "Should try with a non-jingling item in the cups. ",
      "parentPostTime": "2013-01-15T01:40:43",
      "parentPostId": "768035391"
    },
    {
      "threadId": "1016733503",
      "post": "Pow is acting as a DNS server and an HTTP proxy, not just a DNS server. Other than that, great article! I'm not going to use this setup because I'd rather use nginx as an HTTP proxy in development but it got me wishing for a way to quickly change HTTP proxy and DNS settings.",
      "time": "2013-01-10T00:21:26",
      "id": "761810838"
    },
    {
      "threadId": "869937827",
      "post": "The demo allows you to run Rhino. That isn't the point of Doppio but it shows how amazing it is.",
      "time": "2012-10-04T07:26:28",
      "id": "670728343",
      "parentPost": "Wait... JavaScript compiles to Java Bytecode..... So someone would seriously write and implement a whole JVM in JavaScript so they can run JavaScript on it?! I get that this is an impressive feat to begin with, and has some interesting applications, but that isn't one of them unless I'm missing something huge.",
      "parentPostTime": "2012-10-03T22:15:35",
      "parentPostId": "669968546"
    },
    {
      "threadId": "859325800",
      "post": "It happens with food too. A lot of poor people have a house with a kitchen and don't realize they could get beans, rice, and potatoes for less than it costs for a fast food value menu. After years of eating unhealthy fast food they wind up sick.\n\nEducation could help with both problems. Some people who have what in the U. S. is considered to be a low income live just fine.",
      "time": "2012-09-26T06:50:04",
      "id": "662895471",
      "parentPost": "Poor engineering students don't count as poor, you are robots. Why are you Wired, go study! Beep beep booop. :)\n\n<--Eng grad student...\n\nAnyways, this article makes me sad. The whole concept of rent-to-own laptops makes me sad. Their clientele probably doesn't realize they can get a $300 laptop on sale from some of the big box or used on Craigslist. So, they capitalize by offering them a $700 laptop , which by the time they own (by paying much more than $700), is only worth like $300 on Craigslist. Meanwhile this happens...",
      "parentPostTime": "2012-09-26T06:30:24",
      "parentPostId": "662885022"
    },
    {
      "threadId": "522378535",
      "post": "If all you want is to install node.js on Linux, you should probably just use a tarball, rather than clone from git.",
      "time": "2012-09-24T03:27:46",
      "id": "660515589"
    },
    {
      "threadId": "813823407",
      "post": "On GitHub if you fork something it has issues and the wiki turned off by default. This project could use those, I think.\n\nThe first issue I'd add would be making this generic, so it can be used to prefix more than just JSONKit.",
      "time": "2012-09-02T19:47:04",
      "id": "638070645"
    },
    {
      "threadId": "793584080",
      "post": "Congrats, Ryan! I keep seeing Roximity shirts around Pearl Street but I haven't seen you in a while. Hopefully that means I'll see you more often.",
      "time": "2012-08-05T18:45:43",
      "id": "610472668"
    },
    {
      "threadId": "761043681",
      "post": "Congrats! Pretty impressive getting Brad Feld on board. Make sure he updates this: http://www.feld.com/wp/about :)",
      "time": "2012-07-12T04:50:53",
      "id": "585088955"
    },
    {
      "threadId": "715643866",
      "post": "The double slashes can also be used in a link to an outside url that isn't protocol specific. If you follow an href that begins with // from an http page you'll get an http page and if you follow an href that begins with // from an https page you'll get an https page. If you follow an href that begins with http or https you get that type of page no matter what page you're on. This works nicely for including an image that's available both from an http server and an https server on a page where you aren't certain whether it will be viewed with http or https.",
      "time": "2012-07-06T18:12:43",
      "id": "578810174",
      "parentPost": "so that's why it's //, I always thought it was like that just to piss me off.",
      "parentPostTime": "2012-06-06T15:20:37",
      "parentPostId": "548837339"
    },
    {
      "threadId": "742431614",
      "post": "Also your example's Gemfile has an out-of-date git url. Looks like you renamed it from resque-pause-patch to resque-term-as-quit-patch.\n\nThis could get merged into mainline and I don't think defunkt would fault you for forking it and releasing a gem to get it out right away. It's how things happen quickly in open source IMO.",
      "time": "2012-06-27T20:56:41",
      "id": "569249693"
    },
    {
      "threadId": "727541626",
      "post": "Wow, RefHeap sounds awesome.",
      "time": "2012-06-15T21:33:05",
      "id": "558843213"
    },
    {
      "threadId": "715856732",
      "post": "This isn't the right way to do Backbone.js views. Besides not being quite right, it only covers a small part of building Backbone.js views. I don't know why you felt you needed to make that claim.\n\nYou're rendering items in a loop, and letting Backbone create delegate event handlers for each of them. This is slow on some browsers. If you want to do it right, for what Backbone aims to do (work on all browsers), create a delegate in the collection view, and in the code in the collection view that handles it, trigger the events in the item views.",
      "time": "2012-06-14T20:28:14",
      "id": "557516660"
    },
    {
      "threadId": "702482905",
      "post": "Heroku's an early adopter of words. http://www.wordnik.com/words/performant",
      "time": "2012-05-24T21:50:55",
      "id": "537958897",
      "parentPost": "I think what he means is performant is not a word, but we all understand it I think.",
      "parentPostTime": "2012-05-24T21:36:12",
      "parentPostId": "537948605"
    },
    {
      "threadId": "28320422",
      "post": "printf(\"%10.2f\",x)\n\nThe space isn't optional in Clojure :p",
      "time": "2012-05-12T16:32:45",
      "id": "527276074",
      "parentPost": "Clojure ftw: (format \"%10.2f\" x)\nOne character less than Scala and Goovy :)",
      "parentPostTime": "2012-05-12T14:30:31",
      "parentPostId": "527213223"
    },
    {
      "threadId": "665073326",
      "post": "Congrats. I'm sure you'll like it there. Boulder is pretty walkable and bikeable but Amsterdam is on another level. I'm glad you let us know more than a month in advance. I'll be sure to find a couple opportunities to meet up before you move!",
      "time": "2012-04-26T17:44:13",
      "id": "509921419"
    },
    {
      "threadId": "591665488",
      "post": "Thanks for replying. Decorators seem more pythonic to me for things it's straightforward for, because having functions in control instead of an object system seems pythonic (this is where possible, of course). The stacking thing feels pythonic too...python makes one-liners difficult compared to languages that don't use significant whitespace.",
      "time": "2012-03-16T02:58:21",
      "id": "466577575",
      "parentPost": "I looked at them a while back. I read some arguments back and forth and mixins felt more Pythonic. Some of our views have 8 or so mixins, stacking 8 class decorators seems odd, at least to me.",
      "parentPostTime": "2012-03-16T02:34:59",
      "parentPostId": "466560885"
    },
    {
      "threadId": "608697008",
      "post": "I've thought a lot about transforming requests, but not quite in this way. It sounds useful. This idea would be easier to test by setting up a web app that takes requests, transforms them, and makes requests based on them. It's been done before with tools like Apache Camel, but it could be done in a much simpler way and be made REST-centered.\n\nThe way I envision it, the app would have a list of actions and a link to create a new one. This would have a URL with a secret code that they could copy and paste into an \"Incoming Request\" URL field. Then they could copy and paste a request (url, headers, and params separately) into the Outgoing Request field. Finally, the outgoing request would need a way to transform certain fields into things based on the incoming requests.\n\nI worked on a toy project that involved transforming URLs here: https://github.com/benatkin/wordpress-resource-infobox\n\nI'd love to discuss this concept more.",
      "time": "2012-03-14T20:40:21",
      "id": "465410301"
    },
    {
      "threadId": "604541597",
      "post": "Thanks, Alex. I understand it better now. I put too little weight on MapReduce in MongoDB and too little weight on persisted MapReduce queries in CouchDB to give them a fair comparison. Also it depends a great deal on usage.",
      "time": "2012-03-13T23:17:50",
      "id": "464637390",
      "parentPost": "Ben,\n\nWhat you are saying is correct from the perspective of accessing data. But let's try to get on the same page :-).\n\n1. What I wrote in the post and in the above comments refers to MapReduce implementations. And it's true and applies to MongoDB, CouchDB, Riak MapReduce implementations.\n\n2. The fact that MongoDB offers two types of \"queries\"  (native  and MapReduce) while in CouchDB all \"queries\" are MapReduce  is correct. \n\nBut if we go to compare MongoDB queries with CouchDB views we will notice more differences than what you mention (and sound at a quick read as major benefits of MongoDB). Just to give you a quick example: in CouchDB views' results are cached and only new/updated data is re-processed. In MongoDB all queries are re-executed.  Anyways, this is completely a different discussion.\n\n",
      "parentPostTime": "2012-03-13T23:01:55",
      "parentPostId": "464627965"
    },
    {
      "threadId": "604494022",
      "post": "CouchDB: The Definitive Guide has a chapter about security. Unfortunately it gets the password hashing thing wrong. \"Should the stored hash fall into the hands of an attacker, it is, by current standards, way too inconvenient (i.e., it’d take a lot of money and time) to find the plain-text password from the hash.\" It depends on the password and how determined the hackers are. http://guide.couchdb.org/draft/security.html\n\nAlso as this issue painfully illustrates, if hashed passwords are leaked, half a decade later when computation performance has improved, it will be easier to crack hashed passwords. Transparently upgrading the hashing on the next login won't solve this problem; once password data is leaked, it's leaked. And if people use the same password on different sites, it could provide an attacker access to some of their personal information.",
      "time": "2012-03-10T03:45:58",
      "id": "461138126",
      "parentPost": "Klint, a different way to put it is that for many NoSQL databases security wasn't (yet?) a priority. But that doesn't change much for those putting at risk their apps and data. And I could agree that this issue is not limited to NoSQL, but this is the space I'm focusing on.\n\nJust to be clear about a couple of things:\n\n1. I'm no security expert, so I might be missing a lot of other security related issues. But sometimes I recognize patterns that should be avoided and try to warn against them. Awareness is the first step towards knowledge.\n\n2. I know it's wishful thinking but I'd like to see every NoSQL database and NoSQL hosted solution having a big link to their documentation on security. \n",
      "parentPostTime": "2012-03-09T17:29:16",
      "parentPostId": "460732434"
    },
    {
      "threadId": "423877074",
      "post": "FYI, your code has HTML entities in it, likely due to an issue with your CMS configuration.",
      "time": "2012-02-19T22:55:21",
      "id": "443638505"
    },
    {
      "threadId": "579925083",
      "post": "Great reaction. With GateKeeper you really don't want to piss off Apple if native apps are an important part of your business.",
      "time": "2012-02-17T17:29:53",
      "id": "442081532"
    },
    {
      "threadId": "577349774",
      "post": "I agree. Technical but impatient user here. I wanted to send a tweet with a new twitter app, and it asked me for about eight permissions. Normally I would have read them all but this time I was impatient and decided to trust the app and skip scrolling back up and reading all of them. It's less secure when users have to read too much. I think Apple will be the first to strike a reasonable balance. Google came out with it first but it isn't usable. Typical Google.",
      "time": "2012-02-15T20:44:31",
      "id": "440134722",
      "parentPost": "Several people I know are actively _scared_ by the number of warnings offered up by the Android OS - I even know one who has yet to download anything from the Marketplace because the warning that appears (about access to user data) scares her too much.\nThe more warnings you offer, the more you propagate an atmosphere of fear, doubt and uncertainty - especially amongst the technically-illiterate.\nPerhaps, in that case, there is a balance to be found between the approach used in iOS and that used in Android...",
      "parentPostTime": "2012-02-15T19:42:31",
      "parentPostId": "440060661"
    },
    {
      "threadId": "72265323",
      "post": "Nice little langage that contains some familiar JavaScript functions, but not enough to make implementing in other languages a huge pain, you have there. I'd like to see it used as part of an arbitrary diff/patch system.  $set, $unset, and $rename can do a lot with objects. Arrays are a bit trickier because you have to worry more about update order, but I'd like to see a $splice operator.",
      "time": "2012-02-10T07:19:36",
      "id": "435020491"
    },
    {
      "threadId": "523239973",
      "post": "Ruby isn't arguably replacing Python.",
      "time": "2012-01-01T23:36:37",
      "id": "398470532",
      "parentPost": "Re-read my comment.   The qualifier '...unless you already know it' is key.\n\nIf you're starting from zero, the list I suggest provides a solid foundation for immediate productive web-based development.\n\nAnd yes, if you want hack stats, learn R. Or if you want to do esoteric stuff, take a look at haskell (or go retro w/ perl, hey). And so on etc.",
      "parentPostTime": "2012-01-01T23:08:44",
      "parentPostId": "398461688"
    },
    {
      "threadId": "503089760",
      "post": "I'm surprised nobody's commented with this yet: http://joehewitt.com/2011/10/06/apps-and-web-urls-perfect-together",
      "time": "2011-12-13T17:12:31",
      "id": "385710199"
    },
    {
      "threadId": "488070195",
      "post": "That's delightful. Open Source aficionados have been clamoring for this kind of experience since the 90s. It didn't happen with Linux on the desktop, it happened with PHP on the server.",
      "time": "2011-11-30T05:13:53",
      "id": "375644872"
    },
    {
      "threadId": "476456119",
      "post": "<blockquote>Twitter, while being fantastically open in a lot of respects, really put a bad taste in developers’ mouths with the whole OAuth/XAuth split for example.</blockquote>\n\nI have a hard time using this as an example to understand your point because it's very unique. The OAuth/XAuth is about preventing developers from providing a service that could appear to be working normally, but actually be harvesting people's passwords so they could be tried on other sites (since it's common for people to use the same password on different sites). So if you think that twitter might be responsible for it, it follows that they should be picky about who gets to use it. As far as API restrictions go, I have a hard time thinking of something similar to this one.\n\nThat's a good point overall, though. At a minimum they should at least not hard-code partnerships into their server software. The short-term savings of hardcoding is very small compared to the benefits of being able to quickly change API policies.",
      "time": "2011-11-23T07:28:41",
      "id": "370655875"
    },
    {
      "threadId": "432687833",
      "post": "Thanks for this post. It helped me choose MariaDB. I use MySQL because apps depend on it, so the one that strives the most for compatibility is a natural choice.",
      "time": "2011-11-15T04:38:45",
      "id": "363337939"
    },
    {
      "threadId": "465089797",
      "post": "One solution: ['0'*(2-len(str(yr))) + str(yr) for yr in [11,05,93,39]]\n\nYou can \"multiply\" strings. It creates copies of strings and concatenates them. For instance, '0'*0 = '' and '0'*2 = '00'. You can calculate how many zeroes you need and tack them onto the front of the screen. For ensuring that a short year (yr) is at least two digits, you subtract len(str(yr)) from the number of digits you want (2) to get the number of zeroes you'll need to tack onto the start. That's what the expression '0'*(2-len(str(yr))) does.",
      "time": "2011-11-08T10:53:26",
      "id": "358286379"
    },
    {
      "threadId": "433543252",
      "post": "I wrote the urlsafe_encode64 and the urlsafe_decode64 methods myself. Great to see that this is built into Ruby! Going to switch them out, I think.",
      "time": "2011-11-08T01:43:48",
      "id": "358059361"
    },
    {
      "threadId": "459607190",
      "post": "This reminds me of http://hackerangels.com/.",
      "time": "2011-11-03T03:16:58",
      "id": "354401688"
    },
    {
      "threadId": "460018756",
      "post": "The data contracts part of things reminds me a lot of Steve Yegge's Google+ post that was accidentally made public. If you have a good idea of Amazon Web Services' development practices I'd be interested to hear how that compares to Heroku's.",
      "time": "2011-11-02T20:41:36",
      "id": "354160155"
    },
    {
      "threadId": "454817437",
      "post": "I stand corrected, especially on replication.\n\n> We wanted to do it and did but it had to go into the queue with everything else, and other things were important too.\n\n\nThat's what I was trying to get at. I like how MongoDB's priorities aren't borrowed from another project, but are from an examination of what its target audience needs, while still taking what other projects have done into account. Just like this post.",
      "time": "2011-10-28T14:37:14",
      "id": "348234030",
      "parentPost": "That isn't the attitude.  durability is important : our POV was simply that the proposition that anything without it cannot be used was quite wrong. MyISAM was usable.  We wanted to do it and did but it had to go into the queue with everything else, and other things were important too.\n\nI would say the replication works very very well.  And that is certainly the goal.\n\nIt doesn't use more memory than traditional dbs, say, Oracle. The file system cache gets counted in the mongod resident bytes because of the memory mapped files use so the number in top looks huge.",
      "parentPostTime": "2011-10-28T11:02:23",
      "parentPostId": "348103254"
    },
    {
      "threadId": "449330865",
      "post": "Nobody asked for your opinion on programming languages.",
      "time": "2011-10-22T10:14:47",
      "id": "341293056",
      "parentPost": "The solution is to write your own, or switch to a non awful programming language. =P",
      "parentPostTime": "2011-10-21T21:38:17",
      "parentPostId": "340997609"
    },
    {
      "threadId": "414683502",
      "post": "Where does ee come from? Should line 12 say box instead of ee?\n",
      "time": "2011-10-05T04:57:53",
      "id": "326890360"
    },
    {
      "threadId": "433255286",
      "post": "blueeyes is another web framework for Scala. https://github.com/jdegoes/blueeyes",
      "time": "2011-10-04T00:30:26",
      "id": "325985955"
    },
    {
      "threadId": "422997828",
      "post": "Nice! I really dig the smart keys. It's nifty being able to know what the key is before authenticating. It's like CouchDB where you can grab a uuid from /_uuids instead of saving first to get a unique id.\n\nWhile it's true that you didn't write any code in a turing-complete language in the screencast, editing JSON and URL bars with tokens feels a bit like writing code. I think less technical users will be more impressed when you have the JSON textarea split into text fields (like Cloudant) and an interface for replacing tokens in the URL bar with information entered into text fields.",
      "time": "2011-10-03T05:12:28",
      "id": "325375651"
    },
    {
      "threadId": "405296527",
      "post": "I found this handy little gem to add to a Rails 3.1 project's Gemfile, that makes rails c open pry. https://github.com/rweng/pry-rails",
      "time": "2011-09-29T05:06:11",
      "id": "322439677"
    },
    {
      "threadId": "428654519",
      "post": "Great! How much does it cost?",
      "time": "2011-09-28T19:39:54",
      "id": "322048172"
    },
    {
      "threadId": "425021704",
      "post": "Nobody asked about your apps.",
      "time": "2011-09-16T00:55:47",
      "id": "312258765",
      "parentPost": "Node.Js beats python in every way. My node apps are easier and faster than python. ",
      "parentPostTime": "2011-09-16T00:18:58",
      "parentPostId": "312195615"
    },
    {
      "threadId": "411257977",
      "post": "Wow, that must have been odd indeed, for you to have just left NY when this happened. My first reaction was disbelief, too. At first it was disbelief in the actual event, and then it was disbelief that there were people out there who would do such a thing. Several years later, I saw this post by DHH. I think he got it right: it's a disease, and to understand it you have to understand the environment the terrorists came from: http://david.heinemeierhansson.com/archives/00000046.html",
      "time": "2011-09-12T07:09:06",
      "id": "307663981"
    },
    {
      "threadId": "402839455",
      "post": "Cool Post Bro.",
      "time": "2011-09-05T03:44:19",
      "id": "302691136"
    },
    {
      "threadId": "402073916",
      "post": "This post really should say that you can just DELETE the certificate.",
      "time": "2011-09-01T19:32:31",
      "id": "300596162"
    },
    {
      "threadId": "399868491",
      "post": "It must be for Java. Makes sense. :) My original comment was \"MOAR RAM PLOX\" or something. I double-checked it and found that the number was different from what I expected (I thought it was 256), so I changed my entire comment.",
      "time": "2011-08-26T00:04:14",
      "id": "295527349",
      "parentPost": "Nevermind, I just noticed that it's under the FAQ section below. Pretty neat, that must be new then since as their \"Acceptable Use Policy\" shows that it's 300mb ram, but that might be old info though. Would like to have it confirmed, pretty sick if it's 512mb now though. But with Java that might be necessary.",
      "parentPostTime": "2011-08-26T00:01:05",
      "parentPostId": "295525481"
    },
    {
      "threadId": "392983236",
      "post": "It only works if your superclasses are created with CoffeeScript or in some other way have  __super__ set (others like Google inherits use something else). So I wouldn't count it as \"just works\".",
      "time": "2011-08-23T20:12:55",
      "id": "293943497",
      "parentPost": "I have one more tip that I like. You can also calling `super()` on your subclass and CoffeeScript compiler will converts it to an equivalent JavaScript that it just works™.",
      "parentPostTime": "2011-08-22T16:47:32",
      "parentPostId": "293110043"
    },
    {
      "threadId": "381817998",
      "post": "I agree, but I've had the same thing happen to me with a different company, so I'm not sure it's all that unusual.",
      "time": "2011-08-10T03:37:56",
      "id": "281850192",
      "parentPost": "At least it was just a resume you sent, even though you did seem to put effort into a unique application. \n\nI had several phone and in-person interviews at AirBnB a year ago and then never heard from them again, even after several emails to inquire what the status was. Pretty unprofessional.",
      "parentPostTime": "2011-08-10T03:14:21",
      "parentPostId": "281824194"
    },
    {
      "threadId": "377436244",
      "post": "That's good info about recovering the index. I would cp -r my whole repo first if I ever had to recover the index. Then I would be able to get my unstaged changes back by comparing the two directories. Also, I just tried deleting .git/index on a repo that was just a clone of a repo on GitHub, and recovering it with git read-tree, and it works!",
      "time": "2011-08-05T18:12:20",
      "id": "278521858",
      "parentPost": "Another #wtfgit, like http://wtfjs.com/. Why isn't there a site for it?\n\nNext time git asks you to modify .git/ manually, do this first:\n\ncd .git\ngit init\ngit add .\ngit commit -m 'just in case'\ngit rm .git/index.lock\n\nIf you accidentally type git rm .git/index you can just type git checkout index.",
      "parentPostTime": "2011-08-05T06:49:11",
      "parentPostId": "278165161"
    },
    {
      "threadId": "376427073",
      "post": "But then the form won't look official enough.",
      "time": "2011-08-04T05:22:40",
      "id": "276796531"
    },
    {
      "threadId": "452450741",
      "post": "Wow, congrats! I hope @jsmestad:twitter will be staying in Denver, or at least coming back to visit us once in a while!\n\nThis will be great for the REST API and the web administration interfaces.",
      "time": "2011-07-28T23:11:57",
      "id": "268095821"
    },
    {
      "threadId": "348924592",
      "post": "When the change to the TOS was originally announced it said \"to the extent we think it necessary for the Service\". I think the new wording is much better.\n\nI would feel better about it if they defined what the service does. As it stands now, they could change what their service does (in a way that provides room for improvement, within some constraints), and it would change what is reasonably necessary for the service.",
      "time": "2011-07-04T03:23:11",
      "id": "241630772",
      "parentPost": "Apparently people are misunderstanding these terms: \n\nThe phrase : \"to the extent reasonably necessary for the Service\" is key. \n\nThey need rights to reproduce your stuff to let you *see* your stuff. Otherwise technically they are breaking copyright. Standard wording for any service \nlike this.",
      "parentPostTime": "2011-07-04T03:11:19",
      "parentPostId": "241627502"
    },
    {
      "threadId": "337664319",
      "post": "Wow. Just before Capybara 1.0! Congrats to the core team and all the contributors!",
      "time": "2011-06-21T01:21:24",
      "id": "230709877"
    },
    {
      "threadId": "323446766",
      "post": "Drip coffee is pretty good too! (Spoken like an American, I know. :p)",
      "time": "2011-06-06T15:47:48",
      "id": "219151185"
    },
    {
      "threadId": "228453488",
      "post": "lol",
      "time": "2011-05-24T02:53:29",
      "id": "210284897"
    },
    {
      "threadId": "72270870",
      "post": "I'd love to see a blog post about slavedelay, including any stories about how it's been used since it was added as an option. I asked the question on Quora, too: http://www.quora.com/Has-MongoDBs-slavedelay-setting-been-useful-in-practice It piqued my curiosity when I heard about it, but I've heard little about it since.",
      "time": "2011-05-18T23:00:11",
      "id": "206443214"
    },
    {
      "threadId": "305433347",
      "post": " Exciting news! Congrats.",
      "time": "2011-05-16T20:45:02",
      "id": "204677281"
    },
    {
      "threadId": "429384433",
      "post": "Sounds positively dreamy! Reliable, performant, flexible, modular, built by scientists and agilistas, and liberally licensed.",
      "time": "2011-05-04T19:24:52",
      "id": "197054834"
    },
    {
      "threadId": "278571792",
      "post": "Thanks for reminding me of, and expanding on, this part of Tribes. It's an amazing insight.",
      "time": "2011-04-13T18:46:34",
      "id": "183899559"
    },
    {
      "threadId": "263119143",
      "post": "Very interesting roundup.\n\nI heard about FluidInfo, who is providing the writeable API for O'Reilly, a while back. Their product is really neat, but at first it was hard for them to explain. I think they're wise to start touting it as an API technology now; it's much easier for people to grasp than the NoSQL angle they were using earlier.",
      "time": "2011-03-27T10:27:03",
      "id": "172711384"
    },
    {
      "threadId": "260383335",
      "post": "I'm glad you picked twitter as an example. Another interesting thing is going on here. Lots of apps, including mobile apps, *do* want twitter to help them with the html so they can make the mentions, hashtags, and links work. This is in addition to plain text, which I agree is important. One thing twitter could do is provide both plain text and html, but that would be redundant. Also, they would need to trust twitter's HTML. What they do instead is make sure that in popular languages, there is an easy way to convert the plain text into HTML with anchor tags for mentions, hashtags, and links. They provide tiny open-source libraries. Here are ones for ruby and javascript:\n\nhttps://github.com/twitter/twitter-text-rb\nhttps://github.com/twitter/twitter-text-js\n\nNow, how do they make sure the libraries work properly across languages? By conformance testing. The test data is in a separate repo with only a README and some yaml data files. The conformance repo has its own branches and tags so a new spec can be released and implementations can catch up independently.\n\nhttps://github.com/twitter/twitter-text-conformance\n\nThis makes it easier to separate content from presentation by making it so API providers can provide raw content and programmers can have both raw content and presentable content. They get the raw content by downloading it and get the presentable content by using the library. It makes it more secure because the developer using the API only has to trust an open source library to provide safe HTML, not the API itself. Finally, the \"tests\" feel like a RESTful  API in that they're just data and not code or even instructions.",
      "time": "2011-03-23T05:02:12",
      "id": "169961896"
    },
    {
      "threadId": "253331328",
      "post": "This embedded video plays automatically, starting with an ad, even on the main page of your blog (though it's just about fallen off the bottom). Just a heads up!",
      "time": "2011-03-18T22:05:40",
      "id": "167942403"
    },
    {
      "threadId": "253693773",
      "post": "That was exactly what I meant: the proxy could read the JSON as JSON (rather than plain text), and spit it back out as JSONP. Yes, I think it's something you should be considering. Call it JSONP Anywhere or something. :)\n\nIt could also ship with a tiny jQuery plugin to shorten the code, or maybe just instructions for a beforeSend() callback.\n\nAnother idea: you could track APIs that abuse JSONP. I don't know what you would do with the info; maybe you could just do a blog post about it. BTW you probably already have lots of data you could scan somewhere. :)",
      "time": "2011-03-15T22:16:15",
      "id": "166313278",
      "parentPost": "Good and interesting point, thanks -- after all those JavaScript sandboxes are in there for something.\n\nOne thing that theoretical API proxy could do is validate the JSON being returned from an API to ensure that it's really JSON and not some arbitrary JavaScript. In fact, such an API proxy could be set up under the control of the app consuming the API, so the proxy could protect your app from those small API providers who might purposely return JavaScript instead of a JSON object (or might because they were hacked...)\n\nIs that something we should be considering?",
      "parentPostTime": "2011-03-15T22:08:50",
      "parentPostId": "166309214"
    },
    {
      "threadId": "228916421",
      "post": "Fantastic article! I realized that I also have the issue of thinking I'll have to settle, because I'm not cut out for my dreams. The thing is, entertaining the idea of settling never helps. I do a much better job at the small stuff when I'm excited about big stuff.\n\nYour point about fear of success in your manifesto strongly resonates with me.",
      "time": "2011-03-15T07:14:33",
      "id": "165999446"
    },
    {
      "threadId": "251655929",
      "post": "I'm hoping for a microblogging renaissance. Twitter started out as a microblogging tool but now its interface is loaded with social networking distractions. I'm looking forward to seeing what you come up with!",
      "time": "2011-03-11T21:39:13",
      "id": "164465507"
    },
    {
      "threadId": "247143201",
      "post": "I think a mention of <a href=\"http://vagrantup.com/\">Vagrant</a> would be appropriate here. It would help enable most of the examples above, in a safe sort of way, even for people who don't use macs!",
      "time": "2011-03-07T03:49:56",
      "id": "161613762"
    },
    {
      "threadId": "226394136",
      "post": "I think of it as \"all comments that belong to any of the user's posts\".",
      "time": "2011-02-10T02:09:37",
      "id": "143795913",
      "parentPost": "Got it.\n\nYeah I think it makes more sense to say any methods off a collection should only ever return a subset of those objects.  So I read:\n\ncurrent_users.posts.comments\n\nand I think \"oh that must mean posts the user owns that have comments\"\n\nMeh.\n\nIt's all worth thinking about....",
      "parentPostTime": "2011-02-10T01:53:08",
      "parentPostId": "143790491"
    },
    {
      "threadId": "202924575",
      "post": "I checked it out in Safari and Chrome. Looks really sweet in Safari, and gracefully degrades in Chrome! Nice work.",
      "time": "2011-01-12T07:55:41",
      "id": "128092028"
    },
    {
      "threadId": "195400743",
      "post": "I've checked that interpretation, and it's correct. Paul's stint at Facebook definitely would count as working for a company. It's clever saying it indirectly. :)",
      "time": "2010-12-22T04:51:40",
      "id": "116665860",
      "parentPost": "you imply you had more freedom at google than at facebook is my assertion right ?",
      "parentPostTime": "2010-12-22T02:32:37",
      "parentPostId": "116590052"
    },
    {
      "threadId": "186083298",
      "post": "Have you found any formats for representing HTML in JSON that you like? It could help with transforming between the two. http://jsonml.org/ seems solid, but I wonder if most jsonistas would prefer an object with one to three pairs instead of an array with one or more values.",
      "time": "2010-12-07T02:47:33",
      "id": "108134533"
    },
    {
      "threadId": "168588321",
      "post": "I think both of those major decisions you made were good ones.",
      "time": "2010-11-07T17:01:01",
      "id": "94789416"
    },
    {
      "threadId": "165922395",
      "post": "Looking forward to it!",
      "time": "2010-11-02T20:24:28",
      "id": "93099650"
    },
    {
      "threadId": "164234772",
      "post": "Very interesting screencast. Where can I find the color picker?",
      "time": "2010-10-30T15:06:41",
      "id": "91750417"
    },
    {
      "threadId": "157819751",
      "post": "Awesome. I like what you do. Admittedly, not having very much content with SpeakerText is keeping me from liking it even more! I could say the same about a lot of things, come to think of it. With a lot of software projects, it's not enough to solve a problem. You have to do a lot of work to get your solution into use, too.",
      "time": "2010-10-18T19:05:15",
      "id": "87938234",
      "parentPost": "We're definitely very different. But that's one of the huge strengths of our team. We tend to look at and come up with solutions to problems in very complementary ways.",
      "parentPostTime": "2010-10-18T18:38:29",
      "parentPostId": "87924951"
    },
    {
      "threadId": "154568545",
      "post": "So did I. Maybe there's a picture somewhere of a crane (bird) with a crane (machine) in the background.",
      "time": "2010-10-11T16:58:57",
      "id": "85963649",
      "parentPost": "Amusing. I always thought of this project as Crane [http://bit.ly/bGruYh], not Crane [http://bit.ly/1495u9] :)",
      "parentPostTime": "2010-10-11T16:55:52",
      "parentPostId": "85962844"
    },
    {
      "threadId": "149561455",
      "post": "Me too. BTW I just noticed that I can start my custom url with a -. I just got http://bit.ly/-filtered :) I vastly prefer starting with a - than starting with an _ when I'm avoiding collision. :)",
      "time": "2010-10-01T20:22:10",
      "id": "83165936",
      "parentPost": "I love it, but until they add URL customization I'll stick with bit.ly & j.mp.",
      "parentPostTime": "2010-10-01T10:52:12",
      "parentPostId": "82879560"
    },
    {
      "threadId": "149209529",
      "post": "Do you really go to the bottom of *every* page before clicking a link? Or do you just ignore the fold if you don't see what you want in the first part of the page?\n\nEither way, this isn't the typical behavior, so the fold isn't irrelevant. Also the end of the first page is *not* the fold. That's just not what *the fold* means.",
      "time": "2010-09-30T18:44:31",
      "id": "82460695",
      "parentPost": "While it's no doubt true that google instant implies that one will scan results faster as well, I for one will continue to ignore the fold as I have always done and look for what I think is most relevant. (Of course, the fold in some sense is not irrelevant because I rarely go past the first page of results).\n\nAgree with others - we need some eye-tracking data and actual traffic comparisons.",
      "parentPostTime": "2010-09-30T18:03:45",
      "parentPostId": "82441125"
    },
    {
      "threadId": "141996320",
      "post": "How about scheduled schmoozday? Other people are on twitter; if you have interesting things to say, you might as well extract value from your channel.\n\nHmm, I think I'm being the devils advocate here. :)",
      "time": "2010-09-20T04:45:08",
      "id": "79424601"
    },
    {
      "threadId": "143483375",
      "post": "I told you earlier today that I had roughly the same idea. I didn't tell you this, though: I wanted it to find a Fort Collins friend while I was visiting Fort Collins yesterday, and I solved it in a way that works for me, but isn't especially convenient, and doesn't work for many users. I used a tool that downloads people I follow into a CSV file.<br><br>I went to <a href=\"http://tweetake.com\" rel=\"nofollow\">http://tweetake.com/</a> and logged in, then backed up just \"friends\" (it presents a few options), and downloaded a CSV file. I opened the CSV file in OpenOffice and searched, and I found the person I was looking for quickly!",
      "time": "2010-09-18T06:44:25",
      "id": "78776354"
    },
    {
      "threadId": "143371455",
      "post": "I think you could go a lot farther w/ an iPad+virtual assistant than w/ just an iPad. :)\n\nWhat about http://pick.im/? What apps might you be using to communicate w/ your dev team? Do you expect to do any high-level design while on the road? Will you use a drawing app for that, or draw on paper & snap a photo?",
      "time": "2010-09-17T22:14:29",
      "id": "78656894"
    },
    {
      "threadId": "142341077",
      "post": "Have fun! I hope you get a good chance to talk to Chris Sacca, as well. I met him briefly I'm 2005 while he was working for google. He has an amazing grasp of what makes tech companies large and small succeed.\n\nAlso have fun in Stateline! I went there back in '08. Lovely place.",
      "time": "2010-09-16T03:05:57",
      "id": "77971044"
    },
    {
      "threadId": "72267439",
      "post": "Does MongoDB support covering indexes? Can non-key columns be added (called Included Columns in SQL Server land)?\n\nhttp://en.wikipedia.org/wiki/Index_(database)#Covering_Index\nhttp://msdn.microsoft.com/en-us/library/ms190806.aspx",
      "time": "2010-08-27T19:28:57",
      "id": "72648210"
    },
    {
      "threadId": "149306344",
      "post": "It's funny hearing about Seth Godin leaving publishing that he feels to be obsolete, on a site based on obsolete technology. (Classic ASP, unless legacy URLs were maintained for some reason.)",
      "time": "2010-08-23T03:45:32",
      "id": "70689937"
    },
    {
      "threadId": "103404170",
      "post": "I especially like the phrase, \"We choose the technical vectors that have a future.\"",
      "time": "2010-06-20T20:16:50",
      "id": "57776527"
    },
    {
      "threadId": "81498492",
      "post": "How about ordering a single sticker for an electronic device, or a sticker marketplace?\n\nGood job launching fast. I'm looking forward to meeting you at LessConf!",
      "time": "2010-05-13T19:46:45",
      "id": "50167969"
    },
    {
      "threadId": "83787697",
      "post": "The comic is simply inaccurate. CouchDB MapReduce functions are written in JavaScript, not Erlang.\n\nI also groan not at the developer, but at the person who's afraid of MapReduce. If you've been in the software business for more than a year, even if you're in management, and need to deal directly with the software, being afraid of trends you've never heard of is simply unacceptable.",
      "time": "2010-04-10T22:15:23",
      "id": "44258778"
    },
    {
      "threadId": "81692471",
      "post": "I don't think I made my point clearly. I think having a user install the app can get them to return to it, but only if there's something remarkable about it. Providing relevant information or amusement is remarkable. The vast majority of apps fail at this. After checking out both of those apps, I think they succeed, but only for certain niches. And the numbers agree: the Audi app I tried has more reviews than Tweetie does.\n\nIt's commissioned mobile interfaces for websites, done as native apps, which seem to be asked for by many website stakeholders, that I'm ranting against. If there isn't something remarkable about the app, yet users install it and don't remove it, I don't think having the logo on peoples' iPhone home screens helps market the product very much. It's like a tiny banner ad with a lot of impressions going to the same person.\n\nI looked at the websites of both of them on my iPhone. thenorthface.com is flash. 'Nuff said. audi.com works, but isn't tailored to mobile devices. They do have a mobile site, but I only found it when I followed a link in Audi's app. I don't know how I would have found it otherwise.\n\nI don't think the app development slowed down the development of their mobile sites. I think that was a separate issue. I think the apps are a good idea, but that they should build out mobile sites as well.",
      "time": "2010-04-02T03:44:38",
      "id": "42820464",
      "parentPost": "I think there are obvious exceptions to this. I dont think you can market a product, but you can easily market your brand. Take North Face or Audi as an example, both apps dont sell you their products but provide useful information/amusement in a branded application promoting their brand.",
      "parentPostTime": "2010-04-02T00:46:46",
      "parentPostId": "42778812"
    },
    {
      "threadId": "81570477",
      "post": "Congrats, Andrew!\n\nI didn't hear of the escrow part until now. I just thought the search interface was cool. Now that I think about it, though, if I were a freelancer, the escrow part would be even more useful to me. It sounds like you're shooting for what <a href=\"http://sivers.org/muckwork\">Derek Sivers' MuckWork</a> aims to be, but for freelancers rather than musicians. Now that would be cool.\n\nI wish you the best of luck going forward!",
      "time": "2010-04-01T18:31:31",
      "id": "42735532"
    },
    {
      "threadId": "81347309",
      "post": "Well played.",
      "time": "2010-04-01T04:05:45",
      "id": "42589597"
    },
    {
      "threadId": "57379772",
      "post": "This is great! I hadn't even noticed I was missing invisible characters, but now I want them! And, thanks to you, I've got them showing up in a way that's just as elegant as they are in TextMate.",
      "time": "2010-03-30T14:25:05",
      "id": "42276523"
    },
    {
      "threadId": "78312512",
      "post": "It looks sweet! I wish you'd point out what you did with the Android app that you couldn't do with the iPhone app due to the limitations of the SDK (like only one app running at a time). No need to be quiet about it. :)",
      "time": "2010-03-22T20:34:29",
      "id": "41104929"
    },
    {
      "threadId": "77973548",
      "post": "Oh, I see. I shouldn't assume that it was for the same amount of time as in Charlotte. I'd like to know so I could figure out what percentage of the footage made it to the final video. I'm just curious.",
      "time": "2010-03-21T19:09:39",
      "id": "40811965",
      "parentPost": "This is from the night before. The video from my performance isn't up yet. Ben had a lot of connection problems last night and not as many people wanting to talk to him. There were at least three penises, unfortunately. He did it for like 15 minutes last night, and the best part of it is captured in this TwitPic:\n\nhttp://twitpic.com/19zn33",
      "parentPostTime": "2010-03-21T18:49:07",
      "parentPostId": "40794858"
    },
    {
      "threadId": "77840383",
      "post": "I sent that tweet out manually. It looks like an automated tweet, though. :) I like to post small tweets sometimes. I think they're easier for people who aren't interested to skim past.\n\nMy current limit is not very low. I've posted more than twenty tweets in a single day on many occasions. One way or another, that loses readers. (With lists and checking individual profiles, I pay more attention to some people I follow than others.)\n\nThere are many schools of thought on twitter, and many reasons to use twitter. I'm trying to use my account to get more involved in open source. There are so many people and projects in open source that I can't keep track of anywhere near as much information as I'd like. I'm sure others feel the same way.",
      "time": "2010-03-21T18:02:32",
      "id": "40781869",
      "parentPost": "How funny that writing this blog post caused an automatic tweet to occur! ;)\n\nI think i probably tweet too much, but i don't really care. I've never kept track of my follower count. Lots of random people follow me for reasons i will never fathom!",
      "parentPostTime": "2010-03-21T10:30:11",
      "parentPostId": "40753789"
    },
    {
      "threadId": "77458168",
      "post": "Great idea!",
      "time": "2010-03-19T18:17:38",
      "id": "40573905",
      "parentPost": "You should write a bash script to clone a repo into the proper dir.\n$ gclone benatkin/weaky",
      "parentPostTime": "2010-03-19T18:13:10",
      "parentPostId": "40573372"
    },
    {
      "threadId": "71506172",
      "post": "Brilliant. Especially the OS X-inspired candy.",
      "time": "2010-03-01T23:57:37",
      "id": "37524879"
    },
    {
      "threadId": "67688466",
      "post": "Without knowing you (never mind - pulling you up on tweetstats!) I vote that your healthy change should be a more regular sleep schedule. Or a more regular waking-up schedule.\n\nActually, after looking at your tweetstats it seems you're already doing quite well. No tweets between 12AM and 4AM. I already voted 'other' in the poll and don't have another idea right now, so just keep it up! If I hadn't already voted I would have picked 'no paper coffee cups'.\n\nhttp://tweetstats.com/graphs/doniree",
      "time": "2010-02-17T18:17:28",
      "id": "34877999"
    },
    {
      "threadId": "64610758",
      "post": "I'm going in mid-April. I'm also going to Brighton, which seems to be a really cool place for tech. And Ireland, and Paris...",
      "time": "2010-02-17T12:37:18",
      "id": "34841669"
    },
    {
      "threadId": "65074030",
      "post": "I dub thee the king of snippets!",
      "time": "2010-02-08T09:03:33",
      "id": "32994264"
    },
    {
      "threadId": "65068716",
      "post": "According to the demo it is. Sahil left out both for \"People I fell in love with.\"",
      "time": "2010-02-08T08:36:13",
      "id": "32993587",
      "parentPost": "What happens if you don't enter a data type or unit? Is this permissible? ",
      "parentPostTime": "2010-02-08T08:33:12",
      "parentPostId": "32992732"
    },
    {
      "threadId": "65019110",
      "post": "Wonderful tip. I agree with Antoine - keep 'em comin'!",
      "time": "2010-02-08T07:25:21",
      "id": "32991054"
    },
    {
      "threadId": "58300791",
      "post": "Nice post, Drew. I'm not a very good person to test messages on, but it resonates with me. :)",
      "time": "2010-02-01T07:56:57",
      "id": "32267297"
    },
    {
      "threadId": "56399861",
      "post": "That argument doesn't work on greedy estate holders.",
      "time": "2010-01-07T20:53:11",
      "id": "28835344",
      "parentPost": "Considering that Nexus One is the first Tyrell Replicants, and Google has already released the Droid (Replicants were basically super-Androids), PKDs descendents might have a case, but let's face it, it's a nice tribute to a sci-fi great. I'm sure he would've seen it that way.",
      "parentPostTime": "2010-01-06T21:14:11",
      "parentPostId": "28717465"
    },
    {
      "threadId": "49922111",
      "post": "No, I'm saying it's like calling a simple wiki a blogging engine. Sure, you could technically write a blog with it, but not all of the features that constitute a blogging engine are there. The class is small, but with SubEthaEdit, EtherPad, and Coda, I think the idea most people have of what a collaborative editor is doesn't include Wave.",
      "time": "2009-12-05T22:15:58",
      "id": "24915980",
      "parentPost": "So you're saying you can't use a program to collab on editing documents if you can't see who made what change?\nThat doesn't make sense.\n\nYou can still collab, it's just very annoying.",
      "parentPostTime": "2009-12-05T22:07:52",
      "parentPostId": "24915750"
    },
    {
      "threadId": "48684530",
      "post": "I don't see this working well on me, unless it's directly related to twitter, like TweetScan is. I have an extra account (@lowerCamelCase) that I use for FourSquare checkins and localbunny, and if I can get away with it, I'll just use that!",
      "time": "2009-12-01T07:04:35",
      "id": "24415504"
    },
    {
      "threadId": "48286200",
      "post": "You seem to be talking about the USA, while the article is about England.\r\n\r\nHere we have a different problem: mothers who can't afford to take leave have to work anyway because the FML Act doesn't require employers to continue to pay them while on leave. Many of them can't afford childcare either. So grandma ends up watching them.",
      "time": "2009-11-28T03:16:12",
      "id": "24218610",
      "parentPost": "FYI, what employers are paying women while they're on maternity leave?  If the employer has 50 or more employees, it would be covered under FMLA, which is UNPAID leave and only guarantees that the mother can come back to work when the maternity leave is over (limited time frame on that as well - 12 weeks).  The employer does NOT pay \"two salaries\" just because they hire someone else while the mother is out on leave.\r\n\r\nFor companies under 50 employees, FMLA doesn't even apply, so what federal regulations are forcing you to pay the mother while she is on leave?\r\n",
      "parentPostTime": "2009-11-28T00:31:06",
      "parentPostId": "24204657"
    },
    {
      "threadId": "47505865",
      "post": "I want that book! Probably going to pick up the mp3 audiobook on BN.com if I don't win. (In fact, I might have picked it up already if not for having to download a desktop application to download mp3 audiobooks from BN.com. But I'll probably jump through that hoop.)",
      "time": "2009-11-23T23:35:06",
      "id": "23909740"
    },
    {
      "threadId": "43216613",
      "post": "I think I made more of an issue out of it than it really is. It really comes down to whether twitter is focused on building trust with its loyal user base or going after the big brands. It probably makes sense to go after the big brands. But in the case of Denny's, why raise a ruckus if they're going to #fail at making use of the username once they get it, anyway?",
      "time": "2009-11-03T20:04:52",
      "id": "21779016",
      "parentPost": "Good point. I guess @Dennys is a little more common of a name than something like @CocaCola. :)",
      "parentPostTime": "2009-11-03T19:38:51",
      "parentPostId": "21777284"
    },
    {
      "threadId": "40969132",
      "post": "That sucks. I've heard mixed things about Anthem, as compared to other health insurance companies. (Of course they absolutely suck, but to me their relative suckage is in question.) I hope you can get it all sorted out!",
      "time": "2009-10-22T04:50:08",
      "id": "20765230"
    },
    {
      "threadId": "39957839",
      "post": "Wow! Have fun and be safe!",
      "time": "2009-10-17T01:19:22",
      "id": "20242534"
    },
    {
      "threadId": "27038578",
      "post": "Good catch! It turns out the error was also in the press release which is oddly only available in PDF format: http://www.valleymetro.org/metro_light_rail/newsroom/",
      "time": "2009-07-30T23:18:44",
      "id": "13697322",
      "parentPost": "and it should actually read \"3 AM\"",
      "parentPostTime": "2009-05-21T16:56:33",
      "parentPostId": "13564552"
    },
    {
      "threadId": "23770005",
      "post": "I noticed the same happened with me. A friend I know in real life and on twitter just mentioned her death, and a chill went down my spine, too. It's not just that I'm reminded that just about anyone's life could get cut short by a car accident, it's that I'll miss what she could have contributed to my friend's life, and indirectly contributed to mine. I also can't help but think I might have got a chance to enjoy her creative work and insights myself, as it was being created (I enjoyed the video that was embedded in this post).\r\n\r\nIn my experience, the most common thing that happens when people disappear from the social network scene is that they come back. I'm really starting to believe that social networking is transforming society.",
      "time": "2009-07-16T20:02:31",
      "id": "12764054",
      "parentPost": "I must be honest and say I didn't know her on Twitter, but it sent a chill down my spine. This to me seems more 'real' than the news about Michael Jackson. I can relate to this as a 'there but for the grace of God and all that' a lot more.\r\n\r\nI often wonder when people just disappear of the social network scene, what happens to them. I guess most of the time it is some innocent maybe even prosaic reason, then other times it's horrible news like this.",
      "parentPostTime": "2009-07-02T21:28:11",
      "parentPostId": "12049098"
    },
    {
      "threadId": "19087481",
      "post": "I haven't paired with you yet and for all I know you could have outsourced writing Zyps to India, but you seem like you might be an awesome dev. I won't take your word for it, though. :D\r\n\r\nIn all seriousness, I'm excited to see what you come up with while you're on your own. I've always thought of you as being independent, and thought you would thrive on your own, once you were ready. Best wishes.",
      "time": "2009-06-07T16:05:51",
      "id": "10589629",
      "parentPost": "Oh, I'm an awesome dev.  Just read any of my sales letters and you'll know.  :)\r\n\r\nSeriously, thanks for the good wishes.  And yes, you'll definitely see me at more tech gatherings - got to go find leads.  :)",
      "parentPostTime": "2009-05-26T21:52:57",
      "parentPostId": "9972375"
    },
    {
      "threadId": "15983573",
      "post": "...and you attach a screenshot? :p\r\n\r\nYou know, it's quite likely that 100% of your subscribers have a browser that's capable of rendering SVG.",
      "time": "2009-04-17T13:40:13",
      "id": "8293485"
    },
    {
      "threadId": "13290895",
      "post": "Interesting...I didn't even notice that. While experienced lispers may not like this, might this make it easier for people who are used to Ruby or Python to read lisp?",
      "time": "2009-03-09T17:07:08",
      "id": "7035580",
      "parentPost": "er, but obviously indented... comment didn't indent :)",
      "parentPostTime": "2009-03-09T12:58:08",
      "parentPostId": "7027786"
    },
    {
      "threadId": "11275836",
      "post": "DISQUS is cool...but it takes part of the functionality out of your control and puts it in the control of another site! I liked your icons that showed location, browser, and operating system. I also liked how you had OpenID integration set up.",
      "time": "2009-02-06T20:51:26",
      "id": "6053450"
    },
    {
      "threadId": "9506975",
      "post": "I just installed it, and within 10 minutes I found an event on one of my sites that wasn't wired up correctly! This is a very nice thing to have in my toolbox.",
      "time": "2009-01-15T05:39:39",
      "id": "5134612"
    },
    {
      "threadId": "5210058",
      "post": "I read about this earlier today but didn't watch this video until now. It wasn't as bad as I expected. She didn't outright say she couldn't name a magazine or a newspaper, she just deflected the question. She shouldn't be able to get away with that, but politicians have been getting away with skipping questions they don't like for a while now. The public is not requiring that from them, and the media isn't pressing them. Couric should have kept pressing for an answer. At least she asked twice. A lot of times journalists won't even try a second time.",
      "time": "2008-10-01T05:03:52",
      "id": "2772652"
    },
    {
      "threadId": "1327163",
      "post": "I'm going to give it a shot. I love GMail, but it's far from perfect, and to me it really hasn't changed a lot since it launched. I also partly want to go back to using a desktop e-mail client. I think this might be an improvement over what I've got now.\r\n\r\nI'm also curious what kind of web apps Apple will produce. They have some of the most talented programmers and designers in the world, but up until now, we haven't seen them try their hand at the kind of web apps Google and Yahoo! are known for.",
      "time": "2008-06-20T19:09:33",
      "id": "717303"
    }
  ],
  "profileInfo": {
    "username": "benatkin",
    "about": "software experimenter, cyclist, traveler, boulderite",
    "name": "Ben Atkin",
    "disable3rdPartyTrackers": false,
    "isPowerContributor": false,
    "isAnonymous": false,
    "rep": 1.313488,
    "profileUrl": "https://disqus.com/by/benatkin/",
    "url": "http://benatkin.com/",
    "reputation": 1.313488,
    "location": "Boulder, CO",
    "isPrivate": false,
    "signedUrl": "http://disq.us/?url=http%3A%2F%2Fbenatkin.com%2F&key=kNbNTmIvH-JRVWexY0XeaA",
    "isPrimary": true,
    "joinedAt": "2008-06-20T19:09:33",
    "id": "48818",
    "avatar": {
      "small": {
        "permalink": "https://disqus.com/api/users/avatars/benatkin.jpg",
        "cache": "//a.disquscdn.com/uploads/users/4/8818/avatar32.jpg?1450217801"
      },
      "isCustom": true,
      "permalink": "https://disqus.com/api/users/avatars/benatkin.jpg",
      "cache": "//a.disquscdn.com/uploads/users/4/8818/avatar92.jpg?1450217801",
      "large": {
        "permalink": "https://disqus.com/api/users/avatars/benatkin.jpg",
        "cache": "//a.disquscdn.com/uploads/users/4/8818/avatar92.jpg?1450217801"
      }
    }
  }
}