{
  "comments": [
    {
      "threadId": "1751138959",
      "post": "You can also buy unlocked and use T-Mobile's 30$ prepaid plan. Really cheap if you only need 100 minutes and get unlimited text and 5GB at 4G speeds then unlimited.\nI'm still on Verizon as the network is way better.",
      "time": "2013-09-12T07:23:35",
      "id": "1039834309"
    },
    {
      "threadId": "741005980",
      "post": "Spotify Radio is actually available worldwide but only for subscribers (similar to the radio in the desktop app).",
      "time": "2012-06-26T16:51:37",
      "id": "567723855"
    },
    {
      "threadId": "646236658",
      "post": "I can confirm that it is indeed unlimited. Doing traffic close/exceeding TB with no speed loss.",
      "time": "2012-04-12T14:50:55",
      "id": "495453354",
      "parentPost": "There isnt a fair usage policy on BT Infinity, there is p2p traffic management, but no Fair Usage Policy, you download/upload all you want aslong as its not peer to peer! ",
      "parentPostTime": "2012-04-12T13:40:01",
      "parentPostId": "495398912"
    },
    {
      "threadId": "381175088",
      "post": "+1 for MacVim ;)",
      "time": "2011-08-09T13:47:12",
      "id": "281216705"
    },
    {
      "threadId": "282248457",
      "post": "+1",
      "time": "2011-04-22T13:33:34",
      "id": "189996608"
    },
    {
      "threadId": "187227713",
      "post": "Fix cand ajung in Romania. Vin daca nu sunt mort de somn ;)",
      "time": "2010-12-08T20:54:00",
      "id": "108795166"
    },
    {
      "threadId": "80901498",
      "post": "L-am nimerit pe asta, vin si eu !",
      "time": "2010-03-30T21:53:13",
      "id": "42339119"
    },
    {
      "threadId": "58990100",
      "post": "Thanks for the link!",
      "time": "2010-03-12T21:06:27",
      "id": "39430696",
      "parentPost": "check it out http://www.erlang-solutions.com/news/1/entry/1139",
      "parentPostTime": "2010-03-05T11:09:24",
      "parentPostId": "38131224"
    },
    {
      "threadId": "47798251",
      "post": "The git path seems to be case sensitive. use git://github.com/facebook/three20.git",
      "time": "2010-02-22T00:52:28",
      "id": "35763253"
    },
    {
      "threadId": "54536562",
      "post": "Tokyo Cabinet uses mmap so it needs 64bits to address that amount of memory.",
      "time": "2010-01-03T21:49:23",
      "id": "27926102",
      "parentPost": "yes, we already had a huge problem because of that, you need to compile tokyocabinet for 64bit offset support to avoid that.",
      "parentPostTime": "2010-01-03T21:48:05",
      "parentPostId": "27926068"
    },
    {
      "threadId": "53469182",
      "post": "It was just a thought on making it like a more comprehensive list of libraries so new users can find libraries in their language. And a wiki-style so people can contribute.",
      "time": "2009-12-27T17:58:48",
      "id": "27338879",
      "parentPost": "Broken link fixed.\n\nI'll probably never be able to track all of the NoSQL libraries/work, but I'm definitely interested to hear more about your wiki idea. Would you mind dropping me an email to share more details about it?\n\nThanks in advance ",
      "parentPostTime": "2009-12-27T01:12:42",
      "parentPostId": "27311275"
    },
    {
      "threadId": "32187433",
      "post": "Thanks, changed.",
      "time": "2009-09-03T08:49:04",
      "id": "15852802",
      "parentPost": "But change the video with the new one. ",
      "parentPostTime": "2009-09-03T07:56:11",
      "parentPostId": "15851985"
    },
    {
      "threadId": "29315815",
      "post": "Poate data viitoare, #23 a cam fost.",
      "time": "2009-08-26T08:44:09",
      "id": "15410282",
      "parentPost": "I'm in \r\n( + 1 )",
      "parentPostTime": "2009-08-26T08:28:52",
      "parentPostId": "15409871"
    },
    {
      "threadId": "21374061",
      "post": "E dupa bac. I'm in!",
      "time": "2009-06-12T16:55:49",
      "id": "10804764"
    },
    {
      "threadId": "16557448",
      "post": "W00t Delayed Job in beta and AMQP coming. Great job guys!\r\n\r\nWhen you add AMQP i'm sold.",
      "time": "2009-04-24T08:07:48",
      "id": "8640854"
    },
    {
      "threadId": "11628583",
      "post": "Thanks, I changed that. It was intended for the tests to fail until you make the migration.",
      "time": "2009-04-17T10:57:46",
      "id": "8291261",
      "parentPost": "Nice post. I especially like that you did all tests too, not many Ruby/Rails tutorials provide test too.\r\n\r\nI found a small inaccuracy. Just before \"3. Create migration to add username\" test won't pass because user still doesn't have username attribute, so the view will display an error. However, the tests do pass once you do the migration. ",
      "parentPostTime": "2009-04-17T10:07:41",
      "parentPostId": "8290787"
    },
    {
      "threadId": "15746325",
      "post": "For those who cannot attend, can you please post your slides/documentation ? Thanks.",
      "time": "2009-04-14T15:29:08",
      "id": "8197516"
    },
    {
      "threadId": "15699033",
      "post": "Waiting for Wurbe++ :P",
      "time": "2009-04-13T23:15:51",
      "id": "8137018"
    },
    {
      "threadId": "14961173",
      "post": "Great, I started using it.\r\nYou should look into adding more features for Fluid like http://github.com/stephencelis/githubbub/tree/master",
      "time": "2009-04-11T14:20:57",
      "id": "8078141"
    },
    {
      "threadId": "14539711",
      "post": "You need them when you work with software that interacts with the cloud. Like programatically configuring servers, or the kind of auto-scaling and replication that Heroku does.",
      "time": "2009-03-28T11:04:07",
      "id": "7581980",
      "parentPost": "Why do you need all these virtual machines for development?  Why not just start all your servers on the same computer without VMs?  It sounds like your working around a software installation problem.\r\n\r\nWhere I work we keep a single production machine image that basically never changes.  All code is statically linked into a self-contained executable and deployed to production machines.  And then you can just run all your servers on a single machine -- no VMs necessary.",
      "parentPostTime": "2009-03-28T04:51:37",
      "parentPostId": "7579257"
    },
    {
      "threadId": "12866704",
      "post": "Prezinta ce iti place tie cel mai mult, avantaje & so. Poate convertesti pe cineva :P",
      "time": "2009-03-03T22:52:43",
      "id": "6850445",
      "parentPost": "Bai, nu stiu daca am ce prezenta in 45 de minute ... as avea ce dar o sa fie boring.",
      "parentPostTime": "2009-03-02T16:52:57",
      "parentPostId": "6788273"
    },
    {
      "threadId": "12700575",
      "post": "Thanks for sharing your setup.\r\n\r\nI'm currently using a white MacBook (upgraded to 4GB of RAM) which I take with me at school. I want to buy a 24\" display to have more screen space. My cheap chair is good enough for now.\r\n\r\nHow is the eReader for programming books ? In Europe we don't have Kindle and some say that coding books are not rendered well.",
      "time": "2009-02-27T15:56:07",
      "id": "6701985"
    },
    {
      "threadId": "12320399",
      "post": "Thanks for your article, it works great.\r\nYou have a typo in the first gist, it's \"sudo gem install mislav-hanna\" without an h at the end.\r\nAlso note that regenerating rdocs might take a long time, depending on how many gems you have installed.\r\n",
      "time": "2009-02-25T21:25:31",
      "id": "6622819"
    },
    {
      "threadId": "11526656",
      "post": "Foloseste cineva zsh ? Am vazut ca unii au inceput sa combine zsh cu git (sa arate branch-ul: http://gitready.com/advanced/2009/01/28/zsh-git-status.html) Altii combina asta cu lighthouse (http://www.robbyonrails.com/articles/2009/02/16/git-commit-msg-for-lighthouse-tickets).\r\n\r\nAr fi ok sa fie toate chestiile prezentate links&code sa fie adunate undeva (wiki sau writeboard).",
      "time": "2009-02-16T23:33:34",
      "id": "6316130"
    },
    {
      "threadId": "11048856",
      "post": "Thanks, it seems a pretty good and customizable platform.",
      "time": "2009-02-03T22:35:47",
      "id": "5820008",
      "parentPost": "Welcome to Tumblr ;)",
      "parentPostTime": "2009-02-03T15:36:03",
      "parentPostId": "5808663"
    },
    {
      "threadId": "11052460",
      "post": "As a reader, I certainly do not mind seeing 4 square ads, they are not intrusive and hopefully they advertise quality software/services.",
      "time": "2009-02-03T14:15:07",
      "id": "5806708"
    },
    {
      "threadId": "6487132",
      "post": "I also thought of this. I think I'll go for typepad (best hosted blog service I seen so far) instead of self-hosted wordpress for no maintenance. They also let me edit the design if I need to. ",
      "time": "2008-11-01T11:27:26",
      "id": "3429786"
    },
    {
      "threadId": "5655079",
      "post": "Thanks for your notes. I couldn't watch the stream but It's great to see all the talks in a post.",
      "time": "2008-10-12T09:35:24",
      "id": "3006382"
    },
    {
      "threadId": "1490031",
      "post": "And Disqus supports Clickpass Auth, I quickly used my OpenID to signup (both to Clickpass and to Disqus).",
      "time": "2008-06-29T21:00:44",
      "id": "775069"
    },
    {
      "threadId": "94242",
      "post": "\"How about a standard way to authorize a third party to get my address book?\"\r\nIt already exists, it's called <a href=\"http://oauth.net/\">OAuth</a>. If you would like it then support <a href=\"http://www.dataportability.org/\">DataPortability</a>.",
      "time": "2008-01-04T10:06:03",
      "id": "58717",
      "parentPost": "I used the Friend Finder on Facebook, too.  Indeed, very helpful.  I uploaded my address book, which I downloaded from Gmail and LinkedIn (merging the two), without giving these guys any passwords.\r\n\r\nFacebook's refusal to let me download my address book from Facebook is my biggest gripe about their service.  Plaxo was going to solve this problem, and anything Google and Yahoo can do to help Plaxo in this round should help them in the long term.  Google in particular already has an export feature, so it comes with the best hand.\r\n\r\nHow about a standard way to authorize a third party to get my address book?  This way, I could tell Gmail and LinkedIn and Facebook to allow Plaxo.  This should come as an option -- one-time access or continued.\r\n\r\nGoogle has a carrot here, too.\r\n\r\nWhile I'm not prepared to let Facebook have my email password, I'd gladly let them have my email address book.  Particularly, if they suggest new friends to me and *let me export it back*.",
      "parentPostTime": "2008-01-04T03:46:01",
      "parentPostId": "58425"
    },
    {
      "threadId": "55332593",
      "post": "But that isn't a security hole ?\nYou have to be very careful about what you store on the client, so you can't store the whole User model only the id (a practice used by me in PHP but now with act_as_authenticated not used).",
      "time": "2007-02-21T17:11:00",
      "id": "27853763"
    }
  ],
  "profileInfo": {
    "username": "mihaia",
    "about": "I'm a developer who loves to hack and play with open source code.",
    "name": "Mihai Anca",
    "disable3rdPartyTrackers": false,
    "isPowerContributor": false,
    "isAnonymous": false,
    "rep": 1.2279639999999998,
    "profileUrl": "https://disqus.com/by/mihaia/",
    "url": "http://mihaia.com",
    "reputation": 1.2279639999999998,
    "location": "Manchester, UK",
    "isPrivate": false,
    "signedUrl": "http://disq.us/?url=http%3A%2F%2Fmihaia.com&key=77aAzO-dhYYOMBL0dM_Dsw",
    "isPrimary": true,
    "joinedAt": "2008-06-27T11:30:47",
    "id": "52002",
    "avatar": {
      "small": {
        "permalink": "https://disqus.com/api/users/avatars/mihaia.jpg",
        "cache": "//a.disquscdn.com/uploads/users/5/2002/avatar32.jpg?1303479319"
      },
      "isCustom": true,
      "permalink": "https://disqus.com/api/users/avatars/mihaia.jpg",
      "cache": "//a.disquscdn.com/uploads/users/5/2002/avatar92.jpg?1303479319",
      "large": {
        "permalink": "https://disqus.com/api/users/avatars/mihaia.jpg",
        "cache": "//a.disquscdn.com/uploads/users/5/2002/avatar92.jpg?1303479319"
      }
    }
  }
}