{
  "comments": [
    {
      "threadId": "3784398036",
      "post": "I agree with argument and conclusion of this post.\n\nHowever, presuming there are suicidal people who will click through to this article, it is inadequate and irresponsible. \n\nWhile it may not be unforgiveable, at least give some reasons to discourage people who are currently struggling with suicidal thoughts.\n\nLikewise, it's worth having a footnote with websites and helpline phone numbers that people can call if they need to talk with someone.",
      "time": "2015-06-17T22:23:32",
      "id": "2084756287"
    },
    {
      "threadId": "3137789523",
      "post": "these posts are great. thanks bro.",
      "time": "2014-10-21T12:29:27",
      "id": "1646223771"
    },
    {
      "threadId": "2834174487",
      "post": "thanks for sharing your journey!! peace",
      "time": "2014-07-15T04:53:20",
      "id": "1485544782"
    },
    {
      "threadId": "2810150867",
      "post": "#amen",
      "time": "2014-07-02T23:51:44",
      "id": "1465876513"
    },
    {
      "threadId": "2711318242",
      "post": "and this",
      "time": "2014-05-25T11:35:16",
      "id": "1403388100",
      "parentPost": "this is another test",
      "parentPostTime": "2014-05-25T11:35:07",
      "parentPostId": "1403387994"
    },
    {
      "threadId": "2681428221",
      "post": "great post, thanks for sharing. thanks also for coming to Australia!",
      "time": "2014-05-14T05:19:14",
      "id": "1384077850"
    },
    {
      "threadId": "2501698630",
      "post": "i found his discussion on 'knowledge work' really useful.",
      "time": "2014-03-25T23:19:28",
      "id": "1302720301"
    },
    {
      "threadId": "2104762416",
      "post": "thanks for the clear response to this technique.\n\n\ngood call on how at its root is dissatisfaction with prayer life.",
      "time": "2014-01-10T14:43:25",
      "id": "1195038480"
    },
    {
      "threadId": "1959433397",
      "post": "wow!",
      "time": "2013-11-18T12:46:27",
      "id": "1127991220"
    },
    {
      "threadId": "1944706375",
      "post": "well done! sign me up to be a moment maker :)",
      "time": "2013-11-07T14:11:27",
      "id": "1112469837"
    },
    {
      "threadId": "1941605050",
      "post": "i think 2007 #realanswer",
      "time": "2013-11-06T14:37:12",
      "id": "1111086862",
      "parentPost": "i've been following this blog since 1985",
      "parentPostTime": "2013-11-06T14:34:30",
      "parentPostId": "1111083831"
    },
    {
      "threadId": "1902537652",
      "post": "thanks for the link :)",
      "time": "2013-10-26T21:27:31",
      "id": "1097861421"
    },
    {
      "threadId": "1884627129",
      "post": "good call",
      "time": "2013-10-22T14:06:28",
      "id": "1092109446",
      "parentPost": "I regularly see people trained to see the \"humblebrag\" on Twitter and who can't wait to shame someone who does it, and it's usually someone they don't really know. I've also seen people accused of doing it when it seemed clear that wasn't what they were doing or intending to do. Once we show what a humblebrag is, can we actually be humble enough not to judge the intentions of others? Maybe they didn't mean it that way.",
      "parentPostTime": "2013-10-22T13:54:08",
      "parentPostId": "1092096246"
    },
    {
      "threadId": "1836288250",
      "post": "\"He is a leader within that restless YouTube generation, he has written a book for them, and I am convinced it will serve them well.\"\n\n\npraying to that end!",
      "time": "2013-10-08T13:05:32",
      "id": "1074882377"
    },
    {
      "threadId": "1811032084",
      "post": "ok. i'll admit it. my day just got better :)",
      "time": "2013-09-30T14:17:10",
      "id": "1064504679"
    },
    {
      "threadId": "1357788973",
      "post": "yes!",
      "time": "2013-06-07T23:18:04",
      "id": "922794379"
    },
    {
      "threadId": "1123946006",
      "post": "we use these all the time in our youth community. it's a really good way to kick off.",
      "time": "2013-03-08T03:37:08",
      "id": "822551560"
    },
    {
      "threadId": "519723102",
      "post": "have enjoyed the blog this year. thanks. looking forward to 2012!",
      "time": "2011-12-30T13:36:14",
      "id": "397225150"
    },
    {
      "threadId": "509172759",
      "post": "gold!",
      "time": "2011-12-19T09:55:17",
      "id": "389759541"
    },
    {
      "threadId": "476219010",
      "post": "that link above is an affiliate link from tim's website. so click it and he gets a bigger cut :)",
      "time": "2011-11-23T23:08:45",
      "id": "371169468",
      "parentPost": "hey doug - tim chester's book 'Closing the Window: Steps to Living Porn Free' is fantastic. it really helps to think through fleeing from porn in a gospel-centred, God-centred way. http://www.amazon.com/dp/0830838422/ref=nosim?tag=timche-20",
      "parentPostTime": "2011-11-23T23:07:40",
      "parentPostId": "371169025"
    },
    {
      "threadId": "457740385",
      "post": "i appreciate your observations. thanks",
      "time": "2011-10-31T14:15:51",
      "id": "351941503"
    },
    {
      "threadId": "413253545",
      "post": "soli deo gloria",
      "time": "2011-09-16T05:44:07",
      "id": "312612397"
    },
    {
      "threadId": "411298009",
      "post": "this week. cya there?",
      "time": "2011-09-12T15:26:32",
      "id": "307893086",
      "parentPost": "Hey thanks brother, and thanks for your prayers. You in USYD this or next week?",
      "parentPostTime": "2011-09-12T08:43:54",
      "parentPostId": "307685543"
    },
    {
      "threadId": "387582536",
      "post": "is this the first ever comment on your blog? if so. let's make it worth it. hey faf, Jesus is Lord... keep trusting and preaching HIM!!",
      "time": "2011-08-16T14:15:23",
      "id": "288088337"
    },
    {
      "threadId": "368658134",
      "post": "wow. way to go.",
      "time": "2011-07-26T05:50:42",
      "id": "264732366"
    },
    {
      "threadId": "361062851",
      "post": "thanks for the link love.\nit's really good stuff.\ni need to keep hearing it too!!\nin the end, it's really an outworking/rewording of \"watch your life and doctrine closely\"",
      "time": "2011-07-18T13:19:40",
      "id": "255993175"
    },
    {
      "threadId": "358189349",
      "post": "haha - great minds think alike... (she porbably just said that too!!)",
      "time": "2011-07-14T11:21:09",
      "id": "251924717",
      "parentPost": "You will not believe this, but Lou is just looking over my shoulder at the post and she just said exactly the same thing!!!",
      "parentPostTime": "2011-07-14T11:19:11",
      "parentPostId": "251923825"
    },
    {
      "threadId": "340859358",
      "post": "sweeet",
      "time": "2011-06-24T03:59:56",
      "id": "233919288"
    },
    {
      "threadId": "301821430",
      "post": "thanks for the link love.\nenjoying your posts :) ",
      "time": "2011-05-13T22:57:33",
      "id": "203320971"
    },
    {
      "threadId": "298083172",
      "post": "good quote. \n",
      "time": "2011-05-08T11:19:30",
      "id": "199666389"
    },
    {
      "threadId": "290949173",
      "post": "i read cross and switchblade as a 9 year old. can't remember all the details, but can remember being amazed by the work of God done in and through wilkerson. praise God for a life not wasted. ",
      "time": "2011-04-29T00:54:53",
      "id": "193839363"
    },
    {
      "threadId": "266379017",
      "post": "congrats on a solid innings.",
      "time": "2011-03-30T23:32:35",
      "id": "175217064"
    },
    {
      "threadId": "246697474",
      "post": "wow! big news! i'm really thankful to God for being introduced to your work on Open House. I look forward to seeing how God continues to use you in the UK. keep preaching Jesus.",
      "time": "2011-03-06T10:37:05",
      "id": "161225647"
    },
    {
      "threadId": "243389444",
      "post": "ps - the picture is awesome!",
      "time": "2011-03-03T00:47:27",
      "id": "159536328"
    },
    {
      "threadId": "242305372",
      "post": "great interview.\ni really appreciate the diversity on the show.\npeaceout amigo",
      "time": "2011-03-01T15:03:45",
      "id": "158278060"
    },
    {
      "threadId": "236546122",
      "post": "hey sheridan. the blog looks great. looking forward to reading and joining in the conversation. peaceout.",
      "time": "2011-02-21T23:11:45",
      "id": "153598471"
    },
    {
      "threadId": "216736796",
      "post": "stoked about this mission!!\nappreciate the report.\nkeep preaching Jesus",
      "time": "2011-01-27T02:53:50",
      "id": "135127749"
    },
    {
      "threadId": "213692722",
      "post": "praying brother. so encouraged by the mission. praying Jesus is preached, honoured and trusted!",
      "time": "2011-01-21T23:26:57",
      "id": "132635463"
    },
    {
      "threadId": "210019361",
      "post": "love the 3 nights of prayer!\ngold.\nremember that definition of evangelism (not sure who it came from):\nEvangelism is:\na) Speaking to God about People and\nb) Speaking to People about God.\ni like how this mission is taking the first part so seriously.\npraying with ya.",
      "time": "2011-01-16T06:08:13",
      "id": "129636770"
    },
    {
      "threadId": "204357893",
      "post": "brilliant. love the new blog.\nhow did the sermon go?",
      "time": "2011-01-10T11:55:03",
      "id": "126763033"
    },
    {
      "threadId": "200609358",
      "post": "praise God for his kindness. looking forward to gleaning more.",
      "time": "2011-01-01T14:07:53",
      "id": "122733644"
    },
    {
      "threadId": "8657841",
      "post": "wow - that's very cool.",
      "time": "2008-12-20T22:43:48",
      "id": "4545650"
    },
    {
      "threadId": "8645287",
      "post": "i might be in... thanks for the encouragement",
      "time": "2008-12-20T14:55:25",
      "id": "4540173"
    },
    {
      "threadId": "8457888",
      "post": "i love it!",
      "time": "2008-12-16T21:55:38",
      "id": "4436789"
    },
    {
      "threadId": "7827689",
      "post": "hey los, just had a look on youtube and couldn't find one...\r\nso here's a challenge for your video making skills.\r\nmake a vlog entitled: \"LEAVE CRAIG ALONE!\"\r\nyou in?",
      "time": "2008-12-02T22:11:07",
      "id": "4135238"
    },
    {
      "threadId": "7608369",
      "post": "fried cat",
      "time": "2008-11-26T23:26:27",
      "id": "4031623"
    },
    {
      "threadId": "7572990",
      "post": "content",
      "time": "2008-11-26T05:51:20",
      "id": "4019422"
    },
    {
      "threadId": "7569258",
      "post": "comment\r\nsydney australia",
      "time": "2008-11-26T05:45:32",
      "id": "4019380"
    },
    {
      "threadId": "7572974",
      "post": "awesome pics!!",
      "time": "2008-11-11T11:53:27",
      "id": "3676883"
    }
  ],
  "profileInfo": {
    "username": "davemiers",
    "about": "youth pastor on sydney's northern beaches.\r\ni like to eat sushi.",
    "name": "davemiers",
    "disable3rdPartyTrackers": false,
    "isPowerContributor": false,
    "isAnonymous": false,
    "rep": 1.26738,
    "profileUrl": "https://disqus.com/by/davemiers/",
    "url": "http://davemiers.com",
    "reputation": 1.26738,
    "location": "Sydney, Australia",
    "isPrivate": false,
    "signedUrl": "http://disq.us/?url=http%3A%2F%2Fdavemiers.com&key=-2nMT1d1qb1rL546ecsvbg",
    "isPrimary": true,
    "joinedAt": "2008-11-11T11:54:34",
    "id": "141319",
    "avatar": {
      "small": {
        "permalink": "https://disqus.com/api/users/avatars/davemiers.jpg",
        "cache": "//a.disquscdn.com/uploads/users/14/1319/avatar32.jpg?1434579814"
      },
      "isCustom": true,
      "permalink": "https://disqus.com/api/users/avatars/davemiers.jpg",
      "cache": "//a.disquscdn.com/uploads/users/14/1319/avatar92.jpg?1434579814",
      "large": {
        "permalink": "https://disqus.com/api/users/avatars/davemiers.jpg",
        "cache": "//a.disquscdn.com/uploads/users/14/1319/avatar92.jpg?1434579814"
      }
    }
  }
}