[
  {
    "text": "Looking to cut your cable? I can help you find out exactly what needs to be done for your entertainment needs. https://t.co/h3G2tCjOLB #STL",
    "time": "Tue Nov 10 01:30:35 +0000 2015",
    "id": 663891471024566300,
    "geo": null,
    "place": {
      "id": "c25d095079dd819b",
      "url": "https://api.twitter.com/1.1/geo/id/c25d095079dd819b.json",
      "place_type": "city",
      "name": "Kirkwood",
      "full_name": "Kirkwood, MO",
      "country_code": "US",
      "country": "United States",
      "contained_within": [],
      "bounding_box": {
        "type": "Polygon",
        "coordinates": [
          [
            [
              -90.472597,
              38.548947
            ],
            [
              -90.39089,
              38.548947
            ],
            [
              -90.39089,
              38.606454
            ],
            [
              -90.472597,
              38.606454
            ]
          ]
        ]
      },
      "attributes": {}
    },
    "coordinates": null
  },
  {
    "text": "Need help using tech to benefit your home or business? Check out what I can offer you. https://t.co/VpU22UpaH9 #stl #technology",
    "time": "Sun Nov 08 20:54:28 +0000 2015",
    "id": 663459595403178000,
    "geo": null,
    "place": null,
    "coordinates": null
  }
]