{
  "comments": [
    {
      "threadId": "4796662964",
      "post": "Sprint did not post a profit last quarter. They had positive operating income but after deducting the interest they paid on their huge debt the bottom line was a loss of $554 million.",
      "time": "2016-05-03T17:40:58",
      "id": "2655982270"
    },
    {
      "threadId": "4566306330",
      "post": "7 years ago the Symbian Nokia N8 had an always on display. It was trully always on. OLED screen. The display (just time, date and unread messages, missed calls and voicemail indicators) moved about once a minute to prevent burn in. Battery lasted over a day with heavy use. I missed that feature when I moved to Android and often wondered why no  other manufacturer even implemented it.",
      "time": "2016-02-10T03:53:29",
      "id": "2505523066",
      "parentPost": "First Samsung patents \"Always on Display\" and now LG boasts \"Always On\"?\n\n\"Always on\" screens must be Android's 2016 thing to what 3D Touch was to iOS.",
      "parentPostTime": "2016-02-10T03:25:47",
      "parentPostId": "2505490622"
    },
    {
      "threadId": "4073704339",
      "post": "Why is validating VoLTE difficult and expensive? Making and receiving a phone call in a test environment where only band 12 LTE is available isn't rocket science. Is TMO making the test unnecessarily difficult or are the phone manufactures whining for the sake of whining?",
      "time": "2015-08-28T02:54:14",
      "id": "2222383034"
    },
    {
      "threadId": "4036929778",
      "post": "I'm ambivalent about the Note 5 but I'd be happy to win a flagship phone, any flagship phone actually.",
      "time": "2015-08-21T02:40:29",
      "id": "2206128251"
    },
    {
      "threadId": "4026453291",
      "post": "MVNO's generally have better prices than the MNO they run on. Sometimes they have better support or have more liberal BYOP policies. I currently have accounts with 4 MVNOs.",
      "time": "2015-08-15T03:37:36",
      "id": "2195127921"
    },
    {
      "threadId": "4016087038",
      "post": "The OnePlus 2 looks like a winner thanks to 3 or 4 GB RAM and for US residents a US model that supports all of T-Mobile and AT&T's LTE and 3G bands",
      "time": "2015-08-12T17:59:22",
      "id": "2189076889"
    },
    {
      "threadId": "4000137891",
      "post": "I agree with almost everyone else, the best thing ASUS could to make the ZenFone 2 better would be to ship it with a stock Nexus/AOSP UI and no bloatware.",
      "time": "2015-08-05T00:40:26",
      "id": "2174831072"
    },
    {
      "threadId": "3518973932",
      "post": "Update: I just did some checking and both of the Boost phones that failed the check had beeen used on Boost for well over a year.",
      "time": "2015-02-16T16:25:40",
      "id": "1858244487",
      "parentPost": "Both Boost phones were active on Boost. I'm not sure if it was for a full year or not.",
      "parentPostTime": "2015-02-16T05:41:14",
      "parentPostId": "1857634083"
    },
    {
      "threadId": "3484415183",
      "post": "Kantar's \"world\" seems be limited to 10 countries and excludes the huge mobile markets off India, Indonesia and Russia as well as all of Africa, and all of South America. I doubt that Android lost market share world while as it's replacing feature phones in the developing world.",
      "time": "2015-02-04T19:56:23",
      "id": "1835144860"
    },
    {
      "threadId": "3375064668",
      "post": "I never understood why anyone uses TapaTalk. The full (desktop) version of XDA, HoFo and every other forum I've used works beautifully in Dolphin HD with Jetpack or the Opera Android Browser. \n\n\nI just wish Forum owners would stop pushing TapaTalk in my face when I visit with a mobile browser. I hope TapaTalk pays forums for those intrusive ads",
      "time": "2014-12-31T18:54:27",
      "id": "1766374616"
    },
    {
      "threadId": "3231280525",
      "post": "The OnePlus One's best feature in that it runs Libre software. Cyanogenmod FTW.",
      "time": "2014-11-24T04:16:19",
      "id": "1709297927"
    },
    {
      "threadId": "2974397178",
      "post": "I'm eager to see the Moto X+1 because I'm hoping it will include new OS level features to top Active Display and Touchless control.",
      "time": "2014-09-01T23:55:45",
      "id": "1569586894"
    },
    {
      "threadId": "2604966482",
      "post": "Sprint and T-Mobile have lots of overlapping and thus redundant urban spectrum. Plus Sprint is CDMA and T-Mobile is GSM so a merger would mean expensive infrastructure changes and giving free phones to customers stuck on the losing technology. Seems like a lot of expense just to buy customers, a lot of whom historically flee after the mess of an acquisition.\n\n\nWouldn't it make more sense for Sprint to acquire U.S.Cellular, Blue Grass Cellular and other every other CDMA regional operators they can and for T-Mobile to snap GSM regionals like iWireless, Airadigm, Alaska Communications and Long Lines? That would give both operators more customers but it would also expand their networks into new markets, cut roaming payments and give them a broader network that would be an easier sell to people who travel for work or pleasure.",
      "time": "2014-04-11T23:02:22",
      "id": "1332520089"
    },
    {
      "threadId": "2457320288",
      "post": "I'm well aware that AT&T will be rebranding AIo as the New Cricket, I was simply pointing out that the name change hasn't happened yet and probably won't for a couple of months.",
      "time": "2014-03-19T15:38:16",
      "id": "1291521744",
      "parentPost": "I'm SORRY BUT PHIL WAS ABSOLUTELY RIGHT, AT&T HAS SHUTTERED THE AIO WIRELESS BRAND TRANSITIONING INTO NEWCRICKET BRANDING PRETTY SOON HERE. PAY ATTENTION DENNIS. IT HAS BEEN SAID OUT OF AT&TS MOUTHS ON VARIES SITES AS WELL.",
      "parentPostTime": "2014-03-19T15:26:28",
      "parentPostId": "1291499934"
    },
    {
      "threadId": "1523222274",
      "post": "The Play Store claims the app is not compatible with my rooted Tegra 2 Motorola Photon 4G (:",
      "time": "2013-07-23T18:59:45",
      "id": "973730421"
    },
    {
      "threadId": "1137386089",
      "post": "That's great news, thanks.",
      "time": "2013-03-15T15:33:34",
      "id": "830236035",
      "parentPost": "Yes, they're fully functional devices once brought to Ting and can access LTE.",
      "parentPostTime": "2013-03-15T14:17:32",
      "parentPostId": "830175067"
    },
    {
      "threadId": "1039053743",
      "post": "It's now Jan 28, the date this change was supposed to go live but http://prepaid-phones.t-mobile.com/monthly-4g-plans is still showing only 100 MB of 4G data on the $50 Plan. Change of plans or web site not getting timely updates?",
      "time": "2013-01-28T16:41:13",
      "id": "780839883"
    },
    {
      "threadId": "858895140",
      "post": "S40 is not Symbian and it's not a smartphone OS either. Symbian is being phased out. S40 isn't. All of these are or should be common knowledge to anyone who follows NOK.",
      "time": "2012-09-25T19:47:39",
      "id": "662394530"
    },
    {
      "threadId": "585705980",
      "post": "I concur with your choice of the Samsung Galaxy Nexus as Smartphone of the year. This phone has everything ICS, NFC, pentaband 3G. Hope I win one :)",
      "time": "2012-02-24T19:49:12",
      "id": "448117109"
    },
    {
      "threadId": "571105135",
      "post": "Exchange ActiveSync (aka Mail for Exchange) in Belle works faultlessly for me with Gmail and Google Calendar and Contacts and provides true push email.  My N8 using ActiveSync actually gets notified of new emails a split second before my Android phones. To set it up use:\n\nMail address: Your full Gmail address \nPassword: Your Google Password  \nUsername: Your full Gmail address including the domain (me@gmail.com, me@googlemail:disqus .com, etc.) \nDomain: leave blank. \n\nWhen prompted for the Mail for Exchange server, enter m.google.com",
      "time": "2012-02-12T00:22:35",
      "id": "436463608"
    },
    {
      "threadId": "533157243",
      "post": "WCDMA 850/1900/2100 , LTE Band 4 (1700/ 2100) & 17 (700) That's pentaband 4G! Will It be sold unlocked for T-Mobile and non-US users?",
      "time": "2012-01-10T15:26:13",
      "id": "407135510"
    },
    {
      "threadId": "389917495",
      "post": "Interesting but there is something missing to your post. A link to the company or product you are writing about. Like this <a href=\"http://www.thrivespot.com/\"/>www.thrivespot.com</a>",
      "time": "2011-08-18T23:07:16",
      "id": "290450506"
    },
    {
      "threadId": "215831688",
      "post": "I installed Social 1.3 on my N8 and it worked fine for several days. I was having trouble with my phone hanging. I uninstalled Social and the Social Installer to see if that was the cause (it turned out to be a different app).\n\nOnce my phone was stable I tried to reinstall Social 1.3. The Install seems to succeed but when Social launches it complains \"Script Error: Uninstall and Reinstall Social\".  I've uninstalled and reinstalled Social three times and the error still occurs.\n\nI kind of liked the Social Widget but I can use Gravity for Twitter and Facebook so it's no big loss",
      "time": "2011-04-22T03:57:12",
      "id": "189835914"
    },
    {
      "threadId": "260105951",
      "post": "What makes you think a 3G band has been removed? Nokia's Astound product page at http://phones.nokiausa.com/eCommerce/SpecialOffer.aspx?cid=36285_7e1d846b190b4b94a5c68af59295c78b\nlists 3G as \"UMTS 850/900/1700/2100/1900/2100\" which is the same as other Symbian^3 phones.",
      "time": "2011-04-05T17:25:03",
      "id": "178603712"
    },
    {
      "threadId": "161704288",
      "post": "Symbian^3 has some issues. I agree that the user interface is not very intuitive and the fonts used in the email app and browser are ugly and hard to read.<br><br>But the N8 has a couple of strengths that the author seems to have missed. <br><br>The battery life is the best of any touchscreen smartphone I've ever used, easily lasting through a long day of heavy voice, browsing and email use.<br><br>Like much of Symbian, Ovi Maps has too much of a learning curve.  But it''s worth the effort of getting comfortable with its quirks.  The GPS receiver is very sensitive. It can get a fix in seconds even indoors which makes Maps very responsive to wrong turns and detours. Unlike Google Maps, Ovi Maps can deliver navigation and maps even in areas with no signal thanks to the complete set of North American maps and POI data that's preloaded on the N8's 16GB of internal memory.<br><br>Also, there is no such thing as a \"Xenon LED flash\".  They are two different technologies and the N8 uses the more powerful Xenon.  <br>",
      "time": "2010-10-30T21:47:46",
      "id": "91843252"
    },
    {
      "threadId": "135619841",
      "post": "UMA is \"Unlicensed Mobile Access\" it lets you make voice calls using WiFi in areas where you don't have a reliable cellular connection.",
      "time": "2010-08-31T16:38:29",
      "id": "73544008",
      "parentPost": "What do you mean UMA mode? ",
      "parentPostTime": "2010-08-31T14:43:08",
      "parentPostId": "73515322"
    },
    {
      "threadId": "100892904",
      "post": "There is no Opera Mobile 5. Do you mean Opera Mini 5 or Opera Mobile 10? Please clarify as referring to a non-existent browser is confusing and detracts from an otherwise well done article.",
      "time": "2010-05-26T13:29:13",
      "id": "52226898"
    },
    {
      "threadId": "89170748",
      "post": "As a huge Android fanboy and regular DroidDog reader I'm really excited about the Incredible. It looks like the best Android phone yet. I'd love to win this phone.",
      "time": "2010-04-29T02:38:01",
      "id": "47339847"
    },
    {
      "threadId": "88072731",
      "post": "The web is the universal mobile platform.  Why on earth is the mobile theme served only to iPhone users?  \n\nWhat about Android, BlackBerry, WebOS, Symbian, etc.  iPhone only mobile themes are as dumb as IE only websites.",
      "time": "2010-04-26T15:50:51",
      "id": "46770609"
    },
    {
      "threadId": "29310609",
      "post": "Thanks for publishing this, Ewan",
      "time": "2009-08-13T01:53:29",
      "id": "14757875"
    },
    {
      "threadId": "27265715",
      "post": "I though Vodafone was pushing the evolving Opera/Nokia/W3C standard for mobile web widgets.  Is JIL just a new name for that or yet another incompatible widget platform.",
      "time": "2009-07-28T18:14:34",
      "id": "13469167"
    },
    {
      "threadId": "22964484",
      "post": "Malcolm is right, the web on mobiles is frequently rubbish.  But the problems are fixable and they are being worked.  There's a browser war going on between Apple, Google, Opera and Nokia that is giving us better, faster browsers. The rise of mobile browsing (according to Tomi Ahonen, mobile browser users now outnumber users of desktop browsers) has not gone unnoticed by mainstream web developers, designers and publishers. Most mainstream sites now have some sort of (usually rubbish) mobile presence.  That too will improve with experience and competition between publishers.  \r\n\r\nMalcolm is also right that for services and sites that one visits frequently, particularly highly interactive ones like email,  Facebook or Twitter; an app does often provide a better user experience on mobile than a the browser. \r\n\r\nHowever accessing general web content using single purpose applications is not scalable. There are over 150 million web sites in the world. Most of the web content I consume on my phones isn't available in an app format and probably never will be. The web is huge and diverse.  There can never be enough single purpose apps to cover it all and if there were they wouldn't fit on my phone. The web is about hyper-linking and that needs a browser. The real growth in mobile data adoption will be web browser based.",
      "time": "2009-07-21T22:58:59",
      "id": "13066493"
    },
    {
      "threadId": "25934367",
      "post": "No hotkey, click the quotation mark icon",
      "time": "2009-07-18T17:29:57",
      "id": "12882951"
    },
    {
      "threadId": "17317558",
      "post": "Mobiletron sounds great.  I'll be there. \r\n\r\nDennis",
      "time": "2009-05-05T18:02:40",
      "id": "9021192"
    },
    {
      "threadId": "10207704",
      "post": "I suspect the recession has reduced Blyk's ad revenue to the point they had cut their costs.  So they have  essentially halved the value and cost ot the free Blyk services.\r\n\r\nIncidentally, did Blyk's price for data change or is it still 99p/MB?  99p is steep but I doubt they would cut it as they are raising the voice rate.  It's probably easy for them to cut the price of SMS as it essentially costs nothing to carry on a network. Voice and data have real costs ",
      "time": "2009-01-20T04:17:50",
      "id": "5382044"
    },
    {
      "threadId": "9933001",
      "post": "It  appears that  Google has eliminated the iPhone specific version of  iGoogle and is redirecting iPhones to the generic mobile version.\r\n\r\nLots of upset folks on the Google Mobile Help Forum\"\r\nhttp://www.google.com/support/forum/p/Web+Search/thread?tid=6ff62ce418848f69&hl=en",
      "time": "2009-01-18T17:37:36",
      "id": "5267372"
    },
    {
      "threadId": "9827162",
      "post": "This indeed a horible problem.  One of my sites, yeswap.com, a simple mobile portal has been blocked by Verizon's family filter  for the last six months. \r\n\r\nThe site has never contained anything the least bit questionable nor has it ever linked to any adult, dating, chat or gambling sites. I don't accept advertising for these types of content either.  There is nothing unsuitable for minors on the site at all.\r\n\r\nI haven't been able  to find anyone at Verizon who admits to knowing anything about the family filter or whitelisting. The carrier doesn't seem to have any contact person for unafiliated content providers at all.  If you aren't customer or \"partner\" you don't exist. as far as Verizon's concerned.",
      "time": "2009-01-14T05:15:42",
      "id": "5106952"
    },
    {
      "threadId": "7846798",
      "post": "I tried it and it is so limited.  The requirement to add videos to your favorites in advance and the need to login to watch content on mobile that is open to all on the full web just kills it for me.  \r\n\r\nMySpace needs to follow YouTube's example and use browser detection to automatically serve mobile video content to mobile browsers from any MySpace video URL.",
      "time": "2008-12-03T22:55:32",
      "id": "4155342"
    },
    {
      "threadId": "583554",
      "post": "Yesterday ATT launched $20/month unlimited HSDPA on their pure prepaid \"Pay As You Go Plan\" plan. No US credit card needed making it great perfect for travelers. Details at WapReview: http://wapreview.com/blog/?p=546\r\n\r\nThe TOS prohibits tethering and use with a data card but with an E90 who needs a laptop? ",
      "time": "2008-05-02T05:01:00",
      "id": "405894"
    },
    {
      "threadId": "536836",
      "post": "I don't think the perfect device database exists but here are some sites I've found reasonably complete and up to date.  \r\n\r\nhttp://www.gsmarena.com\r\nhttp://www.phonearena.com\r\nhttp://www.mobile-phone-specs.com/\r\nhttp://www.phonescoop.com/ - warning US centric!\r\n",
      "time": "2008-04-25T19:09:10",
      "id": "380627"
    },
    {
      "threadId": "97168",
      "post": "Ooops forgot the headers!\r\n\r\nhttp://m.wapreview.com/\r\n\r\nGET / HTTP/1.1\r\nHost: m.wapreview.com\r\nUser-Agent: Mozilla/5.0 (Windows; U; Windows NT 5.1; en-US; rv:1.8.1.11) Gecko/20071127 Firefox/2.0.0.11\r\nAccept: text/xml,application/xml,application/xhtml+xml,text/html;q=0.9,text/plain;q=0.8,image/png,*/*;q=0.5\r\nAccept-Language: en-us,en;q=0.5\r\nAccept-Encoding: gzip,deflate\r\nAccept-Charset: ISO-8859-1,utf-8;q=0.7,*;q=0.7\r\nKeep-Alive: 300\r\nConnection: keep-alive\r\nCookie: __utmz=210006803.1198045154.1.1.utmccn=(direct)|utmcsr=(direct)|utmcmd=(none); __utma=210006803.1732645837.1198045154.1198045154.1198540475.2\r\n\r\nHTTP/1.x 302 Found\r\nDate: Sat, 12 Jan 2008 20:39:25 GMT\r\nServer: Apache/1.3.33 (Unix)\r\nLocation: http://mowser.com\r\nKeep-Alive: timeout=2, max=199\r\nConnection: Keep-Alive\r\nTransfer-Encoding: chunked\r\nContent-Type: text/html; charset=iso-8859-1\r\n----------------------------------------------------------\r\nhttp://mowser.com/\r\n\r\nGET / HTTP/1.1\r\nHost: mowser.com\r\nUser-Agent: Mozilla/5.0 (Windows; U; Windows NT 5.1; en-US; rv:1.8.1.11) Gecko/20071127 Firefox/2.0.0.11\r\nAccept: text/xml,application/xml,application/xhtml+xml,text/html;q=0.9,text/plain;q=0.8,image/png,*/*;q=0.5\r\nAccept-Language: en-us,en;q=0.5\r\nAccept-Encoding: gzip,deflate\r\nAccept-Charset: ISO-8859-1,utf-8;q=0.7,*;q=0.7\r\nKeep-Alive: 300\r\nConnection: keep-alive\r\nCookie: SESSIONID=066e6ff8cf8674b5bc53ed675ace8621\r\nIf-Modified-Since: Sat, 12 Jan 2008 20:08:18 GMT\r\n\r\nHTTP/1.x 200 OK\r\nDate: Sat, 12 Jan 2008 20:39:26 GMT\r\nServer: Apache\r\nCache-Control: max-age=300, must-revalidate\r\nExpires: Mon, 26 Jul 1997 05:00:00 GMT\r\nLast-Modified: Sat, 12 Jan 2008 20:39:26 GMT\r\nContent-Encoding: gzip\r\nVary: Accept-Encoding\r\nContent-Length: 1781\r\nConnection: close\r\nContent-Type: text/html; charset=UTF-8\r\n----------------------------------------------------------\r\n",
      "time": "2008-01-12T20:40:40",
      "id": "74602",
      "parentPost": "Russ,\r\n\r\nThis is a great idea.  I just tried it with m.wapreview.com though and it doesn't seem to work, just redirects to the mowser.com home page.  I'm using  1and1 shared hosting and I can't  directly twiddle the CName so I don't know what 1and1 has screwed up.  Here are the headers if you feel like investigating further.\r\n\r\nThanks,\r\n\r\nDennis",
      "parentPostTime": "2008-01-12T20:21:17",
      "parentPostId": "74586"
    }
  ],
  "profileInfo": {
    "username": "WapReview",
    "about": "Retired software developer, gadget geek, cyclist and mobile blogger.",
    "name": "Dennis Bournique",
    "disable3rdPartyTrackers": false,
    "isPowerContributor": false,
    "isAnonymous": false,
    "rep": 1.234164,
    "profileUrl": "https://disqus.com/by/WapReview/",
    "url": "http://www.prepaidphonenews.com",
    "reputation": 1.234164,
    "location": "San Francisco",
    "isPrivate": false,
    "signedUrl": "http://disq.us/?url=http%3A%2F%2Fwww.prepaidphonenews.com&key=c_eJUMrRJCSahG9AjNWRVQ",
    "isPrimary": true,
    "joinedAt": "2008-04-25T19:06:04",
    "id": "26185",
    "avatar": {
      "small": {
        "permalink": "https://disqus.com/api/users/avatars/WapReview.jpg",
        "cache": "//a.disquscdn.com/uploads/users/26185/avatar32.jpg?1462297259"
      },
      "isCustom": true,
      "permalink": "https://disqus.com/api/users/avatars/WapReview.jpg",
      "cache": "//a.disquscdn.com/uploads/users/26185/avatar92.jpg?1462297259",
      "large": {
        "permalink": "https://disqus.com/api/users/avatars/WapReview.jpg",
        "cache": "//a.disquscdn.com/uploads/users/26185/avatar92.jpg?1462297259"
      }
    }
  }
}