{
  "comments": [
    {
      "threadId": "2222279830",
      "post": "Hey mark, are you still planning on sharing these images online again? I'd love to use them if possible!",
      "time": "2016-05-27T19:00:17",
      "id": "2698802711",
      "parentPost": "Hey Brian!\n\nThe page is down right now but we're working quickly to get it back online. Sorry about that.",
      "parentPostTime": "2015-06-30T20:54:45",
      "parentPostId": "2109326875"
    },
    {
      "threadId": "3686507146",
      "post": "Thank you!",
      "time": "2015-04-16T21:20:36",
      "id": "1971478521"
    },
    {
      "threadId": "3501454669",
      "post": "Preet's a visionary and I'm glad he's tackling the very real problems with 911 and emergency response. Thanks for the interview.",
      "time": "2015-03-08T02:33:09",
      "id": "1894455969"
    },
    {
      "threadId": "2716276337",
      "post": "Yes indeed. I added that category because we have weekly standing meetings to update the whole office on new developments. I've since found that some walking meetings or sitting meetings can become standing meetings. And thanks for the compliment!",
      "time": "2014-05-29T22:00:50",
      "id": "1411169847",
      "parentPost": "This is great. I checked out your Medium profile, I really like your writing style. Your post on 9 useful things you can do with bitly is really good! \n\n\nhttps://medium.com/on-the-social-media/9-useful-things-you-didnt-know-you-could-do-with-bit-ly-b8b61708c758\n\nAlso, very interesting to see that based on the image you attached, standing meetings are the shortest overall (if I'm reading it correctly).",
      "parentPostTime": "2014-05-29T20:02:46",
      "parentPostId": "1411004357"
    },
    {
      "threadId": "2298620756",
      "post": "Thanks for the feature! I'd like to also give a lot of credit to our interns Aaron Ledesma and Cesar Gomez, who provide excellent photography and a student-eye perspective to our Instagram accounts.",
      "time": "2014-02-21T22:03:59",
      "id": "1255422236"
    },
    {
      "threadId": "2105184617",
      "post": "I've always though Buffer was quite creative in their job postings, like this one: http://jobs.bufferapp.com/content-crafter",
      "time": "2014-01-12T02:12:25",
      "id": "1196853723"
    },
    {
      "threadId": "2053887633",
      "post": "I think it could be applied to everything, not just business. You could also replace the word anxiety with stress - there's an optimal amount between too much and too little. Eustress is a good kind of stress that motivates you to take on a challenge, while distress is a bad stress that paralyzes or causes you harm. Without a little bit of anxiety or stress about the future, we'd never be motivated to get anything done.",
      "time": "2014-01-12T01:57:46",
      "id": "1196844181",
      "parentPost": "\"This would be as deadly for the species as nuclear war.” ?? You mean for the business, right? I agree with most of the article, but this, I don't think it fits here and in this text. Or it would need to be elaborated...",
      "parentPostTime": "2014-01-11T15:22:59",
      "parentPostId": "1196305041"
    },
    {
      "threadId": "2100281444",
      "post": "Thanks for having me on! It was great talking to you all and I would be happy to do it again anytime.",
      "time": "2014-01-09T02:32:49",
      "id": "1193126027"
    },
    {
      "threadId": "1617664949",
      "post": "I'm a huge fan of Mailchimp, especially their autoresponder. I used it to send out an essay a month for a friend, and recently I used it to send out the first chapter of my book - https://twitter.com/TeecycleTim/status/418947204225581056 Great resource.",
      "time": "2014-01-05T17:06:23",
      "id": "1188065410"
    },
    {
      "threadId": "2001532484",
      "post": "Thanks for the great coverage, Thibaut. At Marquette we have a few different accounts, including the namesake of the university (@FatherMarquette) who explores campus and beyond in the form of a statue: http://instagram.com/fathermarquette",
      "time": "2013-12-13T22:24:15",
      "id": "1162105818"
    },
    {
      "threadId": "2046125603",
      "post": "It's interesting to see how social media outlets that have emphasized open and public sharing for so long are getting into private sharing as the next \"frontier.\" Everything that's old is new again.",
      "time": "2013-12-13T16:19:08",
      "id": "1161549654"
    },
    {
      "threadId": "1969406420",
      "post": "Thanks, Jon! This was helpful. I also wrote about how AOL found that links outperform photos and links for their goals: http://analyticstoaction.quora.com/Defining-engagement-Its-no-cinch",
      "time": "2013-12-13T03:04:08",
      "id": "1160968356",
      "parentPost": "Hey, Tim. I've always favored the standard link shares anyway if I'm looking to drive traffic, and now that's even more the case.",
      "parentPostTime": "2013-11-20T00:55:57",
      "parentPostId": "1130399473"
    },
    {
      "threadId": "1957963230",
      "post": "FYI, it's not available to all users yet. Here's a link to Quora's announcement: http://blog.quora.com/Introducing-Stats-A-Dashboard-for-Writers",
      "time": "2013-11-18T03:24:13",
      "id": "1127608381"
    },
    {
      "threadId": "1621061258",
      "post": "Fascinating example. Thanks for sharing! ",
      "time": "2013-08-20T22:39:11",
      "id": "1008692485"
    },
    {
      "threadId": "1552543605",
      "post": "Thanks for sharing this! FYI the graduation photo is from Marquette University: http://go.mu.edu/13ECLtF",
      "time": "2013-08-01T19:45:03",
      "id": "984918299"
    },
    {
      "threadId": "1523502644",
      "post": "Way to go, Penfield!",
      "time": "2013-07-24T01:57:33",
      "id": "974184466"
    },
    {
      "threadId": "1506352515",
      "post": "If you want to calculate the optimal activity to beer ratio, check out DRAFT's beer allowance: http://draftmag.com/calories/",
      "time": "2013-07-17T16:24:05",
      "id": "965840948"
    },
    {
      "threadId": "1493980343",
      "post": "Thanks for creating this list, Thibaut!",
      "time": "2013-07-15T14:17:52",
      "id": "962816508"
    },
    {
      "threadId": "1386697994",
      "post": "I was going to leave some positive reinforcement about this article, but it might be better to not comment. ",
      "time": "2013-07-14T00:30:15",
      "id": "961310045"
    },
    {
      "threadId": "1470580710",
      "post": "You have a knack for partnering with my favorite apps - Pocket, Feedly and now Echofon. Keep up the great work!",
      "time": "2013-07-11T16:31:24",
      "id": "958792971"
    },
    {
      "threadId": "1196532550",
      "post": "That's a good one. Plus, you get to pick up some New Glarus while you're in our great state. Good luck!",
      "time": "2013-04-10T20:58:10",
      "id": "859026605",
      "parentPost": "Thanks! I'm doing the Wisconsin Half Marathon on May 4.",
      "parentPostTime": "2013-04-10T15:27:42",
      "parentPostId": "858721844"
    },
    {
      "threadId": "1170854050",
      "post": "Good stuff. I wonder if the positive flip side of this applies as well. I've been running every day for 906 days and counting. I don't even think about missing a workout anymore. Instead of saying, \"I should run today,\" I just think, \"I run every day.\" Works for me.",
      "time": "2013-04-01T00:58:33",
      "id": "848168262"
    },
    {
      "threadId": "1093574567",
      "post": "Excellent post, Frances! This has it all - a recap of what you did for your client, a clear game plan for next steps, visuals, links for context and more. Keep up the great work.",
      "time": "2013-02-23T04:12:44",
      "id": "809163026"
    },
    {
      "threadId": "1096455493",
      "post": "Hi Molly, \n\nYou are right. I have my own thoughts and views as a Marquette Tribune alum and former newspaper reporter, but unfortunately I can't separate that from my professional role. I apologized privately to Maria and I'd like to do the same for you, and as I shared with her I'd be happy to meet in person to hear your thoughts and, if possible, share my own perspective - not as an employee, but as a journalism alum. I'm sincere about that and would invite your or anyone from the Tribune to meet. Feel free to reach out to me directly and we can set something up.",
      "time": "2013-02-22T17:45:20",
      "id": "808671900",
      "parentPost": "Tim, as director of social media at Marquette, don't you face an inherent conflict of interest by endorsing one student publication \nover another? This comment, not to mention previous comments on the matter via your Twitter, suggests a blatant bias that overwhelms any flimsy \"views are my own\" disclaimer. It's distressing that Marquette's social media conversations with students, alumni and others about the budget cuts are overseen by someone who lacks basic \nprofessionalism and objectivity.",
      "parentPostTime": "2013-02-22T17:18:24",
      "parentPostId": "808637956"
    },
    {
      "threadId": "1084121768",
      "post": "Yes please! ",
      "time": "2013-02-18T22:27:26",
      "id": "803470890"
    },
    {
      "threadId": "1040762572",
      "post": "You never know. @FatherMarquette sometimes gets an attitude. ",
      "time": "2013-01-23T06:39:14",
      "id": "775431316",
      "parentPost": "So I expect to see that last tweet idea show up to tomorrow...",
      "parentPostTime": "2013-01-23T06:01:33",
      "parentPostId": "775419788"
    },
    {
      "threadId": "1031838125",
      "post": "Hypothetically, what if Notre Dame was found out to be supporting a story they knew was untrue? What's worse - a crime or a coverup?",
      "time": "2013-01-18T17:16:25",
      "id": "771894874",
      "parentPost": "From a PR perspective, I think the Notre Dame staff did a great job releasing their statement backing Te'o up on the whole story. Whether it was a hoax or not, he is one of their star players that many people look up to (second place for the Heisman) and for that reason if he says that he was tricked, Notre Dame should definitely go along with it whether it is true or not- it shows that they still believe in him as a player and a person and it looks good for the university.",
      "parentPostTime": "2013-01-18T00:03:03",
      "parentPostId": "771361659"
    },
    {
      "threadId": "967786251",
      "post": "This Commencement speaker is really getting a chilly reception. ﻿ ",
      "time": "2012-12-18T18:03:17",
      "id": "741950190"
    },
    {
      "threadId": "803871778",
      "post": "Ramit is legit. Book it. ",
      "time": "2012-08-20T03:11:12",
      "id": "623724781"
    },
    {
      "threadId": "742585595",
      "post": "Been a big fan of Joel for years. Thanks for the interview. ",
      "time": "2012-07-04T20:14:58",
      "id": "576388156"
    },
    {
      "threadId": "721529095",
      "post": "Sign me up. ",
      "time": "2012-06-13T02:56:04",
      "id": "555783715"
    },
    {
      "threadId": "709263490",
      "post": "I did something similar when I rationed my tweets for about two months, and went down to 2-3 tweets a day. Found a couple of things. 1) It made me share what I thought was REALLY important, since I only had a few tweets to use throughout the day. 2) I explored elsewhere a lot more, including Tumblr and Google +. \n\nOverall it was a healthy experience. I highly recommend it. ",
      "time": "2012-06-08T20:12:34",
      "id": "552268673"
    },
    {
      "threadId": "672007742",
      "post": "Totally the same thing with Teecycle for me. It's like a gateway drug. ",
      "time": "2012-05-02T14:00:20",
      "id": "516676753"
    },
    {
      "threadId": "645695239",
      "post": "You're following Marquette, yes? http://pinterest.com/marquetteu/ ",
      "time": "2012-04-12T01:08:39",
      "id": "494972764"
    },
    {
      "threadId": "586496250",
      "post": "SO GREAT! Went here to share condolences, only to find awesome news!",
      "time": "2012-02-23T23:04:20",
      "id": "447361826",
      "parentPost": "HEY EVERYONE - guess what? Through Twitter and this post and the help of amazing friends, we found Fletcher a home. SO GRATEFUL. Have just a few hours with the F-dawg before taking him to his new owner, who is very experienced with rehabilitating dogs. She and the trainer talked about the risks and it is a good, viable second chance. Godspeed, Fletcher. And THANK YOU. To all who helped and to Fletcher's new guardian!!! : ] ",
      "parentPostTime": "2012-02-23T20:03:08",
      "parentPostId": "447204420"
    },
    {
      "threadId": "526400944",
      "post": "Speaking of accountability, you may like this site: www.21habit.com I signed up and added #PlankADay as my habit. ",
      "time": "2012-01-05T23:00:23",
      "id": "401763728"
    },
    {
      "threadId": "485540558",
      "post": "Good point. Fixed that. ",
      "time": "2011-11-27T23:18:52",
      "id": "373837202",
      "parentPost": "Interesting article but the last repeat champs were the 93 Cowboys? What about the 98 Broncos and the 04 Patriots? I know Packer fans may want to block put the Broncos and I think the point that the defending champs often struggle is valid but repeating still happens and has in fact happened twice since you seem to last recall.",
      "parentPostTime": "2011-11-27T21:49:48",
      "parentPostId": "373799235"
    },
    {
      "threadId": "392953206",
      "post": "You're just trying to get comments here, aren't you? ;) I think the shorthand Likes, RTs, Favorites, +1's, provides more options on the hierarchy of communications, so you can choose from what best fits the situation. Sometimes it's a comment, sometimes a tweet and sometimes \"just\" a Like to signify, yup, I agree with this. Kind of like the Seinfeld about the conversation vs. the head nod vs. the kiss on the cheek. Maybe we need to all wear nametags.",
      "time": "2011-08-22T14:44:44",
      "id": "293035072"
    },
    {
      "threadId": "344584518",
      "post": "Props to the Hashers. Definitely familiar with what they do: http://draftmag.com/beerrunner/running-the-beer-mile/ #OnOn ",
      "time": "2011-06-28T21:55:17",
      "id": "237185302",
      "parentPost": "Nothing new... http://en.wikipedia.org/wiki/Hash_House_Harriers \n\nThe Constitution of the Hash House Harriers is recorded on a club registration card dated 1950:To promote physical fitness among our membersTo get rid of weekend hangoversTo acquire a good thirst and to satisfy it in beerTo persuade the older members that they are not as old as they feel",
      "parentPostTime": "2011-06-28T20:21:55",
      "parentPostId": "237139133"
    },
    {
      "threadId": "333388848",
      "post": "Definitely agree with the post-run fuel.",
      "time": "2011-06-17T21:23:55",
      "id": "228615851"
    },
    {
      "threadId": "324753845",
      "post": "I really love this list. I'd add No. 21: Drink better beer! ",
      "time": "2011-06-07T20:58:02",
      "id": "220314093"
    },
    {
      "threadId": "271751415",
      "post": "Comment! What up! ",
      "time": "2011-04-08T03:21:44",
      "id": "180520495"
    },
    {
      "threadId": "208182672",
      "post": "I discovered that beer in Waterton, Canada, when it was called Mountain Crest. It was the cheapest item in an entire liquor store, and I got it basically because I just had a few Canadian coins to get rid of. Turns out, it was amazing. My friends and I made return trips up from Montana to Canada almost solely to stock up on this beer (before it was available stateside), even though it's considered lower than Milwaukee's Best in Canada. Kudos to you, my friend.  ",
      "time": "2011-01-13T03:35:48",
      "id": "128488462"
    },
    {
      "threadId": "199773905",
      "post": "Anne, all your tweets are starrable!",
      "time": "2010-12-30T05:17:08",
      "id": "121006018"
    },
    {
      "threadId": "182237930",
      "post": "Speed! ",
      "time": "2010-11-30T18:37:18",
      "id": "105125425"
    },
    {
      "threadId": "181644182",
      "post": "I plan on keeping up my Runstreak for my goal to run and drink beer every day until my 30th birthday. Currently on Day 57. ",
      "time": "2010-11-30T16:00:16",
      "id": "105077894"
    },
    {
      "threadId": "162423817",
      "post": "Yeaaaah French Horn Rebellion!!! I'm a huge fan. I actually have a Facebook profile pic with them. Here it is: http://tinyurl.com/29rw7ea\n\nI liked this, and the loudest show I've ever been to was definitely Queens of the Stone Age. I could have used these. ",
      "time": "2010-10-26T21:13:58",
      "id": "90448984"
    },
    {
      "threadId": "145570741",
      "post": "I've been working with Foursquare at Marquette: http://foursquare.com/marquetteu\n\n",
      "time": "2010-09-22T21:19:01",
      "id": "80147370"
    },
    {
      "threadId": "140158871",
      "post": "Amazing mustaches. Has Sara Santiago seen this yet? ",
      "time": "2010-09-13T02:16:36",
      "id": "77188600"
    },
    {
      "threadId": "125417023",
      "post": "Big changes. Congrats! Looking forward to hearing your perspective on your new life in Portland. ",
      "time": "2010-08-27T05:45:11",
      "id": "72540959"
    },
    {
      "threadId": "127964727",
      "post": "Check out the link to the Oct 2002 article above. Some good quotes from Phil Simms along those same lines. ",
      "time": "2010-08-10T14:34:58",
      "id": "67566240",
      "parentPost": "Here is a great one that I don't think is on-line, but it is in the 2003 Packer yearbook (page 33): \"Montana, who won so many, goes to a different team.  And what does he have to prove? Nothing.  Not that you'll remember him as that, as opposed to being Joe Montana the greatest quarterback ever with San Fransisco.  A lot of people don't even remember that he played with Kansas City but I hate to see that, and I hope it never happens with me.  I don't see it.\"",
      "parentPostTime": "2010-08-10T04:06:02",
      "parentPostId": "67505389"
    },
    {
      "threadId": "85232840",
      "post": "Way to go, Stephen! You definitely earned that beer. ",
      "time": "2010-04-21T03:13:57",
      "id": "45767814"
    },
    {
      "threadId": "74811837",
      "post": "Just let me know if and when you need more Milwaukee shirts :) ",
      "time": "2010-03-12T00:24:22",
      "id": "39226735"
    },
    {
      "threadId": "39852073",
      "post": "I'd just be happy to be picked. Thanks for offering this contest. ",
      "time": "2009-10-16T00:36:13",
      "id": "20167958"
    },
    {
      "threadId": "28532723",
      "post": "Hey, thanks for the shout-out! I really appreciate that. ",
      "time": "2009-08-07T12:34:49",
      "id": "14428058"
    },
    {
      "threadId": "20206172",
      "post": "Brad Ward: Man at the forefront of everything.",
      "time": "2009-06-02T22:09:39",
      "id": "10401555"
    },
    {
      "threadId": "15046743",
      "post": "Whoa. ",
      "time": "2009-04-04T21:14:25",
      "id": "7832958"
    },
    {
      "threadId": "7900275",
      "post": "I always wonder what ultra-topical t-shirts like this will mean in five years.  ",
      "time": "2008-12-04T16:23:54",
      "id": "4166689"
    },
    {
      "threadId": "7341986",
      "post": "Now I have REO Speedwagon in my head!",
      "time": "2008-11-27T03:31:42",
      "id": "4034209"
    },
    {
      "threadId": "4290260",
      "post": "Hey! Who was that runner? ",
      "time": "2008-09-08T00:43:51",
      "id": "2223156"
    },
    {
      "threadId": "3950419",
      "post": "Looks great. Very personalized look. Nice job! ",
      "time": "2008-09-03T17:16:26",
      "id": "2032211"
    },
    {
      "threadId": "1461507",
      "post": "Dammit, someone snunk in before me. I do like Disqus, though. ",
      "time": "2008-06-27T20:32:33",
      "id": "765114",
      "parentPost": "First to comment! No clue what that movie is from, though. Good luck, second commenter. ",
      "parentPostTime": "2008-06-27T20:31:41",
      "parentPostId": "765107"
    },
    {
      "threadId": "1296979",
      "post": "I'm just taking pictures of everything now. pretty awesome. ",
      "time": "2008-06-21T15:31:06",
      "id": "721845"
    }
  ],
  "profileInfo": {
    "username": "TimCigelske",
    "about": "",
    "name": "Tim Cigelske",
    "disable3rdPartyTrackers": false,
    "isPowerContributor": false,
    "isAnonymous": false,
    "rep": 1.28915,
    "profileUrl": "https://disqus.com/by/TimCigelske/",
    "url": "http://about.me/teecycletim",
    "reputation": 1.28915,
    "location": "Milwaukee, WI",
    "isPrivate": false,
    "signedUrl": "http://disq.us/?url=http%3A%2F%2Fabout.me%2Fteecycletim&key=EzMWQh_YPbbH-50Y2pQE1g",
    "isPrimary": true,
    "joinedAt": "2008-06-21T15:31:06",
    "id": "49130",
    "avatar": {
      "small": {
        "permalink": "https://disqus.com/api/users/avatars/TimCigelske.jpg",
        "cache": "//a.disquscdn.com/uploads/users/4/9130/avatar32.jpg?1464375618"
      },
      "isCustom": true,
      "permalink": "https://disqus.com/api/users/avatars/TimCigelske.jpg",
      "cache": "//a.disquscdn.com/uploads/users/4/9130/avatar92.jpg?1464375618",
      "large": {
        "permalink": "https://disqus.com/api/users/avatars/TimCigelske.jpg",
        "cache": "//a.disquscdn.com/uploads/users/4/9130/avatar92.jpg?1464375618"
      }
    }
  }
}