{
  "comments": [
    {
      "threadId": "4568236384",
      "post": "Ionic2 looks simply awesome, great work Ionic team! 👌\n\nOne thing I'm curious about (since I haven't it it discussed much) is testing Ionic apps. I know testing is a pillar of Angular (https://angular.io/docs/ts/latest/testing/) but I haven't seen it talked about much in the Ionic community. It would be great if there was an \"opinionated\" approach to testing & tooling baked into Ionic2.",
      "time": "2016-02-10T20:32:27",
      "id": "2506863953"
    },
    {
      "threadId": "4360420559",
      "post": "I think when we talk about lists we usually mean groups of items that:\n\n- have fewer items\n- are curated\n- are relatively static (ex: not constantly changing eBay)\n- have an extremely narrow theme\n\n- have more utility as a predefined set rather than some tool which gives you the ability to extract the same set from a much larger set\n\n\nBut I would be curious to know how Fred would define a list. It would help dissect the topic further.",
      "time": "2015-11-29T16:41:03",
      "id": "2384008003",
      "parentPost": "Fred, I would be curious to know how lists are distinct from any other kind of collection or grouping.\n\n\nYou could argue that many products and services are \"lists\" — for example:\n\n\n- Twitter is my list of interesting people\n- Airbnb is a list of people willing to share their home\n- Uber is a list of people willing to drive you somewhere\n- Pinterest is my list of interesting things\n- eBay is a list of things for sale\n\n\nWe don't typically think of these products as lists, but you could argue that under the hood they _are_ simply lists. They just happen to be lists with novel interfaces and useful ways to interact with the list (searching, filtering, sorting, etc).\n\n\nPerhaps \"lists\" are just groups of items that have few useful ways of interacting with?",
      "parentPostTime": "2015-11-29T16:36:38",
      "parentPostId": "2384002227"
    },
    {
      "threadId": "4333714071",
      "post": "Nice! Any plans to update the Rails gem?",
      "time": "2015-11-22T21:53:57",
      "id": "2373690400"
    },
    {
      "threadId": "3677725450",
      "post": "It's probably already been mentioned by another comment, but this is the problematic false dichotomy created by a two-party system: you have only two columns to choose from, and you must choose the ENTIRE column.\n\n\nAs the two parties become ever more polarized, people who base their political decisions on anything other than partisan rhetoric will have an increasingly difficult time finding a party they can identify with.",
      "time": "2015-04-15T14:28:26",
      "id": "1968737385"
    },
    {
      "threadId": "3466934535",
      "post": "Facebook's user-hostile approach to growth led me to delete the app, and is one reason I ultimately deactivated my account. I feel like Facebook tries very hard to strong-arm me into using Facebook in a way that benefits *them* first, with utility to me being a secondary concern.\n\n\nPeople who build products recognize this as somewhat exploitative and get turned off. However, I'm certain I'm an edge case and that the overwhelming majority of users are happy to either download Messenger or ignore the notification.",
      "time": "2015-01-29T18:40:12",
      "id": "1824114725"
    },
    {
      "threadId": "2960592502",
      "post": "Great idea Spencer, the site looks incredibly well done. Can't wait to grab a coffee and my notebook and dig into these interviews! This will surely become a valuable resource for both aspiring & experienced entrepreneurs.",
      "time": "2014-08-26T17:31:06",
      "id": "1560270399"
    },
    {
      "threadId": "1812763355",
      "post": "> “Do your job as quickly and as poorly as you can, and then leave early,\n\nClearly satire. No true socialist would ever say that. The success of communism depends on the populace doing their jobs well.\n\n\n\n(I'm not saying that actually works in practice, but no left-leaning individual would ever *encourage* society to be lazy).",
      "time": "2013-10-01T04:08:03",
      "id": "1065386025",
      "parentPost": "In my opinion, this was not satire. There was no tension, no punch line, no anything. Also, everyone knows Iveson is left-leaning. It's just becoming apparent HOW left he really leans.",
      "parentPostTime": "2013-10-01T02:43:36",
      "parentPostId": "1065325205"
    },
    {
      "threadId": "973055067",
      "post": "The frequent Magic Mouse disconnects drive me bananas. I finally had enough the other day and turned to Google for a solution. I discovered that the problem might not be Bluetooth, but in fact loose (and thus sporadically disconnecting) batteries. It seems the battery compartment in the Magic Mouse is just *slightly* too big, leaving room for the batteries to move around just enough to occasionally break the Bluetooth connection.\n\nWedging a small piece of paper under the battery cover reportedly solves the problem. The next time my mouse disconnects, I think I'll give it a try.\n\nhttp://lifehacker.com/5750840/wedge-paper-between-batteries-to-stop-magic-mouse-disconnects",
      "time": "2012-12-31T07:50:11",
      "id": "751857882",
      "parentPost": "I can usually get Bluetooth to \"stick\" for awhile at work; but at home my kids got fed-up with the cordless mouse and went and found the old one. ;)",
      "parentPostTime": "2012-12-14T19:49:26",
      "parentPostId": "736332721"
    },
    {
      "threadId": "968161066",
      "post": "Well, a lot of UX features are not black-and-white, which is why there are (many) apps out there with questionable interface decisions. But using an external website for signup or authentication is a pretty non-subjective thing to measure, which is why Apple can (and does) apply it so absolutely.\n\nEven then, there are surely some apps that will slip through Apple's approval cracks. But you can be certain Apple exhaustively checks high-profile apps from large players like Microsoft & Google.",
      "time": "2012-12-11T21:03:54",
      "id": "733437147",
      "parentPost": "This isn't the reason though. There are apps that have completely ignored Apple's guidelines and are still in the store. Some have many unorthodox usability and feature discoverability is appalling.",
      "parentPostTime": "2012-12-11T20:16:34",
      "parentPostId": "733401466"
    },
    {
      "threadId": "527160801",
      "post": "+1 for drinking plenty of water while working -- though it doesn't have to come at the expense of coffee! I find keeping a (fresh) full water bottle on my desk at all times subconsciously entices me to drink more water throughout the day.",
      "time": "2012-11-26T04:59:09",
      "id": "719134615",
      "parentPost": "Good suggestions! Except for the coffee thing. I'd personally recommend drinking a lot more water throughout the day. Generally when we are working at a desk we tend not to drink enough water and so get dehydrated leading to feeling exhausted. Drink plenty of water to keep the blood flowing and the body happy.",
      "parentPostTime": "2012-01-05T02:45:07",
      "parentPostId": "400931076"
    },
    {
      "threadId": "919567356",
      "post": "I think you'd need the ability to stack multiple tax objects.\n\nThis might be more of a taste thing, but I'd still rather have all my customers see the same dollar amount on their invoices. I've never received an invoice from a SaaS app that charged taxes on top of the advertised price. For example, when I sign up for a service that's $50/mo, I expect to see a $50/mo charge. Not $50 + whatever taxes their company deems necessary.\n\n\n\nIt's mostly an optics/advertising thing, but I'd rather add accounting complexity for myself than risk confusing customers over pricing & billing. If you're worried about taxes eating into your margins, simply raise your plan prices by the average tax rate you remit :)",
      "time": "2012-11-09T17:42:02",
      "id": "706329575",
      "parentPost": "I think taxes could be implemented similarly to how they do coupons. You'd create one tax 'object' for each tax rate (e.g. on for 15%, one for 5%, etc). It would be up to the application to figure out which object need to be applied to which payment - in the same way coupons work.",
      "parentPostTime": "2012-11-09T17:20:11",
      "parentPostId": "706305075"
    },
    {
      "threadId": "806164183",
      "post": "As a beginner woodworker ( http://www.flickr.com/photos/kylecfox/sets/72157627746602575/ ) and type enthusiast (I'm organizing http://craftingtype.com/ ), this ampersand table totally plucks my heartstrings. I would love to add it to my living room as a conversation piece -- it's always awesome to spark up a conversation about type, especially with people who've never really considered/appreciated type before. I can see this table starting many such conversations!",
      "time": "2012-08-23T18:45:58",
      "id": "626930055"
    },
    {
      "threadId": "795351957",
      "post": "I'm also going to enthusiastically dimple my chad for Vancouver, BC.\n\nPortland could be a close second.",
      "time": "2012-08-08T03:37:06",
      "id": "613110755"
    },
    {
      "threadId": "535830755",
      "post": "Podcasts: I listen to a bunch of the <a href=\"http://5by5.tv/\">5by5</a> shows, including \n\n- <a href=\"http://5by5.tv/b2w\">Back To Work</a> with Merlin Mann\n- <a href=\"http://5by5.tv/buildanalyze\">Build & Analyze</a> with Marco Arment\n- <a href=\"http://5by5.tv/hypercritical\">Hypercritical</a> with John Siracusa\n- <a href=\"http://5by5.tv/talkshow\">The Talk Show</a> with John Gruber\n\nThe content is top-notch (all those hosts are pretty well-known & interesting folks) even if some of the shows run long. I also listen to <a href=\"http://www.cbc.ca/ideas/\">CBC Ideas</a> (depending on the nature of the content), and my personal fave, <a href=\"http://www.radiolab.org/\">Radiolab.</a>\n\nMusic: I buy all my music from <a href=\"http://emusic.com/\">eMusic</a> and listen with iTunes. I tried Rdio, but it's not for me. I need to own my music.\n\nI listen to podcasts & music mainly while working at the computer or at the gym (I rarely drive). Probably 30% of the time I'm working I don't listen to <em>anything</em> because I find it distracting (even music -- I wind up drumming on my desk and staring at the wall).\n\nI read RSS feeds in the morning (using <a href=\"http://reederapp.com/\">Reeder</a>), and in the evenings I sometimes catch up on Twitter, Instapaper, or watch some TED talks. Or I'm reading an ebook on my iPad using iBooks or the Kindle app.\n\nWhew! Sorry for the long comment. I had no idea how much digital content I consume until I started writing this!",
      "time": "2012-01-13T04:24:00",
      "id": "409306918"
    },
    {
      "threadId": "534337005",
      "post": "Nice writeup. Adding an ever-so-subtle gradient (light top to darker bottom) to the background color is another way to add a ton of depth to otherwise flat buttons.\n\nThis might be a question of personal taste, but I think buttons with a click animation feel awkward & less believable. I think it feels more natural when the visual click-state of an element matches the physical state of the mouse cursor. So, as soon as my mouse \"clicks\" the button click animation should finished. Feels weird to have the button press down deeper as I hold my mouse down after the \"click\" has finished.",
      "time": "2012-01-12T02:38:15",
      "id": "408318514"
    },
    {
      "threadId": "523778223",
      "post": "This is quite an innovative licensing model, I like it. I think it's similar to releasing music, movies, and ebooks without DRM.\n\nDRM (or hard-to-get code) doesn't protect your product from piracy; if someone wants to steal it, they'll find a way. The only thing DRM achieves is inconveniencing people who legitimately acquired your product.\n\nKirby's optimistic license model is going to make your paying customers (and potential customers) extremely happy.",
      "time": "2012-01-02T21:12:17",
      "id": "399059839"
    },
    {
      "threadId": "505697289",
      "post": "Great post. I'm a Rails / Django developer diving into WordPress for the first time and this post was extremely helpful. The Wordless plugin @Jon mentioned is *awesome* for Rails developers like myself.\n\nThe author of that plugin has another tool called Wordmove (https://github.com/welaika/wordmove) that looks like it might solve the Backup & Sync woes you described.",
      "time": "2011-12-31T21:23:37",
      "id": "398052132"
    },
    {
      "threadId": "447857683",
      "post": "Best of luck, man. I was fortunate to get the chance to work with you, and I'm pumped to see whatever endeavor you pursue next!",
      "time": "2011-10-19T15:34:13",
      "id": "339189720"
    },
    {
      "threadId": "434946451",
      "post": "You have a good point - I guess it's hard to determine why customer satisfaction *really* went down.\n",
      "time": "2011-10-05T19:12:32",
      "id": "327360114",
      "parentPost": "It's interesting to see this sort of fallout. The sheer number of factors involved is pretty high so its hard to speculate at a root cause of the problem presented here (poor reviews). I wonder if it's not just that the people are hard to please but perhaps the staff are overwhelmed with more work than they can handle and thus quality of service dips. I'm sure its different for each merchant. \n\nThis is especially interesting to me as we see site like AppSumo spring up to extend the Groupon style market to software.",
      "parentPostTime": "2011-10-05T16:22:45",
      "parentPostId": "327240495"
    },
    {
      "threadId": "417275080",
      "post": "Cool, I had no idea this was possible. However ...\n\nThe Django guys explicitly say NOT to use the built-in server in a production environment:https://docs.djangoproject.com/en/1.3/ref/django-admin/#runserver-port-or-address-port\n\nYou should instead use gunicorn: http://gunicorn.org/",
      "time": "2011-09-17T18:59:17",
      "id": "313939347"
    },
    {
      "threadId": "407363675",
      "post": "Agreed. Part of the problem is that many don't realize quality writing & content strategy is part of an effective marketing plan. A marketing plan that doesn't include content strategy is probably just smoke & mirrors.",
      "time": "2011-09-07T16:57:13",
      "id": "304310469",
      "parentPost": "What's challenging, for designers, is that people are paying to build a website, not write content.  Writers, typically, don't get paid as much.  Marketers, on the other hand, can get paid quite handsomely.\n\nThis is the crux of the problem.",
      "parentPostTime": "2011-09-07T16:51:35",
      "parentPostId": "304307050"
    },
    {
      "threadId": "261180443",
      "post": "Insightful.\n\nI think people starting business are sometimes (wrongly) looked down upon by people in the startup crowd for having \"smaller\" aspirations. I disagree with this: I think it takes a lot more sweat & guts to build a solid company from nothing. Businesses have to earn their merit on the streets -- startups buy it by impressing people with cash.\n\nIMO, startups are simply experiments with a checkbook.",
      "time": "2011-03-23T17:10:23",
      "id": "170204998"
    },
    {
      "threadId": "135304363",
      "post": "Does this work in Rails 3?  I have <code>validates_attachment_content_type :image, :content_type => [ 'image/jpeg', 'image/png' ]</code> in my model, but when I upload valid JPG/PNG images it complains that they're invalid content types.<br><br>This was previously working fine, did something change in Rails 3?\n\nEdit: the problem is that Chromium doesn't send a content_type.  ",
      "time": "2010-09-06T22:22:13",
      "id": "75595403"
    },
    {
      "threadId": "127510073",
      "post": "Great tip.  I find that sometimes my template tags or Managers (if split into another file like managers.py) can also cause circular imports.  To get around this, I place my import statement within a function inside the second module.  This means the first module is imported at runtime, rather than load time.\n\nBut you probably already knew that :)\n\nI really like the new design, by the way!",
      "time": "2010-08-09T02:52:23",
      "id": "67277460"
    },
    {
      "threadId": "125382780",
      "post": "Oh, it's definitely an addiction.\n\n(Sadly not as much as it used to be for me.  Now it feels like work.)",
      "time": "2010-08-03T16:02:37",
      "id": "65864919",
      "parentPost": "Of course, that is the same logic employed by alcoholics.  Running is an addiction also?",
      "parentPostTime": "2010-08-03T15:48:08",
      "parentPostId": "65862807"
    },
    {
      "threadId": "87744713",
      "post": "Cool, I've been looking to do the same for my own site.  I tried Toto on Heroku but disliked the fact that it used a custom framework.  I really like the sounds of Serious, will have to check it out.",
      "time": "2010-05-08T19:08:05",
      "id": "49106270"
    },
    {
      "threadId": "86942119",
      "post": "Whoa!  Totally missed this.  Happy bird day dude!",
      "time": "2010-04-20T04:15:53",
      "id": "45605241"
    },
    {
      "threadId": "86832251",
      "post": "You can now get credit when your photos appear on the Scoreboard by clicking the \"Your Profile\" link in the header and entering your name and website address.",
      "time": "2010-04-18T01:06:55",
      "id": "45331607"
    },
    {
      "threadId": "86109388",
      "post": "I'm sure 37signals has awesome backups, but it's nice to hold your data in your own hands as well.\n\nI also really like the idea of having the ability to give clients an archived version of their entire project.  It can be reassuring to clients knowing they have their own copy of everything as well.",
      "time": "2010-04-14T17:27:54",
      "id": "44761340",
      "parentPost": "Seems silly to 'backup' your files to a less reliable place. I'd trust the sys admins at 37signals any day over my local computer.",
      "parentPostTime": "2010-04-14T16:32:52",
      "parentPostId": "44752241"
    },
    {
      "threadId": "39483890",
      "post": "I realize this is a fairly old post, but is there any particular reason `with_exclusive_scope` was used in the first place?  Why not just use `with_scope` ?",
      "time": "2010-04-13T16:45:32",
      "id": "44613207"
    },
    {
      "threadId": "61327832",
      "post": "This is awesome!  Not sure how I missed the announcement, but we can really use this feature to help build our affiliate program.",
      "time": "2010-02-19T04:52:35",
      "id": "35276832"
    },
    {
      "threadId": "64593572",
      "post": "Yep, I can tell you threads will definitely be an issue.  We were doing a similar thing with settings SITE_ID in middleware, but when the server was handling multiple requests simultaneously SITE_ID could actually be set to the *wrong* SITE_ID.  This caused a massive headache, because we were using it in our CMS to power multiple client-sites using the Sites framework.  Basically, what ended up happening is that *the wrong sites were being loaded*.\n\nHad to come up with a quick (and super-ugly hack) to make our settings work across threads.  Here's the code, but I would really discourage you from using it :)\n\nhttp://code.google.com/p/django-app-accounts/source/browse/trunk/accounts/thread_settings.py",
      "time": "2010-02-06T18:25:44",
      "id": "32850508"
    },
    {
      "threadId": "57738564",
      "post": "Open source typography is most definitely worth fighting for.  The objections you've cited also appear in the open-source software world, and more often then not they are coming from individuals who are new to open-source, don't understand it, or are afraid of it.\n\nOver the last few years the benefits of an open, collaborative software ecosystem have become obvious, and coders are more willing -- downright eager, in fact -- to release their code under a license that encourages others to improve upon it.  The success of Github proves that once people truly understand open-source, and the tools are in place, massive collaboration thrives.\n\nIt up takes a massive mental leap to feel comfortable with others mashing one's work -- and in the case of typography, one's art.  By educating designers that they need not sacrifice their own identify in the process of releasing open-source typefaces (for example, by requiring unique names for derivative works), and by plodding along with efforts like The League, I'm certain that the typography community will eventually embrace open collaboration just as much as the software community.",
      "time": "2010-01-11T23:49:20",
      "id": "29437792"
    },
    {
      "threadId": "35929535",
      "post": "Trying to install mingus has been pretty frustrating.  I ran \"pip install -r stable-requirements.txt\" as the docs say, and I saw a bunch of successful output whiz by in the terminal...\n\n..but as it turns out, not all of these requirements get installed correctly.  I've had to manually install about half of those requirement by trial-and-error (validate, see what blows up, install dependency manually, repeat).\n\nI like the idea behind mingus -- bundling existing apps, rather than rebuilding -- but for it to be practical, the installation has to be flawless.  Otherwise it kind of defeats the purpose imo.\n\n*Edit: I should add that I eventually did get mingus working, and barring the installation issues, it works great.  Good job.",
      "time": "2009-09-26T20:15:47",
      "id": "17446541"
    },
    {
      "threadId": "16844988",
      "post": "Nice summary.\r\n\r\nYou ask \"How do you think the issue should be resolved?\" -- this is kind of presumptuous; who says spec work needs any kind of resolution?\r\n\r\nThe simple fact is that spec work is capitalism at its best.  Personally, I would never do spec work because I wouldn't want to invest my time without receiving a guaranteed financial benefit.  It's just not how I roll, and I assume many other professionals are the same.\r\n\r\nHowever, there *are* designers out there willing to do spec work.  Nobody has the right to stop them from doing so.\r\n\r\nThe fact that spec work exists at all proves that 1) clients want it, and 2) some designers are willing to provide it.  Is spec work exploiting designers?  Is it resulting in lower value for the client?  The answers to these questions don't even matter if both parties willingly engage in an agreement.\r\n\r\nAs you suggested, a good step would be to educate clients about the benefits of a client / designer relationship, and also educating designers about the value of their services.\r\n\r\nIt kind of reminds me of going to a used car salesman.  Sure, you won't get the best vehicle possible, but you'll find *something* that fits your budget.",
      "time": "2009-04-30T15:12:59",
      "id": "8863819"
    },
    {
      "threadId": "4091032",
      "post": "Holy crap that's annoying.",
      "time": "2008-11-04T22:16:22",
      "id": "3494726"
    }
  ],
  "profileInfo": {
    "username": "kylefox",
    "about": "",
    "name": "Kyle Fox",
    "disable3rdPartyTrackers": false,
    "isPowerContributor": false,
    "isAnonymous": false,
    "rep": 1.2608789999999999,
    "profileUrl": "https://disqus.com/by/kylefox/",
    "url": "http://kylefox.ca",
    "reputation": 1.2608789999999999,
    "location": "Edmonton, Alberta, Canada",
    "isPrivate": false,
    "signedUrl": "http://disq.us/?url=http%3A%2F%2Fkylefox.ca&key=zV2dKveIaYc9_9WEpZXIhw",
    "isPrimary": true,
    "joinedAt": "2008-10-31T14:28:59",
    "id": "132911",
    "avatar": {
      "small": {
        "permalink": "https://disqus.com/api/users/avatars/kylefox.jpg",
        "cache": "//a.disquscdn.com/uploads/users/13/2911/avatar32.jpg?1455136348"
      },
      "isCustom": true,
      "permalink": "https://disqus.com/api/users/avatars/kylefox.jpg",
      "cache": "//a.disquscdn.com/uploads/users/13/2911/avatar92.jpg?1455136348",
      "large": {
        "permalink": "https://disqus.com/api/users/avatars/kylefox.jpg",
        "cache": "//a.disquscdn.com/uploads/users/13/2911/avatar92.jpg?1455136348"
      }
    }
  }
}