{
  "comments": [
    {
      "threadId": "4229155977",
      "post": "Your clear. You think pirating is fine.",
      "time": "2015-10-17T23:25:27",
      "id": "2312754354",
      "parentPost": "Maybe you need to go back and read through the above article which is full of speculation, and personal opinion, example \"Knockoffs use cheap plastic and paint and they quality is subpar and could be potentially dangerous for younger children to play with.\". This is the fear tactic MrPruitt is referring to.\n\nPeople look up to you guys and when you make statements that are based on speculation and not backed with facts or data, it has a negitive impact.\n\nAll that needed to be said was \"buyer be aware\".",
      "parentPostTime": "2015-10-17T23:10:41",
      "parentPostId": "2312739930"
    },
    {
      "threadId": "3898803137",
      "post": "thanks! we will get that added today.",
      "time": "2015-07-03T13:34:42",
      "id": "2114500376",
      "parentPost": "You are also missing High Five from Trap Team. I just noticed this today. Echo from Trap Team is also missing a picture. Not to nitpick but just letting you know.",
      "parentPostTime": "2015-07-02T18:17:23",
      "parentPostId": "2113082021"
    },
    {
      "threadId": "2961762998",
      "post": "The bases are different, molds are the same. The new ones you can use like any other character, fight with them. The sidekicks will still just tag along, from what I have read. So, ya, you'll have to repurchase.",
      "time": "2014-08-27T13:59:44",
      "id": "1561596994",
      "parentPost": "So, if you already have the 8 sidekicks, will mine work, or will I have to drop more money to buy duplicates with different bases? If I do need to repurchase, I think that's a bit unfair, if I spent the money to get them, with all the Fritos we went through, that they are still only sidekicks.",
      "parentPostTime": "2014-08-26T22:09:18",
      "parentPostId": "1560742521"
    },
    {
      "threadId": "2872277174",
      "post": "that's our bad, it has been fixed, thanks! Glad this will be available everywhere this year!",
      "time": "2014-07-25T13:43:29",
      "id": "1503178461",
      "parentPost": "This isn't exclusive to Toys R Us. I preordered the same thing through GameStop.",
      "parentPostTime": "2014-07-25T13:01:02",
      "parentPostId": "1503127278"
    },
    {
      "threadId": "2789239175",
      "post": "will do.",
      "time": "2014-07-23T19:31:53",
      "id": "1500303712",
      "parentPost": "can you add the crystal clear green, purple and red bone fire bone hot dogs from the new frito lay promotion",
      "parentPostTime": "2014-07-07T01:19:20",
      "parentPostId": "1471444807"
    },
    {
      "threadId": "2699377092",
      "post": "Joshua - As the press release reads, the first issue is expected in October and the author and artists mentioned in the press release also matchup to what is on Amazon.",
      "time": "2014-05-20T16:30:39",
      "id": "1395904038",
      "parentPost": "I was thinking The Kaos Trap was a separate, larger graphic novel. It isn't numbered or anything, and the page count is much larger than any comic book I've ever seen! Unless it's a bunch of the comics (#1-5 maybe) collected together. Plus, if #0 is released at Comic-Con in July, it wouldn't make sense to wait that long to release another issue.",
      "parentPostTime": "2014-05-20T14:14:12",
      "parentPostId": "1395711563"
    },
    {
      "threadId": "2617083491",
      "post": "We have not heard of this being the case.",
      "time": "2014-04-18T12:37:58",
      "id": "1344617023",
      "parentPost": "will portal masters be able to win a doom stone character through an online drawing or sweepstakes?",
      "parentPostTime": "2014-04-17T01:50:47",
      "parentPostId": "1342188442"
    },
    {
      "threadId": "2501470032",
      "post": "No, these do not work in the game, they are just little toys, nothing more. I have the collection from last year.",
      "time": "2014-03-26T01:50:30",
      "id": "1302962377",
      "parentPost": "WILL THEY ACTUALLY WORK WITH THE VIDEO GAME OR ARE THEY JUST TOYS?",
      "parentPostTime": "2014-03-24T23:44:41",
      "parentPostId": "1300478052"
    },
    {
      "threadId": "2500105401",
      "post": "Where did you find this?",
      "time": "2014-03-24T21:00:24",
      "id": "1300130524",
      "parentPost": "Found Stink bomb like this. Gold Silver. https://fbcdn-sphotos-b-a.akamaihd.net/hphotos-ak-frc1/t1.0-9/1962714_10203349544161376_214283297_n.jpg",
      "parentPostTime": "2014-03-24T17:13:46",
      "parentPostId": "1299637762"
    },
    {
      "threadId": "2100195306",
      "post": "We cover news on new releases here. No news on Freeze Blade as of yet.",
      "time": "2014-01-08T18:30:09",
      "id": "1192451740",
      "parentPost": "Thank you. I was afraid of that for wash buckler. I noticed that it is in every starter pack out there except the one I got my son for his 3ds. He has been begging for wash buckler and I can't give it to him. :( do you know when freeze blade gets released? How I do I get updates on when new characters release? ",
      "parentPostTime": "2014-01-08T16:05:29",
      "parentPostId": "1192210943"
    },
    {
      "threadId": "1869918097",
      "post": "We'll get these added. thanks!",
      "time": "2013-10-21T14:35:14",
      "id": "1090768903",
      "parentPost": "though these weren't released in swap force, here are some the website missed. Crystal clear versions of cynder, wham-shell, and stealth elf released in spryo's adventure. Silver versions of dino-rang, boomer, and eruptor released in  spyro's adventure. Pearl series 2 sonic boom released in giants. Add these please.",
      "parentPostTime": "2013-10-20T23:29:52",
      "parentPostId": "1090180348"
    },
    {
      "threadId": "1836454574",
      "post": "Should be a great launch!",
      "time": "2013-10-09T20:04:02",
      "id": "1076751577",
      "parentPost": "We will be there at TRU! \nVic II ~Rville Ga Portal Master",
      "parentPostTime": "2013-10-08T19:19:37",
      "parentPostId": "1075348700"
    },
    {
      "threadId": "1819265652",
      "post": "After that, go look up who provides the best care in the world. Universal care has only worked in small, very wealthy countries. The rest of the cases you have major debt and low quality care from the program.",
      "time": "2013-10-07T14:00:27",
      "id": "1073520107",
      "parentPost": "Please take a moment to look up where the US stands in terms of longevity. Of developed countries, we're easily one of the unhealthiest. Every other country on that list with the exception of Mexico has universal, publicly-funded, quality-of-care-driven healthcare. You can throw around xenophobic insults all you like, but it requires you to completely ignore what's actually happening in the rest of the world.",
      "parentPostTime": "2013-10-05T05:49:37",
      "parentPostId": "1071174535"
    },
    {
      "threadId": "905225444",
      "post": "This is just so frustrating. If you have a site that doesn't do link building because it doesn't need to, it's a natural reference site and get links naturally...yet, you get a bad link message, now we are supposed to look into these bad links? Now we have to dedicate time into this when we never needed to for link building. Seems like a bad way to reward those who made great content and didn't need to link build.",
      "time": "2012-10-29T21:01:09",
      "id": "695691548"
    },
    {
      "threadId": "400835526",
      "post": "Ed Norton is not Hulk. Mark Ruffalo is playing the Hulk in this film.",
      "time": "2011-09-06T13:53:02",
      "id": "303510993",
      "parentPost": "Ed Norton as Hulk? Arve Productions instead of Marvel? Thor's new power is to change how long his hair is?\n\nThe above obvious aside, the layering in this photo is horrible. You can actually see the lines between the layers. There's no way this is real. If it is, then I hope this doesn't mean they spent all their funding for advertising already.",
      "parentPostTime": "2011-09-02T00:07:04",
      "parentPostId": "300795191"
    },
    {
      "threadId": "369345078",
      "post": "Would love to see a film based on Space Mountain!",
      "time": "2011-08-04T20:10:34",
      "id": "277602658"
    },
    {
      "threadId": "282562581",
      "post": "Did he mention all the jobs that will be created from innovative Americans that will make products, produce content/games on the ipad? Border went under because it sucked. Now at least that revenue will go to a company that is actually turning a profit and will pay income taxes on those products.",
      "time": "2011-04-18T21:18:24",
      "id": "187121611"
    },
    {
      "threadId": "267621211",
      "post": "Sounds like a great switch for people that have either a low self esteem or in need or even more attention that facebook provides readily. Why must I need people to be fans of me? How pathetic.",
      "time": "2011-03-31T15:41:28",
      "id": "175574697"
    },
    {
      "threadId": "263834674",
      "post": "Two problems with this article. First, this video is not even running YouTube partner ads from within the video. Second, if they were and had the video ads running any YouTube partner would know you would make a good amount more per thousand views than your above stated amount.",
      "time": "2011-03-29T18:51:27",
      "id": "174235646"
    },
    {
      "threadId": "255496527",
      "post": "Today is Wednesay. Tommorrow is Thursday and then after that is Friday.",
      "time": "2011-03-16T18:09:30",
      "id": "166723855"
    },
    {
      "threadId": "83810640",
      "post": "Sounds like a hoax. Oh, we found it today and it's 2 million years old, just laying on the ground in a cave. ",
      "time": "2010-04-08T20:38:30",
      "id": "43916517"
    },
    {
      "threadId": "61666402",
      "post": "When you take something that has a heart beat and brain waves and destroy it when it is entirely human (regardless of what the \"medical community\" wants to call it) that is murder. Just because our nation allows it, doesn't make it right. Some people don't think it's a religious issue, but a humanitarian issue. You don't fix irresponsibility with killing the only human of the 3 NOT responsible.\n\nAnd to clarify the separation of church and state was originally intended to keep the State out of the Churches business. That's why many people left Europe because the church of england was all up in the church's business. Of course, in this country, we've managed to reverse the meaning and screw it up.",
      "time": "2010-01-26T22:55:04",
      "id": "31442822"
    },
    {
      "threadId": "15409260",
      "post": "I mostly use Twitter and then install the Twitter app in Facebook and it looks like I am active in Facebook when actually I'm not but once a week or so.",
      "time": "2009-04-09T17:01:33",
      "id": "8010083"
    }
  ],
  "profileInfo": {
    "username": "forthofer",
    "about": "",
    "name": "Jason Forthofer",
    "disable3rdPartyTrackers": false,
    "isPowerContributor": false,
    "isAnonymous": false,
    "rep": 1.275451,
    "profileUrl": "https://disqus.com/by/forthofer/",
    "url": "http://www.brickshow.tv",
    "reputation": 1.275451,
    "location": "Atlanta, GA",
    "isPrivate": false,
    "signedUrl": "http://disq.us/?url=http%3A%2F%2Fwww.brickshow.tv&key=urDfqwOLC-hqwZD7H7r2Bw",
    "isPrimary": true,
    "joinedAt": "2008-05-20T18:21:39",
    "id": "35029",
    "avatar": {
      "small": {
        "permalink": "https://disqus.com/api/users/avatars/forthofer.jpg",
        "cache": "//a.disquscdn.com/uploads/users/3/5029/avatar32.jpg?1281549414"
      },
      "isCustom": true,
      "permalink": "https://disqus.com/api/users/avatars/forthofer.jpg",
      "cache": "//a.disquscdn.com/uploads/users/3/5029/avatar92.jpg?1281549414",
      "large": {
        "permalink": "https://disqus.com/api/users/avatars/forthofer.jpg",
        "cache": "//a.disquscdn.com/uploads/users/3/5029/avatar92.jpg?1281549414"
      }
    }
  }
}