{
  "comments": [
    {
      "threadId": "3043808989",
      "post": "Daily chart trumped 30/60 min!",
      "time": "2014-09-26T13:12:36",
      "id": "1606839688"
    },
    {
      "threadId": "2594365747",
      "post": "If 1,840 breaks (on a close basis), then the next target is down at Feb-Mar swing low of 1,740.  To trade this move would first need a rally back to the 20-day MA - and a confirmation the 20-day MA is still resistance.  A straight break of 1,840 is an alternative short, but I think buyers will bring this back to generate a 'bear trap'.",
      "time": "2014-04-08T09:13:31",
      "id": "1323595233"
    },
    {
      "threadId": "2581802341",
      "post": "$RUTX is stuck in an earlier congestion, and not giving a clear indication as to where it may go next. Swing traders could trade a break of Wednesday's narrow range (stop on flip-side).  Near term momentum favors upside; maybe see a challenge of 1,200 today, extending to 1,205-1,208 as it feels for a breakout like Large Caps.",
      "time": "2014-04-03T09:32:50",
      "id": "1316487958"
    },
    {
      "threadId": "2199358343",
      "post": "Thanks John - Used the wrong link. Should be working again: http://www.markets.fallondpicks.com/p/sentiment-charts.html Tnx!",
      "time": "2014-02-03T17:50:35",
      "id": "1229122547"
    },
    {
      "threadId": "1888112962",
      "post": "Channel resistance is a place where shorts have an opportunity to attack. Are those channels valid? If they have three touch points they carry a certain weight; the more touches the better. Can shorts succeed? Depends on the target.",
      "time": "2014-01-30T22:28:39",
      "id": "1224475354"
    },
    {
      "threadId": "1876966781",
      "post": "It's about probability and opportunity: measuring the risk and estimating the reward",
      "time": "2014-01-30T22:24:06",
      "id": "1224463856"
    },
    {
      "threadId": "2187669852",
      "post": "I was thinking Apple's results would hurt Nasdaq/Nasdaq 100, but I see futures are up(!) for today already...",
      "time": "2014-01-29T10:00:08",
      "id": "1221536543"
    },
    {
      "threadId": "2052804158",
      "post": "Well - got that one horribly wrong. Since Fed announcement, Industrials has been the best sector for bulls....",
      "time": "2013-12-20T12:06:07",
      "id": "1171386427"
    },
    {
      "threadId": "2039480213",
      "post": "Hi Cassius, thanks for the question.  I'm still trying to figure it out! At it's most basic - the best buying opportunity is when Bullishness (x-axis) is less than 0.1. Selling covered calls (or just selling), can be done when Bullishness is above 0.9. Between this - I'm still not certain how best to use. I keep track of all on this via Twitter, under the #sectorbreadth tag",
      "time": "2013-12-15T23:40:11",
      "id": "1165108292",
      "parentPost": "can you tell us how best to interpret these?   Also, when is ideal buy and sell points.  Thx.",
      "parentPostTime": "2013-12-14T20:20:04",
      "parentPostId": "1163658840"
    },
    {
      "threadId": "2022097850",
      "post": "Thanks for the feedback.  The ADX is a handy filter to help differentiate when one should be trading the trend, versus support-resistance. Stocks where the ADX is above 20 are usually moving strongly higher and lower. In this environment, look to buy pullbacks/short rallies to moving averages. When the ADX is below 20, then indicators like the RSI and Stochastics become more useful as prices typically move in a range between support and resistance.",
      "time": "2013-12-06T11:25:03",
      "id": "1152728986",
      "parentPost": "Always find your reports interesting.  I noticed the SPX ADX parameter which says when ADX is greater than 20, use Trend indicators, when ADX is less than 20 use Momentum indicators.  Could you explain further?",
      "parentPostTime": "2013-12-04T01:48:44",
      "parentPostId": "1149725458"
    },
    {
      "threadId": "1941081529",
      "post": "Thanks!",
      "time": "2013-11-06T14:24:03",
      "id": "1111071448",
      "parentPost": "Congratulations Dr. Declan, I'm a regular reader of yours....",
      "parentPostTime": "2013-11-06T11:02:17",
      "parentPostId": "1110906033"
    },
    {
      "threadId": "1601937061",
      "post": "AAPL getting above its 200-day MA is interesting, but volume was tepid. BBRY is just delaying the inevitable - hard to be optimistic as a business or a stock.",
      "time": "2013-08-13T13:42:43",
      "id": "998994658",
      "parentPost": "well.. today was AAPL and BBRY.. not much going on",
      "parentPostTime": "2013-08-13T01:23:12",
      "parentPostId": "998163468"
    },
    {
      "threadId": "1295026220",
      "post": "This list is a sample of a larger set of stocks I keep here: http://previous.delicious.com//zignalscharts.. TSLA made the grade in November 2011: https://twitter.com/fallondpicks/status/135477903524773888",
      "time": "2013-06-17T13:22:48",
      "id": "933068818"
    },
    {
      "threadId": "1033809591",
      "post": "40% drop in Harvest Natural Resources on failure of Deal (http://finance.yahoo.com/news/harvest-natural-resources-announces-termination-111100070.html). Ugly.",
      "time": "2013-02-26T15:29:42",
      "id": "812981290"
    },
    {
      "threadId": "1065057194",
      "post": "Thanks - should read as \"an almost tenfold increase\".  Irrespective of the direct relationship in the high/low, the point made that this is substantial gain over a relatively short period (x 6.7 gain to be more accurate) is one which is difficult to maintain when the underlying fundamentals can't keep up with the price.  It's not unusual to see price 'collapse' after such a run as people take their profits (be it x2, x3, x4, or x5 their initial investment) as they watch the price fall. It's then, that the fundamental outlook which encouraged the initial rally can play its role in stabilizing the stock's price, and kickstart the next phase of the advance.",
      "time": "2013-02-13T12:23:29",
      "id": "797569121"
    },
    {
      "threadId": "1020306984",
      "post": "Hi dion2727.  I held the stock about 10 years ago. It grabbed my eye when I saw it appear in my scan.",
      "time": "2013-01-18T15:30:41",
      "id": "771811554",
      "parentPost": "Thanks for bringing CRY to the attention of the Motley Fool family.I have owned CRY from its IPO.",
      "parentPostTime": "2013-01-18T01:59:11",
      "parentPostId": "771435932"
    },
    {
      "threadId": "984308643",
      "post": "Hi Jamal,\n\nNo problem not syndicating (kind of thought it wouldn't, but for followers of my feed I wanted to offer a supporting angle to how fundamental sound stocks behave in the market).\n\nFor book keeping purpose, can this be resolved as 'Not Syndicated' \n\nThanks,\nDeclan",
      "time": "2013-01-17T11:43:23",
      "id": "770808533"
    },
    {
      "threadId": "1029466635",
      "post": "Knocked out some of the less relevant links.  Let me know if it needs further trimming. ",
      "time": "2013-01-17T11:39:17",
      "id": "770806930"
    },
    {
      "threadId": "984308322",
      "post": "It's okay - don't syndicate the article",
      "time": "2013-01-08T11:00:18",
      "id": "759882409"
    },
    {
      "threadId": "944735965",
      "post": "Some good buying volume today.  A break of $10 would be psychologically important, but hasn't quite managed it yet.  A move above $10 would also give it credibility for institutional investors.",
      "time": "2012-12-14T22:04:02",
      "id": "736463359",
      "parentPost": "I bought shares in ISIS yesterday at 9.50 as it seems a bargain long term. ISIS has just announced a substantial deal with AZN, plus a 3rd big deal with BIIB, and their 17% holding in RGLS is up in value too since the IPO at $4. The W formation in the stock price looks like a technical indication of an upswing. Also, their joint venture partners are the most impressive I've ever seen for a stock under $10 & include  PFE, GSK, BMY, LLY, JNJ, SNY, AZN, BIIB, and more!",
      "parentPostTime": "2012-12-12T16:24:20",
      "parentPostId": "734048538"
    },
    {
      "threadId": "891697634",
      "post": "Hi Jamal,\n\nCorrected, and reworded for flow. \n\nYes - there is confusion over Envestnet earnings'.  In their earnings release there was a reported net income loss, but the adjusted EPS was +$0.07 - and this value is quoted as the official EPS for the quarter. The article does link direct to the report where these figures are pulled from.\n\nThanks,\nDeclan",
      "time": "2012-10-24T15:26:53",
      "id": "691088462"
    },
    {
      "threadId": "897029791",
      "post": "I think the simple reason there are fewer Bloggers is because blogging is time consuming...\n\n\nI'm in my eighth year of blogging.  Since day nought, I have put in a couple of hours M-Th, and again on Saturday.  As people age, time demands change; careers, family etc.  Money is gained or lost on the market; a bad year in the market and the last thing you want to do is write about the markets.  Blogging is something I have trained myself to do regularly, and I have adapted as demands on my time have changed.  Blogging is a good online C.V. to have. It demonstrates the knowledge you have (or don't), and the dedication, which at best, offers just personal reward. \n\n\nI think point '3' is unlikely to be the main reason why financial blogging has declined (just look at how many political blogs seem quite happy to spout their nonsense no matter what the audience, or if it's right or wrong!).  I blog for myself. If that attracts an audience, well then that's well and good.  I have had help along the way. I owe much to Charles Kirk, TraderMike, and Cobrasmarketview for the exposure my blog got with them, and the traffic and readership I got from direct traffic from these blogs.  This helped get my blog on the Finviz blog feed, which is where I get most of my traffic now. I recently joined the Motley Fool Blogging network, which has opened a whole new (syndicated) audience I previously would not have reached.  \n\n\n| don't think many blog with the intention of becoming the next Big Name.  I write with a technical focus, which many consider to be \"nonsense\", and there are those who like to call me out on this - which is fine.  I've been wrong many times (I never got to see the next lower low from March 2009, which I thought would end the bear, as the market happily rallied along right up to today!), but again - if I was right all the time, I would be much better off! I have diversified my writing with a fundamental focus, for Roger's Fool blogging network.  The Motley Fool have been great in this regard, and would recommend for anyone looking to get into financial blogging. \n\n\nThe financial mechanics appear to be the same, if one wants to have any chance of pulling off ad revenue, you need millions of views a week - not something feasible for the majority. I had started with a subscription newsletter, but after a decent start, that revenue died off so I stopped.  I did do really well with an affiliate program with Careerbuilder for 5 years, until I did too well - and that income stopped.  The Motley Fool offers a clear approach to revenue: if an article meet muster, it's syndicated and you get $50 (which is about 6 months of ad revenue!). It's easier than going alone, and offers a ready made audience to build a reputation. \n\n\nI'll keep on blogging - irrespective of whether I'm right or wrong!\n",
      "time": "2012-10-24T10:07:07",
      "id": "690827167"
    },
    {
      "threadId": "882424690",
      "post": "\"Also the author mentions Comcast missed last quarter earnings target which also seems to be inaccurate according to the link in the article. http://www.barchart.com/stocks...\"\n\nCorrect - the Comcast miss was not the most recent quarter, but was four quarters ago (Sep 2011).",
      "time": "2012-10-18T16:05:06",
      "id": "686267773"
    },
    {
      "threadId": "882407054",
      "post": "Hi Mike,\n\nThings going well and good to hear you have a new editor to take on the load! Probably a relief for yourselves!\n\nI have clarified the problem statement a little better.  Let me know if it needs further tweaking (or just take it out?).\n\nThanks,\nDeclan",
      "time": "2012-10-16T09:23:48",
      "id": "683976214"
    },
    {
      "threadId": "878225228",
      "post": "The Fly is a Good 'un",
      "time": "2012-10-10T09:01:59",
      "id": "678113349"
    },
    {
      "threadId": "847803680",
      "post": "Fleshed it out on the Apple side of the coin.\nStrengthened Conclusion.   \nAdded sub-headings and changed the header. ",
      "time": "2012-09-20T10:41:25",
      "id": "656509556"
    },
    {
      "threadId": "841683869",
      "post": "Is that good or bad  :)",
      "time": "2012-09-19T08:55:47",
      "id": "655330338"
    },
    {
      "threadId": "841403549",
      "post": "Added a paragraph on the benefits to Biogen by the ISIS deal. ",
      "time": "2012-09-18T15:16:37",
      "id": "654556641"
    },
    {
      "threadId": "786253757",
      "post": "Value is in the execution; pulling all content from $cashtag will only lead to (even more) spam.  It will only challenge Stocktwits if they combine it with true curation, otherwise it's just streamed noise. ",
      "time": "2012-07-31T12:52:00",
      "id": "604580441"
    },
    {
      "threadId": "754076530",
      "post": "Sorry to hear it's going too. It is (to be 'was') my primary means of tweeting.  But I can understand in the push to Mobile there is no room for Adobe Air...\n\nDeclan",
      "time": "2012-07-24T16:22:28",
      "id": "596491911"
    },
    {
      "threadId": "722972950",
      "post": "Filled more in with respect to Medtronic, but given Cyberonics niche market it's harder to rope in Glaxo.  Passing mention to a couple of other Device Makers but it looks like Medtronic is the key competitor with SANTE. ",
      "time": "2012-06-15T15:47:27",
      "id": "558604017",
      "parentPost": "Declan, \n\nTry to add a bit more relevant insight to Glaxo and Medtronic in order to ticker them. This will help your article's distribution.\n\nThanks, \nMike",
      "parentPostTime": "2012-06-14T17:42:39",
      "parentPostId": "557390498"
    },
    {
      "threadId": "462404490",
      "post": "Cheers Peter,\n\nIt's the least I can do - it's still a bargain for me!",
      "time": "2011-12-14T23:43:48",
      "id": "386825949",
      "parentPost": "Hi, Declan, thanks. I cannot believe you're doing this almost every year, I don't know what to say, but thanks. My admin finally agreed to add you into the blogroll of this site, hopefully that's enough to express my gratitude. With the site going private soon, I'll sure lose the number 1 visited status the next year so the blogroll won't be as powerful as before but still that's my gratitude in return.\n\nBest withes for you too!",
      "parentPostTime": "2011-12-14T19:15:43",
      "parentPostId": "386639415"
    },
    {
      "threadId": "493108059",
      "post": "Depends on the \"Science\"!   \n\nOne Ph.D. + 7 years Research experience later => Career in Online Financial Services.... Unfortunately, I worked myself into a dead-end in Science - all too easy to do. \n\nI have no complaints on my current job at all - it was why I took up blogging in 2004; I knew my time was up in Science so I needed to train in something else -  something secure like financial services which were just so bountiful with riches  :)\n\nI was lucky my parents covered my undergrad fees (did my undergrad in Ireland - nothing like the expense of the US). I also lived at home during my stint as an undergrad; plenty of home cooking! So I have no college debt, but I would be the exception and not the norm. \n\nTrials of a career in Science:\n\n[1] Science undergrads have longer hours in college (all those pesky labs); in the first couple of years this amounted (for me) to 26 hours of classes and labs a week with odd breaks here and there which made it impossible to work.  In later years more time is given to a research project which allowed some flexibility in getting a part-time job. For my sins I spent my summers working as a bank teller and my weekends as a gas pump attendant;  Oh the glory years!  \n\n[2] If you study science, an advanced degree is a must.  In the U.S. this usually means doing both an M. Sc. and a Ph.D. But as a filthy European I got to skip the M. Sc. step and went straight to Ph.D. It took me 5 years to complete it, but 9 months of this were spent working full-time on Y2K compliance project at a bank; it was 1999 boys and girls and I needed the money.\n\nAnyway, If you are studying Science in American you are looking at 2 years donig an M. Sc and at least 3 years for a Ph.D., although the average for a Ph.D. is closer to 4. And if you have troublesome committee, then add another year....\n\nAt least when doing a Ph.D. you get paid and your fees covered.  For example, a Graduate Research Assistantship at Wisconsin will earn you $20,000 for 3 years - but if you take longer than 3 years to do it (which most Ph.D.s do), then you have to prostitute yourself out as a TA.  So time spent income earned is time less to finish up...\n\n[3] Congrats; you have both Ph.D. and B.Sc. and perhaps an M. Sc. thrown in. You are considered \"ancient\" by your former undergrad charges and \"uncool\" by friends who went and got real jobs 8 years ago, when they themselves finished their undergraduate studies (note for current generation: your friends won't have jobs. They may - still - be working a field of fruit in Wisconsin, perhaps aspiring to own that field one day).\n\n[4] Okay - at this point, you will have barely managed to pay the interest on the student loans you got all those years ago and probably had to add too over time. But hey, you are now a super-qualified Scientist ready to take on the world.  Time for a Post-Doc\n\n[5] Oh look; a current post-doc salary scale for a Theoretical Physicist is $29-36K. Sign-me up.\n\n[6] Three years pass; contract up... Look for permananent position.\n\n[7] Hmmmm....\n\n[8] Oh look: another post-doc (maybe inflation has added another 20% to your salary)\n\n[9] Three more years pass; contract up - maybe had one or two interviews for something permanent, but little going\n\n[10] Hmmmm...\n\n(if you had a girlfriend - she probably left you at some point between the age of 18 and 36; your financial clock is ticking and it's not getting any better*. There is also the issue of the interest accrued on your student debt back when Justin Bieber was a Rock Star)  (*hypothetical - must first have girlfriend to lose one. Remember, your a \"Scientist\")\n\n[11] Hmmmm...\n\n[12] Apply for a third post-doc.. Oh Oh .. Even your fellow academic peers think you are getting on a bit to be doing this.\n\n[12b] Get your own money - good luck!  I managed this for my third stint as (yet another) post-doc; raised the princely sum of $241,000. All going swimmingly.\n\nThen...\n\nResearch shows nowt... Worse still - results conflict with the findings of the pen-pushers who signed off on the money in the first place.  Not a good vibe.\n\n[13] Lucky '13'; change career\n\n[14] Woohoo! New job.\n\nOhh... student debt is unchanged and unpaid. And if you managed to get married and have kids, then you have a new drain on the resources.\n\nYour are also 'very old' to be finishing college\n\n:)",
      "time": "2011-12-05T16:31:33",
      "id": "379574881",
      "parentPost": "it is, mostly!  STEM grads are highly employed. (that's science, technology, engineering, math)\n\nand college tuition prices are INSANE - don't get me wrong - I'm certainly not disagreeing with that - but I vehemently disagree with those who say \"oh, I was told I was supposed to go to college, it's not my fault\"   Bullshit - no one told you to borrow $100k to get a degree in French History from *insert school here, as I'm sure I've already offended enough people*",
      "parentPostTime": "2011-12-04T21:30:26",
      "parentPostId": "379130189"
    },
    {
      "threadId": "446297862",
      "post": "\"Generation X knows you didn’t even read the whole thing.\"\n\nAs a Blogger this reads so true - it's great to be part of the 'Shafted Generation'",
      "time": "2011-10-25T20:51:59",
      "id": "344145854"
    },
    {
      "threadId": "434302192",
      "post": "I don't think supply will become an issue until 20-day MAs are challenged. Yesterday was a mix of short covering and value buying, but how strong this buying is won't be known until shorts attack again. I suspect this won't happen until indices reach their 20-day MAs. \n\nThe 'bear trap' will negate itself if regained support is lost again, but I would be surprised if this happened by the end-of-the week (and if it did it would be bad news for Tuesday's value buyers as they would likely flee to the exits). \n\nAs for today, I think we will see tight trading around the top of yesterdays' range. Futures so far suggest this to be the case, but markets are psychologically vulnerable in a weak state. It won't take much to panic the jittery. \n\nI have had to eat my words in the past - I wouldn't like to do so again so soon!",
      "time": "2011-10-05T09:32:52",
      "id": "327029337",
      "parentPost": "In my opinion, this is just a pullback (a short lived too) before the downtrend continues. While your technical analysis is very good - I believe you are wrong on this one. And I think it will be more like a bull trap (within the next 2-3 days or sooner) rather than bear trap.",
      "parentPostTime": "2011-10-05T04:50:30",
      "parentPostId": "326887957"
    },
    {
      "threadId": "383553606",
      "post": "Yes...",
      "time": "2011-08-24T13:31:32",
      "id": "294372411"
    },
    {
      "threadId": "388086086",
      "post": "Also to consider measured move projection if bear flag breaks. After a powerful thrust down, is this the first phase of something worse (maybe we are just a third of the way to the real low), are we looking at a final flush for which there is just another third to go, or is this the half-way mark for the decline? ",
      "time": "2011-08-17T08:48:01",
      "id": "289081788"
    },
    {
      "threadId": "360820452",
      "post": "What challenge will your daughter set next...",
      "time": "2011-07-18T12:34:57",
      "id": "255975748"
    },
    {
      "threadId": "357310213",
      "post": "Good luck with the new venture Richard.\n\nWhen stuff is free - particularly on the internet - there is an expectation for a higher standard and service than say the service you get from your cable or utility provider (which you *have* to pay). So when you try and monetize your blog you don't catch much of a break - despite the meagre earnings it brings in. I don't get it either...\n\nI know I would find it hard to split my time into two blogs - even if one is a side project, so you may be best to stick with just the one. Old is not necessarily 'bad'; you could disable comments/emails if it gets tiresome (although I rarely get emails on my old stuff)??? \n\nAnyway - my 2 cents!\nDeclan",
      "time": "2011-07-15T12:46:55",
      "id": "252706567"
    },
    {
      "threadId": "342974050",
      "post": "Not sure - but this link, someone attests to mothballs???\n\nhttp://mgonline.com/articles/squirrel.aspx",
      "time": "2011-06-27T13:15:19",
      "id": "235928768",
      "parentPost": "I am on squirrel BAJUNGI tilt right now!  if these fuckers go after my other trees, I'm going to have to go full redneck on them and sit out there in a lawn chair with a gun.  Of course, I'll have to get a gun first...  and a lot of bug spray.\n\nany tricks to stop them?  ",
      "parentPostTime": "2011-06-27T13:09:04",
      "parentPostId": "235926447"
    },
    {
      "threadId": "270219210",
      "post": "Hi Howard,\n\nGiven your purchase of IBB (coming after your prior post on the ETF timebomb); do you have particular 'Do Not Feed The Animals' set of ETFs to avoid? I had my own disappointment with USO and would avoid some of the lesser liquid ETFs, but would be interested to know if you had your own ETF bugbears?\n\nThank you,\nDeclan",
      "time": "2011-04-04T09:18:39",
      "id": "177701912"
    },
    {
      "threadId": "252926335",
      "post": "Uploaded a screengrab of the view I have with Chrome\n\nhttp://tinypic.com/view.php?pic=xqdt6s&s=7\n\nHere is the link to the page: http://www.zignals.com/main/help/videos.aspx\n\nIt's probably some bizarre conflict, but FYI in case it crops up elsewhere",
      "time": "2011-03-23T10:55:29",
      "id": "170035141",
      "parentPost": "Same Chrome build too - cleared cache, no change. None the wiser as to what the cause may be. Thanks for speedy response. ",
      "parentPostTime": "2011-03-22T17:58:15",
      "parentPostId": "169702568"
    },
    {
      "threadId": "165194677",
      "post": "For followers of market breadth: http://cobrasmarketview.blogspot.com/",
      "time": "2010-11-02T23:52:08",
      "id": "93152925"
    },
    {
      "threadId": "123474906",
      "post": "Have your tried www.zignals.com for charts? When you save a chart it will give you an embed code which will scale the chart to the width of your blog post.\r\n\r\nThank you,\r\nDeclan",
      "time": "2010-08-05T21:56:22",
      "id": "66320333",
      "parentPost": "Does anyone have a solution for me, if I want to add stock quotes, charts, tickers, etc to my blog?\n",
      "parentPostTime": "2010-08-05T21:44:11",
      "parentPostId": "66316909"
    },
    {
      "threadId": "93265978",
      "post": "You can switch off delivery, delete or cancel unwanted messages. Please send me your account details to declan-at-zignals.com.\n\nThank you,\nDeclan",
      "time": "2010-05-08T20:33:00",
      "id": "49112429"
    },
    {
      "threadId": "92756583",
      "post": "ChessNWine (http://chart.ly/c9zsxf) coming on strong for charting.\n\nDJF",
      "time": "2010-05-05T23:08:59",
      "id": "48581536"
    },
    {
      "threadId": "21959678",
      "post": "Nice spot. I haven't done a look back on the 200-day EMA - I wonder how it has performed in the past as either support or resistance?\r\n\r\nDeclan\r\n\r\nDeclan Fallonwww.fallondpicks.com",
      "time": "2009-06-18T16:03:21",
      "id": "11103200",
      "parentPost": "Take a look at the 200 day EMA.  It's like a brick wall of resistance.  http://stockcharts.com/h-sc/ui?s=$SPX&p=D&yr=0&mn=6&dy=0&id=p07952494340.",
      "parentPostTime": "2009-06-18T15:53:39",
      "parentPostId": "11102807"
    },
    {
      "threadId": "18710839",
      "post": "Boll*x!\r\n\r\nLost again....",
      "time": "2009-05-22T12:59:53",
      "id": "9789613"
    },
    {
      "threadId": "46984087",
      "post": "Which gives good reason for Stocktwits success given trading is about managing emotion as much as it is about managing capital.",
      "time": "2009-05-20T08:55:42",
      "id": "9570083"
    },
    {
      "threadId": "15414716",
      "post": "I dunno who is buying into this shit but someone is not learning their lesson; short covering perhaps?",
      "time": "2009-04-09T13:48:37",
      "id": "8004044"
    },
    {
      "threadId": "11575737",
      "post": "Well said - almost serene. Very un-HL\r\n\r\nDeclan",
      "time": "2009-02-11T16:33:24",
      "id": "6179348"
    },
    {
      "threadId": "4184514",
      "post": "Obama for me too - it's the Da Kine in me.\r\n\r\nCan't stand social conservatives - too many double standards, so Palin is a big 'No-No'. It would have been ballsy of McCain to have gone with Liebermann; giving the two fingers to the old guard. But he would have definitely lost the election had he done so.\r\n\r\nAll of this posturing looks to me like a Clinton v Palin run for 2012. Where's Intrade on this!",
      "time": "2008-09-05T10:28:51",
      "id": "2141311"
    },
    {
      "threadId": "194469",
      "post": "Trying something new with this. Looks cool",
      "time": "2008-02-15T00:08:45",
      "id": "150646"
    }
  ],
  "profileInfo": {
    "username": "fallond",
    "about": "Senior Market Technician for Zignals.com. The iTunes for Trading Strategies. Come build your own and earn with Zignals.",
    "name": "fallond",
    "disable3rdPartyTrackers": false,
    "isPowerContributor": false,
    "isAnonymous": false,
    "rep": 1.208153,
    "profileUrl": "https://disqus.com/by/fallond/",
    "url": "http://www.markets.fallondpicks.com",
    "reputation": 1.208153,
    "location": "Dublin, IRL",
    "isPrivate": false,
    "signedUrl": "http://disq.us/?url=http%3A%2F%2Fwww.markets.fallondpicks.com&key=FOdNd4t8a59U2C130YkC1g",
    "isPrimary": true,
    "joinedAt": "2008-02-13T16:44:40",
    "id": "10569",
    "avatar": {
      "small": {
        "permalink": "https://disqus.com/api/users/avatars/fallond.jpg",
        "cache": "//a.disquscdn.com/uploads/users/10569/avatar32.jpg?1281549414"
      },
      "isCustom": true,
      "permalink": "https://disqus.com/api/users/avatars/fallond.jpg",
      "cache": "//a.disquscdn.com/uploads/users/10569/avatar92.jpg?1281549414",
      "large": {
        "permalink": "https://disqus.com/api/users/avatars/fallond.jpg",
        "cache": "//a.disquscdn.com/uploads/users/10569/avatar92.jpg?1281549414"
      }
    }
  }
}