{
  "comments": [
    {
      "threadId": "967742127",
      "post": "The twist: this all took place 30,000 years ago.",
      "time": "2012-12-26T15:04:13",
      "id": "747755285"
    },
    {
      "threadId": "510259774",
      "post": "Thanks for the tip, but when I view this page on iPhone it seems to apply some mobile-optimized Tumblr theme, that prohibits me from viewing the textarea to copy the javascript.",
      "time": "2012-09-11T14:00:50",
      "id": "646691040"
    },
    {
      "threadId": "474115189",
      "post": "I hope my dogs would do exactly this if confronted by strangers during the daytime (and home alone): run and hide. So +10 for the dogs! (And hugs to that ballsy cat.)\n\nSeriously, do you want your dogs confronting them, only to be harmed?",
      "time": "2011-11-16T19:18:47",
      "id": "364957465"
    },
    {
      "threadId": "49290740",
      "post": "Well, of course, Richard. Nothing is absolutely proof against malicious attack. If nothing else, an approach like this would raise the bar for executing such an attack, and delay some of the instant-win gratification of doing so. I would assume that an application that earns reputation with an approach like this should -still- be subject to the same security constraints as an untrusted app, and should still have the same methods available for recourse (report abuse functionality, etc.) as for a completely untrusted app. \n\nIt would be a design improvement to allow users to go back at any time and change their response to the cake question.",
      "time": "2011-05-19T18:22:44",
      "id": "207251942",
      "parentPost": " This will fail utterly in the face of an application which is delayed malware, eg, delivers you the cake today but harvests your info and everyone else's and sells it to the Russian Mafia three months later.",
      "parentPostTime": "2011-05-19T17:31:12",
      "parentPostId": "207226420"
    },
    {
      "threadId": "112595167",
      "post": "Whoah! 307 new Subway locations in 2010. I added the graph above.",
      "time": "2010-07-01T03:44:40",
      "id": "60092348",
      "parentPost": "How many Subways?  Those things are popping up everywhere I turn around.  If there isn't one in my garage when I get home I'll be surprised.",
      "parentPostTime": "2010-06-30T19:07:00",
      "parentPostId": "60029549"
    },
    {
      "threadId": "98311364",
      "post": "And clean my hookah-pipe while you're at it! Nude!",
      "time": "2010-05-23T12:40:32",
      "id": "51581439"
    },
    {
      "threadId": "91170538",
      "post": "Hmm... http://www.desertcolossus.com/museum/melora_zelda_link.jpg",
      "time": "2010-04-30T13:50:46",
      "id": "47650789"
    },
    {
      "threadId": "90612768",
      "post": "Hey awesome — we just recently Wii'd up — send me your code ... friending.. mii... thingy to connect.",
      "time": "2010-04-28T19:24:58",
      "id": "47267742"
    },
    {
      "threadId": "84578172",
      "post": "What, no silhouette of a cat?",
      "time": "2010-04-09T19:12:16",
      "id": "44063648"
    },
    {
      "threadId": "74388349",
      "post": "Hi Nicolo - the version on the wiki currently lags behind the production, for-sale version of the book. The retail version, in all its formats, has had greater editing and review, and updated illustrations. The content of the wiki version is largely complete, though. Thanks for asking. ",
      "time": "2010-03-15T11:59:47",
      "id": "39736116",
      "parentPost": "Is there any difference between the book on sale in o'reilly.com and the book in http://buildingreputation.com/doku.php ?",
      "parentPostTime": "2010-03-15T10:51:15",
      "parentPostId": "39733109"
    },
    {
      "threadId": "72122595",
      "post": "Just to clarify — neither Randy nor I will be in Austin for SxSW (that I know of—perhaps Randy will change his mind?) But there should be O'Reilly (and I believe some Yahoo! Press folks) manning the booth to help you find BWRS. ",
      "time": "2010-03-03T15:40:19",
      "id": "37805644"
    },
    {
      "threadId": "9547629",
      "post": "Hi Dan -- I didn't want to let your (very good) question hang out here for too long unanswered. Unfortunately, Randy and I have been extremely busy in the weeks leading into final production of the book. So may I defer answering for now? This topic actually would make a good blog entry, so I'll put a draft entry into our publishing queue as a reminder. Thanks for reading and contributing!",
      "time": "2010-03-03T14:40:27",
      "id": "37799442"
    },
    {
      "threadId": "47685",
      "post": "Hi Ivan — nope, neither Flickr's \"Explore\" (Gallery) nor email made it in. You can see higher-res versions here: \nhttp://www.flickr.com/photos/bryce/58299511/sizes/l/\nhttp://www.flickr.com/photos/bryce/58299511/sizes/o/\n\nThanks for dropping by!",
      "time": "2010-01-09T03:02:05",
      "id": "29009794",
      "parentPost": "Nice work, here. \n\nNot being picky, but have you included Gallery in here (and email) Hard to see on my miserable laptop.",
      "parentPostTime": "2010-01-08T05:16:13",
      "parentPostId": "28860351"
    },
    {
      "threadId": "56308469",
      "post": "Another suggestion (and a way that Chowhound -could- benefit from stealing a Yelp feature.) It sounds as if users on the site really value 'discovering' great out-of-the-way establishments and dishes. Why not reward that with some kind of 'pioneer' designation (Yelp gives out 'first to review' badges to users.) \n\nAlso, it occurs to me that -- perhaps the primary reputable entity on Chowhound is NOT the venue, rather it should be the menu-item? This would help with the 'one great item' problem quoted above.\n\nGreat article Randy!",
      "time": "2010-01-06T18:24:13",
      "id": "28696857"
    },
    {
      "threadId": "54656491",
      "post": "Anil, I have a generally-high opinion of you already (and Dave as well) but this response just amplified that impression ten-fold. Well said.",
      "time": "2010-01-01T17:19:09",
      "id": "27768989",
      "parentPost": "Dave, I appreciate the clarity of what you're saying and that you think enough of me to say it flat out. I will ask to be removed from the list once we've figured out if there's any useful data to be gleaned, but I am also trying to use my position on the list in the meantime to demonstrate its lack of value, which (to my knowledge) nobody else has done. I do understand this conflicts with how you see these things should work, but I hope we can agree it's a difference in interpretation of a set of facts, not a difference in our character.\n\nAs I said to you in a recent conversation, my whole life has been one of privilege -- it's an arbitrary and fortunate fact that my father got on a plane and came around the world, or I would likely be standing amidst rice paddies in one of the poorest parts of India with my cousins, who are every bit as smart as I am, if not more so. For me, reconciling with the enormous privileges I have been granted is about understanding how to use them responsibly, not necessarily abdicating them all.\n\nI did appreciate your (smiley-suffixed) mention of me being \"upper caste\" in your tweet about my post. That's this issue exactly. My family back in India *does* happen to be upper caste, but most of them are lawyers, and have used their privilege to protect the rights of Christians, outcastes (untouchables) and others. That seems like an honorable choice to me, especially as they have put a lot of effort into making the caste system as irrelevant as possible.",
      "parentPostTime": "2009-12-30T05:00:07",
      "parentPostId": "27529519"
    },
    {
      "threadId": "44929784",
      "post": "No Dan, I think this observation is -directly- on topic, and speaks to the motivations of the people doing the rating. I think you're right — tying publicly-expressed opinions to a person's core identity on your site (as expressed through their user profile) can be a powerful influencing factor on the quality of feedback that they give. A little more on reputation as identity here: http://buildingreputation.com/writings/2009/11/reputation_is_identity_1.html\n\nI do worry somewhat that it can also be an inhibiting factor (eg. folks may shy away from controversial, or off-color, topics because they don't want them to appear as part of their official record. So some user choice is always good — perhaps give them a preference to -not- share rating & review activity, or allow them on a per-instance basis to opt out of re-sharing that one particular item. I'm not sure, but I think we discuss those options somewhere in the book. \n\nthanks for you comment!",
      "time": "2009-12-12T14:24:07",
      "id": "25594469",
      "parentPost": "After working on a few ratings projects (one really big one) I think a more obvious connection to the user brings a lot more responsibility to the rating, no matter how it's done. And as a side effect there are more connections and opportunities to promote good parts of the system.\n\nExample: A thumbs up (or anything above a 3.5) will show up on your profile.\n\nThen people will think a little bit harder about how they rate content, and the content gets promoted on their profile as well. And an extra bonus: people who don't like filling out profiles can use that area to demonstrate what they like--rating becomes a tool for self-expression.\n\nSorry, not exactly the topic of your post... But I think it's a huge part of rating systems that rarely gets brought into the discussion!",
      "parentPostTime": "2009-12-11T13:19:14",
      "parentPostId": "25507374"
    },
    {
      "threadId": "50688030",
      "post": "Hi Chris — yes, the next expansions will be on the Rep System side of the diagram. I'll be trying to think of a clever way to tie the system's metaphors back over to their real-world counterparts. And more color (and a better layout) are most definitely called for. Thanks for your feedback, and keep an eye on this space! I hope to be doing a second version soon.",
      "time": "2009-12-12T14:17:47",
      "id": "25594319",
      "parentPost": "I like the way you've labeled the arcs.  That really shows the point of the connections and makes the chart easy to read.\n\nAre you planning to expand the unexpanded nodes?  (e.g. Statement, System, Model, Claim)  Is that what you'd use more color balloons for?  More color would also be a good enhancement.",
      "parentPostTime": "2009-12-09T18:20:35",
      "parentPostId": "25311799"
    },
    {
      "threadId": "40314887",
      "post": "So that third map is smaller tiles. 128x128. I tried to find a place in the code to specify tile size but was stymied. Any thoughts?",
      "time": "2009-10-26T01:09:32",
      "id": "21005432",
      "parentPost": "Cool ~~Map \"DirectoryName\" FirstLayerNumber LastLayerNumber~~ does the trick now.\n",
      "parentPostTime": "2009-10-19T00:41:41",
      "parentPostId": "20362897"
    },
    {
      "threadId": "34285605",
      "post": "Thanks Perry, for your kind words. :-) We too have our own 'special project' dog (Kirby, a 12+ year old German Shepherd) that we found on the street almost 4 years ago. He's enriched our lives in ways we never would've imagined. I'm still sorry that we couldn't help this poor pit, but I too hope her story might inspire some. Thanks again.",
      "time": "2009-10-15T03:59:42",
      "id": "20096063",
      "parentPost": "Bryce,\r\nI understand your angst.  My wife &  I had a similar experience but with a notably happier ending.  Lisa (the aforementioned wife) has a shop in Thornville, Ohio and one day 2 summers ago a dog just ran in and looked around like it had been invited.  She was obviously a stray so my wife put a rope on her and brought her home.  \r\nWe took her to the vet and had her shots, etc. and tried to adopt her out 3 times but each time she came back.  All said she was sweet but just too high maintenance.  \r\nIt is a few years later and Odie is happily a part of our family.  We have had dogs for the 19 years we have been married and this is the first one that actually plays with the kids.  She is in fact high maintenance but the sweetest thing you could ever want.\r\nFor the record, I was not in favor of keeping Odie but would not trade her now.\r\nThanks for sharing this and hopefully others will take action as a result!",
      "parentPostTime": "2009-10-08T15:17:11",
      "parentPostId": "19551286"
    },
    {
      "threadId": "28029999",
      "post": "This is a great idea. I had a Lit. professor in my undergrad days at Bowling Green State University (Michael Mott, now retired) who had a great feedback mechanism for student papers. Down the right-side of the paper, he would trace an 'attention line' with a fat-edged marker, indicating how well the writing was holding his interest as a reader. The stronger the writing, the bolder and more sure the line. Rough patches would get shivery, broken lines. It was very effective and communicated a lot (of course, supplemented with his notes and observations.) \n\nI've often thought, if there were some way to reproduce that online it would make a fantastic content quality input mechanism... ;-)",
      "time": "2009-10-09T02:41:56",
      "id": "19624580",
      "parentPost": "By publishing a bunch of interesting user feedback, of course.  You have your entire book here: create a reputation system for it, let people vote on best-liked, worst-liked paragraphs etc. just for fun, then collect all that neat info as a kaleidoscope-view of the behavoir of the masses (us).",
      "parentPostTime": "2009-10-08T22:52:53",
      "parentPostId": "19616206"
    },
    {
      "threadId": "36948638",
      "post": "Hi Csaba -- that approach may help ameliorate some aspects of first-mover advantage, but my response is two-fold: first, question whether you truly need leaderboards or not (is the activity your community engaged in competitive by nature? If not, then why apply the trappings of competition to it?)<br><br>And, secondly, first-mover effects will still apply—to some degree—to monthly leaderboards. It depends on the inputs that feed into the system. Even though you're 'resetting' the board count each month, the factors that favor early winners in the community might still be in effect and--month after month--those folks will continue to enjoy an unfair advantage.<br><br>Let's assume, for example, that you weigh the number of \"Favorites\" for something as a component of some quality-based reputation for that item. (Favorites is good, because it indicates quality and not just simple activity.) HOWEVER... the number of people that might favorite an item is directly related to the number of people that might SEE an item. Posters who have been successful in building a following (the first-movers) will have a lot more eyeballs on their contributions, a lot more opportunity to have that content seen and favorited. Resetting the counts each month does very little to change the first-mover equation.",
      "time": "2009-10-03T21:26:19",
      "id": "18396608",
      "parentPost": "How about using monthly leaderboards for users? In this way it's possible to highlight the most active contributors, and nobody is discouraged from participating and contributing.",
      "parentPostTime": "2009-10-03T19:53:27",
      "parentPostId": "18394580"
    },
    {
      "threadId": "10649848",
      "post": "Welcome Csaba! Would love to hear more about your site as it launches. Please do come back and share..",
      "time": "2009-09-17T16:50:44",
      "id": "16820124",
      "parentPost": "How about using \"Reputation Framework\"?\r\n\r\nI discovered your blog/wiki a week ago and since then I'm a fascinated reader - working on launching a site soon.\r\n\r\nCsaba Bán\r\nHungary",
      "parentPostTime": "2009-09-17T16:37:27",
      "parentPostId": "16819498"
    },
    {
      "threadId": "31317612",
      "post": "I think the tagline is intended to -help- sales, Randy. ;-) I'm not sure I'd know from either of those what to expect between the covers. More and more, I'm liking your 'Ratings, Reviews' riff that you did early on. How about: \r\n\r\n\"Ratings, Reviews, and Karma in the User-Contributed Web\" \r\n or \r\n\"Harnessing the power of community to improve content quality.\"\r\n\r\nblech. those are awful, but... my two cents.",
      "time": "2009-09-03T03:38:55",
      "id": "15845783",
      "parentPost": "How about \"A Practitioners Guide of Theory, Design, Implementation, and Operation\".\r\nI want to shorten it to \"Theory and Practice\", but I'm not sure anyone will put themselves in the latter group from so short a subtitle.\r\n",
      "parentPostTime": "2009-09-03T03:11:12",
      "parentPostId": "15844610"
    },
    {
      "threadId": "30988993",
      "post": "Thanks for dropping by, Jason! I meant it -- really well-considered little widget that leverages social incentives well. I'd be interested to hear how it performs for the site over time.",
      "time": "2009-09-01T05:46:21",
      "id": "15696112"
    },
    {
      "threadId": "103665",
      "post": "Now, Aida—THIS is how you choose to use your stay-cation? Frequenting the lonely nether-reaches of the internet? Shame on you. :-)",
      "time": "2009-08-13T03:18:50",
      "id": "14761289"
    },
    {
      "threadId": "19105155",
      "post": "Nice cannes.",
      "time": "2009-05-23T03:00:28",
      "id": "9818270"
    },
    {
      "threadId": "10261578",
      "post": "I mentioned this to you before, Randy, but I keep playing back something in my mind related to the differences between Content Reputation and Karma (People Reputation.) \n\nBy way of building upon the distinction that you've already laid out (simple vs. complex), I think there's some insight to be gained from looking at the <em>types of decisions</em> that an observer may be trying to make about a piece of content: Will I enjoy this? Is it worth reading/watching/buying? Is it <em>good</em>? These can typically be answered with a fairly narrow range of responses—<em>yes</em> or <em>no</em> are often good enough. (Or, possibly yes or no with some qualification.)\n\nJuxtapose this with the types of questions an observer might have of <em>a person</em>: Can I trust her? What's he likely to do next? will he cheat me on this transaction? Is she funny? Any one of these judgments is fairly nuanced (therefore, complex) one, with a much wider range of possibilities for responses. A simple 'no' for any of these questions would quite naturally lead to the follow-on question… \"Well, why not?\" These type of questions almost <em>beg</em> for qualification.\n\nSo, really, just a long-winded way of saying \"People are multifaceted\" and the models we choose to represent them should be as well. But another thing that comes to mind: unlike a piece of content, a <em>person's</em> facets or descriptors are not static. \n\nA piece of content—once authored—is mostly static and unchanging. The 'output' from that content is fairly predictable and any evaluation of it (be it of quality, humor, what have you) is not likely to change over time. Ppl are different: when modeling karma, we must accept that people's actions and intentions can vary wildly over time.",
      "time": "2009-02-03T04:55:58",
      "id": "5800048"
    },
    {
      "threadId": "10441044",
      "post": "That was a months-ago google-wander for 'animals and reputation' that landed me on an amazon search-inside-the-book page. Sheer luck, mostly.",
      "time": "2009-01-28T05:04:03",
      "id": "5610850",
      "parentPost": "I really dig the Mantis Shrimp - what a great find. How did you come across that Bryce?",
      "parentPostTime": "2009-01-26T23:25:03",
      "parentPostId": "5559457"
    },
    {
      "threadId": "9854711",
      "post": "Hire new developers, huh? Wow. You really have no conception of how product development takes place at the scale and rigor of a property like Yahoo!, do you? We've got fine developers, and plenty of 'em. And I guarantee that 99.98% of em are smarter than you. Guarantee.",
      "time": "2009-01-14T22:13:23",
      "id": "5121031"
    },
    {
      "threadId": "8630476",
      "post": "Heh -- I'm sorry. I was being just a teensy bit of a dick there. I'm actually tapping this out on a G1 and, yes, rather dissapointed that mbile Disqus doesn't support me yet (and actually kinda wondering what kinda iPhone-specific hoo-ha the devs did to keep me from it: i can SEE all comments. just not act on 'em! c'mon guys - make the actions little statis buttons... links even. and you're done!)",
      "time": "2009-01-13T19:13:57",
      "id": "5096396",
      "parentPost": "Not bitter at all.  Just disappointed that iPhone seems to be all the rave, yet there are many other phones/platforms that have been around longer. Very few people have developed apps for them -- and they seem to be an afterthought only when a new iPhone app is developed.   Thanks for commenting.",
      "parentPostTime": "2009-01-13T19:06:08",
      "parentPostId": "5096248"
    },
    {
      "threadId": "9547969",
      "post": "Thank you for the suggestion, Bridget. This is exactly the tension that we're trying to balance in this first introductory chapter (giving the subject a real-world \"grounding\" and giving readers a good vernacular understanding of the concepts while still showing the Web-geeks how this is going to be relevant to them.)\r\n\r\nSounds like we're erring too far on the hand-holding side right now... We'll definitely work on this in subsequent revisions for this chapter. (Our editor has warned us that most authors <em>drastically</em> rewrite first chapters later in the process, as they work out voice and scope of the book.) Thanks again! ",
      "time": "2009-01-08T06:05:26",
      "id": "4982202",
      "parentPost": "Really happy that you are sharing this creation process, it is like a little gift of wisdom. Couple comments (you asked for this, right?):\r\n\r\n“If the context can be clearly understood and valued by a larger audience, surfacing a local reputation more broadly can create significant real-world value for an entity.”\r\n\r\nThe word “sufacing” pops out in this chapter as lingo, rather than the straightforward language used everywhere else. It doesn't have a dictionary definition, in this context, even if it might be used within the industry.\r\n\r\nYou do a very good job giving context and definition to the real world/old media definitions of reputation in this introductory chapter, which is appropriate. However, it takes until nearly half way through before you begin to mention web based reputation. Given that the audience for this book (in whatever media they access it) is most likely to be web-focused, with the obvious immediate attention demands, you might consider weaving online oriented comments into the earlier part of the chapter, to pull the reader through that baseline material. Don't think any of it needs to be removed, but you might consider ways to make that backround info feel more immediately relevent.\r\n",
      "parentPostTime": "2009-01-08T00:34:29",
      "parentPostId": "4971188"
    },
    {
      "threadId": "9546862",
      "post": "Wow. Best use of $50 EVAR!",
      "time": "2009-01-08T00:13:30",
      "id": "4970825",
      "parentPost": "Wow! Custom programming, on demand in just less than two hours:\r\n\r\nAt 11:15 today I posted a request for a Disqus plugin for Dokuwiki on their support forums at http://forum.dokuwiki.org/thread/3093 pledging $50 to incentivize the effort.\r\n\r\nAt 11:45, Andreas Gohr, site administrator and major contributor to Dokuwiki said \"Okay I'll bite :-) Interesting idea I'll give it a go.\"\r\n\r\nAt 13:43 he'd finished it: http://www.dokuwiki.org/plugin:disqus\r\n\r\nAt his instructions, I donated the money to Dokuwiki via Paypal and am no happily posting this first message on my wiki!\r\n\r\nAmazing!\r\n",
      "parentPostTime": "2009-01-08T00:10:53",
      "parentPostId": "4970795"
    },
    {
      "threadId": "9018528",
      "post": "Thanks for the questions and comments, Hunter!\n\nI'd have to think a little bit longer on examples of effective non-game leaderboards. Frankly, it'd be a fairly involved answer, with plenty of 'it depends' and meta-considerations. Probably worthy of expanding on in a blog-entry of its own. But I'll try to do it some justice...\n\nSo, by many measures, Amazon's \"Top Reviewer\" program has been a resounding success, and if you count along a certain set of metrics (# of reviews generated, ability to market books as 'Amazon favorites', etc) then you could cite them as a wildly effective use of the leaderboard pattern. IF, however, you're more inclined to measure things like \"quality of the reviews\" then some of the historical high-rankers come up quite lacking. See Josh Porter on <a href=\"http://bokardo.com/archives/is-harriet-klausner-for-real/\">longtime #1 reviewer Harriet Krausner</a> (or <a href=\"http://www.slate.com/id/2182002/pagenum/all/\">Slate on Grady Harp</a>.)\n\nIn fact, Amazon has recently reconfigured their Top Reviewers algorithm (note that the <a href=\"http://www.amazon.com/review/top-reviewers/ \">leaderboards still feature</a> an 'Old Coke' tab for Classic Reviewer Rank) to more prominently weigh community response to reviews, a nod toward rewarding quality instead of sheer output.\n\nA fun offline example? How about the <a href=\"http://en.wikipedia.org/wiki/FBI_Ten_Most_Wanted\">FBI Ten Most Wanted</a> list..  I've read that, very early in the programs history, there were those in the Bureau that lobbied against the List's creation and promotion. They were worried that the notoriety of the list would actually INCENTIVIZE worse-and-worse behavior from attention-seeking gangsters. Despite those fears, the long-running program has been very succesful at publicizing and ultimately capturing those who are listed.\n\nAnd, yes, I've admired many of the reputation-related decisions that Yelp has made. Josh Porter (again!) and I discussed Yelp in an interview on his site - see <a href=\"http://bokardo.com/archives/social-design-patterns-for-reputation-systems-two/\">Question 8 of Part 2</a>. Like you, I find it particularly noteworthy that Yelp has an ABUNDANCE of inputs that they could use to tabulate comparative scores for their reviewers and rank them in a leaderboard.. but they choose not to. Simple oversight? I doubt it—more like smart community management.",
      "time": "2009-01-02T06:36:00",
      "id": "4826339",
      "parentPost": "ooh, i think i'm going to like this new blog! :)\r\n\r\nso i agree with much of what you write WRT leaderboards and their design risks. Would be curious about what non-game examples of leaderboard usage you think HAVE worked? Online or physical world. Weight Watchers?\r\n\r\nOr perhaps what are some industries that would be really interesting to have leaderboards applied to them. We're starting to see the ability for households and neighborhoods to compare their energy usage in an effort to be \"more green.\"\r\n\r\nYelp does an interesting opaque leaderboard with their Yelp Elite members - a special honorific given out annually to top members but which has never been specifically defined. Yelp actually as a whole is very interesting in their community design - they've got compliments tied to users and ratings tied to your ratings, but neither are aggregated into leaderboards.",
      "parentPostTime": "2009-01-02T00:38:18",
      "parentPostId": "4821169"
    },
    {
      "threadId": "8763076",
      "post": "Hey Yury — sorry I couldn't make it over tonight. Ended up staying in and wrestling with the toddler to wear him out... Will catch up with you in January for sure!",
      "time": "2008-12-27T05:07:39",
      "id": "4661597",
      "parentPost": "Bryce, great summary. I'm looking forward to checking out your space. \r\n\r\nThe event you linked to (http://anyvite.com/events/home/zzilybyxnz) will be hosted at what'll be a mix of coworking, event and incubator space. Should be cool - I'm only tangentially involved (same with the 11 Price location), so I don't have a strong vested interest in any particular coworking spot.\r\n\r\nIf anyone in the group would like to check the space out or otherwise join us for drinks on Friday, send me an email (yury@tryfresh.com) and I'll add you to the list.",
      "parentPostTime": "2008-12-24T08:49:57",
      "parentPostId": "4605157"
    },
    {
      "threadId": "8590698",
      "post": "Why, actually—yes! I'll be doing a joint workshop with Christian Crumlish, Christina Wodtke and Josh Porter this year, and Reputation elements will be ~1/4 of the day. Look for it in pre-conference workshops...",
      "time": "2008-12-23T06:39:29",
      "id": "4585031",
      "parentPost": "Congrats, Bryce!  Will we see any more about the topic at the IA Summit?",
      "parentPostTime": "2008-12-19T14:05:08",
      "parentPostId": "4520433"
    },
    {
      "threadId": "7817916",
      "post": "First-rate work, as always, Jason. Must be particularly gratifying to know that there's real, life-bettering social value here too. Thanks for sharing!",
      "time": "2008-12-02T17:44:54",
      "id": "4130165"
    },
    {
      "threadId": "177621",
      "post": "Ooh! Scary! 'Meat stool!' (You kiss your Daddy with that mouth, Junior?\"",
      "time": "2008-11-13T13:44:34",
      "id": "3738403",
      "parentPost": "it looks gay\r\n\r\nchallenge me ill stick my meat stool in ur ass\r\n\r\nCreepingDeathX8 im a general",
      "parentPostTime": "2008-11-13T12:47:16",
      "parentPostId": "3737752"
    },
    {
      "threadId": "6337595",
      "post": "I don't know if the preso mentions it (I only made it to slide 149!!)) but Bill's got a book coming out soon on Rich interaction patterns.",
      "time": "2008-10-28T04:07:20",
      "id": "3336993"
    },
    {
      "threadId": "53922",
      "post": "Hm. Sorry \"Mac\". I've used a Mac since 1989. Nope, I still blame Adobe.",
      "time": "2008-10-22T13:52:14",
      "id": "3226374",
      "parentPost": "All posts by Windows users no doubt - you don't get Mac users abusing Adobe because Adobe and Apple actually talk to each other. No, blame Microsoft for their crap operating environment, that's more to the point.",
      "parentPostTime": "2008-10-22T04:33:55",
      "parentPostId": "3222486"
    },
    {
      "threadId": "4741656",
      "post": "Bwah HA ha!! No idea who sent the card, but I know exactly who's fat little fingers were in the 'lets use the glassy version' decision.",
      "time": "2008-09-19T02:11:41",
      "id": "2436371"
    },
    {
      "threadId": "2125277",
      "post": "Wow, Ben. What a ghetto recruiting practice—drive-by public comments on a blog? Do your research, man. I'm on LinkedIn—try reaching me there.\r\n\r\nAnd, no, I'm not interested in moving to NYC. ",
      "time": "2008-08-15T17:09:50",
      "id": "1476740",
      "parentPost": "Bryce,\r\n\r\nWould you be interested in UI/IA opportunities in NYC? I have many clients looking for your skill set. Please call me if you are interested at 212-204-1025.\r\n\r\nCheers,\r\n\r\nBen Ross\r\nSr Recruiter\r\nIT Practice\r\nForrest Solutions",
      "parentPostTime": "2008-08-15T14:27:28",
      "parentPostId": "1470037"
    },
    {
      "threadId": "2399872",
      "post": "Wondering exactly where she meant by \"here\"…",
      "time": "2008-08-04T21:23:54",
      "id": "1095179"
    },
    {
      "threadId": "2130629",
      "post": "Also known as 'a trip through the basement of almost any antique store in the Zanesville area.'",
      "time": "2008-07-23T21:21:46",
      "id": "981349"
    },
    {
      "threadId": "2028699",
      "post": "I realize this isn't exactly what you're asking for, but I did automate something close to it using Y! Pipes and Twitterfeed (sounds like a variation on what micronauta is doing, too.)\r\n\r\nhttp://soldierant.net/archives/2008/03/fun_hack_retweet_you.html\r\n\r\n",
      "time": "2008-07-21T02:25:20",
      "id": "952956"
    },
    {
      "threadId": "48946",
      "post": "Ha! Right you are '?' .. http://en.wikipedia.org/wiki/Braxton_Hicks",
      "time": "2008-07-11T20:45:54",
      "id": "869390",
      "parentPost": "Is it Higs or Hicks?",
      "parentPostTime": "2008-07-11T19:15:29",
      "parentPostId": "868290"
    },
    {
      "threadId": "1567776",
      "post": "Man, this is classic. This is loads better than the countless 'BSOD in an airport' pics floating around the innertubes... ",
      "time": "2008-07-03T19:20:07",
      "id": "809184"
    },
    {
      "threadId": "1420355",
      "post": "Aw shucks, Bill! Bring those kind words around any time! And I'd still love to figure out a trip up to see you (maybe pick up Keith along the way) and see what you're up to at MSU... perhaps in the fall?",
      "time": "2008-06-26T17:17:09",
      "id": "755234"
    },
    {
      "threadId": "1283665",
      "post": "Thanks, guys, for your thoughtful responses. Chalk my mini-rant up to 'geographical envy' for sure. ;-) Tho' fwiw, the same pattern does tend to repeat itself on movement after movement: microformats, Identity work, etc. — you can find 10 meetups in a month out there, w/nary a peep in the hinterlands. Would be great to find a way for valley-voices (where, to be fair, the stuff is being innovated so I totally understand the need for quick conferrals) to mingle more frequently with developers in Columbus, Indy, Ann Arbor... \r\n\r\nIf our coworking plans work out, come Fall I'd be more than happy to host an OAuth for the Masses Summit! ",
      "time": "2008-06-19T20:44:51",
      "id": "709839"
    },
    {
      "threadId": "1173056",
      "post": "This almost looks intentional. Lookat that logo/illustration at the top of the package, and tell me what AC/DC song it puts you in mind of…",
      "time": "2008-06-12T16:55:34",
      "id": "646587"
    },
    {
      "threadId": "843283",
      "post": "Heh. He IS getting big, but that is also a mini-size picnic table (let's just say that Mom made the mistake of trying to sit at it, and quickly learned a lesson.) He's 13 months old now…",
      "time": "2008-05-30T20:48:49",
      "id": "559926"
    },
    {
      "threadId": "933360",
      "post": "A pet peeve of mine: people who care enough to host these things (which is great) but not enough to identify themselves anywhere noticeable on the website. Seriously— who are you people?! Pictures, please. Bio, blurb.. hell, a name!! I'll take anything. \r\n\r\nGrr.",
      "time": "2008-05-30T19:09:13",
      "id": "559199"
    },
    {
      "threadId": "854373",
      "post": "Hey! .. er... what? No, really... I was watching The A Team back then.. Seriously!",
      "time": "2008-05-28T18:07:13",
      "id": "543227"
    },
    {
      "threadId": "621693",
      "post": "Yeah, I did. Caleb did a great job at capturing the highlights. When I get a minute, I'll add a link to his report back to this entry…",
      "time": "2008-05-12T18:52:27",
      "id": "451889"
    },
    {
      "threadId": "616987",
      "post": "I've gotten to work w/Luke a bit over the past couple months, and he's the real deal, for sure. I really admire his dedication to craft — a whole book on Form Design? (Hardly the sexiest topic, I think even Luke would admit.) But he totally commits to it — even paid to do eye-tracking studies, etc. I think you're right—this'll be one to keep on your shelf.",
      "time": "2008-05-06T01:17:44",
      "id": "418934"
    },
    {
      "threadId": "491790",
      "post": "More of a skimmer. I'm just trying to prep myself for Armageddon in 2012.",
      "time": "2008-04-20T00:35:01",
      "id": "356820",
      "parentPost": "Dude, I had no idea you were a Grail reader, too.",
      "parentPostTime": "2008-04-19T05:32:51",
      "parentPostId": "355250"
    },
    {
      "threadId": "295137",
      "post": "Which part is failing for you Jesse? The Pipe? Or feeding it through Twitterfeed? Everything's still working okay for me. ",
      "time": "2008-04-15T17:43:50",
      "id": "338636",
      "parentPost": "Doesn't seem to work… maybe they changed something?",
      "parentPostTime": "2008-04-15T12:13:02",
      "parentPostId": "337221"
    },
    {
      "threadId": "152823",
      "post": "Hi Juan — yes! I'll be publishing the slides to Slideshare soon, and will post that URL here when it's available. Thanks for your interest!\r\n\r\n",
      "time": "2008-04-09T16:20:38",
      "id": "316707"
    },
    {
      "threadId": "323556",
      "post": "Absolutely! You get dibs. (I got some other stuff waiting for you, too. http://hashtags.org/tag/LeesComics/ )",
      "time": "2008-03-24T03:36:10",
      "id": "257868",
      "parentPost": "Hey Bryce, can I borrow your copy of Cécy?",
      "parentPostTime": "2008-03-24T00:06:17",
      "parentPostId": "257433"
    },
    {
      "threadId": "286987",
      "post": "\"seven in order to make three look good\"?! Shit, I always thought it was THREE (sometimes two) to make ONE look acceptable! ",
      "time": "2008-03-12T22:11:36",
      "id": "224637"
    },
    {
      "threadId": "261948",
      "post": "I don't wanna be one of those \"that won't work in the REAL WORLD\" naysayers that the 37s seem to attract... but.... I wonder how well some of those measure would scale up. Probably works fine in a smaller company where they've kept the hire-quality high, but at an AOL or Chase bank? Whoo-boy would there be abuses!",
      "time": "2008-03-05T18:35:29",
      "id": "202351"
    },
    {
      "threadId": "211667",
      "post": "Dude, way to ship product! You need to slow down some.. :-)",
      "time": "2008-02-20T19:51:13",
      "id": "164327"
    },
    {
      "threadId": "202602",
      "post": "Oh man.... yeah, but that time I pulled it on you was the MOTHER of all pranks. That was better than a ping-pong ball neck-welt.",
      "time": "2008-02-19T18:14:19",
      "id": "160597",
      "parentPost": "Ah..yes, the \"someone stole my shit\" prank. I seem to remember you pulling this one before.  You, my friend, have a real problem.",
      "parentPostTime": "2008-02-19T01:25:36",
      "parentPostId": "158701"
    },
    {
      "threadId": "46849",
      "post": "Hi Bradley — thanks for your continued interest! I know I've kinda dropped off the grid since the New Year about coworking. The good news is there's been some small progress, and —after this Sunday— I hope to have some good news to share, so I'll try to get a meeting going sometime late Feb/early March to.  I'll keep you posted!",
      "time": "2008-02-15T20:20:55",
      "id": "153071"
    },
    {
      "threadId": "192128",
      "post": "Wow. I hadn't heard that. Yeah, it's a bummer, for sure.",
      "time": "2008-02-14T05:53:14",
      "id": "148149"
    },
    {
      "threadId": "154047",
      "post": "From the thumbnail, I kinda thought that Dominos was diversifying into the field of tele-dildonics. (Satisfaction in 30 minutes or less!)",
      "time": "2008-02-05T21:39:45",
      "id": "127440"
    },
    {
      "threadId": "157045",
      "post": "Don't those just appear once you've clicked on something usually? Or when you're tabbing around the page via keyboard? I gotta be honest, those have never bothered me (and I worry that muffling them might be a backwards step for accessibility.) ",
      "time": "2008-02-01T18:47:42",
      "id": "117829"
    },
    {
      "threadId": "148868",
      "post": "Wow. That guy is amazing. I see you've been working your way through some Processing texts—any sketches of your own to share yet?",
      "time": "2008-01-29T21:33:32",
      "id": "110191"
    },
    {
      "threadId": "120045",
      "post": "Hi Dave — Ricky Montalvo is a videographer/editor at Yahoo who's responsible for the YDN Theater: http://developer.yahoo.com/blogs/theater/\r\n\r\nI sent Ricky an email with the link to this page, and the Upcoming details... I'll let you know if hear back.",
      "time": "2008-01-17T06:10:51",
      "id": "82584"
    },
    {
      "threadId": "117142",
      "post": "Hm. Looks like the location changed... try: http://yuiblog.com/blog/2008/01/15/carousel-pattern/\r\n",
      "time": "2008-01-15T20:46:46",
      "id": "79351"
    },
    {
      "threadId": "73900",
      "post": "Patiently waiting for Jason to figure out what to do with his life... so he can then tell me what to do, too...",
      "time": "2008-01-09T01:23:02",
      "id": "66830"
    },
    {
      "threadId": "100578",
      "post": "Hey Jason — that looks slick! Any way to pick photos based on tag rather than photoset? (I tag everything, but only arbitrarily and half-assedly ever pull things into photosets.)\r\n\r\n",
      "time": "2008-01-07T21:07:23",
      "id": "64196"
    },
    {
      "threadId": "74035",
      "post": "Dr. Pepper\r\n\r\nWhat I great idea to jump-start your commenting system, too.... ( /me dogs through a crusty old pile of O'Reilly books behind my desk...)",
      "time": "2007-12-18T18:00:53",
      "id": "39678"
    },
    {
      "threadId": "72853",
      "post": "Great Bryce's think alike!",
      "time": "2007-12-17T20:14:08",
      "id": "38381"
    },
    {
      "threadId": "72800",
      "post": "re: the Times article. Tim Bray's been doing some investigation into multi-core optimized operations (the 'Wide Finder' project) -- http://www.tbray.org/ongoing/When/200x/2007/09/20/Wide-Finder\r\n\r\nI'm not smart enough to understand any of it, but I bet you are! :-D",
      "time": "2007-12-17T18:12:09",
      "id": "38231"
    },
    {
      "threadId": "61102",
      "post": "You know, Roman and I compared real-estate costs and our middle-to-high-end rates compare pretty directly with their low-end of the market ($12-13/sq.ft) But I do hope that a Columbus space will have pretty reasonable rates—something like $300/month for the highest 'package' (incl. a reserved desk.)\r\n\r\nBut we'll see! A handful of us are looking at some spaces this Friday.",
      "time": "2007-12-11T18:16:45",
      "id": "32376",
      "parentPost": "SF real estate being what it is, do you see rates here being substantially lower, or are you working with similar numbers?",
      "parentPostTime": "2007-12-11T12:25:04",
      "parentPostId": "32000"
    },
    {
      "threadId": "48190",
      "post": "Hey Toby — I updated my entry to point at the Internet Archive version, so you should be able to click through now and see some (somewhat grainy) pictures of the dark man. Hope that helps!",
      "time": "2007-12-10T05:09:36",
      "id": "30905",
      "parentPost": "i am trying to find a photo of the dark man after with the walkie talkie in his back pocket...i saw the photo at a jim marrs presentation...tobyx11@yahoo.com",
      "parentPostTime": "2007-12-01T13:10:49",
      "parentPostId": "23758"
    },
    {
      "threadId": "49461",
      "post": "For you Yahoos watching this, play a game of 'spot the yahoo'… I think there are about 3 of us. :-)",
      "time": "2007-11-30T20:19:53",
      "id": "23247"
    },
    {
      "threadId": "47372",
      "post": "Ha—yeah, good catch. And, as you mentioned to me the other day, the trade paperback for 'Identity Crisis' has a whole slew of 'actor inspiration' notes for various characters.\r\n\r\nOf course, you also pointed out that I might be missing a very intentional purpose for referencing Eminem in Wanted. (The fact that the whole work kinda reads like a white-boy-badass-fantasy, much like Mr. Mathers' body of work.) ",
      "time": "2007-11-29T00:25:40",
      "id": "21322"
    },
    {
      "threadId": "47005",
      "post": "See—easy peasy! Please do introduce yourself.",
      "time": "2007-11-28T04:33:15",
      "id": "20626"
    },
    {
      "threadId": "15414",
      "post": "Dave, you're an older guy like me (actually, you're quite a bit older, but my eyes are really bad...) Can you bump up the default text size on the Disqus comments? Ideally, if they were the same size as your entries, I could scale them up/down together to suit my needs. (Currently, if I zoom the comments to a comfortable size, your entries are HUGE.) Thanks for listening!",
      "time": "2007-11-07T21:53:34",
      "id": "9589"
    }
  ],
  "profileInfo": {
    "username": "soldierant",
    "about": "Soldier Ant is Bryce Glass, a telecommuting Yahoo! in Columbus, OH. I'm an Interaction Designer with interests in Social Media, Reputation Systems and dogs. And I'm a new father. ",
    "name": "Bryce",
    "disable3rdPartyTrackers": false,
    "isPowerContributor": false,
    "isAnonymous": false,
    "rep": 1.2805659999999999,
    "profileUrl": "https://disqus.com/by/soldierant/",
    "url": "http://soldierant.net",
    "reputation": 1.2805659999999999,
    "location": "Columbus, OH",
    "isPrivate": false,
    "signedUrl": "http://disq.us/?url=http%3A%2F%2Fsoldierant.net&key=H-WdU6Gri-XFUgu4PpoDYQ",
    "isPrimary": true,
    "joinedAt": "2007-11-27T21:27:11",
    "id": "3072",
    "avatar": {
      "small": {
        "permalink": "https://disqus.com/api/users/avatars/soldierant.jpg",
        "cache": "//a.disquscdn.com/uploads/users/3072/avatar32.jpg?1281549414"
      },
      "isCustom": true,
      "permalink": "https://disqus.com/api/users/avatars/soldierant.jpg",
      "cache": "//a.disquscdn.com/uploads/users/3072/avatar92.jpg?1281549414",
      "large": {
        "permalink": "https://disqus.com/api/users/avatars/soldierant.jpg",
        "cache": "//a.disquscdn.com/uploads/users/3072/avatar92.jpg?1281549414"
      }
    }
  }
}