{
  "comments": [
    {
      "threadId": "3315034613",
      "post": "That's what I was afraid of. Any recommendations for 550 AA points, besides taking a flight?",
      "time": "2014-12-13T15:47:17",
      "id": "1740307466",
      "parentPost": "No. The FTD offer gives you RDM (redeemable miles) which are different to EQM (Elite Qualifying Miles)",
      "parentPostTime": "2014-12-13T13:59:15",
      "parentPostId": "1740205867"
    },
    {
      "threadId": "3267674063",
      "post": "You left off football, which as a fellow Jets fan, I guess I can't blame you.",
      "time": "2014-11-27T12:59:59",
      "id": "1715214940"
    },
    {
      "threadId": "1788751153",
      "post": "April 2005 was when I stumbled on this AVC post via Indeed:\nhttp://avc.blogs.com/a_vc/2005/04/exciting_job_op.html\n\nThanks for that post and all of the others since.\n\n\n",
      "time": "2013-09-23T11:51:28",
      "id": "1055686596"
    },
    {
      "threadId": "1359419455",
      "post": "From a branding standpoint, a short domain name, besides being membrable, also helps lend credibility. Same thing with \"generic\" domain names like Diapers.com and Wine.com.\n\nYou also don't have to worry about unintentional mis-interpretations of word combinations. I remember an article with some examples, and these few stuck with me:\npenisland.net\nwhorepresents.com\ngotahoenorth.com \n\nAt a glance, those domains bring to mind other brands than what was intended (a pen store, an talent agent lookup and a Lake Tahoe tourism site, repestively).\n\nLastly, on a somewhat unrelated note, I own the made-up word tweest.com (from an abandoned venture) if anyone wants to take it off my hands. :)",
      "time": "2013-06-05T13:18:48",
      "id": "919723193",
      "parentPost": "i hear everyone saying domain. I hear naming and branding. They are the same at the end of the process not the beginning.",
      "parentPostTime": "2013-06-04T12:34:56",
      "parentPostId": "918547376"
    },
    {
      "threadId": "1254194645",
      "post": "Here you go... Hearst Greek Theatre, an 8,500-seat amphitheater owned and operated by the University of California, Berkeley.",
      "time": "2013-05-03T14:42:33",
      "id": "883387614",
      "parentPost": ":-)  \n\n\n\nI searched briefly, in vain, for a photo that showed about 8500 people.",
      "parentPostTime": "2013-05-02T15:36:41",
      "parentPostId": "882368125"
    },
    {
      "threadId": "1176980159",
      "post": "Fred has probably seen this already, but for those who haven't... Greg \nLinden, who invented the Amazon.com recommendation engine, has developed \"Code Monster\" to introduce kids to javascript and programming:\nhttp://www.crunchzilla.com/code-monster\n\nMy 7 y/o can't get enough of it!",
      "time": "2013-04-01T14:48:41",
      "id": "848561074"
    },
    {
      "threadId": "980682988",
      "post": "A lot of people make the mistake of lumping tablets + smartphones together as \"mobile\". They're two very different user experiences with very different use cases. I can't remember where I read it, but someone said \"2013 is going to be the 'year of mobile', for the 4th year in a row.\"",
      "time": "2012-12-19T14:22:05",
      "id": "742699029"
    },
    {
      "threadId": "978875358",
      "post": "Kickstarter was the one that instantly came to mind. Not quite the same vein, but OpenSky and the BeachMint/StyleMint group of sites are interesting in their uses of celebrity to help sell. And RentTheRunway certainly sells, uh rents, an aspirational lifestyle. Then there are all the subscription companies (BirchBox, Trunk Club, etc.) which cater to the serendipity and discovery elements. All of the various commerce business models could really be a post all unto itself.",
      "time": "2012-12-17T21:55:13",
      "id": "741119484",
      "parentPost": "Wine online is a non starter to date.  I'm focusing on and on/offline model in an early stage company now.  \n\n\nCurious though...do you have any online examples or pieces of potential of where any products are being 'sold not bought' online? Besides Kickstarter that is, which is the best example of selling one to one online that really works.",
      "parentPostTime": "2012-12-17T21:17:47",
      "parentPostId": "741094932"
    },
    {
      "threadId": "483669888",
      "post": ">> It works nicely and you aren't likely to get trampled.\n\nOr pepper-sprayed.",
      "time": "2011-11-25T16:42:07",
      "id": "372191913"
    },
    {
      "threadId": "477275886",
      "post": "Agreed. While\n the iPad was a big leap forward in so many ways, it was also giant leap\n backwards from the open web to AOL's walled garden, circa 1995. Very disconcerting.\n\n",
      "time": "2011-11-19T15:28:07",
      "id": "368293930",
      "parentPost": "As the natural Facebook/Google/Microsoft/Apple(add one or two companies here) oligopoly on the internet grows the chance for gatekeepers on the internet as a whole is going to grow. \n\nI think what we are seeing in the mobile app market is just a foreshadowing of more control from big companies thats going to come in the future. The internet is becoming more app-based, and as it does, the controllers of those app services are going to have a larger influence on openness. \n\nBut this is not necessarily a bad thing, as long as the internet stays free from government intervention, the lack of openness is probably going to be mostly quality control. \n\nBig internet/tech/media co's aren't going to hurt their customers by depriving them of content and apps they want, but they also aren't going to let them use apps that are low quality and dilute the total internet experience.",
      "parentPostTime": "2011-11-19T13:01:25",
      "parentPostId": "368245687"
    },
    {
      "threadId": "461708421",
      "post": "Interesting, I didn't know any service could be added to that list. Wish Delicious would do that. \n\nIn my opinion, not playing up the \"for:\" tag as a killer feature was one of their downfalls. I personally have shared thousands of links that way, and have introduced numerous people to the feature. I think I learned about it on AVC first, actually.\n\nThe ability to tag any page for another user is an amazingly frictionless-way to \"share\" links. Hope the new team figures out a way to bring it back and spread adoption.",
      "time": "2011-11-05T00:01:24",
      "id": "356117107",
      "parentPost": "The fact that any app can \"declare\" itself as a sharing service and be automatically added to that list is one of the most powerful features of Android. \n\nSometime soon, if http://webintents.org/ gains traction, that form of communication between services will become the norm.",
      "parentPostTime": "2011-11-04T11:04:16",
      "parentPostId": "355584353"
    },
    {
      "threadId": "418981593",
      "post": "You should get @djstevereporter:twitter to do it... http://www.youtube.com/watch?v=exOxUAntx8I\n\n\"We're sitting here, we're sitting here, talking about term sheets.\"\n ",
      "time": "2011-09-20T01:04:43",
      "id": "315374490",
      "parentPost": "Cheers for audiolising Fred. The narrator sounds like a rapper. Will there be a rap version of your MBA Mondays :-) ?",
      "parentPostTime": "2011-09-19T11:28:31",
      "parentPostId": "314836165"
    },
    {
      "threadId": "401771073",
      "post": "You had me until the 'not a lot of money' part. ;)",
      "time": "2011-09-01T11:39:23",
      "id": "300307364"
    },
    {
      "threadId": "329590511",
      "post": "Thanks, hadn't seen it before. I feel better that I'm not alone... ",
      "time": "2011-06-13T23:53:06",
      "id": "225142505",
      "parentPost": "@msuster:twitter had an interesting post about this the other day...\n\nhttp://bit.ly/mbrgt6",
      "parentPostTime": "2011-06-13T04:55:36",
      "parentPostId": "224585854"
    },
    {
      "threadId": "328743966",
      "post": "Sure, there are lots of them, frequently based around shipping offers and/or private label credit cards. Amazon has Prime. Zappos has a VIP program. GSI spunoff a company called ShopRunner that is offering cross-site membership benefits. Road Runner Sports, Finish Line, Nine West, and Jones New York also come to mind. Not sure exactly what you're looking for, but feel free to ping me directly if you have any specific questions.",
      "time": "2011-06-13T00:05:44",
      "id": "224508751",
      "parentPost": "Yes, but as a customer, most of the time I don't care about this stuff.  Has\r\nanyone experimented with discounts and loyalty clubs with ecommerce?  (you\r\nseem like the type of person to know)",
      "parentPostTime": "2011-06-12T18:02:34",
      "parentPostId": "224394221"
    },
    {
      "threadId": "308982390",
      "post": "Agreed. Love the scene of Joe Park on the piano chanting \"IPO, IPO\". Classic. A real world equivalent of the \"Greed... is good\" line. ",
      "time": "2011-05-21T01:40:55",
      "id": "208304515",
      "parentPost": " I enjoyed watching the documentary about Kozmo.com called E-Dreams (http://en.wikipedia.org/wiki/E-Dreams). It's worthy of 94 minutes of ones time. This stock certificate is a cool relic. ",
      "parentPostTime": "2011-05-20T17:25:59",
      "parentPostId": "207985211"
    },
    {
      "threadId": "290386158",
      "post": "In addition to the radio test, there's also the keyboard test. i.e. It needs to be easy to type too, which del.icio.us wasn't.\n\nAlong similar lines, once you buy the domain, you probably want to acquire similar typo-domains too, assuming they're available for a much cheaper amount. Otherwise, you'll lose traffic to parked AdSense pages, and/or spend time going after them with cease-and-desists.",
      "time": "2011-04-29T01:31:44",
      "id": "193868661",
      "parentPost": "Great point Shana....big one off Fred's list is how it sounds.\n\nI call it the radio test.  \n\nIf Rush mentioned your domain on the air, would people A) know how to type it in/spell it and B) remember it?\n\nProflowers.... check\nCarbonite..... check\nLifelock....  check\ndel.icio.us.... nah\n\nGive your domain name the radio test.\n\np.s. You can also give your business the radio test.... could Rush make a compelling case for your product in 30 seconds that makes the phone ring?  Can YOU?  \n",
      "parentPostTime": "2011-04-28T13:19:17",
      "parentPostId": "193295865"
    },
    {
      "threadId": "288696710",
      "post": "If only a company that knew how to solve search problems could get involved with Android.",
      "time": "2011-04-26T23:27:52",
      "id": "192341451",
      "parentPost": "For me this post just demonstrates how much I crave app curation.  I have no idea how I would  know about locale without this post.",
      "parentPostTime": "2011-04-26T11:59:34",
      "parentPostId": "191985541"
    },
    {
      "threadId": "276608909",
      "post": "From what I've seen, if they're issued as a \"coupon\" and not a \"gift certificate\", they can get away with it.",
      "time": "2011-04-11T17:17:19",
      "id": "182590786",
      "parentPost": "That might be fine unless a state considers these as Uncalimed Property and subject to Escheat Laws",
      "parentPostTime": "2011-04-11T13:18:16",
      "parentPostId": "182435383"
    },
    {
      "threadId": "239915041",
      "post": "Agreed. I've seen the Field of Dreams strategy (\"if you build it, they will come\") fail many times.",
      "time": "2011-02-25T14:15:40",
      "id": "155856341",
      "parentPost": "Fred,\nIn 2005 we launched an online bank called EmigrantDirect.com.  The bank offered a higher savings rate than its only competitor at the time, ING Direct.  Some people thought that all we had to do was sit back, do a little PR, get the word out and then everyone would come.  After all, we had a higher rate, why wouldn't everyone just switch to us?  The Company did indeed have a better product, but we didn't start rolling until we started advertising.  In order to grow, we needed to have a presence when people were looking for savings banks, and that required advertising.  While I agree that many new products that are creating new services do not need to advertise in the beginning, there are many new products and services that enter more established markets that need to advertise.  It is not a statement about the quality of the product, but a statement about the market.  Had we done what you suggested above for a marketing strategy, they would not have acquired the billions of dollars of assets in such a short time,  Your definition of when startups should spend money on marketing and when they shouldn't is too narrow.  Its more product/service/market specific.  I would suggest this theses, when your product sucks, you are wasting money marketing it.  There are many times when spending money on advertising upfront can payoff big time.",
      "parentPostTime": "2011-02-25T13:22:32",
      "parentPostId": "155839920"
    },
    {
      "threadId": "238168756",
      "post": "Speaking of Google visualizations, check out this cool video of Global Android Activations, Oct '08 - Jan '11 http://www.youtube.com/watch?v=fqFpq9WXbJo",
      "time": "2011-02-25T01:27:41",
      "id": "155664948",
      "parentPost": "I'd love to see a post on data visualization.  Google just release Hans Rosling's Gapminder software in a full-public release.  It'd be neat to hear how you think we're going to make sense of the massive amount of data we're producing going forward.",
      "parentPostTime": "2011-02-23T14:47:35",
      "parentPostId": "154603873"
    },
    {
      "threadId": "182692488",
      "post": "East Coast Anthem sounds like a good name for the theme song for Fred's blog.",
      "time": "2010-12-03T14:44:47",
      "id": "106333440",
      "parentPost": "Can't say I'm a huge fan of either band, but East Coast Anthem is a catchy tune. ",
      "parentPostTime": "2010-12-03T04:01:18",
      "parentPostId": "106231126"
    },
    {
      "threadId": "157174433",
      "post": "Howard, what are your thoughts on $AAPL headed into earnings?  Gotta like it long-term, but already up 50% YTD and up 20% since Sept. 1...",
      "time": "2010-10-16T14:33:07",
      "id": "87413091",
      "parentPost": "hard to chase, but the hot hands say yes.  you are playing the relative\r\nprice game at this point though so not a fred wilson speacial opportunity.\r\n So, fred avoid, howie chase :)",
      "parentPostTime": "2010-10-16T14:10:28",
      "parentPostId": "87409593"
    },
    {
      "threadId": "156613746",
      "post": "If there's fog at your movies, I'd probably go to a different theater. :)",
      "time": "2010-10-15T13:47:30",
      "id": "87162828",
      "parentPost": "Sounds like cause and effect / means and end. If you're treating the effect without knowing the cause or if you're confusing means with end- then these are troubling scenarios.  \nA VC from the outside can sometimes see through the fog, especially if they've been to that movie before. ",
      "parentPostTime": "2010-10-15T13:20:46",
      "parentPostId": "87156507"
    },
    {
      "threadId": "150892802",
      "post": "I like this other one of his from today:\n\"In life, we never really get what we deserve, we get what we negotiate.\" -JLM http://bit.ly/9sHtQ2",
      "time": "2010-10-05T02:13:12",
      "id": "84170540",
      "parentPost": "the first person to get a tattoo of JLM's latest wisdom nugget gets super-props.\n\n\"Nobody goes to the pay window until everybody goes to the pay window\" - JLM October 2010",
      "parentPostTime": "2010-10-04T14:20:12",
      "parentPostId": "83794461"
    },
    {
      "threadId": "116554956",
      "post": "Courtesy, by definition, is not contractually-obligated.<br><br>Yes, it is business. But business is about relationships, and LeBron just ruined his with a lot of people.",
      "time": "2010-07-12T02:55:01",
      "id": "61656141",
      "parentPost": "Do you think that when LBJ's contract expired on its own terms, he still had a relationship with the Cavs?  He owed the Cavs and more importantly, Gilbert, nothing.  Nothing.",
      "parentPostTime": "2010-07-11T23:04:55",
      "parentPostId": "61634674"
    },
    {
      "threadId": "113462430",
      "post": "Perhaps a bit off topic for this blog, but the same holds true for non-startups.  Almost every job I've taken, I've brought former colleagues with me.  Team members that know each others' strengths, weaknesses, and quirks are an asset for all companies.",
      "time": "2010-07-03T14:00:13",
      "id": "60415030"
    },
    {
      "threadId": "112431913",
      "post": "All the cool developers want to work on mobile apps. Web apps are so 2009.",
      "time": "2010-06-30T00:21:27",
      "id": "59921417",
      "parentPost": "i am seeing more and more mobile versions with better features that their web app cousins these days",
      "parentPostTime": "2010-06-29T12:29:16",
      "parentPostId": "59509859"
    },
    {
      "threadId": "110192952",
      "post": "<i>If the credit card industry can't fix stuff like this, new payment methods are going to come along that are easier to use and work better on the web... The only question is who will solve these problems first.</i><br><br>Whoever tries to solve it, let's just hope Whoopi Goldberg is not available this time around. Though, I'm afraid she may be.",
      "time": "2010-06-22T23:33:35",
      "id": "58128539"
    },
    {
      "threadId": "106336966",
      "post": "You're constantly in fear of someone accidentally throwing the Wii remote at the TV.",
      "time": "2010-06-17T02:03:22",
      "id": "57189457"
    },
    {
      "threadId": "105687579",
      "post": "Hopefully, she can help bring LeBron to NYC then. ",
      "time": "2010-06-11T16:20:43",
      "id": "56082495",
      "parentPost": "I met her Sunday at the AVC MeetUp. She is great. And she is from Columbus, Ohio, that I am quite familiar with. ",
      "parentPostTime": "2010-06-09T22:03:52",
      "parentPostId": "55582200"
    },
    {
      "threadId": "104803940",
      "post": "There's a <a href=\"http://www.wired.com/magazine/2010/05/ff_pink_shirky/\">great article in Wired</a> about Clay Shirky's new book, Cognitive Surplus, where he \"argues that the time Americans once spent watching television has been redirected toward activities that are less about consuming and more about engaging—from Flickr and Facebook to powerful forms of online political action.\"",
      "time": "2010-06-09T02:17:21",
      "id": "55409143",
      "parentPost": "Depends what you mean by \"productive\".   Lots of the businesses VC's invest in these days do nothing to help people or society.   In fact, you could argue that businesses like Twitter cause a reduced attention span and reduce productivity. \r\n\r\n",
      "parentPostTime": "2010-06-07T14:39:33",
      "parentPostId": "55120446"
    },
    {
      "threadId": "96865390",
      "post": "Predictably Irrational was the first thing that came to mind for me too. It's all about anchoring. But, as for the name, isn't this just the \"free trial\" business model?",
      "time": "2010-05-18T23:57:24",
      "id": "50977591",
      "parentPost": "I have read it and agree. His research is certainly a motivation for the previum model\r\nPhineas Barnes\r\nPrincipal, First Round Capital\r\nwww.frc.vc/phin\r\nwww.sneakerheadVC.com\r\nwww.twitter.com/phineasb",
      "parentPostTime": "2010-05-18T23:09:53",
      "parentPostId": "50973117"
    },
    {
      "threadId": "76636097",
      "post": "Sarcasm is popular on the internet?",
      "time": "2010-03-17T23:58:55",
      "id": "40253226",
      "parentPost": "ahh i see! so ANOTHER bailout for fred's businesses that US taxpayers/treasury bond buyers pay for!!! yes, certainly in the best interests of <em>our</em> future! lol\n\nthat is sarcasm, folks. since i know how popular sarcasm is here at AVC!\n\nthanks for the explanation morgan. based on my understanding thus far (which is admittedly very elementary.....i don't know much about this spectrum stuff), i think the free market approach would be more like what you suggested about google buying it. i'm inclined to favor that, based on my understanding thus far. ",
      "parentPostTime": "2010-03-17T13:03:37",
      "parentPostId": "40168919"
    },
    {
      "threadId": "67916025",
      "post": "Shana, time on site is another one of those misunderstood metrics.  Leaving a page open, in a tab or not, does not increase time spent on site in the web analytics sense.  Time spent on site is calculated as the difference between the time of the first page request and the time of the last page request.  Any time spent on the last page does not count.  Thus, if you only visit one page, time spent on site is not even calculated.",
      "time": "2010-02-19T22:44:07",
      "id": "35544329",
      "parentPost": "Does anyone know the answer to this, I'm curious too",
      "parentPostTime": "2010-02-19T00:47:32",
      "parentPostId": "35125127"
    },
    {
      "threadId": "66897679",
      "post": "One clarification. Google has not just \"begun\" to use the referral data. They've been using it for a long time. They're just expanding the use \"to a few hours.\"",
      "time": "2010-02-15T15:24:36",
      "id": "34269696"
    },
    {
      "threadId": "63819504",
      "post": "Have you checked out ShopKick/CauseWorld yet?\nhttp://deals.venturebeat.com/2010/01/18/shopkick-bags-2-5m-to-turn-shopping-into-a-good-deed/\n",
      "time": "2010-02-04T03:02:34",
      "id": "32559483"
    },
    {
      "threadId": "53555653",
      "post": "Hmm... Fred has a phone he can't blog about, and SAI has a <a href=\"http://www.businessinsider.com/hands-on-with-the-googles-nexus-one-phone-its-a-droid-killer-2009-12\">\"clandestine meeting with a source\"</a> to review the Nexus One.  Coincidence?  You decide. ;)",
      "time": "2009-12-23T14:04:11",
      "id": "27078548"
    },
    {
      "threadId": "53147161",
      "post": "I was just about to post the same exact comment.  And I went to a NYC public school in the 80s.  It's mind-boggling that we haven't come much further since then.\n\nEven though I no longer write code on a daily basis, the foundation that computer science gave me - i.e. the ability to think logically, understand technical complexities, and use simple programming tools like SQL and Excel VBA - makes me a better and more productive MARKETER today.\n\nLastly, here's a great recent post from GeekDad about how easy it is to get kids interested in programming:\nhttp://www.wired.com/geekdad/2009/11/teaching-kids-programmers/",
      "time": "2009-12-22T02:46:10",
      "id": "26913786",
      "parentPost": "Learning BASIC and LOGO in the 4th grade changed my life.",
      "parentPostTime": "2009-12-21T14:11:21",
      "parentPostId": "26770043"
    },
    {
      "threadId": "44452780",
      "post": "Some quick SEO tips...\n-Since both USV.com and UnionSquareVentures.com work, add a canonical URL tag to every page.  Even better, 301 redirect all of the UnionSquareVentures.com URLs to USV.com URLs.\n-Add a meta description tag to the homepage. Won't help in ranking, but an easy way to control the snippet displayed on the search engine results page.\n-Add an alt tag on the logo with you most targeted keyword (e.g. [NYC venture capital])\n-In general, review the alt tags and page titles for keyword potential\n\nNo reason you shouldn't outrank \"The Official Site of the United States Volunteers\" for the phrase [USV]. :)\n",
      "time": "2009-11-10T01:06:57",
      "id": "22509852"
    },
    {
      "threadId": "38462462",
      "post": "Brilliant, Dave.\n\nhttp://www.youtube.com/watch?v=MxODvIILFq8\n",
      "time": "2009-10-10T14:39:18",
      "id": "19738560",
      "parentPost": "i don't watch entourage so i don't get the comment. what did he do or say?",
      "parentPostTime": "2009-10-10T14:22:31",
      "parentPostId": "19738207"
    },
    {
      "threadId": "35494445",
      "post": "I can vouch that at least 1 job was filled this way. Hard to believe this first job post was 4.5 years ago:\nhttp://www.avc.com/a_vc/2005/04/exciting_job_op.html",
      "time": "2009-09-23T01:36:38",
      "id": "17156027",
      "parentPost": "Fred,\n\nHave you ever filled a job at a portfolio company this way? \n\nMore generally, what are your thoughts about the impact of technology on recruiting? Specifically, do you think that there will still be a niche to be filled for high-level jobs by old school headhunter firms? Up until the current recession hit, some publicly traded firms such as Heidrick & Struggles were posting some big profits. My assumption is that these firms provide a CYA factor to corporate executives and board members, and that's the main reason they're used, but they charge a bundle for that service. ",
      "parentPostTime": "2009-09-22T06:50:18",
      "parentPostId": "17105712"
    },
    {
      "threadId": "29861704",
      "post": ">>If the front page of NYTimes.com linked to everything interesting on the web instead of just their own stories, they could play the same game. I understand the organization reluctance to do that, but I wonder if they have any other choice.\r\n\r\nInterestingly, they already do \"Headlines From Around the Web\" with their Tech Update email. For example, today's update had links to Techcrunch, Engadget, and TUAW:\r\nhttp://www.nytimes.com/indexes/2009/08/17/technology/techupdate/index.html\r\n\r\nIt's not quite what you're suggesting, but it's a step in the right direction.\r\n",
      "time": "2009-08-18T00:47:46",
      "id": "14987928"
    },
    {
      "threadId": "28498608",
      "post": "Along the same line, <a href=\"http://twitter.com/alacra1\">@alacra1</a> always said \"Someone is going to eat your young. Might as well be you.\"",
      "time": "2009-08-08T01:39:20",
      "id": "14461697",
      "parentPost": "Oooh. I love that last paragraph. Did you come up with that?",
      "parentPostTime": "2009-08-06T15:55:46",
      "parentPostId": "14349286"
    },
    {
      "threadId": "25703373",
      "post": "In an e-commerce environment, rather than active vs. inactive, I like to think of it as qualified vs. unqualified traffic.  Your SEO traffic is going to be less qualified than your paid search traffic which is going to be less qualified than your RSS-referred traffic which is going to be less qualified than your type-in/non-referred traffic.  The key is getting users to move up the qualification trail.  \r\n\r\nFor example, if you can retarget a banner ad (using DrivePM, Interclick, etc.) to someone that came to the site originally via SEO/SEM, they're more likely to convert.  Even if they don't convert, if you can get them to opt-in to email/RSS, they're more likely to convert next time.  If you've been able to build a brand, through all of your marketing initiatives and customer service, where you're now top of mind next time they have a need for your product, and they will just directly type in your URL to begin their search, you're in the best shape  (e.g. Amazon).",
      "time": "2009-07-17T01:44:04",
      "id": "12795993",
      "parentPost": "One issue is that if you have a really long-tail business, where the same item rarely gets bought twice, it's almost impossible to create a community.  With most visitors appearing via SEO, getting them to stay and explore has proven, at least for us, to be quite a challenge.  Any way we can get them to stay will immediately drive revenue.",
      "parentPostTime": "2009-07-17T01:05:24",
      "parentPostId": "12794685"
    },
    {
      "threadId": "24173832",
      "post": "The reality is without your anointing 'freemium' as the name, the name clearly would not have taken off, so I'm happy to share the credit. \r\n\r\nAs for freeconomics, the real key to success is where to draw the line.  i.e. What features are free and what are premium.  The free offering needs to be compelling enough for users to engage with, but the premium features need to 'makes sense' in that users understand why they should pay more.  For example, Flickr and Gmail nailed it.  Users get why they need to pay for ridiculous amounts of storage space that most other users don't need.\r\n\r\nAnyway, looking forward to reading Anderson's book.  Chris, if you're out there, send me a free copy. ;)",
      "time": "2009-07-04T14:05:04",
      "id": "12153660"
    },
    {
      "threadId": "20385833",
      "post": "It's not only which leaps of faith to make, but when to make them that's important too.\r\n\r\nSince you invest in early stage companies, I'm curious have you ever taken a leap of faith and invested in just an idea?  Or do you wait for a prototype?  Or for a beta product?  etc.\r\n\r\nWhat criteria do you use for determining timing?",
      "time": "2009-06-05T01:35:41",
      "id": "10504162"
    },
    {
      "threadId": "20257634",
      "post": "Yeah, she's all grown up now. Seeing the recent articles referencing freemium in the <a href=\"http://online.wsj.com/article/SB123335678420235003.html\">WSJ</a> and <a href=\"http://www.nytimes.com/2009/05/25/technology/start-ups/25startup.html\">NY Times</a> made me all faklempt. :)\r\n\r\nI just wish I trademarked it like Riley's three-peat.",
      "time": "2009-06-04T13:18:15",
      "id": "10481688",
      "parentPost": "hey jarid. nice to hear from you. check this out about our baby freemium\r\n\r\nhttp://www.google.com/trends?q=freemium",
      "parentPostTime": "2009-06-04T12:41:10",
      "parentPostId": "10480910"
    },
    {
      "threadId": "19875920",
      "post": "It's even worse.  It's 30 mins for the first message.  Then another 30 minutes for the response.  And then another 30 to clarify what you meant originally.  etc.",
      "time": "2009-05-31T01:03:31",
      "id": "10306415",
      "parentPost": "My generation (I am 29) forgets what a phone call is.  We spend 30 mins typing an email when a 5 min phone call is all it takes.",
      "parentPostTime": "2009-05-30T19:25:16",
      "parentPostId": "10301164"
    },
    {
      "threadId": "10613548",
      "post": "Thanks, I appreciate the (repeated) props.  I just wish I got a cut of Chris Anderson's book deal. :)\r\n\r\nOn a somewhat related note, I see Wikipedia has recently taken a contrarian view and does not think freemium is \"notable\" enough:\r\nhttp://en.wikipedia.org/wiki/Freemium",
      "time": "2009-01-29T01:40:35",
      "id": "5633796",
      "parentPost": "Hi Jarid\r\n\r\nComplete non-sequitur but I was at LinkedIn last week talking to top\r\nmanagement and the term freemium came up and I was asked ³did you really\r\ncoin that phrase? We use it all the time here²\r\n\r\nI told them the truth and gave you the props\r\n\r\nTogether we really created something that has lasted and is part of the\r\nbusiness vernacular now.\r\n\r\nA few pats on the back and now we gotta get back to work",
      "parentPostTime": "2009-01-28T14:48:25",
      "parentPostId": "5617580"
    },
    {
      "threadId": "10291110",
      "post": "Twitter spikes and Google searches declined:\r\nhttp://googleblog.blogspot.com/2009/01/search-findings-from-us-presidential.html",
      "time": "2009-01-22T02:18:23",
      "id": "5453154",
      "parentPost": "Not sure. What do you think?",
      "parentPostTime": "2009-01-21T14:42:51",
      "parentPostId": "5428795"
    },
    {
      "threadId": "5873217",
      "post": "I actually gave it some thought last year, but couldn't nail down the logistics.  Setting up a simple web page with a mailing address and publicizing it is a no-brainer.  I'm sure someone in your audience could come up with a catchy name for the site.  :)  The best I ended up with was FlashMySchool.org.\r\n\r\nThe challenging parts are where to tell everyone to send them, and then how to distribute them to the schools?  I can't picture the Board of Ed having a hub-and-spoke distribution model in place...",
      "time": "2008-10-19T12:51:46",
      "id": "3155352",
      "parentPost": "Good idea\r\n\r\nHow can we collect all the ones that are just lying around and repurpose\r\nthem?",
      "parentPostTime": "2008-10-19T11:39:07",
      "parentPostId": "3154994"
    },
    {
      "threadId": "5262394",
      "post": "Case in point, do a Google search for \"Google Killer\":\r\n-Cuill\r\n-Powerset\r\n-Quintura\r\n-Clusty\r\n-Hakia\r\n-Wisenut\r\n\r\nOh, and 2 more.. lol\r\n-Microsoft\r\n-Yahoo",
      "time": "2008-10-03T00:40:37",
      "id": "2812676"
    },
    {
      "threadId": "3842072",
      "post": "if you're platform included bringing back kozmo, you'd win in a landslide. ;)",
      "time": "2008-08-29T00:18:06",
      "id": "1903839",
      "parentPost": "my kids would laugh at this comment!",
      "parentPostTime": "2008-08-28T21:40:45",
      "parentPostId": "1901657"
    }
  ],
  "profileInfo": {
    "username": "jarid",
    "about": "",
    "name": "jarid",
    "disable3rdPartyTrackers": false,
    "isPowerContributor": false,
    "isAnonymous": false,
    "rep": 1.2634999999999998,
    "profileUrl": "https://disqus.com/by/jarid/",
    "url": "http://www.linkedin.com/in/jarid",
    "reputation": 1.2634999999999998,
    "location": "New York",
    "isPrivate": false,
    "signedUrl": "http://disq.us/?url=http%3A%2F%2Fwww.linkedin.com%2Fin%2Fjarid&key=sfsWde2IPvPMEiV_7zVAMg",
    "isPrimary": true,
    "joinedAt": "2008-08-28T23:55:57",
    "id": "91147",
    "avatar": {
      "small": {
        "permalink": "https://disqus.com/api/users/avatars/jarid.jpg",
        "cache": "//a.disquscdn.com/uploads/users/9/1147/avatar32.jpg?1418485639"
      },
      "isCustom": true,
      "permalink": "https://disqus.com/api/users/avatars/jarid.jpg",
      "cache": "//a.disquscdn.com/uploads/users/9/1147/avatar92.jpg?1418485639",
      "large": {
        "permalink": "https://disqus.com/api/users/avatars/jarid.jpg",
        "cache": "//a.disquscdn.com/uploads/users/9/1147/avatar92.jpg?1418485639"
      }
    }
  }
}