{
  "comments": [
    {
      "threadId": "551044815",
      "post": "You mean you want the icons on the main screen? or you mean to say the app is not working?",
      "time": "2012-07-12T14:22:22",
      "id": "585694752",
      "parentPost": "I have a Huawei mediapad V 3.2 I have installed huaweimediapad dialer as per above instructions. I found it in the apps but not in running apps. I can't see it on the desktop. Pls help,\n\nBR\n\nAdel",
      "parentPostTime": "2012-07-06T21:36:23",
      "parentPostId": "578995839"
    },
    {
      "threadId": "566580030",
      "post": "I thought the S3 supported Sinhala out of the box... coz I was able to read sinhala tweets on the Android Twitter app... I din check via the web browser though. There's one easy option, install Opera it supports.",
      "time": "2012-07-12T14:18:13",
      "id": "585692039",
      "parentPost": "didnt work on my SGS3..is there a way that ican make my phone able to read sinhala articles on the web..\n\n",
      "parentPostTime": "2012-07-10T12:26:17",
      "parentPostId": "583056822"
    },
    {
      "threadId": "748250352",
      "post": "Couldn't check that out for may reasons. I had the phone with me for a very short period, with data only MICRO SIM. Anyways, will let you know, as soon as I get ma hands on a S3, that's the first thing um gonna check ;)",
      "time": "2012-07-12T14:10:04",
      "id": "585686642",
      "parentPost": "Didnt you check out the phone to make calls? Coz i came across two people who said calling from the phone can  be messy as the person on the other end cannot hear clearly, and the caller themselves have to strain to hear the voice. Does this hold true if you did try taking calls?",
      "parentPostTime": "2012-07-06T13:52:47",
      "parentPostId": "578558435"
    },
    {
      "threadId": "681341756",
      "post": "I use an app called 3G Watchdog on my android handset, which you can find it on the Play Store. And um sure there will be apps like that for other OS's as well.",
      "time": "2012-06-06T14:46:42",
      "id": "548805339",
      "parentPost": "I agree with that. I have been with Dialog for years, since they started hspa , never exceeded my data limit, since of the last 4 months I've been charged for extra usage. If there anyway to track usage? I can track usage on my adsl connection .",
      "parentPostTime": "2012-06-06T13:51:56",
      "parentPostId": "548755828"
    },
    {
      "threadId": "670566997",
      "post": "nope! no need :) it's the official update.",
      "time": "2012-05-09T15:42:01",
      "id": "524524441",
      "parentPost": "Hi Mack005\n\nWhilst thanking you for the info, I would like to know whether your mediaPad needs to be rooted before installing the 4.0 ICS update ?\n\nCJ",
      "parentPostTime": "2012-05-09T15:36:26",
      "parentPostId": "524520138"
    },
    {
      "threadId": "632080565",
      "post": "Not #AprilFool prank right ;)",
      "time": "2012-04-01T15:26:05",
      "id": "482933188"
    },
    {
      "threadId": "628469312",
      "post": "Congratz :)",
      "time": "2012-03-29T12:17:02",
      "id": "479446310"
    },
    {
      "threadId": "10700480",
      "post": "You will have to contact ASGA Tech :)",
      "time": "2012-03-21T19:37:23",
      "id": "472699781",
      "parentPost": "i am using a nokia E52. i downloaded islamic organiser v3.0 and installed in the device. i need the activation code for the serial no 35378 50484 18346",
      "parentPostTime": "2012-03-19T16:34:36",
      "parentPostId": "469100342"
    },
    {
      "threadId": "548676959",
      "post": "Yes, it does have.",
      "time": "2012-01-23T12:50:26",
      "id": "418602732",
      "parentPost": "does the device have 720p video recording capabilities in its 5 megapixel camera?",
      "parentPostTime": "2012-01-23T05:37:39",
      "parentPostId": "418478137"
    },
    {
      "threadId": "411021740",
      "post": "Jam Tarts :)",
      "time": "2011-09-11T10:43:03",
      "id": "307073651"
    },
    {
      "threadId": "307916935",
      "post": "I have TeamViewer installed on my Android, so I can access the office PCs for trouble shooting.",
      "time": "2011-05-19T13:45:17",
      "id": "207114835"
    },
    {
      "threadId": "261753616",
      "post": "You mean, you can't install Ovi Store after '3-finger' hard reset?\n\nIf so, do this - Once again do the 3-finger hard reset and straight away go to SW UPDATE on your N8, you will find 15MB Ovi Store update.",
      "time": "2011-03-29T16:37:34",
      "id": "174154787",
      "parentPost": "ovi store still can't install after update to PR 1.2",
      "parentPostTime": "2011-03-24T15:47:42",
      "parentPostId": "170944908"
    },
    {
      "threadId": "93865922",
      "post": "It's not yet available in Sri Lanka I guess, I got a trial unit. Check out at Softlogic",
      "time": "2010-08-01T19:55:50",
      "id": "65622415",
      "parentPost": "Looks cool 'n sleek. Yep, price and places to check this out please?",
      "parentPostTime": "2010-08-01T18:46:44",
      "parentPostId": "65616689"
    },
    {
      "threadId": "15656150",
      "post": "If ya looking for a good camera, better go for the E72, it gotta 5MP cam compared to E71's 3.2MP.",
      "time": "2010-06-02T03:08:58",
      "id": "53480543",
      "parentPost": "hey! i was going to buy E71 but after reading this blog.em confused :(\r\nI like E series altho i have nothing to do with adobe n office. My requirment is good keypad and good camera. suggest me...",
      "parentPostTime": "2010-06-01T02:57:32",
      "parentPostId": "53321848"
    },
    {
      "threadId": "87940226",
      "post": "check your phones product code against the list which i have provided in this post. if it not there, you will have to wait...",
      "time": "2010-04-30T16:01:24",
      "id": "47670989",
      "parentPost": "I just plug my tube and cannot find anything. still mentioned already updated, with v31....\nis it still unavailable yet in Indonesia??\n\n",
      "parentPostTime": "2010-04-30T03:41:25",
      "parentPostId": "47579433"
    },
    {
      "threadId": "85615366",
      "post": "Probably end of 2nd quarter, or maybe the first week of 3Q ;)",
      "time": "2010-04-13T10:14:41",
      "id": "44576664",
      "parentPost": "Q2 ? But We Are Already In Q2\nIs That On Q2 End Or Middle ?",
      "parentPostTime": "2010-04-13T10:11:58",
      "parentPostId": "44576569"
    },
    {
      "threadId": "84854985",
      "post": "The best headset ever made - it's got 8 mics for capturing background noise, 2 for voice.",
      "time": "2010-04-11T07:45:00",
      "id": "44304685",
      "parentPost": "I agree with u 100% cos I also had the opportunity to try it last Jan at an exhibition, the head set is so amazing, I was in a very noisy trade show (GITEX) and when the promoter switched the set on it completely cut out all the noise around me and letting me enjoy the music as if I was in a sound proofed room. The price in Dubai was AED 1,250.00 which is a lot, but for the serious music lover its an investment of love.",
      "parentPostTime": "2010-04-11T07:22:10",
      "parentPostId": "44303952"
    },
    {
      "threadId": "78300860",
      "post": "Yeah, it looks vary attractive, received a trial unit on Tuesday, chack this out - http://womlanka.com/?p=1569\n\nI totally agree with you, it is user friendly, seems NWD Telecom borrowed some tips from the S40 ;)",
      "time": "2010-03-25T06:38:35",
      "id": "41497392",
      "parentPost": "wow... It's nice quality phone .. user friendly.. Good option for everyone who ever fed up with chines duel sim phones.. ",
      "parentPostTime": "2010-03-25T05:20:40",
      "parentPostId": "41493572"
    },
    {
      "threadId": "72561600",
      "post": "For declared value of GBP 400 (LKR 78,600) Customs Duty was LKR 12,854 and Imports Control License fee 1,000 + 3,793 penalty for not getting the license before importing.",
      "time": "2010-03-16T15:49:56",
      "id": "40032615",
      "parentPost": ":D wow ... anyway how much did u pay as tax? once i received a Nokia 1110 and had to pay around 2500.00 as taxes. even though i have declared it less than the commercial value  :P  ",
      "parentPostTime": "2010-03-16T11:42:13",
      "parentPostId": "40007265"
    },
    {
      "threadId": "69459588",
      "post": "Etisalat has got some good packages with outgoing free minutes to any local networks, ranging from 250 min to 1000 min per month.",
      "time": "2010-02-25T09:50:43",
      "id": "36410763",
      "parentPost": "Nothing Impressive From Etisalat Also.\nNothing New\nJust A Per Minute Plan\nCall Rates\nOther Net : Rs. 2.40\nE2E : Rs. 2.00\n\nBut The etisalat.lk Site is coOL",
      "parentPostTime": "2010-02-25T04:17:36",
      "parentPostId": "36393926"
    },
    {
      "threadId": "66818030",
      "post": "I have none using Airtel as their primary number, so I'll stick to Dialog. Another thing I noticed is that Airtel Internet has become very slow and disconnects. Over loaded I guess?",
      "time": "2010-02-23T02:53:44",
      "id": "36015813",
      "parentPost": "It Will Be Valid Till Next Youth Pack Arrives\nBut Mack005 200 minutes is Only For A2A :)\nIt's Useful If You Have Friends @ Airtel",
      "parentPostTime": "2010-02-23T01:00:57",
      "parentPostId": "35971792"
    },
    {
      "threadId": "51758614",
      "post": "This is the Nokia DC-11 portable charger...",
      "time": "2009-12-29T09:58:21",
      "id": "27448434",
      "parentPost": "Nokia's iconic 8800 mobile phone has won the \"best of the best\" prize at the red dot design awards, the world's largest design competition.  The 8800 beat off all competition to become the only mobile phone to receive this renowned design quality award.\ni,s it ok",
      "parentPostTime": "2009-12-24T04:53:23",
      "parentPostId": "27135426"
    },
    {
      "threadId": "51047167",
      "post": "I installed Skype on my E72-1, was able to chat. However couldn't make calls. and another thing, it's not detecting my WiFi connection.\n\nhttp://farm3.static.flickr.com/2638/4176290900_32cb8feabc_o.jpg\nhttp://farm5.static.flickr.com/4046/4176295128_8a075b56e5_o.jpg",
      "time": "2009-12-11T08:12:26",
      "id": "25500426"
    },
    {
      "threadId": "50779946",
      "post": "It's got the Music Xpress colour combination, one more clue please :)",
      "time": "2009-12-10T03:05:02",
      "id": "25358799"
    },
    {
      "threadId": "50061079",
      "post": "My clue is 'I was conceived 11 years after the first device of my kind.' ",
      "time": "2009-12-08T13:22:26",
      "id": "25137070",
      "parentPost": "Two of our colleagues, that's Adrian Cheng and Daniel Tsou have got their boxes and their clues are - \"I weighed in at 210gm\" and \"I’ve got brains and brawn\" respectively.\n\nMy guess is all these clues are referring to a phone model and that's Nokia E72. So what can the 4-digit number be? I think it's 2009, since it is the year this model was released.",
      "parentPostTime": "2009-12-07T16:45:52",
      "parentPostId": "25012824"
    },
    {
      "threadId": "47221422",
      "post": "You've got a point.. he..he..  :)",
      "time": "2009-11-23T03:13:35",
      "id": "23848052",
      "parentPost": "hehe... that's funny.. isn't it buddy ? they says 101 \"Free\" SMS and #### Bytes \"Free\" volume... but u paid Rs.101 ryt ? so what's free ??? Anyway... Congratz for yo blog... ",
      "parentPostTime": "2009-11-22T16:22:03",
      "parentPostId": "23819084"
    },
    {
      "threadId": "33249694",
      "post": "Yes you can :)\n\n\"The Nokia Cityman Antitheft competition (the “Contest”), brought to you by Nokia Corporation, Espoo, Finland, (the “Sponsor”) will be governed by these rules (the “Official Rules”). In order to be\neligible to participate you must be at least 15 years of age or of the legal age in your country\nof residence. No purchase is necessary. The Contest is open to participants/contestants’\n(“Participants”) worldwide.\"",
      "time": "2009-09-09T07:58:39",
      "id": "16230077",
      "parentPost": "is it for Pakistan also??",
      "parentPostTime": "2009-09-09T07:34:41",
      "parentPostId": "16229713"
    },
    {
      "threadId": "15007526",
      "post": "Goto this link: http://tinyurl.com/ny8o2n and then select your device from the list and download Nokia PC Suite.",
      "time": "2009-07-13T10:51:52",
      "id": "12573016",
      "parentPost": "same problem, all i get is some installer in \"arabic\" ... pretty pointless!",
      "parentPostTime": "2009-06-26T20:55:55",
      "parentPostId": "11802087"
    },
    {
      "threadId": "16387671",
      "post": "nope! :)",
      "time": "2009-05-13T13:39:07",
      "id": "9278057",
      "parentPost": "Shazly\r\nDo you work for Dialog? \r\njust asking",
      "parentPostTime": "2009-05-13T09:11:44",
      "parentPostId": "9274023"
    },
    {
      "threadId": "17318243",
      "post": "Hey, thanks man :)",
      "time": "2009-05-06T16:06:54",
      "id": "9060371",
      "parentPost": "You don't actually have to reinstall the application after you register your IMEI. Just disconnect the active connection and connect again - Gravity auto registers itself. The trial version itself automatically becomes the paid version.",
      "parentPostTime": "2009-05-06T11:16:49",
      "parentPostId": "9051216"
    },
    {
      "threadId": "17023240",
      "post": "That shows how weeeak I am in maths ;)\r\n\r\nThanks for pointing it out.",
      "time": "2009-05-02T07:51:33",
      "id": "8921851",
      "parentPost": "see: http://mobitel.lk/broadband/postpaid_internet.html\r\n\r\nExcess Usage Charge: Rs. 5 for a block of 10 MBs\r\nWhich means 50cents for 1MB (not Rs.2)\r\n\r\n:D\r\n",
      "parentPostTime": "2009-05-01T11:44:14",
      "parentPostId": "8891630"
    },
    {
      "threadId": "16893313",
      "post": "The site looks great! I know it's gonna rock :)",
      "time": "2009-05-01T08:59:53",
      "id": "8890302"
    },
    {
      "threadId": "16777811",
      "post": "And how scary do I look :) http://www.zombiesingles.com/index.php?id=1850",
      "time": "2009-04-29T07:53:43",
      "id": "8803377"
    },
    {
      "threadId": "16627804",
      "post": "um gonna install it on ma N82 as well :)",
      "time": "2009-04-25T07:31:58",
      "id": "8677792"
    },
    {
      "threadId": "16284189",
      "post": "CSL Limited, Hong Kong’s leading mobile operator is using it since March 2009, and a handfull of operators are testing it: Australia's Telstra; Singapore's StarHub; Hong Kong's PCCW; Telecom Italia and O2 Germany are few of them. ",
      "time": "2009-04-22T05:04:14",
      "id": "8562305",
      "parentPost": "IS this available in the market?",
      "parentPostTime": "2009-04-22T02:05:42",
      "parentPostId": "8552926"
    },
    {
      "threadId": "16109492",
      "post": "yep! thats true, N82 has a 5MP cam where as the E75 has only 3.2MP. what I was trying to prove is, E75 picture quality is not bad either. Specially on daylight conditions.",
      "time": "2009-04-21T10:29:42",
      "id": "8481356",
      "parentPost": "dont have comparision....!!! n82 is reeealy the best camera phone.",
      "parentPostTime": "2009-04-20T17:22:21",
      "parentPostId": "8450594"
    },
    {
      "threadId": "14826471",
      "post": "Hello! Rahul, check out this link, hope you will find answers to your questions. Good Luck! http://wiki.forum.nokia.com/index.php/Ovi_Developer_-_Getting_Started",
      "time": "2009-04-15T09:16:31",
      "id": "8222584",
      "parentPost": "Hi ,\r\nI am rahul and i wish to develop a mobile(Nokia 5800 ) application and i wish to keep it inside ovi store .i wish to know that \r\nhow i will keep my application in ovi-store and how it will get installed in users mobile so that they can run my application and how can i know that if they previously accessed my application so again  that should not be installed and run my application without delaying. ",
      "parentPostTime": "2009-04-15T05:34:55",
      "parentPostId": "8220579"
    },
    {
      "threadId": "15359251",
      "post": "Yep! I agree, not at all user friendly.",
      "time": "2009-04-09T05:12:38",
      "id": "7997709",
      "parentPost": "LOL my bad. \r\n\r\nDesign and form validation sucks, we should first complaint about it, hehehe",
      "parentPostTime": "2009-04-09T05:07:04",
      "parentPostId": "7997622"
    },
    {
      "threadId": "14655691",
      "post": "Nokia India will launch the E75 in India in the second week of April 2009",
      "time": "2009-04-06T02:36:40",
      "id": "7892438",
      "parentPost": "does anyone know when the E75 will retail in Asia?",
      "parentPostTime": "2009-04-05T16:08:56",
      "parentPostId": "7882748"
    },
    {
      "threadId": "14830853",
      "post": "Or maybe Nokia buys iPhone :-)",
      "time": "2009-04-01T05:14:20",
      "id": "7707528",
      "parentPost": "What's next? Intel buying Microsoft!!! :P",
      "parentPostTime": "2009-04-01T05:10:32",
      "parentPostId": "7707481"
    },
    {
      "threadId": "14138884",
      "post": "when is the launching date, great video :)",
      "time": "2009-03-31T18:16:39",
      "id": "7681987"
    },
    {
      "threadId": "13732006",
      "post": "I'm using Dialog blaster as my primary number, but now Mobitel is offering better rates. I'm thinking of using Mobitel as my primary and converting Dialog to a pre-paid, so I can save the rental ;) . Only thing holding me is, most of my regular contacts use Dialog.",
      "time": "2009-03-31T06:12:58",
      "id": "7659677",
      "parentPost": "hmmm... converting post to pre is tricky.\r\ncheck it out carefully. per second is tricky anyway. \r\ni hate math.\r\nis there a god of mobile telecom. he could tell us what to do and what not to choose.",
      "parentPostTime": "2009-03-31T06:02:01",
      "parentPostId": "7659306"
    },
    {
      "threadId": "13529820",
      "post": "Congratulations! gonna miss you all guys... this is one of the sites which inspired me to start my own blog, other being symbian-guru. ",
      "time": "2009-03-15T02:22:59",
      "id": "7226954"
    },
    {
      "threadId": "13684300",
      "post": "Thanx :)",
      "time": "2009-03-14T18:22:16",
      "id": "7218672",
      "parentPost": "congratulation shazly, all the best.",
      "parentPostTime": "2009-03-14T17:55:06",
      "parentPostId": "7216277"
    },
    {
      "threadId": "13018162",
      "post": "It's far better than iPhone, it has a 8 Megapixel Autofocus Camera compared to iPhones 2.0 megapixels.",
      "time": "2009-03-12T08:48:13",
      "id": "7129481",
      "parentPost": "yes. good mobile. like appel i,\r\n\r\nThx",
      "parentPostTime": "2009-03-12T08:35:41",
      "parentPostId": "7129392"
    },
    {
      "threadId": "12003610",
      "post": "It supports the following audio recording formats: AMR, AAC stereo and WAW",
      "time": "2009-03-09T04:31:38",
      "id": "7007922"
    },
    {
      "threadId": "12396389",
      "post": "You are welcome :)",
      "time": "2009-02-24T03:15:44",
      "id": "6537980",
      "parentPost": "thankz for the link bro :)\r\n\r\n//The coolest thing I like about this service is that you can add search terms and save them, and when ever your search term appears on a post, you will receive a test message.//\r\nThis is an interesting aspect of this service :)",
      "parentPostTime": "2009-02-23T17:56:59",
      "parentPostId": "6501227"
    },
    {
      "threadId": "11931836",
      "post": "WoW! thats great :)",
      "time": "2009-02-17T13:10:20",
      "id": "6328382"
    },
    {
      "threadId": "11831977",
      "post": "Yes please! I would luv to have a stickr. ",
      "time": "2009-02-15T04:41:52",
      "id": "6269690"
    },
    {
      "threadId": "8175124",
      "post": "Hi, guess you thought this is a Airtel sponsored blog ;) it's not, anyways, I hope, if any Airtel guys read this, they will help you out. Good luck on your assignment!",
      "time": "2009-02-12T09:28:53",
      "id": "6202919",
      "parentPost": "hi, i'm going to do an assignment about airtel tower describing it's process. so i need a model tower project including the tower launching process, activities required time,hierachy of the tasks...etc.so please send a model airtel tower project to my mail address  soon.\r\n my mail-  ilmudeen16@gmail.com",
      "parentPostTime": "2009-02-12T09:21:45",
      "parentPostId": "6202855"
    },
    {
      "threadId": "9462453",
      "post": "hi :)",
      "time": "2009-02-10T07:18:24",
      "id": "6133614",
      "parentPost": "hi",
      "parentPostTime": "2009-02-10T07:04:27",
      "parentPostId": "6133490"
    },
    {
      "threadId": "9821511",
      "post": "Yes I did enjoy the N-Gage campaign and thank you guys for the free RESET GENERATION activation code.",
      "time": "2009-02-08T19:56:42",
      "id": "6096988",
      "parentPost": "Thanks, Shazly, for writing about us. We are glad you like our swag. :-)\r\n\r\nKeep up the good work! Glad you enjoyed the n-gage campaign.",
      "parentPostTime": "2009-01-22T18:05:37",
      "parentPostId": "5467167"
    },
    {
      "threadId": "8759143",
      "post": "Did you try the Nokia Care Centre in your country?",
      "time": "2009-01-25T03:45:39",
      "id": "5526391",
      "parentPost": "Nice news. Do you know any good Nokia warranty service? I got the Nokia 2600 couple of days ago and have got no troubles with it, until I accidentaly dropped it into the water. Do you know where can i get it fixed fast?",
      "parentPostTime": "2009-01-24T20:35:57",
      "parentPostId": "5520116"
    },
    {
      "threadId": "10188153",
      "post": "My first phone was a Nokia Ringo, an analog phone with no SIM, using Hutchinson network.",
      "time": "2009-01-19T18:41:28",
      "id": "5368582"
    },
    {
      "threadId": "9825423",
      "post": "Oops! I meant horizontally, sorry for the confusion :) \n\nhttp://farm4.static.flickr.com/3449/3194221466_57c1ee8431.jpg",
      "time": "2009-01-13T13:22:32",
      "id": "5091145"
    },
    {
      "threadId": "9727748",
      "post": "Try this ringing tone http://womlanka.com/Airtel_Jingle_-_FluteOnly_-_Original.mp3",
      "time": "2009-01-13T05:53:25",
      "id": "5087799"
    },
    {
      "threadId": "9627947",
      "post": "It is indeed very surprising to see iPhone on top of the list... ",
      "time": "2009-01-10T20:38:10",
      "id": "5047371"
    },
    {
      "threadId": "9553710",
      "post": "Yes, Go ahead..",
      "time": "2009-01-10T19:05:26",
      "id": "5046285"
    },
    {
      "threadId": "9392876",
      "post": "Yep I think so!",
      "time": "2009-01-08T18:22:31",
      "id": "4991342",
      "parentPost": "Even Dialog uses Huawei products isnt it? :)",
      "parentPostTime": "2009-01-08T18:07:42",
      "parentPostId": "4991142"
    },
    {
      "threadId": "8851851",
      "post": "Merry Christmas and Happy Holidays to everyone",
      "time": "2008-12-25T17:21:29",
      "id": "4626891"
    },
    {
      "threadId": "8444285",
      "post": "I am kind of pluged-in in using the native GPS DATA thing... ",
      "time": "2008-12-16T16:03:33",
      "id": "4429315"
    },
    {
      "threadId": "8398849",
      "post": "Thanx Ewan, and yep thats my one and only daughter :)",
      "time": "2008-12-15T14:13:27",
      "id": "4409800"
    },
    {
      "threadId": "8401358",
      "post": "I think N95 will lead the list followed by N82... Do you think there'll be any RAZR's *wink* hey just kidding",
      "time": "2008-12-15T13:33:27",
      "id": "4409562"
    },
    {
      "threadId": "8049802",
      "post": "Okay! I got my first bill and I did some calculation and came up with this figures. Call charges within the network including taxes is 2.30, and to other networks 3.50. The best thing is, its a flat rate, anytime of the day.",
      "time": "2008-12-08T03:02:05",
      "id": "4241670"
    },
    {
      "threadId": "565372",
      "post": "Now its 40!",
      "time": "2008-04-30T16:37:07",
      "id": "397899"
    }
  ],
  "profileInfo": {
    "username": "Shazly",
    "about": "Mobile technology blogger at WoMLanka.com, which cover all things related to Symbian mobile phones",
    "name": "mack005",
    "disable3rdPartyTrackers": false,
    "isPowerContributor": false,
    "isAnonymous": false,
    "rep": 1.319869,
    "profileUrl": "https://disqus.com/by/Shazly/",
    "url": "http://womlanka.com",
    "reputation": 1.319869,
    "location": "Colombo, Sri Lanka",
    "isPrivate": false,
    "signedUrl": "http://disq.us/?url=http%3A%2F%2Fwomlanka.com&key=KxAISUgfvUEMWbu384Ltzw",
    "isPrimary": true,
    "joinedAt": "2008-04-30T16:05:00",
    "id": "27523",
    "avatar": {
      "small": {
        "permalink": "https://disqus.com/api/users/avatars/Shazly.jpg",
        "cache": "//a.disquscdn.com/uploads/users/27523/avatar32.jpg?1281549414"
      },
      "isCustom": true,
      "permalink": "https://disqus.com/api/users/avatars/Shazly.jpg",
      "cache": "//a.disquscdn.com/uploads/users/27523/avatar92.jpg?1281549414",
      "large": {
        "permalink": "https://disqus.com/api/users/avatars/Shazly.jpg",
        "cache": "//a.disquscdn.com/uploads/users/27523/avatar92.jpg?1281549414"
      }
    }
  }
}