{
  "comments": [
    {
      "threadId": "724822980",
      "post": "Hi Peter,  I have made a 7 day trial available http://eminiaddict.com/?page_i...\n The webinars are not necessary to understand the principles that are \nincluded in the book. Some people like to re-enforce what they read with\n visual cues as well. Most students can easily get through them during \nthe 7 day trial and not incur any charges.",
      "time": "2015-04-13T15:58:25",
      "id": "1965144799",
      "parentPost": "Have just bought the book.  Directed to follow a link to video.  EminiAddict says, Quote, \"I'm going to make this link available with a shortened version of the original.  I'll post when its available.\"  THAT WAS A YEAR AGO, SO WHERE IS THE LINK?  \nHave i just wasted my money on that book?",
      "parentPostTime": "2015-04-13T14:44:12",
      "parentPostId": "1965026513"
    },
    {
      "threadId": "2581707870",
      "post": "Thanks Clark\n",
      "time": "2014-04-02T22:09:52",
      "id": "1315866086"
    },
    {
      "threadId": "770949031",
      "post": "Hi TraderG, This link is to a 90 minute webinar that is for subscribers. I'm going to make this link available with a shortened version of the original video. I'll post back here when it is available. Thanks.",
      "time": "2014-02-25T01:57:50",
      "id": "1259184945",
      "parentPost": "I have a couple of comments:\n1. The charts in the book are pretty much unreadable, very difficult to make them out, or did I just get a bad print run.\n2. I bought the book that refers to this link, only to find that it's a hook to get me to sign up to your service ... wasn't expecting a scam.",
      "parentPostTime": "2014-02-25T01:49:43",
      "parentPostId": "1259176332"
    },
    {
      "threadId": "882735873",
      "post": "It would be a 2008 financial crash like sell off. If that was the case Gold was cut in half. 1000 to 675 in a couple months.  ",
      "time": "2012-10-13T01:41:32",
      "id": "680411106"
    },
    {
      "threadId": "31565322",
      "post": "Sometimes there is an issue if you don't have an up to date version of the browser you are using. Also google chrome is bad at updating their plugins. I would recommend downloading a new version of firefox http://www.mozilla.org/en-US/firefox/new/ to view the webinars.",
      "time": "2012-07-22T21:22:57",
      "id": "594912009",
      "parentPost": "I cant get this to load either and yes I did download the codec. Same with the first ticker video...",
      "parentPostTime": "2012-07-22T21:18:14",
      "parentPostId": "594909826"
    },
    {
      "threadId": "708822100",
      "post": "Does a new version of windows media player help?",
      "time": "2012-06-11T22:58:09",
      "id": "554777422",
      "parentPost": "I'm using Firefox on a Mac and I'm not able to view anything. Anyone else having this issue?",
      "parentPostTime": "2012-06-11T22:53:35",
      "parentPostId": "554773868"
    },
    {
      "threadId": "21940801",
      "post": "Double charges come from people who subscribed twice. Login problems come\r\nfrom people that forgets passwords.",
      "time": "2010-02-11T01:09:01",
      "id": "33515857",
      "parentPost": "man i was ready to sign up until i read all the comments about login in problem and double charges etc",
      "parentPostTime": "2010-02-11T01:05:09",
      "parentPostId": "33512413"
    },
    {
      "threadId": "21940905",
      "post": "I didn't design it. I recived it from Brad at thinkorswim and have been\r\npassing it around ever since.",
      "time": "2010-01-31T02:20:39",
      "id": "32183012",
      "parentPost": "Hi David: Is Market Breadth something you do, or is it available from somewhere else? ",
      "parentPostTime": "2010-01-30T23:48:42",
      "parentPostId": "32175473"
    },
    {
      "threadId": "21940794",
      "post": "If you can get into the meeting you can chat. put your cursor over the chat box at the bottom of the screen on the trading room and chat page, type test, then click enter. your text will appear.",
      "time": "2010-01-11T13:09:13",
      "id": "29335598",
      "parentPost": "Hello.\r\n \r\nWell, the link did not work.  My frustration with this  ongoing login issue \r\njust goes on and on for about two months now.  I have  no idea what to do.\r\n \r\n(Rev.) Joseph F Rose\r\n(408) 347-0332",
      "parentPostTime": "2010-01-11T08:57:29",
      "parentPostId": "29327943"
    },
    {
      "threadId": "43680656",
      "post": "You can email me if you have any questions at eminiaddict@gmail.com",
      "time": "2009-11-07T17:43:59",
      "id": "22138766",
      "parentPost": "Is there any way to contact someone about how this site works. It seems there is a lot of activity but not contact information. Thanks Jack",
      "parentPostTime": "2009-11-07T15:11:53",
      "parentPostId": "22129300"
    },
    {
      "threadId": "41946983",
      "post": "thanks for the heads up",
      "time": "2009-10-27T19:32:12",
      "id": "21123033",
      "parentPost": "AUDIO  CHOPPIE BEEN THAT WAY FOR LAST COUPLE OF VIDEOS FYI",
      "parentPostTime": "2009-10-27T10:38:41",
      "parentPostId": "21095563"
    },
    {
      "threadId": "22203646",
      "post": "Glad you are enjoying them. The first couple webinars are rendered\r\nusing camtasia. They did have lag. The rest of them don't. I'm going\r\nto have to consider going back on the first two and re-doing them.",
      "time": "2009-10-24T18:55:32",
      "id": "20940010",
      "parentPost": "Dave, awesome stuff! Thank you so much for doing this.  Just one comment, you probably heard feedback on this a thousand times: The video delay wrto the audio on this webinar; I hope the other webinars don't have the same issue...",
      "parentPostTime": "2009-10-24T05:37:04",
      "parentPostId": "20909484"
    },
    {
      "threadId": "39711164",
      "post": "No problem Jerry. I'm glad it's helping out.",
      "time": "2009-10-16T03:12:35",
      "id": "20176441",
      "parentPost": "Dave,\r\nThanks so much for your Daily Debrief. The way you breakdown the days action has helped me so much to draw me own set ups. \r\n",
      "parentPostTime": "2009-10-15T06:19:38",
      "parentPostId": "20100153"
    },
    {
      "threadId": "38335478",
      "post": "Siggy. great job. Thanks for all the hard work in putting this together. ",
      "time": "2009-10-08T01:35:09",
      "id": "19470014",
      "parentPost": "AL – Abbreviation for Ambush Long.\r\n \r\nAmateur Gap – A gap that fills on the same day. Most gaps fill on the same day usually within the first hour. See Gap, Professional Gap & Half Gap Fill.\r\n \r\nAmbush Extensions – Extension (Long) are drawn from the recent high to the current high. Extension (Short) are drawn from the recent low to the current low. Ambush Extensions do measured moves as they go up (for Longs) and down (for Shorts).\r\n \r\nExtensions serve two purposes: 1) You can make an entry from an Extension during a trend; and, 2) to watch them for a possible trend reversal.\r\n \r\nAmbush Long – A trade entry that is determined by drawing from the lows to the highs. \r\n \r\nAmbush Short – A trade entry that is determined by drawing from the highs to the lows.\r\n \r\nAmbush Trade – A trade where you are in a trend and you will take an entry on a Fibonacci 50% retracement on a calculation from the Low to the High on Long; a High to the Low on a Short.\r\n          Clean Entry – when it honors the 50% (pierces 50% but not 61.8%)\r\n          Dirty Entry – when it pierces the 61.8%.\r\n          Entry – should be on the second tick (Don’t take the first High Tick; take the second).\r\n \r\nAnchor Chart – The weekly chart is the base (anchor) chart to determine trend and the shorter term (time wise) chart (daily, hourly, etc.) is then either going with the trend or a counter trend. A father/son relationship:\r\nThe Weekly Chart is the Anchor to the Daily Chart\r\nThe Daily Chart is the Anchor to the 15-Minute Chart\r\nThe 15-Minute Chart is the Anchor to the Tick Chart\r\n \r\nAnchor Point – A price level that has been determined to be a key point from which to draw a Fibonacci Retracement. \r\n \r\nAS – Abbreviation for Ambush Short.\r\n \r\nBank – The Nasdaq Bank Index. It is watched mainly to observe money flow. The key concept is to not go against Bank. Different platforms use different symbols for the index; BANK, $BANKX and its symbol on Yahoo Finance is ^IXBK. \r\n \r\nBearish Divergence – Meaning the market should go up.\r\n \r\nOn the Tick chart it would be a line drawn above the 0 line from a high sloping lower. A Bearish Trendline.\r\n \r\nA high tick and a high price are established and then a higher price is established without a higher tick – meaning the market should continue up until a new High Tick is established.\r\n \r\nIn a Bearish Divergence you should see new highs continue until you see a new high Tick.\r\n \r\nBears operate in High Ticks – Sell High Ticks.\r\n \r\nIn a Bearish Divergence you’ll continue to see new highs until a new High Tick is hit.\r\n \r\nBearish Trend Day – A day with Micro Fib’s Short holding, a series of lower measured moves; characterized by a Bullish Divergence and the Tick averaging below zero. See Bullish Trend Day & Trend Day.\r\n \r\nBreath – The Relationship of the Advancing Issues to the Declining Issues. It usually is given as a ratio of the Positive to Negative (or Negative to Positive). It’s an indication of the direction of the market. Review the material on www.eminiaddict.com to learn the how to set it up. See Market Breath and Market Internals.\r\n \r\nThe Breath, Market Breath and Market Internals can be synonymous with each other.\r\n \r\nBroken Trend – When a trend pierces the 61.8% Line.\r\n \r\nBullish Divergence – Meaning the market should go down.\r\n \r\nOn the Tick chart it would be a line drawn below the 0 line from a low sloping higher. A Bullish Trendline.\r\n \r\nA low tick and a low price are established and then a lower price is established without a lower tick – meaning the market should continue down until a new Low Tick is established.\r\n \r\nIn a Bullish Divergence you should see new lows continue until you see a new low Tick.\r\n \r\nBulls operate in Low Ticks – Buy Low Ticks.\r\n \r\nIn a Bullish Divergence you’ll continue to see new lows until a new Low Tick is hit.\r\n \r\nBullish Trend Day – A day with Micro Fib’s Long holding, a series of higher measured moves; characterized by a Bearish Divergence and the Tick averaging above zero. See Trend Day & Bearish Trend Day.\r\n \r\nChop and Pop – A day where the market is chopping around with no definable direction and occasional pops in various directions with no follow through. See Trend Day, Non-Trend Day, Bearish Trend Day & Bullish Trend Day.\r\n \r\nDaily Pivot – A price level determined by the High, Low and Close of the previous day.\r\n \r\nA general rule is that near the beginning of the day the price will try to revert to the pivot, then bounce off the pivot the first time and break through the second time. During the close of the day; most of the time, in the last 15 minutes of the day the price will gravitate to the pivot for the next day.\r\n \r\nDH – Abbreviation for David Halsey; the Emni Addict.\r\n \r\nDirty Ambush – When the price breaks the 61.8 line, then goes on to hit the -23%. Usually it is not a trade you’ve taken but the information is used in determining your next trade.\r\n \r\nDoldrums – The time of day where the trading is the slowest and choppy. The lunch time period in New York from approximately 11:30am to 1:30pm, but the exact time can vary day-to-day. During you want to watch for the trend and potential entry. During the doldrums you can trade the 50% in the direction of the trend.\r\n \r\nExtended High – An Extended High is a move upward where using a Fibonacci from the Previous High to the New High to give a 50% retracement so you can enter on the upward movement.\r\n \r\nExtended Low – An Extended Low is a move downward where using a Fibonacci from the Previous Low to the New Low to give a 50% retracement so you can enter on the downward movement.\r\n \r\nExtension Long – Starts when a Bullish setup breaks the -23.5% and continues in an upward move. When a long trend (higher highs and higher lows) is developing this gives you an opportunity to enter into the long trend. The entry is based on an Extended High entry where you draw a fib from the prior high (stair step) to the current high, wait for the retracement and then take the entry.\r\n \r\nExtension Short – Starts when a Bearish setup breaks the -23.5% and continues in an downward move. When a short trend (lower lows and lower highs) is developing this gives you an opportunity to enter into the short trend. The entry is based on an Extended Short entry where you draw a fib from the prior low (stair step) to the current low, wait for the retracement and then take the entry.\r\n \r\nExtensions – See Ambush Extensions.\r\n \r\nFibonacci - Leonardo Fibonacci was an Italian mathematician born in the 12th century. He is known to have discovered the \"Fibonacci numbers,\" which are a sequence of numbers where each successive number is the sum of the two previous numbers.\r\n \r\nIf you are not familiar with Fibonacci then you should not trade this method without first becoming familiar with them. Review the material on www.eminiaddict.com to learn the method.\r\n \r\nFib’s – Slang meaning Fibonacci.\r\n \r\n50% Line – The Fibonacci Line where an entry is taken. Also known as Half Way Back. See Negative 23.6% Line and 61.8% Line.\r\n \r\n1st Target – The price point where you can sell part of the position to lock in a profit (to cover costs) and move your stop to break even. See Target and -23% Target.\r\n \r\nFree Trade – An opportunity to get a First Target Hit and provide you with a trade with no risk. Usually taken on at least a 15 Minute 50% retracement. See Reduced Risk Trade.\r\n \r\nAn entry where you can to quickly recapture your expenses and then set a stop so that at least you won’t loose any money on the trade. When you sell a portion of the trade to cover expenses. Example: You have 3 contracts, once the price has moved 3 ticks you sell 1 contract to cover expense (thus making it a “free” trade); then move your stop to break even.\r\n \r\nFront Running – An entry one to two ticks before the entry point.\r\n \r\nGlobex – The ES (Future) on a 24 hour basis. Use the. See Trading Hours Only & Twenty-Four (24) Hour Trading.\r\n \r\nGeneral rule is to use Charts on the 24 Hours unless you are looking for Half Way Back on the day.\r\n \r\nGap – At the open in the morning; it’s the difference between the 4:00pm close of the previous day and the 9:30am open. See Amateur Gap, Gap, Gap Fill, Half Gap Fill & Professional Gap.\r\n \r\nA Gap is considered unfilled unless it fills during trading hours.\r\n \r\nA Gap is open until it is filled. Example: A gap from 5 days ago that has not filled is still a valid gap. Generally they tend to fill within 5 to 15 days. However, a gap remains unfilled and should be monitored no matter how many days/months it takes until it fills.\r\n \r\nMonday Gaps have the lowest probability of filling (though the probability is greater than 50%). The probability is unknown, so use caution on Monday Gaps – there are a number of unknown factors from the weekend.\r\n \r\nAlways use caution on the Monday after Options Expire – especially on the Gap.\r\n \r\nUsually don’t trade against the Gap until it fills – especially if the fill is in the same direction as the larger trend.\r\n \r\nNever trade against the Gap Fill.\r\n \r\nA Gap can fill only during trading hours (a gap that fills during overnight trading is not considered filled).\r\n \r\nIf a Gap doesn’t fill in the morning, then there is a very high probability it will fill in the afternoon into the close.\r\n \r\nGap Fill – When, after the open in the morning, the current price is equal to the 4:00pm close of the previous day. The price fills. See Amateur Gap, Gap, & Professional Gap.\r\n \r\nGF – Abbreviation for Gap Fill.\r\n \r\nHalf Gap Fill – A price point, after the open in the morning, half way between the 4:00pm close of the previous day and the 9:30am open. It is important because many times this is a point where many traders will take profits. See Amateur Gap, Gap, & Professional Gap.\r\n \r\nHalf Way Back – The 50% line on the Fibonacci 50% retracement. Floor traders coined the phrase as they would many times wait for “half way back” before they would make an entry, not realizing that they really were using a Fibonacci 50% retracement – but knew that it was a good point to make an entry.\r\n \r\nInternals – Abbreviation for Market Internals.\r\n \r\nLine In The Sand – A price point where one will be bullish or bearish. It is exactly as it sounds; if the tide (market) could wash in and take away that line. So, it’s a temporary point to work from.\r\n \r\nMarket Breath – Looking at the relationship of the Advancing Issues to the Declining Issues to determine the market’s direction. It’s more extensive than just looking at the ratio of the Breath; you need to observe its change during the day and refer to the Tick and other indicators to see how the market is doing. How is the market “Breathing”? See Breath and Market Internals.\r\n \r\nThe Breath, Market Breath and Market Internals can be synonymous with each other.\r\n \r\nMarket Internals – The Relationship of the Breath, Tick, Bank, Participation and various Fib Levels to determine the market’s direction The overall look to determine what the market is doing. See Breath and Market Breath.\r\n \r\nThe Breath, Market Breath and Market Internals can be synonymous with each other.\r\n \r\nMeasured Move – A Micro Fib that completes its move by hitting the -23.6%. Then followed by another Micro Fib that completes its move. A series of moves in the same direction, including minor pull backs. Many times termed as a series of higher highs and higher lows for an up trend; and, a series of lower highs and lower lows for a down trend.\r\n \r\nMeasured Move - Bearish - Defined by Bearish Fib’s (usually Micro) holding their 50% to 61.8% retracement and achieving the 23.6% target. A series of lower highs and lower lows.\r\n \r\nMeasured Move - Bullish – Defined by Bullish Fib’s (usually Micro) holding their 50% to 61.8% retracement and achieving the 23.6% target. A series of higher highs and higher lows.\r\n \r\nMicro Move – Short term Moves made in a few seconds to an hour; usually done over a period of several minutes and on a 233 Tick Chart.\r\n \r\nMicro Scalp – A trade that is short term (in time) that runs about 4 tick bars or longer. It can be traded, but it is more useful for the purpose of helping to determine trend and trend breaks.\r\n \r\nNegative 23% Line – The Fibonacci Line where profit is taken. It’s also completes the move. A point where many traders will reverse their position. See 50% Line and 61.8% Line.\r\n \r\nNegative 23% Target – The price point where the trade is considered complete and time to lock in a profit. See Target and 1st Target.\r\n \r\nNew High Tick – When the Price is a new High when the Tick also hits an extreme of 800 to 1,000. When a Tick over 1,000 occurs – it very well could mean that is the High of the Day and won’t be breached.\r\n \r\nNew Low Tick – When the Price is a new Low when the Tick also hits an extreme of -800 to -1,000. When a Tick under -1,000 occurs – it very well could mean that is the Low of the Day and won’t be breached.\r\n \r\nNHT – Abbreviation for New High Tick.\r\n \r\nNLT – Abbreviation for New Low Tick.\r\n \r\nNon-Trend Day – A day where the trend cannot be determined. Bullish and Bearish Fib’s break and no direction can be determined. Usually a very difficult day to trade, where Scalp Trades maybe the only trade. See Trend Day, Bullish Trend Day & Bearish Trend Day.\r\n \r\nParticipation – A determination of how much traders are “participating” in the market. It takes time to learn how to qualify it because it’s a combination of experience of watching the Tape, volume & breath.\r\n \r\nPivot – A pivot is a price point for a change in direction. However, for the most part when we talk about the Pivot we are usually talking about the Daily Pivot(s). See Daily Pivot.\r\n \r\nProfessional Gap – A gap that does not fill, the idea being that the professionals bought and held. However, you don’t really know for certain it is a Professional Gap until the end of the day close. See Amateur Gap.\r\n \r\nProfessional Gaps usually will continue from the opening.\r\n \r\nReduced Risk Trade – At trading strategy where upon entry you set a -6 point stop and when the price moves to +6 you then move your stop point to +2 so at worst you will break even. The style is demonstrated on the Infinity Platform.\r\n \r\nAn entry that can be made on a 50% retracement where you can expect a good reward to risk on the trade.\r\n \r\nRoad Map – The Road Map is a phrase to identify the trade as follows: The Road Map is the Ambush Trade (Chart and Fib set up) along with the Tick, Time & Sales which are the Address. Meaning you need both to determine your direction and entry.\r\n \r\nAlso, the Road Map is to follow the larger trend to give you an indication for the smaller trend. Find the State (larger time frame), the City (entry time frame) and the Street (smaller time frame).\r\n \r\nScalp Trade – A quick trade for a small profit.\r\n \r\nSecond (2nd) Tick Rule – Once a High (Low) Tick with corresponding High (Low) Price is established you take the next High (Low) Tick for an entry.\r\n \r\nIf the 2nd low tick is lower than the first, but we don’t get lower low on the charts, that's a bullish divergence and visa versa.\r\n \r\nShort Covering – Results in prices going higher. The effect of traders in short positions having to sell their position because the price is going higher. It feeds upon itself; as more shorts covering causing prices to go higher it cause more traders who are short to also cover their position.\r\n \r\n61.8% Line – The Fibonacci Line where trend is broken. It also is a point to base a stop off of (usually 2 ticks away from the line). See Negative 23.6% Line and 50% Line.\r\n \r\nStop – Price point where you get out of a trade usually with a small loss. It varies with traders; the importance is to have one and stick to it. Some traders base their stop off the 61.8% line, others will use 6 ticks from the entry.\r\n \r\nSwing Low – A term used in technical analysis that refers to the troughs reached by an indicator or an asset's price. A swing low is created when a low is lower than any other point over a given time period. Successively lower swing lows indicate that the underlying asset is in a downtrend, while higher lows mean it is in an uptrend. See Measured Move.\r\n \r\nSwing High – A term used in technical analysis that refers to the peak reached by an indicator or an asset's price. A swing high is formed when the high of a price is greater than a given number of highs positioned around it. A series of consecutively higher swing highs indicates that the given asset is in an uptrend. See Measured Move.\r\n \r\nSwing Trade – A trade (long or short) where you anticipate the trade to last 10 to 14 days (8 to 12 trading days). A swing trade will start out as a scalp (though you may have plans to make it a Swing Trade).\r\n \r\nTape – The Time & Sales. It’s displayed on the right side of screen as Green (Ask) and Red (Bid) when traded. The name comes from when the brokerage houses had feeds from the Trading Floor to their “Ticker Tape” Machine.\r\n \r\nWhen reading the tape it depends upon the current trend. The volume (large contracts) make a difference.\r\n \r\nNote: The Green Price is the Ask (higher price); the Red Price is the Bid (lower price).\r\n \r\nTape To Tick Relationship – This is what they are:\r\nGreen Price on the Tape on a High Tick = Covering\r\nGreen Price on the Tape on a Low Tick = Buying\r\nRed Price on the Tape on a High Tick = Shorting\r\nRed Price on the Tape on a Low Tick = Selling\r\nSee Tick to Tape Relationship.\r\n \r\nTarget – The price point where you plan to lock in a profit. See 1st Target and Negative 23% Target.\r\n \r\n3:45 Trade – A trade put on 15 minutes before the market closes. This trade is done when the current price is far away from Tomorrow’s Pivot and heading toward the pivot. Also other factors need to be considered – a break in the trend, internals diverging, usually a non-trending day, and more.\r\n \r\nTOS – Abbreviation for Think Or Swim; one of the trading platforms that traders use.\r\n \r\nTS – Abbreviation for TradeStation; one of the trading platforms that traders use.\r\n \r\nTrading Hours Only – The time the ES (Futures) is traded on the floor; New York time 9:30am to 4:00pm. See Globex.\r\n \r\nUse Trading Hours Only if it is easier to see.\r\n \r\nTick – The Tick Indicator is the difference between the number of stock currently up ticking and the number of stocks currently down ticking. A tick is one trade. It is a vital indicator to watch. If you’re not familiar with the Tick then you must review the material on www.eminiaddict.com to learn about it. Also, http://www.movethemarkets.com/blog/2007/01/23/better-know-the-tick-indicator/ has some good information on the subject. See New High Tick, New Low Tick & Tick Entry.\r\n \r\nTick is also slang for a point movement; i.e. “It’s only moved one Tick since I bought it.”\r\n \r\nBulls operate in Low Ticks – Bears operate in High Ticks.\r\n \r\nBuy Low Ticks – Sell High Ticks.\r\n \r\nIMPORTANT POINT – If you have just one rule to follow:\r\nDon’t Buy at the High Tick and Don’t sell at the Low Tick – though every bone in your body will want to do that!\r\n \r\nYou want to make entry/exits by Buying (or Short Covering) on the Low Tick and Selling (or going Short) on the High Tick – i.e. buy the low ticks and sell the high ticks.\r\n \r\nTick Entry – When the Tick hits a high and the price comes into the 50% on the Fib that is when you want to enter short. When the Tick hits a low and the price comes into the 50% on the Fib that is when you want to enter long.\r\n \r\nTick to Tape Relationship – This is what they are:\r\nHigh Tick with Green Tape = Higher\r\nHigh Tick with Red Tape = Lower\r\nLow Tick with Green Tape = Higher (Buyers)\r\nLow Tick with Red Tape = Lower (Sellers)\r\nSee Tape to Tick Relationship.\r\n \r\nTrend Day – A day where the trend can be determined to be going in a direction by the series of Measured Moves. See Bullish Trend Day & Bearish Trend Day.\r\n \r\nAn Up Trending Day is when a High Tick along with a High Price is established and then Higher Prices happen without High Ticks; expecting the market to continue upward until a new High Tick and High Price is made. A Down Trending Day is when a Low Tick along with a Low Price is established and then Lower Prices happen without Low Ticks; expecting the market to continue downward until a new Low Tick and Low Price is made.\r\n \r\nTrend Reversal – When a High Tick happens after a prior High Tick (with a High Price) but there is not a new High Price, expect the trend to go lower. The Opposite: When a Low Tick happens after a prior Low Tick (with a Low Price) but there is not a new Low Price, expect the trend to go higher.\r\n \r\nTwenty-Four (24) Hour Trading – The Globex. See Globex & Trading Hours Only.\r\n \r\n-23% Line –See Negative 23% Line.\r\n \r\n-23% Target –See Negative 23% Target.",
      "parentPostTime": "2009-10-07T17:19:41",
      "parentPostId": "19433158"
    },
    {
      "threadId": "36499824",
      "post": "Click on the trading room and chat tab. Then click on the gotowebinar\r\nlogo. That will get you into the room.",
      "time": "2009-09-28T15:58:15",
      "id": "17723211",
      "parentPost": "Please contact. I am not able to hear the trading room.",
      "parentPostTime": "2009-09-28T15:38:27",
      "parentPostId": "17722460"
    },
    {
      "threadId": "21940846",
      "post": "The paypal button will get you a free trial to the site",
      "time": "2009-09-24T01:10:59",
      "id": "17259782",
      "parentPost": "keep trying to join, cannot seem to. Any help from someone running this site???",
      "parentPostTime": "2009-09-22T13:39:20",
      "parentPostId": "17114449"
    },
    {
      "threadId": "35493675",
      "post": "I'm down. I'll be back in a couple minutes",
      "time": "2009-09-22T15:15:59",
      "id": "17118126"
    },
    {
      "threadId": "34866377",
      "post": "I'm not sure what is wrong. I just tested it and it seems to open fine. Is it loading slow for you. Tell me what you are seeing. Maybe a can replicate it. What browser are you using?",
      "time": "2009-09-20T22:49:29",
      "id": "16998107",
      "parentPost": "i cannot get the video s im signed up to recieve.  they use to auto matically open and play and now they dont and i dont know why. please help me",
      "parentPostTime": "2009-09-20T22:20:34",
      "parentPostId": "16997479"
    },
    {
      "threadId": "34456552",
      "post": "Thanks man. It was a great technical day. It will be nice to leave the\r\nsummer doldrums behind us.",
      "time": "2009-09-16T03:27:02",
      "id": "16694924",
      "parentPost": "awesome review, DH",
      "parentPostTime": "2009-09-16T02:05:58",
      "parentPostId": "16692336"
    },
    {
      "threadId": "34144241",
      "post": "We are now on the ESZ9 contract. Last thursday was the rollover day.\r\nYou will notice a 4.25 difference in price between H9 and Z9",
      "time": "2009-09-15T05:40:14",
      "id": "16614716",
      "parentPost": "Hi, I haven't been trading for a few days and I noticed that the number on my ES chart doesn't agree with yours.  Can you explain why, please?  Thanks.\r\n",
      "parentPostTime": "2009-09-14T15:46:33",
      "parentPostId": "16581200"
    },
    {
      "threadId": "33751905",
      "post": "I believe is is $BKX for TS",
      "time": "2009-09-11T16:59:10",
      "id": "16429222",
      "parentPost": "Hi,\r\n\r\nCan someone tell me how to get BANk quote on TS and DTN...thanks\r\n",
      "parentPostTime": "2009-09-11T16:29:57",
      "parentPostId": "16427333"
    },
    {
      "threadId": "32691430",
      "post": "Thank you for the kind words. I appreciate it..",
      "time": "2009-09-05T08:12:41",
      "id": "16016099",
      "parentPost": "emini addict you are good and humble. Extremely hard to find. I like you simple yet exemplary analysis. Best of all you are a true source and your chart method tells all.",
      "parentPostTime": "2009-09-04T14:16:42",
      "parentPostId": "15973138"
    },
    {
      "threadId": "22204414",
      "post": "I takes a about 60 seconds before the screen starts showing.",
      "time": "2009-08-30T18:07:03",
      "id": "15598164",
      "parentPost": "cannot see- can hear- havwe downloaded the gotowebinar codec.\r\nplease contact me at 303-725-4779 or bmg_5@juno.com.\r\n",
      "parentPostTime": "2009-08-30T16:30:05",
      "parentPostId": "15595550"
    },
    {
      "threadId": "22203747",
      "post": "There is a video on the getting started tab called setting custon fib\r\nsettings. That will give you the exact TOS settings I use.\r\nLet me know if you have any other questions.",
      "time": "2009-07-25T23:49:22",
      "id": "13332451",
      "parentPost": "This is great, one thing at the 69:30 area of the time code you talk about seeing setting for the fibs...it does not show as part of the screen show.  Can you post a .jpg of the settings?  \r\n\r\nThanks,\r\nDouglas",
      "parentPostTime": "2009-07-25T23:38:52",
      "parentPostId": "13331957"
    },
    {
      "threadId": "22198712",
      "post": "yep you got it MPO. TOS must be running before you open the spreadsheet.",
      "time": "2009-07-25T19:31:26",
      "id": "13326688",
      "parentPost": "After I downloaded the file.  First, I opened TOS.  Second, I open the excel file, excepted the security warning and it works perfectly.\n\n\n\n\n________________________________",
      "parentPostTime": "2009-07-25T19:28:28",
      "parentPostId": "13326615"
    },
    {
      "threadId": "26457983",
      "post": "When you log into the site and click on the trading room and chat tab\r\nyou can pop the chat out and drag it where ever you would like.",
      "time": "2009-07-23T05:21:11",
      "id": "13191528",
      "parentPost": "David, I too cannot get jabbify to open in a separate window nor go full screen.  I can see only the last 3 or 4 entries/chat comments.  I turned off pop-up blocker and it still doesn't work.  Any suggestions?\r\n\r\nThanks, Trader_Joe",
      "parentPostTime": "2009-07-23T05:01:45",
      "parentPostId": "13191225"
    },
    {
      "threadId": "24487405",
      "post": "# Emini Addict\r\n# Half Gap Fill, Full Gap Fill, and\r\n# Trading Hours only Pivot Point (9:30a - 4:00p).\r\n# This study is intended for the 15 minute chart only.\r\n# No warranties or guarantees. Modify at your own risk.\r\n# $V:build_1324:2009.05.09:1.0.3\r\n\r\ninput Show_Today_Only = {\"Yes\", default \"No\"};\r\ninput Hide_GapFills_Once_Hit = {\"Yes\", default \"No\"};\r\ninput Display_24Hour_Pivot = {\"Yes\", default \"No\"};\r\n\r\ndef OPEN_ACTUAL_TIME = 0930;\r\ndef CLOSE_ACTUAL_TIME = 1600;\r\ndef OPEN_OFFSET_TIME = 0945;\r\ndef GLOBEX_CLOSE_TIME = 1615;\r\n\r\n\r\ndef goPlot = if(getDay() == getLastDay(), 1, if(Show_Today_Only, 1, 0));\r\ndef isAllowed = if(getAggregationPeriod() == 900000, 1, 0);\r\ndef isMarketOpen = if(if(secondsTillTime(OPEN_OFFSET_TIME) > 0, 0, 1) and !if(secondsTillTime(CLOSE_ACTUAL_TIME) > 0, 0, 1), 1, 0);\r\ndef isFirstBar = if (getDay()[1] != getDay(), 1, 0);\r\ndef isOpeningBell = if (secondsTillTime(OPEN_OFFSET_TIME)[1] > 0 and\r\nsecondsTillTime(OPEN_OFFSET_TIME) <= 0 or\r\n(secondsTillTime(OPEN_OFFSET_TIME)[1] < secondsTillTime(OPEN_OFFSET_TIME)\r\nand secondsTillTime(OPEN_OFFSET_TIME)[1] > 0), 1, 0);\r\ndef isGlobexDisplay = if(Display_24Hour_Pivot,0,1);\r\ndef isClosingBell = if( secondsTillTime(CLOSE_ACTUAL_TIME)[1] > 0 and\r\nsecondsTillTime(CLOSE_ACTUAL_TIME) <= 0 or\r\n(secondsTillTime(CLOSE_ACTUAL_TIME)[1] < secondsTillTime(CLOSE_ACTUAL_TIME)\r\nand secondsTillTime(CLOSE_ACTUAL_TIME)[1] > 0), 1, 0);\r\n\r\ndef isGlobexClose = if( secondsTillTime(GLOBEX_CLOSE_TIME)[1] > 0 and\r\nsecondsTillTime(GLOBEX_CLOSE_TIME) <= 0 or\r\n(secondsTillTime(GLOBEX_CLOSE_TIME)[1] < secondsTillTime(GLOBEX_CLOSE_TIME)\r\nand secondsTillTime(GLOBEX_CLOSE_TIME)[1] > 0), 1, 0);\r\n\r\ndef isTradingHrs = if((secondsFromTime(OPEN_ACTUAL_TIME) >= 0 && secondsTillTime(CLOSE_ACTUAL_TIME) > 0), 1, 0);\r\n\r\nrec marketHoursHigh = if(high > marketHoursHigh[1] and isMarketOpen, high, if(isMarketOpen and !isFirstBar, marketHoursHigh[1], high));\r\nrec regHoursLow = if(low < regHoursLow[1] and isMarketOpen, low, if(isMarketOpen and regHoursLow[1] > 0 and !isFirstBar, regHoursLow[1], low));\r\nrec valueAtClose = compoundValue(1, if isClosingBell then close[1] else valueAtClose[1], close);\r\nrec prevClose = compoundValue(1, if isClosingBell then valueAtClose else prevClose[1], close);\r\nrec prevHigh = compoundValue(1, if isClosingBell then marketHoursHigh[1] else prevHigh[1], high);\r\nrec prevLow = compoundValue(1, if isClosingBell then regHourslow[1] else prevlow[1], low);\r\nrec regHoursOpen = compoundValue(1, if isOpeningBell then open[1] else regHoursOpen[1], open);\r\nrec valueAtGlobexClose = compoundValue(1, if isGlobexClose then close[1] else valueAtGlobexClose[1], close);\r\nrec globexClose = compoundValue(1, if isGlobexClose then valueAtGlobexClose else globexClose[1], close);\r\n\r\nplot Pivot_Point = if(isAllowed && goPlot && isTradingHrs, (prevClose + prevHigh + prevLow) / 3, double.nan);\r\nPivot_Point.SetStyle(curve.POINTS);\r\nPivot_Point.SetDefaultColor(color.cyan);\r\n\r\nplot Half_GapFill = if(isAllowed && goPlot && isTradingHrs, if( secondsTillTime(OPEN_ACTUAL_TIME) <= 0 && secondsTillTime(OPEN_OFFSET_TIME) > 0, prevClose + (open - prevClose) / 2, prevClose + (regHoursOpen - prevClose) / 2), double.nan);\r\nHalf_GapFill.SetDefaultColor(color.lime);\r\nHalf_GapFill.SetStyle(curve.POINTS);\r\nHalf_GapFill.setHiding(!Hide_GapFills_Once_Hit);\r\n\r\nplot Full_GapFill = if(isAllowed && goPlot && isTradingHrs, prevClose, double.nan);\r\nFull_GapFill.SetStyle(curve.POINTS);\r\nFull_GapFill.SetDefaultColor(color.white);\r\nFull_GapFill.setHiding(!Hide_GapFills_Once_Hit);\r\n\r\nplot Globex_Pivot = if(isAllowed && goPlot && isGlobexDisplay && isTradingHrs, (globexClose + prevHigh + prevLow) / 3, double.nan);\r\nGlobex_Pivot.SetStyle(curve.POINTS);\r\nGlobex_Pivot.SetDefaultColor(Color.LIGHT_GREEN);",
      "time": "2009-07-07T14:09:16",
      "id": "12253918"
    },
    {
      "threadId": "22687539",
      "post": "I'm not sure. I'll check it out. Thanks for the heads up.",
      "time": "2009-06-23T06:33:11",
      "id": "11603740",
      "parentPost": "D.H.i go 2 login, says reached daily limit whats up",
      "parentPostTime": "2009-06-23T06:30:27",
      "parentPostId": "11603703"
    },
    {
      "threadId": "22438384",
      "post": "Sounds like noobtrader has the record!",
      "time": "2009-06-22T01:17:13",
      "id": "11541488",
      "parentPost": "need to try again! only $2700",
      "parentPostTime": "2009-06-22T00:55:46",
      "parentPostId": "11541192"
    },
    {
      "threadId": "22397755",
      "post": "Yes I will. Ill copy and paste what I have in tos as I have made a\r\ncouple changes. Thanks for the heads up..",
      "time": "2009-06-21T02:58:16",
      "id": "11521011",
      "parentPost": "Hi, Can you fix the code cause I can't use it on TOS. Thank You",
      "parentPostTime": "2009-06-20T10:48:29",
      "parentPostId": "11497216"
    },
    {
      "threadId": "22249344",
      "post": "In accessories there is a disk cleanup feature. I'm wondering if you\r\ndid a cleanup if it would fix it.",
      "time": "2009-06-19T18:58:26",
      "id": "11477943",
      "parentPost": "I'm using Firefox. Just had to clear cookie just to come back and reply",
      "parentPostTime": "2009-06-19T16:50:30",
      "parentPostId": "11454823"
    },
    {
      "threadId": "21243629",
      "post": "I'm sorry. Just one jerk ruined it. I hate that it is not on the front page.",
      "time": "2009-06-11T11:23:05",
      "id": "10733646",
      "parentPost": "That's a pity - I'm not a member but was enjoying this chat anyways.\r\n\r\nTraderX",
      "parentPostTime": "2009-06-11T11:20:46",
      "parentPostId": "10733616"
    },
    {
      "threadId": "20249542",
      "post": "Thanks Markus,\r\nThanks for visiting,\r\nNew highs on the ES could be in the cards yet this week",
      "time": "2009-06-04T13:13:09",
      "id": "10481574",
      "parentPost": "Nice Call...\r\n\r\n... we actually did fill the gap. \r\nWent long at 926 and had tough time waiting for reversal, but finally sold with 4pts at 930 around 10pm before market close...\r\n\r\nI really like your site and marketviews. Keep up the good work.\r\n\r\nMarkus\r\n(Germany)\r\n",
      "parentPostTime": "2009-06-04T09:24:55",
      "parentPostId": "10478187"
    },
    {
      "threadId": "18107437",
      "post": "Thanks for the heads up. I might need to re-produce it. I just put the\r\nraw file up. Thanks again.\r\nDH",
      "time": "2009-05-15T01:24:55",
      "id": "9345938",
      "parentPost": "Voice echos. Very difficult to understand.",
      "parentPostTime": "2009-05-14T14:41:27",
      "parentPostId": "9325997"
    },
    {
      "threadId": "6919513",
      "post": "There are webinars under the webinar tab that explain that subject in\r\nmore detail. Try the market internals webinar.",
      "time": "2009-05-14T01:55:03",
      "id": "9308919",
      "parentPost": "Hi, I just wanted to say that I really like what you’re doing here, I recently cancelled my account at a paid service that was not nearly as instructive  as your website, I do have one request though, Is it possible for you to record a video on how to actually READ Market Internals? How to interpret signals and so forth?\r\n\r\nI feel I have almost grasped the concepts of Pivots, Fibonacci retracements, Support and Resistance; however, they are not as effective if I don’t know where the market it headed.\r\n\r\n",
      "parentPostTime": "2009-05-13T14:52:04",
      "parentPostId": "9281672"
    },
    {
      "threadId": "17604821",
      "post": "send me an email at eminiaddict@gmail.com",
      "time": "2009-05-08T13:24:12",
      "id": "9126959",
      "parentPost": "I have signed up for trading room webinar on May 6 havent received a emal with a URL and password .???",
      "parentPostTime": "2009-05-08T13:17:25",
      "parentPostId": "9126846"
    },
    {
      "threadId": "4881068",
      "post": "Its a pleasure. Once you know this stuff no one can ever take it away from you.",
      "time": "2009-05-08T00:34:27",
      "id": "9112282",
      "parentPost": "David, thank you so much for all the info on the blog, its brought so much clarity in such a short time. \r\n",
      "parentPostTime": "2009-05-08T00:11:09",
      "parentPostId": "9111844"
    },
    {
      "threadId": "5058256",
      "post": "You should get a email any minute.",
      "time": "2009-05-07T13:08:33",
      "id": "9090571",
      "parentPost": "How do I get trading room access after registering for free trial?",
      "parentPostTime": "2009-05-07T13:00:50",
      "parentPostId": "9090401"
    },
    {
      "threadId": "16442757",
      "post": "No I don't. I wish I knew where to find it. Ill take a look around and\r\nsee if I can find anything.",
      "time": "2009-04-23T02:27:23",
      "id": "8593818",
      "parentPost": "This was great, do you have a link to the second video with all the emails and questions with him?",
      "parentPostTime": "2009-04-23T02:14:52",
      "parentPostId": "8593521"
    },
    {
      "threadId": "15025777",
      "post": "This place looks great!! Love it.. ",
      "time": "2009-04-03T23:46:33",
      "id": "7809084"
    },
    {
      "threadId": "13944089",
      "post": "Yep. Ill post it in the webinar section as soon as I can.",
      "time": "2009-03-19T05:15:17",
      "id": "7335716",
      "parentPost": "Nut's was hoping the Wednesday webinar was posted on the site here but no luck.  I see others in the chat wondering as well.\r\nI work second shift est. and can not be at my computer.  Archive ?",
      "parentPostTime": "2009-03-19T04:24:00",
      "parentPostId": "7334931"
    },
    {
      "threadId": "13756816",
      "post": "Mmustoe, Mr. Clean and topfuelfan. Thanks guys. I'm going to try to keep them as short as I can. \r\nSee you tomorrow.",
      "time": "2009-03-16T06:05:10",
      "id": "7249636"
    },
    {
      "threadId": "12777237",
      "post": "In a standard account one lot of 10000 is controled worth 100 dollars.\r\nSo a 100 pip move would be a 100 percent loss. 100 pips is a big stop\r\nthough.",
      "time": "2009-03-01T05:35:08",
      "id": "6739139",
      "parentPost": "What are the symbols on these charts in TOS, are they futures or spot? Would you trade them through TOS? What kind of stops would you use?",
      "parentPostTime": "2009-03-01T04:45:35",
      "parentPostId": "6738650"
    },
    {
      "threadId": "12370458",
      "post": "test\r\n",
      "time": "2009-02-24T01:57:31",
      "id": "6536584"
    },
    {
      "threadId": "9250680",
      "post": "We trade with a raw feed of the S&P 500 from Traders Audio\r\nhttp://www.tradersaudio.com/",
      "time": "2009-02-21T22:21:16",
      "id": "6471618",
      "parentPost": "hello, which audio trader service are you providing?",
      "parentPostTime": "2009-02-21T21:49:48",
      "parentPostId": "6471217"
    },
    {
      "threadId": "9715876",
      "post": "There is a link on the trading room page that will set you up for the 7 day free trial. \r\nLet me know if you have any other questions.",
      "time": "2009-02-01T07:33:37",
      "id": "5742086"
    },
    {
      "threadId": "10541338",
      "post": "It should be back up now. Thanks David.",
      "time": "2009-01-26T13:25:26",
      "id": "5548929",
      "parentPost": "Hi,\r\n\r\nHave you removed the chat feature from your site , its not available on several different pcs here in Spain from ie to firefox.",
      "parentPostTime": "2009-01-26T13:30:49",
      "parentPostId": "5548514"
    },
    {
      "threadId": "10325078",
      "post": "Thanks E-Mini Player. I appreciate it. It was good the have you there.\r\nTalk to you later.",
      "time": "2009-01-22T06:59:10",
      "id": "5458279",
      "parentPost": "It was a good time DH. I mentioned your room in my blog post  today :)  Good luck with the room...it's a very good value @ $29.99 (less than 1 point in the ES)",
      "parentPostTime": "2009-01-22T02:52:07",
      "parentPostId": "5453693"
    },
    {
      "threadId": "9132056",
      "post": "I agree. Its sickening. The real misfortune is that our children will\r\nhave to pay for it. We have not left america better then we found it.",
      "time": "2008-12-30T19:39:14",
      "id": "4786501",
      "parentPost": "I do not agree with the government solution, of just throwing money, at the problem. Do we even know, what the balance sheets of this and/or any of these bailout companies are ? We, the little people, will be paying for this bailout, sooner or later, but we will pay. Why ? Simple, our government doesn't have this money, but never gets denied for a loan. Amazing...I should go apply for a bailout too...",
      "parentPostTime": "2008-12-30T19:08:16",
      "parentPostId": "4785213"
    },
    {
      "threadId": "6764520",
      "post": "Try logging into TOS on the live version, not the papertrading\r\naccount. Let me know what happens.",
      "time": "2008-12-25T00:25:10",
      "id": "4618893",
      "parentPost": "You need to have a real account with minimum fund in order to have real-time quotes in papertrading account.",
      "parentPostTime": "2008-12-25T01:07:52",
      "parentPostId": "4618744"
    },
    {
      "threadId": "8740606",
      "post": "It wasn't my intent.. I should have linked directly to it.",
      "time": "2008-12-22T23:05:18",
      "id": "4579760",
      "parentPost": "Ahem, You wouldn't be spamming us EminiAddict now would you?",
      "parentPostTime": "2008-12-22T23:46:06",
      "parentPostId": "4579455"
    },
    {
      "threadId": "6326199",
      "post": "No, It took it down because it was the right thing to do. I would want the same thing done for me. ",
      "time": "2008-12-18T21:58:15",
      "id": "4489922",
      "parentPost": "Why did you have to take it down?  Did Carter threaten a lawsuit or something?  Also please see my other post with technical question about using Inertia instead of Momentum in the TTM Squeeze code.",
      "parentPostTime": "2008-12-14T07:09:19",
      "parentPostId": "4395247"
    },
    {
      "threadId": "8483843",
      "post": "Has anyone here considered a run up to SPX 1000.00? Every single measured move that has happened this year has made a 50% retracement. My Fibs say 1026.00.\r\nhttp://www.eminiaddict.com/2008/12/emini-future...",
      "time": "2008-12-17T17:45:16",
      "id": "4461901"
    },
    {
      "threadId": "8454623",
      "post": "I agree.. The problem is that at a certain point our dollar is worth nothing\r\nto the rest of the world. We owe them a lot of money already. Printing to\r\npay off debt is going to ruin us.",
      "time": "2008-12-16T19:03:18",
      "id": "4434228",
      "parentPost": "While true, in most Ponzi schemes the schemer just can't create money, like the US Government can. Therefore the US won't default on its scheme, it can always just print more money such that everyone gets \"paid\" it's just that your money isn't worth as much as it once was.",
      "parentPostTime": "2008-12-16T19:33:05",
      "parentPostId": "4433649"
    },
    {
      "threadId": "8257954",
      "post": "Did you guys see this big ambush play on the 15 minute charts setting up right now? \r\nhttp://www.eminiaddict.com/2008/12/friday-pivot-play.html",
      "time": "2008-12-12T19:20:45",
      "id": "4371141"
    },
    {
      "threadId": "8173304",
      "post": "Did you uys see this 50% retracement this morning? http://www.eminiaddict.com/2008/12/emini-futures-market-analysis-for_09.html\r\n",
      "time": "2008-12-10T15:53:55",
      "id": "4309921"
    },
    {
      "threadId": "8129624",
      "post": "We just hit a huge ambush short at 900.25 on the ES. Target is 877.50. Might as well call it a 100% gap fill if it breaks out lows today",
      "time": "2008-12-09T21:09:36",
      "id": "4295454"
    },
    {
      "threadId": "7996859",
      "post": "I've seen that too. Are we going to have a head and shoulders or a\r\ndouble bottom? If we break higher that h and s will confirm.",
      "time": "2008-12-06T22:59:13",
      "id": "4228991",
      "parentPost": "Didn't get a reply to my chat question so I'll re-post it here: does anyone think an inverted head and shoulders is forming (on the 1 hour, and perhaps even 15 min charts)?",
      "parentPostTime": "2008-12-06T23:01:42",
      "parentPostId": "4228375"
    },
    {
      "threadId": "7800794",
      "post": "There is a lot of trouble out here in CA. I see yard sales and cars for sale\r\neverywhere..",
      "time": "2008-12-03T17:51:26",
      "id": "4150325",
      "parentPost": "great picture and sooo true.. Now I have a car to sell because all my money  went to mortgage and living expenses while building biz. ;)  ",
      "parentPostTime": "2008-12-03T17:14:06",
      "parentPostId": "4148914"
    },
    {
      "threadId": "7746755",
      "post": "I'm not bullish. I let the charts tell me that. Its just historically\r\nwe rally this time of year. Add that to the extreme oversold situation\r\nwe have and we have the perfect setup to rally. As far as tomorrow\r\ngoes I'm a bear right now. If we break above the pivot though I think\r\nwe could see a lot of shorts covering. Its just an opinion.",
      "time": "2008-12-01T04:30:47",
      "id": "4079134",
      "parentPost": "My question to you is why you so bullish :) Ill admit im short.",
      "parentPostTime": "2008-12-01T03:35:55",
      "parentPostId": "4078763"
    },
    {
      "threadId": "7616328",
      "post": "Thank you! Have a Happy Thanksgiving!!!!",
      "time": "2008-11-27T00:33:12",
      "id": "4032318",
      "parentPost": "LOL!  Love it!  Happy Thanksgiving to you and yours!",
      "parentPostTime": "2008-11-27T00:26:27",
      "parentPostId": "4032254"
    },
    {
      "threadId": "7156729",
      "post": "Well its good to have you here, and thanks!!",
      "time": "2008-11-18T01:08:56",
      "id": "3870104",
      "parentPost": "Don't worry, I'm not afraid to ask questions, or to admit how ignorant I am.\r\nI appreciate your encouragement.\r\nThere's someone on The Slope who I regard as a friend who is also papertrading the e-minis. I'll ask him if he knows about your site.\r\n\r\n",
      "parentPostTime": "2008-11-18T00:46:03",
      "parentPostId": "3869804"
    },
    {
      "threadId": "7030044",
      "post": "Haha. Just to let you know. If you click the arrow on that chat window\r\nit pops out and you can out it where ever you want",
      "time": "2008-11-15T23:10:48",
      "id": "3794448",
      "parentPost": "Thank you, I will. (When I can take my eyes off the screen!)",
      "parentPostTime": "2008-11-15T23:03:13",
      "parentPostId": "3794386"
    },
    {
      "threadId": "6982320",
      "post": "I know its hard to get used too. I used to stare at white charts and\r\nwhite backgrounds all day. I would end the day with my eyes burning. I\r\ntold a trader friend of mine about the problem and he suggested that I\r\nswitch my charts to black backgrounds. I haven't had the same problem\r\nsince. I doesn't feel as if my eyes are on fire after a long day. I\r\nguess its just a personal preference. I'm kind of commited to keep\r\nthis websites feel as I have branded it this way. If I got enough\r\ncomplaints I might consider it though. I appreciate your imput. I'd\r\nreally like to hear others opinions on it too.\r\nThanks for your time.",
      "time": "2008-11-15T21:59:47",
      "id": "3793948",
      "parentPost": "I wish you could write your paragraphs a bit more readable. Looking at\r\nall of that white text and black background, really turns my attention elsewhere. It is really \r\nuseful info, Id like to enjoy it more. All of the text blurs on the background. Maybe if \r\nyou changed the background color that would make a difference...",
      "parentPostTime": "2008-11-15T20:43:12",
      "parentPostId": "3792902"
    },
    {
      "threadId": "4886681",
      "post": "cool!! Click the contact me button right above the map. Ill email you\r\nback and then you can send it to me",
      "time": "2008-11-14T03:19:44",
      "id": "3765439",
      "parentPost": "Hi,\r\n\r\nI updated the spreadsheet to work right with the Nasdaq COMPQ data. How do I upload or email this spreadsheet back to you? I can be reached at raja.arun at gmail.",
      "parentPostTime": "2008-11-14T02:58:31",
      "parentPostId": "3765074"
    },
    {
      "threadId": "5152581",
      "post": "I agree completely. It's going to get real ugly out there real soon..",
      "time": "2008-11-13T16:56:46",
      "id": "3744064",
      "parentPost": "The general public really has no idea how bad this is. This bill was more a confidence issue then a bailout issue. The bill was drawn to restore confidence in the markets to both American and foreign investors alike",
      "parentPostTime": "2008-11-13T16:37:08",
      "parentPostId": "3743738"
    },
    {
      "threadId": "5554780",
      "post": "They are taking advantage of all this volatility too. Money is exchanging hands right now.. Lots of it!!!",
      "time": "2008-11-12T20:37:07",
      "id": "3720813"
    },
    {
      "threadId": "6942324",
      "post": "I like your analysis. I have 866.00 as a target. We come to a similar out come even through a totally different style of TA. Pretty cool. It's nice to get different read on it though.",
      "time": "2008-11-12T15:30:43",
      "id": "3703207"
    },
    {
      "threadId": "6919411",
      "post": "Thanks for the feedback Sam. I need to figure it out.",
      "time": "2008-11-12T05:08:32",
      "id": "3697720",
      "parentPost": "It is happening to me too where the video just turned white.  I think it has just happened when you added the chat, imo.  I just hit reload and it usually comes back.",
      "parentPostTime": "2008-11-12T04:45:02",
      "parentPostId": "3697528"
    },
    {
      "threadId": "6877678",
      "post": "You are welcome.",
      "time": "2008-11-11T15:15:05",
      "id": "3678932",
      "parentPost": "Just wanted to pass on my gratitude for what you are trying to do here, especially the videos. I've mostly swing-traded options up to this point, but felt a little intimidated by futures. That's changing. Keep up the good work.       ",
      "parentPostTime": "2008-11-11T07:53:28",
      "parentPostId": "3675842"
    },
    {
      "threadId": "6721089",
      "post": "It would be interesting to find out what their formula is. We just\r\nhave a 50 point ES and 500 point YM halt rule that only applies\r\nafterhours. I do here about trading getting halted from time to time\r\non individual stocks. I don't know what triggers the halt though. Ill\r\nhave to do some research on it.",
      "time": "2008-11-09T16:13:17",
      "id": "3644683",
      "parentPost": "No, the exhange rules over there wont permit trading of an issue if it clearly sees that liquidity is a problem. Some form of crash protection module. ",
      "parentPostTime": "2008-11-09T13:04:46",
      "parentPostId": "3643513"
    },
    {
      "threadId": "6764549",
      "post": "My pleasure! Thanks for stopping by!!",
      "time": "2008-11-09T09:06:15",
      "id": "3642305",
      "parentPost": "Your videos are great - thanks man!",
      "parentPostTime": "2008-11-09T09:02:33",
      "parentPostId": "3642290"
    },
    {
      "threadId": "290563",
      "post": "Have there been any update as of yet? It would be really nice to embed img urls in the comment.\r\nThanks!!",
      "time": "2008-11-07T16:53:31",
      "id": "3593985"
    },
    {
      "threadId": "6675500",
      "post": "Great! I'll do a video on how to set up your charts today.",
      "time": "2008-11-07T15:50:15",
      "id": "3592919",
      "parentPost": "I'm eagerly waiting for more in this series!",
      "parentPostTime": "2008-11-07T14:11:36",
      "parentPostId": "3591426"
    },
    {
      "threadId": "6720757",
      "post": "There you go. I posted a 233 tick chart above. Let me know if you have any other questions.",
      "time": "2008-11-07T08:07:32",
      "id": "3588768",
      "parentPost": "Hi\r\nCould you please add a few more lines of explanation to your analysis. For example there is no gap that I could find on the chart plus I did not understand where you would have shorted on gap fill as you mentioned. Please add a little bit more explanation if possible.\r\nThanks\r\n",
      "parentPostTime": "2008-11-07T06:51:08",
      "parentPostId": "3586498"
    },
    {
      "threadId": "6605343",
      "post": "Lots of people got spanked on that one.. I didn't hear anything on the news about anyone jumping from high building.. They must have been ground level offices..",
      "time": "2008-11-04T07:24:19",
      "id": "3469217"
    },
    {
      "threadId": "6591657",
      "post": "Its a wrap!! It will be interesting to see if the markets rally on the\r\nnews. Thanks for the info..",
      "time": "2008-11-04T01:58:17",
      "id": "3465899",
      "parentPost": "More Bad News Today:\r\n\r\nRealClearPolitics\r\nObama \t\tMcCain \t\tSpread \r\n\r\nRCP National Average \t\t51.2 \t\t44.2 \t\tObama \t+7.0 \r\nFavorable Ratings \t\t+17.0 \t\t+9.3 \t\tObama +7.7 \t\r\nIntrade Market Odds \t\t90.7 \t\t10.0 \r\nElectoral College \r\nRCP Electoral Count\t\t 278\t\t 132 \t\tObama +146 \r\nNo Toss Up States \t\t338 \t\t200 \t\tObama +138 \r\n\r\nBattleground States\r\nFlorida \t\t\t\t48.5 \t\t46.0 \t\tObama +2.5 \r\nNorth Carolina \t\t\t47.8 \t\t47.8 \t\tTie \r\nVirginia \t\t\t\t50.0 \t\t45.8 \t\tObama +4.2 \r\nOhio \t\t\t\t49.3 \t\t45.0 \t\tObama +4.3 \r\nMissouri \t\t\t47.2 \t\t47.6 \t\tMcCain +0.4 \r\nColorado \t\t\t50.5 \t\t45.0 \t\tObama +5.5 \r\nNevada \t\t\t\t49.6 \t\t43.4 \t\tObama +6.2\r\n\r\n\r\n\r\nLA Times\r\nNov. 3\r\n\r\nFinal Rove electoral map sees large Obama win over McCain\r\n\r\nWell, the final day before the official presidential voting and the final version of Karl Rove's exclusive national electoral map sees a strong victory for Barack Obama, gaining the most electoral votes since Bill Clinton's lopsided win over Bob Dole in 1996.\r\n\r\nAccording to the research of compiled state polls by Karl Rove & Co., the hypothetical electoral college numbers suggest an Obama win over the Republican ticket of John McCain and Sarah Palin of 338 electoral votes to 200.\r\n\r\nFor the final report, Rove has allocated each state to the candidate leading there in state polls today.\r\n\r\nAccording to these calculations, Obama takes hard-fought Florida. But McCain edges ahead in Indiana, Missouri, North Dakota and North Carolina.\r\n\r\nRove notes that Obama and McCain are in dead heats in North Carolina and Missouri, but the most recent polls over the weekend show a trend toward the Republican ticket. \"Florida, too, could end up in McCain’s column,\" Rove adds, \"since he’s benefited from recent movement in the state.\" But it's not enough for the Arizona senator to capture the necessary 270.\r\n\r\nFor an explanation of the research methodology and for a chart showing the study's movements week by week since July 1, click on the Read more line below. The Ticket's appreciation to Rove & Co. for its permission to publish these polls simultaneously throughout the recent hotly contested months.\r\n\r\n--Andrew Malcolm\r\n\r\nThe Street.Com\r\nPolls: Obama First, McCain Second\r\n\r\n11/03/08 - 05:01 PM EST\r\n\r\n\r\nEight national presidential polls released Monday put Sen. John McCain (R., Ariz.) behind Sen. Barack Obama (D., Ill.) in the race for the White House Tuesday. McCain loses in every poll by an average of more than seven points, confirming predictions by many pundits of a McCain loss in the popular vote.\r\n\r\nMcCain's only chance for a win would be an unlikely scenario similar to 2000 when President Bush upset Al Gore by winning the electoral college. However, the swing state polls show McCain is in the hole there as well, and any upset scenario forces a focus on the several big states -- Florida, North Carolina, Ohio, Pennsylvania and Virginia.\r\n\r\nOhio has served as an accurate predictor of the presidential race since 1960. Despite McCain focusing on the home state of Joe the Plumber, he has fallen behind in Ohio in most presidential polls. The most favorable poll for McCain, conducted by Fox, has McCain tied with Obama. The poll least favorable to McCain's chances, Quinnipiac, has him down seven points.\r\n\r\n\r\nMonday, November 3, 2008 - 10:28 AM EST \r\nNew poll: Obama leads by 10 points in Pa.\r\nPittsburgh Business Times\r\nA new poll finds Democrat Barack Obama holding a substantial lead over Republican John McCain in Pennsylvania, as the two candidates campaign down to the wire Monday.\r\n\r\nThe final pre-election poll from Quinnipiac University shows Obama with a 10-point lead over McCain. Obama leads 52 percent to 42 percent, the poll found, compared to last week's poll, which showed Obama with a slightly larger lead of 11 points, with 53 percent to McCain's 41 percent.\r\n\r\nObama also leads McCain in Ohio by seven percentage points, 50 percent to 43 percent. The other swing state in Quinnipiac's poll, Florida, is still too close to call, the poll found.\r\n\r\nThe poll surveyed likely voters between Oct. 27 and Nov. 3.\r\n\r\n\r\n\r\n\r\nPoll Shows Obama Deflected Recent Attacks\r\nRepublicans Challenged Democrat on Taxes, Readiness and Crisis Management\r\n\r\nMonday, November 3, 2008; Page A09 \r\n\r\nWith one day to go, Democrat Barack Obama appears to have rebuffed recent GOP efforts to label him as \"too liberal\" or too big a gamble. \r\n\r\nThe new Washington Post-ABC News tracking poll puts Obama well out in front over Republican John McCain and finds that Obama has firmly reestablished his advantage on handling the economy, beaten back a challenge on taxes and has an edge in terms of perceptions about which candidate would better deal with an unexpected major crisis. \r\n\r\n\r\nNovember 2, 2008, 7:00 PM\r\nCBS Poll: Obama Maintains 13 Point Lead\r\nPosted by Brian Montopoli| 138\r\n\r\n\r\nWith two days left until the presidential election, Barack Obama continues to lead John McCain by 13 points among likely voters, 54 percent to 41 percent, a new CBS News poll finds. The margin in the new poll, released Sunday, is identical to that in a CBS News poll released Saturday. \r\n\r\nAs the number of undecided voters has dwindled, so has the number that says their minds can still change. More than nine in 10 of each candidate’s voters now say they have made up their minds about who to vote for and are not likely to change. Just seven percent of Obama voters and 8 percent of McCain voters say they still might change their minds. \r\n\r\nWith two days to go, only 8 percent of likely voters are uncommitted – either they have not yet chosen a candidate, or their minds could still change. Nearly all of these uncommitted voters say they plan to vote. \r\n\r\n\r\nABC News\r\n\r\nDaily Tracking Poll: Not Just Economy and Bush; Palin Is Trouble for McCain Too\r\nObama Leads McCain 54-43 in Latest ABC News/Washington Post Poll\r\nANALYSIS by GARY LANGER\r\nNov. 3, 2008  \r\nBarack Obama's strong close in the 2008 campaign has been boosted by more than the shell-shocked economy and the Bush legacy. There's also Sarah Palin, and the concern she incites, especially among voters who are worried about John McCain's age. \r\nMore PhotosForty-six percent of likely voters now say having Palin on the ticket makes them less likely to support McCain -- up 14 points in just the past month and more than double what it was in early September. And among those who call the candidates' age an important factor in their vote, more, 61 percent, say Palin makes them less likely to back McCain. \r\n\r\n\r\nNat Public Radio\r\nAll Things Considered, November 2, 2008 · The final Pew Research Center poll of the 2008 presidential election gives Barack Obama a 49 to 42 percent lead over his rival, John McCain. Though still a significant lead, it's suddenly a much tighter race than Obama's 15-point lead from last week. \r\n\r\nThere are two things closing the gap, says Andrew Kohut of the Pew Research Center. First, McCain has made some gains among whites, independents and middle-income voters. But the other boost he's enjoying comes from narrowing the pool of responses from registered voters to likely voters.\r\n\r\nTypically, Republican voters tend to vote more regularly than some Democratic voting groups — particularly young people and blacks, Kohut says. So while turnout is up among those groups, it's also up across the board — giving Republicans a boost when the poll focuses on likely voters.\r\n\r\nIt may not be as strong as a week ago, but Obama's lead in the Pew poll agrees with several national polls that have him ahead by a 5-point average. \r\n\r\n\"This is a pretty substantial lead,\" Kohut says. \"We haven't had a lead for a candidate this substantial since 1996, when President Clinton was leading Sen. Dole in the final weekend of the campaign.\" \r\n\r\nBut that's not the only poll data leaning in Obama's favor.\r\nThe strength of each candidate's support among likely voters has historically been a significant indicator of a race's outcome. According to the Pew poll, 36 percent of likely voters say they strongly support Obama, while only 24 percent say they are strong supporters of McCain.\r\n\r\n\"Typically,\" Kohut says, \"if we look back to elections going back to 1960, invariably the candidate with the stronger support wins the election.\"\r\n\r\n",
      "parentPostTime": "2008-11-04T01:44:15",
      "parentPostId": "3465714"
    },
    {
      "threadId": "6593676",
      "post": "I think it was fox business news. Peter Schiff hasn't been allowed on other\r\nbusiness news channels ever since he has been calling for the end on the\r\nprosperity in America.",
      "time": "2008-11-03T23:57:23",
      "id": "3464152",
      "parentPost": "Thanks for posting this - I hadn't seen it\r\n\r\nWhat station was this?",
      "parentPostTime": "2008-11-03T23:52:45",
      "parentPostId": "3464086"
    },
    {
      "threadId": "6446476",
      "post": "Haha, yeah it seems like there is no end to their meddling. In trying to\r\nsave 3 million they are going to create another couple hundred million that\r\nwant a handout.",
      "time": "2008-10-31T05:11:10",
      "id": "3404141",
      "parentPost": "I was going to short TOL at the 200 day =22.  \r\nNow if TOL gets above the 200 day, at least I'll know why. \r\nGov'r is trying to save 3 million homeowners.",
      "parentPostTime": "2008-10-31T04:43:07",
      "parentPostId": "3403887"
    },
    {
      "threadId": "6410050",
      "post": "Umm. I have a life, and a sense of humor, at least I thought I did. I'm not sure if everything related to him is racist. Cartoonist have been drawing funny pictures of presidents for as long as there has been a printed page. I understand that tensions are high though. Sorry you were offended. \r\nThanks for the kind words..",
      "time": "2008-10-30T15:00:01",
      "id": "3390900"
    },
    {
      "threadId": "6301840",
      "post": "If you'd like you can subscribe by email and it will send updates to your\r\ninbox\r\nhttp://www.feedburner.com/fb/a/emailverifySubmit?feedId=2193152",
      "time": "2008-10-29T19:21:27",
      "id": "3367894",
      "parentPost": "ok but how do you gain confidence in the usefulness of the pivots...is the software using some standardised method ?",
      "parentPostTime": "2008-10-29T15:20:45",
      "parentPostId": "3363446"
    },
    {
      "threadId": "6310978",
      "post": "I think that is the scariest part. Even Greenspan said he didn't know.\r\nIt amazing that it was against the law for over 100 years. Now those\r\npolicies have created two market crashes. When they said it was a\r\nhundred year event they weren't kinding huh..",
      "time": "2008-10-28T01:44:18",
      "id": "3335351",
      "parentPost": "Wow. Maybe your right DH , but as the guy on the end said \" we dont know \". ",
      "parentPostTime": "2008-10-28T01:36:12",
      "parentPostId": "3335231"
    },
    {
      "threadId": "6191639",
      "post": "Seesmic video reply from Disqus.",
      "time": "2008-10-27T16:30:20",
      "id": "3326019",
      "parentPost": "Thank you, I think i was wondering that as well.......but I was going after how you get TOS to show only \"one\" pivot line?  That white line that shows on your charts......",
      "parentPostTime": "2008-10-27T00:30:11",
      "parentPostId": "3315335"
    },
    {
      "threadId": "6176147",
      "post": "Whoa, We have failed the daily pivot. Down 386 points after hours. That is the biggest drop I have ever seen after the bell. ",
      "time": "2008-10-24T07:11:43",
      "id": "3269635",
      "parentPost": "Nice job halsey!",
      "parentPostTime": "2008-10-24T02:38:51",
      "parentPostId": "3267698"
    },
    {
      "threadId": "6147257",
      "post": "That was one of the best trading days of my life. We didn't make it to the ambush zone but it was close. I caught 50 points on the ES with two contracts. \r\n\r\nYeah, freakin awesome..",
      "time": "2008-10-23T22:20:09",
      "id": "3263934"
    },
    {
      "threadId": "6055549",
      "post": "New Post http://www.eminiaddict.com/2008/10/market-analysis-for-tuesday.html",
      "time": "2008-10-21T05:05:18",
      "id": "3197698"
    },
    {
      "threadId": "5864365",
      "post": "The new phone seems to be a Iphone copy. The problem is it isn't even in the same ballpark. They have a long way to go. ",
      "time": "2008-10-16T19:31:11",
      "id": "3098341"
    },
    {
      "threadId": "4892044",
      "post": "I have never had any training in it. I have visited a spread betting prop\r\nfirm. It didn't seem like my kind of style. I just do what I'm comfortable\r\nwith.",
      "time": "2008-10-16T19:30:25",
      "id": "3098327",
      "parentPost": "Help - Is spread betting any Good !! I ve been burnt quite badly by it?",
      "parentPostTime": "2008-10-16T19:21:16",
      "parentPostId": "3098123"
    },
    {
      "threadId": "5851408",
      "post": "Does the VIX even have any meaning anymore?",
      "time": "2008-10-16T17:34:29",
      "id": "3096317"
    },
    {
      "threadId": "5852875",
      "post": "That's funny.. Has she called you on it yet?? ",
      "time": "2008-10-16T17:32:52",
      "id": "3096301",
      "parentPost": "um, I guess an answer to that would be a good test to see whether my wife\r\nreads the comments, lol.",
      "parentPostTime": "2008-10-16T17:30:25",
      "parentPostId": "3096267"
    },
    {
      "threadId": "5839311",
      "post": "Congrats!!!",
      "time": "2008-10-16T06:46:27",
      "id": "3085226"
    },
    {
      "threadId": "5836162",
      "post": "Great stuff. I'm not an elliot wave expert. We come up with the same levels though. I have the Daily pivot at 933.00 for tomorrow. Looks like you have that level on your charts.",
      "time": "2008-10-16T06:30:40",
      "id": "3085059"
    },
    {
      "threadId": "5829174",
      "post": "The vix is off the charts. I'm with you. Enjoy it while the\r\nvoliltility while it lasts..",
      "time": "2008-10-16T01:50:19",
      "id": "3081293",
      "parentPost": "Plus, it's so easy to trade the pivots right now. The 'scare me' upswings before leaving the pivot behind are almost of the obligatory kind - no meat in it. I day traded some cubes and DIA options today and it was like taking candy from a baby. ",
      "parentPostTime": "2008-10-16T00:49:17",
      "parentPostId": "3079305"
    },
    {
      "threadId": "5820583",
      "post": "Let free markets be free.",
      "time": "2008-10-15T19:43:16",
      "id": "3074947",
      "parentPost": "The markets would have been better off without morons doing stupid things.\n\nThis is damage control.\n\nAll you clowns that keep wishing for 'leave the markets alone' would not like the result if they did that.",
      "parentPostTime": "2008-10-15T19:39:34",
      "parentPostId": "3074864"
    },
    {
      "threadId": "5785687",
      "post": "The things that CNBC reports as news amazes me.",
      "time": "2008-10-14T23:03:24",
      "id": "3053661"
    },
    {
      "threadId": "5627066",
      "post": "Thanks for stopping by and commenting Rob..",
      "time": "2008-10-14T22:36:13",
      "id": "3053294",
      "parentPost": "I am following you. Your observations are helpful to me.",
      "parentPostTime": "2008-10-14T22:24:13",
      "parentPostId": "3053160"
    },
    {
      "threadId": "5026529",
      "post": "Whoa!! That is awesome.. Thanks for the heads up!",
      "time": "2008-10-13T14:43:14",
      "id": "3022354",
      "parentPost": "Great job DH!  You're on the top of the google search for $prem numbers.",
      "parentPostTime": "2008-10-13T12:23:19",
      "parentPostId": "3020796"
    },
    {
      "threadId": "5481872",
      "post": "Another thing we have to take into account is the ability to lend. The times of cheap and easy financing are over. \r\n",
      "time": "2008-10-07T19:08:12",
      "id": "2922012"
    },
    {
      "threadId": "5472297",
      "post": "1044 is a 50% retracement of this move up. Ambush area.",
      "time": "2008-10-07T16:31:45",
      "id": "2919426"
    },
    {
      "threadId": "5236021",
      "post": "Warren is praying right now that congress is going to pass this bill...",
      "time": "2008-10-01T20:07:04",
      "id": "2786503"
    },
    {
      "threadId": "5053691",
      "post": "It's scary. If you listen to CNBC they are talking about the bill not\r\npassing at all anymore.",
      "time": "2008-10-01T17:14:16",
      "id": "2783720",
      "parentPost": "Yeps, It's happenning now",
      "parentPostTime": "2008-10-01T17:10:01",
      "parentPostId": "2783659"
    },
    {
      "threadId": "5159357",
      "post": "Ha-ha, yeah. They have been playing a game all right. The re-buy they were\r\nlooking for didn't come though. Did you see Nancy Pelosi? She looked like\r\nshe was going to cry.",
      "time": "2008-09-30T02:03:13",
      "id": "2743688",
      "parentPost": "Hehe. I would love to play \"WAR\" with Hank and Ben. Or Risk.\r\n\r\nHell. I wanna play high stakes poker with these clowns. No re-buys though... dirty bastards.",
      "parentPostTime": "2008-09-30T01:17:42",
      "parentPostId": "2743233"
    },
    {
      "threadId": "5123046",
      "post": "Here is an update on my trades for the day. So far it has only been one short position. $1635 in profit for the day. Waiting for word on the bailout.\nhttp://i312.photobucket.com/albums/ll357/DHalsey77/2008-09-29_1014.png",
      "time": "2008-09-29T17:17:50",
      "id": "2734039"
    },
    {
      "threadId": "5119910",
      "post": "Here is a post from Tim Knight for the slope of hope http://slopeofhope.com/2008/09/ultimo_hombre.htm\r\nQuote\r\n\r\n\r\n    Things are seldom what they seem, Skim milk masquerades as cream; Highlows pass as patent leathers; Jackdaws strut in peacock's feathers.\r\n\r\n I imagine the bulls are thrilled to pieces that the government has whored itself out to Wall Street in the grandest way possible and saddled future generations with yet more debt that can never be repaid. The bulls probably think it's party time.\r\n\r\nThey're wrong.\r\n\r\nEven some of my most beloved readers think I have overstayed my welcome in the bear's land. But let me tell you my point of view.\r\n\r\nIf the government, to date, had the political courage to have done absolutely nothing, the bear market would already be over. We would have seen the Dow a couple of thousand points lower, there would be sweeping financial damage. And we'd be done by now. And this delicious market, which I've been enjoying so much, would have left town, and I'd be faced again with trying very hard how to be a bull.\r\n\r\nBut............\r\n\r\nThe government has interfered, and interfered mightily. At every possible turn, they have stuck it to the taxpayers so that Henry Paulson would line the pockets of his golf buddies. And, having done so, he has handed me a gift. The gift of a bear market that is going to go on for another six years or so.\r\n\r\nIt won't be all down. And it won't always be easy. But, instead of getting all the pain out of the way, Paulson has created a situation where I'm going to get to wallow around in honey for years to come. end quote.\r\n\r\nI could agree more. Very well said.\r\n\r\nI think what is happening is a complete disgrace. But the perverse irony here is that the bulls are about to get smacked worse than ever, and they're not going to know what the hell to do next.",
      "time": "2008-09-28T22:47:18",
      "id": "2719196"
    },
    {
      "threadId": "5048169",
      "post": "Ha-ha.. Yeah, that saying is so true.",
      "time": "2008-09-26T23:19:15",
      "id": "2649711",
      "parentPost": "The market can stay irrational longer than you can stay solvent...\r\n\r\nHehe...",
      "parentPostTime": "2008-09-26T23:06:47",
      "parentPostId": "2649579"
    },
    {
      "threadId": "5050943",
      "post": "Citigroup rose 3.8 per cent to $US20.15 and Wachovia tumbled 27 per cent to $US10.00 after reports cited possible merger talks between the two ailing banks.",
      "time": "2008-09-26T21:35:16",
      "id": "2648099"
    },
    {
      "threadId": "4960641",
      "post": "These are the best day trading videos that I have found. Enjoy!",
      "time": "2008-09-26T19:34:52",
      "id": "2646170"
    },
    {
      "threadId": "5012220",
      "post": "I completely agree.",
      "time": "2008-09-26T01:08:29",
      "id": "2634817",
      "parentPost": " Have you looked who stands to gain the most from these bailouts?  The Federal Reserve System.  nomedals.blogspot.com",
      "parentPostTime": "2008-09-25T22:56:52",
      "parentPostId": "2633205"
    },
    {
      "threadId": "5013842",
      "post": "I sure did, but it was a break even trade. It was worth a shot.",
      "time": "2008-09-25T23:26:12",
      "id": "2633604"
    },
    {
      "threadId": "5016724",
      "post": "Kudos to you.\r\nI'm have always wondered what it would be like to manage other peoples money. I don't think I could do it. It must be stressful. \r\n\r\nR.I.P RIMM",
      "time": "2008-09-25T23:24:29",
      "id": "2633559"
    },
    {
      "threadId": "5011450",
      "post": "I know, One cent off and they take it to the cleaners. I'm going to be watching RIMM tomorrow morning at the open to see if it will close it's gap to a 50% fib line. It has already come up from it's lows of 80.00",
      "time": "2008-09-25T20:56:19",
      "id": "2631557"
    },
    {
      "threadId": "4976483",
      "post": "In March 1998, Chrysler was worth $36 billion to what was then called Daimler-Benz AG. Today, Daimler sold an 80% stake of the same operation in a deal it valued at $7.4 billion, The deal actually cost Daimler $650 million. ",
      "time": "2008-09-24T23:01:41",
      "id": "2580697"
    },
    {
      "threadId": "4965091",
      "post": "I'm sure they aren't counting the money he has spent trying to promote his clean energy with nation wide advertising either.",
      "time": "2008-09-24T18:18:32",
      "id": "2573036"
    },
    {
      "threadId": "4947160",
      "post": "Ron Paul is going to be drilling Paulson and Bernanke soon..",
      "time": "2008-09-24T15:30:01",
      "id": "2570560",
      "parentPost": "",
      "parentPostTime": "2008-09-24T09:12:52",
      "parentPostId": "2557365"
    },
    {
      "threadId": "4930922",
      "post": "The YM is up 140 points after hour right now",
      "time": "2008-09-23T23:14:13",
      "id": "2552426",
      "parentPost": "",
      "parentPostTime": "2008-09-23T23:10:31",
      "parentPostId": "2552377"
    },
    {
      "threadId": "4889809",
      "post": "It's funny how the fed thinks they can manipulate this market. What happens\r\nwhen we break our lows before congress approves this bill?",
      "time": "2008-09-23T20:31:10",
      "id": "2550157",
      "parentPost": "Do you think that we are going to continue to sell off all day?",
      "parentPostTime": "2008-09-23T17:30:38",
      "parentPostId": "2544166"
    },
    {
      "threadId": "4913976",
      "post": "That was crazy..",
      "time": "2008-09-23T20:10:25",
      "id": "2549875",
      "parentPost": "I totally agree.",
      "parentPostTime": "2008-09-23T17:16:31",
      "parentPostId": "2543938"
    },
    {
      "threadId": "4862701",
      "post": "On CNBC they keep talking about \"What if this does not work\" It's only a matter on time before we test these lows again. ",
      "time": "2008-09-22T17:20:58",
      "id": "2522122"
    },
    {
      "threadId": "4862552",
      "post": "test number2\r\n",
      "time": "2008-09-22T08:15:23",
      "id": "2516942"
    },
    {
      "threadId": "2376677",
      "post": "Is there anyone out there that can help me integrate Disqus into my blogspot blog for a fee? I have been trying for days now and can't seem to get it to work.\r\nHelp please!",
      "time": "2008-09-08T16:46:31",
      "id": "2232357"
    },
    {
      "threadId": "4080784",
      "post": "Great post...",
      "time": "2008-09-03T19:50:50",
      "id": "2034426"
    },
    {
      "threadId": "3727531",
      "post": "what's your take on the SPX. I'm short term bullish to the 1320 area.\r\nLooking at the chart on a weekly it could go as low as 1100 by end of\r\nyear imo. Another shoe has to drop before that though.",
      "time": "2008-08-28T05:23:17",
      "id": "1889896",
      "parentPost": "Pretty much my area of interest - I also have done a lot of Gold trading (call me the resident gold bug). Short Gold right now actually - should not retrace much above 860-880 before it takes another nosedive down.",
      "parentPostTime": "2008-08-28T01:28:43",
      "parentPostId": "1881350"
    },
    {
      "threadId": "3778320",
      "post": "Thanks zstock. \r\nYou're in there too now I just added you to my blogroll.\r\nD-seven is the owner of freetradingvideos. That is a great site. I started trading there.\r\nCheers..",
      "time": "2008-08-27T07:57:55",
      "id": "1864646",
      "parentPost": "I'm busy watching all those video's ( currently d-seven's) at your site.  I even put the location in my blog roll.  I really like new and refreshing complex sites the way you've designed yours.  \r\nI'm so glad you're on Disqus.  I saw your blog roll__those are all the sites I visit too!!!",
      "parentPostTime": "2008-08-27T07:37:08",
      "parentPostId": "1864495"
    },
    {
      "threadId": "3765073",
      "post": "Man that brings back some memories",
      "time": "2008-08-27T04:21:22",
      "id": "1863504"
    },
    {
      "threadId": "3736240",
      "post": "I agree with you completely, A break of 1260 might start the next leg down. If you look on a monthly SPX chart, and measure the last move. We could be at SPX 1100 by Christmas. I don't the PPT team will let that happen though.\r\n\r\nBTW, great blog. I'm going to add you to my blogroll if it's ok with you.\r\nI have a futures blog  www.dhalsey.blogspot.com",
      "time": "2008-08-27T03:48:49",
      "id": "1862187"
    },
    {
      "threadId": "3704760",
      "post": "I've added you too.. Thanks for the link! I appreciate it. ",
      "time": "2008-08-26T15:20:58",
      "id": "1852005"
    },
    {
      "threadId": "3689592",
      "post": "Hey there!\r\nMy name is David Halsey. I have a trading blog dedicated to futures trading. I've visited you site for the last couple months and really enjoy reading your posts. I was wondering if you consider including me in your blog roll. I'd be happy to do the same for you. Take a look at my blog or follow it for a while www.dhalsey.blogspot.com. If you like what you see please add me. I'd really appreciate it.\r\nThank you,\r\nDhalsey",
      "time": "2008-08-25T15:00:06",
      "id": "1826620"
    }
  ],
  "profileInfo": {
    "username": "Dhalsey",
    "about": "I'm a Futures Trader, Stock Market Junkie, and Blogger...",
    "name": "Emini Addict",
    "disable3rdPartyTrackers": false,
    "isPowerContributor": false,
    "isAnonymous": false,
    "rep": 1.616877,
    "profileUrl": "https://disqus.com/by/Dhalsey/",
    "url": "http://eminiaddict.com/",
    "reputation": 1.616877,
    "location": "",
    "isPrivate": false,
    "signedUrl": "http://disq.us/?url=http%3A%2F%2Feminiaddict.com%2F&key=1ikQds71KBL5iEFctgijhw",
    "isPrimary": true,
    "joinedAt": "2008-08-06T14:36:10",
    "id": "77448",
    "avatar": {
      "small": {
        "permalink": "https://disqus.com/api/users/avatars/Dhalsey.jpg",
        "cache": "//a.disquscdn.com/uploads/users/7/7448/avatar32.jpg?1393293507"
      },
      "isCustom": true,
      "permalink": "https://disqus.com/api/users/avatars/Dhalsey.jpg",
      "cache": "//a.disquscdn.com/uploads/users/7/7448/avatar92.jpg?1393293507",
      "large": {
        "permalink": "https://disqus.com/api/users/avatars/Dhalsey.jpg",
        "cache": "//a.disquscdn.com/uploads/users/7/7448/avatar92.jpg?1393293507"
      }
    }
  }
}