{
  "comments": [
    {
      "threadId": "4351135399",
      "post": "Because Kovie = Nigeria?",
      "time": "2015-11-29T11:29:26",
      "id": "2383696243",
      "parentPost": "Kovie talks about 'multiculturalism' but I don;t see her country - Nigeria - welcoming minorities. And the current chair of the African Union - Robert Mugabe - is a well known racist and homophobe, and yet she stays mute on that topic.\n\n\nI wonder what Native Americans think of refugees like Kovie arriving on their shores? Just another colonist right?",
      "parentPostTime": "2015-11-26T06:58:34",
      "parentPostId": "2379427518"
    },
    {
      "threadId": "3914489210",
      "post": "HAHAHAHA I'm guilty of 1, 4, 5, 7 and 8!",
      "time": "2015-07-08T06:47:02",
      "id": "2122963281"
    },
    {
      "threadId": "3907185912",
      "post": "Good job!",
      "time": "2015-07-05T18:50:16",
      "id": "2118171176"
    },
    {
      "threadId": "2029712428",
      "post": "WOW",
      "time": "2013-12-06T19:35:05",
      "id": "1153242482"
    },
    {
      "threadId": "1979178901",
      "post": "What's the equivalent of Photoshop in trimming one's body fat down in videos? This doesn't make sense Nick Knight!!!",
      "time": "2013-11-19T13:37:27",
      "id": "1129518785"
    },
    {
      "threadId": "1926876198",
      "post": "It's as if it's insulting/degrading to collaborate with one another. Currently, to me, Google's heading a good design direction and it seems HTC is actually listening more to their users and are actually incorporating lots of default Android design into their phones... The biggest problem is, both Apple and Android have different aesthetics and at least one of them is stubborn/full of pride. I find it ridiculous that I need to make two icons for my app, for iOS and Android, in order for it to look good and be good enough for the os it will be running on.",
      "time": "2013-11-01T19:27:48",
      "id": "1105327585"
    },
    {
      "threadId": "1226769697",
      "post": "Your message if probably the most human message I've ever read for the longest time.",
      "time": "2013-04-28T09:26:46",
      "id": "878332585",
      "parentPost": "This isn't a poem for Dzjokhar, it's a poem for yourself because you imagine you know how he feels. This just makes you the CNN of poets, though - you didn't know this boy, but you're putting words and feelings into his mouth when he can't anymore. Sometimes a huge crowd and the lack of a time delay turns an act of creative response to tragedy into something hurtful and presumptuous, and this feels like one of those times to me. You are trying to be empathetic but you are papering over his real personality with one you've constructed for the purpose of empathy. Please don't make this about you, and don't make your own feelings into his feelings using the megaphone you wield. Be better than CNN.\n\n\n-A fan",
      "parentPostTime": "2013-04-21T19:54:23",
      "parentPostId": "871415470"
    },
    {
      "threadId": "1226994942",
      "post": "Nothing makes sense in this whole thing. Why must they rob 7-11 a couple of days after the bombing? How come the older brother was killed first? The younger brother supposedly ran him over, both of which were driving in their own separate cars. The kid supposedly left the car and went on foot, and the cops didn't catch him? He went on hiding in a boat, the cops didn't find him and the boat is near where the older brother was killed. Where were the explosives? Does he have a gun with him. How was he able to exchange gunfires with the cops in the boat, which isn't big at all. How was he able to swear when he has a self inflicted gunshot on the neck? I don't think it will be hard to kill himself if he was able to do all that. Whatever. This kid is already guilty, regardless if he isn't, every piece of news indicates that and everyone beleives so.",
      "time": "2013-04-22T21:26:12",
      "id": "872606623",
      "parentPost": "Doesn't make sense.  How was he able to talk in the ambulance after supposedly shooting himself in the neck and not be able to talk after he got to the hospital?  Did the insertion of breathing tube damage his vocal cords?",
      "parentPostTime": "2013-04-21T22:33:37",
      "parentPostId": "871554119"
    },
    {
      "threadId": "1006548094",
      "post": "Google the shoes complete with model type/name... say I want Isabel Marant's wedge sneakers, I Image Google that, then it will, well show me the shoes and people wearing it :) but it doesn't always work and I agree someone should make a website for something like that! Or at least Nordstrom should allow people to upload their own images.",
      "time": "2013-01-04T08:02:41",
      "id": "755347345",
      "parentPost": "We are going to be leaving the desert in 13 months, so we got time!  :) \nWhat do you Google to find people wearing the item you are considering? Like, if I'm browsing the sale section of Nordstroms and find a pair of heels I really like, I want to be able to find photos of people actually wearing those specific heels in real life.  Does that make sense?",
      "parentPostTime": "2013-01-04T02:51:53",
      "parentPostId": "755170292"
    },
    {
      "threadId": "999458718",
      "post": "Happy new year Sheryn!!!",
      "time": "2013-01-01T18:08:07",
      "id": "752729853"
    },
    {
      "threadId": "884569003",
      "post": "Congratulations Sheryn & Simon!!!",
      "time": "2012-10-21T20:41:32",
      "id": "688625774"
    },
    {
      "threadId": "852522283",
      "post": "Looking forward to the guide!",
      "time": "2012-09-21T11:38:06",
      "id": "657703139"
    },
    {
      "threadId": "734419923",
      "post": "Social House.",
      "time": "2012-06-22T09:21:52",
      "id": "564339813",
      "parentPost": "where is this?",
      "parentPostTime": "2012-06-21T17:42:41",
      "parentPostId": "563804088"
    },
    {
      "threadId": "723921758",
      "post": "Haha! I have a microwave oven, it's all good. I might do this.",
      "time": "2012-06-13T10:46:49",
      "id": "556068173",
      "parentPost": "I saw the movie Extremely Loud and Incredibly Close... I liked it, but found it heavy.  Like how Meet Joe Black was mentally heavy and scary in that way (real, I guess).  No oven?  Not even a toaster oven?  Someone needs to rectify that for you!  :)",
      "parentPostTime": "2012-06-13T10:42:44",
      "parentPostId": "556065336"
    },
    {
      "threadId": "715149202",
      "post": "THIS IS AMAZING!!!",
      "time": "2012-06-06T18:38:21",
      "id": "549019101"
    },
    {
      "threadId": "715413874",
      "post": "I love Thai Choice, this looks good. I will try to make one. And, Dried Shrimp is good!",
      "time": "2012-06-06T15:18:03",
      "id": "548834978"
    },
    {
      "threadId": "703181532",
      "post": "Beesly is so nice and still! Try reading Eating Animals. I wanted to do that, that book made me want to do it so bad although i stopped midway because, then I know i will just last on it and specially because i had little resources before moving here, plus I don't prepare my own food before moving here. So i stopped reading it, but seriously thinking of reading it again.",
      "time": "2012-05-25T21:57:57",
      "id": "538709789"
    },
    {
      "threadId": "186239064",
      "post": "You're very wise Dane! Love the Morocco pics.",
      "time": "2012-05-21T10:44:21",
      "id": "534289144",
      "parentPost": "I only saw this now! :)",
      "parentPostTime": "2012-05-21T10:42:53",
      "parentPostId": "534288326"
    },
    {
      "threadId": "688589072",
      "post": "Looks moist and yummy! And really simple.",
      "time": "2012-05-16T00:17:32",
      "id": "529780470"
    },
    {
      "threadId": "682318539",
      "post": "Love this site too! It's funny cos some are actually believable, like, \"yeah that will happen here\".",
      "time": "2012-05-09T14:01:12",
      "id": "524402520"
    },
    {
      "threadId": "667909190",
      "post": "Test",
      "time": "2012-04-28T17:54:18",
      "id": "513036497"
    },
    {
      "threadId": "667429950",
      "post": "Beautiful photos!!!!",
      "time": "2012-04-28T09:45:24",
      "id": "512800944"
    },
    {
      "threadId": "663799577",
      "post": "I know how you feel! I dropped mine twice before I got the cases, I bought the cases from Amazon UK. Also have two tiny screen scratches :(",
      "time": "2012-04-26T08:05:47",
      "id": "509527950",
      "parentPost": "Are these yours??  Where did you find them?  I have a hot pink one coming from the US but it's taking a long time.  You know when you first get a new phone you spend the time period before you drop it for the first time in a bit of an anxious state?  I'm hoping my cover gets here before I drop the phone!  :)",
      "parentPostTime": "2012-04-26T05:41:57",
      "parentPostId": "509457904"
    },
    {
      "threadId": "654688743",
      "post": "What numerous software bugs? My phone's working absolutely fine.\nNow updating, UAE.",
      "time": "2012-04-18T21:06:41",
      "id": "501172572",
      "parentPost": "",
      "parentPostTime": "2012-04-18T20:02:28",
      "parentPostId": "501115733"
    },
    {
      "threadId": "652585458",
      "post": "Love this!",
      "time": "2012-04-17T15:27:43",
      "id": "499871880"
    },
    {
      "threadId": "628654058",
      "post": "Wow, that's a lot.",
      "time": "2012-03-29T19:40:35",
      "id": "479806095"
    },
    {
      "threadId": "558989948",
      "post": "I like the third one!",
      "time": "2012-02-01T04:18:30",
      "id": "426049649"
    },
    {
      "threadId": "502217237",
      "post": "Congratulations :)",
      "time": "2011-12-12T20:50:55",
      "id": "385115560"
    },
    {
      "threadId": "492976921",
      "post": "Lovely!",
      "time": "2011-12-04T18:26:25",
      "id": "379049758"
    },
    {
      "threadId": "486123481",
      "post": "Me!!!! :) http://twitter.com/kenna",
      "time": "2011-11-29T20:06:32",
      "id": "375219354"
    },
    {
      "threadId": "475483148",
      "post": "My pleasure!",
      "time": "2011-11-18T03:41:44",
      "id": "367153948"
    },
    {
      "threadId": "460909639",
      "post": "Google reader is the first thing I open, always open. I like the streamlined and minimalistic view plus +1ing = sharing. I don't know I like the new interface more than the previous one.",
      "time": "2011-11-03T21:59:15",
      "id": "355170522"
    },
    {
      "threadId": "423962247",
      "post": "Is this the shrimp place that replaced Jimmy Killer Prawns??? Aaah lovely shrimp and beer after!",
      "time": "2011-09-24T18:56:52",
      "id": "319158238"
    },
    {
      "threadId": "404241130",
      "post": "This is so cool!",
      "time": "2011-09-04T12:56:23",
      "id": "302235590"
    },
    {
      "threadId": "387221742",
      "post": "Sorry to hear this :(",
      "time": "2011-08-16T04:36:40",
      "id": "287859700"
    },
    {
      "threadId": "378273856",
      "post": "Agree.",
      "time": "2011-08-05T20:57:00",
      "id": "278739942"
    },
    {
      "threadId": "377522695",
      "post": "hahaha",
      "time": "2011-08-05T14:10:05",
      "id": "278328823",
      "parentPost": "Apparrently it is quite tasty :D",
      "parentPostTime": "2011-08-05T04:20:55",
      "parentPostId": "278112143"
    },
    {
      "threadId": "348267663",
      "post": "Thanks, I'll scour online.",
      "time": "2011-07-17T02:19:54",
      "id": "254299095",
      "parentPost": "These are Topshop Wisteria wedges! They're not selling it anymore though!",
      "parentPostTime": "2011-07-17T02:17:29",
      "parentPostId": "254298475"
    },
    {
      "threadId": "347049354",
      "post": "Ha! I used to be really fearless, actually I don't understand what happened to me, i seriously wanted to back out the leap of faith, but like you i got motivated by the queue and there all guys, told myself, i should be able to do it. ;)",
      "time": "2011-07-01T11:59:02",
      "id": "239769293"
    },
    {
      "threadId": "346028483",
      "post": "Yup you're right and jacket from Zara, I also love that store.",
      "time": "2011-07-01T10:17:12",
      "id": "239609368",
      "parentPost": "Is this from Stradivarius? Love that shop!",
      "parentPostTime": "2011-07-01T02:16:51",
      "parentPostId": "239206952"
    },
    {
      "threadId": "345610832",
      "post": "the part i don't understand is, why do they have to post ads for this when you'll know once you're here?",
      "time": "2011-06-29T20:05:46",
      "id": "238156019"
    },
    {
      "threadId": "132350413",
      "post": "I like this idea.",
      "time": "2011-06-27T17:58:04",
      "id": "236078711"
    },
    {
      "threadId": "327590090",
      "post": "I plan to use to for my main blog. And to study them.",
      "time": "2011-06-10T16:59:32",
      "id": "223273802"
    },
    {
      "threadId": "322799700",
      "post": "I was supposed to go there, lol it looks like it's from an episode of Jersey Shore.",
      "time": "2011-06-07T14:20:06",
      "id": "219981668",
      "parentPost": "Ha - love the link!\n\nIt's the new club at the H@bt00r Gr@nd. (Would rather this didn't show up when people search for it on Google... yes, I'm paranoid.)",
      "parentPostTime": "2011-06-07T12:51:10",
      "parentPostId": "219919325"
    },
    {
      "threadId": "318794872",
      "post": "I know someone who lost her eye go-karting here in Dubai, although I forgot to ask where exactly it happened.",
      "time": "2011-05-31T22:57:23",
      "id": "215093825"
    },
    {
      "threadId": "307944846",
      "post": " LOL I'm reading your past posts. Yes SATC 2 (movie) ruined Sex and the City for me. It's just a horrible movie.",
      "time": "2011-05-19T13:32:38",
      "id": "207104345"
    },
    {
      "threadId": "305957411",
      "post": "Oh, accdg to those I've talked to they can access it on Etisalat, and then Tumblr had an outage too (wordlwide again!)  that day. My net at home and mobile are both Du, and they admitted it actually over twitter that it's their fault. Can't wait for your WP blog!",
      "time": "2011-05-18T11:26:09",
      "id": "206045291",
      "parentPost": "Haha - no but the whole dashboard was down! There were 3-4 of us that couldn't get it to load on Etisalat or du! Did it not happen to you?",
      "parentPostTime": "2011-05-18T10:58:11",
      "parentPostId": "206031447"
    },
    {
      "threadId": "298509791",
      "post": " Interesting. Very cool.",
      "time": "2011-05-13T00:32:40",
      "id": "202805992"
    },
    {
      "threadId": "287179452",
      "post": "lol, they have drinks like that in most stores here, pretending to be alcopops,  but they are not, no alcohol at all, see instead of ex. 2% alcohol, they put 2% fruit juice hahahaha",
      "time": "2011-04-24T05:41:29",
      "id": "190956606",
      "parentPost": "Oooohhhh Kenna I am telling...",
      "parentPostTime": "2011-04-24T05:39:51",
      "parentPostId": "190956331"
    },
    {
      "threadId": "282975027",
      "post": "♥ Beautiful shots",
      "time": "2011-04-21T08:31:20",
      "id": "188748630"
    },
    {
      "threadId": "283312317",
      "post": "YAY!",
      "time": "2011-04-19T12:52:16",
      "id": "187527292"
    },
    {
      "threadId": "276305688",
      "post": "thanks!",
      "time": "2011-04-18T03:05:36",
      "id": "186726061",
      "parentPost": "THEY HAVE SOLID ONES AT WALGREENS\n",
      "parentPostTime": "2011-04-12T06:05:01",
      "parentPostId": "183031735"
    },
    {
      "threadId": "276199755",
      "post": "Oh my. I was asleep the whole afternoon so I missed the sand storm (glad I did) but had to work that night, and since I work for a telco, damn did I have to work my ass off that night because of the weather. Thought I missed rain, but no, I don't.",
      "time": "2011-04-12T04:22:02",
      "id": "182955914"
    },
    {
      "threadId": "186297844",
      "post": "Hi Tricia, you don't deserve the comments you're getting regarding the video, I believe that you've stated your case already.... shrug them off :) they're saying you're too young, well they're old enough....",
      "time": "2011-04-07T02:36:49",
      "id": "179658013"
    },
    {
      "threadId": "134331182",
      "post": "Thanks! ",
      "time": "2011-03-30T13:06:33",
      "id": "174816503",
      "parentPost": "The new(ish) Banyan Tree resort in Ras Al Khaimah!",
      "parentPostTime": "2011-02-26T17:41:03",
      "parentPostId": "156652546"
    },
    {
      "threadId": "264219762",
      "post": "\"I tend to feel most heartsick for loved ones just after I see them\", me too.",
      "time": "2011-03-28T06:55:57",
      "id": "173118645"
    },
    {
      "threadId": "255725698",
      "post": "Dami pa maganda bags.....",
      "time": "2011-03-17T11:40:37",
      "id": "167086825",
      "parentPost": "I like the bag and I'm inggit!! I want to shop.",
      "parentPostTime": "2011-03-17T10:54:27",
      "parentPostId": "167077892"
    },
    {
      "threadId": "226103358",
      "post": "Beverly! Can you email me your email add, mail@kennais.ms.",
      "time": "2011-03-01T10:07:34",
      "id": "158199841"
    },
    {
      "threadId": "190812704",
      "post": "There was a giant Christmas tree at Dubai Mall last December.",
      "time": "2011-02-26T13:41:52",
      "id": "156473837"
    },
    {
      "threadId": "128127441",
      "post": "This is cool!",
      "time": "2011-02-26T13:00:40",
      "id": "156458354"
    },
    {
      "threadId": "231180228",
      "post": "Yeah, will have my UW&S films developed din siguro tom. hopefully I got decent pics.",
      "time": "2011-02-15T18:30:01",
      "id": "147660113"
    },
    {
      "threadId": "227791294",
      "post": "Just not possible, can't even imagine, they'll probably kill somebody even if there's just pretending to do a surgery... and where will they shoot it...",
      "time": "2011-02-11T17:34:30",
      "id": "144807280"
    },
    {
      "threadId": "225106409",
      "post": "Nope, it's RB8041.. I was supposed to get only that but they don't have it sa store na pinuntahan ko e nabili ko na di ko naisip lumipat ng store since nasa mall ako labo diba...",
      "time": "2011-02-10T15:31:41",
      "id": "144091641"
    },
    {
      "threadId": "198480807",
      "post": "No problem guys, this 2011, how about a new one?",
      "time": "2010-12-27T15:30:12",
      "id": "119745398"
    },
    {
      "threadId": "144455690",
      "post": "Oooh I have Broom of the System (Penguin Ink edition) too, but haven't read it yet, too much reading backlog, horrible. I want the Imperfectionist, can you do a review or something? ",
      "time": "2010-12-21T02:15:15",
      "id": "115588829"
    },
    {
      "threadId": "192517150",
      "post": "So envious of your Tree of Codes.. should have bought it when I saw it sa B&N now have to wait....",
      "time": "2010-12-20T02:04:54",
      "id": "115004287"
    },
    {
      "threadId": "179749259",
      "post": "I just bought this book, saw it from you. :)",
      "time": "2010-12-17T00:13:00",
      "id": "113277258"
    },
    {
      "threadId": "186797671",
      "post": "There's a similar site to this, www.stippleit.com. I will try the fancy and see which is better.",
      "time": "2010-12-08T06:52:15",
      "id": "108559253"
    },
    {
      "threadId": "165259697",
      "post": "You're back!",
      "time": "2010-11-03T00:10:03",
      "id": "93156418"
    },
    {
      "threadId": "135646274",
      "post": "Yes and it's cheaper than the anejo and silver variant. Around 2000.",
      "time": "2010-09-02T23:45:26",
      "id": "74626103"
    },
    {
      "threadId": "127535051",
      "post": "This chicken is good and the quality is too. It costs 18 DH around 200+ PHP though with fries (they're reg is like large with use) and drink. ",
      "time": "2010-08-09T03:53:41",
      "id": "67310490",
      "parentPost": "Nice! :) How was the chicken? ",
      "parentPostTime": "2010-08-08T23:32:50",
      "parentPostId": "67253634"
    },
    {
      "threadId": "120338005",
      "post": "omg awesome thanks!... i will go.. but then again I might leave the Phils before the month ends... I want to see her, but I'm still hoping i can leave before august starts... haha",
      "time": "2010-07-21T06:52:26",
      "id": "63491303",
      "parentPost": "well according to quark's tumblr post, aside from graphika manila, tara mcpherson will be  in Manila by August 7, 2010 at THE CoLLECTIVE, 7274 Malugay Street, Suite B, San Antonio Village. Makati,   featuring Chilitees Gaijin Sandwich Duster Us-2 Evil-0 United Freestyles and Imago. I really hope you could come.  :)\ncheck this out for reference: http://quarklovesyou.tumblr.com/post/813797671/mcpherson#notes",
      "parentPostTime": "2010-07-21T05:41:02",
      "parentPostId": "63484581"
    },
    {
      "threadId": "115682011",
      "post": "Photo please!",
      "time": "2010-07-09T02:13:29",
      "id": "61216152"
    },
    {
      "threadId": "113372798",
      "post": "Thanks! I use Steadtler fine points too! Your work is lovely.",
      "time": "2010-07-02T04:23:13",
      "id": "60241340",
      "parentPost": "Hi!! I got really happy you've post it!\nThis one: http://www.ppk.com.br/uploads/grande/Caneta%20Posca%20cores.jpg\nAnd Staedtler too. The thin ones. \nThanks for it! ",
      "parentPostTime": "2010-07-02T04:14:45",
      "parentPostId": "60240695"
    },
    {
      "threadId": "111806204",
      "post": "Thanks for this post! McSweeney sale... awesome!",
      "time": "2010-06-27T13:16:45",
      "id": "58831270"
    },
    {
      "threadId": "95217437",
      "post": "My worst comfortable shoe disaster happened a week ago. I had my most comfortable flats washed and dried, and when I used it, it started to rain (it's summer here) and had to walk in puddles, inch-high puddles (I'm not sure if you can still call it puddle) because my best friend is waiting for me and I'm running late.",
      "time": "2010-05-13T14:59:23",
      "id": "50116639"
    },
    {
      "threadId": "94715514",
      "post": "I like your swimsuit Maxene, where did you get it?",
      "time": "2010-05-12T11:08:07",
      "id": "49883267"
    },
    {
      "threadId": "94374046",
      "post": "monthly naman e hehe",
      "time": "2010-05-11T07:30:34",
      "id": "49533224",
      "parentPost": "ay, di kasya para makapunta sa set ng Lost. lol. Books na lang. Tapos more books. :)",
      "parentPostTime": "2010-05-11T07:28:59",
      "parentPostId": "49532554"
    },
    {
      "threadId": "44834471",
      "post": "coool!",
      "time": "2009-11-19T06:22:09",
      "id": "23512935"
    },
    {
      "threadId": "28129765",
      "post": "go ahead",
      "time": "2009-08-04T05:37:59",
      "id": "13867565",
      "parentPost": "ooohh! i want! may i re-blog? :)",
      "parentPostTime": "2009-08-04T04:38:19",
      "parentPostId": "13865897"
    },
    {
      "threadId": "19372149",
      "post": "yup.ask mo siya",
      "time": "2009-05-27T02:23:48",
      "id": "9978711",
      "parentPost": "Di nga?! This is beyond funny. Hehe, small world. So two degrees of separation lang pala meron tayo. Pero di nga?! XD",
      "parentPostTime": "2009-05-26T15:10:06",
      "parentPostId": "9954386"
    },
    {
      "threadId": "18666247",
      "post": "Wow... I didn't like it, I loved it..... ;)",
      "time": "2009-05-20T02:19:41",
      "id": "9561594",
      "parentPost": "Glad you like my song, Kenna!\r\nMuch love,\r\n-Michael\r\nW!W!",
      "parentPostTime": "2009-05-20T00:01:03",
      "parentPostId": "9557338"
    },
    {
      "threadId": "17822231",
      "post": "where is it posted?",
      "time": "2009-05-11T07:19:56",
      "id": "9197846",
      "parentPost": "My batchmate back in high school. He moved to Toronto during our junior year, I think. Now he's there living the \"good life\" and totally lookin' down everyone back in the Philippines. At first, it was just through chat. But then he posts shit like that? Wtf. It's insulting!",
      "parentPostTime": "2009-05-11T07:17:21",
      "parentPostId": "9197822"
    },
    {
      "threadId": "17278954",
      "post": "hehe.... thanks.... ;) i just have time to do things like these.... because this is what i enjoy",
      "time": "2009-05-04T12:38:12",
      "id": "8979859",
      "parentPost": "kewlness! it's the glue that holds tumblrers together eh. hehe.\n\nyou're so effin good at what you do! i wish i were at least half as good as you are. i'm a web-savvy ece too but i could only go as far as basic html. :(\n\nkeep it up! idol! hehee! :)",
      "parentPostTime": "2009-05-04T12:02:39",
      "parentPostId": "8979339"
    },
    {
      "threadId": "17231928",
      "post": "Thanks!",
      "time": "2009-05-03T17:18:50",
      "id": "8954948",
      "parentPost": "i lyk d new theme, esp d jap chars when u mouseover on the tabs. :-D (cross-posted on plurk, hehe)",
      "parentPostTime": "2009-05-03T13:30:35",
      "parentPostId": "8951611"
    },
    {
      "threadId": "16744138",
      "post": "WTF. they can have it.",
      "time": "2009-04-28T12:44:09",
      "id": "8771220",
      "parentPost": "guess what. i took the liberty of checking the availability of ken.na through one of the accredited registrars. my curiosity got the better of me again. don't want to burst your bubble but apparently you can get it for--get this--$4850/yr. (!)",
      "parentPostTime": "2009-04-28T11:39:12",
      "parentPostId": "8770190"
    },
    {
      "threadId": "16763796",
      "post": "I only watch its marathons on Channel V ;)",
      "time": "2009-04-28T11:26:23",
      "id": "8770031",
      "parentPost": "as do i. even if the only episode of 90210 i've watched was the free dl from itunes. XD",
      "parentPostTime": "2009-04-27T11:27:13",
      "parentPostId": "8724452"
    },
    {
      "threadId": "15655940",
      "post": ":'( hard",
      "time": "2009-04-20T02:26:30",
      "id": "8362064",
      "parentPost": "I can relate. I have close to 100 accounts all over the Internet, maybe more who knows. Crazy!!",
      "parentPostTime": "2009-04-20T00:41:21",
      "parentPostId": "8360297"
    },
    {
      "threadId": "16124144",
      "post": "Yup, it's if you seek amy, f u c k m e ;)",
      "time": "2009-04-19T13:05:51",
      "id": "8347019",
      "parentPost": "I heard there's this Britney song having the same double entendre. ",
      "parentPostTime": "2009-04-19T11:59:05",
      "parentPostId": "8346423"
    },
    {
      "threadId": "15655175",
      "post": "photog talaga e.... hay..... cwush ko un shooosh",
      "time": "2009-04-13T13:42:32",
      "id": "8113397",
      "parentPost": "lakas ng camera nya! mark ii. (mahal nun. hihi) at mahusay nga talaga sya!",
      "parentPostTime": "2009-04-13T11:46:56",
      "parentPostId": "8111677"
    },
    {
      "threadId": "15415093",
      "post": ":)",
      "time": "2009-04-09T18:47:27",
      "id": "8013392",
      "parentPost": "",
      "parentPostTime": "2009-04-09T18:45:39",
      "parentPostId": "8013329"
    },
    {
      "threadId": "15335378",
      "post": "No no... hehe ;) it's a cool thing though, it has a mechanism for you to easily get the cig too.",
      "time": "2009-04-08T11:36:51",
      "id": "7972314",
      "parentPost": "Ooooh, great! Another good reason for me to smoke! Ahaha!",
      "parentPostTime": "2009-04-08T11:23:25",
      "parentPostId": "7972167"
    },
    {
      "threadId": "15326617",
      "post": "Thanks! I'm using a Canon Ixus 980IS aka Powershot SD990. ;) The photos are tweaked using Photoshop to add more drama through colors/curves ;)",
      "time": "2009-04-08T06:22:49",
      "id": "7969412",
      "parentPost": "This picture is gorgeous! May I ask what kind of camera you took this with?",
      "parentPostTime": "2009-04-08T04:51:57",
      "parentPostId": "7967938"
    },
    {
      "threadId": "15241710",
      "post": "hay yah..... bakit pa nga ba ko pumasok sa work ngaun...",
      "time": "2009-04-07T02:02:20",
      "id": "7925519",
      "parentPost": "kalokaaaa nagutom ako lalo =(",
      "parentPostTime": "2009-04-07T01:58:51",
      "parentPostId": "7925452"
    },
    {
      "threadId": "14295404",
      "post": "That's her real life boyfie thouhg.. cool huh... love them three hehe",
      "time": "2009-04-02T06:00:45",
      "id": "7736736"
    },
    {
      "threadId": "14901308",
      "post": "ata nga",
      "time": "2009-04-02T05:07:48",
      "id": "7736098",
      "parentPost": "sa pilipinas ata to nag originate e hehe",
      "parentPostTime": "2009-04-02T04:29:02",
      "parentPostId": "7735570"
    },
    {
      "threadId": "14851014",
      "post": ":)",
      "time": "2009-04-02T01:30:18",
      "id": "7732144",
      "parentPost": "Awesome!",
      "parentPostTime": "2009-04-01T14:57:55",
      "parentPostId": "7715737"
    },
    {
      "threadId": "14838750",
      "post": "Here! They'll perform at Mall of Asia if it's true.",
      "time": "2009-04-02T01:29:55",
      "id": "7732142",
      "parentPost": "they coming back where?",
      "parentPostTime": "2009-04-01T16:28:14",
      "parentPostId": "7718251"
    },
    {
      "threadId": "13888284",
      "post": "I can relate to a lot of EE Cummings....",
      "time": "2009-03-18T02:39:38",
      "id": "7306222"
    },
    {
      "threadId": "12868161",
      "post": "Agree... their thai tea is <3.... ",
      "time": "2009-03-17T12:41:16",
      "id": "7284061"
    },
    {
      "threadId": "13837874",
      "post": "ano ba yan parang lahat na lang ng post mo nicliclick ko un heart......",
      "time": "2009-03-17T12:26:58",
      "id": "7283902"
    },
    {
      "threadId": "13834837",
      "post": "Ok, that sound too depressing",
      "time": "2009-03-17T10:52:34",
      "id": "7283067"
    },
    {
      "threadId": "13833551",
      "post": ":(",
      "time": "2009-03-17T10:51:48",
      "id": "7283060"
    },
    {
      "threadId": "13589788",
      "post": "i take a picture of it whenever i see one...",
      "time": "2009-03-13T10:48:33",
      "id": "7164976"
    },
    {
      "threadId": "13362738",
      "post": "i like pa din....:) hehe",
      "time": "2009-03-13T08:37:15",
      "id": "7163990",
      "parentPost": "It's more like light cream. :)",
      "parentPostTime": "2009-03-13T08:35:39",
      "parentPostId": "7163977"
    },
    {
      "threadId": "13450155",
      "post": "Oh.... I love that...",
      "time": "2009-03-13T08:27:56",
      "id": "7163921"
    },
    {
      "threadId": "13518314",
      "post": "When I saw it, I knew I had/need/want to. ",
      "time": "2009-03-13T08:27:46",
      "id": "7163919",
      "parentPost": "Thank you for sharing. It's about time. :)",
      "parentPostTime": "2009-03-13T08:05:32",
      "parentPostId": "7163761"
    },
    {
      "threadId": "13580622",
      "post": "I like this! I love anything that has something to do with clouds..except heavy rain...",
      "time": "2009-03-13T05:27:23",
      "id": "7162485"
    },
    {
      "threadId": "13523639",
      "post": "I do that too..... I told you you're awesome already right? Thanks a lot really...",
      "time": "2009-03-12T13:09:48",
      "id": "7133392",
      "parentPost": "You're welcome.\r\n\r\nMost of the stuff I post are for myself, too-- just in case I forget things. :D",
      "parentPostTime": "2009-03-12T12:23:51",
      "parentPostId": "7132754"
    },
    {
      "threadId": "13123856",
      "post": "wait no... how come their's not like that.,..... argh im confused",
      "time": "2009-03-06T03:54:13",
      "id": "6936141",
      "parentPost": "Kenna Ann",
      "parentPostTime": "2009-03-06T03:50:58",
      "parentPostId": "6936084"
    },
    {
      "threadId": "12942029",
      "post": "Yeah. I think so too. Can't wait to pass my exams so I can finally reward myself with it!",
      "time": "2009-03-03T08:46:27",
      "id": "6834449"
    },
    {
      "threadId": "12838046",
      "post": "Love you man.......ewwww",
      "time": "2009-03-03T04:56:24",
      "id": "6814353"
    },
    {
      "threadId": "12524500",
      "post": "ganyan?",
      "time": "2009-02-25T06:32:32",
      "id": "6591367",
      "parentPost": "edit edit~! dali!",
      "parentPostTime": "2009-02-25T05:57:29",
      "parentPostId": "6590906"
    },
    {
      "threadId": "12476099",
      "post": "I miss school :'(",
      "time": "2009-02-24T15:11:17",
      "id": "6570528"
    },
    {
      "threadId": "12475958",
      "post": "Kevin? Kevin I. He's my good friend.. and I was there too, at Rockwell tent... weird, small world.",
      "time": "2009-02-24T15:09:23",
      "id": "6570491"
    },
    {
      "threadId": "12474819",
      "post": "Chicken2! I love that place, makes me miss school more..... I love their liempo and chicken of course, and how not pricey their foods are... well i'm not sure if it's still like that...",
      "time": "2009-02-24T14:52:29",
      "id": "6570166"
    },
    {
      "threadId": "12465897",
      "post": "At least they're really interested with you.... I did that a couple of times and nobody replied.... FML",
      "time": "2009-02-24T11:37:14",
      "id": "6565878"
    },
    {
      "threadId": "11582622",
      "post": "ako din super",
      "time": "2009-02-24T11:27:18",
      "id": "6565777"
    },
    {
      "threadId": "11799207",
      "post": "Hey I know that..... school ko yan.... labo! haha",
      "time": "2009-02-24T11:16:08",
      "id": "6565666"
    },
    {
      "threadId": "12465022",
      "post": "I love this movie!",
      "time": "2009-02-24T11:06:47",
      "id": "6565590"
    },
    {
      "threadId": "12460579",
      "post": "Yeah..... it just made me feel...... lonely... super lonely actually then one second the loneliness is gone.... it's just one of those things that i don't really like to hear maybe..... weird",
      "time": "2009-02-24T10:16:06",
      "id": "6559716"
    },
    {
      "threadId": "12458802",
      "post": "yeah, awesome ... but weird",
      "time": "2009-02-24T09:45:08",
      "id": "6557701"
    },
    {
      "threadId": "12368172",
      "post": "crazy but talented lol",
      "time": "2009-02-23T11:17:30",
      "id": "6494964",
      "parentPost": "haha. so true. crazy people should stick together",
      "parentPostTime": "2009-02-23T10:45:13",
      "parentPostId": "6494707"
    },
    {
      "threadId": "12368415",
      "post": "I think it's better that way :)",
      "time": "2009-02-23T07:35:54",
      "id": "6493405"
    },
    {
      "threadId": "11850006",
      "post": "Nice new layout!",
      "time": "2009-02-15T06:12:56",
      "id": "6270776"
    },
    {
      "threadId": "11660279",
      "post": "Ewwwwwwww... hehe",
      "time": "2009-02-12T11:45:04",
      "id": "6203892"
    },
    {
      "threadId": "11558502",
      "post": "The colors are sooo nice!",
      "time": "2009-02-11T05:06:56",
      "id": "6169800"
    },
    {
      "threadId": "11525691",
      "post": "I agree..... if that's the case, It's unfair, I don't like orange m&ms, even if they taste the same...",
      "time": "2009-02-11T05:03:31",
      "id": "6169719"
    },
    {
      "threadId": "11218964",
      "post": "@Justine, yupyup!!!",
      "time": "2009-02-06T02:42:45",
      "id": "5882118"
    },
    {
      "threadId": "10956057",
      "post": "Funny!",
      "time": "2009-02-06T01:22:21",
      "id": "5880648"
    },
    {
      "threadId": "11181023",
      "post": "http://iamkenna.tumblr.com/post//this-ones-for-justine-yummeh-yes-i-do-smoke",
      "time": "2009-02-05T14:34:29",
      "id": "5866077"
    },
    {
      "threadId": "10652382",
      "post": "Me too.. Yay!",
      "time": "2009-01-28T03:31:35",
      "id": "5608534",
      "parentPost": "I'm really happy for you! As in.",
      "parentPostTime": "2009-01-28T02:45:00",
      "parentPostId": "5607688"
    },
    {
      "threadId": "9775230",
      "post": "How about hi?",
      "time": "2009-01-16T08:57:46",
      "id": "5161530"
    }
  ],
  "profileInfo": {
    "username": "kenna",
    "about": "Founder of http://www.mensisliber.com . \r\n Born in an archipelago of 7,107 islands, working as a telecommunications engineer in the desert.",
    "name": "kenna",
    "disable3rdPartyTrackers": false,
    "isPowerContributor": false,
    "isAnonymous": false,
    "rep": 1.293124,
    "profileUrl": "https://disqus.com/by/kenna/",
    "url": "http://kennamarcelo.com/",
    "reputation": 1.293124,
    "location": "UAE",
    "isPrivate": false,
    "signedUrl": "http://disq.us/?url=http%3A%2F%2Fkennamarcelo.com%2F&key=DIzYI6XYYJq0P-wireyGJQ",
    "isPrimary": true,
    "joinedAt": "2008-11-05T02:34:10",
    "id": "136024",
    "avatar": {
      "small": {
        "permalink": "https://disqus.com/api/users/avatars/kenna.jpg",
        "cache": "//a.disquscdn.com/uploads/users/13/6024/avatar32.jpg?1448796567"
      },
      "isCustom": true,
      "permalink": "https://disqus.com/api/users/avatars/kenna.jpg",
      "cache": "//a.disquscdn.com/uploads/users/13/6024/avatar92.jpg?1448796567",
      "large": {
        "permalink": "https://disqus.com/api/users/avatars/kenna.jpg",
        "cache": "//a.disquscdn.com/uploads/users/13/6024/avatar92.jpg?1448796567"
      }
    }
  }
}