{
  "comments": [
    {
      "threadId": "2517087017",
      "post": "Vikings!",
      "time": "2014-03-30T20:07:44",
      "id": "1310990126"
    },
    {
      "threadId": "164462605",
      "post": "*standing ovation* ",
      "time": "2010-10-30T22:14:03",
      "id": "91851063"
    },
    {
      "threadId": "146881313",
      "post": "Fave published this year : The Thousand Autumns of Jacob de Zoet. But so many on my list! ",
      "time": "2010-09-26T21:03:11",
      "id": "81031729"
    },
    {
      "threadId": "141475034",
      "post": "I read Cloud Atlas about 5 or 6 books ago and can't stop thinking about it. I practically forced it on my colleague; I couldn't stop yammering on about it. He finished it recently, so now we're both yammering on about it. He's rereading it now, and though I'm enjoying my current book, I'm a little jealous. It's an astonishing book. We don't quite want to let it go.",
      "time": "2010-09-14T04:16:59",
      "id": "77444841"
    },
    {
      "threadId": "136156290",
      "post": "I should, Ben! Let me work on it this week. :)",
      "time": "2010-09-03T14:35:59",
      "id": "74797384"
    },
    {
      "threadId": "133585988",
      "post": "\"He said that he 'really wished' he had come to terms with his sexual orientation earlier, 'so I could have worked against [the Federal Marriage Amendment]' and 'reached out to the gay community in the way I reached out to African Americans.'\"\n\nMehlman is still dissembling or disingenuous. Why does he need to come to terms w/ his sexuality to work against the FMA or reach out to the gay community? Does one have to be an out gay person to have principles? He isn't African American (presumably) yet he \"reached out\" to that community. Pardon me if I reach out to punch him in the teeth. \n\nThat said, I wish Mehlman the best in his personal life. I hope he will be happier living his life honestly and openly. In his professional life, however, I can't but help wish him many days of difficult reflection about his own cowardice and complicity during a period of heightened insanity in this country. Many, many people were deeply hurt--materially hurt--by the vile machinations of people whose power he protected and ensured. His silence had very real consequences, and I hope he will forgive those of us who look askance at his attempts to justify his past silence. It is inadequate indeed.",
      "time": "2010-08-25T23:28:13",
      "id": "71981436"
    },
    {
      "threadId": "122676566",
      "post": "Collected Stories of Lydia Davis\nThe Girl Who Played with Fire, Stieg Larsson\nThe Little Stranger, Sarah Waters\nCloud Atlas, David Mitchell\nOriginal Bliss, A. L. Kennedy\n\n(now reading Mitchell's The Thousand Dreams...)",
      "time": "2010-07-27T17:29:58",
      "id": "64675853"
    },
    {
      "threadId": "110229397",
      "post": "Highly recommend The Regulator Bookshop in Durham, NC. Fantastic store, much loved, locally owned and independent since 1976. ",
      "time": "2010-06-24T15:05:24",
      "id": "58450346"
    },
    {
      "threadId": "102962686",
      "post": "You are the sweetness! Thank you. xo",
      "time": "2010-05-31T22:52:12",
      "id": "53297725"
    },
    {
      "threadId": "80919434",
      "post": "Yes, sir, there was! My thoughts exactly. :)",
      "time": "2010-03-31T02:24:51",
      "id": "42377613"
    },
    {
      "threadId": "55486225",
      "post": "Good lord, he is. I wonder if his producers will have anything to say about him preaching from the \"news\" seat. Won't hold my breath.",
      "time": "2010-01-04T01:05:41",
      "id": "27939346"
    },
    {
      "threadId": "31817812",
      "post": "Bwah!! ",
      "time": "2009-08-29T21:26:26",
      "id": "15577693"
    },
    {
      "threadId": "20943607",
      "post": "*grumble*!!!",
      "time": "2009-06-10T01:59:11",
      "id": "10677042"
    },
    {
      "threadId": "20759763",
      "post": "She is ridiculously adorable. Congratulations!",
      "time": "2009-06-07T18:56:39",
      "id": "10592976"
    },
    {
      "threadId": "17747147",
      "post": "Really. I'll bet Caldera's screaming \"Why didn't *I* just Photoshop it?\"",
      "time": "2009-05-10T04:17:50",
      "id": "9174081"
    },
    {
      "threadId": "16543296",
      "post": "Really! This is just 27 million kinds of lovely. Please, all deities, let this fine man influence the woeful current perceptions/expressions of masculinity.",
      "time": "2009-04-25T18:25:50",
      "id": "8688472"
    },
    {
      "threadId": "16610172",
      "post": "Can you elaborate, SC? Thx.",
      "time": "2009-04-25T02:31:21",
      "id": "8673518"
    },
    {
      "threadId": "15863573",
      "post": "Sickening. ",
      "time": "2009-04-15T23:49:33",
      "id": "8245004"
    },
    {
      "threadId": "14944068",
      "post": "Scary! Those police batons have gotten sophisticated. ",
      "time": "2009-04-02T21:59:29",
      "id": "7761845"
    },
    {
      "threadId": "13707823",
      "post": "Ha! I meant a message from Michael, but now that you mention it, I'd love an iPhone and a chat w/ Michael, too. Why was I thinking so small? ;)",
      "time": "2009-03-15T03:46:29",
      "id": "7227837",
      "parentPost": "iphone,  michael or both ?\r\n:-)",
      "parentPostTime": "2009-03-15T02:38:52",
      "parentPostId": "7227140"
    },
    {
      "threadId": "13641166",
      "post": "I loved this picture, too! Beautiful. (Poor sweetie.)",
      "time": "2009-03-13T23:35:59",
      "id": "7190845"
    },
    {
      "threadId": "12539122",
      "post": "V. good question, Tim. I'd give them an 8; maybe higher if they're warm. They taste homemade--lightly cakey and not too sweet--which I think recommends them. db, OTOH, would have been just as happy with a run-of-the-mill lemon-filled from Dunkin Donuts. My doughnut palate is more flexible! ;)",
      "time": "2009-02-25T14:05:38",
      "id": "6607099"
    },
    {
      "threadId": "12192720",
      "post": "H, I saw this at the Hirshhorn some years ago. This guy is huge. I think I was at about elbow-level, and he's so realistic looking that I was apprehensive about getting too close. It really felt like he might strike out at any moment. You can see wrinkles and pores and freckles and dry skin. It's unreal (because it's so real--ha!). Mueck is amazing. ",
      "time": "2009-02-20T04:30:30",
      "id": "6423858"
    },
    {
      "threadId": "11407625",
      "post": "This is really lovely. :)",
      "time": "2009-02-09T02:30:00",
      "id": "6105013"
    },
    {
      "threadId": "10714909",
      "post": "I would be hard pressed NOT to go. ",
      "time": "2009-02-01T16:38:41",
      "id": "5747525"
    },
    {
      "threadId": "8386880",
      "post": "Haha! Somehow it looks better here. :D",
      "time": "2008-12-15T02:39:54",
      "id": "4403800"
    },
    {
      "threadId": "7148797",
      "post": "I do think it's interesting the author thinks there might be homes to sit in. If the middle class is expected to take some hard hits, I shudder to think what will become of the paycheck-to-paycheck families, the working poor, and those who live in extreme poverty. ",
      "time": "2008-11-17T01:43:17",
      "id": "3850899"
    },
    {
      "threadId": "5296236",
      "post": "Gosh darnit, elkit, I sure didn't. I was just so gosh darned distracted by all that folksy winking, doncha know. >:\\",
      "time": "2008-10-05T02:46:45",
      "id": "2873341"
    },
    {
      "threadId": "4854676",
      "post": "Thx, Joffi! :)",
      "time": "2008-09-22T03:47:59",
      "id": "2513880"
    },
    {
      "threadId": "3900688",
      "post": "\n\n\nFunny, I don't at all remember listening to Feist last week. The others, yes. Odd. Then again, it was the longest week in history. ",
      "time": "2008-08-30T21:54:08",
      "id": "1932749"
    },
    {
      "threadId": "3283798",
      "post": "Photographic evidence, please! :)",
      "time": "2008-08-21T15:18:27",
      "id": "1717577",
      "parentPost": "1. You may be selling yourself short! :)\r\n\r\n2. I will do my part!",
      "parentPostTime": "2008-08-20T13:58:27",
      "parentPostId": "1698933"
    },
    {
      "threadId": "3026427",
      "post": "Yes, thanks, Ben! I haven't quite figured it out (tho I have to admit I gave up the pursuit, distracted by at least 1000 other tings). My pal is on DU every day, so I get the vicarious benefit. ",
      "time": "2008-08-19T19:45:49",
      "id": "1652491"
    },
    {
      "threadId": "3228349",
      "post": "Yes, that may be a more fair representation of the feedback loop that was their performance. I think they should go interactive and let the audience in on it. :)",
      "time": "2008-08-18T20:00:13",
      "id": "1604072"
    },
    {
      "threadId": "2239483",
      "post": "Me and db will be right down! Any combo of the words 'diner' and 'breakfast' gets our attention. Of course, if you're ever our way, we'll be happy to take you out (and keep you in) for the same. ",
      "time": "2008-07-28T14:13:52",
      "id": "1019719"
    },
    {
      "threadId": "2231400",
      "post": "Thanks, Sam! It was deelish. So much so that we had to have another the following night. Uh oh, slippery slope. :)",
      "time": "2008-07-28T05:20:01",
      "id": "1017534"
    },
    {
      "threadId": "2241205",
      "post": "Ha, great shot. Good show?",
      "time": "2008-07-28T04:38:12",
      "id": "1017382"
    },
    {
      "threadId": "1761384",
      "post": "Ben, I was so pleased to come across his work via a FoaF on FriendFeed. I got lost in it, too. Wonderful stuff. So beautiful. I swear I want to put that photo on my wall, I love it so. ",
      "time": "2008-07-09T19:27:51",
      "id": "847275"
    },
    {
      "threadId": "1683411",
      "post": "Thanks for your comment, Ben! More whimsy in the world, I say. ",
      "time": "2008-07-08T20:36:24",
      "id": "838901"
    },
    {
      "threadId": "1685223",
      "post": "Tim, we'd better buy these in bulk!! ;)",
      "time": "2008-07-08T20:35:38",
      "id": "838895"
    },
    {
      "threadId": "1703240",
      "post": "db's haircut looks really cute. That's a lot of cuteness going on up there. :)",
      "time": "2008-07-08T14:51:26",
      "id": "835646"
    },
    {
      "threadId": "1601832",
      "post": "RAB, you are more, um, beardy (and beady) than the first time I saw you. Happy 4th!",
      "time": "2008-07-05T00:55:41",
      "id": "816276"
    },
    {
      "threadId": "1593450",
      "post": "According to my B*sh countdown clock (which I check regularly), we've got ... 199 days, 16 hrs, 35 mins, and 22 seconds. (GOD, I CANNOT WAIT NOT TO FEEL THIS CRAZED.)",
      "time": "2008-07-05T00:26:11",
      "id": "816204"
    },
    {
      "threadId": "1497589",
      "post": "Tim, you'd better have two. Make that three. If you can find a redeeming thing about this flick, I'd like to hear it. (OK, some stunts/special fx are OK.) I know I'm a serious person, but damn, these people aren't even trying. ",
      "time": "2008-07-02T01:31:48",
      "id": "794770"
    },
    {
      "threadId": "1463035",
      "post": "With that repertoire I'm going to have to ask you to please Phinish sooner than later. Kthx! :)",
      "time": "2008-06-30T03:00:29",
      "id": "776290",
      "parentPost": "Possible first song: \"Girl from the North Country.\"\r\n\r\nPossible second song: \"Back in Black.\"  :-D\r\n\r\nActually, I also love \"The Boxer,\" \"Always on the Run,\" \"Bullet the Blue Sky,\" \"Come as You Are,\" and everything off of \"The Red-Headed Stranger.\"  Plus a bunch of other stuff.  Plenty to keep me busy!",
      "parentPostTime": "2008-06-29T16:57:28",
      "parentPostId": "774365"
    },
    {
      "threadId": "1468010",
      "post": "Remember Arsenio Hall's \"Dog Pound\"? Would it be inappropriate for me to do the \"woo woo woo\" Dog Pound-thing when you're up there? ;D",
      "time": "2008-06-30T02:57:32",
      "id": "776284",
      "parentPost": "You're very kind. I'll try to make it worth the price of entry and the trip to Monterey. ;)",
      "parentPostTime": "2008-06-29T16:52:16",
      "parentPostId": "774336"
    },
    {
      "threadId": "1473243",
      "post": "Thx, Lance! Came through loud and clear. I'm on the look-out for that tee now. ",
      "time": "2008-06-29T13:42:10",
      "id": "773790"
    },
    {
      "threadId": "1457670",
      "post": "I'll ask you! I laughed out loud (crowed, more like) when I read this. Perfect, and I want to send a valentine to the person who made it up. ",
      "time": "2008-06-27T17:20:51",
      "id": "763357"
    },
    {
      "threadId": "1442438",
      "post": "P.S. Sending good finishing-the-PhD vibes your way. The interwebs are totally boring, really. Nothing to see here. Back to ch. 4. ;]",
      "time": "2008-06-27T03:15:23",
      "id": "759640"
    },
    {
      "threadId": "1447332",
      "post": "Tim, if Arcade Fire come to play *anywhere* near you, go see them. I swear to you they've never phoned it in in their lives. This song was heartbreakingly awesome in concert. ",
      "time": "2008-06-27T03:03:01",
      "id": "759565"
    },
    {
      "threadId": "1442385",
      "post": "Tim, yes! This relentless vilification of the other party (and all of its ideas), coupled w/ the wholesale rejection of true expertise in favor of political--and mostly inexpert--appointees are two of the more insidious legacies of Rovian politics. I will be the first to cheer the end of it. \r\n\r\nThis country is long overdue  grown ups getting down to the tough work of governing. I don't care what letter is behind their name, personally, not least because my personal politics resemble neither party's. What I fear is that this shameless partisanship will have the effect of voters throwing their hands in the air, exasperated that \"they're all alike.\" No matter my disgust and dismay at the theatrics/inefficacy of both parties, *that* I most certainly do not believe. ",
      "time": "2008-06-27T02:38:14",
      "id": "759388"
    },
    {
      "threadId": "1442426",
      "post": "Whoops, have to edit this response! :) Grab your honey, Tim, and let's get up to Iceland. In a few months we'll really have reason to celebrate. =D",
      "time": "2008-06-27T01:04:47",
      "id": "758751"
    },
    {
      "threadId": "1442387",
      "post": "Tim, my best pal loves to remind me (every time I howl w/ pain about two [dear lord, two!!] stolen elections) that enough folks voted for the criminal dolt that it was *even close*. We have done much of this to ourselves, but I can't help but partially fault a failed 4th estate, for example. Bread and circuses, anyone? (*sob*) ",
      "time": "2008-06-27T00:56:54",
      "id": "758705"
    },
    {
      "threadId": "1173949",
      "post": "Waah! I love that picture of you two. Happiest best wishes to you both.",
      "time": "2008-06-12T16:58:38",
      "id": "646608"
    },
    {
      "threadId": "344384",
      "post": "You say you're not a photographer, but that is a beautifully composed photograph. Gorgeous! :)",
      "time": "2008-05-19T23:21:16",
      "id": "493446"
    },
    {
      "threadId": "657251",
      "post": "That is a wonderful prediction. Here's to it coming true! :)",
      "time": "2008-05-10T01:31:29",
      "id": "441377"
    },
    {
      "threadId": "652122",
      "post": "You are so cute! Now suck it in and go! ;)",
      "time": "2008-05-09T13:16:30",
      "id": "436847"
    }
  ],
  "profileInfo": {
    "username": "ayse",
    "about": "My motto as I live and learn is: dig and be dug in return. --Langston Hughes",
    "name": "ayse",
    "disable3rdPartyTrackers": false,
    "isPowerContributor": false,
    "isAnonymous": false,
    "rep": 1.2609979999999998,
    "profileUrl": "https://disqus.com/by/ayse/",
    "url": "http://twitter.com/ayse",
    "reputation": 1.2609979999999998,
    "location": "Durham, NC",
    "isPrivate": false,
    "signedUrl": "http://disq.us/?url=http%3A%2F%2Ftwitter.com%2Fayse&key=CI9ZGNzHhI22qioAmP6BUA",
    "isPrimary": true,
    "joinedAt": "2008-04-28T18:06:31",
    "id": "26860",
    "avatar": {
      "small": {
        "permalink": "https://disqus.com/api/users/avatars/ayse.jpg",
        "cache": "//a.disquscdn.com/uploads/users/26860/avatar32.jpg?1277392844"
      },
      "isCustom": true,
      "permalink": "https://disqus.com/api/users/avatars/ayse.jpg",
      "cache": "//a.disquscdn.com/uploads/users/26860/avatar92.jpg?1277392844",
      "large": {
        "permalink": "https://disqus.com/api/users/avatars/ayse.jpg",
        "cache": "//a.disquscdn.com/uploads/users/26860/avatar92.jpg?1277392844"
      }
    }
  }
}