{
  "comments": [
    {
      "threadId": "41987812",
      "post": "Also making my work day extremely productive.",
      "time": "2009-10-27T19:57:36",
      "id": "21124854",
      "parentPost": "Good luck guys. I can truly say that you two have wasted countless hours of my life for 4 years.",
      "parentPostTime": "2009-10-27T18:36:07",
      "parentPostId": "21119084"
    },
    {
      "threadId": "34291027",
      "post": "Interesting, but do people actually use it?  I mean those who want to subscribe to their own collection of blogs, would use Google Reader, or Live Bookmarks or their own type of aggregator.  I wonder if this is a growing business.",
      "time": "2009-09-22T18:32:55",
      "id": "17138072",
      "parentPost": "Thanks Amir. It's a blog aggregator site and there are many popping up. See this: http://islamcrunch.com/archives/islamcrunch-selected-for-trakkrz-blog-listing/",
      "parentPostTime": "2009-09-17T08:57:32",
      "parentPostId": "16803324"
    },
    {
      "threadId": "21623654",
      "post": "There is no deception in my words.\r\n\r\nThank you. And same to you too.\r\n\r\nPeace.",
      "time": "2009-09-02T18:09:33",
      "id": "15773223",
      "parentPost": "You certainly are a polite chauvinist, however I believe this to be a tactic of deception, and ultimately your religious supremacy blinds you from the Truth. As a believer, regardless of your faults, I pray that G-d may reward you for your good deeds and prayers this Ramadan. Peace. ",
      "parentPostTime": "2009-09-02T02:15:22",
      "parentPostId": "15744676"
    },
    {
      "threadId": "27342564",
      "post": "JazakAllah khair!!!!!!!!!!!  Shukyan Imam Suhaib Webb!!!\r\n\r\n:-D",
      "time": "2009-07-28T23:45:53",
      "id": "13487132"
    },
    {
      "threadId": "26658413",
      "post": "Blog this!!!!\r\n\r\nhttp://www.youtube.com/watch?v=K09SGLjntPo",
      "time": "2009-07-28T05:22:45",
      "id": "13434133"
    },
    {
      "threadId": "16833270",
      "post": "http://www.mujahideenryder.net/2009/05/13/the-american-ummah-should-be-ashamed-where-are-200-believers-199-left/",
      "time": "2009-05-14T01:32:34",
      "id": "9308451"
    },
    {
      "threadId": "18097484",
      "post": "For the lack of enthusiasm and random pauses it was 1 AM and I was really tired.  No editing either, as you can see I turned on and off the camera.  Alhamdulillah.",
      "time": "2009-05-14T01:28:11",
      "id": "9308370"
    },
    {
      "threadId": "17787453",
      "post": "MashaAllah!\r\n\r\nIf i was part of an MSA...",
      "time": "2009-05-11T20:46:02",
      "id": "9217896"
    },
    {
      "threadId": "16193646",
      "post": "You kind of lose the logo though.",
      "time": "2009-04-21T03:42:52",
      "id": "8476885",
      "parentPost": "Thanks! The header is done this way as we wanted a minimalist look. Our previous banner had the fancy background. This header feels Ka'aba-esque to me.",
      "parentPostTime": "2009-04-20T13:52:28",
      "parentPostId": "8418838"
    },
    {
      "threadId": "16146261",
      "post": "Original Arabic here:\r\nhttp://www.mujahideenryder.net/2009/04/18/sh-abdallah-bin-bayyahs-letter-for-imam-siraj-wahhaj-arabic/",
      "time": "2009-04-19T21:41:14",
      "id": "8356115"
    },
    {
      "threadId": "15575113",
      "post": "mashaAllah!  May Allah reward bro. Douglas Kelly!\r\n\r\n\r\nSpike Lee needs to make a movie about this story man.",
      "time": "2009-04-14T16:24:26",
      "id": "8199257"
    },
    {
      "threadId": "15742599",
      "post": "mashaAllah!",
      "time": "2009-04-14T16:12:12",
      "id": "8198895"
    },
    {
      "threadId": "15139750",
      "post": "pwnage x2",
      "time": "2009-04-13T20:40:55",
      "id": "8124097"
    },
    {
      "threadId": "15373788",
      "post": "Dang that's deep.",
      "time": "2009-04-09T13:26:52",
      "id": "8003486"
    },
    {
      "threadId": "15380416",
      "post": "Marbook!  Ameen to the dua.",
      "time": "2009-04-09T03:12:32",
      "id": "7995753"
    },
    {
      "threadId": "14984188",
      "post": "I need to blog this!",
      "time": "2009-04-03T16:26:29",
      "id": "7792150"
    },
    {
      "threadId": "14990274",
      "post": "pwnage",
      "time": "2009-04-03T16:24:38",
      "id": "7792030"
    },
    {
      "threadId": "14837090",
      "post": "How do I undigg reddit?",
      "time": "2009-04-01T14:08:52",
      "id": "7713912"
    },
    {
      "threadId": "14406024",
      "post": "May Allah bless Imam Zaid Shakir too!",
      "time": "2009-03-26T00:55:38",
      "id": "7510074",
      "parentPost": "AS\r\n\r\nMay Allah bless you Shaikh Faraz and Shaikh Suhaib for this effort I hope more leaders get involved for this type of cause this is brotherhood in action not words. BarakAllah Fikuma",
      "parentPostTime": "2009-03-26T00:54:29",
      "parentPostId": "7510038"
    },
    {
      "threadId": "14269442",
      "post": "Let me know how I can help inshaAllah!",
      "time": "2009-03-24T01:55:52",
      "id": "7457965"
    },
    {
      "threadId": "14052231",
      "post": "Man that was deep.  Tawhid dawah comes first.",
      "time": "2009-03-20T12:53:28",
      "id": "7371269"
    },
    {
      "threadId": "13940746",
      "post": "JazakAllah khair!",
      "time": "2009-03-19T03:39:56",
      "id": "7334315"
    },
    {
      "threadId": "13918554",
      "post": "SubhanAllah!",
      "time": "2009-03-18T17:18:19",
      "id": "7319302"
    },
    {
      "threadId": "13837996",
      "post": "InshaAllah",
      "time": "2009-03-17T16:35:12",
      "id": "7288944"
    },
    {
      "threadId": "13673270",
      "post": "http://www.youtube.com/watch?v=70U1j7kTqkk\r\n\r\nNo music - just lyrics\r\n\r\n:-D",
      "time": "2009-03-14T19:10:28",
      "id": "7221766"
    },
    {
      "threadId": "13521314",
      "post": "May Allah (swt) make your project and all your efforts successful.  Ameen!",
      "time": "2009-03-12T20:26:11",
      "id": "7151482",
      "parentPost": "As Salamu Alaikum\r\n\r\nI came across this Blog from Face book...\r\nMashAllah May Allah bless you and your Family Imam Suhaib...\r\nSometimes I cook in the Kitchen with My Family and Listen to the Mothers of the Believers..\r\n\r\nInshAllah the Film will be on national Television on June 23rd and also availabe on line after June 23rd as well ... Please Make Dua for us.\r\nand Next Time your In The U.S it would be great if We can Have you visit our Ribat inshAllah and check out some of our Arabic Manuscripts from Shayhk Uthman Dan Fodio\r\n\r\nSalams Your Brother\r\nHamza Perez.. ",
      "parentPostTime": "2009-03-12T14:28:18",
      "parentPostId": "7135991"
    },
    {
      "threadId": "13369675",
      "post": "They are not banning the hijab, but they are banning the head cover in driver's license photos.  Please be careful before we cause a huge uproar in the Muslim community and then Islam will have another bad image in the public eye.\r\n\r\nWe should be against this because it can set a precedent for future laws that are more strict against the head cover.  Please comment if you called or emailed the senators.",
      "time": "2009-03-10T15:42:11",
      "id": "7070926"
    },
    {
      "threadId": "11740228",
      "post": "JazakAllah khair!",
      "time": "2009-02-13T21:15:08",
      "id": "6247841"
    },
    {
      "threadId": "11496125",
      "post": "JazakAllah khair!",
      "time": "2009-02-10T22:14:15",
      "id": "6148722"
    },
    {
      "threadId": "9110880",
      "post": "JazkaAllah khair",
      "time": "2008-12-30T20:17:52",
      "id": "4786202"
    },
    {
      "threadId": "5170192",
      "post": "Eid Mubarak!",
      "time": "2008-10-02T12:41:28",
      "id": "2799035"
    },
    {
      "threadId": "4065282",
      "post": "Nice!",
      "time": "2008-09-02T22:53:10",
      "id": "2020320"
    },
    {
      "threadId": "3792916",
      "post": "I have a strong feeling this will be at ISNA 08.\r\n\r\nInshaAllah I will be there!",
      "time": "2008-08-27T16:01:19",
      "id": "1869621"
    },
    {
      "threadId": "3436963",
      "post": "Is Sayyid Ali Zainal Abidin Al-Saqqaf Hadrami Yemeni?",
      "time": "2008-08-21T14:54:23",
      "id": "1717122"
    },
    {
      "threadId": "1036816",
      "post": "Wow, John McCain must have a hard time hearing.  It might be due to his age.  I want a President who can hear and is young and vibrant!  Sorry McCain, that's not you.",
      "time": "2008-06-05T20:45:31",
      "id": "602432"
    }
  ],
  "profileInfo": {
    "username": "mujahideenryder",
    "about": "",
    "name": "mujahideenryder",
    "disable3rdPartyTrackers": false,
    "isPowerContributor": false,
    "isAnonymous": false,
    "rep": 1.266441,
    "profileUrl": "https://disqus.com/by/mujahideenryder/",
    "url": "http://www.mujahideenryder.net",
    "reputation": 1.266441,
    "location": "Earth",
    "isPrivate": false,
    "signedUrl": "http://disq.us/?url=http%3A%2F%2Fwww.mujahideenryder.net&key=ERfCcJXfKKN2arNCNateuA",
    "isPrimary": true,
    "joinedAt": "2008-08-21T14:55:08",
    "id": "86735",
    "avatar": {
      "small": {
        "permalink": "https://disqus.com/api/users/avatars/mujahideenryder.jpg",
        "cache": "//a.disquscdn.com/1468276017/images/noavatar32.png"
      },
      "isCustom": false,
      "permalink": "https://disqus.com/api/users/avatars/mujahideenryder.jpg",
      "cache": "//a.disquscdn.com/1468276017/images/noavatar92.png",
      "large": {
        "permalink": "https://disqus.com/api/users/avatars/mujahideenryder.jpg",
        "cache": "//a.disquscdn.com/1468276017/images/noavatar92.png"
      }
    }
  }
}