{
  "comments": [
    {
      "threadId": "53668552",
      "post": "Terribly late response, but I hope things are okay with you...",
      "time": "2010-01-05T08:28:40",
      "id": "28205923"
    },
    {
      "threadId": "42147332",
      "post": "ahhh :[ so huge\r\nbest of luck to you :[",
      "time": "2009-10-28T07:37:34",
      "id": "21162652"
    },
    {
      "threadId": "38763798",
      "post": "I think it is :] I found this image a year or so ago, and still love it!",
      "time": "2009-10-10T21:47:38",
      "id": "19816090"
    },
    {
      "threadId": "19368661",
      "post": "word of warning - you do know that matt's story is a unicorn pornography, right? maybe you should've left the lady naked....",
      "time": "2009-05-26T10:12:20",
      "id": "9947950"
    },
    {
      "threadId": "19368262",
      "post": "I'm going to disregard what you said, because I really like it this way.",
      "time": "2009-05-26T10:05:15",
      "id": "9947888"
    },
    {
      "threadId": "16662144",
      "post": "i'm sorry...",
      "time": "2009-04-25T22:30:45",
      "id": "8692080"
    },
    {
      "threadId": "15891809",
      "post": ":) i'm super psyched you're drawing",
      "time": "2009-04-16T09:55:09",
      "id": "8255975"
    },
    {
      "threadId": "15891805",
      "post": "the girl with the umbrella, josh? really?",
      "time": "2009-04-16T09:54:53",
      "id": "8255971"
    },
    {
      "threadId": "15096915",
      "post": "Well, there goes any chance I had at having a productive Saturday!",
      "time": "2009-04-04T21:39:26",
      "id": "7833303"
    },
    {
      "threadId": "14489609",
      "post": "simple, starving to be safe - daphne loves derby :)",
      "time": "2009-03-27T02:29:01",
      "id": "7547691"
    },
    {
      "threadId": "14277915",
      "post": "Are you alright?\r\nAlso, wooow, way to show concern for my brush with death\r\nBut seriously, just checking in as I'm bad at interpreting things.",
      "time": "2009-03-24T03:17:33",
      "id": "7459615"
    },
    {
      "threadId": "13532268",
      "post": "so ace. i'm in class with maylin. also ace.",
      "time": "2009-03-12T17:54:47",
      "id": "7147675"
    },
    {
      "threadId": "9027869",
      "post": "Hey :)\r\n\r\nI actually didn't end up ordering a bag, but all the suggestions I got  \r\nare on this page\r\n\r\nhttp://verslibre.tumblr.com/post/67276447/any-suggestions-for-a-good-messenger-macbook-bag\r\n\r\nYou can try asking one of the other users individually for more ideas.  \r\nSorry I can't be of more help, I ended up just carrying my laptop in a  \r\nsoft case in my arms. Good luck to you!",
      "time": "2009-03-12T01:20:24",
      "id": "7117484",
      "parentPost": "I know this is old but ... Have the same question. Can I help me?",
      "parentPostTime": "2009-03-12T00:41:11",
      "parentPostId": "7116653"
    },
    {
      "threadId": "13366405",
      "post": "I guess now I can post the comment I had that I asked you earlier which you refused to respond to because it wasn't posted on tumblr. :/\r\n\r\n\"You drew outside? And you drew nature?!\"",
      "time": "2009-03-10T04:07:44",
      "id": "7052627"
    },
    {
      "threadId": "11714140",
      "post": "Be safe.",
      "time": "2009-02-13T10:39:54",
      "id": "6236263"
    },
    {
      "threadId": "11544706",
      "post": "Oh my goodness....haha that sounds horrible :( \r\n\r\nOh, and the Woonerf neighborhood design is from the Netherlands, I think, and is just a safer form of neighborhoods (with narrow streets, protected play areas, pedestrian safety signs, etc)",
      "time": "2009-02-11T04:15:01",
      "id": "6168660",
      "parentPost": "riddle me this, batman... what would possess ANYONE to put a big frothy cap of whipped cream on top of a mug of apple cider??  \r\n\r\nThe Starbucks Caramel Apple Spice (their fancy name for Hot Apple Cider) comes topped off with whipped-cream unless the customer otherwise indicates that the whipped-cream is undesirable.  Whipped-cream topping for an Apple Cider?!? And they look at me like I'm the oddball for ordering my \"Venti Caramel Apple Spice -- NO WHIPPED\"\r\n\r\nAnyway.  Sorry for the random intrusion and outburst.... but starbucks is a maddening place sometimes.\r\n\r\n",
      "parentPostTime": "2009-02-11T01:13:47",
      "parentPostId": "6153145"
    },
    {
      "threadId": "11490891",
      "post": "Umm haha I guess the Woonerf neighborhood design, an emphasis on greenery, organic architecture, a series of alternate roads for loading trucks, and open space in the downtown areas.",
      "time": "2009-02-10T10:25:59",
      "id": "6134927",
      "parentPost": "What are the top five things you would have in your own perfect city?",
      "parentPostTime": "2009-02-10T10:16:42",
      "parentPostId": "6134860"
    },
    {
      "threadId": "11206554",
      "post": "Aw good luck!! It's worth it in the end.",
      "time": "2009-02-05T23:47:44",
      "id": "5878703",
      "parentPost": "I have just over 3000.  Yeah, it's turning out to be a huge task so I am taking it slowly.  Very slowly.",
      "parentPostTime": "2009-02-05T23:46:49",
      "parentPostId": "5878671"
    },
    {
      "threadId": "11105931",
      "post": "Ick. Good luck with that.",
      "time": "2009-02-04T08:20:46",
      "id": "5831554"
    },
    {
      "threadId": "10907311",
      "post": "You're kind of awesome, and rock at breaking the monotony of that what is studying for midterms. :)",
      "time": "2009-02-01T05:54:42",
      "id": "5741295"
    },
    {
      "threadId": "10773880",
      "post": "Haha tumblr addict :) Your dream sounds cooler than mine though!",
      "time": "2009-01-30T02:48:16",
      "id": "5666470"
    },
    {
      "threadId": "10636038",
      "post": "Yeah, I've gotten a few of those lately too. It's mildly creepy, but maybe they wanted to follow multiple tumblrs without having to keep one up themselves?",
      "time": "2009-01-28T01:36:24",
      "id": "5606628"
    },
    {
      "threadId": "10595948",
      "post": "Oh my.... haha.... it's not horrible but I can't see myself listening to it more than once. OK yeah it kind of gets worse as it goes on... pretty sure it's not Goo Goo Dolls. Sorry!",
      "time": "2009-01-27T07:35:43",
      "id": "5571397"
    },
    {
      "threadId": "10547561",
      "post": "Wow, it looks amazing. Congrats! (I think that's what you say when someone gets a tattoo!)",
      "time": "2009-01-26T11:50:53",
      "id": "5547810"
    },
    {
      "threadId": "10478937",
      "post": "I get what you mean. I had the hardest time with my drawing before, because I was dissatisfied if it didn't look the way I had envisioned it, but I'm starting to embrace the imperfections of my art, as they're what represent me best. I like your singing on the tracks; in my opinion, the days of the perfect male boy-band style singing is long gone, people want the raw intensity that comes in singing what you write and love. The ending guitar for 'Wake up my friends' is a really nice touch, by the way.\r\nI've only begun to cover I Will Follow You Into the Dark, I Will Possess Your Heart, and Brothers on a Hotel Bed. Title and registration is a great song, it must've turned out well.\r\n\r\nYeah, I hope to never let it go again, life's too short to regret not doing what you love.",
      "time": "2009-01-25T02:56:04",
      "id": "5525963",
      "parentPost": "well, i've come to realize a lot about my music, and art in general. My music is only adventurous because I try (really hard ) to just accept it and put it out there (sometimes it's unfinished) but yeah. If you go to my page theres a link to my myspace music (although the quality is awful) there are some tracks that are finished with singing (which is the hardest for me) if you want to check it out! \r\n\r\nwhat tracks did you look into covering by death cab? one time my friends and I covered title and registration and recorded it!\r\n\r\nand yeah don't give up on piano, I wish I had done it when I was younger... but don't give up (i know the feeling that you mentioned though)",
      "parentPostTime": "2009-01-25T02:33:22",
      "parentPostId": "5525731"
    },
    {
      "threadId": "10380862",
      "post": "Ick on the Dell part, but I'm excited for you for when you get a new MB/P :) ",
      "time": "2009-01-23T02:11:12",
      "id": "5484275",
      "parentPost": "I'm stuck with a Dell until it kicks the bucket.  Then I hope to fork out the quid for a Macbook or MBPro.",
      "parentPostTime": "2009-01-23T01:49:52",
      "parentPostId": "5483925"
    },
    {
      "threadId": "10140918",
      "post": "Haha désolé",
      "time": "2009-01-19T04:18:31",
      "id": "5296610",
      "parentPost": "Ach. Ennemi mortel",
      "parentPostTime": "2009-01-19T04:14:22",
      "parentPostId": "5289562"
    },
    {
      "threadId": "10140877",
      "post": "Haha very cool then. How is your photography going, by the way? Any upcoming projects? Your project 500 was stunning.",
      "time": "2009-01-19T04:17:53",
      "id": "5295364",
      "parentPost": "It's actually not as frustrating as one might imagine. I'm kind of a \"hippie\" free spirit anyway, so as long as what I make is seen, whether or not people know it's made by me or not, makes me content.\n\nBut I know the frustration of having things misappropriated and mis-credited, and that sort of thing, so no judgment from me!",
      "parentPostTime": "2009-01-19T04:11:49",
      "parentPostId": "5289386"
    },
    {
      "threadId": "8691055",
      "post": "Thank you for taking the time to explore it :)  I'm glad you liked it!\n\nEdit: Totally just saw that you are the artist of the picture I posted. I love it so much, your work is so original and sweet.",
      "time": "2009-01-19T00:12:56",
      "id": "5272632",
      "parentPost": "i really enjoyed ur scrapbook..<3\r\n\r\nThank you..\r\niMais..",
      "parentPostTime": "2009-01-18T15:43:39",
      "parentPostId": "5266272"
    },
    {
      "threadId": "10106988",
      "post": "I did the same thing the other day. Oddly comforting but still a little sad.",
      "time": "2009-01-18T10:09:08",
      "id": "5258985"
    },
    {
      "threadId": "9751293",
      "post": "I'm magically incapable of doing such things apparently haha I'll try another day. Thanks for your time!",
      "time": "2009-01-11T22:14:17",
      "id": "5061793",
      "parentPost": "Link to the url on the page....you don't have to use any code, just the song link (the URL that the song is directly playing at) hope that helps...",
      "parentPostTime": "2009-01-11T22:09:41",
      "parentPostId": "5061735"
    },
    {
      "threadId": "9727783",
      "post": "I'm the exact same, with Moby Dick and currently The Brothers Karamazov. I plan on finishing them this quarter too.",
      "time": "2009-01-11T21:47:09",
      "id": "5061500"
    },
    {
      "threadId": "9333193",
      "post": "It was good, but I unfortunately read the story hours before watching the movie, and I kept thinking the whole time how much better the story was. While it may have lightened the mood of the movie to include the father-and-son scenes of Benjamin being an old man but dressed as a child, and later appearing to be his father's brother, I thought it still would've worked quite well...",
      "time": "2009-01-04T10:38:50",
      "id": "4877736"
    },
    {
      "threadId": "9209907",
      "post": "haha very cool j, you always do seem to find awesome videos :)",
      "time": "2009-01-01T06:47:19",
      "id": "4811666",
      "parentPost": "I HAVE SEEN THIS PICTURE BEFORE!!\r\nit was in some video showing how it was made",
      "parentPostTime": "2009-01-01T06:34:32",
      "parentPostId": "4811562"
    },
    {
      "threadId": "9088906",
      "post": "Labs do love the food :) Sorry though.",
      "time": "2008-12-30T01:23:49",
      "id": "4735870"
    },
    {
      "threadId": "9020696",
      "post": "Thanks. I know in the long run it'll be better this way, just have to get through the initial 'missing you' stages.",
      "time": "2008-12-29T01:18:27",
      "id": "4703359"
    },
    {
      "threadId": "8921379",
      "post": "Congrats!",
      "time": "2008-12-27T08:06:10",
      "id": "4663039"
    },
    {
      "threadId": "8910413",
      "post": "Have you seen her perform it in the movie The Blues Brothers? Amazing :)",
      "time": "2008-12-27T00:16:53",
      "id": "4659462"
    },
    {
      "threadId": "8875258",
      "post": "sorry! i meant to vote but wanted to click through all my dashboard first and it took a while (60+ pages!). i totally would have voted black tho :)",
      "time": "2008-12-26T09:27:25",
      "id": "4633080"
    },
    {
      "threadId": "8663155",
      "post": "That was awesome. ",
      "time": "2008-12-26T00:01:02",
      "id": "4629672"
    },
    {
      "threadId": "8507474",
      "post": "Kind of a random place to put this, but I just wanted to tell you how much I enjoy your blog. I feel stupid pressing 'like' for so many of your posts, but I honestly do like them. This message is coming across much lamer and more awkward than I thought it would. Anyways, you're really awesome and I'm glad I found your tubmlr! Ok. Yeah.",
      "time": "2008-12-18T09:05:10",
      "id": "4477848"
    },
    {
      "threadId": "3533653",
      "post": "Ugh actually UNDERSTOOD everything.",
      "time": "2008-08-23T01:33:29",
      "id": "1738654"
    },
    {
      "threadId": "2969971",
      "post": "Good for you for standing up! Kids who know they're cute abuse their 'cuteness' until all around them go crazy.",
      "time": "2008-08-15T03:59:14",
      "id": "1464524"
    },
    {
      "threadId": "2720722",
      "post": "I'm assuming this wasn't scalding hot coffee? That would've really woke you up in a most unfortunate way.",
      "time": "2008-08-13T05:50:20",
      "id": "1191952"
    },
    {
      "threadId": "2723160",
      "post": "I don't normally comment in general, but you have some funny videos up, keep up the good work! \r\n\r\n\r\nYeah, I really suck at commenting.",
      "time": "2008-08-13T05:48:41",
      "id": "1191945"
    },
    {
      "threadId": "2632903",
      "post": "I've always been a little intimidated by Starbucks employees, they have always seemed so cold and annoyed when I mess up the drink name or cup size. I'm not a regular, and I always forget the differences between sizing (I know it now). It's nice to read your blog and see the normal-ness that exists within the corporation. Plus, you always have a good story to tell!",
      "time": "2008-08-12T03:02:16",
      "id": "1164583"
    },
    {
      "threadId": "1900750",
      "post": "That was priceless! I really wish I could convince my friends to do something like that. Well done!",
      "time": "2008-07-15T04:13:00",
      "id": "893730"
    }
  ],
  "profileInfo": {
    "username": "verslibre",
    "about": "",
    "name": "verslibre",
    "disable3rdPartyTrackers": false,
    "isPowerContributor": false,
    "isAnonymous": false,
    "rep": 1.259917,
    "profileUrl": "https://disqus.com/by/verslibre/",
    "url": "http://verslibre.tumblr.com",
    "reputation": 1.259917,
    "location": "",
    "isPrivate": false,
    "signedUrl": "http://disq.us/?url=http%3A%2F%2Fverslibre.tumblr.com&key=KzoxJmqtFH1ynBN51sKTTw",
    "isPrimary": true,
    "joinedAt": "2008-12-18T09:09:30",
    "id": "168206",
    "avatar": {
      "small": {
        "permalink": "https://disqus.com/api/users/avatars/verslibre.jpg",
        "cache": "//a.disquscdn.com/uploads/users/16/8206/avatar32.jpg?1281549414"
      },
      "isCustom": true,
      "permalink": "https://disqus.com/api/users/avatars/verslibre.jpg",
      "cache": "//a.disquscdn.com/uploads/users/16/8206/avatar92.jpg?1281549414",
      "large": {
        "permalink": "https://disqus.com/api/users/avatars/verslibre.jpg",
        "cache": "//a.disquscdn.com/uploads/users/16/8206/avatar92.jpg?1281549414"
      }
    }
  }
}