{
  "comments": [
    {
      "threadId": "2182311584",
      "post": "Ha, no. I tend to default to \"she\" when I write, rather than the old-timey default to \"he.\" More explanation here:\n\nhttp://www.askamanager.org/2011/07/why-i-refer-to-everyone-as-she.html",
      "time": "2015-11-19T18:05:17",
      "id": "2368583195",
      "parentPost": "wow, all inept managers are women!",
      "parentPostTime": "2015-11-19T18:00:58",
      "parentPostId": "2368575243"
    },
    {
      "threadId": "4174950730",
      "post": "Sometimes simply having the conversation with the person will alert them that there's accountability built in, even if you're not on site, and will be enough to take care of the problem. But I think the bigger issue is that you've got to be able to trust the people who are working for you, especially if you or they are remote. If you find yourself not trusting that they're telling you the truth, that's a bigger problem and at that point I'd dig into why that is (i.e., are there other red flags you've sensed, etc.).",
      "time": "2015-09-30T22:01:11",
      "id": "2282826456",
      "parentPost": "Hi Alison,\nThe last paragraph provides a good way to open the conversation. It would be helpful if you talked about what to do if the employee's version is very different from the reports. It would be great if we could trust people to always tell the truth (\"Why yes, I do come in every day at 11\") and we know that some, maybe many, will fudge the truth so they don't get in trouble (\"I only did that once because my car wouldn't start\"). \n\n\nP.S. Sometimes I wish you gave advice on things outside of business. :) I'm facing this situation right now with a mom with health issues and a sister who lives by her, and they are 1500 miles away from me.",
      "parentPostTime": "2015-09-30T18:38:57",
      "parentPostId": "2282442243"
    },
    {
      "threadId": "613239894",
      "post": "Assuming you're in the U.S., that type of statement isn't legally binding on you. It's a preference, not a requirement. That said, declining to give that much notice could certainly impact things like the reference they give you -- but they can't force you to stay.",
      "time": "2015-09-29T18:54:28",
      "id": "2280530385",
      "parentPost": "Due to a hostile work environment, I quit my job on Monday morning. When I asked my boss what the next steps are, he said he was unsure and that he would get back to me. That afternoon, his superior came to me to explain the next steps, which didn't include much more than a resignation letter. I'm an employee at will so asked her about 2-weeks notice; is it policy or courtesy. After dragging her heels she said she would prefer if I stay a until the next Friday to give the office time to transition my work over to my coworkers, which I am happy to do. I do not have another job lined up yet so I don't want to work any longer than that so I have time to find a new position. However, today she sent me an email saying that the statement below is in our employee handbook and that the \"expectation\" is that I stay a month. Can they really hold me to this? They know I have not been happy with my boss and the extremely heavy workload they have placed on me. It doesn't say \"requirement\" so can I still push to be done in 2 weeks?\n\n\n\"If an employee must resign during the year, s/he should discuss it with his/her supervisor first and then the president. Once discussed, the notice must be put in writing. The company would appreciate receiving as much notice as possible. The expectation of the company is that at least two weeks’ notice for Support Staff and one month’s notice for Administrative and Senior Administrative level employees will be given.\"",
      "parentPostTime": "2015-09-29T18:46:58",
      "parentPostId": "2280517509"
    },
    {
      "threadId": "3895996136",
      "post": "I have a post for you:\n\nhttp://quickbase.intuit.com/blog/2012/05/31/help-how-do-i-deal-with-a-defensive-coworker/",
      "time": "2015-07-03T05:00:10",
      "id": "2113970263",
      "parentPost": "Any tips about managing Chronic defensiveness?",
      "parentPostTime": "2015-07-03T02:39:08",
      "parentPostId": "2113815860"
    },
    {
      "threadId": "3851373826",
      "post": "It varies! Some do 32-hour weeks. Others do 10 hours a day for 4 days. There's also a 9/80 approach, where you work 5 9-hour days the first week and 4 9-hour days the second week, and then get Friday of the second week off.",
      "time": "2015-06-16T22:09:34",
      "id": "2082820807",
      "parentPost": "For a 4 day week is that 40 hours over 4 days, or 32 hours over your 4 days? I would love to work that, and on weeks when I have worked 4 day I do notice I'm way more focused and less distracted than days when I work 5.",
      "parentPostTime": "2015-06-16T21:44:10",
      "parentPostId": "2082782301"
    },
    {
      "threadId": "3723632227",
      "post": "Once you become her manager, you'll need to nip it in the bud. The first time it happens with you as her manager, sit her down and talk to her about the behavior you need to see from her. It's reasonable to say \"part of your job on this team is being pleasant and professional with the people you're working with. That means that not doing X, Y, or Z.\"",
      "time": "2015-04-30T21:15:44",
      "id": "1996701846",
      "parentPost": "This is a very difficult subject for me. I have a truly arrogant person who has recently joined a group that works closely with the team I manage. She is not a manager, and her manager is in Europe (we are in USA) and she takes advantage. She is rude and bossy to my group and especially to me. Eventually she will report to me, so I have to work with her. I have not yet seen her work product, but have heard that she's good but hard to get along with. I see that for sure! Once she reports to me, I'm going to face her and curb her abuses of the system (coming and going as she pleases, taking advantage of working from home, etc). But first I have to curb her bossiness of me. I am still a manager, and she is not. Any recommendations?",
      "parentPostTime": "2015-04-30T18:37:49",
      "parentPostId": "1996429241"
    },
    {
      "threadId": "3698361042",
      "post": "Rob, you're correct (and we're correcting the text above). If the news articles I've seen are right, 37signals does a pretty cool thing where they don't allow regularly scheduled meetings, which is an idea I love.",
      "time": "2015-04-21T19:44:02",
      "id": "1979988258",
      "parentPost": "Isn't \"no meeting days\" making the problem worse?  Why don't we have good, productive meetings on whatever day?  Blacking out a day for things we don't like because we don't do them well doesn't scale up.   You also have one less day to improve your meetings to get real work done.\n\n\n\nAlso I don't recall 37signals ever saying they agreed to have no-meeting days.  They agree to have meetings only when necessary, plan and prepare for them and make decisions at them (and say as much in Rework).",
      "parentPostTime": "2015-04-21T19:01:55",
      "parentPostId": "1979891558"
    },
    {
      "threadId": "3541610630",
      "post": "It sounds like that's a performance issue, and you'll need to address it through that lens -- meaning clearly lay out the bar you need her to meet and be willing to decide she's not the right fit if she's not making the changes you're telling her that you need to see.",
      "time": "2015-02-26T00:29:58",
      "id": "1875789636",
      "parentPost": "What if you have asked that question and work still isn't getting done or done in a timely manner? I'm at a loss on what to do for an employee.  She has been with the office for almost six months and I don't know what else I can do to help her with organization and prioritizing. My boss and I have told her explicitly several times when something is priority, what she should focus on second, etc. We can't make sense of how she organizes, which I think is slowing her down even more, and have tried to give her tips. We have student workers who are running circles around her and picked up in less time.  Any suggestions? I believe she is capable but she has got to do better on her turn around time. ",
      "parentPostTime": "2015-02-26T00:26:33",
      "parentPostId": "1875785117"
    },
    {
      "threadId": "3527758395",
      "post": "It's not that you can never have meetings; of course you need some. But most offices have way more meetings than are actually needed. The key is to be rigorous about ensuring you're only meeting about things that truly require it, and that you have a clear agenda and clarity about what outcomes you're looking for.",
      "time": "2015-02-20T02:44:28",
      "id": "1865002335",
      "parentPost": "So, you're supposed to get everyone's input, but not by using more meetings or emails?  How, pray tell?",
      "parentPostTime": "2015-02-19T17:48:05",
      "parentPostId": "1864133420"
    },
    {
      "threadId": "3526179850",
      "post": "Nope. It's illegal to ask about disabilities, but asking about any of the rest is legal. What's illegal is making a hiring decision based on the answers, so smart employers don't ask them, but the questions themselves are not illegal.",
      "time": "2015-02-19T02:05:09",
      "id": "1863034769",
      "parentPost": "That is incorrect.  You are not allowed to ask age (though they can probably figure it out), if you are pregnant, if you are married, those are just a few of them.",
      "parentPostTime": "2015-02-19T01:17:31",
      "parentPostId": "1862965166"
    },
    {
      "threadId": "413384085",
      "post": "Hey sueq. Legally, your boss can probably do it, although it's a pretty bizarre request for her to make. The thing I'd worry about is that it highlights a lack of trust in the relationship. If you have enough rapport with her to ask about this, it could be worth saying something like, \"I was concerned the other day when you asked to see my phone, because it felt like you don't trust me to be straightforward with you. Is there anything I've done to give you that concern?\"",
      "time": "2015-01-09T19:25:18",
      "id": "1783038801",
      "parentPost": "My boss wants to check my phone to check who told me sum thing can she do this",
      "parentPostTime": "2015-01-09T18:20:53",
      "parentPostId": "1782903140"
    },
    {
      "threadId": "2403145007",
      "post": "Depends on the laws of your state -- you'd need to talk to a lawyer who could really look at the situation!",
      "time": "2014-11-13T23:03:29",
      "id": "1692135341",
      "parentPost": "My company is switching from banked vacn to discretionary at end of year and i live in a state that requires vacation time to be paid at exit. Should they have to pay me for my banked vacation time that is essentially being taken away?",
      "parentPostTime": "2014-11-13T22:43:30",
      "parentPostId": "1692108857"
    },
    {
      "threadId": "1811436841",
      "post": "If she's your manager, there's not a lot you can beyond what you've tried. You've talked to her and gotten nowhere, so at this point I'd focus on whether you can find ways to reasonably content, knowing that at least for now she's part of the package with this job. I know that sucks -- managers have a huge impact on people's quality of life at work, which is why it's so important to screen for a good one during the hiring process! (Not that that's a perfect process.)",
      "time": "2014-10-09T23:36:35",
      "id": "1628004922",
      "parentPost": "I have a supervisor who behaves exactly this way. Unfortunately, her superiors are both on leave, so there is no one to take action or provide consequences. Her negativity is very draining and I find myself going home in a horrible mood because of all of her complaints and anger. I've tried to talk to her and meet her half way, but she's so upset she's incapable of being rational. How do you advise to work with a negative and complaining supervisor who has lost all objectivity and rationality, and doesn't have any superiors to provide consequences?",
      "parentPostTime": "2014-10-09T18:51:27",
      "parentPostId": "1627550949"
    },
    {
      "threadId": "1572433942",
      "post": "Hey MJ, would you email me with details about what you'd like to do at alison at askamanager dot org? Thanks!",
      "time": "2014-09-11T02:36:57",
      "id": "1583611086",
      "parentPost": "Hey Alison,\nI think this post is awesome. I'm writing a post about bad interviewers vs good interviewers, could I quote some of your examples? I would of course provide the link and credits to your website.\nCheers",
      "parentPostTime": "2014-09-11T02:32:54",
      "parentPostId": "1583607212"
    },
    {
      "threadId": "2985685141",
      "post": "Hey dfsfdssdf, thanks for commenting. In general, these types of reader rounds-up tend to be popular and well-received, but no one post will be everyone's cup of tea. I hope you enjoy the rest of the content here and at Ask a Manager though.",
      "time": "2014-09-06T15:16:46",
      "id": "1576744766",
      "parentPost": "Uh...Actually I do read Allison's blog and appreciate her original content.  This just seems like lazy writing to me. :/",
      "parentPostTime": "2014-09-06T15:01:13",
      "parentPostId": "1576730048"
    },
    {
      "threadId": "2248352509",
      "post": "Hmmm, I've never seen a whole book devoted to the topic!",
      "time": "2014-07-17T18:16:53",
      "id": "1490185633",
      "parentPost": "Good Stuff! I really enjoyed this.  Do you know of any books that are out there about the topic?",
      "parentPostTime": "2014-07-17T18:11:10",
      "parentPostId": "1490178112"
    },
    {
      "threadId": "816920041",
      "post": "Talk to your manager again and get a better idea of specifically what she wants you doing differently. Then, if you disagree and feel you can manage more effectively without doing those things, make your case to her. If she still disagrees, at that point it's her call -- and you've got to decide if you want to do things her way or move on, unfortunately.",
      "time": "2014-07-08T16:43:31",
      "id": "1474697211",
      "parentPost": "I am a low-level supervisor who, after 6 years, was told today that I need to \"manage\" more. Yes, I want to be promoted. However, I have worked at enough outlets of my organization to recognize the manager who told me this is an \"Uber Micromanager\". Within the last couple of weeks my responsibilities have doubled and I have been provided a useless figurehead as an assistant. I was awarded the equivalent of \"Employee of the Year\" over hundreds of employees last year, but now I am considering transferring,  voluntarily demotion, or quitting the organization entirely. My supervisor is not hostile, but she is just too type-A for our industry and I suspect that's why she was transferred to our department last year. Any thoughts?",
      "parentPostTime": "2014-07-04T01:24:29",
      "parentPostId": "1467675198"
    },
    {
      "threadId": "2634058657",
      "post": "Yes! Pretend like you're just in a conversation with a small group of people -- like 2 or 3. Makes it MUCH easier.",
      "time": "2014-05-01T18:05:50",
      "id": "1364314155",
      "parentPost": "Awesome advice. As a relatively shy public speaker, I live by these steps, especially step 1. Do you have any advice for being a panelist, though? I have been asked to speak on a panel but have never done so, and while I can practice themes in a way, I can't really prepare too similarly. Thoughts?",
      "parentPostTime": "2014-05-01T18:04:19",
      "parentPostId": "1364310878"
    },
    {
      "threadId": "2454569610",
      "post": "Hi Ruth, thanks so much! You're welcome to post a short excerpt from the article with a link here for people who want to read the whole thing!",
      "time": "2014-03-26T15:26:20",
      "id": "1303671158",
      "parentPost": "Alison,\n\nGreat points. Although my favorite is #4. I like that better than avoiding the sandwich because you can actually get good at the sandwich if you practice it well. But everyone hates the monologue. They hate it in meetings and they hate it in feedback. it is the most prevailing problem. One way to completely avoid it is to actually practice trialogue rather than dialogue. (http://tinyurl.com/lnxjcd4) In any case, I'd love to repost this with your permission. XX, Ruth",
      "parentPostTime": "2014-03-26T14:24:42",
      "parentPostId": "1303590699"
    },
    {
      "threadId": "550776697",
      "post": "Ah, I'm the U.S. -- different laws here!",
      "time": "2014-02-13T21:51:34",
      "id": "1243239549",
      "parentPost": "Hi Alison, I'm not sure what jurisdiction you are in, and maybe it is different where you are, but in Ontario the Ontario Human Rights Code is very clear that you can't discriminate in employment based on age if the person is 18 years of age or older.  Section 5 of the Act talks about protection from discrimination in employment and age is clearly listed.  Moreover, in Section 10 of the Act it defines age as anyone with the age of 18 or over.",
      "parentPostTime": "2014-02-13T21:49:10",
      "parentPostId": "1243236506"
    },
    {
      "threadId": "2150489402",
      "post": "One thing that can be helpful is to look at how your boss has reacted when problems were raised in the past (assuming they were raised in a calm, reasonable way).",
      "time": "2014-01-21T17:46:48",
      "id": "1210712785",
      "parentPost": "I'm really trying to work at the transparency one. It's just sometimes so hard to talk to your boss about a problem! That's an ongoing project, I fear.",
      "parentPostTime": "2014-01-21T17:42:43",
      "parentPostId": "1210707084"
    },
    {
      "threadId": "1957397603",
      "post": "I wonder if you could start sending him regular reports on your priorities for the week (or two-week period, if you do it biweekly), to drive him the point that yes, in fact, you are doing a lot of work.",
      "time": "2013-11-12T21:39:23",
      "id": "1120222837",
      "parentPost": "My boss consistently only shows up for work 15 mins a day. He walks in, checks in with a couple people and then walks out, and if you're not there for that 15 mins you lose your chance to talk with him face-to-face. Then when he talks with us about our work he always says, \".. but we don't to anything.\" But we do, because I'm often very busy, but my workload varies by day and how close I am to deadline on the 15th. Granted the work we do is less than the amount we used to do, but \"staffing\" has decreased (I work at a research University where 'staff' were most commonly graduate students) and I have absorbed all of the work that was on the people who are no longer with us of the last few years. \nThe most demotivating thing he does is criticize me for going on the internet when I need breaks (we don't' have a no internet rule) once in a while in an off comment fashion and THEN has the balls to tell me, \"but we don't do anything\"... Well buddy just because YOU don't do anything doesn't mean WE don't do things!! It's irritating.",
      "parentPostTime": "2013-11-12T20:48:26",
      "parentPostId": "1120163483"
    },
    {
      "threadId": "1912627639",
      "post": "That's absolutely not true of all employers. It's certainly true of some, but it's far from universal!",
      "time": "2013-10-29T20:03:37",
      "id": "1101309301",
      "parentPost": "Your points above are valid ones.  However they come with the assumption that companies treat candidates like real people, which is rarely the case anymore.  Companies don't care about wasting someone's time, or making them wait for months on a decision.  They don't care if you've already put your notice in, they will rescind the offer.",
      "parentPostTime": "2013-10-29T19:59:33",
      "parentPostId": "1101304427"
    },
    {
      "threadId": "679538712",
      "post": "I talk about that here:\n\nhttp://www.askamanager.org/2011/07/why-i-refer-to-everyone-as-she.html",
      "time": "2013-10-01T19:51:55",
      "id": "1066401705",
      "parentPost": "Why is the boss always \"She\"?",
      "parentPostTime": "2013-10-01T19:07:16",
      "parentPostId": "1066342551"
    },
    {
      "threadId": "1778064590",
      "post": "Depends of which of the issues are in play. With some, there's very little/nothing you can do to change those practices from below -- it needs to come from your manager or above him.",
      "time": "2013-09-25T21:48:34",
      "id": "1059126753",
      "parentPost": "How do I tell my own manager this? He needs to read this. Badly.",
      "parentPostTime": "2013-09-24T21:59:02",
      "parentPostId": "1057671879"
    },
    {
      "threadId": "1696575938",
      "post": "Oh, yeah, I'm not saying that every candidate everywhere appreciates being called; people have different perspectives, of course. But in general, the majority of candidates will tell you that prefer email for a rejection so they don't have to respond on the spot and so that they don't get their hopes up, thinking the call is a job offer.",
      "time": "2013-09-03T20:30:23",
      "id": "1028792954",
      "parentPost": "I'm going to disagree.  I had applied and interviewed for a job that the hiring manager disclosed up front was impossible for anyone to completely qualify for.  It involved three different areas of expertise, and they were looking for the best combination of skills/talents/experience they could find.  The interview went very well.  The hiring manager called me several days later to let me know they didn't select me, but wanted me to know that it wasn't because of anything I had said or done.  In fact, the whole interview team was impressed with me and my resume, would have been happy to work with me, and felt that I would do a great job, but there was a candidate who was a bit stronger in a key skill that tipped the balance that person's way.  Not getting the job hurt - a lot.  But; a) actually hearing back directly from the hiring manager, b) hearing that I interviewed and presented myself well, and c) knowing the interview team validated my experience and abilities, were all worth gold.  I could tell from the manager's voice that he/she was quite sincere and not blowing me off.  Plus, I was impressed that the hiring manager decided to speak directly with me instead of taking the easy way out with an email (or worse), which also left me hoping for another chance to work for that company and hiring manager again.  Bad news can come in worthwhile packages.",
      "parentPostTime": "2013-09-03T19:04:35",
      "parentPostId": "1028690872"
    },
    {
      "threadId": "1294291946",
      "post": "Eric, I'm so sorry for your loss!  It's been 12 years since I lost my dad, and I still miss him. \n\nYour mom sounds like an amazing person, and like she'll live on in you and your kids.",
      "time": "2013-05-17T13:27:36",
      "id": "900294430"
    },
    {
      "threadId": "1083366693",
      "post": "That's such a great example! Good for you for not just repeating what you saw the previous manager do.",
      "time": "2013-02-20T06:17:32",
      "id": "805276140",
      "parentPost": "I was going to give an example, and then I couldn't remember the details, but they came back to me! One of the team members sometimes came in a few minutes late because she took her son to school, and I told her she needed to be on time. She came back with an idea - she said that sometimes she's a few minutes early and sometimes she's a few minutes late, so what if she kept track of the time and made sure it \"evened out\" to 40 hours/week? I thought about it and realized that it wouldn't affect our team's work and that I was fine with it. At first, it felt \"wrong\" to let her do this, but there really wasn't a reason not to, and I trusted her to keep accurate track of her time. It worked out fine. That's the kind of thing our previous manager would have said \"no\" to without considering it. I'm glad I learned that I didn't need to be bureaucratic just because I was a manager. There were other times when I allowed behavior that I shouldn't have (and I learned from those mistakes), but this wasn't one of those times. This employee had proven her trustworthiness, and I never had a problem with anything she and I agreed to.",
      "parentPostTime": "2013-02-20T05:01:51",
      "parentPostId": "805212894"
    },
    {
      "threadId": "1070381545",
      "post": "A cringe-worthy mistake in itself! Fixed :)",
      "time": "2013-02-12T15:51:33",
      "id": "796622037",
      "parentPost": "\"If you’re like most people, you’ve had some truly cringe-worthy moments in your career, where you did something so clueless or embarrassing that you still shutter when you think about it today.\" The word is SHUDDER. Shutters go on windows.",
      "parentPostTime": "2013-02-12T14:58:16",
      "parentPostId": "796579293"
    },
    {
      "threadId": "1029169999",
      "post": "You could certainly try talking to him about it and proposing different ways of doing things (an option that isn't really available to the letter-writer since it's not her direct manager -- she doesn't have standing to have that conversation with her manager's manager). But if that doesn't change anything, then your basic options are to decide to deal with it or to look for a job elsewhere. You can't make your boss change if reason doesn't work.",
      "time": "2013-01-24T21:54:20",
      "id": "777260591",
      "parentPost": "The question is, to what extend can you ignore this sort of thing? \n\nThe owner of the company I work for is terrible at managing his time and has absolutely no concept of respecting other people's time. As in: No meeting with him ever starts or finishes on time. \n\nWhen you book an appointment with him, you can pretty much count on the fact that he will be at least half an hour late. Usually, it's more like booking an appointment for 8 a.m. and end up having a rush working lunch with him at 2 p.m. (not that he will push the meeting to 2 p.m., he'll just keep you wondering and then suddenly show up in your office to demand a lunch meeting right now).\n\nA meeting that is scheduled to run for an hour can easily turn into 3 hours. It's not unusual to find a whole department (15 people) waiting for half an hour for a meeting to start because the boss wouldn't let the department manager out of their meeting.  \n\nWhenever you travel with him, you end up racing through airports. Meetings with customers generally start at least 15 minutes late. Seminars with whole groups of customers start even later. It has actually become a running gag: Whenever he announces something will take just one minute, whole groups of customers will start cracking up, knowing that it will take at least 15 minutes.\n\nI hate being late. I generally tend to be 5 minutes early. I start feelling guilty when I am more than 5 minutes late. I can deal with the situation when it is just internal stuff. I bring stuff to do when going to meetings so I can keep myself busy in the meantime. I try to plan a buffer into my schedule so meetings with the boss don't interfere with anything else. But I absolutely cannot come to terms with the fact that we keep disrespecting our customers' time in such a blatant manner (even though, at least the ones we've been working with for a while seem to accept this as part of the cost of doing business with us).",
      "parentPostTime": "2013-01-24T21:51:46",
      "parentPostId": "777257765"
    },
    {
      "threadId": "980688797",
      "post": "Good managers want to know when stuff like this is going on! If you've got a manager who would penalize you for bringing her into the loop, that's a much bigger problem than the one in this letter!",
      "time": "2012-12-19T20:35:44",
      "id": "743032064",
      "parentPost": "Good way to get yourself fired...many bosses don't care or don't want to be involved.  If you talk to the boss, YOU are viewed as the problem, not the slacker employee.",
      "parentPostTime": "2012-12-19T20:33:14",
      "parentPostId": "743030376"
    },
    {
      "threadId": "919069324",
      "post": "I think it just depends on the environments you're working with.",
      "time": "2012-11-16T21:03:04",
      "id": "712142516",
      "parentPost": "Perhaps we have discovered another lie managers tell themselves: \"My subordinates think my decisions are fair, justified and necessary.\"  The price of this one is a loss of trust and confidence.",
      "parentPostTime": "2012-11-16T21:00:17",
      "parentPostId": "712139507"
    },
    {
      "threadId": "908437512",
      "post": "That sounds like a layoff rather than the firing, if they got rid of the whole department?",
      "time": "2012-11-04T17:25:43",
      "id": "700377503",
      "parentPost": "Happened to me, too. A few years back, I was working for a fairly well-known PC software company. I was in the office late one evening, tidying a couple of loose ends up after a product release, and got a call from my wife, telling me that my manager's manager (who'd been our boss for about a week) had called twice to talk to me. My wife had explained that I was at the office, Said manager did not call there. In retrospect, I should have realized something was up.\n\nGot home and moments later the phone rang. Manager's manager, saying \"Don't come in tomorrow, we'll send you your personal belongings.\" Turns out they fired our department that night, with no notice, no comments, never a bad review, nada.\n\nStill rankles, years later...",
      "parentPostTime": "2012-11-04T03:09:02",
      "parentPostId": "700108560"
    },
    {
      "threadId": "878901524",
      "post": "That's true for non-exempt employees, but exempt employees (many professionals) don't generally get paid overtime. The law only requires it if you're non-exempt.",
      "time": "2012-10-10T16:52:01",
      "id": "678372641",
      "parentPost": "I found one major problem with this article. Under the slacker comments, the stated goal is to have this guy \"logging late hours like the rest of the office\". No one should be working late hours unless they're getting paid overtime! The work week is 40 hours, not a minute more unless its paid. Employees have been letting management take advantage of them for far too long.",
      "parentPostTime": "2012-10-10T16:42:20",
      "parentPostId": "678365279"
    },
    {
      "threadId": "806280721",
      "post": "Ah, I see. It was in the original question, which got edited down for space!  (It was a lot longer to begin with!)  ",
      "time": "2012-08-16T17:20:08",
      "id": "621238716",
      "parentPost": "Anita, I don't see anything in the letter that says the employee just got a raise. Am I missing something here?",
      "parentPostTime": "2012-08-16T14:39:08",
      "parentPostId": "621093597"
    },
    {
      "threadId": "788279144",
      "post": "I don't know -- I'd like to know more about the study, its methodology, etc.!  But it's totally counterintuitive that experience wouldn't help in a job search, so I wonder what other differences there might be between those two groups.",
      "time": "2012-08-02T00:07:19",
      "id": "606888897",
      "parentPost": "But there is virtually no difference between those who worked unpaid internships and those who didn't work any internship at all (37% of those got a job offer with an unpaid internship versus 36% without any internship). \n\nSo yes, perhaps the paid internship thing might be a self-fulfilling prophecy (I don't think that's all of it) but when you compare the employability of those who took unpaid internships versus those who didn't do any internship at all, how is this unpaid experience helping? ",
      "parentPostTime": "2012-08-02T00:04:03",
      "parentPostId": "606887116"
    },
    {
      "threadId": "753843570",
      "post": "It's also probably worth noting that even when there aren't big issues, not everyone like \"fun and games\" at work and can be demoralized by this stuff.",
      "time": "2012-07-10T02:13:33",
      "id": "582732026",
      "parentPost": "Hm that's a good point. The way we use rule #7 is by keeping what the team will be doing a complete surprise for everyone, including the head of the department. No one but us knows what the group will be doing.\n\nThat way everyone (from CEO to newest intern) is in the same boat and the team isn't at the mercy of the preferences of the department head. We've seen that this also works to bond the team since everyone is a little nervous and excited.\n\nYou're right though that this wouldn't work for every team. Actually, we wouldn't even recommend team building experiences in general to every team. If there are deeply seated issues \"fun and games\" can just make things worse. \n",
      "parentPostTime": "2012-07-10T02:11:15",
      "parentPostId": "582730364"
    },
    {
      "threadId": "749653309",
      "post": "Hey Julie, this post appears to be partly lifted from my post on my own site:\nhttp://www.askamanager.org/2012/06/do-employers-really-care-where-you-went-to-school.html\n",
      "time": "2012-07-03T14:38:21",
      "id": "575259866"
    },
    {
      "threadId": "486648160",
      "post": "Only in fields that are regulated, like medicine. But in other fields (which is most), employers can require you to do anything they want to require you to do.",
      "time": "2012-07-03T04:53:17",
      "id": "575032753",
      "parentPost": "Are there legal safeguards to prohibit employers for requiring individuals to engage in activities outside of their area of professional expertise which are not part of their job description (EWPs)......for example, a non medical person being required to oversee the dispersing of medication?",
      "parentPostTime": "2012-07-03T04:25:46",
      "parentPostId": "575022444"
    },
    {
      "threadId": "727259956",
      "post": "Great question!  I would say that you should resist if the stuff on the list above sounds awful to you -- many people do find it awful, which is why you see so many managers who just opt out of doing this stuff ... which makes them terrible managers!\n\nBut as far as upsides ... you have the ability to run things the way they should be run -- to reward great employees, set and enforce consequences for those who are not so great, create a good culture, set clear expectations, give people feedback that helps them grow, help people stretch themselves, buffer your staff from unreasonableness above them... etc. Of course, to do most of that, you need to be working in an organization that won't get in the way of you doing that, which is why you want to pick jobs and companies really carefully. The nightmare scenario is getting into a management position where you don't actually have full authority to manage.",
      "time": "2012-06-16T02:02:38",
      "id": "558983153",
      "parentPost": "Hi Alison,\nI would be interested in hearing the upside of being a manager.  All of the items you note below are the exact reasons why I am not interested  in managing people, although I am being encouraged by my company to become a people manager.  ",
      "parentPostTime": "2012-06-15T21:06:22",
      "parentPostId": "558825740"
    },
    {
      "threadId": "717018350",
      "post": "Please do!  Spread them far and wide :)",
      "time": "2012-06-08T19:28:12",
      "id": "552220920",
      "parentPost": "Alison,\nI would like to share your tips with the managers at my organization (a San Diego nonprofit).  Would you have any objection to that?\nSincerely\nKaren Patterson\nDirector of Finance\nFeeding America San Diego",
      "parentPostTime": "2012-06-08T19:22:46",
      "parentPostId": "552214946"
    },
    {
      "threadId": "709560440",
      "post": "Yep, as Adam said, at that point you've got a bad manager who isn't doing her job.",
      "time": "2012-06-01T17:21:48",
      "id": "545115646",
      "parentPost": "So what do you do if the person is super defensive AND sucks at their job?  I have an extremely defensive co-worker who flies off the handle any time someone confronts poor behavior/work.  Additionally, if he thinks he is being the least bit mistreated or left out of something, he's on the email for hours writing to HR or the head of our department about how he feels slighted.  This, of course, cuts into his work time--on top of the fact that he already cannot prioritize his time and meet deadlines. ",
      "parentPostTime": "2012-05-31T21:01:29",
      "parentPostId": "544143626"
    },
    {
      "threadId": "505482663",
      "post": "Hmmm, I definitely wouldn't expect your boss to pick up on the fact that you intend that to be a hint that you're unhappy! But in any case, if you think the things that are making you unhappy are things that can be resolved and you have a pretty good relationship with your boss, talk to her about what's making you unhappy and see if there's a way to rectify things. Keep in mind, though, that if it's something fundamental about the work or the culture, that might not be something that can be changed.",
      "time": "2012-06-01T17:14:59",
      "id": "545109742",
      "parentPost": "What happens when your the employee and are unhappy? I had to ask my current supervisor for a review I'm hoping that they get the hint. But I'm also getting ready to walk.",
      "parentPostTime": "2012-06-01T01:24:06",
      "parentPostId": "544293794"
    },
    {
      "threadId": "646476189",
      "post": "That's definitely an option for dealing with it, but have you tried just saying, \"I can't talk right now, I need to finish this so I can leave\"?",
      "time": "2012-05-22T19:24:40",
      "id": "535954271",
      "parentPost": "I have found that the long-winded person in my office likes to chat in the early evening when many of my colleagues have left.  I tried being polite, assertive, got up and actually walked into the ladies room.  Nothing except the closed ladies room door worked - and that takes me away from getting the work done.  So I changed my schedule.  I now come in earlier, leave earlier and finish my work at home.  ",
      "parentPostTime": "2012-05-22T19:22:22",
      "parentPostId": "535952128"
    },
    {
      "threadId": "636350626",
      "post": "Absolutely!",
      "time": "2012-05-18T14:07:20",
      "id": "532095564",
      "parentPost": "Don't forget occasional acts of Random Kindness. Always fun to surprise others with the unexpected. ",
      "parentPostTime": "2012-05-18T13:25:14",
      "parentPostId": "532058157"
    },
    {
      "threadId": "680788597",
      "post": "Wow -- that's good to know. I had assumed that employers could prohibit discussion with non-employees, since I've always thought of the NLRA as ultimately being about the right to organize ... with your fellow employees, not with others. Very intriguing.\n\nI sometimes advise people who want to avoid sharing their salary history with a prospective employer to simply say that it's covered under their confidentiality agreement with their past employer. This throws that advice into jeopardy a bit (assuming that the person they're talking to knows this piece of the law, which they probably don't)!\n\nThank you!",
      "time": "2012-05-08T18:50:58",
      "id": "523209729",
      "parentPost": "Thank you for the question, Alison. Check out page three of the hyperlinked case.  The ALJ notes that Section 7 of the National Labor Relations Act protects the right of employees to discuss the wages and other benefits with each other AND WITH NONEMPLOYEES (my emphasis) and any rule that chills that expression would violate Section 8(a)(1) of the Act. So, according to the ALJ, the answer to both of your questions is no. \n\nEric\n\nP.S. - Love your blog!\n\n________________________________",
      "parentPostTime": "2012-05-08T17:44:58",
      "parentPostId": "523161200"
    },
    {
      "threadId": "655072525",
      "post": "I'm the author of this article, which was posted here without my permission. This is illegal and violates copyright laws. Please remove it immediately.",
      "time": "2012-05-01T02:17:17",
      "id": "514667340"
    },
    {
      "threadId": "636338150",
      "post": "Got it -- thanks for the follow-up explanation -- I really appreciate it!",
      "time": "2012-04-04T14:49:12",
      "id": "486057727",
      "parentPost": "Alison:\n\nThere is a link to a reproduction of the hospital opinion letter on our blog, on which the original version of this article appears.\n\nWe are not saying as a general proposition that non-profits are precluded from using non-employee volunteers.  But, whatever the conventional wisdom or practice might be, we DO caution against assuming that non-profits may do so with near-complete liberty.  Remember that, until relatively recent times, \"everybody\" thought that unpaid internships presented no FLSA problems.\n\nWe know of at least one law that prohibits using individuals to perform work without pay when the circumstances show that those individuals are covered employees within its meaning -- the FLSA.  As USDOL says, \"There is no special provision in the FLSA which precludes an employer-employee relationship between a religious, charitable or nonprofit organization and persons who perform work for such an organization.  Section 10b03(a), Field Operations Handbook (U.S. Labor Department, October 10, 1993).\n\n\n\n\n\n\n\nThere are far too many different \"volunteer\" situations in which the FLSA's principles might be in play to articulate a single or general rule.  Our point is that at least some such situations might well involve FLSA-covered employment, so it is wise to keep this possibility in mind.",
      "parentPostTime": "2012-04-04T14:47:09",
      "parentPostId": "486055994"
    },
    {
      "threadId": "604736877",
      "post": "Thanks!  I can never understand why more employers don't do that. It's such a good way to avoid making a bad hire.",
      "time": "2012-03-30T20:41:57",
      "id": "481176344",
      "parentPost": "I love the idea of seeing candidates in action. Especially if the job is hands on, have them do a task you expect them to do to see how easy it really is for them. Great post! ",
      "parentPostTime": "2012-03-30T20:35:55",
      "parentPostId": "481170553"
    },
    {
      "threadId": "627270233",
      "post": "It's also possible that the middle manager (the person who directly manages the letter-writer) is the bad manager, for not pointing out to the Big Boss that this is causing problems. The Big Boss might reasonably think he can count on the Middle Manager to point it out if he needs to do something differently!",
      "time": "2012-03-28T21:18:15",
      "id": "478786717",
      "parentPost": "I think that only Allison's answer is really helpful.  Everyone else seems to be saying \"that's the way it is, just deal with it', and I don't think that's the best advice.\n\nHierarchies may be on the decline, but that doesn't mean they should disappear entirely.  Managers exist for a reason, and it's more than just being a 'telephone' to pass on instructions from the Powers-That-Be.  Managers are supposed to take \"Big Ideas\" and break them into smaller tasks, assigning them to their subordinates, according to each employee's abilities and job responsibilities.  Bob handles I.T., Jennifer handles the HR part, Connie handles purchasing, etc.  The manager handles the big picture, and the employees handle their own specific area because that is probably what they were HIRED for (not to mention that is what they know and where their strength lies).\n\nAnd, I'm sorry, but I call shenanigans on turning this into an \"opportunity\".  Its not an opportunity.  It's bad management.  Big Manager may not have given this job to you because he thought you were the best person for the job.  Chances are he did it because you were a warm body that didn't move out of the way fast enough.  \n\nAs far as using this as a stepping stone to a promotion - not everyone wants to take on management responsibilities.  Good managers know what their employee's career goals are, and do their best to make sure each employee is in the right place.  Bad managers assume that everyone hates their current position and want to be promoted to management.\n\nIn short, this is a bad manager.  My suggestion is to push back as gently but firmly as possible.  Make clear the problems this is causing (not to you, but to the company and to the Big Idea).  \n\nIf all else fails (and I will get a lot of flak for this suggestion) you can even feign ignorance.  Constantly ask questions - \"How do you do this?\", \"Who do I call?\", \"What do I do next?\".  When the Big Boss realizes you aren't going to completely absolve him of his management duties, he'll learn to follow the hierarchy.  Or more likely, he'll dump his Big Idea on the next poor shmuck who couldn't hide fast enough.\n\n",
      "parentPostTime": "2012-03-28T20:11:59",
      "parentPostId": "478724277"
    },
    {
      "threadId": "621808928",
      "post": "Thank you!",
      "time": "2012-03-26T16:12:05",
      "id": "476501731",
      "parentPost": "Original idea for a column, and I love the advice here!  Especially \"Preemptively point out the downsides and offer solutions\" and \"Know your own power.\"\n",
      "parentPostTime": "2012-03-24T02:49:02",
      "parentPostId": "474996492"
    },
    {
      "threadId": "612085142",
      "post": "Because I think it's very condescending to woman to treat us like we're all one big block and think it's okay say things about us that would be considered bigoted if said about another demographic group, as if you can say that all members of a demographic group are good managers, or bad manager, or smart, or whatever.  If he had written \"I've learned the most from my male bosses,\" people would be quick to point out that that was coincidence and not in any way about the fact that they were male.\n",
      "time": "2012-03-21T20:45:34",
      "id": "472767233",
      "parentPost": "Why did you make that statement and ask that question? Just curious since your name implies you are a manager.",
      "parentPostTime": "2012-03-21T20:41:39",
      "parentPostId": "472763545"
    },
    {
      "threadId": "617963861",
      "post": "Hey Kate, thanks for featuring my article here. One point of correction -- good bosses absolutely WILL say \"you're in danger of getting fired.\" It's negligent not to!",
      "time": "2012-03-20T14:33:31",
      "id": "470228929"
    },
    {
      "threadId": "614977434",
      "post": "I am the author of this article. You reprinted it without my permission and in violation of copyright law. This is illegal. Please remove it immediately, and do not use other people's work without permission.",
      "time": "2012-03-20T06:50:17",
      "id": "469842716"
    },
    {
      "threadId": "611026396",
      "post": "Yes -- and there are also sometimes utterly silly requirements, like \"10 years of experience\" with a software that's only been around for 5....",
      "time": "2012-03-17T16:06:07",
      "id": "467814663",
      "parentPost": "This is a great post Alison. In reference to your first point of not misrepresenting the work, I would also recommend that employers refrain from substantially increasing the qualifications beyond what was asked before the economy crashed. There seems to be a trend the last few years of hiring managers asking for higher qualifications than they themselves and others had at time of hire. The employer initially benefits by not having to train. Meanwhile the candidate quickly realizes they have come in at the top of the position and becomes disengaged; reacting as you described in the first point. ",
      "parentPostTime": "2012-03-17T06:14:27",
      "parentPostId": "467568048"
    },
    {
      "threadId": "613289312",
      "post": "Can you elaborate more about your reasoning here? Unlike for-profit businesses, nonprofits are allowed to use volunteer labor -- many depend largely on volunteers to function -- so why would an unpaid internship somehow be different from a structured volunteer role?",
      "time": "2012-03-17T00:42:11",
      "id": "467407146"
    },
    {
      "threadId": "596584288",
      "post": "Nope, only if the intern is unpaid (and the employer is not a nonprofit). But the interns in this case (in the reader's letter) were paid interns.",
      "time": "2012-03-03T03:55:52",
      "id": "455109511",
      "parentPost": "Oops! If you hired an intern to get \"really cheap labor\" instead of offering a true learning experience, you may be violating federal law. ",
      "parentPostTime": "2012-03-03T00:23:02",
      "parentPostId": "454989183"
    },
    {
      "threadId": "584498810",
      "post": "Beth, that's a great idea. It's going on the list. Thanks!",
      "time": "2012-02-22T17:40:31",
      "id": "446046545",
      "parentPost": "Great advice. And if the training plan includes names of other people the new hire can talk to for advice, viewpoints, etc then as a manager you can remove some frustration for both of you when you have to attend to your usual duties/emergencies.\nMaybe you could do a complementary article, if you haven't written it already, for the person starting the new job about having patience and understanding and not passively sitting there after you've read the company brochures the first time.\n\nMy recent onboarding was a bit fuzzy, but I expected that based on my job interview. There was open communication about how this would be a new role and while they had specific things that needed to be done immediately, there would be a lot of flexibility required. We worked it out great between my own initiative, others' help, and my manager's determined efforts to be available between the usual emergencies.",
      "parentPostTime": "2012-02-22T11:46:32",
      "parentPostId": "445736252"
    },
    {
      "threadId": "578567137",
      "post": "Well, right, obviously you don't want a manager who lies or doesn't give accurate feedback. But the idea is that seeing negative feedback as a bad thing across the board is wrong -- because getting accurate critical feedback is how people get better, avoid being surprised by things, etc.",
      "time": "2012-02-17T18:34:57",
      "id": "442153860",
      "parentPost": "> And remember, managers who take the time to give you feedback are the ones you want to work for.\n\nI can't agree. I've had managers who made things up (lied). I've had managers who waited until the mandatory performance review to \"give feedback\" (and then biased it in terms of their poor memories.) I would want to work for a manager who gives fair and honest feedback. But not all \"feedback\" is fair or honest.",
      "parentPostTime": "2012-02-17T18:26:04",
      "parentPostId": "442144138"
    },
    {
      "threadId": "567939488",
      "post": "Ugh, yes, nail clipping!  And calling unnecessary meetings!",
      "time": "2012-02-08T03:33:29",
      "id": "432576636",
      "parentPost": "Also nail clipping :)",
      "parentPostTime": "2012-02-08T01:08:18",
      "parentPostId": "432487405"
    },
    {
      "threadId": "455394310",
      "post": "Similar problems can come up that can affect your friendship with the hiring manager, so you've got to weigh that against the benefits.",
      "time": "2012-02-05T16:41:41",
      "id": "430176673",
      "parentPost": "What about hiring a friend's husband?  My husband is unemployed and a position he would do very well at has opened up locally.  Problem is, the hiring manager is my friend.  :(",
      "parentPostTime": "2012-02-04T20:02:01",
      "parentPostId": "429588514"
    },
    {
      "threadId": "546685071",
      "post": "Exactly. They're learning what the work world is all about, and part of that is accountability, standards, etc.",
      "time": "2012-01-20T21:01:43",
      "id": "417001418",
      "parentPost": "Definitely the right thing not to cut interns slack because they aren't getting paid. If they've made a commitment to add value and do their best, they should be held accountable just like everybody else.\n\nTo do otherwise, I would argue, breaks your promise to be a true mentor as their supervisor.\n\nThanks for the post Alison!",
      "parentPostTime": "2012-01-20T18:40:47",
      "parentPostId": "416855598"
    },
    {
      "threadId": "532653364",
      "post": "I agree!  That's not to say that there aren't unreasonable micromanagers out there -- there are -- but often when someone complains of micromanagement, there's a reason for it or the person could respond to it differently!",
      "time": "2012-01-10T17:16:14",
      "id": "407225404",
      "parentPost": "These are all great tips, especially number 6. Most people don't realize that they need to do great work to earn more trust and therefore independence from their boss' micromanaging ways. I believe too many people use 'micromanage' as a cop out for just not being proactive in their role in order to deliver what the boss wants and learning to anticipate his or her needs.",
      "parentPostTime": "2012-01-10T15:27:21",
      "parentPostId": "407137292"
    },
    {
      "threadId": "527802536",
      "post": "Alexandra, I love this post -- and it would work really well as a job posting for this type of work too!  ",
      "time": "2012-01-05T23:00:26",
      "id": "401763827"
    },
    {
      "threadId": "527961251",
      "post": "#2 -- don't impose your agenda -- is key. It's frustrating when a candidate comes in clearly determined to tell me all about X and Y, when I really want to spend our time talking about A and B. Be prepared to talk about what you think is most relevant, but don't push back too hard when the interviewer takes you in a different direction.",
      "time": "2012-01-05T21:44:38",
      "id": "401645557"
    },
    {
      "threadId": "463403843",
      "post": "This article was reprinted illegally. I am the author and the copyright holder, and your publication of this article without my permission violates copyright law. Please remove it immediately.",
      "time": "2011-12-24T04:55:34",
      "id": "393522821"
    },
    {
      "threadId": "482401443",
      "post": "This article was reprinted illegally. I am the author and the copyright holder, and your publication of this article without my permission violates copyright law. Please remove it immediately.",
      "time": "2011-12-24T04:48:21",
      "id": "393519864"
    },
    {
      "threadId": "514506924",
      "post": "This article was reprinted illegally. I am the author and the copyright holder, and your publication of this article without my permission violates copyright law. Please remove it immediately.",
      "time": "2011-12-24T04:23:50",
      "id": "393512923"
    },
    {
      "threadId": "510746961",
      "post": "Good point!",
      "time": "2011-12-24T03:14:17",
      "id": "393489863",
      "parentPost": "@Alison: Thank you for this!  These recommendations can also apply to one-on-one meetings with your manager.  Bosses who know that you will get what you need and get out quickly and efficiently will be far more likely to give you their time, even when they're swamped.",
      "parentPostTime": "2011-12-22T22:03:41",
      "parentPostId": "392608065"
    },
    {
      "threadId": "495436051",
      "post": "It’s definitely not inappropriate, but it’s not obligatory either.",
      "time": "2011-12-09T02:43:14",
      "id": "382578566",
      "parentPost": "What thoughts are out there about this?\nMy employer is a non-profit with 40-60 employees at 7 locations. For the past ten years the holiday party has been on a Friday afternoon at the central office with a potluck meal and white elephant gifts and board games. Casual.\nThis year a board member and his wife are generously hosting the staff holiday party at their home on a Friday night, with cocktail attire and live music. Some employees are so happy to have the opportunity for fancy dress-up and for others this style does not appeal to them nor do they have the wardrobe nor means to stay overnight. That’s my comment. My question is, “What about a hostess gift in this case? Is it appropriate or inappropriate?”",
      "parentPostTime": "2011-12-09T02:26:51",
      "parentPostId": "382570869"
    },
    {
      "threadId": "491197354",
      "post": "Very good point about it being even more important to handle your final days at the old job well!  You really don't need your new boss hearing you've been slacking off before you've even started!",
      "time": "2011-12-02T18:40:21",
      "id": "377798655"
    },
    {
      "threadId": "490016940",
      "post": "That exchange would definitely be rude too, because it's so abrupt. But if I had already tried to politely steer them somewhere else and they ignored that, then I wouldn't have any problem saying that I was busy and didn't have time to talk further.  I'll also always offer people my email address so they can email me and I can respond at a more convenient time, although I've noticed that people who use these salesy tactics never want to move it over to email -- probably because those tactics don't work in email!",
      "time": "2011-12-01T22:07:12",
      "id": "377077798",
      "parentPost": "Allison,\n\nTotally see where you're coming from. Just to play devil's advocate (though I'm not coming down on either side of the issue--I'm just the messenger in this case), how would you feel about the guy who calls and this script occurs: \nCaller: \"Are you hiring?\"\nYou: \"No, and I'm sorry, but I don't have time to talk right now. I'm pretty busy.\" Caller: \"Oh, okay, bye.\"\n\nAs much as I hate being sold to myself, is there a time and place for it?",
      "parentPostTime": "2011-12-01T21:59:01",
      "parentPostId": "377072843"
    },
    {
      "threadId": "475164187",
      "post": "You definitely need boundaries, even if just in your own head. It's hard when work is always physically present to feel okay about taking yourself out of work mode.",
      "time": "2011-11-18T15:12:38",
      "id": "367573101",
      "parentPost": "Establish work hours and response times.  Most people I know who work from home hate it a bit and feel like they always have to be able to take a call or respond instantly to prove they are working.  One friend spent three years afraid to use the bathroom and working pretty nonstop, since home meant work.",
      "parentPostTime": "2011-11-18T11:07:11",
      "parentPostId": "367396750"
    },
    {
      "threadId": "471555145",
      "post": "Great suggestions. Even just caring to try to see yourself as others do is something that a lot of managers don't bother with, and it can go a long way!  In job interviews for management positions, I often ask candidates this question:  \"Assuming that even the greatest bosses have traits that annoy their employees, what do you think your employees' biggest complaint is about you?\"  It's amazing to me how often candidates have never thought about the question before!",
      "time": "2011-11-14T16:51:56",
      "id": "362886033"
    },
    {
      "threadId": "441188451",
      "post": "You've got to be assertive about setting boundaries -- \"I can't talk now, I'm on deadline,\"  \"I can't talk much lately, I've got a lot on working on,\" and so forth. Just keep saying that you need to focus on work. If you have to, you can get even more direct -- \"I have to cut you off now or I'll never get this done,\" etc.",
      "time": "2011-11-13T23:05:17",
      "id": "362516477",
      "parentPost": "How about coworkers who think you're their therapist? I have two different people now. I need to learn how to put my foot down about this. ",
      "parentPostTime": "2011-11-13T22:53:29",
      "parentPostId": "362512634"
    },
    {
      "threadId": "466448766",
      "post": "It's definitely hard when you can't point to numbers, but a great question to ask yourself is: What have you been accomplishing in this job that someone else might not have?Have you done an unusually good job, one that impressed your boss and coworkers and made them devastated to lose you? In what ways?For instance, maybe you introduced a new initiative that led to increased visibility for the company, or maybe you did the work of two people after someone left and wasn't replaced. Maybe you've the only person in your department's history to meet all deadlines for three years in a row. And so forth.",
      "time": "2011-11-10T20:13:35",
      "id": "360318269",
      "parentPost": "Great advice. Thanks! I don't know a person that doesn't struggle with this. One thing I notice often about this type of advice is that it always suggests that you point to your value, your sales targets, the idea you had that saved money or some other quantifiable data that has to do with money that reflects your contribution and value to the organization. But in a lot of cases people don't have such concrete numbers they can point to so their case for a raise is a lot harder, which leads to more anxiety about asking for a raise. In cases like these I recommend getting your job description from when you were hired and looking specifically at what else you have been doing in addition to what you were hired to do. Bring that list with you to the conversation. Also, it's even better if there are things you started doing on your own or volunteered to do. Then you can point to those accomplishments when you can't point to how you saved/earned the company money.  \n\nhttp://515crackofdawn.blogspot.com/",
      "parentPostTime": "2011-11-10T16:27:12",
      "parentPostId": "360118685"
    },
    {
      "threadId": "449608882",
      "post": "Definitely -- and I think that's the really key thing. You've got to make sure your staff understands how performance problems are handled, the system for warning people before they're fired, etc., so they don't worry the ax will fall on them next and they'll never see it coming.",
      "time": "2011-10-21T19:42:32",
      "id": "340927093",
      "parentPost": "Good stuff! If the person wasn’t performing, it’s useful for staff to know. Or if\nthe person was a high-achiever and left for some other reason, it’s\nalso important for staff to know that – otherwise people doing good\nwork will think “Oh man, I’m probably next,” which can hurt morale.",
      "parentPostTime": "2011-10-21T17:46:58",
      "parentPostId": "340846477"
    },
    {
      "threadId": "431672918",
      "post": "I am the author of this article, which you reprinted without my permission, which violates copyright law. Please remove it immediately.",
      "time": "2011-10-13T00:07:52",
      "id": "333106202"
    },
    {
      "threadId": "439230574",
      "post": "I was wondering why no one had picked up on that part of the letter!  Paying for leads is icky, and I suspect would undo the whole power of asking readers for help, even when you've already established good will with them.  People like doing favors for others, but they don't want to feel like their connections are being bought.",
      "time": "2011-10-10T14:01:12",
      "id": "330921516"
    },
    {
      "threadId": "435011424",
      "post": "I agree -- I wish more job-seekers would see that an honest conversation about weaker points can be part of ensuring that you'll end up in a job where you'll excel and be happy, and not in a job where you'll struggle.",
      "time": "2011-10-06T03:42:55",
      "id": "327778294",
      "parentPost": "I am honest up front with the person about what their strengths and weakness are if they ask for a reference.  And I have been the whole time they have worked with me, so they know I am not the type of give Pollyanna references.  My mindset, which they know, is very much on how we can improve, and everything can.  I also make sure we know what we are doing well, and continue to do those things (and maybe do them even better).\n\nI am the same when I interview for a job, when talking about myself.  I think honest statement of strengths and weaknesses is actually stronger for anyplace I would want to work (they are not so simple minded they don't understand weaknesses exist).  But those that want to hide what they know I think of as weaknesses are not going to ask me, which is fine.",
      "parentPostTime": "2011-10-05T23:34:03",
      "parentPostId": "327569298"
    },
    {
      "threadId": "433936246",
      "post": "A couple of thoughts on this:\n\nFirst, I often see people doing something that worked for them and then extrapolating from it to assume it's good advice for everyone else too, even when the person's experience was a fluke. (That's when you end up with horrible advice like, \"No, really, just quit on the spot, give your boss the finger, and don't look back. It worked for me!\")  I don't actually think that's entirely the case here, but it's something to be on guard against.\n\nNow, there's no reason not to try what Nickolay did. You've got very little to lose (only the time involved).\n\nBut what Nickolay did worked BECAUSE he wasn't applying to advertised jobs. If you're applying to advertised jobs, you need to write a good, at least somewhat customized cover letter -- because you need to be different than the 250 other candidates who are also applying. \n\nNow, a response to that might be, \"why go up against 250 other candidates when I can just do what Nickolay did?\"  And the answer is: (a) By writing a great cover letter, you're changing your odds so you're only up against ~10 candidates, because you shoot to the top of the stack, and (b) what Nickolay did doesn't work for everyone, or in every industry. For instance, it's less likely to work if you're more advanced in your career (he was just out of school) because you're more expensive and more specialized, and it's less likely to work if you're on less of a clearly defined career path.\n\nSo in other words, this could be useful advice for people in some circumstances, while not at all for others. And this isn't a panacea or a reason to stop writing good cover letters when you're applying to advertised openings. ",
      "time": "2011-10-04T15:45:10",
      "id": "326408852"
    },
    {
      "threadId": "427287947",
      "post": "I love it when people like this guy who haven't done any significant amount of hiring themselves decide to make ridiculous pronouncements about how hiring should work. ",
      "time": "2011-09-27T14:32:23",
      "id": "320899383"
    },
    {
      "threadId": "357346265",
      "post": "Hmmm. I suspect that someone rude enough to be a no-show isn't going to be moved to behave any differently by that speech -- and for the 99% of people who don't need to hear it, it may seem like an odd thing to say. (I know I'd react like, \"Do you really think I need to be told that?\")",
      "time": "2011-07-13T17:48:41",
      "id": "250932824"
    },
    {
      "threadId": "344436398",
      "post": "The Ladders is pretty much a scam; complaints from angry former customers (and companies who can't get their outdated job ads off The Ladders' site) abound. Their advertising is fraudulent, their services to job seekers are terrible, and they're about as ineffective as they come. Sad to see them creating a way for vulnerable job-seekers to lose more of their money.",
      "time": "2011-06-28T17:51:31",
      "id": "237054070"
    },
    {
      "threadId": "344428618",
      "post": "So they don't read them but they do read them? That's pretty contradictory.\n\nReally, though, good hiring managers do read cover letters, believe me. (Although if you're wildly unqualified, a great cover letter isn't going to change that, so it's not crazy to look at the resume first and not bother with the cover letter if the resume is totally unsuitable.) \n\nYou can always find someone who hires who believes some ridiculous thing -- don't revamp your job strategy based on it.",
      "time": "2011-06-28T16:07:45",
      "id": "236991850"
    },
    {
      "threadId": "343731567",
      "post": "I clicked through to read the contract for this. It says that they'll guarantee you \"a job offer.\" The contract actually doesn't say that it'll be a $100K+ offer.\n\nGiven The Ladders' track record of playing fast and loose with the truth, I'd be very skeptical of this program. (This is the same company that claims to offer only $100k+ listings but which has been well-documented as listing loads of jobs that are well below that rate.)",
      "time": "2011-06-27T20:49:45",
      "id": "236200766"
    },
    {
      "threadId": "343403726",
      "post": "I'm skeptical of your friend's story and wonder how accurate he was being. After all, why wouldn't he just tell the mother in no uncertain terms the very first time she showed up that the company wasn't going to discuss the employee's pay with anyone other than the employee himself? And if she continued showing up, why wouldn't he tell her that she was actually harming her son's reputation (or tell the son to put a stop to it)? Either his story is embellished or someone at his company needs to be more assertive. (I'm betting embellished though -- I just don't buy that happening more than once or twice in a company.)",
      "time": "2011-06-27T18:13:00",
      "id": "236090355"
    },
    {
      "threadId": "287987641",
      "post": "Wow, that's really disturbing. I'm sorry you had that experience, and it certainly impacts his credibility. I'll be interested to hear how he and his publisher respond!",
      "time": "2011-04-25T15:30:24",
      "id": "191520215"
    },
    {
      "threadId": "226942827",
      "post": "Hi John. I'm someone who's been a fairly vocal critic of The Ladders, at least in the comments on one of the posts you linked to, and I'm not a recruiter. I'm a hiring manager who also runs a blog trying to help job-seekers (among others) on the side. So please mark me down as a hiring manager who has a real problem with The Ladders' treatment of their customers.",
      "time": "2011-02-11T00:54:26",
      "id": "144463161"
    },
    {
      "threadId": "200156623",
      "post": "I read that article and thought, \"What are you doing posting your resume online anyway?\"  It's not a very effective job-searching strategy, punitive employer aside. Obviously the advice they gave him about networking applies, but so does just applying for jobs rather than posting a resume, sitting back, and hoping employers come to you. \n\nIt was a strange question.",
      "time": "2010-12-30T21:52:52",
      "id": "121260164"
    },
    {
      "threadId": "162130089",
      "post": "What a beautiful post!  Thank you.",
      "time": "2010-10-26T11:54:16",
      "id": "90202868"
    },
    {
      "threadId": "150115146",
      "post": "What a great idea.",
      "time": "2010-10-02T15:47:43",
      "id": "83327216"
    },
    {
      "threadId": "148844351",
      "post": "Jessica, unlike Hung, I think you're dead-on RIGHT. Really good communicators don't need to use jargon convey a point, and loads of companies, especially smaller ones, aren't using screening software that responds to specific keywords. I tell people to lose the jargon and the acronyms and talk like a normal person.",
      "time": "2010-09-30T14:55:34",
      "id": "82384490"
    },
    {
      "threadId": "148701897",
      "post": "I agree with those saying these questions are unprofessional and not especially useful. Moreover, plenty of good candidates will be so annoyed by being subjected to these that they'll lose interest in working for you (I know I would!). These questions are the province of interviewers who don't know more effective ways to interview.",
      "time": "2010-09-29T17:16:02",
      "id": "82042228"
    },
    {
      "threadId": "148700855",
      "post": "You are right. I would need to sneak into their email and turn threading off in order for this to solve the problem. Damn it.",
      "time": "2010-09-29T16:51:16",
      "id": "82034770",
      "parentPost": "I agree that can be a problem, but I feel that most (read: all) of my non-tech savvy friends miss a ton of what I try to do online simply because they don't explore as much as I do, I used to worry that they weren't getting as much out of the internet as I do, but I've given up and realize that they aren't really bothered by it. So while a missed email every once in a while does happen when people don't know what they're doing, it doesn't seem like a reason for you to not use threads, more a reason for less savvy people to be able to opt out. But then, once again, the average gmail user won't ever look in settings to see that threading can be disabled, so your problem will remain even when this change is made.",
      "parentPostTime": "2010-09-29T16:48:42",
      "parentPostId": "82034144"
    },
    {
      "threadId": "145404587",
      "post": "I would totally take them up on their offer of \"coaching\" to help me with this problem.",
      "time": "2010-09-22T16:55:24",
      "id": "80080359"
    },
    {
      "threadId": "139854185",
      "post": "Julie, is there any way you can do an internship, even if unpaid? That's one way to get your foot in the door and start getting experience. \n\nAnother path you might consider, if you're open to it, is going to small company that isn't large enough to have a dedicated HR person, but needs someone to do those functions along with other work. Those companies often aren't seeking out \"HR people\" specifically (they're often seeking office managers) but would love someone who's enthusiastic about that area.",
      "time": "2010-09-11T18:23:06",
      "id": "76945935"
    },
    {
      "threadId": "132683282",
      "post": "\"But.... this piece is for entertainment. It is to showcase my skills as a writer. And I believe it does.\"\n\nBut ... but ... what? I mean, if you are literally only trying to entertain people and really don't care that much about getting hired in the future, ok, great, mission accomplished to some extent (not fully, because I suspect most people were cringing while they read this, because you don't acknowledge how poorly you behaved). But assuming that you do care about being hired at some point in the future, this post is a really, really bad idea. Because employers care about more than writing well or being entertaining; they care about maturity and professionalism, and there are a lot of people who display ALL those items, not just the first ones.\n\nReally. Steven Slater was entertaining, but is another airline going to hire him? ",
      "time": "2010-08-24T00:54:44",
      "id": "70882379"
    },
    {
      "threadId": "125032113",
      "post": "I actually do always request a cover letter, and in fact won't accept an application without one, and think that other employers who find them useful should do the same.\n\nI agree that not every employer cares about them, of course, but given that there are plenty of employers where a great cover letter can make a difference, I'd say that a job seeker who wants to maximize her chances should include one. So many people write to me asking how they can stand out -- well, this is one of those ways, and people should take advantage of it.\n\nI actually just posted a letter on my site from a woman who feels her rewritten cover letter played a key role in getting her the job offer she wanted.\n\nI do agree with you that employers vary widely on how they use cover letters, and even from manager to manager within a single employer. But since the job seeker can't know which type they're dealing with before they apply, I'd encourage them to maximize their chances by including a great one.",
      "time": "2010-08-04T16:11:09",
      "id": "66042237",
      "parentPost": "Alison:\n\nThank you for contributing top this conversation.\n\nI agree that you may pay a lot of attention to cover letters, but looking at your Linked-In profile I am willing to assume you have not been in positions where you went through a high  volume of resumes on a daily basis but were rather in positions that allowed you the luxury of reading cover letters and still getting the rest of your work day assignments done. As I said for decision makers like this a cover letter can be beneficial.\n\nBut what I would really like to know is this, how do YOU answer Neil who wants to know why you - the royal you of course - do not specifically request a cover letter if you and others like you feel it is so important to your decision making process. If I were a co-worker going out to lunch and asked you if I could get you something at the store and you ignored me, would you have the right to hold it against me if you really wanted a burger and fries and I did not bring it for you? The same logic can be applied here. ",
      "parentPostTime": "2010-08-04T15:56:34",
      "parentPostId": "66039941"
    },
    {
      "threadId": "123740455",
      "post": "The reason I'd object to HR planning a party is simply that work should flow downward to the lowest-level person who can do it well, so that your skills can be used doing things that only you can do. Assuming the HR person also has work on their plate that only they're capable of doing, it's a strange decision to take them away from that work to put together a party. I'd assign it to an office admin for that reason.",
      "time": "2010-08-01T22:08:04",
      "id": "65632991"
    },
    {
      "threadId": "42931228",
      "post": "I'm glad you wrote about this. In the last couple of months, I've seen a significant increase in the number of emails I get from PR people, offering books, \"story ideas\" that are really thinly-disguised press releases, etc. I tell them all no and ask to be removed from their distribution list, and yet the flood is increasing, not decreasing.\n\nThe only ones that don't annoy me -- and that's a very small percentage of them -- are the ones that actually seem to have read my blog and get what I do. The others seem little different from spam to me, and they're becoming just as irritating.",
      "time": "2009-11-01T19:48:25",
      "id": "21542784"
    },
    {
      "threadId": "27482200",
      "post": "I'm going to include a link to this post in the form response I send to most book review requests!",
      "time": "2009-07-29T23:43:24",
      "id": "13579822"
    },
    {
      "threadId": "26940910",
      "post": "Great post. It is very much true that seeing your younger self in someone can really make you want to help them. I've been very aware of that in myself and I always feel a little silly about it, but I'm definitely actively interested in helping people who remind me of who/where I once was.",
      "time": "2009-07-27T00:59:50",
      "id": "13368000"
    },
    {
      "threadId": "18573000",
      "post": "I love accents. Accents of any kind, I think. I suspect there are lots of people like me, who are more likely to be charmed by an accent than put off by it.\r\n\r\nI guess the one exception would be Valley Girl.",
      "time": "2009-05-18T23:01:04",
      "id": "9516013"
    },
    {
      "threadId": "140986362",
      "post": "dobedobedoo, ADA does not require employers to keep employees who can't perform the essential functions of the job.",
      "time": "2009-01-31T02:45:59",
      "id": "5719376"
    },
    {
      "threadId": "141158330",
      "post": "Um, God of War, I have to totally disagree. They make the offer contingent upon speaking to the \"current\" employer, and I will always call the reference rather than letting the reference call me, in order to prevent the sort of thing you're suggesting (having the friend pose as the manager). This is not worth risking getting fired over down the road.",
      "time": "2008-10-19T20:21:56",
      "id": "3160471"
    },
    {
      "threadId": "5402184",
      "post": "I also wouldn't hire someone who think it's appropriate to wink and flirt in an interview (or debate), or one who refuses to answer questions.  She's acting like a cocktail waitress, not a serious executive candidate. Utterly embarrassing to women.",
      "time": "2008-10-06T01:42:16",
      "id": "2885537"
    },
    {
      "threadId": "4404541",
      "post": "Aghh, this is so completely true. I've called people on this too, in the way you described, and they always flounder when pushed to state their question. It's very annoying.",
      "time": "2008-09-23T02:06:51",
      "id": "2528433"
    },
    {
      "threadId": "3663424",
      "post": "Aha!  That fixed it. Thank you so much!!",
      "time": "2008-08-25T04:01:55",
      "id": "1821611"
    }
  ],
  "profileInfo": {
    "username": "askamanager",
    "about": "",
    "name": "Alison Green - Ask a Manager",
    "disable3rdPartyTrackers": false,
    "isPowerContributor": false,
    "isAnonymous": false,
    "rep": 1.3785349999999998,
    "profileUrl": "https://disqus.com/by/askamanager/",
    "url": "http://www.askamanager.org",
    "reputation": 1.3785349999999998,
    "location": "",
    "isPrivate": false,
    "signedUrl": "http://disq.us/?url=http%3A%2F%2Fwww.askamanager.org&key=v3I4tBjGouHgrK08mDFowQ",
    "isPrimary": true,
    "joinedAt": "2008-08-16T20:27:19",
    "id": "84251",
    "avatar": {
      "small": {
        "permalink": "https://disqus.com/api/users/avatars/askamanager.jpg",
        "cache": "//a.disquscdn.com/uploads/users/8/4251/avatar32.jpg?1447956318"
      },
      "isCustom": true,
      "permalink": "https://disqus.com/api/users/avatars/askamanager.jpg",
      "cache": "//a.disquscdn.com/uploads/users/8/4251/avatar92.jpg?1447956318",
      "large": {
        "permalink": "https://disqus.com/api/users/avatars/askamanager.jpg",
        "cache": "//a.disquscdn.com/uploads/users/8/4251/avatar92.jpg?1447956318"
      }
    }
  }
}