{
  "comments": [
    {
      "threadId": "4983867696",
      "post": "Hitting the beach to chase dolphins and collect shells.",
      "time": "2016-07-14T00:32:46",
      "id": "2781877466"
    },
    {
      "threadId": "4971206723",
      "post": "It's not the heat, it's the humidity.",
      "time": "2016-07-09T00:28:07",
      "id": "2773281894"
    },
    {
      "threadId": "4954377893",
      "post": "Their favorite is Shrek.",
      "time": "2016-07-02T01:29:50",
      "id": "2761308494"
    },
    {
      "threadId": "4917961647",
      "post": "Not since I left college!",
      "time": "2016-06-25T01:17:35",
      "id": "2749375642"
    },
    {
      "threadId": "4935704434",
      "post": "My favorite Starbucks drink is a berry smoothie.",
      "time": "2016-06-25T01:11:46",
      "id": "2749369528"
    },
    {
      "threadId": "4903308854",
      "post": "Entered the giveaway at Fab.com. Thanks!",
      "time": "2016-06-20T05:01:23",
      "id": "2740027170"
    },
    {
      "threadId": "4922890407",
      "post": "Haven't seen this, the last one was good.",
      "time": "2016-06-19T19:36:31",
      "id": "2739372801"
    },
    {
      "threadId": "4923018302",
      "post": "Hussy!",
      "time": "2016-06-19T19:29:27",
      "id": "2739363673"
    },
    {
      "threadId": "4918826299",
      "post": "Haven't seen this yet but the reviews are mostly kind.",
      "time": "2016-06-17T21:07:13",
      "id": "2736693817"
    },
    {
      "threadId": "4913952263",
      "post": "The Triplets of Belleville",
      "time": "2016-06-17T21:05:25",
      "id": "2736691229"
    },
    {
      "threadId": "4913729132",
      "post": "Blueberry bagels with honey nut cream cheese.",
      "time": "2016-06-16T00:47:13",
      "id": "2733251161"
    },
    {
      "threadId": "4906572729",
      "post": "Slip n Slide, baby!",
      "time": "2016-06-15T00:52:51",
      "id": "2731294305"
    },
    {
      "threadId": "4908160237",
      "post": "A Bridge Too Far",
      "time": "2016-06-14T00:01:27",
      "id": "2729184429"
    },
    {
      "threadId": "4906531430",
      "post": "Mad props to Queensland!",
      "time": "2016-06-13T19:37:13",
      "id": "2728753444"
    },
    {
      "threadId": "4898323477",
      "post": "20,000 Leagues Under the Sea. (I was always a Jules Verne fan.)",
      "time": "2016-06-11T04:50:14",
      "id": "2724563019"
    },
    {
      "threadId": "4889523265",
      "post": "Allergies haven't bothered me too much since I left high school. I'm all for that wild cherry!",
      "time": "2016-06-07T01:58:39",
      "id": "2715864743"
    },
    {
      "threadId": "4885192078",
      "post": "Glad to see books tackle the big issues.",
      "time": "2016-06-05T19:17:43",
      "id": "2713545041"
    },
    {
      "threadId": "4883557899",
      "post": "Live in the Moment.",
      "time": "2016-06-04T18:05:05",
      "id": "2712128902"
    },
    {
      "threadId": "4879402509",
      "post": "The portable battery, I like to stay on the go.",
      "time": "2016-06-04T01:45:46",
      "id": "2711274364"
    },
    {
      "threadId": "4882022532",
      "post": "The Sword in the Stone..",
      "time": "2016-06-04T01:28:20",
      "id": "2711256228"
    },
    {
      "threadId": "4862599161",
      "post": "Family Guy",
      "time": "2016-06-03T02:49:24",
      "id": "2709521104"
    },
    {
      "threadId": "4853541217",
      "post": "We like to get a beach house at Gulf Shores.",
      "time": "2016-05-30T01:47:09",
      "id": "2702261368"
    },
    {
      "threadId": "4860789986",
      "post": "We'll probably take Dad out on the causeway for fried oysters.",
      "time": "2016-05-28T01:09:47",
      "id": "2699311456"
    },
    {
      "threadId": "4863313054",
      "post": "I like the steaks, the wings, the coconut shrimp, the onion...",
      "time": "2016-05-28T00:35:19",
      "id": "2699276004"
    },
    {
      "threadId": "4863422677",
      "post": "Thank goodness we have a pool.",
      "time": "2016-05-28T00:25:47",
      "id": "2699266553"
    },
    {
      "threadId": "4846917588",
      "post": "My favorite superhero is The Tick!",
      "time": "2016-05-24T03:16:58",
      "id": "2692215888"
    },
    {
      "threadId": "4847030226",
      "post": "Love the owls! I didn't even go to Rice!",
      "time": "2016-05-24T02:49:27",
      "id": "2692184281"
    },
    {
      "threadId": "4851468759",
      "post": "I love chocolate frosted donuts.",
      "time": "2016-05-24T02:27:10",
      "id": "2692157270"
    },
    {
      "threadId": "4852316750",
      "post": "I wish I could have captured my first slow dance with Gaby.",
      "time": "2016-05-24T01:39:42",
      "id": "2692098875"
    },
    {
      "threadId": "4844496388",
      "post": "I like pumpkin lattes and I cannot lie.",
      "time": "2016-05-21T01:08:56",
      "id": "2687309073"
    },
    {
      "threadId": "4842021240",
      "post": "That would be me. We get vines.",
      "time": "2016-05-20T17:36:07",
      "id": "2686660138"
    },
    {
      "threadId": "4828957859",
      "post": "I shop at Amazon. I'd put this towards my next laptop because I broke the screen on my old one.",
      "time": "2016-05-17T00:16:47",
      "id": "2679329998"
    },
    {
      "threadId": "4831979336",
      "post": "My favorite snack is peanut M&Ms. I'm addicted.",
      "time": "2016-05-17T00:07:08",
      "id": "2679317897"
    },
    {
      "threadId": "4816265900",
      "post": "I like pumpkin spice lattes. There, I've said it.",
      "time": "2016-05-12T02:02:38",
      "id": "2671213690"
    },
    {
      "threadId": "4816580692",
      "post": "Our cat was suffering from an old hip injury and, uh, was kind of poopy when she came in.",
      "time": "2016-05-12T01:36:07",
      "id": "2671183965"
    },
    {
      "threadId": "4819162554",
      "post": "I like the rustic Gone Fishin' log cabin the best.",
      "time": "2016-05-12T01:01:02",
      "id": "2671143430"
    },
    {
      "threadId": "4818475444",
      "post": "I'm interested in their Paper Thin TV antenna. Mine's giving me a lot of grief.",
      "time": "2016-05-12T00:05:36",
      "id": "2671079795"
    },
    {
      "threadId": "4628133784",
      "post": "I'm the last one in my family who hasn't been to Rome! If I win I'd take my best friend Stephanie, this is really for her.",
      "time": "2016-05-11T02:18:56",
      "id": "2669457715"
    },
    {
      "threadId": "4808877045",
      "post": "Flashman by George MacDonald Fraser.",
      "time": "2016-05-09T21:16:02",
      "id": "2667184365"
    },
    {
      "threadId": "4807331459",
      "post": "Cat fur. It just seems to pile up for some reason.",
      "time": "2016-05-08T04:45:56",
      "id": "2664379286"
    },
    {
      "threadId": "4804717894",
      "post": "My favorite time of day is right before I get out of bed in the morning. I like it so much I try to make it last as long as possible.",
      "time": "2016-05-07T02:01:02",
      "id": "2662844718"
    },
    {
      "threadId": "4806167121",
      "post": "My favorite vacation destination is Vegas, Baby, Vegas!",
      "time": "2016-05-07T01:54:02",
      "id": "2662837857"
    },
    {
      "threadId": "4788637583",
      "post": "It's Like This, Cat.",
      "time": "2016-05-03T22:06:04",
      "id": "2656592618"
    },
    {
      "threadId": "4789370293",
      "post": "I'm pretty in any color of course, but I'm partial to green.",
      "time": "2016-05-01T04:12:32",
      "id": "2651789429"
    },
    {
      "threadId": "4782494263",
      "post": "I'd get a Chateubriand roast and some snow crab clusters!",
      "time": "2016-04-30T00:53:31",
      "id": "2650194349"
    },
    {
      "threadId": "4787931663",
      "post": "My favorite is the Pretty As A Peach Foaming Sugfar Scrub.",
      "time": "2016-04-30T00:37:48",
      "id": "2650171646"
    },
    {
      "threadId": "4784149574",
      "post": "The grey pillow would be perfect for my cat naps (and all my naps in fact) because, you know, at night all cats are grey.",
      "time": "2016-04-29T03:54:21",
      "id": "2648606807"
    },
    {
      "threadId": "4776691415",
      "post": "Top of my wish list is a new laptop. And cake. A big cake.",
      "time": "2016-04-28T01:18:33",
      "id": "2646552219"
    },
    {
      "threadId": "4758996127",
      "post": "I would spend it on a big pile of peanut M&MS's.",
      "time": "2016-04-21T01:59:14",
      "id": "2634640617"
    },
    {
      "threadId": "4720529031",
      "post": "My favorite outdoor activity is volleyball.",
      "time": "2016-04-20T23:59:11",
      "id": "2634506256"
    },
    {
      "threadId": "4757319753",
      "post": "That one with the man in the yellow hat.",
      "time": "2016-04-19T06:40:35",
      "id": "2631159930"
    },
    {
      "threadId": "4754842465",
      "post": "We feed the box turtle that comes up to our back porch. He likes to \"share\" the cat's food.",
      "time": "2016-04-19T06:34:10",
      "id": "2631155392"
    },
    {
      "threadId": "4757921872",
      "post": "My favorite character is Bellwether.",
      "time": "2016-04-19T06:25:49",
      "id": "2631149663"
    },
    {
      "threadId": "4748261651",
      "post": "Going to my nephew's wedding.",
      "time": "2016-04-17T03:14:10",
      "id": "2627675233"
    },
    {
      "threadId": "4748492753",
      "post": "My favorite thing about spring is when our azaleas come into bloom.\nrsbrandt44 (at) hotmail (dot) com",
      "time": "2016-04-16T08:48:15",
      "id": "2626494824"
    },
    {
      "threadId": "4744400627",
      "post": "I like the backpack features.",
      "time": "2016-04-16T03:38:40",
      "id": "2626288543"
    },
    {
      "threadId": "4750354345",
      "post": "I would pick that American flag design because all our dogs are Americans.",
      "time": "2016-04-16T03:35:30",
      "id": "2626286073"
    },
    {
      "threadId": "4739976340",
      "post": "I might save it up towards a new laptop.",
      "time": "2016-04-14T08:21:15",
      "id": "2622947757"
    },
    {
      "threadId": "4742262063",
      "post": "Nothing I'd like better on Black Friday than $50 burning a hole in my pocket.",
      "time": "2016-04-13T01:20:14",
      "id": "2620760150"
    },
    {
      "threadId": "4727890623",
      "post": "My favorite are the Sky Blue Druzy Quartz Gold Fill earrings.",
      "time": "2016-04-11T07:00:34",
      "id": "2617344729"
    },
    {
      "threadId": "4710330273",
      "post": "PayPal cash giveaways are my favorite. Amazon gift cards are okay too, because of them I've been able to get an Amazon Fire Stick, a Kindle Fire, a cover for my Kindle Fire, and a Blu-Ray player (because our old DVD player keeps shutting itself off in the middle of a movie).",
      "time": "2016-04-09T05:35:21",
      "id": "2614200952"
    },
    {
      "threadId": "4730560474",
      "post": "I find it interesting that you can either stream music or load it onto the BeBox itself.",
      "time": "2016-04-09T02:17:36",
      "id": "2614033410"
    },
    {
      "threadId": "4726379630",
      "post": "Ours are made of various kinds of plastic.",
      "time": "2016-04-09T01:59:35",
      "id": "2614015514"
    },
    {
      "threadId": "4729424479",
      "post": "We played with Tinker Toys and Erector Sets when I was a kid. We were pretty advanced I guess.",
      "time": "2016-04-09T01:56:40",
      "id": "2614012610"
    },
    {
      "threadId": "4731847729",
      "post": "I don't use a case at all so my phone is on its own.",
      "time": "2016-04-09T01:50:15",
      "id": "2614006249"
    },
    {
      "threadId": "4731462319",
      "post": "I made my first visit to Wind Creek in Atmore. It was pretty awesome.",
      "time": "2016-04-09T00:45:06",
      "id": "2613939578"
    },
    {
      "threadId": "4708923739",
      "post": "I'd love to make the braised lamb chops with crisped artichokes and gremolata.",
      "time": "2016-04-07T02:20:26",
      "id": "2610466321"
    },
    {
      "threadId": "4708447109",
      "post": "My favorite is chicken and dumplings.",
      "time": "2016-04-07T02:12:59",
      "id": "2610457997"
    },
    {
      "threadId": "4723181849",
      "post": "My biggest concern is postadolescent acne.",
      "time": "2016-04-07T01:39:54",
      "id": "2610418200"
    },
    {
      "threadId": "4710049770",
      "post": "My favorite Etsy shop is Naturally Enigma.",
      "time": "2016-04-05T02:11:30",
      "id": "2606476317"
    },
    {
      "threadId": "4720567628",
      "post": "I plan on heading up to Wind Creek for some gaming and buffets. I think I'd spend the winnings on a couple of buffets.",
      "time": "2016-04-05T02:05:21",
      "id": "2606468169"
    },
    {
      "threadId": "4715536120",
      "post": "Oddly, oatmeal chocolate chip cookies are exactly my idea of healthy eating",
      "time": "2016-04-04T03:15:17",
      "id": "2604738895"
    },
    {
      "threadId": "4692965442",
      "post": "We kept it a secret from my sister that her best friend was flying in for her birthday.",
      "time": "2016-03-31T18:20:43",
      "id": "2599155880"
    },
    {
      "threadId": "4706373036",
      "post": "I am favorably impressed. Like the Bravebird cover; nice title too.",
      "time": "2016-03-31T06:11:18",
      "id": "2598217621"
    },
    {
      "threadId": "4701799487",
      "post": "My favorite childhood is my folks piling us all into the station wagon to drive out to see the Grand Canyon,the Painted Desert and the Petrified Forest.",
      "time": "2016-03-31T01:43:40",
      "id": "2597960917"
    },
    {
      "threadId": "4701212912",
      "post": "I want that disc because it's so, so exclusive!",
      "time": "2016-03-30T03:45:39",
      "id": "2596226195"
    },
    {
      "threadId": "4682293622",
      "post": "My favorite breakfast food is Cheerios. It's nature's perfect food.",
      "time": "2016-03-29T01:31:54",
      "id": "2594097672"
    },
    {
      "threadId": "4698524642",
      "post": "I'm a shower man. The water's always fresh.",
      "time": "2016-03-29T01:28:34",
      "id": "2594093397"
    },
    {
      "threadId": "4701141789",
      "post": "I dreamed that I was at a big convention which I haven't been to in years.",
      "time": "2016-03-29T01:22:41",
      "id": "2594085671"
    },
    {
      "threadId": "4701013487",
      "post": "Spray some mildew remover on your showerhead. It can be the wettest thing in the bathroom.",
      "time": "2016-03-29T01:13:39",
      "id": "2594073784"
    },
    {
      "threadId": "4698309890",
      "post": "My favorite is a pumpkin spice latte. Hey! Don't judge me!",
      "time": "2016-03-29T01:02:53",
      "id": "2594059041"
    },
    {
      "threadId": "4700112281",
      "post": "I love the Banana Nut Bread Jewelry Candle.",
      "time": "2016-03-28T23:54:13",
      "id": "2593968944"
    },
    {
      "threadId": "4695724698",
      "post": "I like snake, or as I prefer to call it, serpentine.",
      "time": "2016-03-28T03:43:19",
      "id": "2592542850"
    },
    {
      "threadId": "4695053548",
      "post": "I'd like to win because photography is my hobby.",
      "time": "2016-03-26T23:13:11",
      "id": "2590941254"
    },
    {
      "threadId": "4691362809",
      "post": "With bags and bags of chocolate.",
      "time": "2016-03-26T02:39:14",
      "id": "2589707899"
    },
    {
      "threadId": "4664860277",
      "post": "Mean Girls for the win!\n\\",
      "time": "2016-03-23T19:55:36",
      "id": "2585534660"
    },
    {
      "threadId": "4677309689",
      "post": "My favorite part about Spring is...my birthday this month!",
      "time": "2016-03-20T06:55:12",
      "id": "2579321263"
    },
    {
      "threadId": "4663170213",
      "post": "We're re-doing the stovetop in the kitchen.",
      "time": "2016-03-15T01:47:47",
      "id": "2570040008"
    },
    {
      "threadId": "4660313167",
      "post": "I love it when all our azaleas come into bloom.",
      "time": "2016-03-14T23:18:45",
      "id": "2569832610"
    },
    {
      "threadId": "4648255308",
      "post": "My favorite pie is pumpkin pie!",
      "time": "2016-03-10T20:31:08",
      "id": "2562559419"
    },
    {
      "threadId": "4643266114",
      "post": "My favorite online store is Amazon. Quite the selection.",
      "time": "2016-03-10T02:48:25",
      "id": "2561073662"
    },
    {
      "threadId": "4643325335",
      "post": "I went to Biloxi to see Arlo Guthrie.",
      "time": "2016-03-10T02:40:34",
      "id": "2561064654"
    },
    {
      "threadId": "4645251949",
      "post": "I would get a Baltic Amber Honey necklace.",
      "time": "2016-03-09T03:14:47",
      "id": "2559163325"
    },
    {
      "threadId": "4635400444",
      "post": "But Enough About Me by Burt Reynolds.",
      "time": "2016-03-05T06:56:24",
      "id": "2552661430"
    },
    {
      "threadId": "4633647367",
      "post": "Lots and lots of chocolate.",
      "time": "2016-03-05T01:48:00",
      "id": "2552404087"
    },
    {
      "threadId": "4635153721",
      "post": "I'm celebrating my birthday!",
      "time": "2016-03-05T01:45:13",
      "id": "2552401115"
    },
    {
      "threadId": "4623291156",
      "post": "I've always had a fast metabolism so I like to eat.",
      "time": "2016-03-03T04:41:41",
      "id": "2548756800"
    },
    {
      "threadId": "4629277276",
      "post": "My calculator screen is grey, the color of video tuned to a dead channel.",
      "time": "2016-03-03T04:33:31",
      "id": "2548749614"
    },
    {
      "threadId": "4619207702",
      "post": "Other than stuffing ourselves with corned beef and cabbage? No.",
      "time": "2016-02-29T07:03:49",
      "id": "2542834295"
    },
    {
      "threadId": "4613459038",
      "post": "It's an extra day so we'd celebrate by eating leftovers.",
      "time": "2016-02-27T08:12:17",
      "id": "2539700204"
    },
    {
      "threadId": "4591802716",
      "post": "I'd pick the Predator bundle. Rowrrr!",
      "time": "2016-02-27T02:42:25",
      "id": "2539439010"
    },
    {
      "threadId": "4611837144",
      "post": "I'd be an otter. They get to play in the water and on the land.",
      "time": "2016-02-27T02:33:14",
      "id": "2539407305"
    },
    {
      "threadId": "4611879837",
      "post": "This would be a gift for someone.",
      "time": "2016-02-27T02:28:59",
      "id": "2539403068"
    },
    {
      "threadId": "4607158505",
      "post": "I like listening to music on my iPod Touch with a good set of earbuds.",
      "time": "2016-02-26T02:46:12",
      "id": "2535903455"
    },
    {
      "threadId": "4609286295",
      "post": "20,000 Leagues Under the Sea",
      "time": "2016-02-26T02:34:55",
      "id": "2535885223"
    },
    {
      "threadId": "4610716470",
      "post": "Yes, but I've never seen any that look like these before.",
      "time": "2016-02-26T02:14:21",
      "id": "2535855319"
    },
    {
      "threadId": "4611217130",
      "post": "We'd go out to Biloxi for dinner and a show.",
      "time": "2016-02-26T01:58:16",
      "id": "2535832437"
    },
    {
      "threadId": "4589087961",
      "post": "That egg and bacon pancake sandwich has everything I want in a breakfast.",
      "time": "2016-02-25T03:02:41",
      "id": "2533951318"
    },
    {
      "threadId": "4594597601",
      "post": "Penny, our copper-colored dachsund.",
      "time": "2016-02-20T05:12:57",
      "id": "2524579256"
    },
    {
      "threadId": "4583135502",
      "post": "I just watch late-night television until I pass out.",
      "time": "2016-02-17T04:46:24",
      "id": "2518191023"
    },
    {
      "threadId": "4581167832",
      "post": "We get the family together for a big dinner at my sister's house.",
      "time": "2016-02-17T04:23:03",
      "id": "2518168698"
    },
    {
      "threadId": "4574975535",
      "post": "I don't use many straws on a daily basis outside of restaurant visits.",
      "time": "2016-02-16T04:53:46",
      "id": "2515934113"
    },
    {
      "threadId": "4579573795",
      "post": "I'd like to win the Dino Silverware Set for my baby nephew. Spoons already fascinate him.",
      "time": "2016-02-16T04:46:21",
      "id": "2515927873"
    },
    {
      "threadId": "4582714517",
      "post": "My favorite dessert is pumpkin pie.",
      "time": "2016-02-16T02:55:15",
      "id": "2515806889"
    },
    {
      "threadId": "4579945073",
      "post": "I'd take the Intrepid buckle and belt set (black and stainless steel).",
      "time": "2016-02-16T02:50:26",
      "id": "2515800917"
    },
    {
      "threadId": "4560554173",
      "post": "I have wavy hair that gets unmanageable the longer it gets.",
      "time": "2016-02-15T19:27:37",
      "id": "2515163902"
    },
    {
      "threadId": "4564317146",
      "post": "I like to be able to carry a library around with me...and not worry about any of the books cracking their spine or losing pages or having something spilled on them.",
      "time": "2016-02-14T20:09:42",
      "id": "2513565371"
    },
    {
      "threadId": "4568784824",
      "post": "Linus is my favorite. He's the most intellectual...yet he can't shake that darn blanket.",
      "time": "2016-02-14T01:18:13",
      "id": "2512393059"
    },
    {
      "threadId": "4555388541",
      "post": "I would buy myself some sweet groceries.",
      "time": "2016-02-13T05:15:55",
      "id": "2511126810"
    },
    {
      "threadId": "4574921903",
      "post": "Reese's Nutrageous is the greatest candy bar ever invented.",
      "time": "2016-02-13T04:59:50",
      "id": "2511114690"
    },
    {
      "threadId": "4520046577",
      "post": "A big bowl of Cheerios, nature's perfect food.",
      "time": "2016-02-11T23:15:33",
      "id": "2509000702"
    },
    {
      "threadId": "4565411824",
      "post": "I'd have to say the worst Valentine's Day present I received was the suitcase full of fish.",
      "time": "2016-02-11T05:25:34",
      "id": "2507592452"
    },
    {
      "threadId": "4560845964",
      "post": "Fortune's Formula by William Poundstone",
      "time": "2016-02-08T19:01:02",
      "id": "2502946901"
    },
    {
      "threadId": "4540332987",
      "post": "You had me at puffy pink stilettos.",
      "time": "2016-02-08T18:18:17",
      "id": "2502870219"
    },
    {
      "threadId": "4561445034",
      "post": "Can't say I've made their acquaintance.",
      "time": "2016-02-08T18:06:32",
      "id": "2502848011"
    },
    {
      "threadId": "4543607012",
      "post": "My favorite Valentine candy is holiday peanut M&M's.",
      "time": "2016-02-08T07:31:08",
      "id": "2502113907"
    },
    {
      "threadId": "4543167906",
      "post": "Great! How do we enter?",
      "time": "2016-02-07T05:47:21",
      "id": "2500549686"
    },
    {
      "threadId": "4497151485",
      "post": "\"The time is always right to do the right thing.\"",
      "time": "2016-02-05T01:05:56",
      "id": "2496801105"
    },
    {
      "threadId": "4548542826",
      "post": "The Mobile SPCA. I do what I can.",
      "time": "2016-02-03T18:13:13",
      "id": "2494198607"
    },
    {
      "threadId": "4532535658",
      "post": "I'm using Shick disposables right at the moment.",
      "time": "2016-01-30T02:14:06",
      "id": "2485950385"
    },
    {
      "threadId": "4492350771",
      "post": "I plan on taking more long walks.",
      "time": "2016-01-27T03:49:21",
      "id": "2480108276"
    },
    {
      "threadId": "4517575579",
      "post": "Reese's Nutrageous is the greatest candy bar ever conceived by mere mortals.",
      "time": "2016-01-26T05:52:54",
      "id": "2478376616"
    },
    {
      "threadId": "4513964176",
      "post": "My favorite place is Amazon, because they have so much (and because my Fire Stick and Kindle come in so handy).",
      "time": "2016-01-23T02:47:03",
      "id": "2472982950"
    },
    {
      "threadId": "4508688556",
      "post": "Nope, haven't seen any Crystal movies to the best of my knowledge.",
      "time": "2016-01-22T08:04:02",
      "id": "2471429090"
    },
    {
      "threadId": "4497163372",
      "post": "My goal for 2016 is to rebuild my bankroll.",
      "time": "2016-01-20T21:13:00",
      "id": "2468882027"
    },
    {
      "threadId": "4501370728",
      "post": "I could buy a new laptop! Maybe? A small one. I dunno.",
      "time": "2016-01-20T02:15:56",
      "id": "2467489135"
    },
    {
      "threadId": "4500345695",
      "post": "My favorite animal is the otter just because they're so playful. They really know how to enjoy life.",
      "time": "2016-01-18T07:30:36",
      "id": "2464172412"
    },
    {
      "threadId": "4492262960",
      "post": "It's Drac!",
      "time": "2016-01-15T05:04:51",
      "id": "2458979754"
    },
    {
      "threadId": "4488913362",
      "post": "Sandwiches, burritos, DVD's, and a pile of chocolate chip cookies and peanut M&M's.",
      "time": "2016-01-15T04:54:54",
      "id": "2458970734"
    },
    {
      "threadId": "4490528211",
      "post": "Nothing says lovin' like something in the oven.",
      "time": "2016-01-15T04:40:17",
      "id": "2458957502"
    },
    {
      "threadId": "4492225282",
      "post": "Uh, sure! And who doesn't like dragons? I came here about the coffee though.",
      "time": "2016-01-15T03:19:00",
      "id": "2458870696"
    },
    {
      "threadId": "4490666830",
      "post": "If I won I would blow it all on chocolate chip cookies and peanut M&M's. Or maybe Grape Nuts.",
      "time": "2016-01-15T02:23:47",
      "id": "2458807332"
    },
    {
      "threadId": "4474845332",
      "post": "My New Year's resolution is to rebuild my bankroll. So far, so good.",
      "time": "2016-01-10T04:37:59",
      "id": "2449432488"
    },
    {
      "threadId": "4468821064",
      "post": "I entered a Rock-'Em-Sock-'Em Robots tournament.",
      "time": "2016-01-08T02:45:06",
      "id": "2445686442"
    },
    {
      "threadId": "4469211638",
      "post": "I've interviewed several of the cast and crew of the worst movie ever filmed.",
      "time": "2016-01-08T01:11:48",
      "id": "2445580848"
    },
    {
      "threadId": "4469132262",
      "post": "Hi my name is Richard and I was the first historian for the worst movie ever made.",
      "time": "2016-01-07T21:26:10",
      "id": "2445252282"
    },
    {
      "threadId": "4448890934",
      "post": "My favorite is the Carbon Fiber Lenovo Yoga 900S.",
      "time": "2016-01-06T01:26:48",
      "id": "2441853053"
    },
    {
      "threadId": "4454768529",
      "post": "My favorite minion would be Kevin. No, wait, Stuart! Bob?",
      "time": "2016-01-04T21:57:13",
      "id": "2439708156"
    },
    {
      "threadId": "4459314291",
      "post": "My New Year's resolution is to rebuild my bankroll.",
      "time": "2016-01-04T21:53:27",
      "id": "2439702199"
    },
    {
      "threadId": "4444383053",
      "post": "My fave Big Daddy song is I Get The Job Done.",
      "time": "2016-01-03T22:37:54",
      "id": "2438048989"
    },
    {
      "threadId": "4427269174",
      "post": "Would love to have this watch rsbrandt44 (at) hotmail (dot) com",
      "time": "2016-01-02T19:31:16",
      "id": "2436278193"
    },
    {
      "threadId": "4450771393",
      "post": "Best Do Their Little Turn Out On The Catwalk.",
      "time": "2016-01-02T05:05:13",
      "id": "2435540750"
    },
    {
      "threadId": "4450527904",
      "post": "I want to win this for my dad, the allergies here really get to him.",
      "time": "2016-01-02T05:00:26",
      "id": "2435537629"
    },
    {
      "threadId": "4452333149",
      "post": "I made a resolution to rebuild my bankroll.",
      "time": "2016-01-02T04:56:25",
      "id": "2435535122"
    },
    {
      "threadId": "4391056313",
      "post": "I'd like to get local goods from VEGAS, BABY, VEGAS!",
      "time": "2015-12-30T04:51:08",
      "id": "2431662904"
    },
    {
      "threadId": "4434105891",
      "post": "My most thoughtful gift was some home-made jam from my sister in Salem.",
      "time": "2015-12-26T22:40:55",
      "id": "2427069397"
    },
    {
      "threadId": "4384723309",
      "post": "Oh, and Bratz: The Movie. Can't forget Bratz: The Movie.",
      "time": "2015-12-26T04:21:46",
      "id": "2426247432",
      "parentPost": "Yeah, ya missed 3 Women and The 300 Spartans, I think. But you stumbled across a few I didn't. I'm up to around 145 now.",
      "parentPostTime": "2015-12-26T04:12:15",
      "parentPostId": "2426242324"
    },
    {
      "threadId": "4428532015",
      "post": "Amateurs! I've found 139 movies on Netflix that are showing expiration dates for January 1 alone...",
      "time": "2015-12-26T04:03:14",
      "id": "2426237331"
    },
    {
      "threadId": "4431188348",
      "post": "Worse, this list of movies leaving is far from complete; I've identified 139 movies that are scheduled to expire on January 1 alone.",
      "time": "2015-12-26T04:01:23",
      "id": "2426236371"
    },
    {
      "threadId": "4431009317",
      "post": "I hope it's a really sweet DVD.",
      "time": "2015-12-25T03:07:36",
      "id": "2425309331"
    },
    {
      "threadId": "4423935519",
      "post": "I like my coffee light and sweet.",
      "time": "2015-12-24T05:52:57",
      "id": "2424224785"
    },
    {
      "threadId": "4429446311",
      "post": "My favorite is Doc McStuffins. I like medical shows.",
      "time": "2015-12-24T05:42:13",
      "id": "2424217589"
    },
    {
      "threadId": "4403250539",
      "post": "I would pick out a nice necklace.",
      "time": "2015-12-23T02:10:23",
      "id": "2422462421"
    },
    {
      "threadId": "4403856189",
      "post": "I like shopping at CVS and I want to win! Love their coupon kiosk.",
      "time": "2015-12-23T02:09:11",
      "id": "2422461178"
    },
    {
      "threadId": "4425591436",
      "post": "Star Wars as a Christmas special! What?",
      "time": "2015-12-23T00:23:43",
      "id": "2422349094"
    },
    {
      "threadId": "4398731421",
      "post": "I'd like to try that Maple Almond Butter. Sounds deliciously different!",
      "time": "2015-12-22T02:18:40",
      "id": "2420824401"
    },
    {
      "threadId": "4422382542",
      "post": "I'd like to try the Chocolate Mousse Reindeer.",
      "time": "2015-12-22T02:07:40",
      "id": "2420812747"
    },
    {
      "threadId": "4417393937",
      "post": "My favorite Star Wars character is Princess Leia.",
      "time": "2015-12-22T02:00:55",
      "id": "2420805820"
    },
    {
      "threadId": "4423779145",
      "post": "Dollar Tree! I got stuffed bears for everybody there one year!",
      "time": "2015-12-22T01:56:54",
      "id": "2420801572"
    },
    {
      "threadId": "4418663814",
      "post": "Holiday Peanut M&M's!",
      "time": "2015-12-21T18:38:21",
      "id": "2420208509"
    },
    {
      "threadId": "4420968469",
      "post": "More giveaways! I can dream, can't I?",
      "time": "2015-12-21T08:20:23",
      "id": "2419482846"
    },
    {
      "threadId": "4402852813",
      "post": "A lot of people probably don't know that I was a television reporter for five years.",
      "time": "2015-12-21T07:46:34",
      "id": "2419462512"
    },
    {
      "threadId": "4411668264",
      "post": "I play a mean harmonica, and I took some piano lessons when I was a kid.",
      "time": "2015-12-21T07:45:12",
      "id": "2419461597"
    },
    {
      "threadId": "4418253451",
      "post": "My favorite is Princess Leia.",
      "time": "2015-12-21T04:40:24",
      "id": "2419338413"
    },
    {
      "threadId": "4416722666",
      "post": "My favorite book was Heartbreaker by Julie Garwood",
      "time": "2015-12-20T04:40:00",
      "id": "2418083710"
    },
    {
      "threadId": "4416650400",
      "post": "I started reading Christmas-themed books with A Christmas Carol and I've never stopped. Looking forward to Neil Gaiman's Sandman Overture.",
      "time": "2015-12-20T03:42:40",
      "id": "2418043818"
    },
    {
      "threadId": "4416794088",
      "post": "Egg nog! Can't get enough of the stuff!",
      "time": "2015-12-19T22:10:38",
      "id": "2417752047"
    },
    {
      "threadId": "4404843647",
      "post": "Daddy needs a new pair of shoes.",
      "time": "2015-12-19T20:02:14",
      "id": "2417619014"
    },
    {
      "threadId": "4403662194",
      "post": "Kevin",
      "time": "2015-12-18T07:48:43",
      "id": "2415441367"
    },
    {
      "threadId": "4381008935",
      "post": "A new pair of eyeglasses and a new pair of shoes.",
      "time": "2015-12-17T02:34:18",
      "id": "2413572323"
    },
    {
      "threadId": "4395722101",
      "post": "Dollar Tree! I stopped off at a Dollar Tree in Bay St. Louis, Mississippi once and found a whole pile of stuffed bears just in time for Christmas!",
      "time": "2015-12-17T02:29:54",
      "id": "2413567333"
    },
    {
      "threadId": "4363654968",
      "post": "i'm looking forward to Sandman Overture by Neil Gaiman",
      "time": "2015-12-16T08:53:53",
      "id": "2412205597"
    },
    {
      "threadId": "4373163154",
      "post": "I'd print a new transmission for my Mercury Sable.",
      "time": "2015-12-14T05:25:26",
      "id": "2408664740"
    },
    {
      "threadId": "4394301943",
      "post": "My favorite book so far has been The Gods of Lovecraft. I'd like to see a copy of Illuminae under my tree.",
      "time": "2015-12-13T08:03:23",
      "id": "2407416292"
    },
    {
      "threadId": "4393987255",
      "post": "Tough call! I'm leaning towards A Respectable Actress but The Bronte Plot is a definite contender.",
      "time": "2015-12-13T06:40:57",
      "id": "2407353670"
    },
    {
      "threadId": "4392646992",
      "post": "Peter Pan as a Jedi. Sounds weird until you think about it. He has mad sword skillz and he can fly, right?",
      "time": "2015-12-11T05:36:33",
      "id": "2404355326"
    },
    {
      "threadId": "4331348086",
      "post": "I love the physical keyboard! I'm old school when it comes to typing.",
      "time": "2015-12-10T21:09:54",
      "id": "2403795022"
    },
    {
      "threadId": "4386563784",
      "post": "My lady enjoys a good massage.",
      "time": "2015-12-10T05:33:23",
      "id": "2402656143"
    },
    {
      "threadId": "4348826628",
      "post": "I'd love to try the fruit snacks, especially the banana flavor.",
      "time": "2015-12-09T18:47:49",
      "id": "2401792670"
    },
    {
      "threadId": "4370388431",
      "post": "Because they're TARDIS headphones so the sound would be bigger inside my ears than outside.",
      "time": "2015-12-07T04:27:59",
      "id": "2397266434"
    },
    {
      "threadId": "4342036663",
      "post": "The studio, that's where they spend most of their down time when they're inside.",
      "time": "2015-12-07T03:23:17",
      "id": "2397207954"
    },
    {
      "threadId": "4358843948",
      "post": "Just two at the moment.",
      "time": "2015-12-07T03:20:45",
      "id": "2397205686"
    },
    {
      "threadId": "4373283534",
      "post": "Yes, I get her toys to play with. She gets more fun out of them than most of us do from our presents.",
      "time": "2015-12-07T03:19:26",
      "id": "2397204566"
    },
    {
      "threadId": "4381201782",
      "post": "I'd prefer the blue one.",
      "time": "2015-12-07T03:16:10",
      "id": "2397201533"
    },
    {
      "threadId": "4364884610",
      "post": "It's Amazon, that's where I can find my DVDs of obscure movies.",
      "time": "2015-12-06T19:44:14",
      "id": "2396598550"
    },
    {
      "threadId": "4364885760",
      "post": "I usually start making Christmas preparations around the time I hear hooves clattering on my rooftop.",
      "time": "2015-12-06T18:34:49",
      "id": "2396507150"
    },
    {
      "threadId": "4365252116",
      "post": "I was born to wander so this is the giveaway for me.",
      "time": "2015-12-06T03:59:50",
      "id": "2395701330"
    },
    {
      "threadId": "4364886010",
      "post": "It's been years! But I'm a puzzle solver by nature.",
      "time": "2015-12-03T23:53:01",
      "id": "2392101146"
    },
    {
      "threadId": "4356278869",
      "post": "I'd like that Star Wars Signature Lightsaber.",
      "time": "2015-12-02T18:51:48",
      "id": "2389202889"
    },
    {
      "threadId": "4359853104",
      "post": "I believe I would keep this one for myself.",
      "time": "2015-12-02T07:06:06",
      "id": "2388373263"
    },
    {
      "threadId": "4340367160",
      "post": "Thanks for the giveaway! I'm new here, but thanks just the same!",
      "time": "2015-11-28T05:49:40",
      "id": "2382202412"
    },
    {
      "threadId": "4334878270",
      "post": "Just thankful to have a roof over my head.",
      "time": "2015-11-28T04:27:44",
      "id": "2382146045"
    },
    {
      "threadId": "4354307330",
      "post": "The Gods of Lovecraft",
      "time": "2015-11-28T03:46:19",
      "id": "2382113512"
    },
    {
      "threadId": "4354857444",
      "post": "I'm all about the sweets! Everyone hurry up and eat so we can get to dessert!",
      "time": "2015-11-28T02:57:48",
      "id": "2382073957"
    },
    {
      "threadId": "4348983277",
      "post": "Black Friday? Great Steely Dan song. I steer clear of the malls though. For Thanksgiving we had chicken cacciatore, corn pudding, mashed sweet potatoes, green beans, cornbread muffins, and pumpkin pie.",
      "time": "2015-11-28T02:07:48",
      "id": "2382029950"
    },
    {
      "threadId": "4355366189",
      "post": "My best gift was copy of Joe-Bob Goes to the Drive-In by Joe-Bob Briggs. Someone gave me that who really knew me.",
      "time": "2015-11-27T19:13:58",
      "id": "2381559951"
    },
    {
      "threadId": "4348822023",
      "post": "Taboo or Not Taboo? TABOO!!!",
      "time": "2015-11-27T03:30:36",
      "id": "2380696022"
    },
    {
      "threadId": "4314543832",
      "post": "Yay, buttons! Congratulations on your blogiversary and good luck in your future posting, as they say.",
      "time": "2015-11-26T07:53:35",
      "id": "2379464540"
    },
    {
      "threadId": "4351684616",
      "post": "What better way to spend your holiday weekend than sitting at the keyboard entering giveaways? Don't ask me, I can't think of any.",
      "time": "2015-11-26T07:51:24",
      "id": "2379463004"
    },
    {
      "threadId": "4348535255",
      "post": "My wavy hair gets all unmanageable as it gets longer.",
      "time": "2015-11-26T05:19:34",
      "id": "2379357481"
    },
    {
      "threadId": "4337462809",
      "post": "I plan on eating a lot of pie.",
      "time": "2015-11-26T05:15:30",
      "id": "2379354491"
    },
    {
      "threadId": "4351289059",
      "post": "I would get it for PS/4 and play the collected works of AC/DC.",
      "time": "2015-11-26T04:59:56",
      "id": "2379342853"
    },
    {
      "threadId": "4349968427",
      "post": "I'd like to get the Sequin Shark-Bite Sweater because I just like saying \"Shark-Bite Sweater.\"",
      "time": "2015-11-25T19:43:56",
      "id": "2378657130"
    },
    {
      "threadId": "4342751919",
      "post": "I'm all about drinking the egg nog.",
      "time": "2015-11-24T05:13:45",
      "id": "2375785218"
    },
    {
      "threadId": "4324287596",
      "post": "I'm looking forward to Frozen Tides.",
      "time": "2015-11-20T07:17:24",
      "id": "2369603763"
    },
    {
      "threadId": "4333259774",
      "post": "It takes place of honor over the fireplace.",
      "time": "2015-11-19T23:50:47",
      "id": "2369128909"
    },
    {
      "threadId": "4301794428",
      "post": "I can't travel without my laptop.",
      "time": "2015-11-19T21:56:18",
      "id": "2368969190"
    },
    {
      "threadId": "4319909683",
      "post": "I would buy myself some sweet groceries.",
      "time": "2015-11-18T07:06:11",
      "id": "2365793847"
    },
    {
      "threadId": "4322575020",
      "post": "Rounding up the kids from around the country and getting everyone together.",
      "time": "2015-11-17T05:20:35",
      "id": "2363896776"
    },
    {
      "threadId": "4322235963",
      "post": "A Christmas Carol by Charles Dickens",
      "time": "2015-11-17T00:05:06",
      "id": "2363555305"
    },
    {
      "threadId": "4319355585",
      "post": "I'm just thankful to have a roof over my head.",
      "time": "2015-11-15T00:02:47",
      "id": "2360222149"
    },
    {
      "threadId": "4290662515",
      "post": "Great! It's not a party until the snowman shows up!",
      "time": "2015-11-14T20:35:06",
      "id": "2359987561"
    },
    {
      "threadId": "4284383938",
      "post": "Thanks for the recipe, I like to mix it up with my puddings.",
      "time": "2015-11-14T19:23:31",
      "id": "2359891977"
    },
    {
      "threadId": "4305043482",
      "post": "If there's two things I like to be, it's fit and cheap.",
      "time": "2015-11-14T19:20:12",
      "id": "2359887657"
    },
    {
      "threadId": "4315863500",
      "post": "Chocolate chip cookies, peanut M&M's...hey I won't lie to ya.",
      "time": "2015-11-14T04:15:03",
      "id": "2358999326"
    },
    {
      "threadId": "4317100261",
      "post": "Round up all the kids from around the country and get them here for Thanksgiving dinner.",
      "time": "2015-11-14T04:07:19",
      "id": "2358992380"
    },
    {
      "threadId": "4263567236",
      "post": "The Gingerbread Men Mint Earrings https://www.etsy.com/nz/listing/254931377/gingerbread-men-ginger-mint-earrings-925",
      "time": "2015-11-11T21:55:29",
      "id": "2354237189"
    },
    {
      "threadId": "4305722721",
      "post": "I like the \"Made in Canada\" Maple Leaf Necklace! https://www.etsy.com/listing/225572469/made-in-canada-maple-leaf-necklace-gift",
      "time": "2015-11-11T21:50:38",
      "id": "2354229802"
    },
    {
      "threadId": "4306912274",
      "post": "Actually it's the end, where, uncharacteristically, Clark gets to savor a moment of satisfaction and accomplishment.",
      "time": "2015-11-10T23:41:47",
      "id": "2352661060"
    },
    {
      "threadId": "4279770679",
      "post": "Pumpkin ice cream malteds at Swensen's.",
      "time": "2015-11-07T04:13:32",
      "id": "2346964190"
    },
    {
      "threadId": "4296720550",
      "post": "I'd love to have a Kindle. If you rub two Amazon Fire Sticks together, can you make a Kindle Fire?",
      "time": "2015-11-07T04:03:34",
      "id": "2346956592"
    },
    {
      "threadId": "4296736215",
      "post": "We were driving cross country and I stopped off at a rest stop to take my cat for a walk on the end of his chain. He went sniffing at absolutely everything and was investigating the drainpipe under a culvert when an 18-wheeler pulled in and stopped with a great WHOOSH. My cat went *THUMP* shot into the drainpipe and was stuck there with his hind end and tail sticking out.",
      "time": "2015-11-07T03:53:22",
      "id": "2346948804"
    },
    {
      "threadId": "4286165441",
      "post": "We'll put this tree up in the living room where my dad can lay the tracks of his train set down under it.",
      "time": "2015-11-06T02:24:46",
      "id": "2345200394"
    },
    {
      "threadId": "4288220577",
      "post": "Long walks to enjoy the cooler days and changing scenery.",
      "time": "2015-11-06T01:52:07",
      "id": "2345167349"
    },
    {
      "threadId": "4292423475",
      "post": "It's a 70-inch tablet that won't break your wallet...or your hip.",
      "time": "2015-11-05T17:28:59",
      "id": "2344438997"
    },
    {
      "threadId": "4287691393",
      "post": "I prefer it on the side.",
      "time": "2015-11-05T02:36:29",
      "id": "2343510727"
    },
    {
      "threadId": "4290435113",
      "post": "Long walks to take advantage of the cool weather and changing scenery.",
      "time": "2015-11-05T02:31:43",
      "id": "2343505645"
    },
    {
      "threadId": "4290684762",
      "post": "Today I say hazelnut. Tomorrow I'd probably want to try another one.",
      "time": "2015-11-05T02:28:28",
      "id": "2343502285"
    },
    {
      "threadId": "4290452728",
      "post": "I've seen a very helpful television PSA version of the warning signs. One of my older friends experienced a stroke and was largely confined to a wheelchair afterwards. Fortunately he was still able to find ways to be active.",
      "time": "2015-11-05T02:19:22",
      "id": "2343492659"
    },
    {
      "threadId": "4274056774",
      "post": "My favorite selling point is that Sony rear camera.",
      "time": "2015-10-31T22:49:35",
      "id": "2337035413"
    },
    {
      "threadId": "4250133917",
      "post": "Wifi, a Kindle, and my laptop.",
      "time": "2015-10-31T03:29:30",
      "id": "2335972588"
    },
    {
      "threadId": "4274242585",
      "post": "Poker! That's still the greatest game that was ever invented.",
      "time": "2015-10-31T02:05:22",
      "id": "2335894283"
    },
    {
      "threadId": "4269991906",
      "post": "My favorite paranormal writers would be Stephen King and Richard Matheson.",
      "time": "2015-10-30T04:51:07",
      "id": "2334256396"
    },
    {
      "threadId": "4270358362",
      "post": "The Haunting (1963) still the champ!",
      "time": "2015-10-30T03:15:35",
      "id": "2334186026"
    },
    {
      "threadId": "4269918062",
      "post": "I'm just happy Ray lived to see his tree!",
      "time": "2015-10-30T00:09:29",
      "id": "2334001788"
    },
    {
      "threadId": "4259294354",
      "post": "Halloween! Candy and scary movies both give me a rush.",
      "time": "2015-10-28T21:04:31",
      "id": "2331899713"
    },
    {
      "threadId": "4250605504",
      "post": "My favorite holiday dessert is pumpkin pie.",
      "time": "2015-10-28T21:02:02",
      "id": "2331895486"
    },
    {
      "threadId": "4260691301",
      "post": "Spider-Man. He does whatever a spider can and what a man's gotta do.",
      "time": "2015-10-28T04:46:33",
      "id": "2330595684"
    },
    {
      "threadId": "4261594061",
      "post": "Rio de Janiero. I love Brazilian culture.",
      "time": "2015-10-27T03:16:59",
      "id": "2328554784"
    },
    {
      "threadId": "4259316659",
      "post": "I'm all about the chupacabra.",
      "time": "2015-10-26T02:47:12",
      "id": "2326810786"
    },
    {
      "threadId": "4250497452",
      "post": "Oh, the remake is awful! The original is much closer to the book (which isn't saying much!) but most important it realized it's much scarier not to show you too much.",
      "time": "2015-10-26T02:35:35",
      "id": "2326799842",
      "parentPost": "Have only seen the remake. Might have to watch the original, with the lights on, of course ;)",
      "parentPostTime": "2015-10-26T02:13:59",
      "parentPostId": "2326779663"
    },
    {
      "threadId": "4248583128",
      "post": "It was poker, same as now.",
      "time": "2015-10-24T04:04:16",
      "id": "2324048298"
    },
    {
      "threadId": "4242274521",
      "post": "Follow you on Twitter. Subscribe to your e-mails. My weapon of choice would be a high-powered rifle with a telescopic sight because I don't want those suckers even getting close.",
      "time": "2015-10-23T02:09:50",
      "id": "2322045285"
    },
    {
      "threadId": "4247141574",
      "post": "I would go to 2001 and invest all my savings differently.",
      "time": "2015-10-22T00:42:54",
      "id": "2320077381"
    },
    {
      "threadId": "4216238306",
      "post": "Stuffing myself with Hershey's Miniatures.",
      "time": "2015-10-21T21:58:30",
      "id": "2319881115"
    },
    {
      "threadId": "4220320403",
      "post": "I like the Africa Dreaming Earrings http://www.gingermint.nz/store/p613/Africa_Dreaming_Earrings.html",
      "time": "2015-10-20T23:28:27",
      "id": "2318145890"
    },
    {
      "threadId": "4241105727",
      "post": "Stay up late watching spooky movies.",
      "time": "2015-10-20T06:25:01",
      "id": "2316309644"
    },
    {
      "threadId": "4191693733",
      "post": "Looking forward to Illuminae for sure!",
      "time": "2015-10-19T06:19:30",
      "id": "2314539007"
    },
    {
      "threadId": "4219542865",
      "post": "We try to eat well and stay active.",
      "time": "2015-10-18T04:57:47",
      "id": "2313100394"
    },
    {
      "threadId": "4233571310",
      "post": "I like the Magenta Princess Cloak. Not very Rocky Horror, though.",
      "time": "2015-10-17T23:27:48",
      "id": "2312756660"
    },
    {
      "threadId": "4234767185",
      "post": "All kinds! I'd like to see some DVD reviews, though.",
      "time": "2015-10-17T23:23:42",
      "id": "2312752613"
    },
    {
      "threadId": "4229702940",
      "post": "A good selection. I have to check out Saturn Run as I'm familiar with Ctein through science fiction circles.",
      "time": "2015-10-17T19:53:37",
      "id": "2312518916"
    },
    {
      "threadId": "4232295686",
      "post": "Sure. That's where the jobs of tomorrow will be in this country.",
      "time": "2015-10-17T01:48:05",
      "id": "2311497250"
    },
    {
      "threadId": "4232239069",
      "post": "Miss Mum. She's wrapped to kill.",
      "time": "2015-10-17T01:40:53",
      "id": "2311490711"
    },
    {
      "threadId": "4232192011",
      "post": "My next ride with my cycling group!",
      "time": "2015-10-17T01:36:04",
      "id": "2311486433"
    },
    {
      "threadId": "4222563437",
      "post": "Gotta go with that pumpkin marshmallow latte!",
      "time": "2015-10-16T07:53:28",
      "id": "2310078688"
    },
    {
      "threadId": "4225627395",
      "post": "Is the chupacabra a paranormal creature?",
      "time": "2015-10-15T01:18:19",
      "id": "2308004574"
    },
    {
      "threadId": "4223362073",
      "post": "I keep coming back to Library of Souls, it's that cover!",
      "time": "2015-10-15T01:16:24",
      "id": "2308002703"
    },
    {
      "threadId": "4186982262",
      "post": "My favorite food as a child was Spaghetti-O's. Shamefully, it's still my go-to comfort food.",
      "time": "2015-10-14T23:09:40",
      "id": "2307860592"
    },
    {
      "threadId": "4224052319",
      "post": "The October Country by Ray Bradbury",
      "time": "2015-10-14T19:28:57",
      "id": "2307455065"
    },
    {
      "threadId": "4213990025",
      "post": "I learned it removes up to 50 pints in 24 hours. Dang.",
      "time": "2015-10-14T13:58:09",
      "id": "2306866340"
    },
    {
      "threadId": "4217938007",
      "post": "My favorite horror movie is The Haunting (1963) - still the best!",
      "time": "2015-10-14T04:53:05",
      "id": "2306326253"
    },
    {
      "threadId": "4177013625",
      "post": "Use a body scrub in the shower in the morning, then face scrub and moisturizer as needed.",
      "time": "2015-10-13T01:04:18",
      "id": "2304217388"
    },
    {
      "threadId": "4217999197",
      "post": "I need to attack the monsters under my bed. I mean, the dust bunnies. Same difference.",
      "time": "2015-10-13T00:59:19",
      "id": "2304211398"
    },
    {
      "threadId": "4216170201",
      "post": "I like Dr. Mercurial's overcoat. Does the watch come with?",
      "time": "2015-10-13T00:51:55",
      "id": "2304202781"
    },
    {
      "threadId": "4218116072",
      "post": "Quantico. Actually I'm just as happy watching Route 66 and Naked City reruns on MeTV.",
      "time": "2015-10-13T00:46:21",
      "id": "2304196345"
    },
    {
      "threadId": "4216403783",
      "post": "I plan to stay way up past my bedtime watching scary movies.",
      "time": "2015-10-13T00:42:45",
      "id": "2304192138"
    },
    {
      "threadId": "4213548188",
      "post": "My favorite Ninja Turtle is the unsung Leonardo.",
      "time": "2015-10-13T00:38:57",
      "id": "2304187713"
    },
    {
      "threadId": "4213629239",
      "post": "I like vanilla. It's sweet but not overpowering.",
      "time": "2015-10-13T00:29:23",
      "id": "2304176198"
    },
    {
      "threadId": "4204872688",
      "post": "I'm in the good old USA in the state of Alabama, and I need a new laptop to watch my movies...the earbud jack on mine isn't working.",
      "time": "2015-10-12T21:17:34",
      "id": "2303742165"
    },
    {
      "threadId": "4211763474",
      "post": "Fortune's Formula by William Poundstone",
      "time": "2015-10-12T20:07:38",
      "id": "2303597193"
    },
    {
      "threadId": "4203556175",
      "post": "I learned SmartSilk Shield Advantage actually provides a proven barrier against allergens, dust mites and pet dander.",
      "time": "2015-10-11T04:35:33",
      "id": "2300944698"
    },
    {
      "threadId": "4177102605",
      "post": "Brown with pumpkin orange cat. Because I'm staying true to pumpkin.",
      "time": "2015-10-10T21:07:52",
      "id": "2300519117"
    },
    {
      "threadId": "2233039748",
      "post": "I usually start my holiday shopping when everything gets marked down after the holiday.",
      "time": "2015-10-10T04:20:35",
      "id": "2299534667"
    },
    {
      "threadId": "4203971097",
      "post": "My favorite Halloween candy is Reese's peanut butter cups.",
      "time": "2015-10-10T03:18:23",
      "id": "2299483106"
    },
    {
      "threadId": "4207624241",
      "post": "I would pick Almond Ivory queen-sized. I'm big on ivory.",
      "time": "2015-10-10T03:14:16",
      "id": "2299479435"
    },
    {
      "threadId": "4210759173",
      "post": "My favorite drink this time of the year is hot spiced cider.",
      "time": "2015-10-10T03:05:06",
      "id": "2299471326"
    },
    {
      "threadId": "4210834182",
      "post": "Stay up past my bedtime watching scary movies.",
      "time": "2015-10-10T02:59:52",
      "id": "2299466637"
    },
    {
      "threadId": "4205971441",
      "post": "With this fleet of air hogs...I would totally rule the neighborhood. Through air superiority. You know.",
      "time": "2015-10-09T07:32:46",
      "id": "2297898040"
    },
    {
      "threadId": "4202698135",
      "post": "What I would miss most if I cut the cable is movies. What I would miss least if I got a good streaming device instead is MOVIES!",
      "time": "2015-10-08T19:30:51",
      "id": "2297097525"
    },
    {
      "threadId": "4203404600",
      "post": "Looks sweet! Can't wait to get my hands on one and start watching movies on it.",
      "time": "2015-10-08T19:19:07",
      "id": "2297076653"
    },
    {
      "threadId": "4173183311",
      "post": "The Atlanta Millennium Falcons, of course! Obvious but genius.",
      "time": "2015-10-06T19:32:16",
      "id": "2293440701"
    },
    {
      "threadId": "4195073254",
      "post": "Because it takes a lot to get me to relax.",
      "time": "2015-10-06T02:15:17",
      "id": "2292214646"
    },
    {
      "threadId": "4193696186",
      "post": "I like that you can clean the brushroll with a touch of a button. That chore has always been a pain.",
      "time": "2015-10-06T01:14:28",
      "id": "2292142323"
    },
    {
      "threadId": "4195844506",
      "post": "Moody red nails. Because I was a moody child.",
      "time": "2015-10-06T01:12:23",
      "id": "2292139760"
    },
    {
      "threadId": "4190214976",
      "post": "Reese's Nutrageous is the best. That more parents aren't dropping it into trick-or-treat bags is a national disgrace.",
      "time": "2015-10-06T01:09:19",
      "id": "2292136009"
    },
    {
      "threadId": "4197689639",
      "post": "Me! Other than that, some DVDs would be nice. (I like movies.)",
      "time": "2015-10-06T01:02:27",
      "id": "2292127210"
    },
    {
      "threadId": "4171326257",
      "post": "Purple! Because it's my school color. Not because it matches my cat or anything.",
      "time": "2015-10-05T00:19:55",
      "id": "2290033934"
    },
    {
      "threadId": "4183709927",
      "post": "Orange Peel and Sunshine Yellow Sixlets, because those colors say autumn to me",
      "time": "2015-10-02T04:29:07",
      "id": "2285059165"
    },
    {
      "threadId": "4170856539",
      "post": "This one I would keep for myself.",
      "time": "2015-09-30T02:44:50",
      "id": "2281186567"
    },
    {
      "threadId": "4152646379",
      "post": "I want to try it because I'm a coffeeholic, and I like it cold!",
      "time": "2015-09-30T00:50:56",
      "id": "2281066131"
    },
    {
      "threadId": "4157828510",
      "post": "My favorite is peach pineapple salsa...sweet and spicy!",
      "time": "2015-09-28T03:01:19",
      "id": "2277541353"
    },
    {
      "threadId": "4169358951",
      "post": "The Absolutely True Diary of a Part-Time Indian",
      "time": "2015-09-27T12:23:23",
      "id": "2276520466"
    },
    {
      "threadId": "4165855419",
      "post": "I was a little surprised to see The Perks Of Being A Wallflower on there.",
      "time": "2015-09-27T12:15:46",
      "id": "2276514097"
    },
    {
      "threadId": "4133169052",
      "post": "Tonight The Streets Are Ours!",
      "time": "2015-09-27T10:43:32",
      "id": "2276442523"
    },
    {
      "threadId": "4165575146",
      "post": "Sprawl out on the couch and watch a good old familiar movie",
      "time": "2015-09-27T08:16:13",
      "id": "2276347535"
    },
    {
      "threadId": "4166606886",
      "post": "I like mushrooms, pineapple, anchovies, and shrimp...",
      "time": "2015-09-27T05:49:09",
      "id": "2276255829"
    },
    {
      "threadId": "4163414163",
      "post": "The Haunting. (From 1963. There Is Only One Movie of The Haunting.)",
      "time": "2015-09-26T05:06:39",
      "id": "2274823252"
    },
    {
      "threadId": "4162898947",
      "post": "I believe I would pick that Kindle fire, I could use a tablet.",
      "time": "2015-09-26T04:54:07",
      "id": "2274815194"
    },
    {
      "threadId": "4129584065",
      "post": "I'd love to try the coconut body wash.",
      "time": "2015-09-24T04:40:59",
      "id": "2270939405"
    },
    {
      "threadId": "4145553914",
      "post": "The End of All Things by John Scalzi",
      "time": "2015-09-23T07:31:16",
      "id": "2268655544"
    },
    {
      "threadId": "4107960794",
      "post": "It seems very earthy and natural.",
      "time": "2015-09-19T02:40:42",
      "id": "2261743886"
    },
    {
      "threadId": "4141226715",
      "post": "These toys are way too cute to be so useful.",
      "time": "2015-09-19T02:24:10",
      "id": "2261727620"
    },
    {
      "threadId": "4143256132",
      "post": "I would visit Brazil. I just love their music.",
      "time": "2015-09-19T02:17:41",
      "id": "2261721244"
    },
    {
      "threadId": "4141854147",
      "post": "I'd give it to my niece, Kitty. (Not her real name.)",
      "time": "2015-09-19T02:13:51",
      "id": "2261717352"
    },
    {
      "threadId": "4111197797",
      "post": "I'm a sucker for Clinique face scrub.",
      "time": "2015-09-18T22:07:19",
      "id": "2261432414"
    },
    {
      "threadId": "4087205091",
      "post": "Victorian pendant. Black crystal necklace. Crystal drop necklace. Swarovski crystal jewelry. https://www.etsy.com/ca/listing/245851879/victorian-pendant-black-crystal-necklace?ref=shop_home_active_10",
      "time": "2015-09-18T21:34:54",
      "id": "2261382682"
    },
    {
      "threadId": "4113397092",
      "post": "That $50 VISA Gift Card, to be frank!",
      "time": "2015-09-18T21:17:13",
      "id": "2261354743"
    },
    {
      "threadId": "4128671424",
      "post": "I'm looking forward to reading the new John Scalzi",
      "time": "2015-09-17T18:52:50",
      "id": "2259134781"
    },
    {
      "threadId": "4122535648",
      "post": "My favorite #LifeHackBoredom is window shopping online",
      "time": "2015-09-17T04:42:54",
      "id": "2257982963"
    },
    {
      "threadId": "4136593377",
      "post": "Cash! Then movies. I'm crazy about movies.",
      "time": "2015-09-17T03:48:02",
      "id": "2257936181"
    },
    {
      "threadId": "4130188202",
      "post": "I'd like to have the Electrolight fire starter.",
      "time": "2015-09-15T02:48:13",
      "id": "2254074349"
    },
    {
      "threadId": "4127066334",
      "post": "I would get some congratulatory messages engraved for the kids on their graduations.",
      "time": "2015-09-15T02:41:58",
      "id": "2254067523"
    },
    {
      "threadId": "4123642515",
      "post": "Cat hair in the shag carpet!",
      "time": "2015-09-14T07:24:13",
      "id": "2252413021"
    },
    {
      "threadId": "4121220514",
      "post": "I like that it takes so little effort (because I'm lazy)",
      "time": "2015-09-12T01:45:09",
      "id": "2249151493"
    },
    {
      "threadId": "4083454890",
      "post": "\"You will never find a more wretched hive of scum and villainy.\"",
      "time": "2015-09-07T03:01:13",
      "id": "2239942526"
    },
    {
      "threadId": "4103913155",
      "post": "I am definitely more of a cat person.",
      "time": "2015-09-07T00:21:18",
      "id": "2239804312"
    },
    {
      "threadId": "4084575664",
      "post": "I think I might start a collection of antique bulbs, that section of your site is fascinating!",
      "time": "2015-09-06T01:51:00",
      "id": "2238415181"
    },
    {
      "threadId": "4041307389",
      "post": "Volleyball!",
      "time": "2015-09-04T06:40:11",
      "id": "2235378377"
    },
    {
      "threadId": "4047892223",
      "post": "Dachsunds! I love those little badger hounds.",
      "time": "2015-09-04T06:32:39",
      "id": "2235372757"
    },
    {
      "threadId": "4059265300",
      "post": "Jumping into big piles of leaves! 'Course, first I make them rake up all those piles of leaves.",
      "time": "2015-08-25T04:46:42",
      "id": "2213221572"
    },
    {
      "threadId": "4012844075",
      "post": "First thing I like to drink is orange juice mixed with water.",
      "time": "2015-08-20T05:33:31",
      "id": "2204374139"
    },
    {
      "threadId": "4030428831",
      "post": "It's a tough choice but I'm going with the silver cat pendant.",
      "time": "2015-08-17T05:58:56",
      "id": "2197951704"
    },
    {
      "threadId": "4024102703",
      "post": "I'd prefer the white shirt if I win.",
      "time": "2015-08-17T05:55:40",
      "id": "2197949666"
    },
    {
      "threadId": "4023285994",
      "post": "I'd record all the Turner Classic Movies I've been missing.",
      "time": "2015-08-14T06:53:40",
      "id": "2193365001"
    },
    {
      "threadId": "3990641827",
      "post": "Nope, haven't read the first one yet",
      "time": "2015-08-10T23:15:54",
      "id": "2185345604"
    },
    {
      "threadId": "3957402309",
      "post": "Enjoy a glass of orange juice.",
      "time": "2015-08-06T03:44:07",
      "id": "2176945568"
    },
    {
      "threadId": "3441706284",
      "post": "Summary: \"Does not cast black actors, except when he does.\"",
      "time": "2015-01-25T04:07:37",
      "id": "1815624620"
    },
    {
      "threadId": "3362582115",
      "post": "My favorite cookie is chocolate chip, first, last and always.",
      "time": "2014-12-31T00:31:46",
      "id": "1765356498"
    },
    {
      "threadId": "3280060766",
      "post": "I would like the Samsung 75-Inch Ultra High Definition 4K Smart 3D UHDTV Clear Motion 1200",
      "time": "2014-12-13T03:04:09",
      "id": "1739808743"
    },
    {
      "threadId": "2070472203",
      "post": "I'm most excited about the HP Chromebook laptop giveaway!",
      "time": "2014-12-13T03:02:14",
      "id": "1739807149"
    },
    {
      "threadId": "3268360240",
      "post": "The raw handmade chocolate apricot truffle candies!",
      "time": "2014-12-06T06:05:37",
      "id": "1728355204"
    },
    {
      "threadId": "3258454597",
      "post": "A Christmas Carol by Charles Dickens. What else is there?",
      "time": "2014-12-02T21:52:22",
      "id": "1722691572"
    },
    {
      "threadId": "3205927833",
      "post": "Because right now I only have a dumbphone.",
      "time": "2014-11-19T03:46:50",
      "id": "1700817661"
    },
    {
      "threadId": "3044685787",
      "post": "Because Hong Kong Action Cinema is my thing!",
      "time": "2014-09-30T02:33:09",
      "id": "1611969921"
    },
    {
      "threadId": "3044685788",
      "post": "Because those two dudes are crazy.",
      "time": "2014-09-30T02:32:23",
      "id": "1611969196"
    },
    {
      "threadId": "3044685952",
      "post": "Big fan of Anna Faris. I mean, Allison Janney.",
      "time": "2014-09-30T02:31:18",
      "id": "1611968180"
    },
    {
      "threadId": "3023299482",
      "post": "Eraserhead is like nothing else, I must have it!",
      "time": "2014-09-19T16:35:19",
      "id": "1596503862"
    },
    {
      "threadId": "3023255667",
      "post": "Because I hear the buzz on this is pretty good.",
      "time": "2014-09-19T16:34:10",
      "id": "1596502158"
    },
    {
      "threadId": "3023253776",
      "post": "Because Awkward is my middle name!",
      "time": "2014-09-19T16:32:34",
      "id": "1596499809"
    },
    {
      "threadId": "2981382780",
      "post": "Because I'm interested in a good Samaritan.",
      "time": "2014-09-09T04:01:18",
      "id": "1580427988"
    },
    {
      "threadId": "2981140021",
      "post": "Because living without this film has filled me with fear and loathing.",
      "time": "2014-09-09T03:58:39",
      "id": "1580426069"
    },
    {
      "threadId": "2846805511",
      "post": "Thank you!",
      "time": "2014-07-20T00:43:57",
      "id": "1493569936"
    },
    {
      "threadId": "2845979259",
      "post": "Plastic Man",
      "time": "2014-07-16T19:45:10",
      "id": "1488622220"
    },
    {
      "threadId": "2828313892",
      "post": "Certainly hope I win...would be great for catching up on my movies",
      "time": "2014-07-12T22:23:14",
      "id": "1482385099"
    },
    {
      "threadId": "2286577621",
      "post": "Sloop John B",
      "time": "2014-03-06T07:00:24",
      "id": "1272461466"
    },
    {
      "threadId": "1190780027",
      "post": "Transfert! Suspence! Hypnos!",
      "time": "2013-04-06T13:48:10",
      "id": "854293293"
    },
    {
      "threadId": "1158600542",
      "post": "Ha, nice Kubrick homage!",
      "time": "2013-03-23T13:12:15",
      "id": "839486455"
    },
    {
      "threadId": "849514687",
      "post": "True enough; I think there were a lot more issues with Hatfield's book.",
      "time": "2013-02-12T09:32:33",
      "id": "796367204",
      "parentPost": "<blockquote>St. Martin's Press withdrew J. J. Hatfield's biography of George W. Bush, after information surfaced that the author was a convicted felon.</blockquote>\n\n\nI'm certain St. Martin's would have burned Martha Stewart's or G. Gordon Liddy's books as well.\n\n\nWhat <i>exactly</i> does being a convicted felon have to do with anything?  ",
      "parentPostTime": "2012-09-24T22:57:00",
      "parentPostId": "661426636"
    },
    {
      "threadId": "983010684",
      "post": "That headline and the accompanying story are actually grossly unfair to Helgenberger, who was actually responding to a Tweet from Joyce Carol Oates, if anyone bothers to actually read the piece. The article describes Oates (without quoting her actual words) as \"wondering\" if more gun control legislation would be passed if more NRA members were shot. It then quotes Helgenberger's response: \"@JoyceCarolOates One can only hope, but sadly I don't think anything would change.\" In other words, this muckraking sack of shit twists Helgenberger's innocuous response on the forlorn hope for change to make it sound like she's demanding Wayne LaFleur and his family be lined up against the wall and mowed down. Because, you know, who would pay attention to what Joyce Carol Oates has to say? I dount either Ms. Oates or Ms. Helgenberger mean to say that more NRA members being shot would be a good thing, any more than the 32 Americans that die every day from gun violence is a good thing.",
      "time": "2013-01-16T22:18:26",
      "id": "770448099",
      "parentPost": " Some of the parents of Sandy Hook may be gun owners and/or NRA members.  I guess Joyce and MarG sort of got their wish. The NRA members may not have been shot but their children were.  Joyce and MarG are doing the happy dance somewhere right now.",
      "parentPostTime": "2012-12-19T20:51:02",
      "parentPostId": "743043083"
    },
    {
      "threadId": "653160586",
      "post": "Unsurprisingly, most of your commenters are totally ignoring the topic of your post and using it as an excuse to bring up Academy snubs and unwarranted (in their opinion) winners. More to the point:\n\nIn addition to Roderick Jaynes, the Academy nominated Charlie Kaufman's nonexistent twin brother Donald as co-scenarist of ADAPTATION.\n\nOne Oscar expert attributed \"Sweet Leilani\" to the low-brow tastes of extras who sweelled the Academy's ranks in the 1930's; he gave much the same explanation for the three wins of Walter Brennan, who had risen from their ranks.\n\nKING OF THE ZOMBIES is an odd one, but it appears as if in the 1940's music departments of any of the studios, including poverty-row denizens like Monogram and PRC, could get their choice of a nominee listed in the music categories.\n\nOf course Monogram even WON an Oscar, for a documentary short called \"Climbing the Matterhorn,\" and I've read a convoluted conspiracy theory to explain that one: that Monogram's \"Dillinger\" actually won the Screenplay award but the Academy, irate at Monogram and the picture for various reasons, fobbed off the statuette instead on an obscure foreign film, \"Marie Louise.\" The win for \"Matterhorn\" a couple of years later was the result of a compromise negotiated behind the scenes with the Academy: Monogram pasted it together from clips taken from an existing feature, submitted it to the Academy and they gave it the award.\n\nThis also may explain \"Dillinger\" scribe Philip Yordan's eventual nomination, and win, for Best Original Story for \"Broken Lance,\" even though it was a transparent re-write of his own \"House of Strangers.\" The Academy was pretty lax about the Original Story category during its existence, for example awarding it to the writer of the play that was the movie's source material.\n\nLater on, in the 1970s, industry clout is given as an explanation for songwriters Sammy Fain and Paul Francis Webster wrangling nominations for songs from the extremely obscure \"Half a House\" and from \"The Stepmother,\" the only movie from cheapo drive-in exploitation specialist Crown International to ever land a nomination.\n\n\"The Young Americans,\" a vapid portrait of an \"Up With People\"-style vocal group featuring a young Vicki Lawrence, actually won the Best Documentary award before being disqualified based on a sneak preview showing before its year of eligibility and having to return the award.\n\nAs I recall the furor over the \"King Kong\" award from reading VARIETY at the time, Dino De Laurentiis lobbied heavily for a prize after the Academy had already announced there would be no visual effects category awarded that year. In any case, the clip of the wretched Kong model appearing for its few seconds was an embarrassment at the awards ceremony. Perhaps as camouflage, the Governors presented a second special award for the effects in \"Logan's Run.\"\n\nMuch as I love Ian Bannen, his nomination for \"The Flight of the Phoenix\" remains for me one of Oscar's enduring mysteries.\n\nYou can go through the years cherry-picking all kinds of odd selections; the unremarkable 1956 B-Western \"Stagecoach to Fury\" for Best B&W Cinematography, for instance. No doubt behind-the-scenes studio politicking and campaigning have a lot to do with it. The Golden Globes, on the other hand, for years had a reputation of being simply corrupt.",
      "time": "2013-01-13T00:35:33",
      "id": "765378591"
    },
    {
      "threadId": "1003691945",
      "post": "If this were an actual comic tie-in, that would totally rock!",
      "time": "2013-01-02T04:31:37",
      "id": "753057262"
    },
    {
      "threadId": "592199076",
      "post": "Mmm....lasagna.",
      "time": "2012-03-01T16:43:39",
      "id": "453497620"
    },
    {
      "threadId": "429563528",
      "post": "If Glen Campbell signs up, I'm in.\n\nI never seem to tire of repeating this story. I was once assigned to cover the \"Mike and Dean Show\" when they stopped in El Paso: Mike Love and Dean Torrence. One of my colleagues, when he heard this, said \"You know what I'd like to see? The Jan and Brian Show.\"",
      "time": "2011-09-29T18:01:36",
      "id": "323110687"
    },
    {
      "threadId": "412337396",
      "post": "Manos Historian Richard Brandt says...yee ha! Must get this.",
      "time": "2011-09-13T20:35:11",
      "id": "308861514"
    },
    {
      "threadId": "413313868",
      "post": "Spooky Tooth's \"You Broke My Heart So I Busted Your Jaw\"\n\nJohn Mellencamp's \"Nothin' Matters and What If It Did\" and the most self-deprecating greatest-hits title yet, \"The Best That I Could Do\"",
      "time": "2011-09-13T20:24:16",
      "id": "308853892"
    },
    {
      "threadId": "370789435",
      "post": "It is with stunned disbelief that I must report that a show scheduled for here in Colorado Springs, headlined by Mavis and Dr. John, was canceled...rumor has it, for \"lack of interest.\"\n\nThat's even worse than the Arlo Guthrie concert that was scratched back in El Paso, back in the day. I know times are hard, but, damn, peoples.",
      "time": "2011-07-28T15:27:58",
      "id": "267718676"
    },
    {
      "threadId": "300910260",
      "post": "Every critic's opinion will be filtered through his own biases and preconceptions, so the best you can hope is that he makes his predispositions clear, and no one wears his biases on his sleeve like Steed. What more can you ask?",
      "time": "2011-05-11T21:10:38",
      "id": "201687634",
      "parentPost": "That's exactly what I like about Steed's postings -- he tells us what the songs mean to *him*.  \n\nNot what he'd *like* the songs to mean to him, or what he'd like *us* to think the songs mean to him, or what some hipster believes the songs should mean to him.  Just what the songs actually mean to him.  \n\nI don't always agree with his assessments, but I always appreciate the honesty.",
      "parentPostTime": "2011-05-11T15:08:25",
      "parentPostId": "201446802"
    },
    {
      "threadId": "301014350",
      "post": "Oddly enough, Allmusic claims to find 44 results for \"42.\"",
      "time": "2011-05-11T16:34:44",
      "id": "201499329"
    },
    {
      "threadId": "261029921",
      "post": "I've been wondering for years who performed \"Just Like Fire Would.\" God bless you, citizen!",
      "time": "2011-03-23T15:19:57",
      "id": "170126888"
    },
    {
      "threadId": "252225530",
      "post": "Scenes from \"The Hustler,\" actually.",
      "time": "2011-03-14T16:26:57",
      "id": "165583034"
    },
    {
      "threadId": "238178854",
      "post": "My favorite Raitt track is on Green Light: \"I Can't Help You Now,\" which might have hit the charts if it had come out at the right time (in other word, if it hadn't taken her seven more years to find the right label).",
      "time": "2011-02-23T17:22:15",
      "id": "154725278"
    },
    {
      "threadId": "231068642",
      "post": "I'd only hesitate to add \"Cactus\" off the Beck & Sanborn LP because it's really Joe Beck's show the whole way, but it's still a classic.",
      "time": "2011-02-15T16:54:51",
      "id": "147569589"
    },
    {
      "threadId": "224290480",
      "post": "Terrific interview. He's clearly reconciled himself to his place in today's music world and is managing to have a hell of a time with it. (I'm reminded of Paul Simon lamenting to the New Yorker years ago that once upon a time his songs spoke to a generation, and today he can write a song he considers just as good and hardly anyone will hear it.)",
      "time": "2011-02-07T17:45:07",
      "id": "141979039"
    },
    {
      "threadId": "171082803",
      "post": "John Belushi's Dino impression from 1976: \"Jon Peters say to me, 'A Star Is Born' gonna make more money than 'Konk.' I say back, Why not? Your monkey sings.\"",
      "time": "2010-11-19T20:09:20",
      "id": "99680091"
    },
    {
      "threadId": "174939128",
      "post": "Believe it or not, Franciosa was up for an Oscar for Best Actor way early in his career, reprising his stage role as the much-put-upon brother of a heroin addict in \"A Hatful of Rain.\" Puts him right up there with Stuart Whitman.",
      "time": "2010-11-18T21:02:03",
      "id": "98998253"
    },
    {
      "threadId": "156765324",
      "post": "Not to mention \"Summer's Gone\" by The Kinks.",
      "time": "2010-10-15T22:50:25",
      "id": "87309188"
    },
    {
      "threadId": "71764233",
      "post": "That's Marty Balin, not Mary...you know what? Never mind.",
      "time": "2010-06-09T21:30:21",
      "id": "55577884"
    },
    {
      "threadId": "96884500",
      "post": "It was \"Houses of the Holy\" which led me to suspect for the first time that those Zep boys actually had a sense of humor (and perhaps for the last time, until Plant's solo career).",
      "time": "2010-05-21T19:25:08",
      "id": "51425319"
    },
    {
      "threadId": "91053211",
      "post": "Mmmm mmmmmmmmm!",
      "time": "2010-05-14T20:19:29",
      "id": "50388627"
    },
    {
      "threadId": "72354597",
      "post": "Once, I won tickets to see SMB playing the House of Blues at Mandalay Bay in Vegas. Unfortunately, the show was on a Sunday night, and I had to be in San Diego for a class first things Monday. Then my boss told me he was sending me to another class. In Vegas. That Wednesday through Friday. There was a plane leaving for San Diego from Vegas at six Monday morning. How lucky was that?\r\n\r\nSurely a highlight of the show was when Steve introduced the harmonica player who'd been with him, as he said, for twenty-five years. I'm even gladder now that I got the chance to see them, and you're right, I do respect Steve and those other artists a lot more after reading this story.",
      "time": "2010-03-12T23:14:19",
      "id": "39445099"
    },
    {
      "threadId": "69687387",
      "post": "Because 50 planets just isn't enough!",
      "time": "2010-03-09T19:40:38",
      "id": "38716422"
    },
    {
      "threadId": "69594563",
      "post": "Just feeling possessive, I guess",
      "time": "2010-03-09T18:42:00",
      "id": "38709984"
    },
    {
      "threadId": "50346249",
      "post": "Another video that was all over MTV, too. Go figure.",
      "time": "2009-12-26T00:53:45",
      "id": "27273538",
      "parentPost": "As with a lot of new wave classics, \"I Got You\" was a big hit everywhere in the English-speaking world except the US (#1 Australia, #1 NZ, #12 UK, #13 Canada). Proving once again that \r\n\r\nA)  US radio programmers were/are pusilanimous nincompoops.\r\nB)  A&M's payola budget wasn't high enough.\r\n\r\n\r\nBut here's a curiosity -- Squeeze's \"Tempted\" was a bottom feeder *everywhere*: #41 UK, #45 Canada, #95 Australia.  \r\n\r\nI can't begin to figure this one out.  Did A&M just not promote this record, or what? \r\n\r\n\r\n  ",
      "parentPostTime": "2009-12-23T20:54:06",
      "parentPostId": "27107154"
    },
    {
      "threadId": "52947540",
      "post": "FYI, Sixpence None the Richer is singing \"Silent Night\" over at eMusic's daily free download.\r\n\r\nYour humble servant,\r\n\r\nR.",
      "time": "2009-12-22T18:12:34",
      "id": "26972808"
    },
    {
      "threadId": "53238229",
      "post": "Is Miley old enough yet that I can stop feeling bad about watching that video? If not, wake me up when she's over the shame of her dad co-starring in BAIT SHOP.",
      "time": "2009-12-22T18:08:44",
      "id": "26972539"
    },
    {
      "threadId": "53342635",
      "post": "This was one hell of a Christmas present.",
      "time": "2009-12-22T17:47:49",
      "id": "26971166"
    },
    {
      "threadId": "52693339",
      "post": "By the way, eMusic's free daily download is from \"Christmas with The Smithereens.\" I'm just sayin'.",
      "time": "2009-12-21T20:37:56",
      "id": "26796309"
    },
    {
      "threadId": "52605023",
      "post": "I'm...so proud of what I've instigated here.\r\n\r\nIf \"proud\" is the word I'm looking for.",
      "time": "2009-12-21T18:47:13",
      "id": "26789184",
      "parentPost": "The thought of the combination of smells is making me wish I hadn't eaten that fried egg this morning.",
      "parentPostTime": "2009-12-21T18:19:13",
      "parentPostId": "26783119"
    },
    {
      "threadId": "52911507",
      "post": "And that is, you know, the spirit of Christmas. Thanks to John for sharing.",
      "time": "2009-12-21T16:07:25",
      "id": "26775785"
    },
    {
      "threadId": "51909289",
      "post": "What could make me actually use the overworked phrase \"LOL\" and mean it? Today's column.",
      "time": "2009-12-17T20:13:12",
      "id": "26164576",
      "parentPost": "\"I love that you’re pretending you’re gay to get out of admitting you know who Ashley Tisdale is.\"  THAT made me spit my coffee on my monitor.",
      "parentPostTime": "2009-12-17T16:59:29",
      "parentPostId": "26151116"
    },
    {
      "threadId": "50211746",
      "post": "I had the great fortune to be compelled to review the REO Speedwagon \"High Infidelity\" tour in Las Cruces, N.M. (opening act: Survivor, fresh off of \"Rocky III\"), and even back then Kevin Cronin worked up a sweat in his desperate, puppylike attempt to get the audience to warm to him, to get even a sliver of the adulation their guitar player got just for playing a solo. (And it still amazes me that they could drain all the nuance out of a well written lyric like \"Keep On Loving You.\")",
      "time": "2009-12-10T16:41:49",
      "id": "25450490"
    },
    {
      "threadId": "49757234",
      "post": "My ex would play the YouTube video of \"We Didn't Start the Fire\" over and over. And over. This is the other reason she's my ex.",
      "time": "2009-12-09T19:46:07",
      "id": "25318363",
      "parentPost": "Hey Jason! Thanks so much for your bi-weekly whirlwind of nostalgia....\n\nFirst, being a Jersey boy in college at the time, the furor against \"We Didn't Start The Fire\" was that it was a manufactured rip-off of R.E.M.'s \"It's The End Of The World And We Know It\" and it was way \"cooler\" to like that. The song has aged better with me, since I don't have to hear it like 9 times a day on the radio.\n\nI love \"Love Shack\" for being the gayest thing to make the top-10 and still rock (and that beats Queen out). \n\n\"Poison\" would've made a killer Bon Jovi track.\n\n\"(It's) Just The Way That You Love Me\" also made sense since it deferentiated it from Karyn White's \"The Way You Love Me\" of about the same time. It also was my favorite song on the \"Forever Your Girl\" album, and glad it got a second chance at the time.\n\nAnd I put my vote on Soul II Soul having the best song on here my miles. They deserved a longer career in the US.\n\nThanks again!\n\ncheers\nErnie",
      "parentPostTime": "2009-12-04T23:27:51",
      "parentPostId": "24843482"
    },
    {
      "threadId": "48755335",
      "post": "I saw this video and thought Billy Joel was going to be the next sawed-off Sylvester Stallone.",
      "time": "2009-12-09T18:23:19",
      "id": "25311988",
      "parentPost": "I really love \"She's Right on Time\" but had never seen the video, so I had to go look it up on YouTube. Holy crap that's an awful video. I was glued to MTV during pretty much the entire 1980s, so the fact that I had never stumbled across it before must mean it was so terrible that some MTV exec banned it, or at least restricted it to the wee hours of the night. The only video I can think of with worse acting from a singer is Marshall Crenshaw's \"Whenever You're On My Mind.\"\n\nAnyway, I'm just counting the days until Santa delivers Bob Dylan's Xmas album to Jason & Jeff. THAT will be a Mellowmas night to remember!",
      "parentPostTime": "2009-12-08T21:35:27",
      "parentPostId": "25199981"
    },
    {
      "threadId": "43051774",
      "post": "Quantum of Silence??",
      "time": "2009-11-02T17:06:12",
      "id": "21681660"
    },
    {
      "threadId": "41432936",
      "post": "His theme for \"Spy Hard\" was the best thing in the movie (high praise indeed, I know).",
      "time": "2009-10-29T19:20:41",
      "id": "21284952"
    },
    {
      "threadId": "41667798",
      "post": "Considering that, for starters, it was from an album of covers, I call shenanigans.",
      "time": "2009-10-29T19:11:37",
      "id": "21284384",
      "parentPost": "I remember reading that \"How Do I Make You\" was the only Top Ten single Linda ever had that wasn't a remake.  I'd go back and verify that bit of trivia, but it's so much easier to just state it as fact and hope nobody calls you on it...",
      "parentPostTime": "2009-10-29T03:26:08",
      "parentPostId": "21239099"
    },
    {
      "threadId": "1454705",
      "post": "Now playing in Buffalo: \"Even in the Quietest Moments,\" you lucky dog.",
      "time": "2008-06-27T18:00:32",
      "id": "763685"
    },
    {
      "threadId": "1058883",
      "post": "Clinton would never say she regrets her Iraq war vote as long as it was necessary for her to look more hawkish than McCain. Now, who knows.",
      "time": "2008-06-06T17:10:30",
      "id": "608159",
      "parentPost": "Jon, to be honest I never said I was against Obamas planned tax policies.  Hell, I voted for the man in the recent primaries.  To be honest, I'm not jazzed about either he or McCain, but that seems to happen every 4 years :)\r\n\r\nMy point about admitting when you think your opponent has done something right is about perception and about being civil and genuine, which would be refreshing in modern politics.  There are enough facts to criticize the Bush administration about that we don't need to spin things or mislead people.  Criticize him on the Iraq war, the bloated spending, Katrina, etc etc.  There's plenty of material to use based in truth.  But when folks take something like his tax cuts, which we know were across the board and benefited poor folks too, and spin them or mislead by always referring to them as \"Bush's tax cuts for the rich\", they come off as ignorant, emotional, full of hate, and they get ignored by me.  They come off as people who are full of deep hatred for the man, who can't be civil and admit that not everything he's done has been wrong.  Obama claims he's a new kind of politician.  I think he's shown a few signs of that, but as far as being genuine, I liked Bill Richardson.  He was genuine.  During one early debate a question was asked something like \"explain one bad decision you've made in public life\" or something like that.  This is when there were 8 candidates.  Every one of them spun there answer to something like \"Well I've made mistakes like any person but I wanna talk about the future and how we can fix this country blah blah blah\".  Clinton, Todd, Biden, Edwards - all of them wouldn't answer the question.  Slime.  Richardson said \"When I was governor I decided to ...\"  and to be honest I can't remember the exact decision, but he detailed a specific example.  Then he looked in the camera and said \"I was wrong on that, I regret the decision\"  That's genuine, that takes balls.  Clinton still won't say the words \"I regret my Iraq war vote\" and if she finally did and I missed it it took months of prodding. She's slime.  \r\n\r\nAs I've mentioned I'm a true independent who loathes both parties.  But I have respect for partisans of either party who can admit when their opponent did something right, because it shows that they are genuine, they are not emotionally blinded by personal hate, they look at the facts, and they are not spinning and playing the normal game of gutter politics.  So yes, I would love to hear Nancy Pelosi say, \"we understand that Bush helped the poor by lowering their taxes, but we'd like to make further tax adjustments that would better their situation even more\".  That would garner my respect.  That ain't gonna happen.",
      "parentPostTime": "2008-06-06T13:10:42",
      "parentPostId": "606645"
    },
    {
      "threadId": "925077",
      "post": "He shares story credit and was originally attached to direct, back when the working title was something like \"Adventures in the Backyard.\" I can't imagine why Disney would have had any qualms about Stuart Gordon directing one of their pictures.",
      "time": "2008-05-30T21:41:58",
      "id": "560216",
      "parentPost": "Didn't Gordon also have something to do with \"Honey, I Shrunk The Kids\"?",
      "parentPostTime": "2008-05-30T20:20:56",
      "parentPostId": "559774"
    },
    {
      "threadId": "920927",
      "post": "The first time I saw their video, I though that girl in Culture Club was kind of cute.\r\n\r\nMichael Jackson traumatized a young child for life? Get out of town! (Great image of grey-haired Keilani and MJ, though.) \r\n\r\nBob Giraldi directed the \"Beat It\" video, though.\r\n\r\nEvery time Bowie says he prefers the uncommercial stuff he's doing now, I figure he's sucking up to his current customer base to make them feel all elitist and special and stuff. He already all the money he's going to get from you and me when we bought \"Let's Dance\", so piss on us.",
      "time": "2008-05-30T21:27:41",
      "id": "560139"
    },
    {
      "threadId": "853213",
      "post": "First 45: \"Loving You's The Right Thing to Do\" by Carly Simon.\r\n\r\nHey, that really is Cyd Charisse! As late as the 1970's she was still smokin' hot. By 1988, maybe not so much.",
      "time": "2008-05-28T20:38:33",
      "id": "544492"
    },
    {
      "threadId": "695430",
      "post": "<i>Forrest Gump</i> has about a zillion clues that we're supposed to take it as an updating of Voltaire's <i>Candide</i>.",
      "time": "2008-05-19T16:24:20",
      "id": "490576"
    },
    {
      "threadId": "715315",
      "post": "This is the album that inspired National Lampoon to report that Rick Astley had sued himself for plagiarism.",
      "time": "2008-05-16T00:40:29",
      "id": "474633"
    },
    {
      "threadId": "191372",
      "post": "\"The Quiet Man\" is one of my favorites: A tale of a newcomer in a foreign culture (totally alien to him even though it's the land of his birth) where he has to navigate a minefield of rituals and traditions to get what he wants. He finally figures it out. John Ford famously John Wayne how to act in \"Stagecoach\" (\"Use your eyes, John, not your mouth\"), and the epic-length slow burn that culminates with him dragging Maureen O'Hara over half of Ireland to the resolution of all their troubles is a masterpiece of film pacing.\r\n\r\nAnd it's a mystery! Thanks for blowing the big spoiler!\r\n\r\nThe cliched plot elements of \"L.A. Confidential\" bothered me when I saw it in the theater (is anyone who has ever seen any movie surprised at the revelation of the villain?), but once it showed up on cable I found I was re-watching it compulsively. There's so much there: the powerful symbolism of the weathered \"Victory Motel\" sign; poor Bud White's desperate longing to be taken seriously as a detective; Jack Vincennes' realizing the perfect message to send Exley. Even the language at times has its  own odd beauty: \"There's something wrong with the Night Owl,\" as Bud says, having put his finger on the crux of the plot and summing it up in one elegant line.\r\n\r\nOne wonders how much more successful the movie would have been on its initial release if Crowe hadn't been almost fresh off the boat.\r\n\r\nI love the Marx Brothers, but \"A Day at the Races\" is one of their worst efforts; \"A Night at the Opera\" is a classic, but as soon as Thalberg died their movies started running out of steam, and even \"At the Circus\" has more laughs than this pathetic attempt. Watch the movie again and I dare you to realize how long it takes for the first real laugh to show up, or Groucho himself for that matter. My guess is that Dan saw this movie or another like it and it soured him on the Marxes forever. Just take two movies (\"Horse Feathers\" and \"Monkey Business\") and call me in the morning.\r\n\r\nTCM had a surprisingly strong lineup the other night, even for Oscar month: <i>The Nightmare Before Christmas, The Return of the King, Silence of the Lambs,</i> and <i>Seven</i>. All letterboxed, of course, so they looked great on my new HDTV!",
      "time": "2008-02-14T23:29:04",
      "id": "150542"
    },
    {
      "threadId": "193074",
      "post": "Theodore Sturgeon may have said it best when he ended one of his stories so:\r\n\r\n\"And they lived happily ever after. But it wasn't easy.\"",
      "time": "2008-02-14T19:30:09",
      "id": "149766"
    },
    {
      "threadId": "177686",
      "post": "Brisith? Forsooth!\r\n\r\nBritish, of course.",
      "time": "2008-02-11T16:11:14",
      "id": "140215",
      "parentPost": "mojo & dw: wrong on multiple counts. You're confusing the Brisith Page THREE girl Samantha Fox, of pop music fame, with the American porn actress Samantha Fox, star of \"Dracula Sucks!\" and other classics.",
      "parentPostTime": "2008-02-11T16:10:50",
      "parentPostId": "140211"
    },
    {
      "threadId": "152629",
      "post": "When Playboy held its anniversary celebration in Vegas...at the Palms, of course (where else would you celebrate Playboy?)...I had the good fortune to exchange a high-five with Ava Fabian. Remember: She's acted opposite Tom Hanks!",
      "time": "2008-01-31T16:55:15",
      "id": "114736"
    },
    {
      "threadId": "53633",
      "post": "The story I hear is that Elvis actually would have liked to do <i>A Star Is Born</i>...the big problem was good old Colonel Tom, who blanched at the thought of moviegoers finally getting to see Elvis awash in drugs and booze.\r\n\r\nWhen I was a wee lad, I went to my sister's school fair and found them selling grab bags for a buck apiece, each of which had a promotional 45 discard...err, I mean, donated by a local radio station. I picked up Willie Hightower's cover of \"Walk A Mile in My Shoes\" and was mightily unimpressed that it wasn't the Joe South original. Years go by and I learn Willie's version is now considered a classic of deep-fried Southern soul. I wonder if that 45 is still at my parents' house somewhere...",
      "time": "2008-01-30T23:30:12",
      "id": "113272"
    },
    {
      "threadId": "147835",
      "post": "When I was in high school I found an odd record at our library called \"Science Fiction.\" My initial reaction was approximately WTF? Not to worry, I felt the same way when my youthful ears first heard John Coltrane playing \"My Favorite Things.\" I wasn't ready yet. Then along came college and it was a whole 'nother story...",
      "time": "2008-01-30T20:14:08",
      "id": "112646"
    }
  ],
  "profileInfo": {
    "username": "rsbrandt",
    "about": "Jazz, cult movies, SF, travel, free stuff, it's all good",
    "name": "rsbrandt",
    "disable3rdPartyTrackers": false,
    "isPowerContributor": false,
    "isAnonymous": false,
    "rep": 1.396712,
    "profileUrl": "https://disqus.com/by/rsbrandt/",
    "url": "http://whatsplayingwordpresscom.wordpress.com",
    "reputation": 1.396712,
    "location": "Mobile",
    "isPrivate": false,
    "signedUrl": "http://disq.us/?url=http%3A%2F%2Fwhatsplayingwordpresscom.wordpress.com&key=4fZXLWgPLpDpk3s_RJRGGA",
    "isPrimary": true,
    "joinedAt": "2008-01-30T20:07:22",
    "id": "8744",
    "avatar": {
      "small": {
        "permalink": "https://disqus.com/api/users/avatars/rsbrandt.jpg",
        "cache": "//a.disquscdn.com/uploads/users/8744/avatar32.jpg?1281549414"
      },
      "isCustom": true,
      "permalink": "https://disqus.com/api/users/avatars/rsbrandt.jpg",
      "cache": "//a.disquscdn.com/uploads/users/8744/avatar92.jpg?1281549414",
      "large": {
        "permalink": "https://disqus.com/api/users/avatars/rsbrandt.jpg",
        "cache": "//a.disquscdn.com/uploads/users/8744/avatar92.jpg?1281549414"
      }
    }
  }
}