{
  "comments": [
    {
      "threadId": "1751364934",
      "post": "2, 4, and 5!",
      "time": "2013-09-13T12:51:31",
      "id": "1042200193",
      "parentPost": "Is that the new 1WTC building in pic #4?",
      "parentPostTime": "2013-09-13T08:39:23",
      "parentPostId": "1041814029"
    },
    {
      "threadId": "961195453",
      "post": "Thank you so much for sharing this - this is amazing! This is the reason we love building Timehop - for these moments :)",
      "time": "2012-11-29T22:21:49",
      "id": "723125648"
    },
    {
      "threadId": "920598518",
      "post": "I may have an ugmonk addiction!",
      "time": "2012-11-09T18:16:51",
      "id": "706365644"
    },
    {
      "threadId": "654631424",
      "post": "Hm ... we never had tumblr support :) Have you been cheating on timehop with another time machine??",
      "time": "2012-04-19T22:24:59",
      "id": "502797829",
      "parentPost": "Cool. Thanks for taking the time to write. Though mostly thanks for taking the time to build an awesome service. Really love it. And I know you're only scratching the service. Best to the team.\n\n\nBTW: I have my Tumblr linked, but now it's not an option. Am I grandfathered in or something along those lines?",
      "parentPostTime": "2012-04-19T13:03:04",
      "parentPostId": "502312564"
    },
    {
      "threadId": "568069603",
      "post": "+1 for closing html tag!",
      "time": "2012-02-07T22:26:19",
      "id": "432369171"
    },
    {
      "threadId": "387688738",
      "post": "You forgot to mention that bum who told us to go fuck ourselves haha",
      "time": "2011-12-08T15:34:51",
      "id": "382088667"
    },
    {
      "threadId": "436980083",
      "post": "Definitely. There's that phrase \"Make the simple things simple and hard things\npossible\", which Apple definitely lives by.",
      "time": "2011-10-07T19:39:30",
      "id": "329071048",
      "parentPost": "Great post... As a nerd from an early age, I initially thought that iPods and other Apple products were not computer-y enough. But once I got an iPod and a Mac, I understood that products can still be powerful without exposing their bowels to you as proof of power.\n\nSimple design makes complex things seem magical.",
      "parentPostTime": "2011-10-07T18:17:34",
      "parentPostId": "329016689"
    },
    {
      "threadId": "120289730",
      "post": "Or should I say : 多謝！",
      "time": "2011-09-29T17:59:24",
      "id": "323108812",
      "parentPost": "Thank you so much! This is exactly what I was looking for :)",
      "parentPostTime": "2011-09-29T17:58:45",
      "parentPostId": "323108344"
    },
    {
      "threadId": "178999724",
      "post": "Updated! thanks :)",
      "time": "2011-08-05T21:01:02",
      "id": "278745986",
      "parentPost": "You want to add \"expect fork\" to your upstart configuration file to make sure sudo status redis-server returns the proper pid.",
      "parentPostTime": "2011-08-05T17:00:30",
      "parentPostId": "278445485"
    },
    {
      "threadId": "327747710",
      "post": "I'm not sure if you saw this, but there was a content shifting project coming out of MIT : http://www.engadget.com/2011/06/16/deep-shot-transfers-open-websites-from-desktop-to-mobile-sans-w/\n\nIt supposed to seamlessly push and pull content between your desktop and your mobile (looks like its working on android only so far)",
      "time": "2011-06-17T18:07:16",
      "id": "228395288",
      "parentPost": "i do a very lame version of that. i forward the email and attachment to my assitant",
      "parentPostTime": "2011-06-12T11:52:39",
      "parentPostId": "224203527"
    },
    {
      "threadId": "327131476",
      "post": "Is that where they use fish to clean your feet?",
      "time": "2011-06-09T23:30:25",
      "id": "222851806",
      "parentPost": "Sands Hotel in SINGAPORE!\nthe only cool thing I saw there.\nAND FISH SPAS\nbut thats about it",
      "parentPostTime": "2011-06-09T21:42:36",
      "parentPostId": "222725082"
    },
    {
      "threadId": "54533496",
      "post": "Hi Stephen,\r\n\r\nUnfortunately, this code was built against a very early version of node and\r\nprobably won't work now. I'll try to update it and let you know!",
      "time": "2011-05-25T15:26:34",
      "id": "211524417",
      "parentPost": "When I try to send a message, I get redirected back to the login screen. Any ideas as to what would cause this?",
      "parentPostTime": "2011-05-25T05:52:26",
      "parentPostId": "211257439"
    },
    {
      "threadId": "306572450",
      "post": "Did you send it from the same email that you signed up with?",
      "time": "2011-05-18T19:51:33",
      "id": "206344233",
      "parentPost": "It doesn't work at all. :) Sent two emails, one with the link in the mail body, one with the link in the header. Nothing happened by now. ",
      "parentPostTime": "2011-05-18T19:48:35",
      "parentPostId": "206342701"
    },
    {
      "threadId": "276929895",
      "post": "which ones?\n\ncrunch ? butterfinger ?\n? ? ? ?\nalmond joy(?) three mustketeers ? ?\n? ? caramellos ?\n? ? ? ?",
      "time": "2011-04-12T00:59:52",
      "id": "182820202",
      "parentPost": "Cool cutaways. I think I recognize 6 of them. 3rd row 2nd column is my fav. ",
      "parentPostTime": "2011-04-12T00:41:34",
      "parentPostId": "182810893"
    },
    {
      "threadId": "199735722",
      "post": "whoops. that was my fault (ugh). should be fixed now !",
      "time": "2010-12-30T19:46:13",
      "id": "121203343",
      "parentPost": "As facebook-361380 mentioned, need to remove www from link in your daily newsletter. Someone is enjoying some traffic to their site, but it is not Flicksquare.",
      "parentPostTime": "2010-12-30T15:30:01",
      "parentPostId": "121099135"
    },
    {
      "threadId": "184376747",
      "post": "Gilt Groupe has an E at the end of \"Group\"",
      "time": "2010-12-06T03:15:37",
      "id": "107575533"
    },
    {
      "threadId": "128769215",
      "post": "I'm using http://www.gmap-pedometer.com/ It's not great, but its the easy one I've used to far",
      "time": "2010-08-12T13:49:13",
      "id": "68175936",
      "parentPost": "how are you plotting your route like this?",
      "parentPostTime": "2010-08-12T13:09:02",
      "parentPostId": "68170467"
    },
    {
      "threadId": "67708291",
      "post": "I love the lighting in this picture. You capture these scenes so well!",
      "time": "2010-02-17T17:35:15",
      "id": "34871004"
    },
    {
      "threadId": "57961824",
      "post": "Haha same thing here. I was walking around flushing one day and could've sworn i saw you!",
      "time": "2010-01-12T18:29:15",
      "id": "29509634"
    },
    {
      "threadId": "56888051",
      "post": ":)",
      "time": "2010-01-09T04:22:57",
      "id": "29016847",
      "parentPost": "why do you like realistic CG images so much? Is reality too beautiful or too real for you? :-P",
      "parentPostTime": "2010-01-09T03:31:56",
      "parentPostId": "29011940"
    },
    {
      "threadId": "4182110",
      "post": "thanks! :)",
      "time": "2010-01-08T21:05:45",
      "id": "28979277",
      "parentPost": "link to image expired / regards taivaanlahja.fi web admin :) ",
      "parentPostTime": "2010-01-08T20:39:43",
      "parentPostId": "28971852"
    },
    {
      "threadId": "54589007",
      "post": "Wow sorry about that! I editted the HTML using Tumblrs editor and I think it stripped all the attributes for the tags. Should be working now!",
      "time": "2009-12-29T20:02:28",
      "id": "27490928",
      "parentPost": "It could be me, but are none of your links working?",
      "parentPostTime": "2009-12-29T19:58:18",
      "parentPostId": "27490698"
    },
    {
      "threadId": "48165272",
      "post": "Nice to hear :)\nHad a similar experience today. My 12 year old cousin in 7th grade has the same Spanish teacher I had when I went. She was even there when my brother was in middle school. This sort of stuff blows my mind!",
      "time": "2009-11-27T06:16:43",
      "id": "24159783"
    },
    {
      "threadId": "37285112",
      "post": "I can't believe you resisted! I, for one, would not have the willpower. I would've totally forgotten that I even tried not to eat meat. Congrats :)",
      "time": "2009-10-02T03:26:59",
      "id": "18171218"
    },
    {
      "threadId": "30297072",
      "post": "That doesn't really make them look any better. That just makes them seem like they hate everyone",
      "time": "2009-08-19T18:48:54",
      "id": "15079308",
      "parentPost": "To be fair, the LaRouchites were also anti-Iraq War, and passed out pamphlets at anti-Iraq War events calling Cheney, Wolfowitz and Bush \"Children of Satan.\" ",
      "parentPostTime": "2009-08-19T17:30:41",
      "parentPostId": "15075278"
    },
    {
      "threadId": "25969258",
      "post": "Haha when I went DC (on 4th of July too!), my friends and I had Old Bay fries at this Oyster bars and have since been ordering Old Bay everything when we get the chance :)",
      "time": "2009-07-21T04:39:10",
      "id": "12987143"
    },
    {
      "threadId": "20563063",
      "post": "You could always create a store on foodzie (kinda like an etsy for food!) : http://foodzie.com/",
      "time": "2009-06-05T17:17:00",
      "id": "10526224"
    },
    {
      "threadId": "12649837",
      "post": "True, but I feel like distribution and market penetration wider, but I have no idea.\r\n\r\nAlso, my coworker was saying how CD sales would be a result of someone liking two songs, but having to buy the rest of the CD too, so its a guranteed ~15$. Now, you can buy individual tracks, so in that sense, they don't get the rest of the money they would've. makes sense",
      "time": "2009-02-26T22:07:12",
      "id": "6670094",
      "parentPost": "digital downloads probably have higher margins with no overhead, like you argued above.  but, i would guess that there are less digital downloads now compared to historical cd sales.  it's really the illegal downloading that leads to less sales.  since sales have declined more than costs, i guess it's just not as profitable.",
      "parentPostTime": "2009-02-26T20:08:50",
      "parentPostId": "6665186"
    },
    {
      "threadId": "11908219",
      "post": "Haha :) I'm undecided on the book and Malcolm gladwell in general, but  \r\nI like the concepts\r\n\r\nOh and jon says hi\r\n\r\nBenny\r\n---\r\nSent from mobile",
      "time": "2009-02-22T20:06:16",
      "id": "6484224",
      "parentPost": "I think we're reading the same book. I just got to this paragraph in Outliers, and I realized I'd read it before... ",
      "parentPostTime": "2009-02-22T16:49:09",
      "parentPostId": "6481547"
    },
    {
      "threadId": "12086662",
      "post": "Yeah, I know, but I'm not sure if he was being snarky or sarcastic or whatever but the overall tone was like 'programming actually does suck'. #7 almost sounded like he didnt really beileve in it ",
      "time": "2009-02-18T16:08:26",
      "id": "6375702",
      "parentPost": ">> \"I refuse to believe that there are no jobs that you enjoy doing.\"\r\n\r\nI don't think the post was implying that, actually. See #7 towards the end:\r\n\r\n\"Get Another Job. Maybe you’ve reached your value apex. Or maybe you’re just sick this type of development altogether. Either way, there are plenty of programming opportunities out there that don’t involve boring, information systems.\"",
      "parentPostTime": "2009-02-18T15:32:47",
      "parentPostId": "6374920"
    },
    {
      "threadId": "11547422",
      "post": "this is the grossest thing ive ever seen",
      "time": "2009-02-11T01:46:46",
      "id": "6153812"
    },
    {
      "threadId": "11476926",
      "post": "haha right? i want one as a pet now",
      "time": "2009-02-10T03:59:30",
      "id": "6130846",
      "parentPost": "wowow. this is great",
      "parentPostTime": "2009-02-10T03:57:28",
      "parentPostId": "6130715"
    },
    {
      "threadId": "11056365",
      "post": "I'd be interested in both :)",
      "time": "2009-02-03T20:49:55",
      "id": "5817132"
    },
    {
      "threadId": "10820049",
      "post": "Haha yeah. I fwd'd this post to my friend and she was a bit furious :)",
      "time": "2009-02-01T16:16:12",
      "id": "5747181",
      "parentPost": "Haha for reals? I know some of those people too.. I wonder how long this lasts. \n\nAlso, try entering Taipei for city. Whatever it is, Taiwan is definitely not a city. ",
      "parentPostTime": "2009-01-31T05:15:07",
      "parentPostId": "5721403"
    },
    {
      "threadId": "10581155",
      "post": "not intentional, just haven't set up my disqus yet :)",
      "time": "2009-01-27T00:13:23",
      "id": "5565256",
      "parentPost": "Are comments disabled on it? Is that intentional?",
      "parentPostTime": "2009-01-27T01:00:44",
      "parentPostId": "5565102"
    },
    {
      "threadId": "9988436",
      "post": "hi ^_^",
      "time": "2009-01-17T01:14:11",
      "id": "5228250",
      "parentPost": "",
      "parentPostTime": "2009-01-16T09:33:49",
      "parentPostId": "5161759"
    },
    {
      "threadId": "9919047",
      "post": "Pick?\r\n\r\nBenny\r\n---\r\nSent from mobile",
      "time": "2009-01-16T12:09:10",
      "id": "5162872",
      "parentPost": "learn to pick!",
      "parentPostTime": "2009-01-16T06:59:02",
      "parentPostId": "5160695"
    },
    {
      "threadId": "7411416",
      "post": "Hi Fred, love the blog and would definitely like an invite :) bdotdub at gmail",
      "time": "2008-11-22T21:04:22",
      "id": "3957275"
    },
    {
      "threadId": "6928888",
      "post": "Who is he?",
      "time": "2008-11-12T05:25:35",
      "id": "3697870",
      "parentPost": "Jacob Applebaum is freaking the man. He was at HOPE and I'm definitely a fan. Which he would hate. Oh well.",
      "parentPostTime": "2008-11-12T05:05:12",
      "parentPostId": "3697694"
    },
    {
      "threadId": "5456892",
      "post": "hahahah what the hell?",
      "time": "2008-10-28T17:01:29",
      "id": "3344613",
      "parentPost": "Seesmic video reply from Disqus.",
      "parentPostTime": "2008-10-28T16:27:47",
      "parentPostId": "3344054"
    },
    {
      "threadId": "4184254",
      "post": "you shouldve replied directly to his comment, i dont think he'll get a notification if you dont. threaded comments jon!",
      "time": "2008-10-28T17:00:48",
      "id": "3344608",
      "parentPost": "Disqus is great.  Come'on Eric..",
      "parentPostTime": "2008-10-28T16:24:29",
      "parentPostId": "3343994"
    },
    {
      "threadId": "4797824",
      "post": "Haha ask Normans brother, that's where I get a lot of my random junk\r\n\r\nBenny\r\n---\r\nSent from mobile",
      "time": "2008-09-20T19:18:12",
      "id": "2461286",
      "parentPost": "I really really like the play with the focus/DOF in this one. Good ambient music too - where do people find this stuff? ",
      "parentPostTime": "2008-09-20T17:50:03",
      "parentPostId": "2454768"
    },
    {
      "threadId": "4014316",
      "post": "I mean yeah, but it's unfortunate when I see her double her gmail mail.\r\n\r\n---\r\nSent from mobile",
      "time": "2008-09-01T19:19:16",
      "id": "1986112",
      "parentPost": "True enough. Other than double-clicking on desktop icons, where do you have to double click? \r\n\r\nWhen I set up computers for my family I leave only 4 icons shortcuts on the desktop, and change those to single-click. MS tried to make that the default way back in Win98, but that was spurned by most people. I'm sure OSX has a similar option. ",
      "parentPostTime": "2008-09-01T17:34:37",
      "parentPostId": "1979718"
    },
    {
      "threadId": "1888627",
      "post": "Poop. (I'm just trying out the email reply feature )\r\n\r\n--\r\nSent from mobile",
      "time": "2008-07-17T01:59:08",
      "id": "916825",
      "parentPost": "nethack on\r\n\r\ncommand or screenrc config, you decide",
      "parentPostTime": "2008-07-16T14:58:41",
      "parentPostId": "910286"
    },
    {
      "threadId": "1428838",
      "post": "i need a data distribution mechanism",
      "time": "2008-06-26T04:32:05",
      "id": "751484",
      "parentPost": "I'm sorry: You tumbl'd your own tweet? This internet thing is getting out of hand. ",
      "parentPostTime": "2008-06-26T04:26:40",
      "parentPostId": "751457"
    }
  ],
  "profileInfo": {
    "username": "bdotdub",
    "about": "cofounder @ timehop",
    "name": "bdotdub",
    "disable3rdPartyTrackers": false,
    "isPowerContributor": false,
    "isAnonymous": false,
    "rep": 1.268816,
    "profileUrl": "https://disqus.com/by/bdotdub/",
    "url": "http://bwong.net/",
    "reputation": 1.268816,
    "location": "New York, NY",
    "isPrivate": false,
    "signedUrl": "http://disq.us/?url=http%3A%2F%2Fbwong.net%2F&key=fx91V0O_LBJNKbBWLMwSlw",
    "isPrimary": true,
    "joinedAt": "2008-06-19T16:19:49",
    "id": "48191",
    "avatar": {
      "small": {
        "permalink": "https://disqus.com/api/users/avatars/bdotdub.jpg",
        "cache": "//a.disquscdn.com/uploads/users/4/8191/avatar32.jpg?1379076692"
      },
      "isCustom": true,
      "permalink": "https://disqus.com/api/users/avatars/bdotdub.jpg",
      "cache": "//a.disquscdn.com/uploads/users/4/8191/avatar92.jpg?1379076692",
      "large": {
        "permalink": "https://disqus.com/api/users/avatars/bdotdub.jpg",
        "cache": "//a.disquscdn.com/uploads/users/4/8191/avatar92.jpg?1379076692"
      }
    }
  }
}