{
  "comments": [
    {
      "threadId": "450661783",
      "post": "Viu o projeto menos ambicioso da almofada que eu ensinei?\nDá pra começar por ela!\nBj",
      "time": "2011-10-23T11:05:04",
      "id": "341839235"
    },
    {
      "threadId": "405794657",
      "post": "Pô, fiquei aguada pra ver o filme!\nEngraçado assistir a um trailei numa língua que a gente não entende e, mesmo assim, ficar instigada, né?\nAdoro cafés!\nBj,\nAna\np.s.: hoje vou mostrar meu velho chapeleiro, que ficou lindo com a ajuda do pessoal da Oficina de Acervos. Acho que vc vai gostar!",
      "time": "2011-09-06T11:16:26",
      "id": "303451668"
    },
    {
      "threadId": "401497582",
      "post": "Carol, eu estou com mil ideias pro quarto dos meus meninos. A dificuldade é que um tem 16 e o outro 9 (mundos distantes...) e ando procurando referências masculinas (quarto de macho! Hahahaha). \nTem algum coringa assim escondido nos seus achados?\nBj,\nAna",
      "time": "2011-09-01T12:07:06",
      "id": "300318916"
    },
    {
      "threadId": "399475557",
      "post": "Eu sempre fico achando que o importante é deixar as coisas com a nossa cara. E como eu nunca consegui ser muito séria, acho perfeito quando vejo um senhor engravatado assim, colorido. Aliás, isso é bom pra vencer preconceito, pois sempre achei a Barcelona com cara de consultório de cirurgião plástico! Hahaha!\nBj",
      "time": "2011-08-31T11:47:32",
      "id": "299488109"
    },
    {
      "threadId": "388187245",
      "post": "Adoro colchas coloridas!\nPreciso tirar a minha colcha fininha do armário pra colocar limpa e perfumada na cama, afinal logo será primavera!\nbj,\nAna",
      "time": "2011-08-17T02:35:52",
      "id": "288703804"
    },
    {
      "threadId": "345394662",
      "post": "Maior orgulho da minha amiga e parceira!\nA Paty é capaz de criar os mimos mais lindos, mais fofos e apaixonantes. Simplesmente amo!",
      "time": "2011-06-29T21:56:55",
      "id": "238220199"
    },
    {
      "threadId": "302801085",
      "post": "Lindão o red velvet! E o pessoal do tanlup merece!\nBjs",
      "time": "2011-05-13T14:57:04",
      "id": "203075793"
    },
    {
      "threadId": "302035730",
      "post": "Amei as mudanças! Vocês estão de parabéns!\nBjs,\nAna",
      "time": "2011-05-12T22:40:23",
      "id": "202629992"
    },
    {
      "threadId": "223021487",
      "post": "Toy de vampiro!",
      "time": "2011-02-05T02:22:07",
      "id": "140967348"
    },
    {
      "threadId": "143326307",
      "post": "Adoro as fotos da sala da La mas me admiro ainda mais com a cozinha da moça: sempre em mudança, incorporando ideias bacanas, apetrechos e cores. \nDcoração de verdade, pra gente de verdade!",
      "time": "2010-09-18T03:21:15",
      "id": "78737362"
    },
    {
      "threadId": "122711852",
      "post": "adoro casas \"de verdade\". E a da Miriam é uma graça!",
      "time": "2010-07-28T13:59:33",
      "id": "64853898"
    },
    {
      "threadId": "121379598",
      "post": "A-d-o-r-o! O seu keep calm tornou o meu armarinho amarelo ainda mais feliz!\nbj",
      "time": "2010-07-24T01:37:45",
      "id": "64000716"
    },
    {
      "threadId": "114169504",
      "post": "A Fun Ideas é das minhas lojas preferidas. Tem sempre alguma novidade bacana e divertida (bem como diz o nome!) e a Patrícia é super profissional e gentil!\nBj,\nAna ",
      "time": "2010-07-05T00:42:13",
      "id": "60574091"
    },
    {
      "threadId": "111895657",
      "post": "Casa mais adorável, Viv!\nChega mesmo a ter cheirinho de café!",
      "time": "2010-06-28T03:06:00",
      "id": "58904110"
    },
    {
      "threadId": "107389040",
      "post": "Eu quero passarinhos!",
      "time": "2010-06-14T00:53:35",
      "id": "56579714"
    },
    {
      "threadId": "102081864",
      "post": "Adorei ter um gatinho ana sinhana escolhido por essa curadora criteriosa!\nBeijo em vc, Fabi!",
      "time": "2010-05-30T13:37:14",
      "id": "53137551"
    },
    {
      "threadId": "97545056",
      "post": "Que honra estar entre a sua seleção de coisas bacanas, Dany! Adorei!",
      "time": "2010-05-22T02:58:17",
      "id": "51474085"
    },
    {
      "threadId": "97256368",
      "post": "O sapatinho novo eu amei; sobre as peçonhentas, nem vou comentar!!!\nhahaha",
      "time": "2010-05-19T22:51:53",
      "id": "51126186"
    },
    {
      "threadId": "96934047",
      "post": "Sei não, violão... ando te achando muito permissiva ultimamente! hehe\nbj",
      "time": "2010-05-19T00:49:58",
      "id": "50982279"
    },
    {
      "threadId": "80426284",
      "post": "Eu quero!",
      "time": "2010-03-29T14:37:20",
      "id": "42101629"
    },
    {
      "threadId": "67682667",
      "post": "Ah, que legal dona Viv!!\nE ainda tem coraçõezinhos na cabeceira da cama na foto que vc guardou!\nBj",
      "time": "2010-02-18T17:32:06",
      "id": "35036341"
    },
    {
      "threadId": "52570165",
      "post": "Viv, quase nunca uso acrílica nos móveis. Só se for pequeno. \r\nE não consegui decidir nada da cor, mas pirei com os puxadores. Fui checar e só tem no Rio (como é que vc faz isso comigo?).\r\nBeijo\r\n\r\nps: diga ao André que agradeço de joelhos pela receita do cuzcuz thai. Eu fiz e acho que devo ter comigo quase metade sozinha. Adorei!",
      "time": "2009-12-20T15:12:15",
      "id": "26731676"
    },
    {
      "threadId": "51876217",
      "post": "Eeeeeeeeeehh!!! \r\nFarei hoje à noite!\r\nNão tenho os ingredientes especiais, mas vai com Hondashi e pimentinha mesmo!\r\nDepois eu conto o resultado.\r\nObrigada, Viv e André!",
      "time": "2009-12-15T11:40:18",
      "id": "25836303"
    },
    {
      "threadId": "42495583",
      "post": "Casa legal é casa de verdade, que não é showroom. Afinal, a casa é pra se viver nela, não pra ser perfeita o tempo todo, com cara de que acabou de sair na revista. \r\nMas só aprendi isso depois de ter filhos. Lembro quando os dois mais velhos eram pequenos e montavam a brincadeira no meio do quarto; chegava a hora de dormir e eu pedia pra arrumar. E eles diziam que iam dormir, mas continuariam a brincar no dia seguinte e, se desmontasse tudo, iria atrapalhar a brincadeira!\r\nEnfim, melhor brincar, né?\r\nBj",
      "time": "2009-10-30T10:24:26",
      "id": "21344115"
    },
    {
      "threadId": "42287491",
      "post": "Que lindo que ficou, Viv!\r\nAinda mais com essa cabeceira maravilhosa da tua cama. Amei!\r\nbjs",
      "time": "2009-10-29T01:27:33",
      "id": "21234463"
    },
    {
      "threadId": "38641631",
      "post": "Que sonho a LCW lá no cantinho!",
      "time": "2009-10-09T10:46:58",
      "id": "19655253"
    },
    {
      "threadId": "37573322",
      "post": "Hum... fiquei com vontade de fazer uma, pra acompanhar os pinguins de pano!\r\nBj, bom domingo!",
      "time": "2009-10-03T23:26:14",
      "id": "18440520"
    },
    {
      "threadId": "37287156",
      "post": "Fiquei super tentada com as cadeiras. Mas aí teria que trocar a mesa também. Enfim, deixarei passar essa (snif!).\r\nbeijão e muita sorte e alegria na nova empreitada!\r\nAna",
      "time": "2009-10-02T11:46:05",
      "id": "18276033"
    },
    {
      "threadId": "35649126",
      "post": "Eu gosto da versão \"procrastinate now, panic later\"...\r\nbj",
      "time": "2009-09-23T11:19:39",
      "id": "17211771"
    },
    {
      "threadId": "34656759",
      "post": "E olha eu aqui de novo!\r\nViv, vc bem sabe o quanto fiquei feliz com a minha cadeira, que foi meu presente de aniversário. E mais feliz ainda em vê-la aqui, nessa sua 'casa' que tanto amo!\r\nValeu a dica, valeu o carinho!\r\nBj,\r\nAna",
      "time": "2009-09-17T13:12:02",
      "id": "16808623"
    },
    {
      "threadId": "34207625",
      "post": "Trabalhei algum tempo como professora de trabalhos manuais em escola waldorf e os brinquedos da Monte Azul deixavam as salas quase que encantadas!\r\nbj",
      "time": "2009-09-15T17:05:23",
      "id": "16632984"
    },
    {
      "threadId": "33857753",
      "post": "Viv, minha parede empapelada ficou tão linda por aqui!\r\nAmei vê-la através do seu olhar, sempre tão amoroso!\r\nObrigada,\r\nAna\r\n\r\nps: agradeço aos comentários e ao Cláudio, pelo parabéns antecipado!",
      "time": "2009-09-12T01:41:36",
      "id": "16462431"
    },
    {
      "threadId": "33372365",
      "post": "Aqui, a gente tem pânico de cupim, porque moramos numa casa de madeira...\r\nCerta vez, comprei um armário lindo, um achado. Mas veio cheio de vida na parte de trás. Enfim, o trampo de trocar a madeira foi tanto que marido quase ateou fogo, pra matar a cupinzada e o armário!\r\nBj",
      "time": "2009-09-08T23:25:55",
      "id": "16218009"
    },
    {
      "threadId": "32104456",
      "post": "Espaldares... adoro até a palavra!",
      "time": "2009-09-01T16:43:46",
      "id": "15719153"
    },
    {
      "threadId": "31407421",
      "post": "Continuo fissurada pelos puxadores!\r\nbj",
      "time": "2009-08-27T11:07:28",
      "id": "15462502"
    },
    {
      "threadId": "29074502",
      "post": "Amei o primeiro, no tom de rosa. Queria colocar em dois lugares da sala de casa, mas será que cola no lambril de madeira? Ou será que tenho que pregar num compensado?\r\nbj (fiquei ansiosa pra ver a tua parede!),\r\nAna",
      "time": "2009-08-09T20:21:48",
      "id": "14523488"
    },
    {
      "threadId": "29075799",
      "post": "Dou o maior apoio pra tua colcha e/ou qualquer outro projeto de costura. E, precisando de ajuda, pode me chamar!\r\nBj",
      "time": "2009-08-05T21:43:54",
      "id": "14000501"
    },
    {
      "threadId": "21967228",
      "post": "Amo as fotos da Jasna!",
      "time": "2009-06-17T14:34:13",
      "id": "11043338"
    },
    {
      "threadId": "29078949",
      "post": "Concordo. Casa não é showroom. E olha que só entendi isso depois que tive filhos!\r\nBjs",
      "time": "2009-06-10T16:48:45",
      "id": "10703060"
    },
    {
      "threadId": "29075503",
      "post": "Aqui, a gente colocou os nossos num móvel na cozinha, meio que protegidos. Principalmente porque o restante dos livros da casa ficam longe, no ateliê!",
      "time": "2009-06-04T23:44:48",
      "id": "10501921"
    },
    {
      "threadId": "20303029",
      "post": "Assino embaixo. Pra que, nessa altura da vida, optar por viver sob a ditadura da futilidade?\r\nBjs",
      "time": "2009-06-03T21:47:14",
      "id": "10453074"
    },
    {
      "threadId": "30073163",
      "post": "Minha parede está ficando assim. Mas é sem querer, por falta de espaço mesmo!",
      "time": "2009-05-28T10:35:51",
      "id": "10144570"
    },
    {
      "threadId": "15437776",
      "post": "Essa luminária de xícaras do etsy eu amo, já tinha favoritado. Mas, 950 doletas?\r\nJogaram sal no meu chá...\r\nbjs, feliz Páscoa! ",
      "time": "2009-04-10T12:57:47",
      "id": "8052216"
    },
    {
      "threadId": "29078676",
      "post": "Mando um campo de flores e um dia ensolarado, com uma brisa leve,  pra Juliana. Sem chuva, nem cinza.\r\nE um beijo em vc, querida!",
      "time": "2009-03-11T00:26:55",
      "id": "7088474"
    },
    {
      "threadId": "30076658",
      "post": "Engraçado, tava olhando uma bobeira da mulherada do flickr,  que é fazer lista dos homens mais, mais lindos... e fiquei fazendo a minha mentalmente: Adrian Brody,  Gael G.Bernal, (...) e Mark Ruffalo, não exatamente nessa ordem!\r\nE a casa do feio é show, ainda por cima!!!\r\nbj",
      "time": "2009-03-08T01:49:31",
      "id": "6985376"
    },
    {
      "threadId": "30074780",
      "post": "Então... escolha as cores, veja se gosta de alguma estampa minha e me fale o tamanho do seu note, pois vou te fazer uma bem linda!!!\r\n",
      "time": "2009-02-12T00:47:23",
      "id": "6195375"
    },
    {
      "threadId": "11213104",
      "post": "Acho que vi 5 mil pilas numa caçamba lá na esquina... vou lá catar e já volto...\r\nbj",
      "time": "2009-02-06T00:47:52",
      "id": "5879993"
    },
    {
      "threadId": "30075884",
      "post": "Claro que pode! Já te passo o endereço: vou morar na Defensa, em cima do café em frente da praça onde tem a muvuca da feira de domingo... hehehehehehehe.\r\nTe espero com medialunas e café!\r\nBj\r\nps: te aviso quando o sonho virar realidade!",
      "time": "2009-02-02T22:26:33",
      "id": "5790884"
    },
    {
      "threadId": "10524095",
      "post": "Ah, que legal!\r\nTambém ando com manias vermelhas ultimamente!!!\r\nComprei cadeira e banquinho novos pro ateliê, bem vermelhinho e com precinho bom lá na ETNA!\r\nE a cozinha daqui de casa, que antes era cinza, está ganhando uns toques de vermelhos!\r\nAinda não fiz uma postagem decente, mas dei uma palhinha das mudanças lá no flickr:\r\nhttp://www.flickr.com/photos/sinhana/3210280833/\r\nhttp://www.flickr.com/photos/sinhana/3213771122/in/set-72157594556824553/\r\n\r\nBeijos vermelhos e boa semana procê!",
      "time": "2009-01-27T22:47:51",
      "id": "5603131"
    },
    {
      "threadId": "30079732",
      "post": "Vivianne, tem essa moça aqui também, que faz um mais terrivelmente lindo que o outro:\r\nhttp://www.flickr.com/photos/bymariannes/\r\nE tem a Graça Rivas, brasileiríssima que faz outros colares também lindos, embora não totalmente de crochê como esses:\r\nhttp://www.elo7.com.br/panoamano\r\n\r\nBeijoca e feliz 2009 procê!\r\nAna",
      "time": "2009-01-13T02:02:29",
      "id": "5084825"
    },
    {
      "threadId": "30076617",
      "post": "Uau!!! amei ver a Geisha e o porta-trecos nesta casinha que eu amo tanto!!! Obrigada, Vivianne!!!\r\nE precisamos resolver a tua questão de vida ou morte!!! hehehehehe\r\nBeijo,\r\nAna",
      "time": "2008-11-05T00:05:42",
      "id": "3497137"
    },
    {
      "threadId": "30076736",
      "post": "Fica triste não... e please, algo quente tão logo quanto possível!!!\r\nAdoro os azuis, mas eles são muito assim, mergulháveis...\r\nBeijo",
      "time": "2008-10-09T02:32:34",
      "id": "2952021"
    },
    {
      "threadId": "5356140",
      "post": "Fica legal mesmo! E não foram só os pequenos que curtiram... os adultos também adoraram!\r\n",
      "time": "2008-10-07T17:11:58",
      "id": "2920082",
      "parentPost": "Noooossa, adorei esta idéia!!! Imagina pegar o ponche com mãozinhas?\r\n-- \r\nVivianne Pontes\r\nwww.decoeuracao.blogspot.com\r\n\r\n2008/10/4 Disqus <>",
      "parentPostTime": "2008-10-05T14:30:13",
      "parentPostId": "2879076"
    },
    {
      "threadId": "29074939",
      "post": "Aqui em casa, o povo me chama de lixeira... mas já achei muita coisa \"com potencial\" nas caçambas da vida. Há umas duas semanas, ganhei duas cadeiras de uma senhorinha, pintadas no amarelo mais horroroso que já vi... preciso de um tempinho pra recuperá-las e postar um antes e depois!\r\nbj, bom sábado!",
      "time": "2008-09-20T14:54:13",
      "id": "2453442"
    },
    {
      "threadId": "4657943",
      "post": "Oi Vivianne! Obrigada, fiquei toda faceira com o seu elogio!\r\n\r\nBom, eu faço uma mistura de coisas: crio os desenhos, faço os carimbos, estampo os tecidos e costuro peças (bolsas, carteiras, necessaires, sacolas, camisetas e o que mais der na cabeça). No fim das contas, é difícil definir, embora me classifiquem aí pelas feiras afora como designer têxtil, eu sempre falo que faço patchwork contemporâneo, porque acabo fazendo mesmo uma mistura de coisas.\r\n\r\nO atelier vive em mudança. Quero ter tempo de atacar as paredes (3 de tijolinho à vista e uma caiada de amarelo), mas isso só dá pra fazer em janeiro, quando paro. E como o grande problema é como estocar tanta coisa, vivo comprando cestas, prateleiras... até caixa daquelas de feira (coloquei rodinha e forrei, ficou perfeita pra guardar tecido!).\r\n\r\nDepois, se vc quiser, dá uma olhada nas fotos lá no flickr, sempre arrumo alguma novidade pra mudar a carinha do meu canto. Afinal, passo a maior parte do meu dia lá, então ter que ter minha cara, né?\r\n\r\nhttp://www.flickr.com/photos/sinhana/sets/72157600024740963/\r\n\r\nBeijo,\r\nAna",
      "time": "2008-09-17T12:26:10",
      "id": "2396644",
      "parentPost": "Nossa Ana, incrível seu ateliê! Manda pra mim um email com o que você faz?\r\n\r\nBeijo,\r\n-- \r\nVivianne Pontes\r\nwww.decoeuracao.blogspot.com\r\n\r\n2008/9/16 Disqus <>",
      "parentPostTime": "2008-09-17T11:13:10",
      "parentPostId": "2396193"
    }
  ],
  "profileInfo": {
    "username": "anasinhana",
    "about": "",
    "name": "anasinhana",
    "disable3rdPartyTrackers": false,
    "isPowerContributor": false,
    "isAnonymous": false,
    "rep": 1.254777,
    "profileUrl": "https://disqus.com/by/anasinhana/",
    "url": "http://www.anasinhana.com",
    "reputation": 1.254777,
    "location": "Brazil",
    "isPrivate": false,
    "signedUrl": "http://disq.us/?url=http%3A%2F%2Fwww.anasinhana.com&key=m8hOp6L-G5AA2oNQZaNtVA",
    "isPrimary": true,
    "joinedAt": "2008-09-17T01:53:41",
    "id": "102722",
    "avatar": {
      "small": {
        "permalink": "https://disqus.com/api/users/avatars/anasinhana.jpg",
        "cache": "//a.disquscdn.com/uploads/users/10/2722/avatar32.jpg?1281549414"
      },
      "isCustom": true,
      "permalink": "https://disqus.com/api/users/avatars/anasinhana.jpg",
      "cache": "//a.disquscdn.com/uploads/users/10/2722/avatar92.jpg?1281549414",
      "large": {
        "permalink": "https://disqus.com/api/users/avatars/anasinhana.jpg",
        "cache": "//a.disquscdn.com/uploads/users/10/2722/avatar92.jpg?1281549414"
      }
    }
  }
}