{
  "comments": [
    {
      "threadId": "2038408293",
      "post": "Sure, no problem! Let me know where you post it. I'm curious to see what people think. :)",
      "time": "2014-02-12T17:48:35",
      "id": "1241457656",
      "parentPost": "Hi Peat. Great article. I hate null ref as much as you do. Could I translate this to Chinese and share to public?\nOf caurse I will keep the source link.",
      "parentPostTime": "2014-02-12T06:14:41",
      "parentPostId": "1240742118"
    },
    {
      "threadId": "1764538421",
      "post": "Send me a note at peat@peat.org and I can help you troubleshoot.",
      "time": "2013-12-11T23:16:16",
      "id": "1159363106",
      "parentPost": "Hey guys. Awesome idea. Is it still supposed to work though? Can't get stackoverflow to recognize my new id :)",
      "parentPostTime": "2013-12-11T22:50:02",
      "parentPostId": "1159336115"
    },
    {
      "threadId": "1608505896",
      "post": "Yes! I'm all about community oriented classes -- they're a fantastic way to get on board with a new technology, and meet some supportive peers and mentors. Thanks for pointing them out. :)",
      "time": "2013-08-16T05:50:36",
      "id": "1003263770",
      "parentPost": "How about some passionate career changers and non traditional learners? Code Scouts is great for newer learners. Women Who Hack and Pyladies for a wider range of noobs to experienced devs. And Portland Code School for new-minted junior web devs.",
      "parentPostTime": "2013-08-16T05:40:30",
      "parentPostId": "1003258407"
    },
    {
      "threadId": "1609127833",
      "post": "A internship kickstarted my career -- and I wouldn't have been able to take it unless it were a (minimally) paid position. At 18 I knew very little about negotiation or how much my skills could be worth; I learned quickly, but I certainly didn't have the confidence to ask for a paycheck from a respected organization that said \"un-paid internship.\" \n\nI know it's de rigueur to offer the lowest salary for a position, and I recognize that it takes two to tango ... but unpaid internships, especially in high paying, high demand fields, are very poor form.\n\nhttp://peat.org/2013/08/15/take-a-chance-on-an-intern/",
      "time": "2013-08-16T00:01:20",
      "id": "1002968028"
    },
    {
      "threadId": "1573159225",
      "post": "Fair enough.\n\n\nI'm glad that we can agree that it's tasteless, and I really do appreciate that you took the time to respond. I wish more people were inclined to write thoughtfully and engage in the topic. Thanks. :)",
      "time": "2013-08-07T18:17:02",
      "id": "991748082",
      "parentPost": "I thought it was obvious, but just in case: I’m in the tech industry too, although not in that field — I’m a web developer.\n\n\nI meant that the woman is at most as sexualized as the guy. I would find it easier to accept that the ad is sexist against guys, as the guy is shown in a submissive position, but I would still think it’s overkill. It’s just two people making out. If it’s not a sexist picture in general, being on an ad does not suddenly make it so. At worst, it just makes the ad tasteless.",
      "parentPostTime": "2013-08-07T18:11:07",
      "parentPostId": "991738600"
    },
    {
      "threadId": "1037135561",
      "post": "David -- I appreciate that you took the time to write a response, especially considering the age of the post.\n\nI understand what you say, and I have quite a few friendly acquaintances who are involved in Occupy. I grew up in an activist community; I have quite a bit of respect for people who are willing to act in defiance of injustice, and who defend the defenseless.\n\nHowever, I do not believe that the ends justify the means. What you do is what matters, not how you justify it in retrospect.\n\nThe action of camping in a public space was provocative, but empty. It brought some people together -- but it alienated many more.\n\nI'm sure we could have a constructive discussion about the specifics of direct action and the history of social movements, but your closing statement makes the prospect unappealing.\n\nSaying that people outside of a movement should refrain from criticism is at best naive. I'm sure you know better then that.",
      "time": "2013-05-24T17:16:09",
      "id": "907104706",
      "parentPost": "You really do a disservice to the fight for social justice when you falsely paint past movements as having some laser-like focus that they most certainly did not have. The labor movement ran the gammut from hard-core radical Anarchists, Communists and various other socialists to your milky-liberal reformers. And their actions were just as disparate from the famous sit-in strikes to political action and lots of other things. Like any social movement, nobody knows exactly what's going to work but you keep trying different things and moving forward. \n\nThe Occupy Movement was relevant enough to warrant a nationally coordinated crackdown on it. We have Anarchists being targeted across the country by Grand Jury's in an attempt to unravel and repress these movements. You don't get that kind of reaction from the state unless you're doing something right. \n\nThe movement has evolved into things like the Rolling Jubilee where literally millions of dollars in debt has been bought and wiped clear for people. It's not a symbolic protest but actual concrete work that reminds people just how arbitrary debt is in a system where strangers can buy up debt for pennies on the dollar. \n\nThere is the hugely popular and successful Occupy Sandy that did more than just about anyone to help people impacted by Hurricane Sandy. Even now it is helping seed workers cooperatives in the hardest hit areas. \n\nYou're not offering a challenge to the Occupy movement you clearly don't understand. You're offering the same old liberal dogma we've heard again and again: vote, support the non-profit industry (which is simply a tax haven for the 1%) blah, blah, blah. From the very early days of the Occupy movement we had developed a standard response for people like you: If you're not a part of the movement, don't understand what the movement is or what it is doing, please keep your \"advice\" to yourself. \n\n\n\n\n",
      "parentPostTime": "2013-05-24T15:17:08",
      "parentPostId": "906990699"
    },
    {
      "threadId": "1307578698",
      "post": "fail2ban is a good tool for monitoring a bunch of different kinds of logs, and triggering a bunch of different kinds of events. It would definitely fill the bill in the simple use case, above.\n\n\nMy motivation for sshame was to focus on collecting and inspecting the IP addresses. I'm a big fan of small tools that don't do a lot of different things, because it lets me chain them together to do a lot more interesting things.\n\n\nIn any case, another use case I'm pursuing is using sshame to log IPs by the hour, then passing through the logs with a geolocation tool to generate map points. The goal is to produce a \"scrubbable\" map animation of attacks. I doubt it'll be *useful* ... but it's fun. :)",
      "time": "2013-05-24T01:14:11",
      "id": "906389874",
      "parentPost": "Why not fail2ban?",
      "parentPostTime": "2013-05-23T14:50:02",
      "parentPostId": "905863325"
    },
    {
      "threadId": "1270668203",
      "post": "Curious -- what browser are you using, and on which platform?",
      "time": "2013-05-15T18:15:23",
      "id": "898346215",
      "parentPost": "I can  see the titles only !",
      "parentPostTime": "2013-05-15T11:26:56",
      "parentPostId": "898007435"
    },
    {
      "threadId": "591117015",
      "post": "Apologies for not being thorough here. Here is the full sequence of events, as we understand it:\n\n- eeplox uploaded the video to YouTube.\n- YouTube's automated Content ID system flagged the audio in the video as belonging to our catalog. The track in our catalog doesn't contain any birdsong; it was a false positive.\n- eeplox requested a review through YouTube's dispute resolution tool. This is the first time we were aware of the video.\n- A reviewer here at Rumblefish mistakenly reinstated the claim instead of releasing it. It's not our policy to claim work we don't represent.\n- The dispute was posted to Slashdot, Reddit, and the YouTube forums.\n- We released it as soon as we had an opportunity to review the material.\n- I'm attempting to answer questions about the process as best I can. I'm a developer, not a PR guy, so ... I'm not very good at this.\n\nWe do not have any robo-claim tools, we do not have any automated systems for flagging content as infringing -- this was human error during our review process.\n\nPlease let me know if you have any other questions. We also have a Reddit AMA thread with the CEO (search for \"Paul Anthony\"), and although it's difficult to sort through Slashdot's discussions, there are quite a few posts from us, eeplox, and other folks.\n\nBest,\n-Peat",
      "time": "2012-02-28T20:40:00",
      "id": "451568387",
      "parentPost": " You keep saying things like: \"being up front and honest, answer questions legitimately, trying to answer people's questions, ...\", but you are not.  \nThe one obvious question that everybody has you refuse to answer.  \nWe don't want to know how nice a company you have, how you help independent artists, how you have to work on a Sunday to fix this PR fail.  \nWe want to know: How did it happen?  \nYou are using this publicity.  But you don't answer.  \n\nHow did it happen?",
      "parentPostTime": "2012-02-28T16:23:37",
      "parentPostId": "451328409"
    },
    {
      "threadId": "576374946",
      "post": "It was amazing to see the 62 hacks -- there were Sifteo + monad hardware tricks, browser-based synthesis, facial recognition, iPad synths, search engines, etc. etc. Not a dull moment. The list of hacks is pretty intense. It's a crazy good fun for creative developers who like to mess around with music. :)",
      "time": "2012-02-15T16:04:49",
      "id": "439871318"
    },
    {
      "threadId": "576149298",
      "post": "Hey, thanks for your support and great attitude at the hack day. It was a lot of fun!",
      "time": "2012-02-14T22:34:09",
      "id": "439312136"
    },
    {
      "threadId": "273944293",
      "post": "Well done, and thanks for pointing out the Lose It app -- I'm trying it out, and I figure it can't hurt to have friends doing it as well, regardless of their goals! Cheers!",
      "time": "2011-04-08T00:42:54",
      "id": "180405160"
    },
    {
      "threadId": "170341658",
      "post": "Not so crazy -- Janrain provides a lot of the technical heavy lifting, but the data (where the value is) gets passed through without obfuscation.  The only thing Ning loses is a lot of busy work trying to keep up with all of the identity providers and protocols.\n\nFull disclosure: I worked with Janrain.",
      "time": "2010-11-10T17:53:45",
      "id": "95972567",
      "parentPost": "This is crazy, social graph is a core part of your job and you outsource it to a 3rd party. ",
      "parentPostTime": "2010-11-10T17:43:18",
      "parentPostId": "95969663"
    },
    {
      "threadId": "165449226",
      "post": "I tried college four times, and it wasn't until I turned 25 that I realized that wasn't the path for me.  Despite the anxious handwringing from my family and colleagues (who have an alarmingly high number of terminal degrees), I decided to go my own way.<br><br>And I haven't looked back.<br><br>The computer industry is a rare industry in that people with good attitudes, creative inclinations, and high motivation can build very successful careers without formal education or training.<br><br>Here's the catch:  you're going to learn how things work the hard way.  You're going to fuck up a contract and not get paid, and you're going to get behind on bills.  You're going to over promise and under deliver.  You're not going to be taken seriously.  You're going to be used like tissue paper, and it's going to suck.  Your beliefs and faith in your abilities will be tested over, and over, and over again.  You won't have the luxury of maturing in a university environment where your efforts are reflected in your grades -- you're going to be working for people who's personal wellbeing is impacted by how well you do your job.<br><br>It's a bigger responsibility, but you're going to be stronger for it.  There is no education as thorough and unrelenting as throwing yourself into the gaping maw of the Real World.<br><br>I only have two pieces of advice:<br><br>1. Learn the difference between enthusiasm and skill, and nurture both:  getting excited about your work will get other people excited about what you're doing, but it's hard work and talent that delivers the goods.  It takes time and experience to learn how to pace yourself, learn how to build good estimates, and to understand and sell your capabilities.<br><br>2. Mind your business: there are a lot of rules you can bend and ignore, but there is no fudging the bottom line:  good will and wishful thinking can't pay your rent.  Honestly earned money in the bank means you can sleep well and live happily.<br><br>Skipping school and striking out on your own is going to be hard ... but anything worth doing is!<br>",
      "time": "2010-11-01T22:16:19",
      "id": "92838444"
    }
  ],
  "profileInfo": {
    "username": "peat",
    "about": "geek, photographer, serial entrepreneur, dad.",
    "name": "Peat Bakke",
    "disable3rdPartyTrackers": false,
    "isPowerContributor": false,
    "isAnonymous": false,
    "rep": 1.2023439999999999,
    "profileUrl": "https://disqus.com/by/peat/",
    "url": "http://peat.org/",
    "reputation": 1.2023439999999999,
    "location": "Portland, OR",
    "isPrivate": false,
    "signedUrl": "http://disq.us/?url=http%3A%2F%2Fpeat.org%2F&key=uF4y-jneDMG0QsUNEDZOzw",
    "isPrimary": true,
    "joinedAt": "2008-05-30T16:56:32",
    "id": "39457",
    "avatar": {
      "small": {
        "permalink": "https://disqus.com/api/users/avatars/peat.jpg",
        "cache": "//a.disquscdn.com/uploads/users/3/9457/avatar32.jpg?1392227316"
      },
      "isCustom": true,
      "permalink": "https://disqus.com/api/users/avatars/peat.jpg",
      "cache": "//a.disquscdn.com/uploads/users/3/9457/avatar92.jpg?1392227316",
      "large": {
        "permalink": "https://disqus.com/api/users/avatars/peat.jpg",
        "cache": "//a.disquscdn.com/uploads/users/3/9457/avatar92.jpg?1392227316"
      }
    }
  }
}