{
  "comments": [
    {
      "threadId": "47306541",
      "post": "oh my holy fucking shit yes please i have been waiting forever. DO IT.",
      "time": "2009-11-22T22:26:08",
      "id": "23837576"
    },
    {
      "threadId": "45655128",
      "post": "No way.. thats maybe one of my most favourite films EVER. I think the twins are my favourite... And the one with Bill Murray... Ahh good times. I think for SNMC you should do THE TEMPER TRAP. You would love them i think. (btw I only ever use capitals when i really want your attention- it worked one time..hopefully once again)",
      "time": "2009-11-15T08:04:42",
      "id": "23117464"
    },
    {
      "threadId": "40741306",
      "post": "days or months? ",
      "time": "2009-10-23T07:55:28",
      "id": "20845275"
    },
    {
      "threadId": "38856816",
      "post": "thank you.",
      "time": "2009-10-10T07:28:35",
      "id": "19728496"
    },
    {
      "threadId": "37671389",
      "post": "I love this song, i love that whole album actually...\r\n\r\nHmm so I cant stop listening to the (500) Days Of Summer soundtrack it is so so good... Especially 'Shes got you high' by Mumm-Ra",
      "time": "2009-10-04T05:40:38",
      "id": "18460514"
    },
    {
      "threadId": "35208884",
      "post": "i dont really know what to say... I mean dont get e wrong im so so happy for you William but... I dunno. Its such a huge part of your life to keep hidden and i understand why you did but woah, it changes everything.. Everything to do with you and your music now has a new side to it. Of course its a good thing though, im just still so shocked. But above that im happy for you.. Really happy. You must be an amazing Father and your daughter has no idea how lucky she is. \r\nLove xx",
      "time": "2009-09-21T05:00:06",
      "id": "17025375"
    },
    {
      "threadId": "34116688",
      "post": "What up, jigga?\r\nDo you like Sylvia Plath, Jigga?\r\n\r\n",
      "time": "2009-09-14T06:29:42",
      "id": "16562039"
    },
    {
      "threadId": "30772604",
      "post": "Mannn you could have done a good australian band.. they are like a total MGMT rip off but nowhere near as cool.\r\n\r\n&oh the past- i'd go back back back to when i didn't know anything, so nothing would matter... you know?\r\n\r\nhappy day",
      "time": "2009-08-23T04:45:04",
      "id": "15250788"
    },
    {
      "threadId": "26990856",
      "post": "You write so passionately about every song every week it is so fabulous. I'm gonna reccomend Patrick Wolf...  he is a sweet wee dude. \r\n\r\nAlso wanted to say William that today i found this tiny notebook i took with me on camp last year.. it was gross and ripped but completely full of all your writing which i cut out and put in there before i went... i don't know why i did that, some comfort reason i guess but i was reading over the things you've written and ahhh.. you just amaze me. You make me feel good and fresh and happier than you can imagine and i havn't even met you...\r\n I know this is nothing to do with SNMC but i just felt like saying it you know?\r\nHave a good day/night wherever you are... x",
      "time": "2009-07-26T07:38:13",
      "id": "13346467"
    },
    {
      "threadId": "24797183",
      "post": "I hope you're smiling William wherever you are.",
      "time": "2009-07-09T22:38:34",
      "id": "12411929"
    },
    {
      "threadId": "23325251",
      "post": "Aaaahh  I cant stop listening to John Mayer at the moment  his music is too beautiful. But William i think you should listen to this...\r\nhttp://www.youtube.com/watch?v=cGdIpcj0HJo\r\nIts been out for ages but dunno if you would have heard it.. i think you might might might like it though after a few plays....",
      "time": "2009-06-28T03:37:53",
      "id": "11845639"
    },
    {
      "threadId": "22469957",
      "post": "ah dan this is lovely crazy... i can imagine it being the anthem for all the fish in the sea.",
      "time": "2009-06-22T03:57:34",
      "id": "11544192"
    },
    {
      "threadId": "21865552",
      "post": "ahhaha how old...5..6..7?? Na kidding but you actually do look tiny. Suspicious haha",
      "time": "2009-06-17T03:37:06",
      "id": "11031269"
    },
    {
      "threadId": "21713167",
      "post": "hahahaha its like snowing in my corner of the world right now..but good for you guys with your summer break! Not jealous or anything...",
      "time": "2009-06-16T02:36:50",
      "id": "10957659"
    },
    {
      "threadId": "21152261",
      "post": "Oh really? Okay that actually doesnt make me feel AS bad haha",
      "time": "2009-06-12T04:40:47",
      "id": "10785103",
      "parentPost": "The thing is, TAI are the supporting act. It's really Anberlin who have more influence over the dates and where they're playing. If this was TAI's tour I'm sure they'd drop by NZ, but it's not. Just saying.",
      "parentPostTime": "2009-06-11T11:58:08",
      "parentPostId": "10734131"
    },
    {
      "threadId": "20756044",
      "post": "IM FREAKING OUT HERE.\r\n\r\n\r\nARE YOU GUYS COMING TO NEW ZEALAND ON YOUR AUS TOUR?!?!??!?!?!?!?!?!??!?!?!\r\nSorry for caps but seriously, you HAVE to or i will die.\r\nPLEEEEEEEEEEEEEEEEEEEEEEEEEEEASSSSSEEEEEE.....",
      "time": "2009-06-09T09:30:04",
      "id": "10645713"
    },
    {
      "threadId": "19984023",
      "post": "Willliiiaaam it was my 16th birthday yesterday... And i was real excited to see what SNMC would be cos i was like yay, this will be my present from you. But... YOU DIDNT EVEN DO IT?! I was extremely upset, cut me deep.\r\n\r\nSo hopefully you're just running really late on it or something....",
      "time": "2009-06-01T03:48:52",
      "id": "10334539"
    },
    {
      "threadId": "19186659",
      "post": "Willliiiaaam do you like LadyHawke? I know Butch Walker does ;) and he is a wise man so i think you should follow in his footsteps....",
      "time": "2009-05-24T09:31:27",
      "id": "9850122"
    },
    {
      "threadId": "18520758",
      "post": "ahhaha thast awesomely bad.",
      "time": "2009-05-19T08:20:15",
      "id": "9529770"
    },
    {
      "threadId": "18443976",
      "post": "hahaha i love the butcher... And i love the song too. \r\nAlso, thanks for a few weeks back William im now obsessed with PHOENIX :D They're great...",
      "time": "2009-05-17T07:13:40",
      "id": "9467144"
    },
    {
      "threadId": "18201989",
      "post": "ENFJ - \"Persuader\". Outstanding leader of groups. Can be aggressive at helping others to be the best that they can be. 2.5% of total population.\r\n\r\nMmm...not too sure i did it right... ahaha",
      "time": "2009-05-15T04:42:43",
      "id": "9351873"
    },
    {
      "threadId": "17770621",
      "post": "I stayed up til 1am making my mum a mixtape for mother's day... and i mean an actual real life cassette full of songs i thought would make her smile.... You're on there William. (:",
      "time": "2009-05-11T03:30:22",
      "id": "9195170"
    },
    {
      "threadId": "17238922",
      "post": "i would wanna do some hardcore hip hop one with you... Maybe 2pac or something just to hear you RAP ahaha",
      "time": "2009-05-04T06:07:48",
      "id": "8971067"
    },
    {
      "threadId": "17177651",
      "post": "Lord Of The Rings.... not really into it that much just glad that you mentioned a New Zealander woooooooooooooooooh. Made my day. (: ",
      "time": "2009-05-02T23:40:17",
      "id": "8944125"
    },
    {
      "threadId": "16681820",
      "post": "my brothers friend loves radiohead... i love my brothers friend. So now i love them too. \r\nLOVELOVELOVE i can smell the sun...",
      "time": "2009-04-26T05:14:03",
      "id": "8697459"
    },
    {
      "threadId": "16544231",
      "post": "mike needs a haircut i think.... ",
      "time": "2009-04-24T05:02:18",
      "id": "8638582"
    },
    {
      "threadId": "16079501",
      "post": "Man..\r\nI just love the fact that you actually care what we have to say and that you include us in so much... Not so cool that this new format takes like an hour to load on my computer but its all good (: haha definately worth it..",
      "time": "2009-04-19T04:31:41",
      "id": "8343213"
    },
    {
      "threadId": "15939755",
      "post": "go pete go. I LOVE when you set things straight. Everything you said i sollute you to... so carry on being the amazing band you are and f the unbelievers.",
      "time": "2009-04-16T23:23:26",
      "id": "8277277"
    },
    {
      "threadId": "15931642",
      "post": "Not suprising that this is amazing haha i can't wait to read more. I really hope you end up publishing some of your work- i think it would honestly do really well.\r\nNot that you'll reply but have you read A Million Little Pieces William...? I'm reading it now and woooaaaah, very inspirational..",
      "time": "2009-04-16T23:09:36",
      "id": "8276968"
    },
    {
      "threadId": "15845732",
      "post": "holy shit i want a room like that. Why do you have to be so cool...",
      "time": "2009-04-16T00:59:39",
      "id": "8246701"
    },
    {
      "threadId": "15602871",
      "post": "anything by OF MONTREAL.....  i hope you like them William cos i think they're amazing.... Im not usre why im bothering to comment on this way later but yknow (: worth a shot i guess....",
      "time": "2009-04-14T09:00:54",
      "id": "8179236"
    },
    {
      "threadId": "15505066",
      "post": "This is pretty wonderful. I feel like im sitting there with you. \r\nHigh five.\r\n\r\n",
      "time": "2009-04-10T23:21:18",
      "id": "8066498"
    },
    {
      "threadId": "14900049",
      "post": "haha thats so cute... how old are you there...? 16 17 18..?",
      "time": "2009-04-02T06:04:39",
      "id": "7736762"
    },
    {
      "threadId": "14893525",
      "post": "Im super annoyed you just dissed your own bands name... I always loved The Academy Is... as a name. Especially the dot dot dot cause i love dots.\r\n\r\n",
      "time": "2009-04-02T05:36:32",
      "id": "7736442"
    },
    {
      "threadId": "14806825",
      "post": "Ahh this is awesome. I love it how its like clearly a logo if you've seen it before but has almost a maori look to it.... (: \r\n\r\n(i have to admit i was a tad worried it would be like a huge snake across your back or something at first.....hahah)",
      "time": "2009-04-01T03:00:49",
      "id": "7699263"
    },
    {
      "threadId": "14638194",
      "post": "William i didn't know you and Taylor Swift were so tight!\r\n\r\nI can't listen to this song right now, the internet is fucking up...but i'll have a go later. You always have the best reccomendations anyway so i assume its fabulous. (:\r\n\r\nI can't stop listening to Of Montreal right nooow.. AND my brother has got me into Radiohead believe it or not. In Rainbows is on repeat in my head.... (you were right, it is a great album haha)\r\n\r\nCan't wait to hear about Chile.........\r\n\r\nx",
      "time": "2009-03-30T05:08:39",
      "id": "7623062"
    },
    {
      "threadId": "14485980",
      "post": "This woman sounds awesome i want to meet her!.... And William can i just ask..what exactly is this term Hero Warship you and Pete keep using...i thought i knew what it meant but i was thinking of worship ahahh aand got it all wrong...?\r\n\r\np.s have a nice flight.\r\np.p.s i have a story to tell you but i think ill wait til SNMC cause i know you def read those comments...usually. haha",
      "time": "2009-03-27T02:41:14",
      "id": "7547882"
    },
    {
      "threadId": "13967777",
      "post": "Hahaaaa man you're turning into pete with these darkened corners.... I only jjust learnt do it in iPhoto last night haha.....",
      "time": "2009-03-20T02:33:10",
      "id": "7364379"
    },
    {
      "threadId": "13936211",
      "post": "hahaa... the jellyfish is rad.\r\nthats about all...",
      "time": "2009-03-19T05:14:41",
      "id": "7335703"
    },
    {
      "threadId": "13887215",
      "post": "40 steps. I love that song... I lost in my itunes a while ago but i managed to recover it today. yay. Naw hearing about this tour is making me so jealous.... It sounds incredible. I hear Demi Lovato saw you guys a few nights back.... Lol",
      "time": "2009-03-18T02:19:36",
      "id": "7305904"
    },
    {
      "threadId": "13664191",
      "post": "PUT HIM THE BACK OF A SQUAD CAR, RESTRAIN THAT MAN. HE NEEDS HIS HEAD PUT THROUGH A CAT SCAN.....",
      "time": "2009-03-14T10:10:38",
      "id": "7210591"
    },
    {
      "threadId": "13573944",
      "post": "THIS IS FUCKING AWESOME I WANT IT \r\nI feel like Veruca Salt right now.",
      "time": "2009-03-13T10:14:53",
      "id": "7164713"
    },
    {
      "threadId": "13499398",
      "post": "Thanks for this blog by the way William. You don't have to do it but you do and i guess that shows that you genuinely care about the fans... So thank you for every photo and every blog and every twitter update... I love it.  So I just thought i'd say this incase you don't hear it enough.\r\nTHANNNKK YYYYOOOUUUU times 95883749621247 (:",
      "time": "2009-03-12T04:06:28",
      "id": "7125849"
    },
    {
      "threadId": "13069746",
      "post": "Haha aww yeah they're not huge but i know theres like a huge...underground scene of like hardcore decaydancers yknow? Except i've only met them at fob shows and stufffff..\r\nheh i should add you on msn or something? (:",
      "time": "2009-03-11T08:42:42",
      "id": "7095736",
      "parentPost": "Lol i've only seen you and one other NZer on here...! I dont think TAI are that big here...=(\r\nYES THE SHOWERS HAIR ONE! OMG its like perfection. Haha.",
      "parentPostTime": "2009-03-11T06:18:08",
      "parentPostId": "7094411"
    },
    {
      "threadId": "13338253",
      "post": "This is the sweetest photo. I want it on my wall inside a frame made of toothpicks and glitter.",
      "time": "2009-03-10T03:56:18",
      "id": "7052427"
    },
    {
      "threadId": "13278513",
      "post": "Aww where is this from i fucking love it.\r\n",
      "time": "2009-03-09T02:25:13",
      "id": "7003183"
    },
    {
      "threadId": "13244350",
      "post": "I remember the very first SNMC... Jimmy Eat World was it.....?? Maybe. \r\nChoosing three is rather impossible.... i rememeber loving The Roots one though (if there was? i am sure there was..or maybe i dreamt it?....) and Weezer cos that got me back into them after so long.\r\n\r\nMy favourite thing this week has been kind of..sitting around wherever reading Oscar Wilde while listening to Jeff Buckley... gets me in a dream mode.\r\n\r\nP.S you made my week again (:",
      "time": "2009-03-08T07:07:53",
      "id": "6988177"
    },
    {
      "threadId": "12966584",
      "post": "http://gallery.me.com/mikey.mo#100355/DSCN1008&bgcolor=black\r\n\r\nyou probably already have this but whatever (:",
      "time": "2009-03-06T03:26:20",
      "id": "6935503"
    },
    {
      "threadId": "12862777",
      "post": "does anyone know what happned to Bowling For Soup? I used to love them......... haha, sweet song btw. As always. ",
      "time": "2009-03-02T05:08:05",
      "id": "6777106"
    },
    {
      "threadId": "12377774",
      "post": "groove guide (:",
      "time": "2009-03-01T03:00:36",
      "id": "6737509"
    },
    {
      "threadId": "12769784",
      "post": "how you love me now",
      "time": "2009-03-01T00:25:09",
      "id": "6733129"
    },
    {
      "threadId": "12668045",
      "post": "spirit rep. haha",
      "time": "2009-02-27T03:30:36",
      "id": "6677358"
    },
    {
      "threadId": "12529442",
      "post": "I havnt been able to get to a computer in a while, so this is a bit late. But i just wanna say  that i saw you guys on Monday... Somehow managed to stay in the front the whole time and it was my mission to catch your eye the whole night. I've seen you guys once before, but i just wanted to say that this time was surreal in every way and that being that close to you guys, abbsolute heroes who i have worshipped for years and years was the most amazing feeling. You honestly made all my dreams come true and i wanted to thank you for that, even though you may never read this (:",
      "time": "2009-02-26T03:16:50",
      "id": "6630819"
    },
    {
      "threadId": "12518641",
      "post": "Ah. I am waiitng for the day you announce another tour down under.....that includes NZ (:",
      "time": "2009-02-25T07:48:24",
      "id": "6592554"
    },
    {
      "threadId": "11986453",
      "post": "When you're in NZ can you please mention us. Even if you hate it here... thankkkks :)",
      "time": "2009-02-17T05:42:12",
      "id": "6323978"
    },
    {
      "threadId": "11985554",
      "post": "Oh..well as the nz prime minister is a fuckhead, id have to go with George Washington :D\r\nThis would actually be something to see wouldn't it. if only, if only....",
      "time": "2009-02-17T05:34:13",
      "id": "6323872"
    },
    {
      "threadId": "11849369",
      "post": "Ahhhhhhhh only... a week from to day til i see you guys... in NEW ZEEEAAAALLLAAANNNNDD  \r\n:D You have NO idea how long i've been counting down....prepare for mayhem.",
      "time": "2009-02-15T08:02:03",
      "id": "6272059"
    },
    {
      "threadId": "11791331",
      "post": "Haha it was my dad's birthday yesterday, Friday. Which is still your today. Nothing too bad happened luckily, except for burning a whole pot of soup for ten guests.......  Valentines Day on the other hand... arrgghh its so commercial, i hate it. But i love you, as usual. x",
      "time": "2009-02-14T05:54:22",
      "id": "6255437"
    },
    {
      "threadId": "11765806",
      "post": "God, i just read that whole thing almost nodding to myself thinking how dead on that guy has it. \r\n\r\nI think overall, i have a love hate relationship with technology. In some ways its the best thing in the world, it connects people, opens more oppitunities etc etc.. But i think it can completely ruin people as well. People who spend their lives staring at screens, communicating with random people through video games on the other side of the world - thats not living.\r\n It kind of depresses me in a way, how much he world has come to rely on machines to almost live for us. I think if it were up to me, we'd all go back to when all you had to play with was a pile of sticks and stones and you spoke to every person you knew, not through email or text but when you just bump into them whenever. wherever. When no one had a username or password, when there was no delete button and when your friends were actual real life people and didn't need to be in any order whatsoever.\r\n\r\nI don't know if i have taken this to far, or if i am completely off track.... But hey.",
      "time": "2009-02-13T23:32:32",
      "id": "6250391"
    },
    {
      "threadId": "11445394",
      "post": "HAPPY BRITHDAY! To  Sarah Palin, Kelly Slater, Mike Shinoda, Kelly Rowland, Thomas Edison, Jennifer Aniston, Sheryl Crow, Taylor Lautner but most of all WILLIAM BECCCCKKKEEETTT. Haha i actually dont care about any of the others, but whatever, hope you're having a good time and all that jazz. You're my favourite 24 year old.",
      "time": "2009-02-12T02:44:16",
      "id": "6197624"
    },
    {
      "threadId": "11388718",
      "post": "Late night P.S - I know its likely nobody will read this, but i do just want to say that my heart goes out to every single Australian.... Its all i have been watching to/hearing about for the past few days and i can't even believe it. I live at the bottom of New Zealand and yesterday the sky honestly was the weirdest colour it has ever been, apparently due to the smoke drifting over... Aaand i dunno, i just find it all unbeleivably horrific + insane as does everybody else i guess. William you should mention this disssassterrrr. It'd mean something coming from you. x",
      "time": "2009-02-09T08:45:54",
      "id": "6109259"
    },
    {
      "threadId": "11262203",
      "post": "hahaha Disashi looks, happy..?\r\nMore!\r\n( ;",
      "time": "2009-02-07T01:34:37",
      "id": "6059453"
    },
    {
      "threadId": "11216467",
      "post": "Plant palm trees on Lake Michigan before it gets cold.\n\nThis is a pretty cool in the moment photo, i feel like i'm there, cheering with a banner.\nMore!",
      "time": "2009-02-06T01:18:15",
      "id": "5880561"
    },
    {
      "threadId": "11204514",
      "post": "Hahahahaaa wow... you have not changed a whole lot lol or maybe you have. More!",
      "time": "2009-02-06T00:15:24",
      "id": "5879405"
    },
    {
      "threadId": "10919530",
      "post": "Umm i have  always loved Handsome Boy Modelling School.....\n\n:D",
      "time": "2009-02-02T03:58:13",
      "id": "5765693"
    },
    {
      "threadId": "10787707",
      "post": "Hahaaaa. William. Its your birthday soon! I'm getting excited.",
      "time": "2009-01-30T07:12:18",
      "id": "5681899"
    },
    {
      "threadId": "10725442",
      "post": "Pete.... haha not trying to be rude or mean but please don't.  facial hair just reminds me of i dunno.. Hagrid or whatever....",
      "time": "2009-01-29T10:22:39",
      "id": "5645865"
    },
    {
      "threadId": "10710417",
      "post": "If that were anyone else solving that, i would not have sat through it ahhaha ... but , high five!",
      "time": "2009-01-29T09:56:50",
      "id": "5645701"
    },
    {
      "threadId": "10719088",
      "post": "Just the u.s tour?\r\n\r\nHaaa you should play spot the diehards... Could take a while though... or maybe you should just somehow find the kids who are genuine and have been there from the beginning. I know thast easier said than done though....\r\n(:",
      "time": "2009-01-29T07:59:40",
      "id": "5644778"
    },
    {
      "threadId": "10698612",
      "post": "Ahhh damnnn Butchers so talented. Its insane.\r\nI forgot to say, but last night, Fast Times At Ridgemont High was on t.v here haha i couldnt stop thinking of you guys the whole time. So so 80's.....",
      "time": "2009-01-29T06:32:57",
      "id": "5643413"
    },
    {
      "threadId": "10598234",
      "post": "I've already spent all my money on flights and tickets to the fob show ahhahahahaa... but no doubt i'll get something sometime when i can afford it...",
      "time": "2009-01-27T11:16:56",
      "id": "5572938"
    },
    {
      "threadId": "10598337",
      "post": "Ahhh. Its writing like this that makes me so admirable yet jealous of your mind. What i would give to spend just one  day inside it.",
      "time": "2009-01-27T10:32:27",
      "id": "5572675"
    },
    {
      "threadId": "10592901",
      "post": "Aaaaahh now we're talking.\r\n\r\ni wanna see where this rubiks cube is at William....",
      "time": "2009-01-27T06:07:41",
      "id": "5570197"
    },
    {
      "threadId": "10545379",
      "post": "I buy cd's. I hate downloading...even if its from iTunes. Its not the same as having the actual thing in your hands. You should see my fob collection. Doubles of most, triples of some.... \r\nI have one thing to ask though... even though you probably have no say in signings whatsoever, in feb when you come to NZ...if you do another signing, can you please do it the day of or before the show cos our flights always the day after and we miss it.... :( But whatever, i guess i'm just sounding like one of those annoying freaks now who writes like we're old friends who go way back. Haha but yeah i can't wait to see you guys.... feb 23... i'll be the ock at the front of the front in the oldest fob shirt dying with a smile.\r\n\r\nbadadadabbbaaadada",
      "time": "2009-01-27T02:25:44",
      "id": "5566478"
    },
    {
      "threadId": "10543696",
      "post": "Daaaamn i've been looking foward to rainy day kids from the day you mentioned it. You know if you leave a book of yours lying around....it'll eventually just end up on ebay or whatever. but it's  a pretty cool idea i have to say.",
      "time": "2009-01-27T02:14:05",
      "id": "5566299"
    },
    {
      "threadId": "10488127",
      "post": "These things are dangerous.\r\nI swear they can ruin your life......",
      "time": "2009-01-25T07:52:48",
      "id": "5528459"
    },
    {
      "threadId": "10399362",
      "post": "You look like Johnny Depp... kinda. Minus like 20 years or whatever. haha.",
      "time": "2009-01-23T08:36:27",
      "id": "5490732"
    },
    {
      "threadId": "10270582",
      "post": "Holy moly what a day!\r\nI woke up at 4 30am to watch it on t.v over here.... and i know he's America's President but he honestly feels like king of the world now. I think its by far the coolest thing i have ever seen. To be there would have been that much more incredible....\r\n\r\nWere you in Washington William?",
      "time": "2009-01-21T06:42:07",
      "id": "5417276"
    },
    {
      "threadId": "10254282",
      "post": "This is the best blog i have ever read Pete. I think. \r\nhaha because of time difference and all, i woke up at 5am to watch all this history making on t.v......it wasn't the same by any stretch of the imaginiation, but it was still...fucking incredible. Anyway, i'm so jealous of you right now. Like if i saw you i'd probably kidnap you. or just your outfit, i dunno. \r\nx\r\nP.S after Obama's speech, i watched the live in pheonix dvd, just to make the day that much better...cause im sure the presidents inauguration and a fob show pretty much go hand in hand anyway.....haha",
      "time": "2009-01-20T23:06:18",
      "id": "5408495"
    },
    {
      "threadId": "10222841",
      "post": "Where has fobrock gone............................. :(",
      "time": "2009-01-20T10:12:57",
      "id": "5388077"
    },
    {
      "threadId": "10099657",
      "post": "Okay i just saw your interview and forgive you for the facial hair. You came across very wise and intelligent, like you are...",
      "time": "2009-01-18T12:08:36",
      "id": "5259531"
    },
    {
      "threadId": "10101499",
      "post": "You alwasy say these songs are diamonds in the rough... haha.\r\n\r\nUm this isn't about a song, but it is music related. I'm not sure if you've heard of Camp A Low Hum or not. But its this in New Zealand..and its basically a whole lot of bands playing non stop for 3 or 4 days... Theres a few big bands and then they invite a whole lot of smaller, often high school bands to come and play too. The people running it also pay for most all it including most of the bands tickets so its a very small prophet thing but i think thats so cool because its simply just about the music. I dunno if this sounds at all interesting to you but i love the idea. You should have a look anyway....\r\n\r\nhttp://www.myspace.com/campalowhum\r\n\r\nP.S Yoder?? \r\n\r\n\r\n",
      "time": "2009-01-18T08:41:48",
      "id": "5257415"
    },
    {
      "threadId": "10053449",
      "post": "Yeeah well we all have different opinions okay....that was mine...this is yours...who cares. Its all fucked up anyway.",
      "time": "2009-01-18T04:43:31",
      "id": "5255214",
      "parentPost": "I think its great. Because realy outside of school who really asks for our oppinions on things like this. And evidently we all have them, and kudo's to pete for asking us for them.\r\nAlso, he may have just inspired someone to find out a little more, become a little less ignorant. I dont think anyone, apart from the people involved or who have been involved in similar things can comprehend, but people are going to have oppinions on it. \r\nI think its great that he's produced a place where we can give our oppinions on this. ",
      "parentPostTime": "2009-01-17T14:11:06",
      "parentPostId": "5237421"
    },
    {
      "threadId": "10073286",
      "post": "HAHAHAHAHAHAHAHAHHAHAHAH. Thats like a shitty tattoo to get in the first place....the spelling just makes it even tackier... hahahaha",
      "time": "2009-01-18T04:36:26",
      "id": "5255127"
    },
    {
      "threadId": "10027751",
      "post": "Gandolf would kick Dumblebore's ass. Can't you just see it?",
      "time": "2009-01-17T02:25:13",
      "id": "5229221"
    },
    {
      "threadId": "9958239",
      "post": "Oh, P.S I just read in AP, band that should break up ammediately: Fall out Boy.\nThats really fucked up! Got me all wound up.",
      "time": "2009-01-16T02:51:10",
      "id": "5157635"
    },
    {
      "threadId": "9497992",
      "post": "One day we'll get nostalgic for disaster...\r\n\r\nhttp://www.youtube.com/watch?v=nKGji6yfYII\r\n\r\n\r\n(:",
      "time": "2009-01-14T22:51:48",
      "id": "5121748"
    },
    {
      "threadId": "9867312",
      "post": "Hahaa wow... you're starting to look more and more like the lead role in a Tim Burton film, William.  ",
      "time": "2009-01-14T05:07:40",
      "id": "5106875"
    },
    {
      "threadId": "9821921",
      "post": "'...Imma take four and finish this fourty cos lifes boring'\r\n\r\nAAAHHH\r\nWish i was there. I'd be up the front, polishing your shoes and painting your toenails.",
      "time": "2009-01-13T09:14:23",
      "id": "5089359"
    },
    {
      "threadId": "9760089",
      "post": "Ahhh, i love the airport photos.",
      "time": "2009-01-12T03:05:49",
      "id": "5065068"
    },
    {
      "threadId": "9726969",
      "post": "AHHH...\r\n. I have a nice story for you William.\r\ni was in this surf shop today aaaand as soon as we walked in, Coppertone started playing! So i was like, wow. Then i over heard this american guy working there talking to this girl, and hes like \"Have you heard this song?\" and shes like \"No...\" and hes like \"Oh, yeah, its by a band.. Academy..something. They're actually really good\" haha so i just stood behind them smiling, trying to stop myself from taking over their conversation. \r\nAnyway, you sound very relaxed, like your feet are permenantly up.\r\nSo have a good..day//night/afternoon/evening/yeah/i'll/finish/here.",
      "time": "2009-01-11T10:50:02",
      "id": "5055105"
    },
    {
      "threadId": "9486321",
      "post": "........Downtown - Petula Clark\r\n\r\nyeah, ill stop now. Hopefully i got the message across. Cos that song would soundsweet coming from your lungs.",
      "time": "2009-01-08T07:13:22",
      "id": "4983669"
    },
    {
      "threadId": "9247555",
      "post": "I like it...\r\nI also like the America's Suitehearts video.\r\nJust wasn't too sure if i was watching Panic At The Disco or you guys =S but its still a great video.\r\nHappydayx",
      "time": "2009-01-02T08:21:10",
      "id": "4827753"
    },
    {
      "threadId": "9205039",
      "post": "I used to think stuttering was cool so i'd pretend i had one haha.",
      "time": "2009-01-01T08:08:30",
      "id": "4812147"
    },
    {
      "threadId": "9203954",
      "post": "You are so talll William.....    oh wait, are you wearing high heels....again? You've gotta stop that ae.",
      "time": "2009-01-01T08:03:16",
      "id": "4812121"
    },
    {
      "threadId": "8990041",
      "post": "Oops i took them off my list cos i realised i had gone over 5 haha but thats so cool that you like them too. They're amazing..except its weird cos they're only getting big now when they've been around for quite a few years now but i guess that happens with everyone.\r\nAnd i will have a listen to the stills :) thanks",
      "time": "2008-12-29T06:20:44",
      "id": "4705954",
      "parentPost": "oh my goodness i love kings of leon!\r\nthey are amazing,\r\ni didnt think i would ever meet another fan!\r\nsex on fire is my favorite song.\r\nif you like them you should also check out the stills.",
      "parentPostTime": "2008-12-29T04:11:01",
      "parentPostId": "4704921"
    },
    {
      "threadId": "8978508",
      "post": "When Perez says Ladyhawke is he meaning the one from NZ...cos thats so cool if he is.\r\nPete i just went to The Curious Case Of Benjiman Button with my family...it was great, didn't know it was that long though haha.\r\n\r\nOkay i love lists.\r\n2008 -s\r\n1. Lady Gaga >< She drives me insane.  i can't tell if she's even human under all that hair and those shades that are stuck to her head.\r\n2.  Chris dying in the second series of Skins.\r\n3. Missing TAI... Cobra Starship & Panic in August, damn i never got over that.\r\n4. Miley Cyrus. Need i say more....... (no offence Pete. I know you guys are tight.... haha)\r\n5. The t shirts with big writing on them. You know the ones... They were cool, then the all the skanks kinda killed them.\r\n\r\n2008 +s\r\n1. Barack Obama. I don't even lve in America but it felt like he became King of the world on Nov 4.\r\n2.Summer Heights High- the funniest thing i have ever seen.\r\n3. William Beckett's blog. (and the fact that he reads the comments and replies to some makes me smile.)\r\n4. FOB announcing show in feb. (see you there sunnnnssshine)\r\n5. Folie a Deux being possibly the best album to date.\r\n\r\n\r\nP.S Hey. ",
      "time": "2008-12-28T12:00:17",
      "id": "4675456"
    },
    {
      "threadId": "8912053",
      "post": "anyday",
      "time": "2008-12-27T03:48:15",
      "id": "4661024"
    },
    {
      "threadId": "8867142",
      "post": "Hahaaa thankYOU William. In all honesty, you and your band helped me get through a lot of this year and i can't thankyou enough for that. I had the sweetest smallest christmas ever...i really hope you had/are having a wonderful time.\r\n\r\nP.S i had a moment. It was last night, which was xmas here and i had just checked your blog, then i went into the lounge to sketch with my new pens and all, and my Mum was just flicking around the channels looking for something to watch. Then a few minutes later i happened to look up at the t.v and what was on? Love Actually. What scene? It was the exact part you had just posted as one of your favourite love confession parts of a film. So I sat there smiling to myself...",
      "time": "2008-12-26T01:38:49",
      "id": "4630357"
    },
    {
      "threadId": "8861044",
      "post": "best way to do it pete thankyou.. you havnt changed and its great.\r\nMerry Christmas to all of you ..x",
      "time": "2008-12-26T00:31:57",
      "id": "4629865"
    },
    {
      "threadId": "8768154",
      "post": "yeah holy shit..... seperated at birth anyone...\r\nMye eyes hurt. Its christmas eve here. Home Alone's gonna be one soon. I love that movie. Anyway, just wanna letchaaaa know that i think Folie a Deux could give FUCT a run for its money.... Its THAT good. I am honestly addicted. But please don't release 20 dollar nose bleed, cos thats my favourite and i hate when bands release your favourite songs yknow? Its like, daaaamn that was mine.. but yeah okay whatever you probably havnt read this but if you have, thanks, and have the best christmas.... x",
      "time": "2008-12-24T04:56:18",
      "id": "4602440"
    },
    {
      "threadId": "8686001",
      "post": "calm down...",
      "time": "2008-12-21T11:55:23",
      "id": "4554543"
    },
    {
      "threadId": "8637354",
      "post": "No no i completely understand what you're saying. I think we forget to think about ourselves in that manner a lot of the time when we see others doing what seems so incredible and wonderful compared to what we may be doing or whatever... If that makes any sense whatsoever.",
      "time": "2008-12-21T11:45:21",
      "id": "4554509",
      "parentPost": "I see the support here, for all the similar comments, but I just wanted to ask, why do we pay homage to all of our heroes and never to ourselves? I don't know,  mean no offense in any manner I hope, but the it seems that the fact is, we're degrading oursleves by holding someone else up to that level of worship, does it not? Sorry, I don't mean to be snobbish. I was just trying to make a point to respect ourselves and our accomplishments too while enjoying the work of others.",
      "parentPostTime": "2008-12-21T04:26:17",
      "parentPostId": "4551773"
    },
    {
      "threadId": "8597366",
      "post": "My brother uses this paint and he said it smells so bad, you cant even sleep if its on your hands.... But great coz you dont sleep at all.",
      "time": "2008-12-19T22:10:37",
      "id": "4530751"
    },
    {
      "threadId": "8597308",
      "post": "wow lucky motherfucker arn't you Pete.....",
      "time": "2008-12-19T10:53:49",
      "id": "4518417"
    },
    {
      "threadId": "8559355",
      "post": "damn i wish i knew who things like  this were about or directed at. I know that doesn't matter and would take away it but you know....",
      "time": "2008-12-19T04:27:36",
      "id": "4515391"
    },
    {
      "threadId": "8426988",
      "post": "AAAAAAAAAAAAAAAAHAHAHAHAHAHAHHAHAHAHAHHAHAHAHAHAHHAHAHAHAHAHHAHAHAHHAHAHAHAAHAHHAHAHAHAHAHAHAA. \r\nGENIUS....",
      "time": "2008-12-16T02:53:02",
      "id": "4422514"
    },
    {
      "threadId": "8384349",
      "post": "Hey  do you know the most frustrating thing ever??\r\nI live in NZ and Folie a Deux came out here on SATURDAY... and i had pre-ordered it. So everyones all \"Omg have you got it Ruby!?!?!?!\" and im just like \"no...... not yet guys\" haha but seriously  Its like putting candy in front of a kid and saying, just wait three more days, then you can have it. Yknow? But i dont really care...\r\nBut all this NY business is making me sooo jealous you have no idea. I'd get there in a fucking flash if i could....so just remember when you're playing, that there are a million die hards humming along at home okay?\r\n\r\nlltcch",
      "time": "2008-12-15T05:34:40",
      "id": "4405489"
    },
    {
      "threadId": "8383482",
      "post": "HAHAHAHAHAHAHAHAHAAAAAAAA!!!!!!!!!!!!!!!!!!!\nTHATS THE FUNNIEST THING EVER HAHAHAHAHAHAHAHAHAAAA.\nShoes...... ",
      "time": "2008-12-15T05:25:35",
      "id": "4405408"
    },
    {
      "threadId": "8357716",
      "post": "Yeah yeah i get what you mean!! It sucks, he needs a shake up.",
      "time": "2008-12-14T08:29:39",
      "id": "4395801",
      "parentPost": "I agree. Also annoyed at the fact that he has somehow forgotten how to write lyrics the way he used to. I'm all for artists changing and evolving but when they abandon their roots, it all turns to shit.",
      "parentPostTime": "2008-12-14T08:18:16",
      "parentPostId": "4395671"
    },
    {
      "threadId": "8324572",
      "post": "God you must be fascinating to have a conversation with. Face to face.\r\nI actually found these really old KERRANG! magazines today..from 2006 and on the cver is one of Brendon, Pete and You and in another, there was a whole interview with \"21-year old William Beckett, rocks most ambitious young star\" \\and when i re-read the interview it just reminded me how you just always say the right thing, the thing that makes me think amen, and want to sollute you and your thoughts on the world. This bit inparticular...\r\n\r\n'I think about my world as a dark room. There's a candle in front of me which cats about 3 or 4 feet of light. That light is all i'm aware of, and it's a metaphor for how much of the world i can understand. but i know there's so much more outside it. That circle of light is all that a lot of people want to know, they're happy to be ignorant of everything beyond their own lives. people get so damned wrapped up in themselves that it leads to a lot of isolation, they won't take a moment to reach out into the darkness and feel around. Maybe they'll find a light switch if they root around for long enough'\r\n\r\nThat's word for word. Maaaaan you make me feel so good. You have no idea...\r\nHope life's good for you at the moment, William.",
      "time": "2008-12-13T09:02:50",
      "id": "4385044"
    },
    {
      "threadId": "8266545",
      "post": "PEEETTTEE.\r\nI've just come back from camp :) So im catching up on everything from the past weeek... \r\nSucks about the album leaking...? Thats shit. But just so you know, i only buy actual CDs and i will forever so you know, you guys are SAAFFFFEE. Can't wait for it to come in the mail ;)\r\nx",
      "time": "2008-12-12T08:34:37",
      "id": "4363363"
    },
    {
      "threadId": "8239964",
      "post": "IM HOME...................................\r\n:D (from camp)\r\nSoooo good to check up here, its like homebase.\r\nThats so awesome about Fast Times.... aswell. it saved me on camp actually. As i struggled up mountains bridges and waterfalls etc. It was lovely though. Not that you care about my camp haha but honestly, so good to be back.\r\nAnd hello to every australian (: we met the loveliest bunch of Brisbaners ever....",
      "time": "2008-12-12T06:26:56",
      "id": "4360676"
    },
    {
      "threadId": "8038756",
      "post": "Dammit i knew this would happen.\r\nhope you read your last blog commmeeennts....\r\n>< ciao",
      "time": "2008-12-07T08:37:20",
      "id": "4233531"
    },
    {
      "threadId": "8025116",
      "post": "FUUUUUUUUUUUUUUUUUUUUCCCCKKKKK\r\n(hopefully got your attention........)\r\nI know what's gonna happen, i'll post a super long comment then you'll post something new about 10 minutes later, but hey...\r\nJust thought i'd let you know that i am going on CAMP tomorrow :( So this could well be my last comment ever, if i don't make it out alive. Which is very likely seeing as i'm tramping for five days with a bunch of fuckheads and my midget british science teacher... Sounds sooo appealing i know, but apparently the place we're going to is beautiful AAANND i made a book of all your poetry, lyrics and photos and then some E.E Cummings & J.M Barrie quotes to keep me sane.\r\nSo you know, don't post too much while i'm gone.\r\nNerr, see you on Friiiiday....\r\n\r\nx",
      "time": "2008-12-07T06:31:57",
      "id": "4232720"
    },
    {
      "threadId": "8020008",
      "post": "TAHTS FREAKING AWESOME. I am already addicted. Pleeeeaase put this on as a bonus track or atleast on itunes.....",
      "time": "2008-12-07T01:29:30",
      "id": "4229780"
    },
    {
      "threadId": "8006584",
      "post": "You freak me out in the best way possible William.",
      "time": "2008-12-06T08:59:55",
      "id": "4220875"
    },
    {
      "threadId": "7974083",
      "post": "HAHAHAHAHAHAHAAAA\r\nShe won't stop texting me either. Its just like, LiV3 y0 LyF GuuRL....",
      "time": "2008-12-06T07:25:32",
      "id": "4220250"
    },
    {
      "threadId": "7964307",
      "post": "thast awesome, i love the photo...",
      "time": "2008-12-05T09:01:27",
      "id": "4201468"
    },
    {
      "threadId": "7954028",
      "post": "Haha.\r\nI need to write down every film you've ever reccomended and go get them all out over summer. My summer.\r\nMy Grandma is here, she's so deaf it's just getting ridiculous  haha.\r\n\r\nhey.",
      "time": "2008-12-05T06:54:23",
      "id": "4199668"
    },
    {
      "threadId": "7893435",
      "post": "Yaaay. Happy Birthday Mike! whos name i love saying fast because it sounds like My Garden...",
      "time": "2008-12-04T03:20:45",
      "id": "4160263"
    },
    {
      "threadId": "7884009",
      "post": "Can i please come and have christmas with you in Chicago?\r\nI'm clean, tidy and watch cartoons at 3am.",
      "time": "2008-12-03T23:37:00",
      "id": "4156086"
    },
    {
      "threadId": "7816205",
      "post": "I'm at school.... Crazy rebel aren't i... Haha but i LOVE this song i think its wonderful. Just like every single other one of yours....\r\n\r\n\r\nOkay i better go, don't wanna get a whipping......",
      "time": "2008-12-03T00:38:07",
      "id": "4137497"
    },
    {
      "threadId": "7768004",
      "post": "I always end up sounding really dumb on here because... i get excited and type super fast you know? So from now on im just gonna, take my time, think hard etc.\r\n\r\n\r\n(hahahahhahhaaaaaa)\r\n\r\n\r\nOh yeah and its funny you said its snowing in Chicago because guess what? \r\nIt's meant to be summer where i am right? and so right now theres this massive lightening thunderstorm shit going on.... \r\nSo you know, looks like its gonna be a hot one...\r\n\r\n\r\n",
      "time": "2008-12-02T05:13:22",
      "id": "4122016"
    },
    {
      "threadId": "7719752",
      "post": "hahahahahaaaaaa.\r\nI get it now nobody.",
      "time": "2008-12-01T03:02:34",
      "id": "4078511"
    },
    {
      "threadId": "7701448",
      "post": "damn you should have....",
      "time": "2008-11-30T04:27:20",
      "id": "4066745"
    },
    {
      "threadId": "7681213",
      "post": "So, you do pretty much come from the most talented family ever yeah?\r\n\r\nI hope you are having/had a really good day.",
      "time": "2008-11-29T03:11:01",
      "id": "4057138"
    },
    {
      "threadId": "7640260",
      "post": "I am thankful for paint, medication and sarcasm.\n\nOh, and this William Beckett fellow.",
      "time": "2008-11-28T04:23:09",
      "id": "4046428"
    },
    {
      "threadId": "7545944",
      "post": "...new post new post....\r\nc'moooowwwwn.\r\nIm glad you like lord of the rings better, its all our country is famous for.... haha shame.",
      "time": "2008-11-27T08:23:01",
      "id": "4036346"
    },
    {
      "threadId": "7479335",
      "post": "Yay, okay i've been planning how to say this fo 7 hours. Freak, i know.\r\nWilliam... I just want to say thanks for replying to my comment...and even better - proving me wrong haha. You have no idea how much it meant to me, i was the most excited i have been in a very very long time. And i know other people on here may not find it a big deal, but it meant more to me than anything that you took the time to reply to ME, a young messed up kid from the bottom of the world. Thankyou thankyou thankyou times infinity.\r\n\r\nx",
      "time": "2008-11-24T08:21:18",
      "id": "3980579"
    },
    {
      "threadId": "7427649",
      "post": "I know this was probably old but you said this in an interview a while ago about your blog...\r\n\r\n' I don’t read after the first few comments and I’ll skim through sometimes if there is anything interesting or challenging. '\r\n\r\nHmm..... great , good to know you've possibly never even read half of these comments then. Which kind of sucks because you are a huge\r\n\r\nhero of mine.\r\nGoodnight",
      "time": "2008-11-23T07:49:01",
      "id": "3965789"
    },
    {
      "threadId": "7322510",
      "post": "thi is very sweet....have you had a few chops off the locks Billiam?",
      "time": "2008-11-21T02:51:54",
      "id": "3926774"
    },
    {
      "threadId": "7250861",
      "post": "HEEEYYY PEEETER.\r\ni just checked up on the golden ticket shi. I can't belive it. How can there only be 5?!?!?! I NEED ONE... not that i will get one as i live in NZ but i'm just freaking out that some \"new-zomg-petes-sow-hottt-fan\" will win one.\r\n\r\nps william is my homeboy",
      "time": "2008-11-20T03:53:51",
      "id": "3907382"
    },
    {
      "threadId": "7248051",
      "post": "Aw. Neat shit. I have a pineapple hat i'd love to give you. If i ever meet you. Like i've worn it, but it'd suit you more. My Aunty is insane. Also, i just had the same thing you had... i lost my itunes. I started freaking out. Its okay now. TAI IS SAFE(: Aaaand im annoyed you got a new laptop, my claim to fame was that i had the same one as you. Its how i made friends man.... what the fuck am i gonna do now!?\r\nheh, safe  dreams.",
      "time": "2008-11-19T07:44:18",
      "id": "3891550"
    },
    {
      "threadId": "7149731",
      "post": "Owwww you guys  are gonna be the coolest uncles to that lil' Pete Junior...",
      "time": "2008-11-17T07:38:31",
      "id": "3854396"
    },
    {
      "threadId": "7107097",
      "post": "i know you, and everyones probably knows but the MGMT album Ocacular Spectacular is wonderful. And i love the Modly Peaches.",
      "time": "2008-11-17T02:23:10",
      "id": "3851267"
    },
    {
      "threadId": "7098239",
      "post": "Heeeey.\r\nJust thought i'd inform you and your homies that 'About A  Girl' is taking over every music channel in New Zealand at the moment. I'm super happy for you guys, just please don't ever get too huge okay? \r\nPeas",
      "time": "2008-11-16T01:49:47",
      "id": "3795694"
    },
    {
      "threadId": "7018729",
      "post": "I was the light from the candle in your hand..only as bright as you wanted me to be...dadadaaaa... Hey William Bill Billiam Will Bizzle Willy Wonka Wambashkjashjdtie. I love this photo. \r\nI hate time difference.",
      "time": "2008-11-14T04:29:23",
      "id": "3766320"
    },
    {
      "threadId": "6970987",
      "post": "Oh wow.\r\nYou amaze me everytime. Its like God overdosed you with all this talent (in a good way.)\r\nBut i love the way you can completely set a scene in my head, like as i read this i was seeing it all happen...kindof felt almost intruding if that makes sense. But its beautiful.\r\n\r\n",
      "time": "2008-11-13T02:57:09",
      "id": "3726725"
    },
    {
      "threadId": "6887717",
      "post": "You're my favourite song of all time.\r\nHmm, possibly the first comment ever that doesnt say OMG 1ST COMMENT...but there i go, ruined it dammit.",
      "time": "2008-11-11T06:00:37",
      "id": "3675177"
    },
    {
      "threadId": "6880829",
      "post": "Thankyou:\r\n'ahoylost1' and  'Jaimez'.\r\nThe sweetest!\r\nIt makes me smile when people i don't even know or who don't know me are so lovely so thaaankyou :) Everyone on here is awesome, i love it!",
      "time": "2008-11-11T05:56:09",
      "id": "3675137"
    },
    {
      "threadId": "6759375",
      "post": "Ah.... Man, you're too lovely. Why can't you be my brother.... \r\nCome and board at my house next year when my real brother moves out okay?\r\nCool.",
      "time": "2008-11-08T06:42:11",
      "id": "3618942"
    },
    {
      "threadId": "6679856",
      "post": "Lol.  I like this photo.\r\n\r\nWilliam, my dear  friend. can you please pass on the message to Pete, .that they need to lower their VIP package for the NZ show, because i dont really have $270 lying around...\r\nThanks ;)",
      "time": "2008-11-06T03:01:04",
      "id": "3563570"
    },
    {
      "threadId": "6651189",
      "post": "(I know its been a historic 24 hours but....) PETE. I dont know where to write this because i need you to see it. I am sooo fucked off at fob right now. Im not ever annoyed with you guys. But wow. So according to OCK i have to pay almost $300 to meet you guys at the NZ show. HOW FUCKED IS THAT?!?!?!?!?!?!?!?!?!?! I thought you guys had meet and greets for every ock. Guess i was wrong? Do you just expect everyone over here to be completely loaded?? Because i certainly am not. Im not sure if you realise how much i would mean to me, if i met you guys. You're my absolute heroes, but putting a price like that on it is criminal. Seriously what THE HELL ?\r\n\r\nps- ill try and post this everywhere so you see it.\r\n Thanks!!!!!!",
      "time": "2008-11-06T02:52:36",
      "id": "3563454"
    },
    {
      "threadId": "6644949",
      "post": "Im late to coimment, simply because i havnt had a chance to get on here in the last 24 hours. probably one of the most historic nights so far in these little fiteen years i have been around... It was so incredible, he's pretty much president of the world i think. Oh wow i cant even express how genius he is. Anyway, congratulations, everyone.... :)",
      "time": "2008-11-06T02:19:22",
      "id": "3563086"
    },
    {
      "threadId": "6635277",
      "post": "Pete, this is wonderful and i admire you so much. Clearly, you're parents are very caring and intelligent people and you're lucky. But i think they're almost luckier having a son like you. ;)",
      "time": "2008-11-05T02:52:03",
      "id": "3538503"
    },
    {
      "threadId": "6564420",
      "post": "Oh wow. i feel the same way....actually i havn't had the privilage of meeting you YET William. Maybe coz you've only come here once. But in a few years me and Amelia and Tessa are coming to America. I said for the warped tour and to stalk you guys, Amelia said for Halloween and Tessa...well, i'm not sure if she's aware of our plans yet. But she will be in time. So i have warned you....:D Na but like reading everything you write, just makes me happy and at peace. Even when its the worst of the worst days, you're so lovely and creative...talented and everything in between. And i know it doesnt matter, but im always so pissed off when i finally get on here and i'm about comment number 302 or whatever lol cause i know theres no way you'd read through ALL of them.... Is there?!\r\nAnyway, have a great day.x\r\n",
      "time": "2008-11-04T03:08:10",
      "id": "3466820"
    },
    {
      "threadId": "6529996",
      "post": "This song is cool William... im reelyfeelin' it. hahaaaa..... Um music reccomendations..... The new Kings Of Leon album is really good. I guess everyone knows that. And the Miley Cyrus one- is not. \r\nAlso i hate daylight savings so much, i wish i lived in Queensland ? i think thats where they dont have it... Smart state that one.",
      "time": "2008-11-03T02:58:54",
      "id": "3449990"
    },
    {
      "threadId": "6496862",
      "post": "Thats insane. Yes he definitly does. I'll make him a lipstick chain made of broken bottles and diamonds.",
      "time": "2008-11-01T08:01:03",
      "id": "3429148"
    },
    {
      "threadId": "6482965",
      "post": "OH MY GOD PLEASE DON'T READ IT.\r\nhonestly, all i've been hearing from my friends for the last month is \"OMG TWILIGHT!!! YAY EDWARD CULLEN!\" Its driving me insane. Then i come here, the twilight free zone and i see you're considering it... So please, im begging you my friend do not fall into the trap. Like i dont care if its amazing, just don't go there William. (: Okay thats all.",
      "time": "2008-10-31T23:13:02",
      "id": "3425078"
    },
    {
      "threadId": "6386904",
      "post": "PETE: i know you wont read this, probably...but today was the day that in was annunced of you guys coming back to NZ (: and i just want to say can you PLEEEAAASSSEE bring some awesome support band?? Like last time, jacks mannequin didnt end up coming. I know its all about you guys but having another band like TAI.. or GCH would be insane. Pllleease :)",
      "time": "2008-10-30T03:46:05",
      "id": "3385428"
    },
    {
      "threadId": "6377297",
      "post": "aaaand Whos the best role model ever?\r\nPete fucking Wentz! I love it. \r\nI can't believe you're going to be a dad soon. Your kid and Lil Wayne's can be h0mi3z n sHitt' ",
      "time": "2008-10-29T04:11:38",
      "id": "3357608"
    },
    {
      "threadId": "6364444",
      "post": "Lol i love it. Wern't you meant to be writing that book together........?? Maybe that was the refernce in the title.... badadadaa. I like how You're all like, this. And petes all like ths. Unless he actually used punctuation in some bits..... Hmm...now i'm thinking.\r\n.",
      "time": "2008-10-29T03:59:01",
      "id": "3357491"
    },
    {
      "threadId": "6332533",
      "post": "He supposed to be like \"Why am i in Denver when i could be in New Zealand?!\" and go catch a plane.... Or something along those lines....",
      "time": "2008-10-28T02:57:21",
      "id": "3336285"
    },
    {
      "threadId": "6258098",
      "post": "Okay. NZ bands,\r\n\r\nTrust me on these.\r\n\"Sleeping during the day\" - The Mint Chicks\r\n\"Turn this landscape upside down\" - So So Modern\r\n\"Expectations\" - Cut off your hands\r\n",
      "time": "2008-10-26T03:08:38",
      "id": "3305638"
    },
    {
      "threadId": "6048001",
      "post": "AHH MY GOD WILLIAM! hey. So i just got an email from Bebo, saying my account was in danger of being deleted due to uploading the video \"THE ACADEMY IS... ABOUT A GIRL\" Way to freak me out. Apparently i breached the terms of service and stuff, but it was whoever put it on youtubes fault k? Lol So im just making that clear because right now i feel really bad. But i still love you more than yesterday, sad. i know.\r\nx",
      "time": "2008-10-22T06:00:41",
      "id": "3223081"
    },
    {
      "threadId": "6071710",
      "post": "Wowowowow lucky i subscribe :D ooohh im excited.\r\nWhos you?",
      "time": "2008-10-22T04:14:49",
      "id": "3222339"
    },
    {
      "threadId": "6011436",
      "post": "Wowly shit that looks great! Kinda arty look about it, except in a rather creepy way.... I think my brother would love it.",
      "time": "2008-10-20T04:38:17",
      "id": "3165061"
    },
    {
      "threadId": "5824392",
      "post": "You're too lovely, i think the world needs more of you. \r\nI think i do the same thing when it feels like the worlds too chaotic to handle...like, its so easy to get caught up in everything and start panicing about it all. But i like just getting into a different frame of mind away from all of that...somewhere like neverland, maybe. Or somewhere like... Tai...land (:",
      "time": "2008-10-16T03:23:12",
      "id": "3083366"
    },
    {
      "threadId": "5735816",
      "post": "Oh and everyone and pete, just so you know i'm from new zealand, not all of us are as demanding and pyscho as iambutthurt. :) And most of us can spell correctly too like OMG...",
      "time": "2008-10-14T01:35:24",
      "id": "3032632"
    },
    {
      "threadId": "5669307",
      "post": "ooowah adorbale.\r\nYou make me smile everytime i come here.",
      "time": "2008-10-12T05:19:43",
      "id": "3005566"
    },
    {
      "threadId": "5624990",
      "post": "ohwow this is incredible..... but is it just me or does it makes you feel like you're own writing is shit?",
      "time": "2008-10-11T08:55:51",
      "id": "2996398"
    },
    {
      "threadId": "5524112",
      "post": "Holy shit.... okay its one thing when i love you for your music, but when you do something like this makes me overjoyed. I absolutely adore poetry, and yours inparticular is wonderful. Oooohh wow i am so excited. Thankyou \r\n: )",
      "time": "2008-10-08T22:10:12",
      "id": "2947723"
    },
    {
      "threadId": "5398706",
      "post": "Aww.... dont get hurt or anything k coz that'd kinda suck and all.",
      "time": "2008-10-06T01:14:52",
      "id": "2885270"
    },
    {
      "threadId": "5191703",
      "post": "IM IN !!\nI never understood bill. Like...maybe the person who decided it would be short for William had a weird lisp or accent or something and they actually said Will, except everyone thought they said Bill and so it stuck. Its not as though its Billiam hhaha that would be weird. I probably wouldn't comment on this if your name was Billiam.\n\nNooo..actually i would.\nc0z y3w mAa id0L n ShiiT'\n\nhahaaa .Have a good day : )",
      "time": "2008-09-30T19:49:14",
      "id": "2755625"
    },
    {
      "threadId": "5127213",
      "post": "reading that you're smiling made me smile.",
      "time": "2008-09-29T04:00:47",
      "id": "2723131"
    },
    {
      "threadId": "5121812",
      "post": "oH MY GOD your predictions riiiiggghhht!!! At the moment anyway. Pyschic....",
      "time": "2008-09-29T03:23:43",
      "id": "2722597"
    },
    {
      "threadId": "5060546",
      "post": "holy shit this has got to be the most comments ever right.... i think its just what froze my computer (: geez William, definately know how to start something dont you....... Anyway i dont live in America whatever go Obama. :D",
      "time": "2008-09-28T04:24:21",
      "id": "2666938"
    },
    {
      "threadId": "4996102",
      "post": "lol you just got home though    .!?!",
      "time": "2008-09-26T04:36:47",
      "id": "2637010"
    },
    {
      "threadId": "4935622",
      "post": "whos blog is that......",
      "time": "2008-09-24T05:05:54",
      "id": "2556168"
    },
    {
      "threadId": "4913312",
      "post": "yayaaaayayaya you said new zealand again :D:D:D:D",
      "time": "2008-09-24T05:02:45",
      "id": "2556143"
    },
    {
      "threadId": "4777792",
      "post": "save me",
      "time": "2008-09-20T05:41:35",
      "id": "2451299"
    },
    {
      "threadId": "4547687",
      "post": "Ooooohhhh.. cannot wait.",
      "time": "2008-09-15T03:29:20",
      "id": "2355574"
    },
    {
      "threadId": "4430857",
      "post": "Fucking time difference. Im always like, last to get to your posts it sucks. \r\n",
      "time": "2008-09-12T04:54:56",
      "id": "2296925"
    },
    {
      "threadId": "4396952",
      "post": "awww wow it makes my day when you write something like this. Makes me smiiile. And you are oh so super skinny. I love it.",
      "time": "2008-09-11T05:43:53",
      "id": "2278897"
    },
    {
      "threadId": "4373199",
      "post": "why is it petewentz.com ?!\r\n thats not every orginial of you pete.",
      "time": "2008-09-10T08:55:10",
      "id": "2257422"
    },
    {
      "threadId": "4321332",
      "post": "I LOVE that song!!\r\nSmileyhappyhap.",
      "time": "2008-09-09T04:53:19",
      "id": "2242243"
    },
    {
      "threadId": "4333656",
      "post": "Hahaha..\r\nWilliam you should like make a thing where we can ask you questions like pete does. That'd be cool huh ? Yeah You will? K cool (;\r\nAND does anyone know that taitv episode where they respond to that cobra video yknow...? I forgot which one it is and i cant find it D=\r\n\r\n",
      "time": "2008-09-09T03:30:36",
      "id": "2241594"
    },
    {
      "threadId": "4196044",
      "post": "Aw William do you actually read these comments?\r\nIf you do, that makes my heart smile. (;",
      "time": "2008-09-05T23:18:08",
      "id": "2152491"
    },
    {
      "threadId": "4187065",
      "post": "Pete. hey. C'mon bro have faith ;D lol",
      "time": "2008-09-05T07:48:34",
      "id": "2140680"
    },
    {
      "threadId": "4121797",
      "post": "Oh i forgot to say- you have nooo idea how good it feels when you mention somewhere like New Zealand because it kinda feels like people forget about places outside the u.s sometimes yknow? :D",
      "time": "2008-09-04T04:02:06",
      "id": "2099090"
    }
  ],
  "profileInfo": {
    "username": "fancykid101",
    "about": "Ruby blue shoes... Tap twice for the afterlife.\r\n",
    "name": "fancykid101",
    "disable3rdPartyTrackers": false,
    "isPowerContributor": false,
    "isAnonymous": false,
    "rep": 1.228075,
    "profileUrl": "https://disqus.com/by/fancykid101/",
    "url": "http://www.bebo.com/NeonBodyStyle_",
    "reputation": 1.228075,
    "location": "Dunedin- NZ!",
    "isPrivate": false,
    "signedUrl": "http://disq.us/?url=http%3A%2F%2Fwww.bebo.com%2FNeonBodyStyle_&key=4lkRXNZpvUvnuo7uLsXESQ",
    "isPrimary": true,
    "joinedAt": "2008-09-04T03:48:58",
    "id": "94798",
    "avatar": {
      "small": {
        "permalink": "https://disqus.com/api/users/avatars/fancykid101.jpg",
        "cache": "//a.disquscdn.com/uploads/users/9/4798/avatar32.jpg?1281549414"
      },
      "isCustom": true,
      "permalink": "https://disqus.com/api/users/avatars/fancykid101.jpg",
      "cache": "//a.disquscdn.com/uploads/users/9/4798/avatar92.jpg?1281549414",
      "large": {
        "permalink": "https://disqus.com/api/users/avatars/fancykid101.jpg",
        "cache": "//a.disquscdn.com/uploads/users/9/4798/avatar92.jpg?1281549414"
      }
    }
  }
}