{
  "comments": [
    {
      "threadId": "235713341",
      "post": "OH MY GOODNESS? Is this from a grocery?! Or Goldilocks or Red Ribbon?! I need to get me a box!!!",
      "time": "2011-02-21T08:12:23",
      "id": "153299480"
    },
    {
      "threadId": "135998957",
      "post": "My friends and I are playing a Victorian Steampunk sort of campaign. We call ourselves the Scotland Graveyard. I play a gentleman/mechanic sort of character. The victorian era equivalent of Tony Stark. I don't know how else to describe him! haha!\n\nI have always wanted to LARP! But I felt that my knee condition would put me in a serious disadvantage. I can't do combat at all! *woe* I take it out on drawing our characters and campaign materials instead.\n\nThank you so much for your kind words :) It's truly amazing that you're taking a completely different culture from your own as a study. You live a fascinating life.",
      "time": "2010-09-07T17:41:39",
      "id": "75763624",
      "parentPost": "Spontaneous life is the best, especially for artists, isn' it? :)\nAlso, uh, what race / class do you play in D&D? I've finally found a group of friends to play with. I'm also involved in a live action roleplay (LARP) project, I think you'd love it. Well, definitely you should try it ;)\n\nReasons? Oh my... From what I've seen, it seems that your imagination is really incredible. Also, I don't remember if I ever been drawn by anyone. After kindergarten that is ;) Portraits as done by you depict more of a \"feel\" of a person. And I bet I could watch it for hours. The fusion of styles you use is amazing.\n\nWhen it comes to animals... my friends call me 'Tigeress'. I used to write stories about a green tiger in a fantasy land my friends and I made up. Recently I got obsessed with owls. I'm also fascinated by the colours of nebulas and sky at night. I believe I am a shooting star - only meeting people, shining with stolen light to brighten up and energize others' lives. I'm loud and happy most of the time (but I do have my quiet days) and I like wild strawberries, Art Noveau, traditional Japanese paintings and green colour.\nI'm 22. I study Japanese. I'm from Poland.\n\n-- Aleksandra (strawberryspam.tumblr.com)",
      "parentPostTime": "2010-09-01T18:21:43",
      "parentPostId": "73973953"
    },
    {
      "threadId": "80837700",
      "post": "This is such a big honor and surprise! I truly do love your work and I truly flipped out the day that you followed my tumblr. So for this reblog and such kind words.. I really don't know what to say. Thank you. Thank you so much!",
      "time": "2010-03-31T04:10:54",
      "id": "42397760"
    },
    {
      "threadId": "70156958",
      "post": "thank you so much Jin ♥ I am so happy you like it. ",
      "time": "2010-02-27T04:14:55",
      "id": "37156337",
      "parentPost": "Captivating and dreamy in its simplicity. This is one of my favorite pieces by you. <3",
      "parentPostTime": "2010-02-27T02:47:48",
      "parentPostId": "37128092"
    },
    {
      "threadId": "66426858",
      "post": "the colors are stunning on this! and I absolutely adore the color bleeds ♥",
      "time": "2010-02-13T06:44:32",
      "id": "34086334"
    },
    {
      "threadId": "51710586",
      "post": "YEHEEEEY~ Can we comment more than once? haha! Yehey for Santa Dan~ Hope to wiiiin <333",
      "time": "2009-12-14T12:32:39",
      "id": "25703534"
    },
    {
      "threadId": "38751342",
      "post": "dude! You're totally not back yet! Where are you? :c ",
      "time": "2009-11-28T17:48:42",
      "id": "24239220",
      "parentPost": "I really enjoy this one. \nHi I'm back on Tumblr lol and this time I promise to put stuff up",
      "parentPostTime": "2009-10-29T06:33:05",
      "parentPostId": "21244924"
    },
    {
      "threadId": "48306023",
      "post": "Yehey Ate Abi! (she was the one who took this, yes?) AND HE TRULY DOES! His photos during the Creative Process Talk were so SPOT ON! Magel Jean. hahaha!",
      "time": "2009-11-27T16:41:01",
      "id": "24185213",
      "parentPost": "Beautiful moment. I'm glad it was well captured.\nHahahah, Miguel really could pass for James Jean's younger brother or something.",
      "parentPostTime": "2009-11-27T15:28:19",
      "parentPostId": "24181856"
    },
    {
      "threadId": "42878390",
      "post": "Sabog ang kamay and inaccurate from ref. I'm happy about the torso and foreshortening though pero sobrang nihihiya ako sa hands. and dapat may feet pa diyan somewhere but I chickened out :(\n\nNeeds more practice.",
      "time": "2009-11-01T17:01:23",
      "id": "21536010",
      "parentPost": "Ang galing kaya nito!!",
      "parentPostTime": "2009-11-01T09:16:33",
      "parentPostId": "21501667"
    },
    {
      "threadId": "37685405",
      "post": "Epic rage is epic. It's what I do. It wasn't even done in a funny context or written like an internet meme. Probably what upped the irritation was the uncalled for caption. I give a shit.\n\nAnd god damn woman (that is the assumption I'm making. I can view your email), a boyfriend? That's your brilliant suggestion/ retort? I am positively shaken and enlightened :|\n\nAnd with that, I hope I made it clear that your cheap brand of wit and condescension is unwanted. Good day. Loiter in some other person's comment box or get a boyfriend.",
      "time": "2009-10-05T19:47:48",
      "id": "18600659",
      "parentPost": "You're hilarious.\n\nLighten up, pull that stick out of your ass. Get a boyfriend, maybe.",
      "parentPostTime": "2009-10-05T18:18:41",
      "parentPostId": "18583095"
    },
    {
      "threadId": "37106679",
      "post": "GAGO KA MARK ANG GALING MO MAGKULAAAAY",
      "time": "2009-10-01T04:58:46",
      "id": "17915921"
    },
    {
      "threadId": "30736997",
      "post": "THANK/LOVE YOU ISA~ ♥ *___*",
      "time": "2009-08-22T15:26:47",
      "id": "15231940",
      "parentPost": "The colours are fantastic!",
      "parentPostTime": "2009-08-22T04:53:38",
      "parentPostId": "15222308"
    },
    {
      "threadId": "25437977",
      "post": "it's just a few minor edits D: as in serious. Just a few. But i finally got it right. Have fun with the new blog!",
      "time": "2009-07-14T17:08:34",
      "id": "12641771"
    },
    {
      "threadId": "25429523",
      "post": "testing one two three",
      "time": "2009-07-14T13:46:43",
      "id": "12634229"
    },
    {
      "threadId": "24384763",
      "post": "I CAN'T WAIT GINE!!! ♥♥♥",
      "time": "2009-07-06T17:06:45",
      "id": "12203455"
    },
    {
      "threadId": "24327258",
      "post": "Thank you so much ;_; I'm very happy that you like it. And I apologize that  my submission omitted even a brief explanation. I was very wiped out when I first posted it and very excited to do so XD",
      "time": "2009-07-06T11:45:01",
      "id": "12193506",
      "parentPost": "It's a lovely piece. Liking it much more now that I've read this; I'd wondered about the concept behind the imageries. :) ",
      "parentPostTime": "2009-07-06T10:50:14",
      "parentPostId": "12192733"
    },
    {
      "threadId": "24340968",
      "post": "Isn't it from 5cm? Or at the very least from the same director?",
      "time": "2009-07-06T11:22:37",
      "id": "12193071"
    },
    {
      "threadId": "24262936",
      "post": "TANG EFFING NA GINE! Amazing color gasm!! And such an apt title ♥",
      "time": "2009-07-05T14:09:59",
      "id": "12171512"
    },
    {
      "threadId": "23775795",
      "post": "kadirs john! ate kat? yuuuck! HAHAHA!\r\n\r\nHEY EXHIBIT NATIN NAPAANO NAAAA XD",
      "time": "2009-07-02T16:14:38",
      "id": "12035846",
      "parentPost": "ate kat, ok po ito! i love it ate kat! ",
      "parentPostTime": "2009-07-02T13:16:17",
      "parentPostId": "12029032"
    },
    {
      "threadId": "22605423",
      "post": "Thank you! ♥ n.n ever since the accident with my hand it was hard to draw stuff that needs precision (ie HANDS). for you to like them means lots! must hustle to practice more! T^T",
      "time": "2009-07-01T10:11:29",
      "id": "11971508",
      "parentPost": "damn you and your super clean liiiines D: D: ... *cries* your hands are so niiice D:",
      "parentPostTime": "2009-07-01T09:28:59",
      "parentPostId": "11971086"
    },
    {
      "threadId": "23737456",
      "post": "Your brother's boost in goal orientation has proven itself to be infectious :D basta keep on trying your best bardo. And siguro also widen your skill set narin. Try teaching yourself new software and web skills (new computer na! hihi) or magraket ka. Don't be picky. just do everything you can.\r\n\r\nYey! I was like that with Monkey Majik too! Super gasgas na yan sa ipod ko XD But lately Bon Jovi's been the soundtrack of my life. ♥\r\n\r\nimo, wala akong satisfaction from devart though that's probably just me :3 tumblr is a whole lot of love. If you prune it nicely and just update it for yourself. But dev is good for folio~ Or you can try making an account at carbonmade.com",
      "time": "2009-07-01T10:09:21",
      "id": "11971492"
    },
    {
      "threadId": "22141481",
      "post": "thank you gine!!! ♥",
      "time": "2009-06-20T14:58:39",
      "id": "11500409",
      "parentPost": "FREAKING BEAUTIFUL!!!",
      "parentPostTime": "2009-06-20T09:19:15",
      "parentPostId": "11496477"
    },
    {
      "threadId": "12255550",
      "post": "thank you! I'm really glad you think so :) I'm still far from the level I want to get to but this is a start.",
      "time": "2009-02-22T03:53:05",
      "id": "6475104",
      "parentPost": "This is pretty. You've got talent. :)",
      "parentPostTime": "2009-02-21T04:55:45",
      "parentPostId": "6449439"
    },
    {
      "threadId": "11573507",
      "post": "BITIIIIN! MOAR PICS NAMAN!",
      "time": "2009-02-11T12:17:12",
      "id": "6174176"
    },
    {
      "threadId": "10721160",
      "post": "lol! i was in front of the teacher, fighting to stay awake XD",
      "time": "2009-02-01T13:17:14",
      "id": "5744670",
      "parentPost": "Because it's either I'm fighting to stay awake or I'm sitting right in front of the teacher lol",
      "parentPostTime": "2009-01-31T04:59:32",
      "parentPostId": "5721252"
    },
    {
      "threadId": "10229631",
      "post": "NEVEAAAAAAAAAAAR T^T",
      "time": "2009-01-21T11:45:09",
      "id": "5426223",
      "parentPost": "Hay nako take a picture even if you think it didn't go well! I want to see it >:S",
      "parentPostTime": "2009-01-20T17:24:13",
      "parentPostId": "5395573"
    },
    {
      "threadId": "9975953",
      "post": "Oh! I think that's the first anyone has particularly commented on the texture. It was doubly fun to make since I tried a few things I haven't done before. I'm happy you like it.",
      "time": "2009-01-17T05:04:24",
      "id": "5231082",
      "parentPost": "Wheee fishy~! XD the colored textured background adds an oomph to your already great lineart. So simple but nice :D",
      "parentPostTime": "2009-01-17T02:48:05",
      "parentPostId": "5229505"
    },
    {
      "threadId": "9999657",
      "post": "what aspect of biotech? :) I have notes left over from the internet. and maybe i can remember something that may help",
      "time": "2009-01-16T18:25:09",
      "id": "5167638"
    },
    {
      "threadId": "9981961",
      "post": "grats on the new baby 8D binyag naaaa! <3 post pics!",
      "time": "2009-01-16T18:23:17",
      "id": "5167650"
    },
    {
      "threadId": "9781172",
      "post": "Aaaw! I had no idea you liked carnations. :) Your photos are very sweet and endearing Bardo~ absolutely love these shots!",
      "time": "2009-01-12T16:54:37",
      "id": "5073792"
    },
    {
      "threadId": "9640374",
      "post": "It never goes old. It's the Neruda effect! You can't help but be moooooved :(",
      "time": "2009-01-12T08:08:27",
      "id": "5069782",
      "parentPost": "dammit XD everytime i read this i go emo, haha.",
      "parentPostTime": "2009-01-12T07:57:24",
      "parentPostId": "5069681"
    },
    {
      "threadId": "9772913",
      "post": ":3 hiiii~ post drawings soon~",
      "time": "2009-01-12T07:43:33",
      "id": "5069599"
    },
    {
      "threadId": "9769350",
      "post": "ITS A SQUIRREL!!!! XD <3 <3 <3 <3 ang babaw ng kaligayahan ko! hahahahaha!",
      "time": "2009-01-12T05:40:40",
      "id": "5068601"
    },
    {
      "threadId": "9769180",
      "post": "OH The g10 T^T I wonder how nice the image quality is- like how big of a step up is it from other point and shoots. Get your cam na and post more pics!",
      "time": "2009-01-12T05:39:40",
      "id": "5068613"
    },
    {
      "threadId": "9585411",
      "post": "definitely! I've been drawing everyday. I mean it's not successful everyday, but the important bit is that I'm always trying to find the time for it lately! :)\r\n\r\nHopefully, buhay ito till the end of time!",
      "time": "2009-01-12T05:28:35",
      "id": "5068474",
      "parentPost": "Pshh I am not as critical as I used to be anymore xD I mean, what's the point? \r\nIn any case, I'm stoked to find that you'll be posting more art now (hopefully??).",
      "parentPostTime": "2009-01-11T23:23:43",
      "parentPostId": "5062552"
    },
    {
      "threadId": "9669696",
      "post": "jackeeeeet!! <3",
      "time": "2009-01-10T04:15:52",
      "id": "5032601"
    },
    {
      "threadId": "9648425",
      "post": "the choker makes your neck look thicker so it makes u look more manly man 8D\r\n\r\nOH WOW medyo matangkad ka sa photo! i just realized this now! hahaha!",
      "time": "2009-01-09T18:57:36",
      "id": "5017224"
    },
    {
      "threadId": "9590990",
      "post": "glad you like it~ :3 I've been wanting to try my hand on something that looks more design like. I think I'm going to play with color flats a bit more n.n",
      "time": "2009-01-09T16:34:45",
      "id": "5012853",
      "parentPost": "man this is so pretty. I love the sheer simplicity of it. ",
      "parentPostTime": "2009-01-09T16:14:53",
      "parentPostId": "5012490"
    },
    {
      "threadId": "9581660",
      "post": "I wish to visit such a house X3 invite me over for green tea purease~!",
      "time": "2009-01-08T16:43:18",
      "id": "4989684"
    },
    {
      "threadId": "9523502",
      "post": "OH MY GOD!!! LAUREEN YOU ARE ABSOLUTELY BRILLIANT! hahahaha! panalong comment! I APPROVE!",
      "time": "2009-01-07T17:57:31",
      "id": "4963726",
      "parentPost": "Reminds me of Kate Winslet! Titanic days. And a little bit Dita Von Teese. LOL. \r\n\r\nYayay KT!",
      "parentPostTime": "2009-01-07T17:55:23",
      "parentPostId": "4963677"
    },
    {
      "threadId": "9219780",
      "post": "YOU CAN DO IT GIIIINE!! I'm so excited for yooou! ;-;",
      "time": "2009-01-07T16:00:58",
      "id": "4961371"
    }
  ],
  "profileInfo": {
    "username": "katrinateh",
    "about": "",
    "name": "katrinateh",
    "disable3rdPartyTrackers": false,
    "isPowerContributor": false,
    "isAnonymous": false,
    "rep": 1.250205,
    "profileUrl": "https://disqus.com/by/katrinateh/",
    "url": "http://artofkatrinateh.tumblr.com/",
    "reputation": 1.250205,
    "location": "Philippines",
    "isPrivate": false,
    "signedUrl": "http://disq.us/?url=http%3A%2F%2Fartofkatrinateh.tumblr.com%2F&key=_EBVvnaqSesRLA7dcq9YEg",
    "isPrimary": true,
    "joinedAt": "2009-01-07T15:48:57",
    "id": "182503",
    "avatar": {
      "small": {
        "permalink": "https://disqus.com/api/users/avatars/katrinateh.jpg",
        "cache": "//a.disquscdn.com/1468276017/images/noavatar32.png"
      },
      "isCustom": false,
      "permalink": "https://disqus.com/api/users/avatars/katrinateh.jpg",
      "cache": "//a.disquscdn.com/1468276017/images/noavatar92.png",
      "large": {
        "permalink": "https://disqus.com/api/users/avatars/katrinateh.jpg",
        "cache": "//a.disquscdn.com/1468276017/images/noavatar92.png"
      }
    }
  }
}