{
  "comments": [
    {
      "threadId": "3809678461",
      "post": "It was inevitable but most people don't need the processing power of the Titan X except for community colleges. This'll keep NVIDIA people in the fold while allowing them to keep the performance/price crown for just a few more months. It's not a revolution and it's not going to convert me but two of these for just the right price could lead to something big; way big.\n\n\nAnyways, nice review.",
      "time": "2015-05-31T23:54:49",
      "id": "2055387899"
    },
    {
      "threadId": "3805375041",
      "post": "I liked it when people had to code in order to make ransomware but really; this is despicable. This just makes it so that anybody can do nefarious things without even trying. Whatever happened to effort, whatever happened to common sense. This is not common sense but an invitation to cause havok amongst the populace.\n\n\nI hope somebody does something about this.",
      "time": "2015-05-30T22:06:17",
      "id": "2053835156"
    },
    {
      "threadId": "3807123190",
      "post": "I do not know why they didn't include this sooner. The hybrid cooler is a great solution for such a card like the Titan X and by including it; it'll expand it's lifespan both figuratively and literally.\n\nOne things for sure, Overclockers will love this product.",
      "time": "2015-05-30T21:53:41",
      "id": "2053820757"
    },
    {
      "threadId": "3804348862",
      "post": "I have 4 words to say.\n\nWelcome to the internet.",
      "time": "2015-05-30T21:48:52",
      "id": "2053815174"
    },
    {
      "threadId": "3801162177",
      "post": "This is definately a benefit; It's disheartening to see Microsoft; a company that cared so much about an empire fill their app store with bad things so to see them take out the trash is one step towards a better app store.\n\n\nPlus it'll definitely make my Windows Phone happy.",
      "time": "2015-05-30T14:20:19",
      "id": "2053245348"
    },
    {
      "threadId": "3794943175",
      "post": "This is an interesting idea but really, shouldn't porn be free for all?",
      "time": "2015-05-27T20:46:14",
      "id": "2048697217"
    },
    {
      "threadId": "3795107056",
      "post": "This is definitely going to help Microsoft strengthen their \"Universal\" position. Not being bound to Windows 10 Mobile is going to do wonders for strengthening their brand (even though Windows Phone is the best mobile OS out there) and the benefit is that more people are loyal to Microsoft products while still getting to chose the device they want to choose.\n\n\n\nAll in all, good work.",
      "time": "2015-05-27T16:54:52",
      "id": "2048356926"
    },
    {
      "threadId": "3794600313",
      "post": "I'm a Charter customer and I don't know what other option TWC had. I'm not saying Charter's service is bad but anything's better than Comcast.",
      "time": "2015-05-27T16:52:05",
      "id": "2048352793"
    },
    {
      "threadId": "3789702924",
      "post": "This is an interesting strategy. Apple Pay needs to be in as many places as possible in order to succeed and what better place than with an affordable phone. Think about it, not only will this make Apple Pay succeed but it will further Apple's reach in what it can do.",
      "time": "2015-05-27T16:50:01",
      "id": "2048349119"
    },
    {
      "threadId": "3792247160",
      "post": "Amazon will continue to be there but just be known for size and scale rather than having the best price.",
      "time": "2015-05-27T16:45:57",
      "id": "2048342298",
      "parentPost": "I wonder what this entails for Amazon's future. I know they have pretty good deals online for Prime and non-Prime members. Hope this doesn't get thrown in our faces with inflation",
      "parentPostTime": "2015-05-25T20:18:51",
      "parentPostId": "2044873161"
    },
    {
      "threadId": "3756230003",
      "post": "Yo. I run a currently in-hiatus podcasting network called TalkNet and while I may not have hosted a podcast in a while; I would love to do something with you Roberto and I have been gaming for quite a long time. I think this podcast will give me a reason to game again and do something productive at the same time; my main aspirations are FPS shooters but I like to learn how to do Strategy games and explore a little bit.\n\nIf you choose me, I'll do my best to live up to expectations and provide exceptional chemistry; after all, I'm doing this for fun and for the people.",
      "time": "2015-05-12T05:19:54",
      "id": "2019691067"
    },
    {
      "threadId": "383763736",
      "post": "Whether or not it's a great movie is solely up to opinion, and people have discerning opinions about things all the time. Me, I was disappointed.\n\nI don't talk all about the technology (though it's displayed so prominently throughout the movie), I do point out certain flaws with the characters, certain plot points, the actions characters do and certain choices the directors decided to make. I mean sure, they did talk about the technology a lot but my main worry was with how they'd treat Ceaser (and the entire social commentary thing) and that played into the review.\n\nAlso, few things about the story. The story in this movie didn't work because of the points I listed in the review; I mean the characters are literally unrelatable, it seems a bit one sided, they didn't go deeper with Ceaser's personality, some of the things feel forced and it's being pushed within one direction. Stories are only good when you can relate with the characters, so much so that you feel the weight of their actions and you're imaging what they're feeling and what they're going through. I mean the only character I could relate to is Ceaser and since the humans appear in a somewhat equal role they cancel each other out. Some people would contend that it's about the ape but for the ape argument to work you'd have to block out all of the humans and the actions that they do, and that's mostly impossible.\n\nAnd for the message, I can boil it down to four things.\n\n1. Animal cruelty is wrong.\n2. Experimentation on animals is bad.\n3. We should treat chimps better.\n4. We should be more aware about the consequences we bring upon by trying to find a miracle cure.\n\nMost of those things I can find in a nature documentary or another animal movie, I seriously don't know why this movie's message is very important when I can find it anywhere... Even episodes of TV sitcoms give off messages similar to this movie.\n\nSide note: The main problem with what the movie is about is that it's about many things, the story, the apes, the \"social commentary\", the emotion; I can't find any one thing that people agree on (except the apes obviously) and there seems to be a split group saying that each of those make the movie; and I can't figure out why an overrated movie like this has such a divided opinion about \"what it's all about\".",
      "time": "2011-09-22T20:18:56",
      "id": "317675271",
      "parentPost": "Wow. This was a great movie, and you obviously cannot see that. It wasn't about the technology they have, although amazing, it was about the story. And more importantly, the message. Only someone as stupid as you would be able to write such a pathetic excuse for a movie review. I hope anyone who hasn't seen this film yet is able to avoid reading this.",
      "parentPostTime": "2011-09-22T09:33:16",
      "parentPostId": "317283034"
    },
    {
      "threadId": "237877869",
      "post": "I tend to disagree; heavily...\n\nAnd her looks aren't just the only thing I base my reasons on. I completely disagree with her political beliefs; I mean from what I've seen, heard and read about Palin; she'd be worse then Obama and Bush combined; I mean she supports those big oil companies for god's sake! They tend to do more environmental damage that threaten our ecosystem and they've already fucked up by damaging the Gulf of Mexico.\n\nAt least Obama (despite not living up to standards) believes in same-sex marriage and abortion. Hey, every woman should have the right to abort their child if they so choose and every gay man should have the right to marry if they want.",
      "time": "2011-06-08T07:40:00",
      "id": "221096801",
      "parentPost": "Retarded Reasons... you cant just base someone on how they look.\nJust cause she's a girl doesnt mean she cant do the job better than a guy. I think she'd be way better then Obama and Bush combined together.",
      "parentPostTime": "2011-06-07T04:29:43",
      "parentPostId": "219717791"
    },
    {
      "threadId": "295508712",
      "post": "Man, you are on a roll with that Star Wars shit.",
      "time": "2011-05-04T23:13:53",
      "id": "197168430"
    },
    {
      "threadId": "103116025",
      "post": "Excuse me? I blast NEIL on this blog post, NOT CALI, most of the words in this article go to NEIL. NOT CALI. In fact, most of my post paints Cali as a victim, since a tweet of hers was done by the decision of Neil, not Cali. I have the right to write a blog post about certain newsworthy incidents such as this, but I have no intentions (nor did I ever have) to make blog posts writing about their daily lives...\n\nAlso I know that the screenshot in my post is a relay of the live TWiT feed, anybody (who has watched the TWiT Live feed.) can tell due to the TWiT Logo on the top right and the partially obstructed text, my main disagreement is that he used the TWiT Live feed instead of using his own (or even TWiT's own) cameras, that's the point I was trying to get across.\n\nThat is all.",
      "time": "2011-03-27T05:28:23",
      "id": "172674924",
      "parentPost": "As a friend of both Cali and Neal, and a follower of their work, they would be be disgraced at what you have posted about their daily lives.\nBy the way, the screenshot used in your post of the TWiT Cottage, is actually a relay of the live TWiT feed, (apart from the GeekBrief.TV titles.) I am a Christian and was completly offended. And in the words of yourself. Taylor Karras 'you are a shallow, ignorant, pathetic piece of human flesh and you should of never gone onto' the internet \"in the first place, and that is why you fail.\"\n\nSincerely\nA dear friend of the two.",
      "parentPostTime": "2011-03-26T20:02:00",
      "parentPostId": "172443439"
    },
    {
      "threadId": "251910113",
      "post": "There is nothing funny I can say about this, this is pretty serious.",
      "time": "2011-03-12T06:14:27",
      "id": "164628736"
    },
    {
      "threadId": "33939672",
      "post": "This was not fictional in anyway. It actually happened, the reason why I included that was because people would doubt this as a fictional story. (I mean who would think of a mosh pit at a Too Short concert, ridiculous.) Anyways, the guy pissed me off so much that I just had to write about it, even though he got evicted from the concert for \"smoking pot\" which is totally not cool.<br><br>Anyways, the manipulation happened. It's not an excuse, it's a way to make people do what you want to do. And I'm not the guy on the first date, obviously you've been watching way to many romantic movies. Also the I'm not making this up part was for meeting Too Short, not for the entire incident.",
      "time": "2010-10-23T11:02:08",
      "id": "89384865",
      "parentPost": "The reason I think this story is a mostly fictional story... your multiple uses of \"I am not making this up\" about your body, about the story and too many excuses as to how people would manipulate things about you if they knew too much stuff. Your like a guy on a first date. The first ten minutes of conversation tells you right out of the box as to what that person is all about. They spill all their secrets and insecurities on the floor for you to see... you just got to know how to listen. ",
      "parentPostTime": "2010-10-23T10:35:58",
      "parentPostId": "89373543"
    },
    {
      "threadId": "61211765",
      "post": "I'm sorry if I offended any special needs people but I called him retarded not based on what I think of him, but because of his actual logic and intelligence. If there is any other, less offensive term or word to describe Charlie Check'm, give me one.",
      "time": "2010-01-25T17:08:29",
      "id": "31235076",
      "parentPost": "No matter what you think of Charlie, calling him retarded is just wrong.  It's demeaning to people with special needs and makes you sound like a 5th grader.",
      "parentPostTime": "2010-01-25T14:12:21",
      "parentPostId": "31213586"
    },
    {
      "threadId": "15391094",
      "post": "I'm sorry but I don't agree with you. 1, I don't install many toolbars, find them to be mostly useless in this time of age (except for the StumbleUpon toolbar which I love very much). 2. The just install it thing does work, If you hover on the X on the top right, you'll find an arrow to the left,  click it and click \"Always hide the toolbar\", it will be gone for atleast until you can clear your cookies, also if you're logged in you can disable it in My Profile > Settings > Viewing Preferences > and on the \"Show DiggBar?\" menu, select \"Never show DiggBar for external links\" and click saved changes. You can also install framekiller on your website, set up a specific bar for DiggBar users or use one of the many tools, plugins, or scripts designed to kill the DiggBar, see you can disable it if you don't like it, and 3. I just don't get it about the revenue thing. Theoritically if it's in an iframe then it should load the webpage like a web browser would and you still would get credit. I may see how this might be a problem though seeing as how they keep you in the Digg domain but your argument applies to sites that uses iframes such as About.com, Ask.com, Facebook, StumbleUpon, etc. So it doesn't make sense to me at the moment. Also, how is Digg serving \"my\" content and displaying \"their\" ads? I've used the DiggBar for a while and I have not seen a single Digg advertisement at all. Explain that to me?\r\n\r\nAlso I disagree with what you're saying about my attitude lacking. I'm not doing this because I have a blog and I don't care about it because it doesn't show ads or any content that isn't top notch, I'm doing it because I want to voice my opinions that the DiggBar is okay and because I was slightly pissed that people knew it was coming and they didn't voice their opinions fully on how good or bad it will be.",
      "time": "2009-04-12T23:31:19",
      "id": "8103163",
      "parentPost": "I think you're missing the point of the bar. The bar frames people's content, then overlays ads over the originals. The problem is, they're serving \"your\" content and displaying their ads. In the end, no matter how much DIGG traffic you get, they get all the revenue - not you. As for the whole \"just uninstall it\" attitude, doesn't work. You obviously have never been in an environment with people that just install any toolbars they see. I have seen up to 4 toolbars on a computer with more disabled add-ons to match. People install something then forget it, all while DIGG takes your money and runs. \r\n\r\nSo, in closing, I feel that your attitude is lacking. It shows that you really have nothing to care about since your site doesn't display ads or any decent content. Once you graduate to levels of making money on a blog, you may understand.",
      "parentPostTime": "2009-04-11T13:35:59",
      "parentPostId": "8077672"
    },
    {
      "threadId": "10538879",
      "post": "I'm complaining about the sites that do have a flawed understanding of American politics, such as this site I listed. http://whatreallyhappened.com/ I know I don't have a thorough understanding of politics and I consider myself to be an atheist since I don't believe that god ever existed. Note that I am describing the Christans who run these sites, not my experience with Christans.",
      "time": "2009-02-01T01:49:45",
      "id": "5737633",
      "parentPost": "You obviously need to read some history.  Your understanding of American government and politics is hugely flawed.  Also, your perspective of Christians is thoroughly splattered by either bad experiences or biased propaganda.",
      "parentPostTime": "2009-01-31T23:23:29",
      "parentPostId": "5735518"
    }
  ],
  "profileInfo": {
    "username": "taylorkarras",
    "about": "",
    "name": "Taylor Karras",
    "disable3rdPartyTrackers": false,
    "isPowerContributor": false,
    "isAnonymous": false,
    "rep": 1.2550649999999999,
    "profileUrl": "https://disqus.com/by/taylorkarras/",
    "url": "http://taylorkarras.bandcamp.com",
    "reputation": 1.2550649999999999,
    "location": "California",
    "isPrivate": false,
    "signedUrl": "http://disq.us/?url=http%3A%2F%2Ftaylorkarras.bandcamp.com&key=F-vilwdvizaEcHgPbT5_ew",
    "isPrimary": true,
    "joinedAt": "2008-11-01T23:48:30",
    "id": "133782",
    "avatar": {
      "small": {
        "permalink": "https://disqus.com/api/users/avatars/taylorkarras.jpg",
        "cache": "//a.disquscdn.com/uploads/users/13/3782/avatar32.jpg?1431407797"
      },
      "isCustom": true,
      "permalink": "https://disqus.com/api/users/avatars/taylorkarras.jpg",
      "cache": "//a.disquscdn.com/uploads/users/13/3782/avatar92.jpg?1431407797",
      "large": {
        "permalink": "https://disqus.com/api/users/avatars/taylorkarras.jpg",
        "cache": "//a.disquscdn.com/uploads/users/13/3782/avatar92.jpg?1431407797"
      }
    }
  }
}