{
  "comments": [
    {
      "threadId": "17123789",
      "post": "Obrigado Silvio. um abraço.",
      "time": "2010-12-21T17:42:51",
      "id": "116268492",
      "parentPost": "Gostei do seu blog..  como coloquei no meu twitter @micoempresario  \"emprender é a arte de aprender com os seus erros\" seu blog já está entre meus favoritos...  abraços",
      "parentPostTime": "2010-12-21T16:14:43",
      "parentPostId": "116218906"
    },
    {
      "threadId": "148704195",
      "post": "Marco, muito legal tua participação aí e as ideias trocadas aqui. Acho que temos que aceitar também que um ecossistema empreendedor regado por bastante capital de venture leva um certo tempo para se formar. Nos EUA demorou uns 40 anos para chegar no estágio que conhecemos. Aqui no Brasil temos no máximo uns 12 anos de experiência. Nossos investidores ainda são na sua grande maioria profissionais de finanças que infelizmente não tiveram a experiência de construir empresas inovadoras. Nós, empreendedores dessa primeira geração, temos que crescer nossas empresas, aprender bastante e ir dividindo a experiência com os demais. Temos que pensar grande e tentar gerar um bom impacto. Na medida que botarmos o nosso lucro \"pra trabalhar\" nas próximas empresas e contribuirmos com os aprendizados que estamos tendo certamente ajudaremos bastante o desenvolvimento do sistema aqui também. O dinheiro de fora vem como consequência desse desenvolvimento. ",
      "time": "2010-09-30T00:00:20",
      "id": "82183695"
    },
    {
      "threadId": "26721807",
      "post": "Oi Marcos, se vc tiver um sumário bem resumido (2 págs máx) e quiser me mandar para dar uma olhada, eu te retorno com um feedback. abs",
      "time": "2010-06-04T00:02:20",
      "id": "54342489",
      "parentPost": "Oi Daniel, gostei do seu blog. Se quiser tirar 10 minutos do seu dia para dar uma pequena olhada no meu plano de negócios eu lhe envio por e-mail: dj@marcsheep.com",
      "parentPostTime": "2010-06-03T03:27:43",
      "parentPostId": "53682069"
    },
    {
      "threadId": "6554410",
      "post": "Valeu Sebastian, vamos deixar o professor trabalhar mais pra ver se vem com algo mais útil...:)",
      "time": "2010-05-24T00:11:37",
      "id": "51649516",
      "parentPost": "Oi Daniel, \n\npois é o que ia a falar, uma pesquisa assim so para decidir se estamos falando se é anjo ou nao anjo? o que isso pode interessar? vamos.. cut the crap, o importante e reunir as pessoas que vao dar certo no negocio. Isso é valor real que leva a criaçao de riqueza. O resto é muito.. tipo assim \"conversar muito e mostrar pouco\".\n\nGostei muito da tua resenha e a tua conclusao. Porque finalmente, se a pesquisa nao é para ajudar a fazer algo prático (melhor ou diferente), entao para que é?\n",
      "parentPostTime": "2010-05-23T16:00:51",
      "parentPostId": "51593064"
    },
    {
      "threadId": "89921430",
      "post": "Erick, vou conferir sim. Obrigado!",
      "time": "2010-05-14T22:34:25",
      "id": "50401716",
      "parentPost": "Ótima dica, vou assistir com certeza!\nUma dica minha também, mas vc ja deve saber!\nA Ernst & Young abriu as inscrições pra trainees desse ano, e postaram no site vídeos do cotidiano de alguns de seus funcionários. Os vídeos mostram bem o sucesso profissional deles. Ficou ótimo e muito criativo, vale conferir:\nhttp://www.traineesey.com.br/\n",
      "parentPostTime": "2010-05-14T18:54:08",
      "parentPostId": "50377431"
    },
    {
      "threadId": "761004",
      "post": "Marco,\r\nO contra ponto é sempre bem vindo, obrigado.",
      "time": "2009-08-12T19:53:18",
      "id": "14737777",
      "parentPost": "Olá dsheise;\r\nNão sou frontalmente contra o texto dor artigo, até concordo com boa parte dele.\r\nO contra ponto foi para fugir da visão maniqueista que poderia surgir com uma leitura superficial do tema.\r\nA \"grosso modo\" o que produzimos de dia consumimos à noite.\r\nA grande produção de bens e serviços entraria em colapso sem o aporte da midia em horário nobre.\r\n\r\nO nosso sistema econômico, bem ou mal em larga escala fundamenta-se no tripé \"produção -> marketing -> consumo\". Sem TV -> sem vendas -> sem produção. \r\nAs grandes empresas de produtos finais destinam um grande investimento em propaganda; e a TV é de longe que leva a maior fatia.\r\n\r\nEssa questão não pode ser encarada apenas sob uma ótica. Cada vez mais o acesso ao lazer e entretenimento é fundamental; a indústria do entretenimento soube aproveitar o lazer para vender a produção. \r\n\r\nA wikipédia e correlatos não pode ser encarada apenas como fruto do trabalho, se fosse apenas isso já teria acabado porque trabalho sem renda é escravidão; ela é fruto do entretenimento que a internet oferece. As pessoas depois de cumpridas suas tarefas, se entretem editado ou expressando a sua opinião e conhecimento, a Wikipédia não passa de um grande e prazeroso bate-papo online inclusive nas guerrinhas de edição.\r\n\r\nCertamente a morte de Odete Roitman foi disputada à peso de ouro pelos patrocinadores, e valeu cada centavo investido.\r\nCada tele-espectador, mesmo alienado, cumpre o seu importante papel no sustentáculo da cadeia produtiva; o de consumidor.\r\n\r\nEscrevi muito e fui repetitivo, talvez tenha cometido alguns equívocos na ênfase em defender um ponto de vista, agradeço a atenção.\r\nAbraços...\r\n\r\nMarco.",
      "parentPostTime": "2009-08-12T06:22:32",
      "parentPostId": "14699335"
    },
    {
      "threadId": "28716181",
      "post": "No final do vídeo o Kawasaki diz que o discurso desses dois é bem diferente de tudo que estamos acostumados a ouvir de VC's. Se isso reflete ou não no diferencial de desempenho que eles apresentam, podemos deixar para o que cada um acredita. \r\n ",
      "time": "2009-08-11T19:04:10",
      "id": "14648154",
      "parentPost": "daniel,\r\n\r\nParabéns pelo excelente post. Mas tenho uma pergunta? Você acredita que os Venture Capitalists do Brasil possuem uma despreocupação tão grande com a ogranização do projeto quanto os dois que vemos no vídeo? Eu não conheço muito este mercado (você conhece sem dúvida melhor do que eu), mas não imagino nenhum VC tendo o discurso deles no Brasil.",
      "parentPostTime": "2009-08-11T15:16:26",
      "parentPostId": "14637514"
    },
    {
      "threadId": "20655899",
      "post": "Um professor que também pensa muito nessa interligação é o Paulo Lemos da Unicamp. Vocês poderiam trocar umas idéias (se é que já não o fizeram). abs.",
      "time": "2009-08-06T23:52:29",
      "id": "14402189",
      "parentPost": "Daniel,\r\n\r\nVc tem toda a razão! A interação com o povo de tecnologia seria o máximo. No Brasil, empreendedorismo na veia de uma escola de negócios ainda é novidade imagina então em faculdade de engenharia...espero ainda encontrar gente afim de fazer esse cruzamento e que ambos tenhamos capacidade institucional de emplacar projetos cruzados...Por não saber que era impossível foi lá e fez...faremos!\r\n\r\nAbçs\r\n\r\nGilberto Sarfati",
      "parentPostTime": "2009-08-05T23:50:19",
      "parentPostId": "14009524"
    },
    {
      "threadId": "22719111",
      "post": "Concordo Elcio, o caminho é pela transparência de tudo o que é feito pelos aloprados. Temos que pensar numa camada de aplicações web que agreguem toda a informação publicada e formatem isso de forma a revelar em real-time as tentativas de palhaçada.",
      "time": "2009-06-24T00:56:59",
      "id": "11654753",
      "parentPost": "Acho que a solução mais viável passa por aumentar a transparência.\r\nInfelizmente, se alguém resolvesse higienizar a máquina pública, não ia sofrer só o bote da oposição política normal. Ia também ter q enfrentar a ira do povo, q acha feio \"o governo deixar desempregados tantos funcionários públicos\". ",
      "parentPostTime": "2009-06-23T13:13:11",
      "parentPostId": "11616998"
    },
    {
      "threadId": "14213311",
      "post": "Marcos, acho que pulei essa pois não me recordo dela. Vou tentar dar uma olhada depois, obrigado. Acompanharei o Epicentro 2 sim. Na semana passada encontrei pessoalmente o Ricardo Jordão e ele me confirmou que dia 08/10 haverá o evento.\r\nabs",
      "time": "2009-05-28T19:34:32",
      "id": "10161889",
      "parentPost": "Daniel, não sei chegou a ver a palestra do cara da Triad. Achei muito boa, estou usando o sistema online dos caras e é bem legal mesmo.\r\nVocê vai fazer parte do Epicentro 2?",
      "parentPostTime": "2009-05-28T19:25:04",
      "parentPostId": "10161528"
    },
    {
      "threadId": "3840972",
      "post": "Sugiro que vc entre em contato com o Gian do GV Cepe. Ele pode te mandar todo o tipo de material sobre isso. Dá uma olhada no site do Desafio GV Intel, lá vc acha o pessoal do GVCepe, um monte de outros empreendedores que esão na mesma fase que vc e vários recursos para te ajudar. Espero que ajude bem. abs\r\nhttp://desafio.ning.com/\r\n",
      "time": "2009-03-28T15:53:46",
      "id": "7584604",
      "parentPost": "Olá\r\n\r\nobrigado pelo esclarecimento com relação a organização de idéias e como apresenta-las, minha maior dificuldade é tira-la da cabeça e torna-la realidade, talvez insegurança ou confiança...enfim...queria saber se é possivel você me mandar um modelo de documentação de um projeto, como passar a idéia para o papel como organizar as idéias de forma a ser entendida e etc...\r\ngostaria de manter um contato pois preciso de um mentor na parte comercial\r\nse puder me enviar algum arquivo de exemplo de documentação de projetos ou passos para montar uma empresa eu seria muito grato..\r\nemail: renatobeirao@gmail.com",
      "parentPostTime": "2009-03-28T05:36:46",
      "parentPostId": "7579661"
    },
    {
      "threadId": "367902",
      "post": "Olá Vinicius,\r\nDá uma olhada na São Paulo Anjos http://www.saopauloanjos.com.br\r\noutra fonte interessante é o GVCepe http://www.cepe.fgvsp.br e todos os seus eventos. \r\nabs",
      "time": "2009-02-03T16:44:32",
      "id": "5810432",
      "parentPost": "Daniel, muito bem...foram dicas ótimas. Eu também busco um Investidor Anjo e tenho passado por inúmeras faltas de respostas.\r\n\r\nVocê conhece alguma organização, na região de São Paulo-SP que auxilie os novos empreendedores? ou mesmo de outras partes do país ou do mundo, que sejam de \"boa fé\".\r\n\r\nDe repente até você mesmo, se colocando como um \"indicador\" de novos negócios a esses anjos.",
      "parentPostTime": "2009-02-03T16:37:17",
      "parentPostId": "5810257"
    },
    {
      "threadId": "8572206",
      "post": "Parabéns para o Cazé também, só quis destacar a dupla do Videolog porque eles merecem.",
      "time": "2008-12-19T20:51:47",
      "id": "4529261",
      "parentPost": "Fala Daniel! Mais uma vez, tks a loooooot!\r\nSó uma correção: o prêmio foi para Cazé, Mack e Manoel, apesar de o Ariel merecer tb! :-)\r\nGde abs!",
      "parentPostTime": "2008-12-19T13:37:01",
      "parentPostId": "4520196"
    },
    {
      "threadId": "8028545",
      "post": "Jacques,\r\nEstá mesmo cada vez mais barato iniciar startups, isso é inegável. \r\nA minha preocupação é com a qualidade dos negócios.\r\nSe não houver um filtro natural forte, muito tempo será gasto com projetos que não tem a menor chance de dar certo ou que não deveriam nem ser iniciados.\r\nUma indústria de VC desenvolvida, forte e atuante faz esse papel e ajuda a desenvolver o sistema como um todo.",
      "time": "2008-12-10T22:50:49",
      "id": "4317757",
      "parentPost": "Oi Daniel,\r\n\r\nPelo que acompanho da indústria de VC/PE e minha experiência em empreendedorismo high tech, vejo que os VCs agregam valor sim aos empreendedores no que tange aos seguintes itens: capital ($), aconselhamento, contatos(clientes e parceiros) e credibilidade. Bom, capital era (ou será que não em épocas de crise) commodity e sendo assim, o papel verdadeiro do VC se concentra mais no aconselhamento, contatos e credibilidade. \r\n\r\nAssumo também que sou um leitor assíduo do Paul Graham, mas lendo com calma o artigo vejo que o VCs não seriam o alvo ou protagonistas do artigo e sim os anjos. Acho que ele meio que se expressou mal ou não pensou nos anjos no estágio de seed. Por que falo isto:\r\n\r\na) Geralmente empreendedores que fazem bootstrapping apresentam perfil de investimento para anjos (ticket médio de investimento até R$ 1Mi); VCs investem muito mais que isso. Você pode falar bem melhor do que eu sobre isso :-D\r\n\r\nb) Neste estágio os empreendedores estão mais focados na prova do modelo de negócios e mercado e os anjos ajudam justamente nisso. Já os VCs preferem modelos e mercados já comprovados.\r\n\r\nc) A partir disso, os empreendedores em early stage estão mais para \"dispensar\"  o papel dos anjos no que tange a capital do que de fato os VCs que entram em negócios no estágio subjacente;\r\n\r\nPercebo assim como ele, que esta cada vez mais barato iniciar uma starup e que capital para determinados tipos de empreendimento (principalmente software) nem sempre é essencial...Contudo, acho que seja prematura essa afirmação do Paul quanto a VC principalmente nesse tumulto de crise.\r\n\r\nAbraços\r\n\r\nJacques",
      "parentPostTime": "2008-12-10T20:44:41",
      "parentPostId": "4315341"
    },
    {
      "threadId": "6924245",
      "post": "Daniel,\r\n\r\nInfelizmente esse serviço, dessa forma, não existe. Se você quiser fazer algo parecido terá que correr um risco bem alto e ver seu capital diminuir antes mesmo de aumentar.\r\nÉ melhor você tentar adaptar seu plano para o capital que você tem disponível. Vou escrever um post novo sobre isso. O termo que os gringos usam é \"Bootstrapping\" que basicamente significa se erguer com os cordões de suas próprias botas.\r\n",
      "time": "2008-12-01T16:28:43",
      "id": "4084035",
      "parentPost": "CORRIGINDO!\r\nOlá, como muitos empreededores , tenho uma boa idéia um plano de negócio, só não tenho todo o dinheiro necessario para começar, não tenho garantias para oferecer a um Banco, ai fica mais dificil, \r\nEu quero saber se corretoras Finaceiras oferencem um serviço do tipo de pegar parte do que eu tenho para investir, e pelo tempo necessario eles corretam com esse valor e me devolvem o que eu preciso para investir no meu negócio, descontando a corretagem deles.\r\nEX: preciso de R$ 20,000 e só disponho de R$5.000 ai quero saber se uma corrtora pega esse dinheiro e me consegue fazer ele virar o que eu preciso?\r\n",
      "parentPostTime": "2008-12-01T14:40:03",
      "parentPostId": "4082593"
    },
    {
      "threadId": "7420658",
      "post": "O contato do empreendedor é com os gestores de fundos de VC. Eles são chamados de Venture Capitalists. Nos fundos administrados por eles normalmente tem um % (10-20%) de dinheiro deles mesmo e o resto é dos investidores (fundos de pensão, etc..). Então o contato do empreendedor é direto com o VC. ",
      "time": "2008-11-27T18:05:21",
      "id": "4040942",
      "parentPost": "Certo. Ficou bem claro agora que o gestor do VC está acha que o cliente dele são os investidores, quando na verdade, os verdadeiros clientes seria os empreendedores.\r\n\r\nMas confesso que não sabia dessas \"camadas\" de investidores, para mim o empreendedor ia direto ao VC. \r\n\r\nAos poucos vou entendendo como isso funciona.\r\n\r\n[]'s",
      "parentPostTime": "2008-11-27T17:17:18",
      "parentPostId": "4039650"
    },
    {
      "threadId": "7599504",
      "post": "I´d go along the line that we shouldn´t compare the US versus Europe, Japan, or Brics. We should compare companies that can be more efficient on this global scale versus the ones that get outpaced by them. There will be a lot of american winners but there definitely will be chinese, indian and brazilian (for sure) ones too.\r\nThere are great balance sheets backed by great talent everywhere, each of these countries has it´s own.\r\n\r\nThe world needs a good mix of leaders in high tech from the US, services from India, manufacturing from China and commodities from Brazil. Won´t these be the out performers? Now we have to find out who will the leading banks, cause it seems that they all screwed up so far.\r\n\r\nFor this to be true we still need governments to let it happen. Less trade barriers (today the US still imposes barriers to Brazilian commodities while Brazil places high taxes on  American tech products- it wont work this way). Doha needs to be revisited and they need to find a way out.",
      "time": "2008-11-26T22:50:46",
      "id": "4031238"
    },
    {
      "threadId": "7331790",
      "post": "Valeu Rafael! obrigado. abs.",
      "time": "2008-11-21T20:41:41",
      "id": "3939539",
      "parentPost": "mais um post incrível de tão lúcido, daniel!\r\nescrevo para incentivar, pq não tenho o que acrescentar. :-)\r\ngde abs!",
      "parentPostTime": "2008-11-21T13:28:43",
      "parentPostId": "3931790"
    },
    {
      "threadId": "4449325",
      "post": "Belo comentário Cecília. Não preciso nem dizer que concordo inteiramente contigo. Obrigado pela contribuição aqui.",
      "time": "2008-11-21T20:35:35",
      "id": "3939413",
      "parentPost": "Gostaria imensamente, que essa idéia fosse levada adiante e,que principalmente o ENSINO MÉDIO,realmente fosse o sustentáculo final da EDUCAÇÃO BÁSICA, voltada para a formação, de qualidade ,porque não dizer, de qualidade empreendedora,não para o adestramento para vestibulares e PSS,descaracterizando todo um trabalho pedagógico em prol de uma aprendizagem significativa.Está mais do que na hora em se repensar ,especificamente,o ENSINO MÉDIO e voltá-lo para uma educação consistente,para a vida prática ou seja,logo após o término do mesmo,oportunizar ao jovem à participar de ESTÁGIOS REMUNERADOS,dando-lhe dignidade como cidadão,conforme prega a LDBN.",
      "parentPostTime": "2008-11-21T19:22:50",
      "parentPostId": "3937800"
    },
    {
      "threadId": "817414",
      "post": "Rodolfo,\r\n\r\nHalo, Black Swan, Predictably Irrational e Innovator's Solution (o Dilemma\r\neu não li) eu li e gostei bastante. Não tive a oportunidade de ler The Logic\r\nof life e Predictable surprises, vou dar uma olhada no que vc escreveu sobre\r\neles. Valeu! abs\r\n\r\n2008/11/21 Disqus <>",
      "time": "2008-11-21T20:34:32",
      "id": "3939394",
      "parentPost": "Oi Daniel,\r\n\r\nsou ávido leitor de textos de negócios e tenho escrito sobre livros publicados recentemente. Particularmente recomendo:\r\n\r\nThe halo effect: http://rodolfo.typepad.com/no_posso_evitar/2008/09/chapu-de-anjo.html\r\n\r\nThe logic of life: http://rodolfo.typepad.com/no_posso_evitar/2008/11/um-modelo-de-economista.html\r\n\r\nPredictable surprises: http://rodolfo.typepad.com/no_posso_evitar/2008/11/de-que-cor-%C3%A9-o-cisne-afinal-1.html\r\n\r\nThe innovator's dilemma: http://rodolfo.typepad.com/no_posso_evitar/2008/11/inova%C3%A7%C3%A3o.html\r\n\r\nPredictably irrational: http://rodolfo.typepad.com/no_posso_evitar/2008/11/seu-ladr%C3%A3ozinho-barato.html\r\n\r\nThe black swan: http://rodolfo.typepad.com/no_posso_evitar/2008/10/de-uns-dois-anos-para-c%C3%A1-meu-gosto-pela-leitura-s%C3%B3-tem-se-agravado-n%C3%A3o-passo-um-dia-sem-buscar-umtema-novo-um-ponto-de-v.html\r\n\r\nEspero que gostem!\r\n\r\nAtenciosamente,\r\nRodolfo.",
      "parentPostTime": "2008-11-21T19:17:13",
      "parentPostId": "3937692"
    },
    {
      "threadId": "7146382",
      "post": "Grande Jacques, valeu pelo comentário. Enriqueceu o post com a tua experiencia no assunto. Abs",
      "time": "2008-11-18T02:06:28",
      "id": "3870705",
      "parentPost": "Oi Daniel,\r\n\r\nQuanto tempo....mas não poderia deixar de fazer um comentário quanto a este post em particular. Concordo que a visão de complemento dos perfis é fundamental, pois através dele que é criada a sinergia e que sem ela muitas startups ou lançam \"vaporware\" ou soluções tecnicamente excelentes mas com potencial de mercado ainda muito incipiente (é só verificar o dilema do inovador do Christenssen) . \r\n\r\nDiscordo um pouco do Diego :-D , por experiência própria. Tenho as duas formações e experiencias tanto em computação quanto um MBA. No meu caso minha capacidade de criação foi alavancada pelo MBA onde inclusive hoje tenho uma visão bem crítica do que aprendi (Nem tudo que se aprende em um MBA se aplica em uma startup, por experiência própria). \r\n\r\nÀs vezes me vejo mais como um early adopter no sentido de que consigo enxergar oportunidades em TI por exemplo, por ter conhecimento e background tecnológico...Algo que para pessoas com formação em administração, por exemplo nem sempre tem. Principalmente por que o curriculum dos cursos de Adm.  e MBA ainda são muito focados na indústria, serviços e varejo e não em mercado de inovação e de disruptivos. \r\n\r\nPor fim, creio que o valor tanto do técnico quanto do de negócios são potencializados ao longo do ciclo de vida da startup e que durante essa evolução tanto um perfil quanto o outro acabam trocando conhecimentos (o de MBA/negócios acaba entendendo mais de TI do que antes e o técnico acabam vendo que o mundo dos negócios não é apenas feitos de bits).\r\n\r\nAbraços e sucesso a todos,\r\n\r\nJacques\r\n\r\n",
      "parentPostTime": "2008-11-17T18:12:50",
      "parentPostId": "3863655"
    },
    {
      "threadId": "7018914",
      "post": "A implementação está bem descrita no paper original (link no post), mas concordo que o lobby dos banqueiros (o Próprio Paulson era CEO da Goldman Sachs) é uma barreira intransponível nesse momento.\r\nInfelizmente para eles, isso vai acontecer, por bem ou por mal, mais cedo ou mais tarde. Por enquanto ainda poderemos observar dinossauros moribundos cambaleando por Wall Street. ",
      "time": "2008-11-14T19:34:23",
      "id": "3776546",
      "parentPost": "Acredito que o problema básico de todas as estratégias governamentais é que não leva em conta sua implementação. Que passa pelos \"interesses\" dos envolvidos (líderes do governo).\r\n\r\nEssa idéia exposta em seu blog, tem muita ver com empreendedorismo, coisa que não há qualquer resquício em qualquer governo. Assim, essa solução ousada e de enfrentamento a poderosos combina muito mais com uma startup (como a Microsoft ao enfrentar a IBM) do que ao governo americano ir enfrentar o status quo e os banqueiros.\r\n\r\nMas a solução é muito legal, mas não-implementável",
      "parentPostTime": "2008-11-14T16:22:19",
      "parentPostId": "3772294"
    },
    {
      "threadId": "6310638",
      "post": "Cássia, depois da nossa conversa lembrei de uma palestra que você deveria ouvir (se ainda não tiver tido a oportunidade). É do Paul Graham falando na Europa sobre o futuro das startups.\r\nEle fala sobre a pergunta que você me fez, veja aqui: http://dl.getdropbox.com/u/142733/Audio/Lectures/future_of_web_startups_pg.mp3\r\nabs",
      "time": "2008-10-29T12:35:39",
      "id": "3360899",
      "parentPost": "Olá, Daniel!\r\n\r\nGostaria de dexiar registrado agora por escrito o que conversei com você logo após sua apresentação. É muito louvável ver empreendedores como você dando certo, tendo uma visão totalmente inovadora e na frente de muita gente. Eu, como assessora de imprensa de uma incubadora, de onde você também surgiu, espero poder difundir muito bem esses conceitos passados no Intercon e conseguir que mais empreendedores cheguem onde você chegou. Parabéns, novamente!",
      "parentPostTime": "2008-10-27T17:51:14",
      "parentPostId": "3327315"
    },
    {
      "threadId": "5242276",
      "post": "Gianni, legal teu comentário, obrigado.\r\nOs ARG (Alternate Reality Games) que tem surgido com esse intuito são bem interessantes, vale mesmo dar uma olhada maior.",
      "time": "2008-10-08T12:54:33",
      "id": "2935016",
      "parentPost": "Bem interessante este post. Hoje em dia a internet realmente possibilita fazermos algo de útil à humanidade. Como dizia Tyler Durden: \"Prove que você está vivo\". E isso me fez repensar muita coisa nos últimos tempos. \r\n\r\nA questão de ter idéias para apenas ter retorno financeiro já não é algo que me seduz como antes. Hoje penso em algo que realmente possa ajudar, que me faça crescer como ser humano. Outro dia vi um blog falando sobre os novos ARGs que estão sendo lançados com cunho social. Para quem se interessar, segue o link de um ARG da Cruz Vermelha: http://www.tracesofhope.com/\r\n\r\nAbs",
      "parentPostTime": "2008-10-08T02:41:30",
      "parentPostId": "2929624"
    },
    {
      "threadId": "5449543",
      "post": "Muito bons, eu lembro dessa ilustração que a Economist usou desde os meus tempos de Matrix...",
      "time": "2008-10-07T23:13:04",
      "id": "2925555",
      "parentPost": "Daniel,\r\n\r\nMais dois links para dar risada\r\n\r\nhttp://artofsatire.economist.com/images/cover_1_zoom.jpg\r\n\r\nhttp://www.slideshare.net/improbulus/subprime-primer-276377\r\n\r\nAbs\r\n\r\nCamilo",
      "parentPostTime": "2008-10-07T10:01:32",
      "parentPostId": "2915401"
    },
    {
      "threadId": "5221711",
      "post": "Nada mais justo, não é? ",
      "time": "2008-10-02T22:17:56",
      "id": "2811164",
      "parentPost": "Meu sonho é abrir a conta da Net Virtua e ler:\r\n\r\n\"Desconto: 30% - falhas no serviço\"\r\n",
      "parentPostTime": "2008-10-02T20:56:04",
      "parentPostId": "2807786"
    },
    {
      "threadId": "4889301",
      "post": "Assisti outra palestra dele nesta ultima terça feira (23/09). Dessa vez foi na MIXX Conference do IAB também em NY. O cara é muito bom, ele foi entrevistado no palco pelo Charlie Rose www.charlierose.com e deu mais um show de conhecimento sobre o impacto cultural da web 2.0",
      "time": "2008-09-25T04:28:02",
      "id": "2620397"
    },
    {
      "threadId": "4425418",
      "post": "Igual mesmo!",
      "time": "2008-09-24T23:28:15",
      "id": "2581090",
      "parentPost": "Achei um concorrente direto pro DotSpots... www.spinspotter.com",
      "parentPostTime": "2008-09-24T04:23:25",
      "parentPostId": "2555831"
    },
    {
      "threadId": "4706013",
      "post": "Bem interessante a tua iniciativa. Concordo com a tua visão.",
      "time": "2008-09-23T23:29:15",
      "id": "2552585",
      "parentPost": "Acredito neste conceito de que o atendimento é a chave para o crescimento e que conhecer o cliente é o melhor caminho para vencer a concorrência, tanto que montei uma empresa de cliente oculto (www.indigoconsult.com.br) visando atender empresas de todos os portes que respeitam seus clientes e querem conhecê-los melhor através de análises de sua experiência como compradores em seu estabelecimento.\r\nEste conceito ainda é pouco explorado no Brasil  e tem muito o que evoluir, mas penso que muitas destas modificações de visão virão com a necessidade de inovação.",
      "parentPostTime": "2008-09-23T19:39:51",
      "parentPostId": "2549361"
    },
    {
      "threadId": "4706010",
      "post": "Olá Débora,\r\nLegal que você tenha gostado.\r\nNão sabia da iniciativa em São José, obrigado por lembrar.\r\nSobre o bootstrapping, eu postei um video do David Hanson, também da 37signals que é bem interessante. Dá uma olhada aqui: http://www.aprendendoempreendendo.com/2008/04/venture-capital-no-obrigado.html\r\n\r\nabs",
      "time": "2008-09-19T19:26:51",
      "id": "2445675",
      "parentPost": "Oi Daniel, tudo bem?\r\n\r\nSou leitora nova, achei teu blog por acaso, buscando fontes para uma matéria que tenho que fazer.\r\n\r\nEm primeiro lugar, queria dar os parabéns, teu blog é muito bacana. Vc fala de temas que eu sequer ouvi falar - o que é ótimo para mim, me dá idéias de pautas, fontes, etc\r\n\r\nSegundo, queria fazer um comentário sobre um post antigo, aquele do empreendedorismo na escola. Se não me engano, São José dos Campos já tem o tema no currículo há um bom tempo. Não sei se eles deram continuidade, mas na época (uns seis anos atrás), foi uma iniciativa pioneira.\r\n\r\nPor fim, aproveitando que o Jacques citou aí abaixo, você já escreveu algo sobre bootstrapping? Queria saber mais sobre isso.\r\n\r\nÉ isso!\r\n\r\nAbraços,\r\n\r\nDébora",
      "parentPostTime": "2008-09-19T18:58:18",
      "parentPostId": "2445221"
    },
    {
      "threadId": "4487870",
      "post": "Eu entendi a tua impressão, o jeito dele acaba arriscando passar essa imagem\r\nmesmo. Comunicação é f...\r\n\r\n2008/9/13 Disqus <>",
      "time": "2008-09-13T18:12:14",
      "id": "2330970",
      "parentPost": "Você tem razão. Levando em consideração outros pontos, fora as frases que ele usou, realmente pode ser o caso dele ser um cara otimista e que aponta uma solução. De qualquer maneira não foi isso que ele transmitiu aos leigos na apresentação, pelo menos não foi a sensação que eu tive enquanto escutava. ",
      "parentPostTime": "2008-09-13T18:06:35",
      "parentPostId": "2330912"
    },
    {
      "threadId": "4367709",
      "post": "tava no post anterior (parte 4). O empreendedor me pareceu muito bom. Vai dar um jeito desse negocio dar certo.",
      "time": "2008-09-12T00:36:25",
      "id": "2294344",
      "parentPost": "Sempre tem alguém que já teve a idéia... :) \nValeu pela dica\n\nedit: Bacana, tava entre as TC50 e eu nem sabia...",
      "parentPostTime": "2008-09-11T23:25:18",
      "parentPostId": "2293552"
    },
    {
      "threadId": "4049282",
      "post": "Obrigado Gabriel! abs",
      "time": "2008-09-05T14:45:09",
      "id": "2143781",
      "parentPost": "Grande Daniel,\r\n\r\ntua opinião não poderia ser mais verdadeira. A apresentação, num momento tal crucial quanto o que descreveste, é o ponto chave para um dos passos mais difíceis de ser dado no empreendedorismo: fazer os outros acreditarem que tudo valerá a pena.\r\n\r\nParabéns pelo blog! O conteúdo é ótimo!",
      "parentPostTime": "2008-09-05T12:26:07",
      "parentPostId": "2142104"
    },
    {
      "threadId": "4143340",
      "post": "Lucas,  legal teu depoimento. Concordo contigo. Podemos ver exemplo após exemplo que essa é mesmo a caracteristica mais fundamental para o empreendedor: determinação, persistência.\r\nPena que não tive a oportunidade de ver teu projeto ou tua apresentação, boa sorte.",
      "time": "2008-09-05T14:04:09",
      "id": "2143165",
      "parentPost": "Eu também participei do 3º Desafio GV Intel (Equipe Tetracláveis) e posso afirmar que a experiência foi muito proveitosa.  Todos os contatos e o aprendizado foram de grande valia. Mas o que eu gostaria de comentar sobre a equipe Cedro é que, desde os primeiros contatos nas sessões de mentoring, eles demonstraram uma paixão fascinante pelo projeto, e eu acredito que isso fez toda a diferença. Além de conquistarem o público geral, conquistaram também os investidores. E uma coisa que o Eduardo me disse pouco depois de ganhar o prêmio foi \"Nunca deixe de acreditar no seu projeto e persista em alcançar seus objetivos\". A todos que estiverem lendo isso fica essa lição de vida: SEJAM PERSISTENTES. Parabenizo a equipe Cedro e torço para que, junto à equipe Alkem, representem muito bem o nosso país no torneio mundial.\r\n\r\nUm grande abraço a todos.",
      "parentPostTime": "2008-09-05T04:01:10",
      "parentPostId": "2138696"
    },
    {
      "threadId": "4032724",
      "post": "Deixa de ser invejoso. ",
      "time": "2008-09-02T15:16:35",
      "id": "2004994",
      "parentPost": "Marlmelada da grossa!!!!! Conta outra! Por que desenvolveu uma aplicação só? Com uma empresa dessa por trás ele podia ter desenvolvido 10 aplicações vencedoras: $ 2 750 000!",
      "parentPostTime": "2008-09-02T15:02:15",
      "parentPostId": "2004849"
    },
    {
      "threadId": "3665808",
      "post": "Legal Ismael, espero que você faça bom proveito do conteúdo. Obrigado pelo feedback. Abs.",
      "time": "2008-08-25T20:36:05",
      "id": "1830601",
      "parentPost": "Daniel, eu sou aluno da FGV e assisti uma palestra sua há de 10 dias aqui na GV. Eu só gostaria de falar que me surpreendi com a qualidade do blog e suas informações.....esse vídeos da stanford são algo que eu procuro há muito tempo e nunca consegui achar muita coisa. Obrigado",
      "parentPostTime": "2008-08-25T16:33:52",
      "parentPostId": "1827635"
    },
    {
      "threadId": "3499134",
      "post": "Valeu Leandro! A mentalidade é essa mesmo. Construir algo diferente que possa gerar valor. Nós conhecemos esse mercado e temos uma equipe sensacional (\"a faca e o queijo?\" :)  ).  Se acertarmos com o produto, fechamos o triângulo.",
      "time": "2008-08-22T21:27:48",
      "id": "1736596",
      "parentPost": "Parabéns, \r\né difícil encontrar soluções de qualidade e originais na web brasileira. ",
      "parentPostTime": "2008-08-22T20:11:15",
      "parentPostId": "1735757"
    },
    {
      "threadId": "3439004",
      "post": "Essa parte é fundamental, e as dicas são muito boas. Vale a pena segui-las. abs",
      "time": "2008-08-22T15:14:14",
      "id": "1731989",
      "parentPost": "Opa Daniel,\r\n\r\nNo meu blog, fiz um post sobre uma parte específica do livro A Arte do Começo (muito bom!)... Lá, falei sobre como o Guy sugere que você apresente sua idéia. E acho que ele, como um grande investidor, sabe do que está falando!\r\n\r\nPassa lá.\r\n\r\nAbraços,\r\nAndré\r\nLink: http://empreenderti.blogspot.com/2008/08/apresentando-sua-idia.html",
      "parentPostTime": "2008-08-22T13:23:08",
      "parentPostId": "1730584"
    },
    {
      "threadId": "2579189",
      "post": "É por aí mesmo Marco, obrigado! abs\r\n\r\n2008/8/16 Disqus <>",
      "time": "2008-08-17T14:53:06",
      "id": "1567476",
      "parentPost": "Daniel, \r\ncertamente o capital intelectual é o maior ativo que uma empresa pode ter hoje em dia, atrair e reter talentos para atender melhor o cliente e desta forma gerar lucros(service profit chain) aliado com um HR scorecard bem definido, proposta inovadora e extrutura espartana de custos é uma das várias fotmulas para o sucesso.\r\nO problema está na execução!\r\nParabéns por sua apresentação no YPO.\r\num cordial abraço,\r\nMarco Leone Fernandes\r\nwww.salesolution.com.br\r\n",
      "parentPostTime": "2008-08-16T17:09:11",
      "parentPostId": "1520502"
    },
    {
      "threadId": "2482765",
      "post": "Jacques, gostei da idéia \"análise endógena x exógena\".Isso vale para muita coisa, inclusive para saber a hora de passar o bastão da gestão para um CEO profissional na hora certa, mas isso é outro assunto, deixa para um post futuro...",
      "time": "2008-08-08T01:58:15",
      "id": "1129951",
      "parentPost": "Assim como alguns colocaram, creio que esse papo de idéias x execução e BP está cada vez mais em evidência....E paralelamente, alguns anjos e VCs estão cada vez mais focados em talentos (pessoas tipo A, que podem mudar uma idéia B) do que planos e oportunidades de negócio mirabolantes (Idéia tipo A com pessoas tipo B). \r\n\r\nE pegando carona no que Kleber falou, acho que vale mais uma análise endógena do empreendedor como por exemplo: \"no que eu já sou muito bom e que problemas eu posso resolver com esse meu potencial? \"do que focar no tradicional mindset exógeno como por exemplo: \"Quais oportunidades de mercado (problemas) existem e o que eu preciso saber/ter para explorá-las? \"\r\n\r\nEngraçado que algumas vezes o empreendedor se pergunta onde ele deve abrir o negócio e muitas vezes a resposta está dentro dele próprio, baseado no seu track record e experiência. \r\n\r\nPor experiência própria, tenho visto que a execução hoje é fundamental e tenho chegado a conclusão que ela tem sido a verdadeira vantagem competitiva de algumas startups. E isso nenhuma idéia, por melhor que ela seja, é capaz de criar. E ainda vale essa máxima que li em algum blog: \"Se você acha que as idéias possuem um valor tão fundamental em uma startup, você conhece um mercado onde as pessoas apenas pagam por idéias?\" \r\n\r\nAbraços\r\n\r\nJacques",
      "parentPostTime": "2008-08-07T19:55:06",
      "parentPostId": "1126479"
    },
    {
      "threadId": "2419894",
      "post": "Guilherme,\r\nA fórmula normalmente é baseada no atingimento ou não de alguns \"milestones\" ou metas pré determinados. Ex: Uma empresa em fase de conceito prevê que tal e tal parceiros estratégicos fechem um acordo \"x\" no primeiro semestre de pré-operação. Se o acordo não sai a luz amarela acende. Nesse caso as parcelas de investimento já podem até ser suspensas\r\nOutro exemplo: uma empresa na fase de receitas tem uma previsão de crescer o faturamento em 70% nos próximos 12 meses. Se o crescimento real fica muito abaixo do previsto (só cresce 10% por ex.) a luz amarela também acende.\r\nPara todo novo investimento os VCs estabelecem esses marcos chave e ficam muito encima da execução deles. Os motivos dos problemas são sempre bem analisados para não haver dúvida, mas com disciplina é \"Falhou, dançou...\"\r\n",
      "time": "2008-08-05T15:32:24",
      "id": "1101973"
    },
    {
      "threadId": "2398600",
      "post": "O tema é mesmo paralelo porque não tem a ver com aprendizado, memória, etc.., mas a tendência que impulsiona é a mesma.",
      "time": "2008-08-04T14:21:07",
      "id": "1091508"
    },
    {
      "threadId": "2029358",
      "post": "Geison, pode investir nessa leitura que eu tenho certeza que valerá a pena. As histórias são cheias de lições aprendidas e experiências valiosíssimas. Legal que vc tenha gostado. Abç.",
      "time": "2008-08-04T12:50:56",
      "id": "1090927"
    },
    {
      "threadId": "2342321",
      "post": "A visão de ecosistema da Intel é bem interessante mesmo. Acaba beneficiando alguns projetos que não teriam chance com VCs tradicionais. A performance pode diminuir, mas a contribuição para o todo pode ser maior. ",
      "time": "2008-07-31T21:47:36",
      "id": "1065428",
      "parentPost": "Além disso existe o conflito do investimento interno x externo. Caso você tenha uma business unit interna desenvolvendo uma tecnologia e o braço de VC corporativo decida investir em uma empresa externa concorrente, como você decide?\r\nA atuação da Intel sempre é complementar ao projeto interno dela. Muitas vezes o ROI fica subordinado a questões estratégicas. A Intel Capital, pelo relato do livro \"Open Innovation\", pode investir em uma empresa que alavanque uma tecnologia dela como WiMax. Não olhando para o ROI daquele investimento e sim olhando para todo o ecossitema.\r\n",
      "parentPostTime": "2008-07-31T16:33:26",
      "parentPostId": "1062151"
    },
    {
      "threadId": "2107413",
      "post": "\"ter feito\" não, ainda faz...",
      "time": "2008-07-26T23:09:30",
      "id": "1010837",
      "parentPost": "Parabéns DT e a todos que desde o começo acreditaram na idéia de empreender.\r\n\r\nTenho orgulho de um dia ter feito parte dessa família e dessa idéia.\r\n\r\n[]´s\r\n\r\nLéo",
      "parentPostTime": "2008-07-26T22:45:21",
      "parentPostId": "1010737"
    },
    {
      "threadId": "2092245",
      "post": "Eu tenho acompanhado (e usado) a aplicação da Xobni. A Microsoft tentou comprar os caras (ofereceu $20milhas), mas eles não toparam.",
      "time": "2008-07-26T15:42:07",
      "id": "1008758",
      "parentPost": "Opa Daniel. Acho que respondendo teu comentário no meu blog, comentei sobre publicidade e personalização. \r\n\r\nVárias idéias na lista são um pouco vagas ou quase óbvias, mas algumas são boas para pensar.\r\n\r\nA idéia 28 sobre email é bem interessante. Há um tempo atrás fiz um brainstorming pessoal, pra saber funcionalidades e características de um sistema como esse. Como rankear e-mails importantes? Na época procurei por startups e serviços no estilo e existem alguns, mas boa parte baseia-se muito na boa vontade do usuário pra dizer se um contato é importante ou não.\r\n\r\nAh, vale a pena olhar os Shopping guides, também já fiz mais que um brainstorming em cima dessa idéia hehe.\r\n\r\nAbraço!",
      "parentPostTime": "2008-07-24T03:09:38",
      "parentPostId": "984909"
    },
    {
      "threadId": "2085655",
      "post": "I agree with your advice, we should always give credit to our friends. But you could have made your point  without \"charging\" you friend on public like you just did. \r\n\r\nThe other advice should be: Never ask your friends for credit. Help them because they´re your friends.",
      "time": "2008-07-22T13:31:51",
      "id": "965482"
    },
    {
      "threadId": "1931716",
      "post": "Grande Richard, quanto tempo!\r\nEu tinha curiosidade em saber se esse modelo de duas diretorias funcionaria, pelo que você relata parece que não. Acho que o que você coloca no final é o mais interessante mesmo. \r\n\r\nEu acredito que as corporações poderiam ganhar muito se conseguissem se dividir em pedaços menores, mais autônomos, com o mínimo de centralização possível.  Autonomia e responsabilidade total pelo resultado. \r\n\r\nPor outro lado as startups podem ganhar muito se adotarem o profissionalismo existente na forma de se fazer gestão da maioria das corporações. Mantendo seu espírito empreendedor, mas se organizando seriamente ,a startup pode  gerar frutos bem mais consistentes.\r\n\r\nValeu pelas idéias aqui RD! Abs",
      "time": "2008-07-19T15:37:11",
      "id": "941796",
      "parentPost": "Olá Daniel, tudo bem? ;-) \r\n\r\nSerá que existe um mundo paralelo? Onde uma startup consiga controlar melhor seus \"medos\" e até quem sabe não seja impossivel ter os medianos \"medianos\" na equipe, afinal o barco precisa andar. E por outro lado, uma corporação onde consiga dar a tão sonhada liberdade de inovação e crescer ainda mais com isso. Talvez algo como um \"ciêntista inovador em gestão\"? \r\n\r\nJá estive do lado da startup e hoje estou no lado da corporação. A vontade como sempre é de ir alem. Por aqui chegamos a ter duas diretorias, uma focada no presente e outra no futuro, com gestores diferentes, porem ambas com o mesmo processo e filosofia. Não deu muito certo, claro. Mas buscamos uma forma de manter padroes, processos e manter o barco andando e ao mesmo tempo em um mundinho paralelo, ir além, mudar, alcançar algo diferente. Por maior que seja a vontade, esse mundinho acaba sendo engolido pela corporação, e acho que aí está um dos desafios, assim como uma startup você teria outros desafios para seguir o rumo certo.\r\n\r\nMas no final, acho que cada um tem seu papel. As startups procuram uma forma de inovar, com seus desafios e as corporações outras inovações e outros desafios. Eles não se cruzam, se agregam. E ai se gera um outro desafio: Como uma pode agregar valor a outra, cada uma mantendo seu perfil?",
      "parentPostTime": "2008-07-18T21:33:16",
      "parentPostId": "936978"
    },
    {
      "threadId": "1811583",
      "post": "Gustavo, quem seria o Bruno? ",
      "time": "2008-07-11T21:49:41",
      "id": "870110",
      "parentPost": "Olá Bruno,\r\n\r\nConheci teu blog esta semana e estou gostando do que estou vendo aqui, está de parabéns! Peço, se possível, linkar meu blog por aqui. Creio que nossos públicos são complementares, e acho justo que possam ter esta \"ponte\" entre nossos blogs.\r\nFica aqui o pedido e a dica.\r\nUm grande abraço e sucesso para você!!\r\n\r\nGustavo Periard\r\nwww.sobreadministracao.com",
      "parentPostTime": "2008-07-11T13:38:59",
      "parentPostId": "863970"
    },
    {
      "threadId": "1586335",
      "post": "Jacques, imagina toda essa carga emocional na hora de negociar quanto vale a parte de cada um? Difícil dar certo né? Quando o acordo já existe a própria decisão de sair ou não já é tomada com isso em mente, aí a coisa é bem mais fácil.",
      "time": "2008-07-05T01:05:37",
      "id": "816296",
      "parentPost": "Daniel,\r\n\r\nRealmente esse momento é bastante delicado (falo por experiência) pois durante a fase de start-up os laços entre os sócios são muito próximos e enraizados em princípios de amizade e confiança acima de tudo. \r\n\r\nMesmo havendo um contrato social que reze as cotas de cada um, o que move o empreendimento é a visão de futuro destes sócios que estão mais preocupados em resolver um problema de mercado  e ganhar dinheiro do que ficar se preocupando com o valuation de suas cotas/ações ao longo do tempo. E durante esta trajetória, os laços de amizade e confiança tendem a estreitar-se e em sendo assim, tudo aquilo que é feito na sociedade tem que acima de tudo fazer sentido para todos que a compõem. Por isto, quando o sócio sai, não está em jogo apenas cotas que serão vendidas e compradas, mas sonhos e estórias que só aconteceram com aquele quadro societário.\r\n\r\nMas deixando de lado esta visão um pouco \"romântica\", quando há a separação ela deve ser sóbria e benéfica principalmente para a Ltda ou S.A. Falo isto pois já vivi uma situação como esta que um ex-sócio chegou a conclusão que quem estava freiando o desempenho/velocidade da start-up era ele e o mesmo decidiu partir. Foi difícil no início mas vi que foi a melhor decisão a ser tomada. \r\n\r\nAchei bem legal ( inclusive já anotei) o seu formato de composição de cotas que você emprega em suas empresas. Você me lembrar disto em minha outra start-up.\r\n\r\nabraços\r\n\r\nJacques",
      "parentPostTime": "2008-07-04T19:35:04",
      "parentPostId": "815184"
    },
    {
      "threadId": "1464692",
      "post": "Interessante essa visão de \"resgate\" ou \"indas e vindas\". Eu não consigo enxergar tanto a volta, pra mim é mais mesmo \"passagem só de ida\". De qualquer forma concordamos com as implicações disso e para onde estamos indo. Nunca foi tão barato empreender com aplicações web. Isso se você souber aproveitar a oportunidade, é claro!",
      "time": "2008-06-30T13:10:58",
      "id": "780803",
      "parentPost": "Oi Daniel !\r\n\r\nAinda acho que este \"hype \" da cloud computing retrata um pouco das \"indas e vindas\" dos ciclos de tecnologia. Digo, isto basedo em um artigo que li no Om Malik (http://gigaom.com/2008/06/25/bursting-the-cloud-bubble-five-reasons-its-not-just-hype/) e reproduzo alguns pontos importantes:\r\n\r\na) Em um primeiro momento,o processamento (CPU) era o item mais valioso de TI e o RH era barato.\r\n\r\nb) Anos depois com o barateamento da CPU, o que era caro era rede e storage pois as CPUs estavam mais ociosas mas a rede era bem utilizada devido ao paradigma cliente-servidor;\r\n\r\nc) Com a Web, cai o preço da rede e de storage e o foco agora é em RH (muito caro em alguns casos). Agora surge a \"nuvem\"  que traz mais desafios e mudanças de paradigmas:\r\n\r\n1) Consumo de energia: hoje é mais caro manter um parque de servidores do que comprá-los (TCO);\r\n\r\n2) Demanda global: O storage por ele mesmo é barato. O problema será a escala de processamento destas nuvens haja vista que o acesso não é apenas de desktops mas de dispositivos móveis e sem fio como notebooks, celulares, smartphones etc\r\n\r\n3) Aplicações web: As nuvens permitem alto grau abstrações de aplicações na Internet, pois já disponibilizam todo o ambiente de desenvolvimento.\r\n\r\n4) Experiências e testes: Com as nuvens o custo de criação do ambiente de desenvolvimento e de deploy é mais barato e de rápida implementação. Isto facilita a criação de startups web.\r\n\r\nBom, apesar de ver o \"cloud\" como um resgate do que foi um pouco do legado de mainframes de antigamente, vejo com bons olhos principalmente para startups pois terão condições de ter acesso a APIs, servidores, banda etc a um custo justo (on demand). inclusive, acredito que muitos investimentos (VC e angels) poderão ser aplicados em empreendimentos que desenvolvam plataformas ou aplicativos para estes fins.\r\n\r\nAbraços\r\n\r\nJacques",
      "parentPostTime": "2008-06-30T02:04:00",
      "parentPostId": "776070"
    },
    {
      "threadId": "1423134",
      "post": "A idéia é melhorar o modelo. Pode dar bastante trabalho, mas estamos aqui pra isso. Valeu!",
      "time": "2008-06-27T20:15:06",
      "id": "764953",
      "parentPost": "Opa Daniel! Achei uma boa idéia! Eu mesmo passei por maus bocados ultimamente com CallCenter de empresa de celular... hehe\r\nAcho que isso tem que melhorar de alguma forma.\r\n\r\nEspero que o Beezzer esteja aí pra isso.\r\n\r\nAbraço e Parabéns!",
      "parentPostTime": "2008-06-27T01:02:44",
      "parentPostId": "758727"
    },
    {
      "threadId": "1148898",
      "post": "Pois é, tem maluco pra tudo!",
      "time": "2008-06-20T02:54:17",
      "id": "712088",
      "parentPost": "Caramba Daniel...pelo menos é engraçado de tão louco!\r\nE o que foi aquilo com o papel higiênico?! rsrsrsrsrsrs\r\nNo comments....\r\n\r\nNossa, incrível como tem pessoas desesperadas em acreditar em qualquer coisa!\r\n\r\nbjos, Bia.",
      "parentPostTime": "2008-06-11T15:28:02",
      "parentPostId": "637480"
    },
    {
      "threadId": "1279970",
      "post": "Esse post tinha duas intenções, questionar o valuation (que foi o lado que você destacou) e ouvir os investidores no video. A melhor explicação que eu vi para o valuation até agora foi a  comparação com os números da Xing.com - que é parecida com o LinkedIn e tem números abertos já que é listada em Frankfurt. O market cap é de aprox $300milhões e eles tem 5,71mi de usuários (isso dá uns $52 de valor por usuario) eles faturaram 11,6mi no primeiro tri de 2008. (o que daria $0,67 por mês por usuário) Se vc usa esses parametros para os 20milhões de usuários do LinkedIn, vc chega em $1,04bi de valuation. Se o faturamento for mesmo de $100milhões o valuation estaria alto porque o faturamento mensal por usuario do LinkedIn seria de apenas $0,40 por mês por usuário. Ou esse faturamento por usuário cresce logo ou a barganha começa a derreter...",
      "time": "2008-06-20T02:50:25",
      "id": "712060",
      "parentPost": "Daniel,\r\n\r\n\r\nAté hoje me questiono sobre estas questões de valuation (pre e pos) e cada vez que leio (e olha que uso várias fontes desde blogs de VC a artigos acadêmicos) e agora vendo uma notícia desta, fico ainda mais surpreso. Até por que este valuation do LinkedIn é baseado nos fluxos de caixa futuros que de fato este produto pode trazer para a startup e assim remunerar seus investidores. Concordo que o site tem um consistente track record e uma equipe excelente mas observando outros sites de rede social e outras startups ( geração 1.0 e 2.0) um valuation de 1 bi realmente é um fato e se pensar bastante. Lendo outra fonte (http://venturebeat.com/2008/06/17/confirmed-linkedin-raises-funding-to-buy-smaller-companies-before-it-goes-public/) essa notícia começa a fazer sentido pois o valuation foi baseado também no fluxo de caixa atual que está em torno de 100 milhões ano, ou seja 10x. Isolando a cifra de 1 bi, creio que este valuation foi pertinente para uma empresa situado no SV até por que parte do dinheiro deverá ser utilizado para compra de outras startups menores e assim aumentar a carteira de usuário de forma rápida. Mas mesmo com estas informações ainda tenho outras questões...\r\n\r\nAbraços a todos\r\n\r\nJacques Chicourel\r\n",
      "parentPostTime": "2008-06-19T14:54:17",
      "parentPostId": "707027"
    },
    {
      "threadId": "1223387",
      "post": "Agindo sempre ativamente, sem resmungo ou lamento. A sorte dá o brilho que falta. Valeu pelo comentário aqui, muito bom.",
      "time": "2008-06-19T01:14:06",
      "id": "703856",
      "parentPost": "Este lance de sorte definir as coisas é controverso. É que nem simpatia, só acredita quem obteve a graça. Sorte é oportunidade e preparo somados a uma boa dose de determinação. Oportunidade conquista-se e preparo também, já determinação são os \"tapas na cara\" que te farão concluir: tenho que mudar a fim de parar de apanhar. Sobre a busca de VCs e capital para alavancar negócios inovadores particularmente acho que antes destes (mesmo que seja o angel do sogro ou do papai), você tem que definir onde e como quer chegar senão, enebriado, você apaga a centelha da ousadia e da inovação, a grana acaba e babau! Uma coisa é certa: se na fórmula do sucesso há sorte, certamente não há improviso. Parabéns pelo post e pela qualidade dos coments. A.Guilherme, TOP MOVIE, Seu Melhor Filme!",
      "parentPostTime": "2008-06-18T23:19:31",
      "parentPostId": "703199"
    },
    {
      "threadId": "2430524",
      "post": "Vruz,  how about the thinking of the web as the global nervous system, an extension of our own when we´re connected? The first thing that seems to be drifting fast to the collective system is memory and I wont go deeper into that here. But then what is next? How about our ability to act just like our nervous system does whenever any spot of our body sends a signal that something is wrong? In Clay Shirky´s book \"Here comes everybody\" he describes several cases of connected collective action.\r\nModernism created the illusion of the author, separated from the collective. Now this illusion is fading and the collective takes over. The risk of totalitarianism is high, but just as great is the opportunity to produce wikipedia likes with what Shirky calls \"our cognitive surplus\".\r\n",
      "time": "2008-06-18T21:23:52",
      "id": "702511",
      "parentPost": "the 'means of production to the people' thing rings close to the marxist reading wmfischer commented about earlier in the beggining of this thread.\r\n\r\npart of the discussion is precisely about the vacuity of the content.\r\nteenagers have been producing poetry and other art of great intensity but little direction for ages.\r\nthe whole purpose of it being self-expression.\r\nno new ideas, even though it feels like they're new, because everything is new when you're 14.\r\nthey just have to get it out. no matter how. no matter what.  \r\nI was there and almost every teenager will be in a similar situation.\r\nit has happened to every generation since we were granted the right to read and write.\r\nnew ideas and substantial works aren't normally developed at an early age, judging from statistics.\r\n\r\nof course there are a few exceptions that confirm the rule.\r\nI'm a big fan of Isidore Ducasse (Lautŕeamont)  and I'm a friend of Christian Neukirchen, the guy who invented tumblelogs when he was 16, and then there's Karp who started tumblr at age 17, or Zuckerberg starting Facebook as a business at an early age.\r\n\r\nbut not everyone can afford being little geniuses, the vast majority of us have to work our asses off to gain a depth of understanding and discernment that is uncommon to teenagers.\r\n\r\nthe question is... is this all we're gonna be ?\r\nis this all we're going to produce ?\r\nwill this be the most representative body of work of humanity in the coming decades ?\r\n\r\ndon't we have an ethical obligation to do better and encourage a true development of the real potential ?\r\n\r\nor are we to be like lazy lousy parents letting them have their way so they get an easy instant gratification and they don't annoy us much  ?\r\n\r\ncan we do better ?\r\n ",
      "parentPostTime": "2008-06-17T00:38:00",
      "parentPostId": "688012"
    },
    {
      "threadId": "1158480",
      "post": "Great Post! One may \"know\" a lot about an online person, but what use is this \"know\" without context? I know where you had lunch, but why and how were you there? Information without meaning is just an extension of our online nihilism.",
      "time": "2008-06-11T21:14:14",
      "id": "640400"
    },
    {
      "threadId": "882208",
      "post": "Olá Max, Pena que não deu para você usar. Te recomendo um outro artigo do Blog Dinheirama http://dinheirama.com/blog/2007/05/28/imovel-comprar-ou-alugar/\r\n",
      "time": "2008-06-09T12:39:46",
      "id": "621260",
      "parentPost": "Tá e aí? Como é que usa esse troço? Podia pelo menos explicar, afinal várias pessoas não conhecem inglês.\r\n\r\nFazer um post só pra postar uma bobagem dessas não acrescenta. Se pelo menos explicasse como funciona a ferramenta...",
      "parentPostTime": "2008-06-09T12:00:30",
      "parentPostId": "621127"
    },
    {
      "threadId": "1063265",
      "post": "O GV-Intel é um belo exemplo mesmo. Todas as idéias foram expostas para muita gente, os empreendedores tiveram muito feedback e até hoje não fiquei sabendo de nínguem que teve a ideía copiada.",
      "time": "2008-06-06T13:10:58",
      "id": "606646"
    },
    {
      "threadId": "960124",
      "post": "Gostei da definição, e escolher é decidir, é isso aí. Não é nada fácil, mas se fosse também não teria graça, não é?",
      "time": "2008-06-06T01:56:14",
      "id": "604598",
      "parentPost": "Oi Daniel,\r\n\r\nConcordo com o que você falou e creio que há uma supervalorização do planejamento do estratégico (PE) em relação a estratégia propriamente dita. No que tange as startups, muitas se perdem no BP (geram até coleções de versões de BP, acredite!) ao invés de focar no item que você colocou :  Execução. Pelo que tenho visto em competições de empreededorismo que já participei, lendo blogs e analisando alguns cases que receberam funding, boa parte teve foco na estratégia ( Decisão do mercado, o que fazer ou não e outras coisas que disse ) mas acima de tudo se preocuparam com a execução. Se você parar para pensar, muitas vezes a startup não tem uma boa estratégia, mas o time é tão bom na execução que consegue reverter o quadro. Embora a recíproca não seja verdadeira.\r\n\r\nOutra coisa que queria comentar que muitas vezes o PE foca demais no design de cenários e despreza o presente operacional, como se fosse algo não tão sofisticado.Conheço muitos gerentes de marketing que adoram campanhas, slogans e posicionamentos mas a vendas (execução) é sempre função do comercial, o que é um equívoco. Inclusive nos cursos de MBA se valoriza muito o papel do PE mas para startups as vezes isto pode representar um overhead desnecessário. E por fim, gostaria de deixar a melhor definição de estratégia que já li : \"Estratégia é escolha\" ( Michael Porter) \r\n\r\nAbraços\r\n\r\nJacques",
      "parentPostTime": "2008-06-06T00:13:17",
      "parentPostId": "603916"
    },
    {
      "threadId": "44397474",
      "post": "I´ll add my personal view that happens to be skewed by different circumstances (I´m an entrepreneur in Brazil). I´ve founded more then 10 companies here in Brazil and have had local venture capital in most of them. Openness has always been key to me on my relationship with the local VC industry.  Why? Because it is the basis of trust, and if there´s no trust in a place like Brazil things simply don´t work. Absolute transparency, that´s how I live by down here.",
      "time": "2008-06-04T15:17:08",
      "id": "589822"
    },
    {
      "threadId": "1017189",
      "post": "For a better understanding of the region I suggest you breakdown Latin America in the two main and distinct sub regions (Brazil and the Spanish speaking countries). Look at them separately. They don´t mix in social media.  Different languages, different culture. When you mix everything together you get something very weird. ",
      "time": "2008-06-03T22:14:50",
      "id": "583202"
    },
    {
      "threadId": "2431093",
      "post": "I think the \"1% are creators\" is a backward looking definition (into social media) that will crash. I agree with your vision and believe that we have to admit that it takes time to new stuff to sink in culturally. How much time? Too difficult to tell, but  everyone is a creator, we just haven´t found all the ways and mediums for them to participate. If we focus on Antman´s questions we´ll probably figure it out sooner than later.",
      "time": "2008-06-03T19:42:48",
      "id": "581759"
    },
    {
      "threadId": "744846",
      "post": "Sure, Jason took care of this for me a few days ago, see his e-mail bellow.\r\nI thanked him for the great service.",
      "time": "2008-05-22T22:14:03",
      "id": "513700",
      "parentPost": "Might I asked what the outcome was - and what can be done to prevent such things happening in the future? :)",
      "parentPostTime": "2008-05-22T18:29:36",
      "parentPostId": "511966"
    },
    {
      "threadId": "723808",
      "post": "It´s not necessarily a problem when you understand the context of where this is happening. Here in Brazil it´s almost the norm to copy some successful American web service. Like Lukasz said in the video, we don´t have all the risk taking backed by a huge VC community, so you have to show to investors something that is already working somewhere else in the world.\r\nI believe that once we develop the kind of culture and structure more like California, we might have a better chance at being even more innovative. We have the brains for it for sure.",
      "time": "2008-05-16T14:51:20",
      "id": "477477"
    },
    {
      "threadId": "744795",
      "post": "Legal a tua visão, você separa a atitude ou ação empreendedora da personalidade ou das competências do sujeito. Posso entender isso como sendo bem a favor de todos poderem empreender? Não é preciso nascer com um talento especial na tua opinião, certo?",
      "time": "2008-05-12T18:32:08",
      "id": "451757",
      "parentPost": "Daniel, eu sempre acompanhei essa discussão de empreendedorismo... o cara nasce ou pode se ensinado?\r\n\r\nMas hoje, com toda minha experiência de 25 anos :)  ... eu vejo que essa pergunta talvez não exista. O que eu vejo hoje é que não existe pessoa que \"é\" / \"está\" empreendedor ou \"não é\" / \"não está\".\r\n\r\nPara mim o ato de empreender está além da polaridade a OU b, me parece que existem dezenas de jeitos de ser empreendedor, alguns que precisa nascer com isso, outros que só passando por grandes corporações como executivo, algumas pessoas sao mais empreendedoras dentro de empresa que muitos com empresa própria.\r\n \r\nSe partimos do principio que empreender é algo extremamente particular e depende do contexto, fica impossível definir sua causa. Mas sim, que qualquer um a qualquer momento pode acessar o \"ato de empreender\" em alguma das suas dezenas de formas que conseguir, que sua estrutura permitir.",
      "parentPostTime": "2008-05-12T17:29:34",
      "parentPostId": "451381"
    },
    {
      "threadId": "2432261",
      "post": "The e-mail feature is great. It makes conversations happen faster and gives mobility to them.",
      "time": "2008-05-10T15:42:35",
      "id": "443035"
    },
    {
      "threadId": "742234",
      "post": "Pelo menos já provamos que ele é realmente polêmico! É difícil afirmar se ele pensa mesmo nos investidores ou só no dele, mas eu fico com essa percepção de que ele percebe a importância de uma associação saudável e construtiva com os investidores. Ele é ambicioso e sabe que para construir os projetos grandiosos que ele almeja, ele vai precisar do mercado apoiando. Veja que essa visão não tem nenhum romantismo, não acho que ele faz isso por um senso ético, mas por pragmatismo puro.\r\n ",
      "time": "2008-05-07T22:21:52",
      "id": "429334"
    },
    {
      "threadId": "621588",
      "post": "I think it´s more a matter of when than if it will ever get mainstream. The timing is always tough, but I believe all these services are aiming at the general user needs, not just the geeks.\r\nThe geeks are the ones paving the path, so they´re the ones chatting and making the noise, but almost most of the services I see are actually simple and don´t require a geek to handle.\r\nI think investors and entrepreneurs are anxious for mainstream status but these thinks take time.  What sounds geeky today comes built-in in the next generation and so on.\r\n",
      "time": "2008-05-06T22:36:39",
      "id": "423290",
      "parentPost": "but who is 'you', given that in my post I slide in the point that maybe anything but the most basic UGC is an inherently geeky thing and that Web2.0 is a geek fad but isn't going mainstream...\r\n\r\nas an aside, Patrick at Broadstuff just made an interesting point along those lines: http://broadstuff.com/archives/911-Navigating-the-fitness-landscape-of-Chasm-2.0.html ",
      "parentPostTime": "2008-05-06T21:57:30",
      "parentPostId": "423076"
    },
    {
      "threadId": "744787",
      "post": "Vamos ver se os empreendedores se animam por esse caminho, acho que será até natural.",
      "time": "2008-05-06T13:38:21",
      "id": "420495"
    },
    {
      "threadId": "752600",
      "post": "Eu continuei pensando bastante sobre isso e até já publiquei hoje um novo post envolvendo a wikipedia. A diferença maior parece estar mesmo na forma de se encarar a \"mídia\". Se ela deve ser produzida apenas por quem é o \"dono\" da verdade para que os outros possam consumi-la, ou se a sociedade como um todo pode participar do triathlon de mídia: produzir, consumir e compartilhar.",
      "time": "2008-05-01T23:41:39",
      "id": "404899"
    },
    {
      "threadId": "565480",
      "post": "I agree with the signal to noise and river of info problems.  To add another spice to this I would refer to the post Jason published on the 37signals blog \"Osmo Wiio: Communication usually fails, except by accident:\r\n\r\n\"And I particularly like his observation that anytime there are two people conversing, there are actually six people in the conversation:\r\n\r\n   1. Who you think you are\r\n   2. Who you think the other person is\r\n   3. Who you think the other person thinks you are\r\n   4. Who the other person thinks he/she is\r\n   5. Who the other person thinks you are\r\n   6. Who the other person thinks you think he/she is\r\n\r\nAll this meaning that you have no actual control as Pete wants in his comment.\r\n",
      "time": "2008-04-30T07:09:59",
      "id": "396201",
      "parentPost": "never used it, so can't personally comment.\r\n\r\n But if it does, it further confirms my viewpoint that the personal blog is an increasingly limited/redundant place to build/host your identity, versus profiles on aggregators of what you're doing web-wide. I chose to focus on discussion and dialogue, firstly because it's simple to understand the difference between doing it centralised on your own blog with trackbacks to others (blog to blog level conversation) and decentralised but aggregated conversation platforms; secondly because it lead to the second part of my post, thinking about conversations as social objects/magnets just like the minifeed on Facebook and Friendfeed are. So on both aspects you're right to bring up friendfeed. As for it being better or worse - it would be difficult to answer that objectively; it's a broader oversight of an identity but may be prone to signal/noise and river of info problems which just looking at someone's conversations, is not. Horses for courses; I guess it depends if what photos someone just flickered is relevant to what you want to know about them.",
      "parentPostTime": "2008-04-30T03:58:08",
      "parentPostId": "395837"
    },
    {
      "threadId": "2434590",
      "post": "Social Enterprise Software is not an oxymoron, it´s just the wrong way to address the problem. The problem (for the enterprise) is that individuals now own much more stuff (information, relationships, credibility). From a corporate executive´s point of view it´s like trying to hold water with your bare hands, it will slip through your fingers. Enterprises are just a bunch of people trying to work together. If people are getting used to collaborate on the web they will use these habits to get their jobs done.\r\nThe enterprise should not want to replicate social tools inside the firewall because the enterprise is not the owner of individual´s relationships. It´s how people are getting  things done that is changing. The enterprise must adapt management practices, not software. Come in the consultants..\r\nAdoption of these tools inside the enterprise might be very clumsy when led by corporate IT departments with a \"defend my job agenda\" but can be smooth if led by people who actually know how to deal with these tools.  I believe there is a huge market for consultants to help companies to figure out what and when to adopt (how to let people use) different new tools. Great conversation and excellent subject!",
      "time": "2008-04-29T22:55:44",
      "id": "394780"
    },
    {
      "threadId": "756742",
      "post": "O baixinho foi rápido no gatilho, ficou digitando o nome do irmão e mandou ver no publish...\r\n",
      "time": "2008-04-25T14:12:10",
      "id": "379102"
    },
    {
      "threadId": "470143",
      "post": "Você deu uma boa enriquecida no post com tua experiência. Gostei da última frase, sensacional!",
      "time": "2008-04-17T12:14:01",
      "id": "346409"
    },
    {
      "threadId": "452201",
      "post": "Jacques,\r\nEsses artigos estão bem alinhados com a visão que eu coloquei aqui. Muito legal, obrigado pela contribuição. É interessante ver que os caras chegam até a calcular a média baseado nas empresas que tiveram sucesso. ",
      "time": "2008-04-13T21:18:18",
      "id": "331771"
    },
    {
      "threadId": "436979",
      "post": "Valeu Allan! ",
      "time": "2008-04-12T14:21:53",
      "id": "328497",
      "parentPost": "Tá muito legal essa sequencia de posts! Parabens!\r\n\r\nAbraço",
      "parentPostTime": "2008-04-12T04:20:36",
      "parentPostId": "327821"
    },
    {
      "threadId": "748477",
      "post": "Acertar o timing das coisas é bem mais complicado. A maioria admite que não é possível prever o quando, mas apenas o que deve acontecer. Ele também não chegou a arriscar um palpite muito exato sobre quando a crise terminará, mas disse que em 2 anos a regulamentação dos Hedge Funds e sobre as operações estruturadas deverá estar bem diferente do que é hoje. Pelo o que eu tenho acompanhado de outras fontes, acho muito dificil  que antes de 2009 a coisa tenha se normalizado completamente.",
      "time": "2008-03-27T17:25:24",
      "id": "271010"
    },
    {
      "threadId": "337040",
      "post": "Grande Estevam! Estava contando com a tua colaboração aqui já que você tem uma experiência muito bacana nessa área. Você deu mais exemplos de franqueados que puderam contribuir com o modelo e eu acho que esse deve ser um ponto crucial para um empreendedor que deseje usar o método de um franqueador. A pergunta para o franqueador seria: O quanto o seu modelo poderá ser adaptado face as constantes mudanças do mercado, ou das necessidades dos clientes? Se a resposta dele for \"nada, não quero mudar\", então aí eu recomendaria cair fora. Mas se a resposta for diferente o caminho pode ser bom.",
      "time": "2008-03-26T19:32:41",
      "id": "267470"
    }
  ],
  "profileInfo": {
    "username": "dsheise",
    "about": "",
    "name": "dsheise",
    "disable3rdPartyTrackers": false,
    "isPowerContributor": false,
    "isAnonymous": false,
    "rep": 1.295116,
    "profileUrl": "https://disqus.com/by/dsheise/",
    "url": "http://aprendendoempreendendo.com",
    "reputation": 1.295116,
    "location": "Sao Paulo, SP Brazil",
    "isPrivate": false,
    "signedUrl": "http://disq.us/?url=http%3A%2F%2Faprendendoempreendendo.com&key=uvfOUFmapBxAfFUtYNjXXA",
    "isPrimary": true,
    "joinedAt": "2008-03-18T22:01:35",
    "id": "15129",
    "avatar": {
      "small": {
        "permalink": "https://disqus.com/api/users/avatars/dsheise.jpg",
        "cache": "//a.disquscdn.com/uploads/users/15129/avatar32.jpg?1281549414"
      },
      "isCustom": true,
      "permalink": "https://disqus.com/api/users/avatars/dsheise.jpg",
      "cache": "//a.disquscdn.com/uploads/users/15129/avatar92.jpg?1281549414",
      "large": {
        "permalink": "https://disqus.com/api/users/avatars/dsheise.jpg",
        "cache": "//a.disquscdn.com/uploads/users/15129/avatar92.jpg?1281549414"
      }
    }
  }
}