{
  "comments": [
    {
      "threadId": "283491588",
      "post": "I remember *somebody* filming the presentations on Sunday night, but can't recall who. Maybe Josh Maher?",
      "time": "2011-04-19T17:20:35",
      "id": "187751433",
      "parentPost": "We're trying to find footage of Tom's \"Obey the Decider\" pitch from Seattle Startup Weekend 2. If anyone has any thoughts on where it might be, post a note in this comment thread.",
      "parentPostTime": "2011-04-19T17:11:35",
      "parentPostId": "187737823"
    },
    {
      "threadId": "268684525",
      "post": "#golfclap",
      "time": "2011-04-01T19:12:05",
      "id": "176378233"
    },
    {
      "threadId": "258021485",
      "post": "That's nothing. SEOmoz in Seattle is offering a $12k referral for both the referrer and the employee (http://www.seomoz.org/blog/wanted-software-engineers-reward-12000). And it's only getting more difficult with bay area companies opening development offices up here. ",
      "time": "2011-03-19T22:41:55",
      "id": "168345782"
    },
    {
      "threadId": "127915295",
      "post": "One of the reasons I was thinking of doing this is our load won't be evenly distributed due to an existing unique index on a serial value. One shard will be very write-heavy, while the others will have occasional reads scattered across them. \n\nYour comment definitely makes sense, though, and I'll have to think through some more before making the final decision. Thanks!",
      "time": "2010-11-16T03:02:27",
      "id": "97701038",
      "parentPost": "This setup is more risky than I'd want to run in production.  If one server goes down, you'll have twice the load on one of your remaining servers, which might lead to it being overloaded.  Think through what the risks are you want to take and how much load your servers are capable of handling.  If you have shards on overlapping servers (shard1 and shard2 share server1 and server2), you're potentially doubling the load on one of your servers and if server1 and server2 are in the same failure domain, you could end up with 2 shards down at once with no backup.",
      "parentPostTime": "2010-11-15T16:30:03",
      "parentPostId": "97462379"
    },
    {
      "threadId": "168348970",
      "post": "Wait, putting on weight isn't part of the startup life? Man, I've been misled! <br><br>Thanks for the reminder, mostly because it's good to know I'm not alone in putting every waking hour towards the startup. I've personally been trying to hit the sack before midnight but (obviously) not succeeding very well at that. 1am rolls around and I'm still cranking and for every hour I go to sleep after midnight is 2 hours past 7am that I wake up. The answer? Got me. The only thing that comes close is making sure we try to force those damn healthy aspects of life upon us. ;) I think Grant has a great idea that we can drive each other to be more healthy. I've been running more lately, let's try to get a schedule going!",
      "time": "2010-11-07T11:21:56",
      "id": "94717868"
    },
    {
      "threadId": "145545042",
      "post": "You mention the following:\n\n\"An index on ingredient can and should be eliminated if you have a second index on ingredient→cuisine.\"\n\nIs this still true if you have an index on cuisine→ingredient? I know it wasn't in pre-1.6, but the docs mention this for 1.6.x:\n\n\"Now you can also use the compound index to service any combination of equality (and some inequality) queries from the constitute fields.\"\n\nI'm not entirely sure what that means, but it sounds like the index can be in any order?",
      "time": "2010-09-27T22:33:54",
      "id": "81370764"
    },
    {
      "threadId": "129019355",
      "post": "Hi Andrew - at the moment we only track Twitter and Facebook, but we're looking at the best way to expand that reach. We realize coverage is extremely important. The boolean setup is pretty slick and very easy to set up to require or exclude different words/phrases in the tweet. And while we haven't added sentiment, it's on the radar. We're still evaluating solutions that are more effective than some of the others that easily miss things like sarcasm and slang. <br><br>Sign up, take a look a look around, and we'll keep you posted!<br><br>Damon (@dacort) from RowFeeder",
      "time": "2010-08-13T16:48:36",
      "id": "68539895",
      "parentPost": "Great idea, but I wonder about filtering ability, the number of sites that are searched, sophistication of boolean setup, and if there includes sentiment monitoring/measurement. ",
      "parentPostTime": "2010-08-13T14:36:30",
      "parentPostId": "68512424"
    },
    {
      "threadId": "63352535",
      "post": "Hi Matthew, thanks for the kudos. It's much appreciated, we've put a lot more effort into RowFeeder lately. \n\nAs for billing - we ended up going with Recurly. Truth be told, though, were I to make the choice right now I would likely go with Chargify. They've been charging ahead (pun intended) with new features based on user feedback. Recurly is in a bit of a state of flux right now and it isn't clear what their pricing plan is going to be.",
      "time": "2010-06-06T03:07:19",
      "id": "54959129",
      "parentPost": "Damon: Loving the new version of RowFeeder. What billing solution did you end up implementing? I kept scrolling farther down the comments hoping to cut to the chase but was left hanging! Please do tell...",
      "parentPostTime": "2010-06-06T02:56:31",
      "parentPostId": "54958438"
    },
    {
      "threadId": "103984419",
      "post": "Definitely - I know Gowalla had a pretty interesting deal with Adobe where they dropped \"virtual\" copies of CS5 in different locations that you could win when you checked in. I'm not sure how many other similar deals they've struck, though. The complexity of passports, and picking up/dropping off items with no real purpose was also confusing to me.",
      "time": "2010-06-03T17:46:13",
      "id": "54127354",
      "parentPost": "Foursquare has won on getting more brand awareness through the deals they have brought in (i.e. Starbucks, Bravo TV, History Channel, Zagat, HBO, Warner Bros, deals with cities, etc.). Also, users have incentives to checkin since businesses have started to adopt it as a marketing channel to draw more business w/ the unique deals they create.",
      "parentPostTime": "2010-06-03T17:37:21",
      "parentPostId": "54124617"
    },
    {
      "threadId": "93442060",
      "post": "Hi Ellie - one thing to note is that even if you send  FourSquare checkin to Twitter, you still have to have location enabled on your Twitter profile for the GPS coordinates to show up. That said, it's still possible to pull geo-coordinates by looking up the FourSquare venue.\n\nLocation is not enabled by default on Twitter, so adoption will be slow, but it's nice that they make it an opt-in.",
      "time": "2010-05-13T16:35:37",
      "id": "50136267",
      "parentPost": "Only 1% of tweets were geo-tagged? That is surprising. I'm clearly missing something about platform connectivity, because I'd assumed non-GPS type LBS e.g. FourSquare but not Gowalla, could be shared on Twitter. Obviously, I'm not familiar with FourSquare as a user!\r\n\r\nBut you get around the issue very nicely with your geo-normalization. Y'all at untitled startup do some very fun things with social media data! BTW, in case you didn't know already, you received a high-profile link and compliment on Mashable due to the forced-accept bug on Tweet incident today.",
      "parentPostTime": "2010-05-13T08:05:53",
      "parentPostId": "50060699"
    },
    {
      "threadId": "68759993",
      "post": "Additional @RowFeeder features we're currently considering/working on:\n\nExport straight to Excel/HTTP/other, remove Google from the equation\nGeo-normalizaiton/filtering of tweets (filtering exists, adding location)\nAggregate stat tracking\nCustom per-client pre-processing",
      "time": "2010-04-27T04:36:13",
      "id": "46866705"
    },
    {
      "threadId": "69208264",
      "post": "Shannon Whitley (@swhitley) has a tool to do this for your friends/followers, but not for lists (yet? ;)). More details here: http://www.voiceoftech.com/swhitley/?p=882",
      "time": "2010-04-27T03:16:23",
      "id": "46857070",
      "parentPost": "Yes, if I could get it as an OPML file :)",
      "parentPostTime": "2010-03-03T23:47:20",
      "parentPostId": "37874737"
    },
    {
      "threadId": "87680618",
      "post": "Just Apple's spreadsheet app, Numbers. Leave it up to them to make stuff look great.\n\nBy the way, if you want some of the raw #chirp/@chirp data to analyze yourself, just let me know. Happy to share - there's the spreadsheet I linked above, but that doesn't have app data.",
      "time": "2010-04-20T20:09:04",
      "id": "45713043",
      "parentPost": "Very interesting stuff. I especially like the time-based analysis. Wish I'd thought of running that analysis!\n\nWhat did you use to build your graphs? They're nice and crisp. Are those regular old Excel graphs and I just don't recognize them?\n\nThanks for the link back to my original work, too. :)",
      "parentPostTime": "2010-04-20T17:47:27",
      "parentPostId": "45686838"
    },
    {
      "threadId": "73474066",
      "post": "Yea, it's unfortunate that Twhirl is no longer supported/being developed. That used to be my favorite Twitter client. \n\nI wish more clients supported custom API endpoints like Tweetie 2 does. If that happened, I'd have more motivation to build up the little thing I cranked on to remove sxsw, foursquare, and gowalla tweets.",
      "time": "2010-04-07T21:21:56",
      "id": "43725325",
      "parentPost": "Lately I've been using Seesmic's Twhirl on the desktop, and really loving its filter, even if it's a bit cumbersome to use. It works for positive terms or negative ones, so right now my search term is \"-ipad -ff -followfriday -beiber -twittascope\". It would be absolutely amazing to be able to point a twitter client at an API that tackles all of this for me. I think it would also tie in nicely with the modular twitter client idea someone on here had.",
      "parentPostTime": "2010-04-07T20:27:41",
      "parentPostId": "43712983"
    },
    {
      "threadId": "76845952",
      "post": "Hah, good point. This was made even worse that TweetStats originally scraped the Twitter.com website and Twitter had a tendency to make changes to the website on Friday nights. \n\nSo there'd I'd be at 5pm ready to head out of the office, and some major change would get deployed. Ah, good times.",
      "time": "2010-03-20T20:19:10",
      "id": "40692504",
      "parentPost": "There's also the phase of Twitter replacing features you just released and having to deal with it, but I agree with your steps.",
      "parentPostTime": "2010-03-20T20:15:46",
      "parentPostId": "40692267"
    },
    {
      "threadId": "76111365",
      "post": "I know right where you are. I spent the past two years even just figuring out exactly what it is I want to be doing. It's been a long process of \"do what you love and the rest will follow,\" but ultimately rewarding. ",
      "time": "2010-03-16T05:55:05",
      "id": "39982278",
      "parentPost": "Nice. Right where I'm at with my ventures. Note I used 'my' as it's just me however I'm looking toward an additional person, and hopefully some investor prospects soon.\n\nGood stuff guys. I'm looking forward to seeing just where all this is going to go for all of us.",
      "parentPostTime": "2010-03-16T05:49:57",
      "parentPostId": "39982078"
    },
    {
      "threadId": "74905533",
      "post": "I haven't done a sample lately to see how much larger geo has gotten on Twitter. It was initially a small fraction of a percentage, but I'm sure it's gone up especially since Twitter has started promoting it more.\n\nThat said, I had a friend that asked a few people. 12 out of 13 weren't going to enable geo functionality. There's always the location field, but the accuracy of that isn't the best either.",
      "time": "2010-03-15T20:16:36",
      "id": "39827137",
      "parentPost": "Seems that accuracy would require a very large geo buy-in. I, for example, don't have location features turned on in Twitter. My wife doesn't either. ",
      "parentPostTime": "2010-03-15T20:13:43",
      "parentPostId": "39824320"
    },
    {
      "threadId": "75180949",
      "post": "Yea, I've been keeping an eye on the #crunch iPad promotion. Definitely pretty interesting, I wish I knew how they were tracking that.",
      "time": "2010-03-13T22:58:05",
      "id": "39544200",
      "parentPost": "By the way, the TechCrunch iPad promotion is what triggered this idea. They offered to give away an iPad to anyone who either commented or retweeted a post.  In 24 hours, over 2500 comments and an insane number of retweets (http://twitter.com/#search?q=%23CRUNCH).  And the cost of all that word of mouth publicity?  $499.",
      "parentPostTime": "2010-03-13T16:02:58",
      "parentPostId": "39515880"
    },
    {
      "threadId": "74672609",
      "post": "True, it's easy to blow through that in ... a few seconds.",
      "time": "2010-03-11T18:08:35",
      "id": "39040314",
      "parentPost": "I don't like the limit of 1000 user object request per hour. Makes it not very useful for any of my current projects as they have a lot more requests then that per hour.",
      "parentPostTime": "2010-03-11T18:01:43",
      "parentPostId": "39037675"
    },
    {
      "threadId": "70942491",
      "post": "Definitely a breakdown by follower segments would be very useful. The link tracking would also be nice, although it would require an additional level of integration. Either from a custom link shortener or just pulling the stats from bitly.\n\nAwesome suggestions!",
      "time": "2010-03-10T17:44:39",
      "id": "38879565",
      "parentPost": "I think it would be more useful if you added demographic data and similar to it. Tweet time data for those of my followers and/or who have me in a list and who have large numbers of followers themselves and/or large numbers of List subscribers. Location demographic data (what time are central time-zone folks on the most, east-coast, etc.) Also, I tweet about a variety of topics: mobile, digital advertising, general marketing, Twitter, Facebook, etc. I'd like to see the tweet time data tied into data about who clicked which links that I sent out (or replied to them or RTed them). Maybe let me categorize the tweets I sent (perhaps via a term that's common in them) and then see best times to tweet on those topics based on historical data from my users. Should also take into account tweets via Lists I'm in.",
      "parentPostTime": "2010-03-10T17:40:12",
      "parentPostId": "38879111"
    },
    {
      "threadId": "74164618",
      "post": "\"bad-ass ninja algorithms\" indeed! There's definitely some opportunity here, but there's also the question of \"will Twitter retrofit retweets to accommodate the way they're actually being used?\" That said, old school retweets will likely live on. ",
      "time": "2010-03-09T21:06:56",
      "id": "38727018"
    },
    {
      "threadId": "73362860",
      "post": "I'll get right on that. ;)",
      "time": "2010-03-08T08:24:37",
      "id": "38535902",
      "parentPost": "More videos of Damon singing please!",
      "parentPostTime": "2010-03-07T22:50:40",
      "parentPostId": "38473424"
    },
    {
      "threadId": "72383900",
      "post": "Are you thinking of adding reply capabilities at some point? I played with textmarks a while ago and wanted to add that capability...just never took the time to. :)",
      "time": "2010-03-07T09:34:02",
      "id": "38410962",
      "parentPost": "Decided I should just log in. :) We started out with email to sms, but it sucked on carriers like AT&T. The Textmark solution works, but it does sometimes cut off a part of the tweet. For the most part, I don't care. I just want alerted when a conversation might need addressing without having to peer at Twitter all day long. I use it to monitor six different twitter accounts personally. ",
      "parentPostTime": "2010-03-07T09:25:25",
      "parentPostId": "38409585"
    },
    {
      "threadId": "73255654",
      "post": "Yea, there's something like that primarily for businesses at http://awe.sm/ - It's $99/year, though, which I wouldn't really pay for as an individual. I would love to be better able to keep track of the links I click on, though. Firefox/Chrome extension?",
      "time": "2010-03-06T22:56:00",
      "id": "38366196",
      "parentPost": "Agree with Marina on the fact that I don't want to share everything that I click on as I don't know if I'll like it until after I've read it.\n\nNow if I could give you my own personal short URL and you could use that and tie it to my twitter account with the tracking you mentioned that would be an awesome service that I'd imagine people would pay for.",
      "parentPostTime": "2010-03-06T22:26:43",
      "parentPostId": "38362941"
    },
    {
      "threadId": "73037485",
      "post": "Yea, I've wanted something similar for a while. If only for my own personal sanity. Companies already have CRM (but this could definitely integrate into Salesforce or similar), but as somebody that just uses Twitter on a regular basis to frequently communicate with people...a means to keep track of that would be a welcome addition. Seems like it would have to be integrated into an app, though.",
      "time": "2010-03-06T01:23:27",
      "id": "38244841"
    },
    {
      "threadId": "72658081",
      "post": "Hey Rex!\n\nThanks for the great post as well as the opportunity to meet while you were in Seattle. Much of what you mentioned is definitely in the works. We'll be rolling out ways to do extended tracking and phrases in the next week or so. I'd love to add links, but there are some technical hurdles on the Google API side to doing so. And we'll definitely include more graphs - some features of the Google Docs API are in beta or broken that's been a bit of a drawback for that specific capability. Fortunately, some of this got fixed recently, allowing for us to do some more useful default spreadsheets.\n\nThanks again!\n\nDamon",
      "time": "2010-03-05T00:59:05",
      "id": "38086977"
    },
    {
      "threadId": "72579118",
      "post": "There's an app for that: http://elliottkember.com/spreadtweet/",
      "time": "2010-03-04T18:56:46",
      "id": "38005984"
    },
    {
      "threadId": "72394033",
      "post": "Congrats on the launch! Very impressed with how far it's come already. ",
      "time": "2010-03-04T08:38:07",
      "id": "37942068"
    },
    {
      "threadId": "72374002",
      "post": "This reminds me of instapaper, http://www.instapaper.com - Tweetie 2 on the iPhone has support built in for this. I don't use it a ton myself, but I know people who swear by it.",
      "time": "2010-03-04T05:37:06",
      "id": "37934005"
    },
    {
      "threadId": "72203014",
      "post": "Heh, I was just thinking last nice it'd be nice to have \"list intersection\" as well. i.e. Take my Seattle list and my Security list and see the intersection of tweets on those two...",
      "time": "2010-03-03T23:30:36",
      "id": "37873321",
      "parentPost": "This would be sweet to help navigate lists on busy days or when on vacation vs. normal days. For example, I have a \"critical\" list and a \"keeptabs\" list and a \"seattle\" list. On lazy days I want to see all three lists at once; on normal days I want to see critical+keeptabs, and on busy days I only want to see critical. It'd be nice to combine on the fly.",
      "parentPostTime": "2010-03-03T23:27:34",
      "parentPostId": "37873035"
    },
    {
      "threadId": "72049235",
      "post": "Hehe, nice I hadn't heard that before. I can totally see grooving out to this during a deploy.",
      "time": "2010-03-03T22:09:54",
      "id": "37864243",
      "parentPost": "our deploy song is \"you're a jerk\" by the New Boyz",
      "parentPostTime": "2010-03-03T20:06:45",
      "parentPostId": "37839920"
    },
    {
      "threadId": "70932573",
      "post": "I've made similar attempts to produce useful content in the past with similar results. Even on Twitter, posting how I walk into a tree garners more responses/attention than if I try to generate useful content. But that's to be expected. ;)",
      "time": "2010-03-01T07:51:21",
      "id": "37433362",
      "parentPost": "Sigh. My silly rant about ponies gets to #1 on Hacker news, while my serious, carefully researched 3000-word post on host-proof hosting languishes in obscurity. Oh, the humanity. ;)",
      "parentPostTime": "2010-03-01T05:15:32",
      "parentPostId": "37412151"
    },
    {
      "threadId": "70014917",
      "post": "Interesting hypothesis. Maybe I'll pull some of the data from Feb of last year and see if there's any correlation. It has been rather nice in Seattle lately. ;)\n\nUltimately there are two data points that should be added - something beyond this brief snippet right after buzz launched, and actual buzz data. The latter requires a little bit more time, but if I have a chance in the near future I'll figure out their Google profiles and pull the data.",
      "time": "2010-02-26T06:56:07",
      "id": "36958162",
      "parentPost": "Love the idea, but I'm going to reach out on a limb here and think \"seasonal disorder'\n\nWith running monthly events for several groups, ranging from developer gatherings to SMC Seattle..... a consistent item I have heard lately that begins in early Feb is \"the weather is letting me go outside.\"\n\nI think the Google Buzz may just be coincidental? ",
      "parentPostTime": "2010-02-26T03:58:45",
      "parentPostId": "36919694"
    },
    {
      "threadId": "69693758",
      "post": "As an utter and complete PR/Mktg/SEO newb, I really need to take more of my friends in those fields out for beers. ;) It's actually rather depressing looking back and seeing some of the obvious opportunities I've left hanging.",
      "time": "2010-02-24T22:25:07",
      "id": "36355452",
      "parentPost": "Being a developer myself, I know the phenomenon of getting buried so deep in a product vision, you think it's never quite done enough to show people.\n\nIt really helps to have a PR or Mktg person involved, and in your case, a PR person would not only provide their typical services but a unique vector into your potential user base through their peers/colleagues in PR. Work those friends lists and word-of-mouth connections! You already have lots of attention, take advantage of it and ship! :)",
      "parentPostTime": "2010-02-24T20:44:37",
      "parentPostId": "36338908"
    },
    {
      "threadId": "69030088",
      "post": "I should mention that what the video doesn't show is me trying to install PHP in a similar fashion about 15 times in a row and failing each and every time. \n\nWhat ultimately ended up being the problem was another external rpm repository that had a higher priority and was overriding the PHP version from the remi repository. Bumping up the priority on the remi repository \"fixed the glitch\". ",
      "time": "2010-02-22T21:49:44",
      "id": "35939589"
    },
    {
      "threadId": "64359374",
      "post": "Totally agree on the \"too fast\" aspect. I've been in too many companies where they tried to grow a really good team too fast and too large, and ultimately resulted in more of the core team members leaving. ",
      "time": "2010-02-06T01:19:21",
      "id": "32801971",
      "parentPost": "Hi there, you're more than welcome to try us now, if you like. Sign up for the beta and we'll activate your account. We've been activating more and more as our team grows and more features get added.\r\n\r\nWe're taking it slow and steady, but we're finding (very happily!) that the support load is definitely *not* growing linearly with the number of customers. I have to thank our developers and documentation/website folks for that :-)!\r\n\r\nThat's a whole startup topic in itself: having really solid people on the team and not opening up *too* fast, keeping an eye on that relationship between customer growth and support. Right now, our dev team *is* the support team, with co-founders David and I helping to support them as much as possible.",
      "parentPostTime": "2010-02-05T20:24:57",
      "parentPostId": "32773975"
    },
    {
      "threadId": "63103785",
      "post": "We looked at the three mentioned because we were hoping for a simple solution out of the box that we could implement quickly. We started to take a look at FPS (it's in the spreadsheet linked above and met several of our requirements), but required a little more time investment than we had. Haven't ruled it out, though.",
      "time": "2010-02-01T22:57:50",
      "id": "32329012",
      "parentPost": "Did you guys investigate Amazon's Flexible Payments Service? I didn't see/hear it mentioned.\n\nhttp://aws.amazon.com/fps",
      "parentPostTime": "2010-02-01T22:35:53",
      "parentPostId": "32327435"
    },
    {
      "threadId": "62019191",
      "post": "Another thought re: long tail analysis - it'd be pretty interesting to see what \"follows\" were made after an event like this. Wouldn't be too hard to put together. Maybe next time. :)",
      "time": "2010-01-27T23:11:55",
      "id": "31576396"
    },
    {
      "threadId": "61540087",
      "post": "Yup, looks like a wordpress issue. A visit to http://www.techcrunch.com/readme.html earlier tonight showed 2.8.4, which is known to be vulnerable to a number of issues. The page now shows 2.9.1. System security mgmt is a PiTA.",
      "time": "2010-01-26T10:02:38",
      "id": "31358134",
      "parentPost": "I can. They didn't upgrade their WordPress install. Security exploits are patched for a reason. Updates are recommended as a result for similar reasons. ",
      "parentPostTime": "2010-01-26T09:02:05",
      "parentPostId": "31356348"
    },
    {
      "threadId": "61374026",
      "post": "This is a pretty good bet, TweetPhoto is about 1/3rd as popular as TwitPic but they're steadily growing. According to some stats I'm collecting at TweetStats, they hit 100K pics posted on one day at the end of December. Not too shabby.",
      "time": "2010-01-26T00:58:34",
      "id": "31323452"
    },
    {
      "threadId": "61101344",
      "post": "Hi Mark - this is a little different from a Google alert in that it only tracks tweets. Google alerts track significantly more data, but they only pick up a fraction (in my experience) of the actual tweets on Twitter. RowFeeder also streams the tweets real-time into the Google spreadsheet, which is beneficial from an event perspective as well as a \"set-it-and-forget-it\" perspective.",
      "time": "2010-01-24T20:25:17",
      "id": "31076719",
      "parentPost": "Hadn't done much research for businesses that are formed around charging for dedicated search. What advantage does the tool have compared to a Google alert.",
      "parentPostTime": "2010-01-24T19:33:20",
      "parentPostId": "31073732"
    },
    {
      "threadId": "60751653",
      "post": "Hi Dave - as was mentioned in the article, we had worked together in the past, but hadn't really built something just by ourselves before. This was an opportunity to see how we work together under pressure. Given that we're going to spend the next several years working together, we wanted to get an idea early on of how we'll handle situations we'll be in constantly. With that in mind, it was a good learning experience for us.\n",
      "time": "2010-01-23T01:56:33",
      "id": "30935427",
      "parentPost": "Hard to see much value in this 48-hour experience of 2 dudes building a random demo app. Are you set to build a real company, or are you just having fun hacking random stuff / writing blog posts?",
      "parentPostTime": "2010-01-23T00:52:46",
      "parentPostId": "30932086"
    },
    {
      "threadId": "60395421",
      "post": "This is one of my huge quandaries with Twitter's geo implementation and approach. They are, quite literally, changing the way that people interact online and I don't feel they have done enough to protect us from ourselves. Others, like Foursquare, Facebook, etc, are taking queues from this open perspective and changing the way they do business. \n\nUltimately, it benefits them, but it also results in a lack of privacy for the general public because these companies are blinded by the value the being open and have no incentive to protect the consumer.\n\nThat said, I limit my use of the geo-api on Twitter to when I'm out in public and feel it lends some context to the tweet. Similarly on 4sq, I tend to only allow people I've actually met (and would want to meet) to be my friends. \n\nThis won't be the last we see of this type of behavior.",
      "time": "2010-01-21T23:27:22",
      "id": "30745830"
    },
    {
      "threadId": "59525554",
      "post": "Yup, vesting is definitely important. I've also seen cases where significant IP is rolled into a company and vested immediately, but the remaining founders portion is not.",
      "time": "2010-01-20T04:02:18",
      "id": "30445852",
      "parentPost": "Thanks for the interesting points.  One thing worth mentioning is vesting -- and the need to have it when you have multiple founders.  It can be an ugly situation when the founders don't include vesting and one of the founders \"checks out\" of the company, taking with him/her a large portion of the company's equity.",
      "parentPostTime": "2010-01-18T21:16:06",
      "parentPostId": "30266708"
    },
    {
      "threadId": "57773423",
      "post": "Curious if you saw @ev's tweet yesterday - http://twitter.com/ev/status/7688074923\n\"Across all metrics that matter, yesterday was Twitter's highest-usage day ever. (And today will be bigger.)\"\n\nGranted, there are no specific metrics associated with that tweet so it's tough to determine what exactly \"highest-usage\" means, but definitely kind of interesting. ",
      "time": "2010-01-13T14:06:05",
      "id": "29626253"
    },
    {
      "threadId": "54199429",
      "post": "Wonder if it's bad joojoo or just luck that mashable always covers my sites when I'm traveling across the country. ;) TweepSearch should be (mostly) back up.",
      "time": "2009-12-27T21:33:11",
      "id": "27349231"
    },
    {
      "threadId": "54217334",
      "post": "I'm in the airport now. Looks like the FBI gave the all-clear. DTW wasn't disrupted at all, but who knows what that guy was doing in the bathroom *an hour before the flight touched down*...",
      "time": "2009-12-27T21:28:33",
      "id": "27349149"
    },
    {
      "threadId": "26863254",
      "post": "I'm curious how/if you're storing the social graph for users with enough friends/followers to exceed the 4MB object limit. I know this isn't a concern in most cases as it takes over a million ids to hit the limit, but would love to hear any thoughts.",
      "time": "2009-10-31T20:46:25",
      "id": "21483856"
    },
    {
      "threadId": "27304189",
      "post": "Would somebody please tell people top stop using these shady \"get tons of followers now\" sites? Like this bestfollow . com one - it's changed names and domains at least half a dozen times, but people are still more than happy to put in their creds, as seen on Twitter search:\n\nhttp://search.twitter.com/search?q=\"TONS+of+followers\"",
      "time": "2009-07-28T19:34:28",
      "id": "13478070"
    },
    {
      "threadId": "26175993",
      "post": "This also leads to security implications (and one the reasons these characters get escaped all over the place). \r\n\r\nAs an example, if > and < were allowed, I could potentially embed a script tag in there to \"do bad things\" ala the Mikey worm that hit Twitter if somebody doesn't escape it properly. \r\n\r\nAny HTML characters are definitely particularly troublesome given the non-standard use of escaping throughout the web. Not only that, but there's a finite number of characters that I can type on my keyboard without referring to HTML or Unicode charts. ;)",
      "time": "2009-07-22T00:03:44",
      "id": "13086430"
    },
    {
      "threadId": "38804327",
      "post": "Just had a random (completely unsubstantiated) thought - I wonder if the source thing is related to the \"best video\" issue they had yesterday?",
      "time": "2009-05-31T21:40:28",
      "id": "10326115"
    },
    {
      "threadId": "18078728",
      "post": "Sorry, I should have said that the old (3) as a whole is the killer. I glossed over the \"see if they have the special setting enabled\", which is really where the extra order of work comes (if(!!) I understand their speculated(!!) architecture correctly).\r\n\r\nBecause now, instead of performing the intersection of several in-memory arrays of numeric id's, you have to perform a round trip to the server for each of a user's followers to see if they have this setting enabled. Again - this is based completely on speculation of how the architecture is - that friends/followers are cached in memory and per-user settings are not. Even if the per-user settings are, I wouldn't think it'd be too easy to do a simple \"join\" as they're likely using a simple key/value memcache store. If they have fractured users into clusters, those clusters still have to do the work of checking each incoming tweet's followers to see if the \"special setting\" is enabled in order to determine whether to send the tweet or not. My guess(!!) is that the social graph data is heavily cached and even if the user settings were, it would still require iterating over a large number of users to get the setting.",
      "time": "2009-05-15T15:57:31",
      "id": "9364311",
      "parentPost": "Still confused.  New (3) is the SAME as Old (3b) - whu is it \"pretty easy\" now, and \"killer\" then?  The real difference is Old(3).\r\n\r\nIt seems to me, you just send the tweet to the cluster for each of the followers to be added to the timeline.  That cluster can then check the receiving user's settings to determine if the tweet should be filtered out.  Simple!",
      "parentPostTime": "2009-05-14T23:44:33",
      "parentPostId": "9338994"
    },
    {
      "threadId": "17857915",
      "post": "Stuff like this isn't too challenging, actually. In this case it's a few accounts posting the same spammy domain over and over again. I posted about similar issues twitter was having a year ago.\r\n http://dcortesi.com/2008/04/16/addressing-twitter-spam-through-statistical-analysis/\r\n\r\nWhen it'll get really annoying is when numerous accounts get registered and they each post to the trending topics with a different URL shortener, or otherwise obfuscated link. \r\n\r\nThis would also disappear if I could limit trending topics to my own stream. Now that would actually be useful to me.",
      "time": "2009-05-11T19:46:34",
      "id": "9214738"
    },
    {
      "threadId": "16896568",
      "post": "This isn't really anything new. People have been \"not getting Twitter\" for a long time. I've seen a lot of graphs of Twitter activity as part of TweetStats and it's not uncommon for somebody to sign up, not use the service, and then come back months later when they finally \"get it\" or the number of their friends on the service reaches critical mass.",
      "time": "2009-04-29T15:43:17",
      "id": "8813348"
    },
    {
      "threadId": "15607125",
      "post": "This script is hosted over at bambamyo.110mb.com - there are various levels of obfuscation, but it's essentially the same script.",
      "time": "2009-04-12T16:47:25",
      "id": "8097493"
    },
    {
      "threadId": "15581748",
      "post": "Really should've used the jquery library already on the Twitter site, too. Would've saved a lot of trouble. ;)",
      "time": "2009-04-12T04:23:29",
      "id": "8090725",
      "parentPost": "Saw the JavaScript for the hack. I thought it was kinda lame that the coder used 'new Array()' and a bunch of assignments instead of just creating an array on-the-fly with an array literal.",
      "parentPostTime": "2009-04-12T04:15:00",
      "parentPostId": "8090493"
    },
    {
      "threadId": "15162723",
      "post": "On this note, it's not only the ability to obfuscate a URL that can make it potentially dangerous, but also the security of the shortening service itself.\r\n\r\nWe already saw this with TinyURL recently (http://www.theregister.co.uk/2009/03/18/tinyurl_misconfigured/) and that's on a _mature_ shortening service.\r\n\r\nQuick research into other shortening services reveal common problems such as cross-site scripting and even cross-site request forgery. This becomes even more of a problem as these services integrate auto-posting to social networking sites. (think shortened link to dangerous site that propagates itself through csrf if you're in the doom and gloom mood.)",
      "time": "2009-04-05T23:41:20",
      "id": "7889880",
      "parentPost": "I like your points. However, as you briefly touched upon the one factor that seems to be left off most every discussion I have seen about URL shorteners is SECURITY - with a Capital S.  I think as the popularity of TinyURL, BudURL, bit.ly and others increases there will be an increased need to insure the security of the URL's being delivered. It seems to be too easy for a spammer and others to propagate malware. \r\n\r\nI'd like to assume there are efforts under the covers of these URL shortening services validating or otherwise checking the validity of the URL's they are shortening. However, I'm equally sure this is not the case. I'm not ascribing blame to anyone here. The price of the URL shorteners does not allow for a lot of additional time, research or effort to do more than they promise to do ... which is shorten URL's. They offer their services for free --- and I hope to be able to keep using them for a long time. You are right in that URL Shortening services are here to stay. Now, let's hope the level of security stays at a very high level too.",
      "parentPostTime": "2009-04-05T23:34:33",
      "parentPostId": "7889771"
    },
    {
      "threadId": "12188654",
      "post": "Not sure if the TrackBack took, but just extracted the *real* Top 20 Twitter Applications out of my database of over 50 million tweets in January. \r\n\r\nhttp://dcortesi.com/2009/02/19/the-real-top-20-twitter-applications/\r\n",
      "time": "2009-02-20T02:58:22",
      "id": "6422047"
    },
    {
      "threadId": "9194264",
      "post": "By the way, you can already create your own! I built this into TweetStats a while back. :)\r\n\r\nJust click the Wordle link on the bottom of the page. http://tweetstats.com/graphs/yuvipanda#tcloud\r\n\r\nNot sure what things you're pulling out relative to stop words, but Louis' was pretty similar.\r\n\r\nCool stuff!",
      "time": "2009-01-15T08:10:49",
      "id": "5136105",
      "parentPost": "Hah! Maybe I should do that - the thought never crossed my mind :)",
      "parentPostTime": "2008-12-31T20:33:00",
      "parentPostId": "4802867"
    },
    {
      "threadId": "8278425",
      "post": "Hi Eric,\r\n\r\nHave you seen http://tweetstats.com ? I built it about a year ago now to track my own stats on my usage of Twitter. I'd love to jack it into the Twitter backend to get some more interesting data (who's coming to your profile and how), alas, that data lives with Twitter.",
      "time": "2008-12-12T17:03:06",
      "id": "4368459"
    },
    {
      "threadId": "6457045",
      "post": "Yea, that bug is the same reason that TweetStats now has a few gaps in its timeline.  I was definitely bummed because it was always fun to see the different adoption rates of people on Twitter.",
      "time": "2008-10-31T03:30:48",
      "id": "3403216"
    },
    {
      "threadId": "3848556",
      "post": "I think what he's saying is that the cloud doesn't make it easier to compromise, it makes it easier to clean up your tracks _after_ a compromise if you're an attacker.\r\n\r\nIf you break into a system, one of the things you're going to try to do is erase your tracks. There are several interesting attack vectors here, namely:\r\n1: You can wipe your tracks by simply bringing the system down. No system logs. No hard drives to wipe. Just pop the instance and you're done. Forensics is significantly more difficult if there's no physical system to analyze.\r\n2: I'm personally a little concerned with all the pre-built images out there. How many of them have old SSH versions on them that make them vulnerable on bootup? What procedures do people have in place to update the AMI's? Yes, this needs to be addressed on physical servers as well, but are people forgetting about security with the set and forget nature of EC2?\r\n3: Let's say I find a box is vulnerable to something, but the admin bounces it every x hours for whatever reason. Then I have a reliable host that my tracks will be wiped from every x hours.\r\n\r\nDefinitely some interesting points here.",
      "time": "2008-08-29T03:16:20",
      "id": "1906178",
      "parentPost": "From a purely security POV, it doesn't matter between a physical server sitting in a data center or a virtual server on the cloud. Can you show me how cloud makes it easy to compromise?",
      "parentPostTime": "2008-08-29T01:09:33",
      "parentPostId": "1904407"
    },
    {
      "threadId": "2359108",
      "post": "Regarding the data in TweetStats. It was unfortunate that I wasn't able to get access to the Jabber feed prior to it getting shut down, or these stats would have been more reliable.\n\nAs it stands, if a bot or user hit the graphs page for a user and it hadn't been updated in 3 days, TweetStats would automatically update. For top bloggers/tweeters like those posted above, this probably helped keep the data somewhat current. I've changed this to 1 day at this point to help with the recent pagination changes.\n\nI may also try to utilize Gnip to keep stats up to date. Over 20,000 people have used TweetStats at this point, and I struggled for a while as to how to keep the data up-to-date, especially once Jabber went away. Gnip can make this easier, but I hope that Twitter can provide the type of data access they used to someday soon. It is now impossible to retrieve Tweets retroactively, for the time being.\n\nThat being said, I can understand if their new round of funding has placed limits on their primarily value - the huge database of user data. We have already seen evidence of this in that it was stated PubSub will only be made available on the terms that no resyndication of content will be allowed.\n\nTwitter is growing up and we are experiencing their growing pains right along with them, unfortunately.",
      "time": "2008-08-01T05:16:53",
      "id": "1068611",
      "parentPost": "Marina Martin alerted us to that recent change as well. The issue of only being able to grab the prior 10 pages (or 200 items) prevented me from running this data on a number of users who hadn't previously logged into TweetStats. They often showed two months of zero tweets, where there was actual activity, or in other ways, showed bad data.\r\n\r\nExamples:\r\nDuncan Riley: http://tweetstats.com/graphs/duncanriley\r\nJesse Stay: http://tweetstats.com/graphs/JesseStay\r\nSteve Rubel: http://tweetstats.com/graphs/steverubel\r\n\r\nIn contrast, I am pretty confident about the data shown in the graphs used in the blog post.",
      "parentPostTime": "2008-08-01T04:55:09",
      "parentPostId": "1068514"
    },
    {
      "threadId": "2269552",
      "post": "Hi Craig, \r\n\r\n@dacort here, creator of TweetStats.\r\n\r\nTwitter recently limited the pagination limits on your archive page. What this means is that if you hadn't updated TweetStats in a while, it could only go back and get 200 of your most recent tweets. (This also explains the even 200 for July).\r\n\r\nI apologize for the inconvenience, but Twitter Inc is in a constant state of flux as they try to re-architect their service.\r\n\r\nThanks for the post!",
      "time": "2008-07-30T23:07:51",
      "id": "1055550"
    },
    {
      "threadId": "582780",
      "post": "Louis - With regards to Twitter, many of those statistics are available at http://tweetstats.com.  It doesn't seem like Yuvi is opening his analysis up completely to the public at this point in time, but I'm definitely looking forward to seeing some analysis of the other services.",
      "time": "2008-05-01T15:09:56",
      "id": "402134"
    },
    {
      "threadId": "545361",
      "post": "The primary theme that I see reverberating through the comments is that everybody has a different way that they value Twitter. And Louis, you mention this in the first sentence of this post.\r\n\r\nMetrics are fantastic, but everybody in this world is different and being able to collate the data in a fashion that is useful is one thing. But being able to give people the option to use the data as the choose is the more difficult task.\r\n\r\nAs the creator of TweetStats (http://tweetstats.com), I'm always looking at useful ways to represent data and it is definitely not an easy task. And while I'm trying to tackle it, I'm not sure if I'll be successful, but this...and many other metrics...are at play in the approach I am attempting to take.\r\n\r\nIn the end...we all use Twitter in wildly different ways. :)",
      "time": "2008-04-27T20:32:19",
      "id": "385893"
    }
  ],
  "profileInfo": {
    "username": "dacort",
    "about": "Security dude, weekend Rails/Django warrior",
    "name": "dacort",
    "disable3rdPartyTrackers": false,
    "isPowerContributor": false,
    "isAnonymous": false,
    "rep": 1.376922,
    "profileUrl": "https://disqus.com/by/dacort/",
    "url": "http://dcortesi.com",
    "reputation": 1.376922,
    "location": "Seattle, WA",
    "isPrivate": false,
    "signedUrl": "http://disq.us/?url=http%3A%2F%2Fdcortesi.com&key=KPHRrfO__6l2HBsC9dQZVw",
    "isPrimary": true,
    "joinedAt": "2008-05-27T14:20:13",
    "id": "37943",
    "avatar": {
      "small": {
        "permalink": "https://disqus.com/api/users/avatars/dacort.jpg",
        "cache": "//a.disquscdn.com/uploads/users/3/7943/avatar32.jpg?1281549414"
      },
      "isCustom": true,
      "permalink": "https://disqus.com/api/users/avatars/dacort.jpg",
      "cache": "//a.disquscdn.com/uploads/users/3/7943/avatar92.jpg?1281549414",
      "large": {
        "permalink": "https://disqus.com/api/users/avatars/dacort.jpg",
        "cache": "//a.disquscdn.com/uploads/users/3/7943/avatar92.jpg?1281549414"
      }
    }
  }
}