{
  "comments": [
    {
      "threadId": "3871941012",
      "post": "Les fonctionnalites principales de ILY sont completement gratuites, il y aura un abonnement pour certaines fonctionnalites premium comme la VOIP, la securite.",
      "time": "2015-06-23T19:55:36",
      "id": "2095305984",
      "parentPost": "Pas d'abonnement prévu ?",
      "parentPostTime": "2015-06-23T14:50:02",
      "parentPostId": "2094733572"
    },
    {
      "threadId": "3703359639",
      "post": "How about a founder / ceo + founding engineers?",
      "time": "2015-04-22T15:47:09",
      "id": "1981454342"
    },
    {
      "threadId": "1939210633",
      "post": "It is available already!",
      "time": "2013-11-05T23:27:17",
      "id": "1110330639",
      "parentPost": "Hey guys! this update is looking great! when will it be available?",
      "parentPostTime": "2013-11-05T22:38:59",
      "parentPostId": "1110269385"
    },
    {
      "threadId": "1900561291",
      "post": "Too bad, do.com had one of the best products, I highly respect them! If anyone's looking for an alternative that is being used by hundreds of thousands of businesses around the world, try out Producteev.com, with lots of awesome things in the pipe!",
      "time": "2013-10-25T22:58:23",
      "id": "1096991911"
    },
    {
      "threadId": "1744573825",
      "post": "I'd say in the October time frame!",
      "time": "2013-09-17T18:31:21",
      "id": "1048257493",
      "parentPost": "That's awesome! When can we anticipate it's arrival? We've been waiting for months ...",
      "parentPostTime": "2013-09-17T18:29:47",
      "parentPostId": "1048255794"
    },
    {
      "threadId": "1016243081",
      "post": "Thanks for including @producteev there Stowe!",
      "time": "2013-01-09T20:40:44",
      "id": "761612064"
    },
    {
      "threadId": "1005734148",
      "post": "Good luck Alice, I am sure you'll rock it",
      "time": "2013-01-03T15:55:42",
      "id": "754570083"
    },
    {
      "threadId": "791442808",
      "post": "Good stuff Emmanuel!\n\nNow, how was this a favorable outcome for your early investors :) ?",
      "time": "2012-08-03T20:07:45",
      "id": "609105936"
    },
    {
      "threadId": "474070927",
      "post": "Hi Elad, love it. Do you give me permission to use some of those points for a keynote I am giving tomorrow here : http://barcamp.prestashop.com/program/conferences/ ?\nMy keynote is on the NY Tech Scene, and the current top tech trends in NYC",
      "time": "2012-03-19T18:55:37",
      "id": "469237851"
    },
    {
      "threadId": "607982995",
      "post": "Thanks Laura for the great Producteev mention!",
      "time": "2012-03-12T14:31:21",
      "id": "463359865"
    },
    {
      "threadId": "567452826",
      "post": "Liam,\n\nFirst, let me start by saying that even though I left France a long time ago, I am still tightly connected to the startup scene there, and I am friends (yes, real friends) with a bunch of prominent french startuppers. \n\nI am nobody to give a judgement on France's politics about startups and entrepreneurship, so most of my arguments are actually coming a lot of endless discussions I had with them along the past 3/5 years. My point definitely isn't that we don't have fantastic entrepreneurs in France, because we do, and I am not only thinking about the big names in Tech that we keep mentioning over and over (Vente Privee, Meetic, PriceMinister...), I am talking about the new generation of tech entrepreneurs emerging in France (you mention some of those startups in #6). \n\nMost of them are brilliant, they really are. But bottom line, really few of them end up building tech giants. Why? Because of some of my points. I love France, and I wish this can become a fantastic country to start a tech company (not talking about other industries), but it still has a long way to go as Fred Destin says.\n\nSome of what you describe as \"lies\", are actually incorrect, so there we go :\n\nFrench startups in NYC : Those 4 that she's quoting are the most well funded ones I guess. But I know many others: Odealarose, Peerform, LesHoraires, Topi... And I am meeting with a bunch of others every single week. She probably could have interviewed other entrepreneurs though. Agreed on this.\n\n#1 : Come on, do you really believe that France promotes entrepreneurship, and has been doing so for a while? Pdt Sarkozy is hosting geeks for LeWeb, and is announcing his willingness to promote entrepreneurship 6 months before the presidential campaign, makes France a pro-entrepreneur country? Really? France is a country where it's still much easier to be an employee than an Entrepreneur. They do offer grants like Oseo and others, which is a fantastic initiative (that we don't have in the US btw), but on a day to day basis, being an Entrepreneur in France is tough. \n\n#2 : Like you said, it differs. I've witnessed all kinds of situations, but it seems to be a rather longer process that anywhere else in Europe still. As a point of comparison, incorporating a company in the US, takes 30mns online on MyCorporation.com\n\n#3: I was talking about taxes on salaries. It was taken out of its context. A talent in France is very expensive.\n\n#4: small pool of hiring talents, never said that (we talked on the phone for this interview, so tough to remember everything), and that's not true. France is full of fantastic engineering talent for example. For the record, almost all of our engineers at Producteev are French.\n\n#5: Again, sorry, but you know it's not true Liam, otherwise you don't talk to enough entrepreneurs in France. Getting rid of bad employees is almost mission impossible in France. Trial period... Come on. Isn't it easy to fake it for 3 months to get your CDI? This is the biggest entrepreneur's pain IMHO.\n\n#6: Again, out of context. I actually asked the question to the journalist if she could mention one French tech startup, and she couldn't. Not my fault. And among those startups, some are indeed doing well. It wasn't my opinion, just a question to a US journalist.\n\nThe Loic of the East: I do admire what Loic has accomplished here in the US, but first, I'm just on my first startup and don't have any success under my belt yet, and second, everything I am doing communication wise, is to promote my company (not myself, not saying Loic is btw), and to help other French startuppers better understand the ins and outs of the US market, because I've gone through this.\n\nPS: Published this comment on my blog as well : http://startupzz.com/how-is-it-to-be-an-tech-entrepreneur-in-franc",
      "time": "2012-02-07T15:53:06",
      "id": "431948487"
    },
    {
      "threadId": "561826181",
      "post": "You're typically describing why it's complicated to make it in France. Yes you can fire people if you hire contractors (didn't know contractors were employees), you can start a co in Monaco instead (have you seen any successful startup out of Monaco?)... My whole point is : we have very few successful tech cos in France, and there are reasons why it's the case",
      "time": "2012-02-06T17:18:20",
      "id": "430925620",
      "parentPost": "Is France difficult? Probably...  Is France impossible? I would say no. If you want to work in Paris, sure life is hellish. But hey who on earth would want to live in Paris in the first place. \n\nI used to live in the South of France and worked in Sophia Antipolis. Very different attitude there. Was it hard to recruit workers? Not really! Actually not hard AT ALL! People actually want to live in the South of France.\n\nAnd if you don't like the French government then you can start a company in Monaco, while living in France. Have done that as well.\n\nBTW you can fire employees. Keep them as contractors. That is how we lived in the South of France. Sure you could get an employee contract, but then your wages went downhill.\n\nOh wait now I get it... You want to underpay and overwork... Ah now that makes sense...  Sorry not going to happen in France..",
      "parentPostTime": "2012-02-06T16:47:25",
      "parentPostId": "430894519"
    },
    {
      "threadId": "550996336",
      "post": "Who copied who? :) We've been around for a very long while",
      "time": "2012-01-24T21:31:01",
      "id": "419917689",
      "parentPost": "So they just copied Asana's interface?",
      "parentPostTime": "2012-01-24T20:55:01",
      "parentPostId": "419890143"
    },
    {
      "threadId": "511817636",
      "post": "oh very cool :) You can email me at ia@producteev dot com if you'd like access to our new version!",
      "time": "2011-12-21T18:15:31",
      "id": "391541499",
      "parentPost": "Yep! We are also using the product. ;)",
      "parentPostTime": "2011-12-21T18:12:42",
      "parentPostId": "391539535"
    },
    {
      "threadId": "224520972",
      "post": "As a competitor in this market (running producteev.com), I definitely welcome Asana to the task management space. I watched the demo and heard the pitch, and I was waiting for something more disruptive I must say.. but I am sure they'll surprise us. \nIt's good for the industry that such high level people focus on productivity tools, not an easy market to be in, but lots of improvement needed.\nGood luck guys!",
      "time": "2011-02-07T23:14:52",
      "id": "142207893"
    },
    {
      "threadId": "219518435",
      "post": "I was going to put the same comment, startup people, if you haven't watched that movie, go see it, Kaliel is killing it : http://www.imdb.com/title/tt0256408/",
      "time": "2011-01-31T15:58:17",
      "id": "137647190",
      "parentPost": "have you ever watched startup.com?\n\nhttp://bit.ly/eeALeD\n\nKaliel is the star of that film. ",
      "parentPostTime": "2011-01-31T12:18:15",
      "parentPostId": "137588629"
    },
    {
      "threadId": "217868455",
      "post": "Can't wait for TC Disrupt Beijing as well, fantastic idea",
      "time": "2011-01-28T17:37:39",
      "id": "136071284"
    },
    {
      "threadId": "198442168",
      "post": "I don't agree... Being dependent on a company (especially Google) is pretty dangerous for your business. Zynga realized it, and is slowly starting to move out of their FB platform dependency (see farmville.com etc.).\nGoogle has killed many startups (not on purpose) because they've changed one little element in their search algorithm for ex.\nI am sure Incredimail has plans to overcome this though",
      "time": "2010-12-27T18:26:10",
      "id": "119828084",
      "parentPost": "I see nothing wrong if a company is solely dependent on Google or other company. That is their business plan and unless you are investor, why give a damn about it, Zynga is solely dependent on Facebook and nobody cares. ",
      "parentPostTime": "2010-12-27T16:26:17",
      "parentPostId": "119758954"
    },
    {
      "threadId": "197260578",
      "post": "It needs to be mine because I have a buyer on eBay already!",
      "time": "2010-12-24T17:38:19",
      "id": "118331472"
    },
    {
      "threadId": "156227463",
      "post": "Thanks a lot for this great post Terri, glad you enjoy Producteev :)",
      "time": "2010-10-15T01:39:50",
      "id": "87068596"
    },
    {
      "threadId": "136653309",
      "post": "Correct... They started copying Twitter, now they're copying FB. Not saying it's bad, it was smart, but just a fact.",
      "time": "2010-09-02T23:18:04",
      "id": "74607099",
      "parentPost": "how are they like linked in? Yammer is an internal communications social media company. Linked in is professional profiles. completely different. bad comparison",
      "parentPostTime": "2010-09-02T21:11:06",
      "parentPostId": "74484888"
    },
    {
      "threadId": "74098002",
      "post": "Already available under 'manage filters'. We'd love your feedback on them",
      "time": "2010-05-25T11:59:23",
      "id": "51881721",
      "parentPost": "One more thing…are Smart Filters being incorporated? If so, will the beta have it soon?",
      "parentPostTime": "2010-05-25T01:51:02",
      "parentPostId": "51772856"
    },
    {
      "threadId": "92112311",
      "post": "GOOD STUFF Florent!!",
      "time": "2010-05-03T23:33:38",
      "id": "48251381"
    },
    {
      "threadId": "88976766",
      "post": "CONGRATS SANDIRA!!! ",
      "time": "2010-04-23T13:51:49",
      "id": "46231523"
    },
    {
      "threadId": "57662384",
      "post": "Completely Agree..",
      "time": "2010-01-11T19:28:07",
      "id": "29387422",
      "parentPost": "I know, but if I pass it around, the registration says $500.  They should\r\nhave just made it $20 across the board or something.",
      "parentPostTime": "2010-01-11T19:23:59",
      "parentPostId": "29386500"
    },
    {
      "threadId": "26958226",
      "post": "Hey Julien, from what I understood, you're saying that RSS is so yesterday right? So my question is why using it in your logo?",
      "time": "2009-07-26T01:40:38",
      "id": "13340616"
    },
    {
      "threadId": "23969861",
      "post": "Thanks! Yep good idea, we'll change that to Personal, it'll be done today!",
      "time": "2009-07-03T16:00:02",
      "id": "12074526",
      "parentPost": "Another nice feature. I would have called the old list the Personal To-do list and not the Classic To-do list, but that's me.\r\nI especially like the way you can modify existing lists. That's really nice and simple. Great work!",
      "parentPostTime": "2009-07-03T07:19:49",
      "parentPostId": "12064203"
    },
    {
      "threadId": "22785694",
      "post": "Just replied on Twitter, approximately end of July!",
      "time": "2009-06-29T14:07:59",
      "id": "11884430"
    },
    {
      "threadId": "20540002",
      "post": "Funny Bijan, because what you describe is written as is in the Torah, and is summed up in one small phrase (hebrew) : \"Gamzou Le Tova\", which means anything that happens in your life is for the Good. And that's a philosophy that everyone should follow, brings a lot of positivism.",
      "time": "2009-06-05T15:22:53",
      "id": "10522033"
    },
    {
      "threadId": "17533192",
      "post": "Congrats Nate, heard a lot of positive things about AnyClip! Good luck to both of you guys",
      "time": "2009-05-07T17:49:01",
      "id": "9101482"
    },
    {
      "threadId": "17341794",
      "post": "Testing Disqus comment system!",
      "time": "2009-05-05T02:44:16",
      "id": "9001877"
    },
    {
      "threadId": "17323150",
      "post": "I don't think you should do all of that in a week. I actually think it's quite the opposite, a great idea must take time to mature, otherwise you will obviously miss important things in its development...",
      "time": "2009-05-04T21:13:27",
      "id": "8992501",
      "parentPost": "You forgot the most important point: do all of the above in no longer than a week. Two days is better.",
      "parentPostTime": "2009-05-04T20:45:57",
      "parentPostId": "8991833"
    },
    {
      "threadId": "13549270",
      "post": "Thanks Sean!\r\n-- \r\niLan Abehassera | Founder, CEO Producteev Inc. | 44W 28th Street, 8th Floor,\r\nNew York, USA | T: +1 (646) 794-4211 | F: +1 (347) 402-7966 | Gtalk:\r\nilannewyork | ia@producteev.com | www.producteev.com | www.twitter.com/ilan",
      "time": "2009-03-19T12:25:13",
      "id": "7339433",
      "parentPost": "I have waited DAYS to check out Producteev. I never did get a BETA invite and I am up to my ears in projects for our growing company. 50+ Employees and opening a new sales center soon. Producteev looks FANTASTIC and I must try this. Nothing else compares from what I can see. Take a look at them!",
      "parentPostTime": "2009-03-18T18:41:33",
      "parentPostId": "7321831"
    },
    {
      "threadId": "13362489",
      "post": "Thanks antonio!",
      "time": "2009-03-10T03:02:17",
      "id": "7051400",
      "parentPost": "Great web site, help us a lot with our projects.",
      "parentPostTime": "2009-03-10T02:39:30",
      "parentPostId": "7050690"
    },
    {
      "threadId": "12018844",
      "post": "Great investigation's job James... Great name, the project seems exciting, wish you lots of luck!",
      "time": "2009-02-20T19:56:13",
      "id": "6438405"
    },
    {
      "threadId": "11280371",
      "post": "Alright we'll have you covered!",
      "time": "2009-02-06T21:31:17",
      "id": "6054473",
      "parentPost": "Swedish!",
      "parentPostTime": "2009-02-06T21:16:51",
      "parentPostId": "6054056"
    },
    {
      "threadId": "10760923",
      "post": "Hi Zeon!\r\ncan you provide a screenshot, I'm not sure I ever saw that before...? I will help you don't worry!",
      "time": "2009-01-29T23:16:03",
      "id": "5661928",
      "parentPost": "Tried to Register - Screen seized after entering code.  Help!",
      "parentPostTime": "2009-01-29T23:08:53",
      "parentPostId": "5661831"
    },
    {
      "threadId": "10613548",
      "post": "Fred, does that mean that a startup pitching you can include \"Social Media\" as an acquisition channel?",
      "time": "2009-01-27T22:55:28",
      "id": "5603356",
      "parentPost": "John, you might be interested to know that Twitter is Etsy's #3 referrer of transactional visits and Facebook is #4. Flickr is #2. social media can drive a ton of transactions if its configured to do so.",
      "parentPostTime": "2009-01-27T17:57:57",
      "parentPostId": "5595753"
    },
    {
      "threadId": "8478556",
      "post": "the little \"play\" icon?\r\nthat's what I thought but it doesnt lead to the cooliris interface... but just refreshing the timeline.\r\nI run FF3 on MacOSX",
      "time": "2008-12-17T05:26:16",
      "id": "4445941",
      "parentPost": "Top right on the everyone timeline",
      "parentPostTime": "2008-12-17T04:24:16",
      "parentPostId": "4445904"
    },
    {
      "threadId": "8299818",
      "post": "thx!! typo fixed :)",
      "time": "2008-12-15T17:02:19",
      "id": "4411631"
    },
    {
      "threadId": "6397200",
      "post": "Hi andrew,\r\n\r\nsend me an email at ia[at]producteev[dot]com, I'll send you all the info ;)\r\n\r\nThanks for your interest!",
      "time": "2008-11-02T22:17:24",
      "id": "3447252",
      "parentPost": "Hi Ilan,\r\n\r\nThanks for your reply, I have been wondering when someone would take the social collaborative concept and erge it into a useful product application... Im exited to see what you guys have and do a review on it. \r\n\r\nDo you currently have any extra info on the products proposed features etc?\r\n\r\nThanks again,\r\n\r\nAndrew",
      "parentPostTime": "2008-11-01T07:47:51",
      "parentPostId": "3429111"
    },
    {
      "threadId": "2781001",
      "post": "Thank you Martine! Very nice site of yours too :)",
      "time": "2008-08-20T13:18:58",
      "id": "1686550"
    },
    {
      "threadId": "2693021",
      "post": "testing Disqus comment system",
      "time": "2008-08-17T05:18:42",
      "id": "1554388"
    }
  ],
  "profileInfo": {
    "username": "ilannewyork",
    "about": "Proud Founder and CEO of Producteev.com",
    "name": "Ilan",
    "disable3rdPartyTrackers": false,
    "isPowerContributor": false,
    "isAnonymous": false,
    "rep": 1.2286439999999998,
    "profileUrl": "https://disqus.com/by/ilannewyork/",
    "url": "http://www.producteev.com",
    "reputation": 1.2286439999999998,
    "location": "New York, US",
    "isPrivate": false,
    "signedUrl": "http://disq.us/?url=http%3A%2F%2Fwww.producteev.com&key=bLjJTf8FgeqcEm6HKjqSsw",
    "isPrimary": true,
    "joinedAt": "2008-08-04T19:19:16",
    "id": "76284",
    "avatar": {
      "small": {
        "permalink": "https://disqus.com/api/users/avatars/ilannewyork.jpg",
        "cache": "//a.disquscdn.com/uploads/users/7/6284/avatar32.jpg?1282257651"
      },
      "isCustom": true,
      "permalink": "https://disqus.com/api/users/avatars/ilannewyork.jpg",
      "cache": "//a.disquscdn.com/uploads/users/7/6284/avatar92.jpg?1282257651",
      "large": {
        "permalink": "https://disqus.com/api/users/avatars/ilannewyork.jpg",
        "cache": "//a.disquscdn.com/uploads/users/7/6284/avatar92.jpg?1282257651"
      }
    }
  }
}