{
  "comments": [
    {
      "threadId": "3352028308",
      "post": "В моем вузе (московский, гос., технический) не знаю сколько преподы получали, но они мне казались обеспеченными. Машины хорошие, одежда. Думаю минимум по 80к получали. А в школе у меня сначала получали среднюю зп, но после реформы у учителей резко выросла зп. Получали минимум 50к, а в среднем больше 70. Зарплаты публиковались на сайте школы.",
      "time": "2015-02-01T20:47:56",
      "id": "1829432902"
    },
    {
      "threadId": "3462659784",
      "post": "Это и называется антикризисным планом? Ожидать цену 70$ на нефть? Нужно было делать план, при котором вообще не будет учитываться доход от нефти.",
      "time": "2015-01-28T19:42:16",
      "id": "1822001897"
    },
    {
      "threadId": "3434372893",
      "post": "Вообще странно. Как можно с ходу взять и спринтерскую дистанцию пробежать? Лично я, перед тем как 100м 400 или 1км пробежать, разминаюсь и пробегаю медленным темпом около 2-3км, что занимает порядка 12-18м. Кроссы можно без какой-либо разминки бегать, сначала медленно, потом на привычные 4,5 мин/км. Если с ходу спринт пробежать, сердце посадишь 100%. Так что по времени точно не быстрее, ну а по качеству - фиг знает. Я и кросс и спринт чередую.",
      "time": "2015-01-24T12:08:09",
      "id": "1814530038"
    },
    {
      "threadId": "3422929313",
      "post": "Кто-то серьезно верил в эту \"валюту\"? Меня реально тошнило от обилия статей на хабре в разгар раскручивания биткоина. \"ЦБ запретила биткоин\", \"Пиццерия какого-то мухосранска начала принимать биткоины\", \"Простой чувак из зажопинска стал миллионером благодаря биткоинам\" - такие новости выходили каждый день по несколько штук. И на хабре, вроде как, образованные люди, но там минусовали всех, кто пророчил не долгую жизнь биткоинам.",
      "time": "2015-01-16T14:53:05",
      "id": "1795791786"
    },
    {
      "threadId": "3416185307",
      "post": "В России Google наращивает долю.\n\n\nНо статья да, бред. Сравнивать железячных гигантов с Google не очень корректно. Сравните с Amazon, у которой дела идут со всем не плохо.",
      "time": "2015-01-14T18:31:00",
      "id": "1792536862"
    },
    {
      "threadId": "3397970806",
      "post": "Хаха... да, трейдеры такие, всегда осторожные оптимисты -))\n\n\nЕсли бы трейдеры знали точно что произойдет, они бы заработали все деньги мира.",
      "time": "2015-01-11T10:08:47",
      "id": "1786687093"
    },
    {
      "threadId": "762672956",
      "post": "случайно забрел на статью. Привет из будущего -)",
      "time": "2015-01-10T17:07:28",
      "id": "1784633099"
    },
    {
      "threadId": "3284772502",
      "post": "не ожидат такую фигню здесь прочитать. Я статьи Арсения читал в форбсе недавно и реально они был очень продуманными и описывающими действительность.\n\n\nА сейчас почему-то такой текст, абсолютно не кореллирующий с образованием автора.\n\n\nЧто мы экспортируем? 65% экспорта - нефть, газ и нефтепродукты. Кто работает в нефтегазовом секторе? Миллионы людей с вполне высокими зарплатами. Кто крупнейшие налогоплательщики России? Роснефть, Газпром и т.д.\n\n\nЧто мы импортируем? Да почти все, начиная от еды, одежды, обрудований, заканчивая автомобилями, самолетами, технологиями. То есть, все, что мы заработали на нефти, мы тратим на закупку импорт. Поэтому у нас дома корейские холодильники, японские телевизиоры, мы ездим на немецких машинах, в интернет выходим из американских айпэдов, носим китайскую одежду, питаемся польскими продуктами. Мы им нефть, они нам все, что у нас есть. С этих вещей мы платим налоги 18% НДС, работают ритейлеры, автодиллеры, платятся налоги с доходов, выплачиваются зарплаты, с них платятся налоги, покупаются квартиры, берется ипотека, платятся налоги на квартиру, оплачиваются услуги ЖКХ...\n\n\nПоэтому, если сейчас нефть падает в цене в два раза, экономика России упадет существенно, а не только выручка от продажи нефти и газа упадут в два раза (на самом деле больше, ввиду себестоимости добычи). Если у нас себестоимость добычи бареля нефти 10$, мы добывали и продавали барель по 100$, у нас чистая прибыль 90$. Если нефть упал до 50$, у нас себестоимость добычи никуда не исчезла и по прежнему составляет 10$, а прибыль уже 40$.",
      "time": "2015-01-06T09:12:24",
      "id": "1774298828"
    },
    {
      "threadId": "694887538",
      "post": "Да, песня цифровые закаты - просто улет!",
      "time": "2012-05-18T14:55:08",
      "id": "532138647"
    },
    {
      "threadId": "395712903",
      "post": "Hello сaptain Obvious",
      "time": "2011-08-25T17:40:42",
      "id": "295272244"
    },
    {
      "threadId": "388724184",
      "post": "ERROR: myName is not defined\n\nWhy, if i typing document.write(myName); and see my name at new blank window.\n\ni trying type \"var three = myName.substring(0,3)\" and get that error.\n\nLesson 4, \"saving your substring\"",
      "time": "2011-08-19T12:25:49",
      "id": "290848159"
    },
    {
      "threadId": "336982821",
      "post": "написать обзор без единой фотки гаджета - это конечно круто))",
      "time": "2011-06-20T06:29:52",
      "id": "230153968"
    },
    {
      "threadId": "337327509",
      "post": "Лучше погоняться и быть в шоколаде. Работка хорошая, интересная. Советую)",
      "time": "2011-04-15T13:26:26",
      "id": "185024154",
      "parentPost": "я умею водить и все такое,меня лишили( а там не охота гоняться за этим(ну посмотрим что как...\nспасибо за помощь ",
      "parentPostTime": "2011-04-14T12:55:00",
      "parentPostId": "184328730"
    },
    {
      "threadId": "214040128",
      "post": "Да, точно. Это с хостинга на хостинг переезжал и не перенеслись все файлы. Буду дома, попробую восстановить. Спасибо за замечание -))",
      "time": "2011-04-15T13:25:41",
      "id": "185023870",
      "parentPost": "фотка о прайсе не грузится",
      "parentPostTime": "2011-04-14T07:49:58",
      "parentPostId": "184256565"
    },
    {
      "threadId": "207666007",
      "post": "Да, конечно. Стрит-рикши - обычно двухместные (как у меня. см фото). А бродвейские - большие, трехместные. Найду фотки, скину на почту тебе или сюда размещу, если не забуду.",
      "time": "2011-04-15T13:24:23",
      "id": "185023357",
      "parentPost": "смотрю есть разные рикшы: одни называются broаdway, другие street rickshaw, есть ли разница?",
      "parentPostTime": "2011-04-13T22:13:08",
      "parentPostId": "184038139"
    },
    {
      "threadId": "337362953",
      "post": "Ждите... Скоро вот -))",
      "time": "2011-04-07T16:39:06",
      "id": "179910189",
      "parentPost": "Ждеммм =)",
      "parentPostTime": "2011-04-04T14:52:42",
      "parentPostId": "177803406"
    },
    {
      "threadId": "235660170",
      "post": "Да, можно. Но я не сталкивался с этим, у меня вообще кроме J1 не было других виз. Я не могу ответить вам, но, наверное, ответит кто-то другой. ",
      "time": "2011-03-03T19:43:06",
      "id": "159956438",
      "parentPost": "слышал что для работы велорикшей не нужна j1 виза и слышал что есть люди работавшие по турвизе...\nкакие нюансы стоит учитывать, если ехать по тур/гостевой визе и нацеливаться на работу рикшей в течение 6 недель?",
      "parentPostTime": "2011-03-01T21:06:48",
      "parentPostId": "158447706"
    },
    {
      "threadId": "337327372",
      "post": "Получал 3 штрафа (на 50 и 250$) от рейнджеров (это те, кто в парке) за остановку в парке. В парке нельзя останавливаться и пикапить клиентов. Только в специально отведенном для этого мест. \n\nЕще парочку тикетов от копов. Один раз за то, что на байке не было инфы о компании (о том чуваке, который сдал мне байк) и за парковку в неположенном месте. Копы не выписывают денежные штафы, они обычно всегда выписывают приглашение в суд. \n\nЯ ни один тикет не платил и в суд не ходил, хотя стоило бы. Ничего страшного в том, чтобы сходить в суд - нет. Суды там нормальные и если судье объяснить, мол не знал и т.д и т.п, то он сделает тебе дисмис (простит). \n\nДа никаких поинтов там нет, если ты нарушил что-то на педикабе. \n\nЕсли попросят, нужно показывать права (драйвер лайсенз) и педикаб лайсенз. \n\n\nБыл случай, когда при мне, на одного русского парня надели наручники и отвезли на коповской машине в участок. Потом выяснил, что он просрочил штраф (в суд не пошел). Чувак просто забыл о штрафе. Ничего, подержали чуток (4-5 часов) и отпустили. Даже еще покормили из макдака. Это у них так положенно, что если кого-то задерживают на сколько-то, то его обязательно нужно кормить. Т.к. у них на участках нету столовых, они обычно заказывают что-то в фастфудах... -))\n\nНу хрен знает, как относиться к штрафам. Я не советую конечно вам нарушать и получать тикеты - это реально. Просто я так распиздянически относился к этим тикетам, знал, что больше не поеду в США по Work and Travel, по крайней мере в течении 2-х лет. Именно столько хранится в базе административный штраф, потом о нем забывают и ты чистый, как белый лист бумаги -)\n\nТак что вот, нарушать законы - не хорошо. Лучше просто старайтесь избегать этих моментов. Успехов!))",
      "time": "2011-02-20T11:35:39",
      "id": "152964498",
      "parentPost": "Что на счет штрафов?\nТы написал, что получал парочку штрафов, интересно за что? \nИ вообще, какие у других были штрафы, если слышал?\nНе много не понятно, если полицейский выписывает штраф, на американский driver lieance, то туда начисляются поинты, и если превысит их количество --- то отберают.\nА как быть с нашими правами, которых нет в базе данных сша?\nКакой документ нужно показывать, когда тебя остановил коп: driver license или  только pedicab liseance?\nБыли ли случаи, когда знакомых на рикшах арестовывали или вызывали в суд? Если да - то какие последствия.\nСпасибо\n",
      "parentPostTime": "2011-02-20T04:29:21",
      "parentPostId": "152888387"
    },
    {
      "threadId": "207294426",
      "post": "<blockquote>Так что по поводу теории?</blockquote>Если сдавал теорию в РФ, то без проблем сдашь и там. \n<blockquote>Права в смысле которые там получаешь?</blockquote>В прошлом году можно было со своими национальными правами получить лицензию на педикаб. В этом году, ходили слухи, что прикроют эту лавку и лицензию можно будет получать только с Нью-Йоркскими правами. Пока не известно. Надо ждать до весны, возможно, инфа появится.\n",
      "time": "2011-02-17T19:49:42",
      "id": "150357453",
      "parentPost": "Так что по поводу теории?\nПрава в смысле которые там получаешь?",
      "parentPostTime": "2011-02-16T22:21:52",
      "parentPostId": "149202655"
    },
    {
      "threadId": "206987456",
      "post": "Я только этого Османа и знаю. Снимал у него на 57 ave - 11 str",
      "time": "2011-02-14T19:47:32",
      "id": "146358385",
      "parentPost": "Здравствуй! Респект те за описание!!! Я тоже хочу в этом году поехать в NY рикшей, можешь с работодателем помоч... Я одному писал, Османом звать, но меня его условия не устроили, может ты ково еще знаешь? Если не против я бы лично связался karserr@gmail.com.",
      "parentPostTime": "2011-02-14T19:15:29",
      "parentPostId": "146326172"
    },
    {
      "threadId": "220067310",
      "post": "Вот из-за этого и нравится мне Америка. Всем до поебени как ты одет и чем занимаешься. Но в случае чего, Американцы сразу вызываются на помощь. Прямо так и чувствуется свобода...)",
      "time": "2011-02-01T08:51:30",
      "id": "138068139"
    },
    {
      "threadId": "218616622",
      "post": "До вечера постараюсь.",
      "time": "2011-01-31T09:21:22",
      "id": "137556685",
      "parentPost": "заметано. сроки отпиши пожалуйста",
      "parentPostTime": "2011-01-31T09:18:42",
      "parentPostId": "137555931"
    },
    {
      "threadId": "219421940",
      "post": "Круто, то, что можно выбирать картинки. Этого не хватало.",
      "time": "2011-01-31T08:40:24",
      "id": "137549857"
    },
    {
      "threadId": "219140122",
      "post": "Да меня еще удивляют seo-компании, которые хвастаются топами по таким запросам: \"пельмени оптом\" или \"Поездка в Турцию\". Видимо, это они так клиентов разводят, которые не понимают, что таких обсолютных запросов не больше 100 в месяц. http://goo.gl/nowhZ",
      "time": "2011-01-30T21:23:01",
      "id": "137383179"
    },
    {
      "threadId": "218555252",
      "post": "У номера 2 таз больно большой. Не красиво. \n\n2 и 5 самый нормальные.",
      "time": "2011-01-30T17:23:00",
      "id": "137261892"
    },
    {
      "threadId": "218233957",
      "post": "textpattern — моя любимая система и если там появится, то вообще кул!)",
      "time": "2011-01-29T23:32:02",
      "id": "136904469"
    },
    {
      "threadId": "218124673",
      "post": "Хороший сервис, как только запустите плагин для wp, воспользуюсь. \nP.S. музыкант из тебя хреновый :))\n",
      "time": "2011-01-29T23:26:47",
      "id": "136902570"
    },
    {
      "threadId": "337491911",
      "post": "Я там явного запрета не увидел. Эти правила госдеп каждый год выводит, но все как работали, так и работают.",
      "time": "2011-01-29T23:00:03",
      "id": "136891465",
      "parentPost": "Все, ГосДеп запретил работу рикшами:\nhttp://www.csiusa.ru/wt2011/Dear-SWT-Participant-Letter.pdf - письмот ГосДепа\nhttp://www.csiusa.ru/wt2011/swt-brochure.pdf - брошюра",
      "parentPostTime": "2011-01-29T11:01:37",
      "parentPostId": "136584298"
    },
    {
      "threadId": "209199345",
      "post": "Хорошо. Спрошу у \"тех, кто их сдает\" и напишу тебе в почту. ",
      "time": "2011-01-29T22:55:41",
      "id": "136889490",
      "parentPost": "Много полезной информации! \nМог бы ты дать контактные данные тех, кто их дает в аренду?",
      "parentPostTime": "2011-01-29T20:21:24",
      "parentPostId": "136823750"
    },
    {
      "threadId": "217071529",
      "post": "Is It look like iPhone or it seems to me?",
      "time": "2011-01-27T14:15:59",
      "id": "135302071"
    },
    {
      "threadId": "216655131",
      "post": "Google rulez as always, but russian Yandex no bad too.",
      "time": "2011-01-26T21:04:00",
      "id": "135012275"
    },
    {
      "threadId": "216592912",
      "post": "Yet another OLPC-like laptop. How much it gonna cost?",
      "time": "2011-01-26T20:55:56",
      "id": "135009184"
    },
    {
      "threadId": "215282731",
      "post": "А смысл? Они не избираются, их назначают. Назначат другого, до следующего раза.  ",
      "time": "2011-01-26T08:44:49",
      "id": "134702780",
      "parentPost": "Необходим МИТИНГ с требованием об отставке руководителей ФСБ и МВД!",
      "parentPostTime": "2011-01-26T08:23:15",
      "parentPostId": "134697146"
    },
    {
      "threadId": "215977613",
      "post": "Thnak you for the wonderfull quest!",
      "time": "2011-01-25T21:40:48",
      "id": "134496578"
    },
    {
      "threadId": "215278414",
      "post": "26-е января объявлен днем траура.",
      "time": "2011-01-25T16:03:14",
      "id": "134334993",
      "parentPost": "Простите за немного неуместный и некорректный вопрос. А у нас день траура будет объявляться или как? Или все произошеднее в порядке вещей? Сразу скажу, вопрос не из любопытства",
      "parentPostTime": "2011-01-25T16:01:44",
      "parentPostId": "134334315"
    },
    {
      "threadId": "214029853",
      "post": "Учусь  крайне плохо, хотя стараюсь. Оценки никак не влияют. ",
      "time": "2011-01-25T15:19:34",
      "id": "134320166",
      "parentPost": "А как ты учишся? оценки играют какую то роль в участии в Work and Travel?",
      "parentPostTime": "2011-01-24T21:05:49",
      "parentPostId": "134027742"
    },
    {
      "threadId": "215169525",
      "post": "Задолбали гады! Но что самое обидное — об этом все забудут через пару недель, как это было с терактами в Метро не давно. \n\nА виновники, гады, будут наказаны? И с чиновников должны полететь пагоны, из-за их не способности предотвращать такие трагедии.",
      "time": "2011-01-24T16:31:34",
      "id": "133866107"
    },
    {
      "threadId": "214818795",
      "post": "Hi!",
      "time": "2011-01-24T05:22:51",
      "id": "133583069"
    },
    {
      "threadId": "213863644",
      "post": "whois.ripn.net — check it up. «R01 Personal Data Operator protected» — регистратор домена geekchick.ru.\n\nВсе правильно, домен принадлежит тебе. ",
      "time": "2011-01-23T12:49:03",
      "id": "133240228",
      "parentPost": "Спасибо за поправку.\n\nЕсли Jino.ru «просто хостер», то кому принадлежит домен, который я\nрегистрирую с его помощью? Всё-таки мне? Просто он — посредник? Это неважно,\nменя это устраивает: я готова заплатить 10 долларов (а в моём случае,\nнапомню, это бесплатно при договоре на 1-2 года) посреднику за то, чтобы\nполучить то, что мне нужно, одним кликом.\n\nНе думаю, что аудитории этого блога нужно регистрировать домены в том\nколичестве, когда экономия в 400 рублей компенсирует затраты времени на то,\nчтобы «обратиться», «заключить договор» и «стать реселлером» — плюс\nразобраться во всём этом. Девушкам нужен 1, ок, 2 домена. А Вы — «меньше\n100». Это блог для девочек, обычных девочек в интернетах.",
      "parentPostTime": "2011-01-23T00:48:32",
      "parentPostId": "133080648"
    },
    {
      "threadId": "214019997",
      "post": "Как нет полезной нагрузки? Вы думаете, что все знают о work and travel? \n\nНаверное, вы имеете ввиду следующие статьи. Там действительно мало полезной информации. А так, добавил еще категорию \"Это будет полезно прочитать\", там буду публиковать только полезные комментарии. \n\nСпасибо за комментарий, первый комментарий в этом блоге. Если есть замечания, пишите еще, все учтем... :-)",
      "time": "2011-01-23T08:45:49",
      "id": "133200584",
      "parentPost": "Удобный и красивый сайт, читать удобно, ничего не отвлекает. А вот смысловой нагрузки твоих статей пока мало. Надеюсь, побольше полезных постов будешь писать.",
      "parentPostTime": "2011-01-23T08:44:55",
      "parentPostId": "133200494"
    },
    {
      "threadId": "213314885",
      "post": "Конечно, давно пора твиттить) \n\nНе успела завести, а уже 150 фоловеров :)",
      "time": "2011-01-21T21:10:03",
      "id": "132597563",
      "parentPost": "о да :) твиттер это как раз то, что нужно, когда надо быстро дать ссылку на  что-то, а не делать из этого целый пост. Твиттер крутая штука :)",
      "parentPostTime": "2011-01-21T09:30:20",
      "parentPostId": "132344206"
    },
    {
      "threadId": "213608314",
      "post": "just another reader. its no bad :)\n\nSony preparing to launch PSPhone.",
      "time": "2011-01-21T21:00:43",
      "id": "132594220",
      "parentPost": "Nice, but... Who actually uses the Sony reader?",
      "parentPostTime": "2011-01-21T20:56:27",
      "parentPostId": "132592156"
    },
    {
      "threadId": "846774118",
      "post": "awesome system! trust me! :)",
      "time": "2011-01-21T18:51:49",
      "id": "132532355"
    },
    {
      "threadId": "184268785",
      "post": "Удачи от парней!))",
      "time": "2011-01-19T11:32:09",
      "id": "131253006"
    },
    {
      "threadId": "211526578",
      "post": "Обычный гражданин может лоббировать кого-угодно, хоть самого дьявола — это его право. А вот сотрудник правоохранительных органов должен делать свое дело, а именно защищать права человека и законы страны. ",
      "time": "2011-01-18T16:23:51",
      "id": "130640506",
      "parentPost": "А гражданин Муртазин лоббирует интересы Самсунг, ну и что",
      "parentPostTime": "2011-01-18T16:00:25",
      "parentPostId": "130622543"
    },
    {
      "threadId": "211347666",
      "post": "Да не легче было бы все эти карточки объединить и поместить в банковскую карточку? Например, когда расплачиваешься за покупку где-нибудь своей банковской картой, система автоматически определяет возможные твои скидки и выбирает из них самый выгодный вариант. \n\nИли, чтобы отделить котлеты от мух, можно просто сделать одну карту, в которую включены все накопительные системы. \n\nПро предпоследний абзац. Интересный подход, для магазинов (одежды, техники и т.д.), в которых нет очередей.",
      "time": "2011-01-18T14:40:46",
      "id": "130561446"
    },
    {
      "threadId": "205882076",
      "post": "Ну правильно что поцапался. Со мной точно такое же было. Передо мной сидел маминкин сынок, лет 20,  а с права от него собственно его мама. Вот они дружненько сиденья отпустили, а я в это время за ноутом сидел, соответственно вообще не осталось места. Я их вежливо попросил, но они не согласились поднять спинки. Ну я дальше не стал докапываться, раз спинки откидываются, значит так положено и это предусмотрено авиакомпанией.Они ведь тоже билеты покупали.\n\nКогда обратно летел, вообще жесть было. Я вообще чуть на рейс не опоздал,зашел в салон одним из последних, открываю багажную полочку, которая расположена над моим креслом, а там все забито и две бабы, сидящие вообще на другом ряду ржут и говорят: \"не везет...:))\". Я стюардов попросил убрать чужие чемоданы с моей полки. А те девчонки вообще забили свои полки и мою. Понашопились в магазинах и не захотели платить за перевес. В итоге, им пришлось под свои кресла поставить свои сумки.\n\nКультуры полета вообще нет. А самолеты - боинги эти, 747-е - вообще неудобные.\nВывод: сэкономил 4-5 тыщ, но и получил сервиса на столько. У европейских авиакомпаний все гораздо удобнее, например SAS, SWISS, British... \n\n<i>via e-mail</i>.",
      "time": "2011-01-16T19:16:56",
      "id": "129781606",
      "parentPost": "Блин, 10 часов лететь жесть конечно. Я в Турцию за 3-4 часа  кое как долетал. Даже один раз  с впереди сидящем мужиком поцапался:) Мне ноги и так не куда девать, а он еще и спинку кресла откидывал! \nТо что холодной водой поили это хорошо:)\nМолодец что написал о том что адрес места проживания спрашивают, не дам себя застать врасплох!",
      "parentPostTime": "2011-01-16T18:02:37",
      "parentPostId": "129764147"
    },
    {
      "threadId": "101729005",
      "post": "Кажись как в самых нужных местах я комментировал. :)\n\nА так, мог бы еще звуком сопровождать, но в голову не пришло. Т.к. снимал это не посредственно во время покупки билета.",
      "time": "2011-01-16T19:00:22",
      "id": "129778262",
      "parentPost": "Красава что сам купил! \nА вот если бы видео комментариями сопровождалось то было бы вообще:)",
      "parentPostTime": "2011-01-16T17:51:13",
      "parentPostId": "129761838"
    },
    {
      "threadId": "209115572",
      "post": "Поддерживает. Просто у тебя не привязан gravatar к твоей gmail'овской почте. А вот к рамблеровской - привязан и в этом ты можешь убедиться в своем предыдущем комменте. <br><br>Чтобы проверить email на привязанность, можешь прочекать <a href=\"http://ru.gravatar.com/site/check\" rel=\"nofollow\">здесь</a>.",
      "time": "2011-01-15T09:30:28",
      "id": "129344266",
      "parentPost": "Оффтоп: а у тебя на сайте gravatar не поддерживается, да? :(",
      "parentPostTime": "2011-01-15T08:45:53",
      "parentPostId": "129340361"
    },
    {
      "threadId": "98387470",
      "post": "Да я сначала подумал, что это консулы женского пола забрызгали ободок унитаза, но понял, что у них свой сортир. Потом подозрение пало на девушек-студенток. Провел собственную экспертизу и понял, что это парни.  \"Еще никогда Штирлец не был так близок к провалу\" © :)\n\n Не знаю как в этом году в посольстве, но в прошлом почти ничего не зависело от студента :)",
      "time": "2011-01-15T07:26:03",
      "id": "129330559",
      "parentPost": "Забрызгать туалет это мы умеем:)\nСпасибо за интересный рассказ. Для меня информация оказалась актуальной, потому что уже не за горами поездка в консульство:)",
      "parentPostTime": "2011-01-14T19:19:48",
      "parentPostId": "129156608"
    },
    {
      "threadId": "98388289",
      "post": "Ну тогда остается еще раз пожелать удачи!\n\nP.S. Случайно нашел твой коммент в папке спам. Надо разбираться с системой, почему он клеветает тебя... :-)",
      "time": "2011-01-14T18:52:34",
      "id": "129147161",
      "parentPost": "Спасибо! Будем стараться:)\nНа самом деле сам не знаю, как буду себя вести когда приеду в США, но от задумок нельзя отступать. \nБуду продолжать читать твой блог, видел там пост про консульство, как раз то что вскоре предстоит пройти:)\n",
      "parentPostTime": "2011-01-14T14:20:35",
      "parentPostId": "129049599"
    },
    {
      "threadId": "208293419",
      "post": "Rixby лучше выглядит. Я бы, на месте Руслана, не давал бы повода киберсквоттерам. ",
      "time": "2011-01-14T13:31:33",
      "id": "129037844",
      "parentPost": "Красиво, бесспорно. Но на скрине имя домена неправильно (!?) написано: rixby, вместо rixbi.",
      "parentPostTime": "2011-01-13T14:58:50",
      "parentPostId": "128631562"
    }
  ],
  "profileInfo": {
    "username": "Mekhron",
    "about": "Student. National Research University Moscow Institute of Electronic Technology (Technical University). Люблю писать, считать, статистику, новые идеи и дизайн.",
    "name": "Mekhron",
    "disable3rdPartyTrackers": false,
    "isPowerContributor": false,
    "isAnonymous": false,
    "rep": 1.250824,
    "profileUrl": "https://disqus.com/by/Mekhron/",
    "url": "http://twitter.com/mekhron",
    "reputation": 1.250824,
    "location": "Moscow",
    "isPrivate": false,
    "signedUrl": "http://disq.us/?url=http%3A%2F%2Ftwitter.com%2Fmekhron&key=vFcm68Q7Wka3GU_7Jydhcg",
    "isPrimary": true,
    "joinedAt": "2008-08-30T09:28:09",
    "id": "91945",
    "avatar": {
      "small": {
        "permalink": "https://disqus.com/api/users/avatars/Mekhron.jpg",
        "cache": "//a.disquscdn.com/uploads/users/9/1945/avatar32.jpg?1420970928"
      },
      "isCustom": true,
      "permalink": "https://disqus.com/api/users/avatars/Mekhron.jpg",
      "cache": "//a.disquscdn.com/uploads/users/9/1945/avatar92.jpg?1420970928",
      "large": {
        "permalink": "https://disqus.com/api/users/avatars/Mekhron.jpg",
        "cache": "//a.disquscdn.com/uploads/users/9/1945/avatar92.jpg?1420970928"
      }
    }
  }
}