{
  "comments": [
    {
      "threadId": "1433882923",
      "post": "I have the metal slime one. Since they can run away so easily, I figure it'll give me the same amount of energy ;)",
      "time": "2013-06-25T15:31:53",
      "id": "941673133"
    },
    {
      "threadId": "1374625147",
      "post": "Trust me, Bryan, I have these same kinds of conundrums!\n\n\nI often play as a female character in games when given the chance. First and foremost, female characters tend to get all the best character customization and clothing. In games where you can design yourself, I'm rarely satisfied with the male offerings.\n\n\nSecondly, there's the old adage, \"If I'm going to kill crabs for four hours a day, I'd better look cute doing it.\" Well, I think that's how it goes. Anyway, I tend to get much more invested in what a female character accomplishes than what a male one would.\n\n\nWith Monster Hunter 3 Ultimate, I actually started out as a female character but made a male one also. I knew I'd be playing with friends, and me likely being the only guy with a girl avatar might've made things odd. So I definitely feel you on that one.\n\n\nHowever! In Animal Crossing: New Leaf, I've decided on a male character as my main. It's mostly to represent \"me\", plus I think the AC boys can look pretty cute.\n\n\nThe main reason, though, is that male characters can have female hairstyles and dress in female clothing in this version! So even if I wanted to \"branch out\" a little, I could do so with my same character. I'll probably make a secondary female character anyway, just for fun. But this kind of makes it an easier choice.\n\n\nHere's hoping you can come to a decision you're happy with! I still need to think of a town name...",
      "time": "2013-06-07T15:16:51",
      "id": "922292990"
    },
    {
      "threadId": "1348145269",
      "post": "Aww man, I had no idea Japan was getting a retail release of the D&D games! Seems like Westerners are getting a lot of these re-releases digitally-only. What an unfortunate trend this is.\n\nStill, amazing box art all around. The FF14 box is probably my favorite, just because of that always-wonderful Yoshida. It's like an explosion of cuteness that manages to look noble and epic at the same time.",
      "time": "2013-06-01T16:09:07",
      "id": "916036939"
    },
    {
      "threadId": "1228635103",
      "post": "I'm an old Working Designs fan, so I'll be picking up a physical copy myself. Out of nostalgic obligation if nothing else! I'd still be buying physical copies of PSP games if they were still getting regularly released anyway, it's just how I roll.\n\nI played a bit of the first Class of Heroes, so I'm interested to see what magical touches Gaijinworks adds to the second one.",
      "time": "2013-04-22T15:51:33",
      "id": "872318066"
    },
    {
      "threadId": "963283155",
      "post": "Final Fantasy V is one of my favorites in the FF series and as a video game in general! I just love it so much.\n\nI first got a chance to play it with the Playstation port included in Final Fantasy Anthology. In the midst of all these fancy, polygonal, FMV-rich games of the era... here came a throwback to the SNES days. I consider FFIV and FFVI to be other favorites in the series of mine, so this was a rare chance to peek back into my childhood with this \"lost\" game. I could not have enjoyed the experience more. I was in pure bliss! The graphical style, music, gameplay... it all struck a chord with me in all the right ways.\n\nThe thing that probably keeps me coming back to FFV so much is that it's so darn FUN! It's the most fun Final Fantasy game, as far as I'm concerned. Mixing and matching job classes never gets old for me. There's always a new way to play through the game. The cast of the game is honestly one of my favorites, as well... something about being able to dress them up and give them my own unique set of abilities endears them to me, somehow.\n\nSo, while I never had the chance to experience the game 20 years ago (sadly!), that's just further proof that a great game is a great game, regardless of when you get to play it! I've been meaning to replay the GBA version, now is the perfect time, I think!",
      "time": "2012-12-07T20:24:08",
      "id": "730443268"
    },
    {
      "threadId": "308425013",
      "post": "Those are all great choices, I'd say!\n\nMy Dragon Quest addicted self must mention Dragon Quest Monsters: Caravan Heart. It'd need to be translated, of course, which means it as a slimmer chance than some. Still, DQ is starting to pick up over here, so it's something to think about.\n\nFire Emblem 6 (the one with Roy in it) seems like another obvious choice, since he did get some exposure through Smash Brothers Melee. Again, gotta translated all that text, though.\n\nBoth of these games have already been fan translated, but I'd love to see them get official releases.",
      "time": "2011-05-20T01:16:42",
      "id": "207424223"
    },
    {
      "threadId": "263316732",
      "post": "I've played a lot... A LOT of Super NES/SFC games. And Live A Live is my favorite out of them all. So, yeah, of course I'm interested!\n\nThe original version was able to do so much with such limited technology... honestly, there are some downright terrifying, emotionally charged portions of the game which were accomplished with graphics that weren't so advanced even by 16-bit standards. So I'm unsure if a remake could really do it justice while retaining that unique aspect of it. Still, I'd love to see it happen, I hope I'm pleasantly surprised.\n\nThe question becomes whether we'd ever see an international release. On something that's not a phone. Maybe we should wait and see if the remake's actually made first before getting too excited.",
      "time": "2011-03-26T01:26:15",
      "id": "172031499"
    },
    {
      "threadId": "171738424",
      "post": "Really? I read it was a collaboration between the three. Actually, their logo shows up at the end of the trailer too, I just checked it.\n\nIt's still sound advice either way, though!",
      "time": "2010-11-13T16:20:31",
      "id": "96888244",
      "parentPost": "While I fully share your sentiments concerning Idea Factory, they had nothing to do with Agarest. It's a RED/Compile Heart project.",
      "parentPostTime": "2010-11-13T09:39:48",
      "parentPostId": "96818848"
    },
    {
      "threadId": "171681412",
      "post": "I wonder which game they'd localize first, if they got the green light from Bamco?\n\nI'd love Vesperia PS3 like everyone else on the planet. That being said, the Radiant Mythology sequels are a huge improvement over the first, which we actually got. Then there's Graces, and... oh god, there are just too many to chose from.",
      "time": "2010-11-13T03:22:30",
      "id": "96783210"
    },
    {
      "threadId": "157605127",
      "post": "Xtreme is basically 100% built around the concept of fighting things with Grandia's battle system. It does that concept pretty well. The dungeons are okay but you have to go through them a few times each, which gets repetitive. And don't even begin to expect a satisfying story or character development.\n\nBut the other Grandia games do all that but include cool characters and a story and all that, so Xtreme is a decent diversion, but can't be compared to the real thing.\n\nAt least they all have cool music.",
      "time": "2010-10-17T23:26:03",
      "id": "87743636",
      "parentPost": "I played G3, it was ok, but very short. I've never played Xtreme (wasn't released in Europe), but I believe I would like it. I mean, a dungeon crawler with Grandia's battle system, what's not to like? Especially when that battle system is one of the best around.\n\nI wish they could do a Wii port or something, at least I would be able to import it.",
      "parentPostTime": "2010-10-17T22:11:22",
      "parentPostId": "87723503"
    },
    {
      "threadId": "150500918",
      "post": "As has been stated, the Western boxart is, a majority of the time, changed for the worse from the original Japanese version. Actually, Europe sometimes gets boxart better than the American release, for some reason.<br><br>But anyway, plastering a bunch of characters and faces and explosions on the front doesn't tell me anything about the game. The Japanese boxart might not either, but at least it's a CLASSY nothing that looks a bit respectable. There're a bunch of Photoshopped \"classy game covers\" pics online which illustrate what I'd rather be seeing.<br><br>Other than looks, as long as game companies continue to include what they should (manuals and a game cart/disc), then I'm good. Actually, one thing that has improved is what the game boxes are made out of. GBA boxes were easily destroyed, but DS boxes hold up really well in comparison, for example. Guess that's something to be thankful for.",
      "time": "2010-10-04T00:40:36",
      "id": "83578952"
    },
    {
      "threadId": "148782016",
      "post": "It's not about wisdom, it's about the fact that they simply do not care about localizing a vast majority of Tales games. You really cannot deny that.\n\nThere is more hope for this game, though, because it's a port. And yet, we all said the same thing about Vesperia PS3...",
      "time": "2010-09-29T20:16:21",
      "id": "82092515",
      "parentPost": "Quite pretty, quite interesting. I will certainly look forward to a western localization of this. And- No, stop right there, person who is about to tell me there's-no-way-in-hell-that'll-happen! Just... allow me to be naive and hopeful for now, instead of giving me your \"oh, I am so much wiser than you because I know they won't localize Tales games, I've been hurt by Bamco so many times, boohoo\". Please, get over yourself.",
      "parentPostTime": "2010-09-29T19:28:16",
      "parentPostId": "82079129"
    },
    {
      "threadId": "147201100",
      "post": "I think it's preferable for the game itself to teach you how to play as you're experiencing it, but in a lot of games you can't repeat those tutorial segments if you need a refresher. There might also be times when a player can't play the game itself, but want to learn more about the mechanics and things to look forward to. A detailed manual can fill in these gaps.<br><br>I remember, as a kid, not being able to play games as much as I'd want, but I'd bring the instruction books to school and read them. This always got me really psyched and excited to come home and play the game. You really don't see that anymore, I think. While the internet can serve these purposes now, there's sometimes too many spoilers and too much crap to wade through. A manual is something more unique in its simplicity.",
      "time": "2010-09-26T20:33:12",
      "id": "81028183"
    },
    {
      "threadId": "147213822",
      "post": "I know, a lot of people know, and I think that either doesn't matter to them, or makes them like her more. Certainly qualifies as a unique trait.",
      "time": "2010-09-26T20:22:55",
      "id": "81027050",
      "parentPost": "How many people, actually know that she is a Tranny?\n\nI mean *mumbles* she does look good. Uhmm, but I would be interested to see how she'll fight.",
      "parentPostTime": "2010-09-26T20:12:35",
      "parentPostId": "81025914"
    },
    {
      "threadId": "145328707",
      "post": "I didn't like the looks of that, either. Sure, I got lost a lot in this game, but looking back, I enjoyed finding my own way.\n\nThe interior areas look bigger and more detailed than in SaGa 2 DS, though... maybe this is a tradeoff for that?\n\nOtherwise, the game looks completely awesome and I like all the other changes they've made.",
      "time": "2010-09-23T20:21:50",
      "id": "80385157",
      "parentPost": "No more running around the world map? Wrong move Square Enix.... First of many crap decisions SE will make to ruin my fav GB game? -_-",
      "parentPostTime": "2010-09-22T18:19:00",
      "parentPostId": "80108122"
    },
    {
      "threadId": "135984251",
      "post": "Fun fact: I actually named the ship in Chrono Trigger \"Talon\", after the one in this game. It's just more awesome when you can actually use your ship's weapons in battle, you know?",
      "time": "2010-09-01T16:03:37",
      "id": "73952663",
      "parentPost": "I fully agree!  This is by far the best of the trilogy on GB and an awesome story in its' own right!  Never before has time travel been so awesome in an RPG (yes, I thought it was better than Chrono Trigger/Cross).  SaGa 3 also has the best airship in any RPG :D",
      "parentPostTime": "2010-09-01T16:00:15",
      "parentPostId": "73952037"
    },
    {
      "threadId": "134221503",
      "post": "Really? That's a shame about SaGa 3. I know it was different (and to me, the weakest of the 3 GB SaGa games), but with a bit of tweaking like SaGa 2 DS got, it could be worth the effort.",
      "time": "2010-08-27T22:22:47",
      "id": "72694255",
      "parentPost": "No chance, SaGa 3 wasn't by Kawazu and he evidently hates it.\n\nMy bet is a full series revival, like SaGa Frontier 3 for PSP or Romancing SaGa 4 for Wii.",
      "parentPostTime": "2010-08-27T15:46:20",
      "parentPostId": "72604499"
    },
    {
      "threadId": "115494983",
      "post": "I've been interested in this series for a while but never played any, but this might tip me over the edge to try it out. Is there any direct connection between the games or am I safe to jump in with the third one to start?",
      "time": "2010-07-08T22:23:53",
      "id": "61182238"
    },
    {
      "threadId": "112620226",
      "post": "As many have stated already, it's a real shame about Sakura Wars. But honestly, I don't think NISA went about it in a very good way.\n\nYes, I know we should all bow down and worship them because they actually published a Sakura Wars game outside of Japan, but I really don't understand what they were thinking with the Wii and PS2 versions, and only including Japanese voices with the PS2 choice. Compounding on that are the completely unnecessary name changes in the English VA version script, making it so that players of one version might mention the name of a character and a player of the other version might have no idea who they're referring to. Add to that the usual typos found in other NISA-published titles, which really drag the quality and professionalism of the game down.\n\nAll of it seems like they didn't think things through very well if they knew (and we ALL knew) that Sakura Wars is a niche title among niche titles, so why go through all these different platforms and script versions if you weren't sure the game would catch on? I'm really enjoying my playthrough of the game right now, and it makes me sad to think this might be it. I'd love to be able to play more of this series. Of course, Sony's anti-port mentality is to blame for that too, as usual. (What harm is it if we never even GOT these games in the first place?)\n\nThe honesty about Last Rebellion is very welcome and refreshing (glad I held out on that one), but I think NISA needs to be honest with itself and sort out the quality control issues before making any grandiose plans. So many of its published games lately have had typos and bugs, which makes me wonder how they'll handle anime. Subtitle typos would be really bad.",
      "time": "2010-06-30T14:37:07",
      "id": "59991639"
    },
    {
      "threadId": "91765183",
      "post": "Oh, I'm fully aware of the headphones' cost. But hey, if Atlus REALLY wants me to buy this game...\n\nBut yeah, some look-alike would've been acceptable as well.",
      "time": "2010-05-03T13:35:46",
      "id": "48148487",
      "parentPost": "Whoa whoa you know that the Protagonists uses Audio Technica earphones right?\n\nThat thing costs as much as the game itself, if not more expensive ^_^'\nBut a replica should be cool though~ Try looking for it at Ebay if you want one. I got it quite cheap but I was really lucky at that time :3",
      "parentPostTime": "2010-05-03T09:57:54",
      "parentPostId": "48132656"
    },
    {
      "threadId": "85007652",
      "post": "Sony owes a huge amount of its success to the fact that so many people bought PS2s... there might not have even been a PS3 if it hadn't sold as well as it did! And the awesome part about buying a PS2 back in the day was that it was backwards compatible. Whenever you decided to upgrade you got access to PS2 games as well as something to play all your PS1 games on. All of this without and \"oops you didn't buy one quickly enough no more BC for you\" bullshit.\n\nSo now we have shiny black boxes that can play PS3 games and PS1 games but, retardedly enough, not PS2 games.",
      "time": "2010-04-12T06:09:59",
      "id": "44402746",
      "parentPost": "The fact that they still haven't readded BC makes me sad. I still own a PS2 (two, in fact) and use it, but it just seems silly to not have it. I mean, that was one of the reasons the PS2 did so well, it could play (most) PSX games.",
      "parentPostTime": "2010-04-12T05:12:18",
      "parentPostId": "44399662"
    },
    {
      "threadId": "85012425",
      "post": "\"Are These Pokémon Black & White Screens?\"\n\nNo, they're in color, duh.",
      "time": "2010-04-11T14:36:16",
      "id": "44323493"
    },
    {
      "threadId": "77483107",
      "post": "I wouldn't mind finally seeing a localization/remake of Lunar Magic School, it was pretty fun despite being different. They could probably pull that off on the DS, though I did like Silver Star Harmony's PSP graphical style.\n\nI think an Eternal Blue PSP remake is inevitable and I don't mind one bit. It's true these games have been remade time and time again, but at least Lunar 2 is a LITTLE less played out.",
      "time": "2010-03-20T00:27:04",
      "id": "40615260"
    },
    {
      "threadId": "74298598",
      "post": "Good chance? Is this sarcasm? Tales of Eternia PSP was Europe only, and neither Radiant Mythology 2 or Tales of VS were released here. And neither will this, unfortunately.",
      "time": "2010-03-10T14:31:43",
      "id": "38851172",
      "parentPost": "Guys you forget, this is a PSP \"Tales of\" game, so it has got a good chance of coming over here. Because you know, Namco Bandai seems hell bent on not releasing any of the \"Tales of\" NDS games here...\n\nHow they ever planned on making \"Tales of\" series a worldwide success with 90% of them remaining in Japan is beyond my understanding...\n\n\n[T.O.S.C.]",
      "parentPostTime": "2010-03-10T11:29:06",
      "parentPostId": "38828245"
    },
    {
      "threadId": "73773905",
      "post": "It's pretty dumb if they're calling it \"Final Fantasy II\" still, even if that's what the title screen says. Especially considering a completely different game called Final Fantasy II was just released on the iPhone.",
      "time": "2010-03-08T20:35:29",
      "id": "38592330"
    },
    {
      "threadId": "73421342",
      "post": "I don't really see how console exclusivity really benefits anyone. Assuming multi-console releases of games were done properly, as in the complete opposite of the way it's usually done now (one \"main\" console developed for and then shoddy ports for the rest), everyone would get a chance to play all the latest and greatest games without having to worry if they had made the \"correct\" hardware choices or not. Companies would see increased sales, and there would be a lot less of the console warrior type discussions on the internet. Win-win.\n\nLast gen you knew that if you wanted to play RPGs, you bought a PS2, but it's not so simple anymore. The 360 has a respectable selection of RPGs, but then there's all the PS3 and Wii exclusives. So while each individual console has a more diverse selection, that still means you need to own multiple consoles to play them all. Multiplatform releases solve this problem. I'd like to see situations such as Star Ocean 4, with timed exclusivity and an enhanced release later, be handled better by offering the enhanced options as DLC for the early adopters, though. That way it's less of a dick move.",
      "time": "2010-03-07T21:11:31",
      "id": "38463376"
    },
    {
      "threadId": "71087836",
      "post": "Is this referring to reduced load times via a UMD-based game, or something that works even for digital copies?",
      "time": "2010-02-28T19:46:01",
      "id": "37366008"
    },
    {
      "threadId": "71041178",
      "post": "Proudly calling yourself a fanboy is the same thing as proudly calling yourself an otaku - that word doesn't carry the semi-positive meaning you think it does.\n\nPeople who actually give a crap about console wars are probably the worst kind of video game fans, the ones that we could all use less of. There's nothing wrong with being a fan of a certain series or company's games or whatever, but labeling yourself a \"fanboy\" draws a distinction that you're the retarded, slobbering kind of fan who will never have anything non-biased or worthwhile to say.",
      "time": "2010-02-28T16:08:53",
      "id": "37352908"
    },
    {
      "threadId": "70599123",
      "post": "The original game was what made me finally buy a PSP in the first place, so I'd love a sequel. Megaman 2 is worthy of a remake to begin with, and all the fun additions of a Powered Up version would be awesome.",
      "time": "2010-02-27T22:56:57",
      "id": "37280112"
    },
    {
      "threadId": "69845260",
      "post": "Agreed, but I'm hoping there's no censorship or toning down of things if Nintendo's involved. Plus, I'd like DQ9 to stay consistent with the other DS DQ's localization style. Either way I'm psyched they finally confirmed its release!",
      "time": "2010-02-24T22:04:56",
      "id": "36351811",
      "parentPost": "Who's handling the actual translating/localizing of the game, though? Square Enix is fine, I have no problems with their recent localizations, but Nintendo has recently gotten pretty good with their localizations. Glory of Heracles was freakin' hilarious.",
      "parentPostTime": "2010-02-24T19:43:46",
      "parentPostId": "36325102"
    },
    {
      "threadId": "68413709",
      "post": "Play the Edy DLC. Don't play with English voices on. Enjoy your new purpose in life.",
      "time": "2010-02-20T04:33:20",
      "id": "35591657",
      "parentPost": "Why do people like Edy so much? I'm only 8-9 chapters in, but she kind of annoys me, is there some sort of awesome story she's a part of or something?",
      "parentPostTime": "2010-02-20T04:30:13",
      "parentPostId": "35588861"
    },
    {
      "threadId": "67849296",
      "post": "Ugh, keep Kingdom Hearts out of Dissidia. It's supposed to be about Final Fantasy, period. I'm hoping KH stays to its own convoluted universe rather than infect others.",
      "time": "2010-02-18T16:25:19",
      "id": "35029690",
      "parentPost": "the best KH for me is KH 2 as it's the only KH i'm willing to complete aside of Chains of Memories in GBA. Looking forward to KH BBS.\n\nabout the spin off... not a really good idea S-E. It's better to include Sora and other characters in Dissidia sequel than to create a whole new story which doesn't include Sora. Roxas is a great character, but it's because his relationship with Sora. ",
      "parentPostTime": "2010-02-18T12:10:25",
      "parentPostId": "35008265"
    },
    {
      "threadId": "67457850",
      "post": "I'm seeing it available new and used on Amazon, among other places... seems like it's still possible to pick it up if you want it.",
      "time": "2010-02-16T23:03:59",
      "id": "34788412",
      "parentPost": "Effing Atlus! Could you please reprint the Nintendo DS version of this game?! I want to play the game the way it was designed to be played in the beginning, and that's with a effing stylus.",
      "parentPostTime": "2010-02-16T21:34:11",
      "parentPostId": "34779848"
    },
    {
      "threadId": "66835268",
      "post": "There are a few games I could pick up and play anytime, anywhere and always enjoy myself. The original Final Fantasy, the Gameboy SaGa games (FFL I-III), Final Fantasy Tactics, and Xenogears come to mind.\n\nThough there are some games, like FFIV, which hold immense nostalgic value for me but that I try not to overplay so that I don't get sick of them. This happened to me with Chrono Trigger: I love the game to death, but felt absolutely no desire to pick up the DS version because I burned myself out back in the day.",
      "time": "2010-02-14T22:08:33",
      "id": "34220094"
    },
    {
      "threadId": "65722551",
      "post": "No way, he's definitely more of a Shu from Blue Dragon. A mean-looking Shu, that is.",
      "time": "2010-02-10T16:51:33",
      "id": "33419973",
      "parentPost": "Wauw, that protagonist really is a mean-looking Kid Goku. Not sure if I'm interested in this game though, didn't fall in love with the first one. The live online battles might help soften me up though.",
      "parentPostTime": "2010-02-10T13:27:26",
      "parentPostId": "33396519"
    },
    {
      "threadId": "64878291",
      "post": "Oh wow, I had no idea there was even an active SaGa 2 DS translation going on. I'm still hoping it's brought out here officially, but this is definitely good news!",
      "time": "2010-02-08T04:30:17",
      "id": "32983453"
    },
    {
      "threadId": "64878333",
      "post": "Amazon has Ninja Gaiden DS for even less than that, and I've seen Samba de Amigo in countless bargain bins for a pittance. Really, this sale only seems to be good for things you actually have to go to Play-Asia to buy, the import stuff.",
      "time": "2010-02-08T01:55:54",
      "id": "32973018"
    },
    {
      "threadId": "64569032",
      "post": "Nippon Ichi is not allowed to ever publish another port of Disgaia 1 ever again, per the Geneva Convention.",
      "time": "2010-02-06T01:55:13",
      "id": "32803870",
      "parentPost": "I just bought Phantom Brave Wii, and I'm loving the music so far and the picture is mighty crisp and colorful on my HDTV! Anyone else get a Little Mermaid vibe from the main island's theme? XD\n\nNI, for the hell of it, why not do the obvious and get Disgaea 1 onto the Wii in the same way you did PB? Get System Prisma on it, they did PB Wii and Disgaea DS, kinda an obvious thing to do am I right?\n\nHell that's more obvious than anything they could possibly put on the Wii as of now. :/",
      "parentPostTime": "2010-02-06T01:44:58",
      "parentPostId": "32803327"
    },
    {
      "threadId": "61700265",
      "post": "Haha, this is the best thing ever. Between Blue Dragon and this I'm a happy new 360 owner. It's still lame there's no PS3 equivalent, though.",
      "time": "2010-01-26T23:00:16",
      "id": "31443331"
    },
    {
      "threadId": "61069201",
      "post": "Basically, if it's easy to do and a person can get away with it without being punished, people will do it. But that isn't always the case. For example, my PSP has custom firmware and I COULD just download games and never pay for them if I wanted to, but I buy my PSP games. Partly because I want the physical copy, partly because I want to support the industry.\n\nYou're correct that it's just a conditioned response, but with 25+ years of gaming history involving phsyical copies, it's become a collection of mine. To have my collection suddenly stop one generation because companies choose to go all-digital would be a real shame to me. Although the act of playing the games themselves is what's truly important, there is the fact that box art, manuals, and discs are just as strong a part of gaming as anything else.\n\nAnd yes, data is data. Everyone involved in this debate is aware of that, but there are DRM issues as well as the concept of \"will I be able to re-download this game 10 or 20 years from now, if necessary?\" which are important.",
      "time": "2010-01-24T20:17:02",
      "id": "31076305",
      "parentPost": "I doubt that any concept of personal morality will explain digital piracy. I know I'm not making much of an argument but you can look at some of the work done in experimental philosophy and economy regarding morality and theft and you can see that is conceivable that factors of circumstance could explain (or at least predict) mass movements better than any considerations of morality.<br><br>As for the issue of Physical/Digital, I would bring forward the point that \"caring\" about the packaging of a game is purely a conditioned response and an appeal to tradition. Consider an alien whose race has been digitally distributing its games for thousands of years and suddenly offer him a box with a single-use information container within it (DVD or whatever). I think it would be uncontroversial that the alien would be puzzled by the sheer ridiculousness of it and would quickly forget all about the box. (the box cannot be fancy because it would then become a matter of publicity and not philosophy)\n<br><br>\nI would also like to add that the information, in both cases, is digital. So there is no true physical/digital conundrum. It is possible to add DD media onto a single-use disk and create a box yourself. There is also the fact that the DD media occupies a very physical space on your storage device. ",
      "parentPostTime": "2010-01-24T18:32:52",
      "parentPostId": "31068908"
    },
    {
      "threadId": "60433870",
      "post": "I'd love a gold-colored Zelda box, I miss them from back in the day. But, same principle, yeah.",
      "time": "2010-01-21T22:43:35",
      "id": "30742305",
      "parentPost": "Haha, good scheme and good choice of color for M-rated games. I wish they had thought of this long before so I can see Manhunt 2, Silent Hill: Shattered Memories, MADWORLD and other M-rate titles in a black colored box.\r\n\r\nRed box must mean it's a guaranteed Nintendo quality game, so is this new method Nintendo's replacement of the \"Nintendo Seal of Quality\"? Maybe it's only for quality first-party retail games. If that's the case, then I predict a green box for the next Zelda Wii title. You heard it here first! \\;D/\r\n\r\nI also remember when Valve made their box for The Orange Box [PC] orange because of the package title, haha. It was only limited quantity so now it's black colored like all other PC games.\r\n\r\n// Roth",
      "parentPostTime": "2010-01-21T22:28:55",
      "parentPostId": "30741182"
    },
    {
      "threadId": "59498523",
      "post": "But you just said a bunch of speculative stuff without any solid proof, even going so far as to say Atlus won't be around? I mean, come on. Every company is making the transition to HD and \"next gen\" and Atlus won't be any exception. And us obsessed fans will continue to buy up all their great games. It'll be okay, don't worry.\n\nI mean, they can't just continue to develop PS2 games forever. Although that would be oddly awesome.",
      "time": "2010-01-19T20:29:52",
      "id": "30389635",
      "parentPost": "i'm talking about hd development and low atlus game sales. ",
      "parentPostTime": "2010-01-18T21:50:18",
      "parentPostId": "30268898"
    },
    {
      "threadId": "59401533",
      "post": "How is Sweden not a part of Western culture? I mean, it doesn't literally mean \"West\", you know...?\n\nAnyway, I'd love to see FF12 in HD or something, but this thing is definitely not what I want.",
      "time": "2010-01-18T17:19:35",
      "id": "30247013",
      "parentPost": "Is it just me or does anyone else, I get a really strong Oblivion vibe from it x__x; Also does it really count as a western title if it's developed in Sweden >w<? Seriously do-not-want, and I'm glad I will-not-get! Hooray or something!",
      "parentPostTime": "2010-01-18T14:28:35",
      "parentPostId": "30216232"
    },
    {
      "threadId": "58385763",
      "post": "No women? Disappointing. I mean 99% of robot masters just seem like recycled ideas anyway, but at least throw some ladies in there like Splash Woman for variety.",
      "time": "2010-01-14T02:34:22",
      "id": "29706273"
    },
    {
      "threadId": "57073985",
      "post": "I dunno, guys... maybe Wily has really changed, this time.\n\n... Actually, that would probably be the biggest plot twist of all time, if it were true.",
      "time": "2010-01-09T22:13:58",
      "id": "29100489"
    },
    {
      "threadId": "52811972",
      "post": "I think the original designers of the games probably wanted as many people as possible to play them and enjoy them, and I don't think WD did anything to prevent that. Instead, in the case of Lunar, for example, I was able to enjoy the dramatic moments and gameplay AND I actually bothered to speak to every townsperson multiple times over due to WD's work. No harm done to the core of the game at all.\n\nI didn't bother with Lunar Legend for GBA for a couple of reasons, but one of them was the fact that the script lacked what this PSP version seems to have.",
      "time": "2009-12-19T23:00:09",
      "id": "26685810",
      "parentPost": "Yuck. I'm sorry but IMHO the \"work\" that Working Designs did is an absolute afront to the integrity of those who made the game. And how on earth did anyone with any respectability whatsoever at Game Arts EVER approve the immature drivel that Working Designs called a script. Give me a break. ",
      "parentPostTime": "2009-12-19T11:38:37",
      "parentPostId": "26619260"
    },
    {
      "threadId": "48631084",
      "post": "Give me something to spend my goddamn rupees on, so I don't have to intentionally waste them to open up *another* 200 rupee chest which I don't even need anyway.",
      "time": "2009-11-29T18:25:15",
      "id": "24286859"
    },
    {
      "threadId": "40428321",
      "post": "It's not like it's that different in Japanese, either. I think the similar names are intentional, and I doubt anyone would confuse the two if they took a few seconds to read the back of the box or a review or something.\r\n\r\nBesides, I'm always weary of what new, interesting, appropriate (this is sarcasm) title they might come up with.",
      "time": "2009-10-19T16:20:22",
      "id": "20500909",
      "parentPost": "If they release it in NA, I really hope they change the name. \"Union\" and \"Unison\" are too similar and are bound to cause confusion...",
      "parentPostTime": "2009-10-19T15:55:42",
      "parentPostId": "20499608"
    },
    {
      "threadId": "40315702",
      "post": "They're both so good that I'll never be able to pick one over the other. There are things from P3 I miss when playing P4 and vice-versa. I really do enjoy the various improvements made in P4, though, so it makes it easier to play whereas P3 sometimes seems outdated when I go back to it.\r\n\r\nIt's true that P3P is going to \"fix\" various things to make them more like P4, but that's one of the things I don't like about P3: the fact that we now have THREE versions of a game that didn't come out so long ago. P4 is simply one game, and that gives it a touch of class that the now whored-out P3 doesn't have.\r\n\r\nThat doesn't have much to do with enjoying the actual games themselves, but it's a difference worth noting.",
      "time": "2009-10-19T01:52:23",
      "id": "20364903"
    },
    {
      "threadId": "40258791",
      "post": "Seriously? I can't see how anyone who has played at least a few DS games would feel that way about the dual screens. They allow one screen to be uncluttered for the action to take place in, while another can have all the information/maps/etc on it, for example.\r\n\r\nIf anything, I've heard some people claim the touchscreen is gimmicky. Admittedly in some games it's just tacked on as an afterthought, but other games use it quite well and I'm glad to have it as an option, at least.\r\n\r\nBut seriously, I doubt we'll ever return to a Gameboy-esque Nintendo handheld. The DS basically does everything a Gameboy could do and then some, why would reducing the number of screens or other features really improve anything at all?",
      "time": "2009-10-18T16:30:33",
      "id": "20343398",
      "parentPost": "I think the two screens is just a gimmick although I do like touch controls. Return to the GameBoy series please. keep the touchscreen adn give it better graphics and all that jazz. The changeable faceplates rom the GBA micro was a good idea, they need to bring that back. ",
      "parentPostTime": "2009-10-18T14:08:00",
      "parentPostId": "20315212"
    },
    {
      "threadId": "34052245",
      "post": "I honestly haven't noticed any kind of problem with the plot of DS RPGs at all. The DS has an incredible range of RPGs available for it, some with classic, more simple plots like the DQ and FF remakes, and some with new, fresh stories like TWEWY and Devil Survivor. Both kinds of plots have an equal place in the RPG world, to me anyway.\r\n\r\nPlot is one thing that's almost completely subjective in games, but I really have a hard time understanding how someone could look at the huge variety of RPGs that have come out for the DS and be disappointed overall. I also think the DS has surpassed the GBA in terms of... well, everything, including RPG plots.\r\n\r\nI also think there is a difference between console game plots and handheld game plots, in terms of cinematic capability and the tendency to keep things easily digestible on a portable game. I don't think this makes handheld RPGs weaker in plot in any way, but it is a different approach which should be taken into consideration.",
      "time": "2009-09-13T22:18:11",
      "id": "16548150"
    },
    {
      "threadId": "32614879",
      "post": "It is indeed. His art style has just changed a bit since the original release, it seems.",
      "time": "2009-09-03T23:32:53",
      "id": "15919137",
      "parentPost": "I love La Pucelle! :D I'm very glad they decided to use the old art and not use the same artist to redraw everything like Rhapsody DS.\r\n\r\nThough the new cover/promo art looks different from the original artist's work. Does anyone know if it's the same artist that did it or not?",
      "parentPostTime": "2009-09-03T21:47:04",
      "parentPostId": "15902853"
    },
    {
      "threadId": "32411081",
      "post": "What does a $50 game look like, anyway?\r\n\r\nI mean, I have recently-purchased PS2/PSP/DS games that are more expensive than some of the PS3 games I've bought, so...\r\n\r\nAnyway, if game developers stopped trying to evolve how games look right now and focused entirely on making them more fun, I can't say that I would complain at all.",
      "time": "2009-09-03T03:52:32",
      "id": "15846199",
      "parentPost": "What a bullshit argument. In this day and age, if someone buys a $50 game, it should at least LOOK like a $50 game.\r\n\r\nSay what you want, but graphics are just as important as any other aspect of a game.  If your train of logic was present in developer meetings, then games wouldn't evolve whatsoever.",
      "parentPostTime": "2009-09-03T02:12:10",
      "parentPostId": "15842248"
    },
    {
      "threadId": "24854774",
      "post": "Is there a way to download someone's post-trophy patch save and unlock these? This is ridiculous, we should be able to use our existing saves for this.",
      "time": "2009-07-09T23:50:02",
      "id": "12414424"
    },
    {
      "threadId": "24537711",
      "post": "I understand what you mean, but what if NIS didn't come out with any DLC and we'd just have to settle for the (many) unlockables in the normal game itself?\r\n\r\nSome people might be okay with that (and ultimately we wouldn't have known any difference), and those are the kinds of people who can choose not to pay for DLC and be happy with what the game provides on its own.\r\n\r\nBut others might be willing to shell out a couple of bucks for characters that they like or might want to use to help out in the game. And so, we have that choice.\r\n\r\nI honestly don't think NIS's plan was to include all these characters for free in the beginning, but then decided to charge for them. They're clearly extras, something that goes above and beyond what the game normally offers. So I can't really see where any complaints are coming from when it comes to Disgaea 3's DLC itself.\r\n\r\nI know your beef is probably with the DLC phenomenon as a whole, which I agree is worrying, but in terms of what Disgaea 3 offers I think it's fine.",
      "time": "2009-07-07T18:46:46",
      "id": "12269176",
      "parentPost": "Remember when characters, costumes, and extra content were added to the original game and you didn't have to pay for it?\r\n\r\nThat's my main problem.",
      "parentPostTime": "2009-07-07T18:38:13",
      "parentPostId": "12268840"
    },
    {
      "threadId": "22530144",
      "post": "I experienced many such situations in games growing up, especially when I was younger. That's the area in which I can see the Self Play feature making itself useful: in games that younger players might be playing, and getting frustrated in. Another might be in \"gateway\" games, such as an RPG designed for non-RPG players, or an introductory-level FPS or fighting game. I can see it being an alternative or a supplement to buying strategy guides or looking up FAQs.\r\n\r\nStill, I can't help but feel that better game design and common sense could make Self Play unnecessary. The problem is, one's person's frustrating moment is no sweat for someone else. So, I think it could be a good thing... there's still something bothering me deep down about a game playing itself for you, but it's probably due to Self Play being a totally new concept that wasn't around back in my frustrating NES days.",
      "time": "2009-06-22T00:08:48",
      "id": "11540572",
      "parentPost": "I suppose the feature's value is that it would allow players to get past that one, annoying hard part that's preventing them from enjoying the rest of the game. In a Zelda game, I could see myself using it during annoying minigames. For example, remember when you had to do that horse race in Ocarina of Time? That took me forever! I was about ready to just call it quits. You get to the point where you wonder why you're bothering to play when you're not even having fun, and it seems so unfair that such a tiny roadblock would prevent you from experiencing the rest of an otherwise great game that you paid for.",
      "parentPostTime": "2009-06-21T23:45:41",
      "parentPostId": "11540247"
    },
    {
      "threadId": "20606845",
      "post": "Yeah, I agree. In fact, a lot of people who have played both the English and Japanese versions prefer the English voices overall (I agree about Margaret, though). There are a lot of other examples of well-done dubs out there, as well. If the quality is there, most gamers aren't going to complain about a lack of JP voice option.\r\n\r\nStill, I always like the option of it whenever possible, just for the sake of choice, and also to give 2nd playthroughs a little extra kick to them.",
      "time": "2009-06-06T15:40:36",
      "id": "10564696",
      "parentPost": "Speaking of quality English dubs, I notice your P4 avatar.  I was thinking as people debate this topic, that I would not be so against English dubs if they all had the quality of P4.  That is one of the best dubbed games I can think of.\r\n(Except for Margaret, her voice acting is awful)",
      "parentPostTime": "2009-06-06T15:32:04",
      "parentPostId": "10564576"
    },
    {
      "threadId": "19891023",
      "post": "If I never see another port of the original Disgaea, it'll be too soon.\r\n\r\nWhile I would love more RPGs on the Wii as well, I'd rather them be original games or Wii ports of PS2 games that never came out here (Summon Night 4, Dragon Shadow Spell, etc)",
      "time": "2009-05-31T01:57:56",
      "id": "10307201",
      "parentPost": "If we told them to make our character jump off a cliff, would they add that in to the game? *bah-dum-bish*\r\n\r\nThat's great that they take Internet reaction very seriously for these things, hell, I wish SEGA would take reaction of voice acting as seriously, then 4Kids wouldn't have touched the Sonic games...\r\n\r\nIf I had a request for NIS as a whole, it'd be to bring some more upgraded ports of their PS2 games like Disagea and such, that'd be nice to have more RPGs in the Wii's library.\r\n\r\nOr to bring over Kizuna and such games. Actually NISA is the most fit I think to localize Kizuna, as Jaleco did publish Puchi Puchi Virus in Japan. Hmm. Do we even know if they'll be at E3 and what their line-up is?\r\n\r\nI have to give them BIG props to them for getting Sakura Wars on the Wii, that was a REALLY big surprise, as I thought localizers don't do that sort of thing!",
      "parentPostTime": "2009-05-31T01:15:42",
      "parentPostId": "10306570"
    },
    {
      "threadId": "18077714",
      "post": "Agreed, I can't stand any of NIS's English dubs and for Phantom Brave in particular it's important to me that the voices are good. This really sucks, I love PB more than any of the other Disgaea-ish games and was looking forward to this game a lot.",
      "time": "2009-05-13T21:07:25",
      "id": "9296744",
      "parentPost": "Oh well... I'm not buying it then. You just lost one sale NISA.",
      "parentPostTime": "2009-05-13T18:23:52",
      "parentPostId": "9290115"
    },
    {
      "threadId": "17769160",
      "post": "In games where no grinding is necessary whatsoever... those games tend to be far too easy. Which kills my enjoyment of the game's battle system and ability system. After all, if I don't really have to think too much to beat a boss, or if it really doesn't affect much that I found this new weapon or spell, then why bother? On the other hand, I don't want to have to grind mercilessly in between dungeons, either. Especially my first time through.\r\n\r\nIt's unfortunate that more RPGs don't have selectable difficulty levels. Put in an easy mode for people who just want to see the story and breeze through the game with no grinding. And put in harder modes for those of us who enjoy the challenge and want to experience the game to its fullest.\r\n\r\nSpeaking of Persona games... those games have easy modes. So I don't see how anyone could really complain about grinding in them if you have the option to reduce the amount you need to do.",
      "time": "2009-05-10T15:25:02",
      "id": "9182076"
    },
    {
      "threadId": "15613519",
      "post": "I don't have a problem with the idea of downloadable games. I think it's a great medium through which to release offbeat games that might not make it in the normal retail market, and it is convenient. Like many people, though, I want an actual disc/manual/case. However, currently the market seems to be making physical purchases more inviting with games going on sale at midnight, game trade-ins, and preorder bonuses.\r\n\r\nMy only issue is if it becomes more mainstream to the point where games that would ordinarily be offered both ways become digital-only (I want to make the choice myself, not have it forced on me). Also, in 10-15 years are my downloads still going to be valid? Are my Virtual Console games going to be transferable to the Wii 3 or will game companies be evil and try to make me pay again?\r\n\r\nI think one awesome thing that could be done is, somehow, letting people who have purchased the physical copy of the game from an online retailer download the digital version the second it's released, to be able to play it until the \"real\" version arrives. I wouldn't mind paying a few dollars for that luxury, and it would be a nice blending of the best parts of the two concepts.",
      "time": "2009-04-13T00:04:44",
      "id": "8103550"
    },
    {
      "threadId": "15141106",
      "post": "My DS Lite's top screen stopped working two weeks ago just as I was getting into Pokemon Platinum, so now I'm getting a DSi as opposed to paying to get my DS Lite repaired.\r\n\r\nOriginally I had no interest and probably would have held off for a long time (or entirely) before getting a DSi, but here I am. I think there's a potential here to create something worth upgrading for, but it's all up to Nintendo and the direction they take things in. I think the idea of porting cell phone games to the DSi for digital download is a great idea, because these games simply don't get released outside of Japan 99% of the time. And I know many gamers would buy the DSi just for that.\r\n\r\nLooking at the difference between the features the PSP had on day one compared to now, upgradeable firmware makes all the difference. If the DSi has features regularly added to it, that's another selling point, but that's more of a long-term idea that won't sell units on launch.\r\n\r\nStill, yet another DS upgrade that lacks a GBA slot is a tough sell for gamers who are content with their Lites. Eventually I hope the DSi ware games as well as enhanced DSi cards and more added features will make it worthwhile, for Nintendo's sake anyway.",
      "time": "2009-04-05T19:37:44",
      "id": "7886345"
    },
    {
      "threadId": "12829017",
      "post": "I just don't think the iPhone has what most gamers consider to be \"real\" games.\r\n\r\nFun little timewasters, sure, and there's nothing wrong with that kind of game that you can pick up and play easily. But there's absolutely no way that those kinds of games can compete directly with the vast sea of quality, deep, engrossing games the DS offers. I don't think the iPhone is quite right for 50 hour RPGs or most \"traditional\" kinds of games which need physical buttons in order for most gamers to feel comfortable playing them.\r\n\r\nThe casual gaming market could very easily thrive on the iPhone, because if you already have one, why not download a couple of games to distract you if you forget to take your DS with you? And \"non-gamers\" could be drawn to the idea of gaming on their iPhones if they're not the types to purchase a portable gaming system in the first place. \r\n\r\nBut gamers won't buy iPhones just to play those kinds of games, and non-gamers won't be dissuaded from buying a DS if they already have an iPhone, since they probably wouldn't do so in the first place. Furthermore, the iPhone does not really offer anything significant that the DS does not when it comes to gaming - the DS had a touchscreen long before the iPhone even existed, after all.\r\n\r\nPersonally, I think they're separate markets with separate demographics and have separate things to offer when it comes to portable gaming. So no, I don't think the DS has anything to fear from the iPhone. With the DSi having the capability to download games the two will share one thing in common, but the kinds of games being offered will likely vary radically.",
      "time": "2009-03-01T21:37:53",
      "id": "6749368"
    },
    {
      "threadId": "10517461",
      "post": "Ooh, definitely going to try for this! I need to brush up on my numbers, anyway.",
      "time": "2009-01-25T23:12:02",
      "id": "5538544"
    }
  ],
  "profileInfo": {
    "username": "Kamiwoo",
    "about": "",
    "name": "Kamiwoo",
    "disable3rdPartyTrackers": false,
    "isPowerContributor": false,
    "isAnonymous": false,
    "rep": 1.2114939999999998,
    "profileUrl": "https://disqus.com/by/Kamiwoo/",
    "url": "http://twitter.com/#!/Kamiwoo",
    "reputation": 1.2114939999999998,
    "location": "",
    "isPrivate": false,
    "signedUrl": "http://disq.us/?url=http%3A%2F%2Ftwitter.com%2F%23%21%2FKamiwoo&key=rJdydymjZq4Ej3eKEMKdKw",
    "isPrimary": true,
    "joinedAt": "2009-01-25T23:12:02",
    "id": "198779",
    "avatar": {
      "small": {
        "permalink": "https://disqus.com/api/users/avatars/Kamiwoo.jpg",
        "cache": "//a.disquscdn.com/uploads/users/19/8779/avatar32.jpg?1305853689"
      },
      "isCustom": true,
      "permalink": "https://disqus.com/api/users/avatars/Kamiwoo.jpg",
      "cache": "//a.disquscdn.com/uploads/users/19/8779/avatar92.jpg?1305853689",
      "large": {
        "permalink": "https://disqus.com/api/users/avatars/Kamiwoo.jpg",
        "cache": "//a.disquscdn.com/uploads/users/19/8779/avatar92.jpg?1305853689"
      }
    }
  }
}