{
  "comments": [
    {
      "threadId": "4127444696",
      "post": "Thanks, Kai! Oh man, I can't remember how long it took to mask the necklace out. I think a couple hours. Ideally I'd love to have a 3D asset so a wearer can pinch and rotate it.",
      "time": "2015-09-30T16:31:52",
      "id": "2282209039",
      "parentPost": "I love this idea! What a great way to virtually try something on. Seems like there would be some interesting things to explore with switching the camera between the front and back (depending on if you're looking at something like a necklace vs. a piece of clothing in a mirror) as well as being able to easily scale the piece you're viewing.\n\n\nHow long did it take you to mask out the necklace? It's a pretty complex image, but I think the end result was totally worth it.",
      "parentPostTime": "2015-09-15T14:34:57",
      "parentPostId": "2254785010"
    },
    {
      "threadId": "3761780053",
      "post": "So excited to have such an amazing company in Seattle. Welcome!",
      "time": "2015-05-14T16:33:48",
      "id": "2024760205"
    },
    {
      "threadId": "3249073752",
      "post": "Totally! NP just wanted to make a note of it. I have a feeling these posts will be moving targets for a while! Thanks for sharing this information.",
      "time": "2014-12-14T00:53:28",
      "id": "1740886407",
      "parentPost": "Thanks for the share!\n\nAs Natasha mentioned, that's a new change with Beta 2. Tons of developers requested it.\n\n\"The most exciting part of yesterday’s XCode 6.2 Beta 2 release was the new added ability to open the iOS app from the Apple Watch and even pass information while doing so! It’s super easy to do.\"",
      "parentPostTime": "2014-12-13T20:59:04",
      "parentPostId": "1740670309"
    },
    {
      "threadId": "3314278141",
      "post": "Well, Unagi is what gives a Jedi his power. It's an energy field created by all living things. It surrounds us and penetrates us; it binds the galaxy together.",
      "time": "2014-12-13T16:30:02",
      "id": "1740364565",
      "parentPost": "lol Chanandler Bong. Awesome.",
      "parentPostTime": "2014-12-12T14:02:09",
      "parentPostId": "1738559390"
    },
    {
      "threadId": "2792295870",
      "post": "You know...because of the echo.",
      "time": "2014-06-24T20:24:23",
      "id": "1452357134",
      "parentPost": "Are any of his pussy jokes being rebooted too?",
      "parentPostTime": "2014-06-24T19:56:23",
      "parentPostId": "1452314355"
    },
    {
      "threadId": "2790151818",
      "post": "I'd love Kyrie Irving.",
      "time": "2014-06-24T15:52:18",
      "id": "1451864949",
      "parentPost": "Getting a \"big 3\" is overrated, the Spurs beat down the so-called \"big 3\", Lakers should focus on getting a legit all-star point guard (free agent Kyle Lowry would be ideal) and depth.",
      "parentPostTime": "2014-06-24T12:38:26",
      "parentPostId": "1451519555"
    },
    {
      "threadId": "2044517101",
      "post": "Congrats you guys! Looking forward to the apps.",
      "time": "2013-12-12T03:22:21",
      "id": "1159599052"
    },
    {
      "threadId": "1824346024",
      "post": "Thank you. :)",
      "time": "2013-10-06T02:58:48",
      "id": "1072116487",
      "parentPost": "This is so great, David. ",
      "parentPostTime": "2013-10-04T16:21:37",
      "parentPostId": "1070406939"
    },
    {
      "threadId": "1752390856",
      "post": "Looks like he had a blast.",
      "time": "2013-09-13T02:15:37",
      "id": "1041368475"
    },
    {
      "threadId": "1752890598",
      "post": "Looks like he had a blast.",
      "time": "2013-09-13T02:09:48",
      "id": "1041364187"
    },
    {
      "threadId": "1010466148",
      "post": "I just had a thought about the difference between just existing and living and your post came up. Thank you for writing this :)",
      "time": "2013-07-27T19:30:47",
      "id": "978562537"
    },
    {
      "threadId": "1231576508",
      "post": "You are very welcome!",
      "time": "2013-05-09T20:43:21",
      "id": "891210409",
      "parentPost": "Thanks for the free invite.",
      "parentPostTime": "2013-04-24T03:05:24",
      "parentPostId": "873828949"
    },
    {
      "threadId": "964907370",
      "post": "This is a great post, you guys! Keep up the great work.",
      "time": "2012-12-09T19:31:32",
      "id": "731805609"
    },
    {
      "threadId": "961398543",
      "post": "Very well said, my friend.",
      "time": "2012-12-08T16:17:15",
      "id": "731102417",
      "parentPost": "Believe it or not, some people view social media as a way to stay connected with people they know. Not everybody's social media presence is a testosterone driven competition to see who can make their timeline, through links, the ideal combination of a TED conference, South by Southwest, and snarky opinion columns. Not everybody believes that the world will be changed a little bit each time they share an opinion they heard somewhere else with a bunch of like minded link posters. Whereas in the past men might flaunt their real life success, now a certain sect creams over the self image they have created online. They may not be Mark Zuckerberg, but through the wonders of the internet, they can feel like they are. To each their own.",
      "parentPostTime": "2012-12-06T19:24:44",
      "parentPostId": "729486468"
    },
    {
      "threadId": "945430539",
      "post": "Nice!",
      "time": "2012-11-26T23:57:48",
      "id": "719773665"
    },
    {
      "threadId": "872787025",
      "post": "I'm not going to question someone's sincerity in a tribute, but will say it's an \"interesting\" approach. I prefer to hear heartfelt stories of how he inspired people, see artwork, designs, or music created in his tribute.",
      "time": "2012-10-05T17:55:47",
      "id": "672523247"
    },
    {
      "threadId": "848083208",
      "post": "I wish they could look a bit more Bro.",
      "time": "2012-09-17T18:07:18",
      "id": "653343126"
    },
    {
      "threadId": "772944864",
      "post": "Or to prove herself!",
      "time": "2012-07-20T17:18:35",
      "id": "593395439"
    },
    {
      "threadId": "749839760",
      "post": "It's a trap!",
      "time": "2012-07-08T18:43:57",
      "id": "580740930"
    },
    {
      "threadId": "753285249",
      "post": "Oh dude, I have the toughest time understanding Brits. LOL.",
      "time": "2012-07-06T16:11:18",
      "id": "578691374",
      "parentPost": "Uhg. I have to put up with that and much worse. lol",
      "parentPostTime": "2012-07-06T12:26:07",
      "parentPostId": "578484140"
    },
    {
      "threadId": "747869295",
      "post": "That was certainly one of the issues for me. Facebook is fine and I have no issue with people using it, but I just want to block it out a while to focus a bit.",
      "time": "2012-07-02T14:51:30",
      "id": "574275891",
      "parentPost": "I have to say this is a big surprise. You were one of the most active users of all my friends on Facebook. ",
      "parentPostTime": "2012-07-02T07:52:17",
      "parentPostId": "574054913"
    },
    {
      "threadId": "703411998",
      "post": "YAY! I love this wallpaper so much...and you! :)",
      "time": "2012-05-25T20:44:27",
      "id": "538670786",
      "parentPost": "Oh...I love you David Hoang! \nWe are using the same wallpaper :)\n\n\n\n",
      "parentPostTime": "2012-05-25T19:20:57",
      "parentPostId": "538621021"
    },
    {
      "threadId": "663492065",
      "post": "This is a great video by BreadVault: 'What do kids know about money?' http://www.youtube.com/watch?v=Sa72OK8b0JM Some answers are very endearing!",
      "time": "2012-04-25T20:06:22",
      "id": "509043307"
    },
    {
      "threadId": "656414629",
      "post": "Because Android phones are bigger than the burger.",
      "time": "2012-04-19T17:58:57",
      "id": "502574351",
      "parentPost": "When did iPhones become a standard for measurement? Fucking Apple fags...",
      "parentPostTime": "2012-04-19T17:25:02",
      "parentPostId": "502544489"
    },
    {
      "threadId": "548363123",
      "post": "You should be able to get them here! http://printstagr.am/miniprints.php\n\nJust log into you Instagram and you can order :)",
      "time": "2012-01-26T03:52:08",
      "id": "421116668",
      "parentPost": "This is great! How did you order the print? When I go to the printstagram site they only give me the option of printing out the .pdf file.",
      "parentPostTime": "2012-01-24T01:13:44",
      "parentPostId": "419208597"
    },
    {
      "threadId": "410564557",
      "post": "It was such an \"ah ha\" moment for me when I sat the lid down and realized it was a coaster! :)",
      "time": "2011-12-26T02:26:05",
      "id": "394248960",
      "parentPost": "How funny and coincidental! We designers notice the good stuff right way. I thought it was clever to cover the top for the package because it's usually the ugliest part.",
      "parentPostTime": "2011-12-26T02:20:29",
      "parentPostId": "394247835"
    },
    {
      "threadId": "516133771",
      "post": "I love this. I wrote about the exact same thing. http://davidhoang.com/2011/09/good-design-limonata/ #LoveLimonata",
      "time": "2011-12-26T02:14:36",
      "id": "394246670"
    },
    {
      "threadId": "508720848",
      "post": "I want this in me LOL",
      "time": "2011-12-18T21:50:50",
      "id": "389400157"
    },
    {
      "threadId": "461605300",
      "post": "It's true! Let's meet up for lunch or dinner before I go! December 3 is the deploy date ;)",
      "time": "2011-11-05T16:14:51",
      "id": "356530666",
      "parentPost": "Oh, I had no idea you were moving! Congratulations on the change, and good luck. I'm happy I got to meet you in Seattle before you left.",
      "parentPostTime": "2011-11-04T18:36:40",
      "parentPostId": "355911406"
    },
    {
      "threadId": "453218150",
      "post": "This might be my favorite one so far!",
      "time": "2011-11-04T05:36:50",
      "id": "355366744"
    },
    {
      "threadId": "456503384",
      "post": "Thanks so much, Laura! I had to bring the Mega with me! Move date is December 1 :)",
      "time": "2011-10-30T01:52:31",
      "id": "349154735",
      "parentPost": "Congratulations, David! This is huge news and I'm happy you've found your new home (and that Mega Kitty will be along for this part of your journey). So, when's the big moving day?",
      "parentPostTime": "2011-10-29T22:20:10",
      "parentPostId": "349091986"
    },
    {
      "threadId": "440688344",
      "post": "Glad to hear you got to do that! So wonderful :) I learned this when I was in Paris. People go to cafes just to enjoy. Some would work after they met up with friends to catch up for a bit, which is what we'll do this weekend!",
      "time": "2011-10-19T19:24:24",
      "id": "339356697",
      "parentPost": "I like this concept, David. My life has been crazy too lately, and I hardly have any time for myself. I try to block off time every night to read and I have been starting to bike ride on the weekends to Starbucks to just enjoy life. :)",
      "parentPostTime": "2011-10-19T19:20:43",
      "parentPostId": "339354524"
    },
    {
      "threadId": "432509116",
      "post": "Oh nice! Oh man we gotta get you a shirt!",
      "time": "2011-10-03T03:16:24",
      "id": "325339364",
      "parentPost": "Chris Baggott, actually. I only found out after he approached me at BlogWorld in New York earlier this year - after he had left the company. I didn't even get a t-shirt. :P",
      "parentPostTime": "2011-10-03T03:02:14",
      "parentPostId": "325333851"
    },
    {
      "threadId": "4527868319",
      "post": "I adore Tate Modern! Thanks for sharing the photos of your trip :)",
      "time": "2011-08-24T06:18:53",
      "id": "294235199"
    },
    {
      "threadId": "330020717",
      "post": "Thank you very much for your kind words, Jessica :)",
      "time": "2011-08-20T07:39:35",
      "id": "291631118",
      "parentPost": "i really love this sketch. very nice!",
      "parentPostTime": "2011-08-11T19:50:21",
      "parentPostId": "283706612"
    },
    {
      "threadId": "265669410",
      "post": "I can definitely understand and appreciate that perspective as well. I think that's why I kept Twitter though. Sometimes with Facebook it's like drinking through a firehouse!",
      "time": "2011-04-16T14:09:18",
      "id": "185676762",
      "parentPost": "I love that photo.  I loved hearing you guys plan your Dev coffee meetups on twitter and I'm sad we're no longer connected on FB.  There are days I feel the exact opposite of you, but I'm also not in any fields that use social media professionally.  For me FB allows me to connect to my less technically saavy family and see what they're up to. I guess I never felt the need to follow everyone like many people did?   Enjoy your trip/learning experience, I can't see what life throws at you.",
      "parentPostTime": "2011-04-13T23:04:43",
      "parentPostId": "184058727"
    },
    {
      "threadId": "279355742",
      "post": "Funny, I was at his nephew's bookstore today.",
      "time": "2011-04-14T15:27:37",
      "id": "184407052"
    },
    {
      "threadId": "241440224",
      "post": "I think you're right Justin. Maybe I just need to spend a few months elsewhere to get refreshed. I do love this city, and maybe leaving it will inspire me to come back.",
      "time": "2011-03-01T06:10:39",
      "id": "158128723",
      "parentPost": "I get the same feeling from people in Seattle sometimes, there are a lot of people who will keep you at arms length.\n\nBut all cities have their quirks. Personally, I can't stand Portland (maybe 1990 Portland I could have loved) - and San Fransisco is great, too bad it's in California.\n\nI think NYC is awesome, I'm moving there next. I'd also like to spend some time in Boston.\n\nI can't inspire you to love Seattle again, maybe you just need a change for awhile? (you can always come back)",
      "parentPostTime": "2011-02-27T20:13:09",
      "parentPostId": "157263355"
    },
    {
      "threadId": "226500963",
      "post": "I agree with you 100%. I wish I would have taken a photo of how close I was to them.",
      "time": "2011-02-10T03:19:37",
      "id": "143819757",
      "parentPost": "The best photos are the ones that make us see more than just the moment they froze on film (or in digital bits).  Though I suspect that's true of all art.",
      "parentPostTime": "2011-02-10T03:18:19",
      "parentPostId": "143818635"
    },
    {
      "threadId": "83235725",
      "post": "Hey Brenda,\n\nThx for the comment. You bring up a good point about using \"please RT\" as a way to catch someone's attention, and how it's a powerful way to share an important message.\n\nI agree though, can't be self-serving. All-too-often, I get people asking me to retweet about their upcoming gig or something like that. You made me re-think my stance (only a bit, hehe) about asking for retweets. I sit and think about Haiti or the recent earthquakes, where tips from the Red Cross NEEDS to be retweeted.\n\nThanks for the conversation :)",
      "time": "2010-04-07T02:09:39",
      "id": "43590336",
      "parentPost": "Hmm.... interesting viewpoint but I'm not sure that I agree. I admit that I occasionally ask folks to RT certain messages that I post, but only when I am asking for help in promoting something that others may find of value or in finding a vendor or helping someone else in my network. Rarely do I make an RT request that is completely self-serving. And for me, seeing a \"please RT me\" makes me look twice at a post and I'll happily RT if I find it worthy of passalong. But good blog nonetheless! You got me to read it and respond. @brendameller",
      "parentPostTime": "2010-04-07T01:48:09",
      "parentPostId": "43586350"
    },
    {
      "threadId": "71798853",
      "post": "Thx!",
      "time": "2010-03-07T00:38:29",
      "id": "38371468",
      "parentPost": "Awesome David - what a cool idea!",
      "parentPostTime": "2010-03-05T02:15:09",
      "parentPostId": "38096685"
    },
    {
      "threadId": "61214576",
      "post": "Thx Greg. I don't know man, I just feel lately I've been alienating people or just straight-up freaking people out.",
      "time": "2010-01-25T07:23:32",
      "id": "31141950",
      "parentPost": "Does it matter? Honestly, would you stop being \"ambitious and loving\" if someone told you that you were intimidating because of those traits.The world needs more people like you. More people who care about complete strangers. People willing to go the extra mile to care for someone they don't know instead of waiting for a major catastrophe and do it because everyone else is doing it.\n\nDon't sweat the people who may feel pressured. Be true to yourself and you will be blessed. Just keep in mind that there are people out there who enjoy your company. :)",
      "parentPostTime": "2010-01-25T07:11:13",
      "parentPostId": "31141521"
    },
    {
      "threadId": "59301901",
      "post": "\"Hot Dog Down a Hallway\" sounds so dirty!",
      "time": "2010-01-20T06:36:20",
      "id": "30454208",
      "parentPost": "If you like word games, then definitely Words with Friends! (the Scrabble knock-off). My other new obsession is WordWeaver. It's sort of like PopCap's Bookworm. You can challenge your friends, etc. \n\nI also like really goofy games.... check out \"Hot Dog Down a Hallway.\" :) \n\n",
      "parentPostTime": "2010-01-18T03:38:34",
      "parentPostId": "30153682"
    },
    {
      "threadId": "58730358",
      "post": "Don't you have a gym at your complex? :)",
      "time": "2010-01-19T17:17:52",
      "id": "30359610",
      "parentPost": "Very inspiring. I'm getting quite a belly from not exercising.",
      "parentPostTime": "2010-01-18T03:08:01",
      "parentPostId": "30136937"
    },
    {
      "threadId": "54880287",
      "post": "Yes it is! Could you tell? What do you think, Rusydi?",
      "time": "2010-01-02T01:50:29",
      "id": "27801748",
      "parentPost": "LOL that's Niki right?? xD",
      "parentPostTime": "2009-12-31T20:18:58",
      "parentPostId": "27678137"
    },
    {
      "threadId": "49455839",
      "post": "No problem, Jeb! I had fun doing it. Beastie Boys, FTW! :)",
      "time": "2009-12-03T06:02:40",
      "id": "24665325",
      "parentPost": "Ah man, you're awesome David, thank you so much. Great choice of music, too. :) Please let me know how I can help you...I owe you big big. ",
      "parentPostTime": "2009-12-03T05:41:57",
      "parentPostId": "24663524"
    }
  ],
  "profileInfo": {
    "username": "davidhoang",
    "about": "",
    "name": "David Hoang",
    "disable3rdPartyTrackers": false,
    "isPowerContributor": false,
    "isAnonymous": false,
    "rep": 1.293417,
    "profileUrl": "https://disqus.com/by/davidhoang/",
    "url": "http://davidhoang.com",
    "reputation": 1.293417,
    "location": "Seattle, WA",
    "isPrivate": false,
    "signedUrl": "http://disq.us/?url=http%3A%2F%2Fdavidhoang.com&key=k-iIAedI2gv2c8IK4Obhbg",
    "isPrimary": true,
    "joinedAt": "2008-09-27T07:30:22",
    "id": "109290",
    "avatar": {
      "small": {
        "permalink": "https://disqus.com/api/users/avatars/davidhoang.jpg",
        "cache": "//a.disquscdn.com/uploads/users/10/9290/avatar32.jpg?1418518409"
      },
      "isCustom": true,
      "permalink": "https://disqus.com/api/users/avatars/davidhoang.jpg",
      "cache": "//a.disquscdn.com/uploads/users/10/9290/avatar92.jpg?1418518409",
      "large": {
        "permalink": "https://disqus.com/api/users/avatars/davidhoang.jpg",
        "cache": "//a.disquscdn.com/uploads/users/10/9290/avatar92.jpg?1418518409"
      }
    }
  }
}