{
  "comments": [
    {
      "threadId": "4557160585",
      "post": "I don't think you can walk in as a Democrat and then register as a Republican that day, I believe you have to be undeclared when you walk in and then you can choose which ballot to take.",
      "time": "2016-02-06T20:51:18",
      "id": "2499958356",
      "parentPost": "That is really disgusting.  So in NH, you can walk in a Democrat, but register as a Republican, to vote that day, and then on the way out go back to being a Democrat.",
      "parentPostTime": "2016-02-06T20:31:44",
      "parentPostId": "2499933290"
    },
    {
      "threadId": "3771176169",
      "post": "I have the Galaxy S3 and  I use the GO SMS free app for texting. Occasionally I am asked to update to the latest version but I always decline because when I like the way an app works I am hesitant to change it. Sometimes I do not like the changes and from what you have written I don't think I will be updating it any time soon.",
      "time": "2015-05-17T23:12:56",
      "id": "2030840116"
    },
    {
      "threadId": "3656283435",
      "post": "Happy Easter!",
      "time": "2015-04-05T12:15:14",
      "id": "1947250489"
    },
    {
      "threadId": "3617228218",
      "post": "Will these Democrats remain firm in their opposition or will they fold under pressure? That is the question...",
      "time": "2015-03-22T20:21:17",
      "id": "1922223557"
    },
    {
      "threadId": "3576609352",
      "post": "I am sure this is just another remarkable coincidence...",
      "time": "2015-03-08T01:25:26",
      "id": "1894399061"
    },
    {
      "threadId": "3467936321",
      "post": "Barack Obama introduced the  sequester cuts when he thought the Republicans would cave. It was a political maneuver, but now that they agreed with him on the cuts he has reversed course for obvious political reasons. He now opposes his own plan while blaming the Republicans for the sequester. What a joke!",
      "time": "2015-02-05T01:12:22",
      "id": "1835662410"
    },
    {
      "threadId": "3453717226",
      "post": "I have been saying for quite awhile that in the end the Republicans and the Democrats are on the same side. They are elitists who are not opposed to big government, they only wish to be the ones controlling it. In the end they agree on most issues but differ on the implementation. However this shows me that they really are no different at all than the Democrats. They claim they are in order to win votes but when push comes to shove they show us time and time again that they are only concerned with the politics of the issues. They have no moral code other than doing and saying what it takes to get elected. If they were truly pro-life they would not give a damn if the left used this issue to push the \"war on women\" agenda, they would do what they thought was right.",
      "time": "2015-01-26T01:01:13",
      "id": "1816907560"
    },
    {
      "threadId": "3439496445",
      "post": "The left loves to claim they are the tolerant, diversity minded people but they prove time and time again that they do not live up to the standards they set for the rest of us.",
      "time": "2015-01-20T23:36:37",
      "id": "1805166384"
    },
    {
      "threadId": "3410611451",
      "post": "Of course we cannot afford this but once again Obama has painted the Republicans into a corner. When they oppose this based on financial reasons he will turn the table on them by saying Republicans are trying to strip ordinary Americans of the right to \"free\" education and sadly this will probably work.",
      "time": "2015-01-13T00:51:23",
      "id": "1789597040"
    },
    {
      "threadId": "3372863893",
      "post": "Obama truly is a master of double-speak!",
      "time": "2014-12-31T01:12:33",
      "id": "1765399637"
    },
    {
      "threadId": "3301211080",
      "post": "It would seem to me that Gruber has outed himself as a racist considering Sanger founded Planned Parenthood in an attempt to commit genocide on the black people of this country...",
      "time": "2014-12-09T01:11:26",
      "id": "1732508861"
    },
    {
      "threadId": "3256158840",
      "post": "And on top of this the DOJ was providing \"leaks\" to another journalist who was doing a hit piece on Issa...",
      "time": "2014-11-23T23:41:59",
      "id": "1708991479"
    },
    {
      "threadId": "3234159465",
      "post": "Isn't California a liberal state...",
      "time": "2014-11-19T17:59:03",
      "id": "1701684589",
      "parentPost": "it's crazy man...if the conservatives who always bashed rap realized 90% of rappers are not actually in the streets like that, they'd realize it's no different than movies\n\n\nbetter yet, doesn't the news profit from gang related crime? so why aren't station directors being persecuted for it too?",
      "parentPostTime": "2014-11-17T17:20:30",
      "parentPostId": "1697583015"
    },
    {
      "threadId": "3236217060",
      "post": "Thanks for the link Larry and very well done! Do we need any more proof that the MSM has been in the bag for Obama from the very beginning?",
      "time": "2014-11-18T11:50:32",
      "id": "1699182377"
    },
    {
      "threadId": "3199903225",
      "post": "They claim they did not look at the servers for the emails because they decided they would not be there, I contend that they didn't look at the servers because they knew they were there...",
      "time": "2014-11-07T03:03:31",
      "id": "1680744748"
    },
    {
      "threadId": "3171212123",
      "post": "But I thought there was no such thing as voter fraud?!",
      "time": "2014-10-30T23:50:49",
      "id": "1662243901"
    },
    {
      "threadId": "3168846419",
      "post": "Watch for the feds to start calling for more internet regulations, that is what this is about...",
      "time": "2014-10-29T14:43:54",
      "id": "1659269604"
    },
    {
      "threadId": "3157582837",
      "post": "Dems like to claim the percentage of fraud is so small that it doesn't matter but they are purposely ignoring cases where it can matter in close races. All it takes is a couple of races to go the other way and the national picture is changed.",
      "time": "2014-10-26T11:04:08",
      "id": "1654280745"
    },
    {
      "threadId": "3155252469",
      "post": "Maybe, just maybe, somebody will eventually be held accountable...",
      "time": "2014-10-25T18:57:53",
      "id": "1653588070"
    },
    {
      "threadId": "3070217563",
      "post": "I am one who believes the Republicans will find a way to blow this, however it is possible that Obama is so toxic that even the Republicans can not screw this up...",
      "time": "2014-09-30T23:43:35",
      "id": "1613934032"
    },
    {
      "threadId": "3026328580",
      "post": "I really do not know what to say about this. Normally I would say this is unbelievable but I find nothing to be unbelievable when it comes from the mouth of a Democrat anymore!",
      "time": "2014-09-17T23:27:43",
      "id": "1593858907"
    },
    {
      "threadId": "3015848463",
      "post": "Thanks for the hat tip. Bill nailed another one!",
      "time": "2014-09-15T10:00:48",
      "id": "1589636984"
    },
    {
      "threadId": "3011225612",
      "post": "It seems as if Bush had a better grasp of the Middle East than our current president who is clearly motivated only by politics.",
      "time": "2014-09-12T22:49:03",
      "id": "1586606035"
    },
    {
      "threadId": "3006646351",
      "post": "I just wrote about this as well, what an unbelievable coincidence!",
      "time": "2014-09-10T23:39:07",
      "id": "1583423866"
    },
    {
      "threadId": "3004816774",
      "post": "Thanks for the link Matt! This whole regime is corrupt and this is just the latest example, however this is the most blatant one to date. Hopefully something will come from this but I doubt it will.",
      "time": "2014-09-10T11:04:43",
      "id": "1582325747"
    },
    {
      "threadId": "2954681669",
      "post": "Another brilliant Afterburner by Bill Whittle!",
      "time": "2014-08-24T19:31:16",
      "id": "1557293887"
    },
    {
      "threadId": "2950913837",
      "post": "The question is; is anybody going to do anything about this?",
      "time": "2014-08-22T22:18:30",
      "id": "1555121785"
    },
    {
      "threadId": "2940227823",
      "post": "Obama has made divide and conquer the centerpiece of his regime and somehow I think Holder is only going to further that agenda when he shows up there tomorrow. They have been waiting for something like this to happen and now they have it. They will not let this crisis go to waste.",
      "time": "2014-08-19T23:21:21",
      "id": "1550402400"
    },
    {
      "threadId": "2938549585",
      "post": "Yeah, the narrative is falling apart but that won't matter because as you said, this is no longer an issue about the death of Michael Brown or of getting to the truth. This is all about using the issue for political purposes and that is sad.",
      "time": "2014-08-18T23:27:21",
      "id": "1548697026"
    },
    {
      "threadId": "2929226385",
      "post": "Charles summed up my question below: how is it that it only affect Illinois and not all the other states in between? Just when you thought it couldn't get any more ridiculous it does!",
      "time": "2014-08-15T22:53:23",
      "id": "1544796688"
    },
    {
      "threadId": "2926216028",
      "post": "Who saw this coming? Oh yeah, we did! To bad nobody would listen. Single-payer was always the goal, but of course we knew that as well.",
      "time": "2014-08-15T00:21:15",
      "id": "1543383135"
    },
    {
      "threadId": "2919192153",
      "post": "I am involved in several private conversations on Facebook. For the last several days when I get an update to a conversation FB would ask me to get the messenger app but once I declined it would allow me to view the conversation. Now FB is not allowing me to use the FB app to view conversations, it is holding them hostage until I download the app, which I refuse to do. So now I will have to wait until I am at a computer to view my conversations. I find this totally unacceptable!",
      "time": "2014-08-11T23:33:41",
      "id": "1538210892"
    },
    {
      "threadId": "2905275100",
      "post": "So says the woman who claimed Romney had to be stopped at all costs before going all in on him  because her boy in NJ did. The same woman who jumps between the Tea Party and the establishment when it suits her needs.\n\n",
      "time": "2014-08-06T17:40:41",
      "id": "1530430073"
    },
    {
      "threadId": "2896938577",
      "post": "He is exactly right, the GOP can win this issue if they are not intimidated. The reason Pelosi lost it is because she heard the truth and it hit a nerve.This is what the Republicans need to do because the American people are on their side on this issue.",
      "time": "2014-08-04T10:10:13",
      "id": "1526178746"
    },
    {
      "threadId": "2895701570",
      "post": "Bill Whittle never disappoints and he hit another homerun!",
      "time": "2014-08-02T23:57:49",
      "id": "1523211466"
    },
    {
      "threadId": "2891418710",
      "post": "Bill Whittle never disappoints!",
      "time": "2014-08-02T13:01:32",
      "id": "1521932824"
    },
    {
      "threadId": "2888260945",
      "post": "Obama and his ilk feel America needs to be taken down a notch and that is one thing he has accomplished.",
      "time": "2014-07-31T23:57:14",
      "id": "1517310301"
    },
    {
      "threadId": "2888065471",
      "post": "Yeah, there should have been a special prosecutor on this a long time ago, what more does Holder need?!",
      "time": "2014-07-31T10:17:21",
      "id": "1515174164"
    },
    {
      "threadId": "2874946775",
      "post": "I only wish the leadership in the Republican party could speak as clearly, concisely, and articulately in their many hours of speeches as Bill Whittle can in a few minutes on any given issue.",
      "time": "2014-07-26T22:47:44",
      "id": "1505937891"
    },
    {
      "threadId": "2872084350",
      "post": "I guess the illegal invasion isn't happening fast enough for Obama!",
      "time": "2014-07-25T22:48:03",
      "id": "1504367899"
    },
    {
      "threadId": "2866565244",
      "post": "But didn't you hear Larry? The website is fixed, Obama said so! What a joke...",
      "time": "2014-07-23T22:49:29",
      "id": "1500609882"
    },
    {
      "threadId": "2867975132",
      "post": "Apparently they cannot do it fast enough themselves!",
      "time": "2014-07-23T22:46:46",
      "id": "1500606363"
    },
    {
      "threadId": "2862592236",
      "post": "I find his use of the term 'our people' to be interesting because it implies he does not consider himself and American yet he is a US Rep.",
      "time": "2014-07-22T00:20:19",
      "id": "1496996274"
    },
    {
      "threadId": "2857277829",
      "post": "They do owe Romney and apology but I will not be holding my breath...",
      "time": "2014-07-19T23:14:00",
      "id": "1493485536"
    },
    {
      "threadId": "2856515689",
      "post": "Jeanne Shaheen is my Senator and she should never be called a centrist...",
      "time": "2014-07-19T22:28:52",
      "id": "1493438522"
    },
    {
      "threadId": "2854748233",
      "post": "Boehner has no intention of doing anything to stop Obama if he did he would push defunding. He is only pursuing this lawsuit because he knows it will go nowhere while at the same time making it appear as if he is trying to stop Obama.",
      "time": "2014-07-18T23:14:22",
      "id": "1492131458"
    },
    {
      "threadId": "2853476000",
      "post": "It seems as if because this was an honest mistake it would have been simple to escort her back home instead of making her go through this. At the same time responsible gun owners need to know the laws of the states they will be carrying weapons into.\n  I am also leery of letting the Feds get involved in this. A universal, or Federal, gun permit might seem like a good idea on the surface but it would give the Feds authority to write regulations on carry permits and we all know they will make it harder (and eventually virtually impossible) to obtain a permit.",
      "time": "2014-07-18T23:11:28",
      "id": "1492128387"
    },
    {
      "threadId": "2854144622",
      "post": "I am pretty sure a video is responsible for this attack...",
      "time": "2014-07-18T16:21:02",
      "id": "1491566653"
    },
    {
      "threadId": "2848062734",
      "post": "But, but, but, I thought this was a religion of peace? Of course the simple fact that we need to be reminded this is a peaceful religion after every use of violence is proof that it is not!",
      "time": "2014-07-16T22:37:13",
      "id": "1488878314"
    },
    {
      "threadId": "2845184369",
      "post": "First let me say Larry that I am glad to see you posting a little bit more again,  you were missed. Barack Obama might not be transparent in the way in which he conducts his business but to me I think it is quite transparent what he is trying to do to this country. I hope others are beginning to see it as well!",
      "time": "2014-07-15T22:52:31",
      "id": "1486910547"
    },
    {
      "threadId": "2842238865",
      "post": "Obama originally was going to ask for $2 billion but it is rumored he was afraid the GOP would approve it so he doubled it knowing they would reject it so he could turn around and blame the Republicans for his mess. If this is true it shows us he is looking at this only as a political issue and does not really want to solve the problem. Knowing the way this president operates I do not doubt that for a second...",
      "time": "2014-07-14T23:20:31",
      "id": "1485155231"
    },
    {
      "threadId": "2839922524",
      "post": "You nailed it Larry and the funny thing is that the government's solutions to the problems caused by big government are always more government. They simply do not get it...",
      "time": "2014-07-13T19:27:45",
      "id": "1483371672"
    },
    {
      "threadId": "2835126362",
      "post": "You nailed it Larry and I wonder how people can still believe anything this man says...",
      "time": "2014-07-12T13:02:56",
      "id": "1481816107"
    },
    {
      "threadId": "2832327152",
      "post": "The man's hubris has no limits!",
      "time": "2014-07-10T22:56:36",
      "id": "1479622182"
    },
    {
      "threadId": "2798462834",
      "post": "Yes, a step in the right direction and to think that two of the justices are Obama appointees it kind of shows you how big of a power grab it was.",
      "time": "2014-06-27T10:16:16",
      "id": "1456851142"
    },
    {
      "threadId": "2792501023",
      "post": "Hillary finally told a lie which even CNN cannot defend! But of course they will be the first to defend her when she is running for president.",
      "time": "2014-06-24T22:43:23",
      "id": "1452592012"
    },
    {
      "threadId": "2783560486",
      "post": "It is about time someone in the Congress called him what he is!",
      "time": "2014-06-21T13:28:23",
      "id": "1447626578"
    },
    {
      "threadId": "2754930619",
      "post": "Hopefully this will finally wake up the Republicans! John Boehner and the rest of the RINOs better be paying attention!",
      "time": "2014-06-11T10:15:17",
      "id": "1430012141"
    },
    {
      "threadId": "2753708525",
      "post": "The Dems and the MSM are abandoning Obama for one reason and one reason only, and it is not because they disagree with him. They are distancing themselves from Obama to set up their support for a Hillary presidency by also distancing Hillary from Obama.",
      "time": "2014-06-10T23:07:28",
      "id": "1429421388"
    },
    {
      "threadId": "2745295776",
      "post": "Could this be the issue which finally turns the tables on Obama?",
      "time": "2014-06-08T22:55:34",
      "id": "1426062328"
    },
    {
      "threadId": "2734561889",
      "post": "Uh, Lincoln didn't live to see the end of the war. Neither did FDR for that matter. ",
      "time": "2014-06-04T15:31:30",
      "id": "1419263101"
    },
    {
      "threadId": "2726914581",
      "post": "Thank you for writing about this. Operation Choke Point is not getting nearly the coverage is deserves. Hopefully the House can choke off Operation Choke Point.",
      "time": "2014-05-31T22:01:18",
      "id": "1414002049"
    },
    {
      "threadId": "2703236121",
      "post": "These students worked hard to achieve this honor and now they are not going to get it because it is not fair, if this does not sum up political correctness I do not know what does.......",
      "time": "2014-05-21T23:36:35",
      "id": "1398592812"
    },
    {
      "threadId": "2694914874",
      "post": "And yet these people continue to vote for the same politicians hoping that something will change. Isn't that the definition of insanity? Like it or  not we are responsible for the direction of the country and until the American people wake up nothing will change.",
      "time": "2014-05-18T19:50:45",
      "id": "1392170672"
    },
    {
      "threadId": "2685799018",
      "post": "A poll was just released in my state of New Hampshire which shows Rand Paul beating Hillary Clinton. He is the only GOP candidate who polled ahead of the former First Lady!",
      "time": "2014-05-14T22:24:07",
      "id": "1385796349"
    },
    {
      "threadId": "2678291288",
      "post": "Off to the re-education camp where he will be taught to love Big Brother. No dissenting opinions allowed.....",
      "time": "2014-05-12T13:40:47",
      "id": "1380933371"
    },
    {
      "threadId": "2660805421",
      "post": "After nearly two years of hoping to learn the truth I do not want to get to hopeful at this point but it does seem as if with the release of these latest emails the house of cards may be beginning to crumble. When Boehner announced the select committee I was still skeptical because we didn't know who would be on it, but Gowdy is the perfect person to lead it--I hope we can get to the truth!",
      "time": "2014-05-04T23:06:02",
      "id": "1369672812"
    },
    {
      "threadId": "2644742141",
      "post": "First he was arrested for speaking without a permit and then charged for what he said, I fear this is where we are headed in the US with these \"free speech\" zones!",
      "time": "2014-04-28T23:12:45",
      "id": "1359841284"
    },
    {
      "threadId": "2638647302",
      "post": "Now that sums it up!",
      "time": "2014-04-25T22:19:41",
      "id": "1355833766"
    },
    {
      "threadId": "2625007984",
      "post": "Good luck Matt! While I am saddened by the news you are not going to be posting as much I understand your decision and I wish you well. I will still be visiting here and reading the posts of your fine contributors and I am sure I will still see you on Facebook from time to time. I wish you the best of luck in whatever you decide to do. I am very happy that this site will remain active!",
      "time": "2014-04-21T17:51:19",
      "id": "1349052487"
    },
    {
      "threadId": "2624990766",
      "post": "Happy Easter to you and yours.",
      "time": "2014-04-20T12:56:08",
      "id": "1347312315"
    },
    {
      "threadId": "2623475122",
      "post": "This reminds me of when Jada Pinkett Smith had to apologize for saying a woman could have both a family and a career because it was \"hetro-centric\" was was offensive to the LBGT community.",
      "time": "2014-04-19T16:35:52",
      "id": "1346369965"
    },
    {
      "threadId": "2609464202",
      "post": "There are many grey areas to this story which prevented me from writing about it until today, however Reid's dirty little fingers seem to be all over this.....",
      "time": "2014-04-14T23:57:01",
      "id": "1336876251"
    },
    {
      "threadId": "2606761354",
      "post": "You nailed it Matt, the government feels this money is theirs to do with what they want. They do not believe we actually are entitled to our own money.",
      "time": "2014-04-13T22:34:53",
      "id": "1335066881"
    },
    {
      "threadId": "2603882288",
      "post": "No it doesn't and they are getting pretty good at it!",
      "time": "2014-04-11T15:44:51",
      "id": "1331964057",
      "parentPost": "Yeah, I guess that makes sense.  It sure doesn't take long for them to throw their own under the bus!",
      "parentPostTime": "2014-04-11T15:02:22",
      "parentPostId": "1331906528"
    },
    {
      "threadId": "2602365735",
      "post": "The left creates these \"crisis\" knowing they can control the outcome. Order out of chaos.....",
      "time": "2014-04-11T01:19:47",
      "id": "1331076701"
    },
    {
      "threadId": "2598439719",
      "post": "Who didn't see this coming? Oh yeah, the Obamabots who continue to blame the insurance companies for this debacle.",
      "time": "2014-04-09T23:30:07",
      "id": "1327654929"
    },
    {
      "threadId": "2581845024",
      "post": "If this were a Republican it would be 24-7 news coverage but he is a good liberal so there is basically nothing. Even the little coverage this received failed to mention the terrorist angle to this story. And they wonder why people do not trust them any more?",
      "time": "2014-04-02T23:31:37",
      "id": "1316018824"
    },
    {
      "threadId": "2566412739",
      "post": "I am shocked that the MSM is not covering this.....not! It does not fit the mantra so it is ignored.",
      "time": "2014-03-31T23:32:10",
      "id": "1312544189"
    },
    {
      "threadId": "2529990807",
      "post": "I will go with option number three!",
      "time": "2014-03-28T09:56:39",
      "id": "1307900050"
    },
    {
      "threadId": "2501505953",
      "post": "But, but, but.....I thought there was no such thing as voter fraud?\n The fact that the left can honor a woman who blatantly and admittedly committed voter fraud while at an event condemning the people who want to halt voter fraud is all the proof I need that the left condones and promotes this illegal activity.",
      "time": "2014-03-24T22:55:56",
      "id": "1300379190"
    },
    {
      "threadId": "2476011284",
      "post": "Is it just me or is it beginning to look like the ATF might be the most dangerous people in the nation carrying guns? Of course I am not being serious there but this agency is obviously not capable or competent enough to carry out any kind of sting and I hope we get to the bottom of this. However, you alluded to Issa lack of fruitfulness with his investigations and I don't expect him to get anywhere here either.",
      "time": "2014-03-22T11:12:38",
      "id": "1296255522"
    },
    {
      "threadId": "2467973645",
      "post": "Thank for the link Larry. This is one of the scariest stories to come around in quite awhile because I think  you are right about the reason why the ATF acted this way and what they were really after. There is no doubt in my mind they went in during working hours in order to send a message to gun owners all across the nation because they could have done this after hours and gotten what they wanted. And speaking of getting what they wanted, I also believe the customer lists were what the ATF was really after.\n And then there is the lawlessness of disobeying the court order. If they get away with this we can expect much more of it in the future. The police state is on the way!",
      "time": "2014-03-20T11:03:07",
      "id": "1292954041"
    },
    {
      "threadId": "2458752971",
      "post": "I love it! Consider this to be the feel-good story of the day!",
      "time": "2014-03-19T23:16:50",
      "id": "1292367002"
    },
    {
      "threadId": "2461575151",
      "post": "This is very scary indeed! To think that we are potentially handing over the internet to repressive regimes which already censor the internet in their countries it indefensible. I will tell you what this sounds like to me: we know that Obama has been pushing for internet control but he has been unable to get it, so now he is looking to pass off internet control to countries which will be able to censor the internet without drawing the ire that would be prevalent if  he were to do it. He gets what he wants without having to take responsibility for it. He considers this to be a win-win for him.",
      "time": "2014-03-19T23:10:59",
      "id": "1292355422"
    },
    {
      "threadId": "2456819847",
      "post": "Don't forget that several liberals have recently made the claim that our children belong not only to us but to them as well. They do not want us to educate our children because the government school system is becoming nothing more than indoctrination centers pushing the government agenda. At every turn liberals seek to remove the role of the parents from their children's education and upbringing so they can create little Marxists and mold our children into what they think they should be. It is beyond time for parents to take their children back before it is too late!",
      "time": "2014-03-18T22:25:48",
      "id": "1290551749"
    },
    {
      "threadId": "2450213693",
      "post": "They are coming at gun owners from multiple fronts hoping that we cannot keep up with it and this is the latest example. Good find Larry! I missed this one and of course that is what these people were hoping for.",
      "time": "2014-03-17T23:38:27",
      "id": "1289093686"
    },
    {
      "threadId": "2442089128",
      "post": "Obamacare is built on a foundation of lies, hopefully the American people are waking up to this reality now that they are experiencing the pain we warned them was coming.",
      "time": "2014-03-16T16:30:31",
      "id": "1287111347"
    },
    {
      "threadId": "2436646382",
      "post": "Brilliant post, thanks for writing this!",
      "time": "2014-03-16T16:26:59",
      "id": "1287103352"
    },
    {
      "threadId": "2428034341",
      "post": "I also allow Before It Is News to post what I write, for like you I still dream of making it big by getting the word out to as many people as possible. I have not used Free Republic but it appears as if it isn't so free. It sounds as if they are quite impolite and you certainly did not deserve to be treated that way so perhaps you are better off without them.",
      "time": "2014-03-15T00:14:07",
      "id": "1285230507"
    },
    {
      "threadId": "2417297032",
      "post": "Hopefully this is a sign of things to come!",
      "time": "2014-03-13T10:16:48",
      "id": "1282600290"
    },
    {
      "threadId": "2413222118",
      "post": "I missed this story. good find! Again we see Obama running around the Congress and yet the Congress is unwilling to fight back for fear of being portrayed as the bad guy. This will have unintended consequences on business owners and if they are forced to let people go because if it they will be painted as heartless, greedy capitalists. Obama cannot lose here and he knows it and is taking full advantage of it!",
      "time": "2014-03-12T23:35:36",
      "id": "1282151106"
    },
    {
      "threadId": "2407057655",
      "post": "I do support letting illegals who serve in the military earning a pathway to citizenship but you have to question if there is an ulterior motive to their actions, and besides this should not be up to the president to decide--it should go through the Congress. \n Is it any wonder the Republicans do not trust Obama to enforce and immigration law the Congress might pass?",
      "time": "2014-03-11T23:47:32",
      "id": "1280717144"
    },
    {
      "threadId": "2400083862",
      "post": "Mitch McConnell is an elitist who does not understand why people like him are being opposed. This is more proof that we need to rid ourselves of all these elitists who McConnell wants to defeat.",
      "time": "2014-03-10T23:27:51",
      "id": "1279369288"
    },
    {
      "threadId": "2399473689",
      "post": "The left just does not seem to learn from history. How can the president justify more spending on this in light of the failure of Solyndra and all the other losers he picked? That is, if he considers their failures a to be a failure, after all these companies were all owned by people with ties to the Democrats so who knows where the money ended up.",
      "time": "2014-03-10T10:53:19",
      "id": "1278452259"
    },
    {
      "threadId": "2371810753",
      "post": "Contempt charges will mean nothing because Eric Holder will not do anything about it. At this point is seems as if the only way we can get any closer to the truth is to give Lerner immunity and hope she gives up the goods on somebody higher up.",
      "time": "2014-03-07T10:48:40",
      "id": "1274788188"
    },
    {
      "threadId": "2364289830",
      "post": "More of the same from Obama, this is who he is and what he believes so nothing is going to change until we have a new president and even then I don't have faith anything will change. So far Obama's budgets have not gotten a single vote in favor and I don't think it will be any different this time around, at least I hope it won't be.....",
      "time": "2014-03-06T00:03:48",
      "id": "1272065293"
    },
    {
      "threadId": "2361224800",
      "post": "Good news indeed, chalk up another one for the new media!",
      "time": "2014-03-05T01:21:19",
      "id": "1270729444"
    },
    {
      "threadId": "2355531963",
      "post": "The whole country is backwards right now. It shows us where Obama's priorities are and makes you wonder what the end game is that he has in mind.",
      "time": "2014-03-04T11:29:07",
      "id": "1269736576"
    },
    {
      "threadId": "2354224818",
      "post": "Apparently their biggest mistake was coming here legally, if they we illegals Obama would bend over backwards for them. We have seen it over and over firsthand.",
      "time": "2014-03-04T11:23:35",
      "id": "1269733221"
    },
    {
      "threadId": "2353779903",
      "post": "Thanks for the hat tip! Bill Whittle nailed it again!",
      "time": "2014-03-03T23:32:56",
      "id": "1269189422"
    },
    {
      "threadId": "2351400373",
      "post": "The impression that I get is that both Netanyahu and Putin love their countries more than Obama loves America. I still remember him saying that America was a superpower whether we liked it or not, as if there was something wrong with that. He is doing his best to take away America's superpower status and I have to believe he is succeeding.",
      "time": "2014-03-03T23:31:15",
      "id": "1269187667"
    },
    {
      "threadId": "2345735474",
      "post": "Divide and conquer is what he does best, you would think that such inflammatory and obviously false rhetoric would not work but sadly it does.",
      "time": "2014-03-02T16:15:48",
      "id": "1267258663"
    },
    {
      "threadId": "2340003445",
      "post": "This is what we have come to expect from this man, isn't it? At this point I don't know why the governors are even bothering to meet with him in the first place. \n  You are right about why Obama is pushing so hard and that is because the Republicans are not challenging him so he is going to keep taking a little more to see how far he can go.",
      "time": "2014-03-01T13:18:02",
      "id": "1265665966"
    },
    {
      "threadId": "2335199225",
      "post": "Christians are not supposed to just keep their beliefs private, we are supposed to live by our beliefs. Those that do not are not true Christians. They are CINOs, Christians in name only. Some Christians may believe it is okay to do business with people who hold values which are in opposition to theirs, while others might decide not to. But this decision should be left up to the individual for better or worse, not the government.",
      "time": "2014-03-01T00:42:33",
      "id": "1265185045"
    },
    {
      "threadId": "2324421292",
      "post": "If I am not mistaken the one good aspect of the SCOTUS Obamacare decision was its reaffirmation that the Feds could not force the states to expand Medicade. So naturally they are going to ignore this aspect of the decision by trying to shame the states into accepting something the court said they couldn't force them to do.",
      "time": "2014-02-27T00:41:18",
      "id": "1262238814"
    },
    {
      "threadId": "2318289315",
      "post": "But I thought it was the Republican who wanted to throw granny off the cliff?",
      "time": "2014-02-25T23:58:50",
      "id": "1260609696"
    },
    {
      "threadId": "2307895474",
      "post": "PS: I like the new look!",
      "time": "2014-02-23T13:01:53",
      "id": "1257119610"
    },
    {
      "threadId": "2303773536",
      "post": "Somewhere in hell Margaret Sanger is smiling.....",
      "time": "2014-02-22T21:04:26",
      "id": "1256545065"
    },
    {
      "threadId": "2302888242",
      "post": "Yeah, somehow I don't feel sorry for them! Any resources given to the IRS are too much already. It will be  interesting to see if these people are held to the same standards as ordinary Americans. Somehow I don't think so--there is one set of rules for the rulers and another set of rules for the ruled.",
      "time": "2014-02-22T20:56:29",
      "id": "1256537314"
    },
    {
      "threadId": "2286900936",
      "post": "I have seen this before but I am glad you reposted it, the more people who see it the better!",
      "time": "2014-02-20T00:49:16",
      "id": "1252371524"
    },
    {
      "threadId": "2287907292",
      "post": "Great news Larry, I knew you guys wouldn't let us down!",
      "time": "2014-02-20T00:41:04",
      "id": "1252363402"
    },
    {
      "threadId": "2283235280",
      "post": "I am not so sure Obama is a believer in climate change, but rather a believer in the governmental controls that come with it. Obama is creating a crisis in order to affect the desired change that comes with it, and that change is more government.",
      "time": "2014-02-19T01:12:24",
      "id": "1250842799"
    },
    {
      "threadId": "2280704218",
      "post": "We have to assume the Obama regime support this because they support the rebels and nobody has condemned this. Sickening!",
      "time": "2014-02-17T23:52:14",
      "id": "1248875696"
    },
    {
      "threadId": "2270680514",
      "post": "There are several states which have passed this type of legislation with the caveat that it will not go into effect until enough states join so as to have a majority. My problem with this is the fact that it is a national effort to do an end around the Constitution instead of using the amendment process to abolish the Electoral College if that is what the people decide they want. I hope Oklahoma will stop this!",
      "time": "2014-02-16T20:55:47",
      "id": "1247162218"
    },
    {
      "threadId": "2267729319",
      "post": "Chalk one up for the good guys! It feels good to win one once in awhile but we must remain vigilant because this will be headed to the Supreme Court before all is said and done.",
      "time": "2014-02-14T23:48:27",
      "id": "1244869481"
    },
    {
      "threadId": "2267692065",
      "post": "And they wonder why they have lost all credibility? If they ever really had any, that is.",
      "time": "2014-02-14T23:46:11",
      "id": "1244867534"
    },
    {
      "threadId": "2260724291",
      "post": "It is clear that their number one priority is helping the establishment get reelected, that is all they really care about. In the end they feel the base will turn out no matter what because they are the lesser of two evils but I think the base has had enough and will stay home if they keep on this current path. They stayed home instead of voting for Romney, you would think they would have learned from that but apparently they have not.",
      "time": "2014-02-14T00:28:46",
      "id": "1243409071"
    },
    {
      "threadId": "2255894500",
      "post": "And despite all of this he continues to claim that the law is working. If it is working so well why does he have to change it?",
      "time": "2014-02-13T00:26:51",
      "id": "1242020602"
    },
    {
      "threadId": "2246445091",
      "post": "And he also said that everyone who entered the country illegally before 2014 should be eligible for amnesty, which means virtually everybody. And this is compromise?",
      "time": "2014-02-11T00:54:00",
      "id": "1239056162"
    },
    {
      "threadId": "2240762868",
      "post": "I wrote about this as well, the hypocrisy abounds, but why am I not surprised?!",
      "time": "2014-02-09T23:32:15",
      "id": "1237464926"
    },
    {
      "threadId": "2243920346",
      "post": "In order for communism to work the people have to believe that the state is the highest power. If the people believe they answer to a higher power than the state they will not be subservient to the state for they have to answer to God. Is it any wonder why Christians are under attack in this country.....",
      "time": "2014-02-09T23:29:37",
      "id": "1237462768"
    },
    {
      "threadId": "2242155951",
      "post": "So, let me see if I have this straight: Obama says there was not even a smidgen of corruption in what the IRS did, so to prove this he is about to legalize the illegal activities of the IRS. Somehow this doesn't make me feel any better.....",
      "time": "2014-02-09T23:26:15",
      "id": "1237460077"
    },
    {
      "threadId": "2239672121",
      "post": "Move along, nothing to see here.....",
      "time": "2014-02-08T23:21:56",
      "id": "1236342166"
    },
    {
      "threadId": "2229748684",
      "post": "Thanks for the link Matt. Luckily there is not even a smidgen of corruption here. ;)",
      "time": "2014-02-07T02:33:24",
      "id": "1234295095"
    },
    {
      "threadId": "2224278018",
      "post": "There is no doubt in my mind the regime will target Fox. Obama wants to control the narrative because when you control the narrative you control the people ad Fox refuses to be controlled.",
      "time": "2014-02-05T23:25:05",
      "id": "1232580815"
    },
    {
      "threadId": "2220828193",
      "post": "Thanks for the link Matt! How this is even part of the Farm Bill I do not know but once again we are going to pay!",
      "time": "2014-02-05T01:02:10",
      "id": "1231299636"
    },
    {
      "threadId": "2217106173",
      "post": "I have said it before, but this might be Bill Whittle's best! Thanks for sharing.",
      "time": "2014-02-04T01:23:29",
      "id": "1229692983"
    },
    {
      "threadId": "2216317548",
      "post": "Just think about how bad it would be if it were not for global warming! ;)",
      "time": "2014-02-04T00:28:30",
      "id": "1229630195"
    },
    {
      "threadId": "2209100340",
      "post": "Thanks for the link Matt! I had a comment on my post wondering how much of the drop off was due to the off year election and I think there is a percentage that can account for. But 98% is a huge number and I have to believe much of it has to do with the conservatives having finally had enough.",
      "time": "2014-02-02T13:44:53",
      "id": "1227632622"
    },
    {
      "threadId": "2176827494",
      "post": "But didn't you hear? Justin Bieber got arrested! You need to reevaluate your priorities! ;)",
      "time": "2014-01-26T20:45:06",
      "id": "1217792085"
    },
    {
      "threadId": "2159386337",
      "post": "I haven't covered Common Core either with everything else that is going on but it needs to be covered.\n  Liberal tolerance on full display here, is there any doubt this is nothing but a program of indoctrination?",
      "time": "2014-01-23T01:17:05",
      "id": "1212851270"
    },
    {
      "threadId": "2127399719",
      "post": "Thank for the link and the quote Matt! There is now no longer any doubt that the Obama regime lied about Benghazi for political reasons and this should have every single American up in arms.",
      "time": "2014-01-16T00:20:47",
      "id": "1202996203"
    },
    {
      "threadId": "2114380679",
      "post": "I doubt the GOP can convert these people but maybe they will stay home in 2014, and that is almost as good.",
      "time": "2014-01-13T02:06:22",
      "id": "1197963557"
    },
    {
      "threadId": "2101086569",
      "post": "Only in the twisted mind of a liberal could this make sense. Is anyone really buying this? If so we are already doomed.",
      "time": "2014-01-09T00:19:15",
      "id": "1192997898"
    },
    {
      "threadId": "2098705152",
      "post": "Amen! Amen! Amen!",
      "time": "2014-01-08T00:57:28",
      "id": "1191505627"
    },
    {
      "threadId": "2096367660",
      "post": "Absolutely disgraceful yet not all that surprising.....",
      "time": "2014-01-07T00:14:49",
      "id": "1189784751"
    },
    {
      "threadId": "2089900638",
      "post": "I love it! Glad to see kids studying the art of 80's heavy metal!",
      "time": "2014-01-05T23:47:05",
      "id": "1188447742"
    },
    {
      "threadId": "2089846010",
      "post": "I just wrote about this as well: Sometimes people have to see things for themselves before they believe it. We tried to warn them this was going to happen and now they are finding out the hard way. I wonder how many of these people had coverage which would have covered these procedures but had them canceled due to Obamacare.",
      "time": "2014-01-03T20:26:46",
      "id": "1185841484"
    },
    {
      "threadId": "2086557384",
      "post": "I love how they keep saying nobody know what the motive behind this was and then at the end they report that \"some people\" wonder if it had anything to do with his religion, but of course they don't mention what that religion is.",
      "time": "2014-01-02T11:24:38",
      "id": "1184065613"
    },
    {
      "threadId": "2084699905",
      "post": "Happy New Year Matt! There sure was quite a bit to cover last year and not much of it was good, here's hoping 2014 is better.",
      "time": "2014-01-01T14:39:43",
      "id": "1183186377"
    },
    {
      "threadId": "2080449017",
      "post": "Thanks for the link Matt.",
      "time": "2013-12-30T01:01:07",
      "id": "1180732839"
    },
    {
      "threadId": "2069935741",
      "post": "Merry Christmas and Happy New Year Matt.",
      "time": "2013-12-25T13:16:14",
      "id": "1176508347"
    },
    {
      "threadId": "2067813016",
      "post": "During the 2012 election the Democrats and Barack Obama ran around the country claiming that Republicans wanted to throw granny off the cliff by reforming Medicare. We tried to warn the people that they only party which actually did cut Medicare was the Democrats but the people didn't listen, the propaganda worked. Sometimes seeing is believing and now people are learning the truth the hard way. This is sad because it didn't have to happen if people only listened.",
      "time": "2013-12-24T00:36:46",
      "id": "1175241479"
    },
    {
      "threadId": "2066647247",
      "post": "Bill keeps outdoing himself!",
      "time": "2013-12-22T19:46:00",
      "id": "1173929479"
    },
    {
      "threadId": "2059397185",
      "post": "This would be great news if it weren't for the fact Christie is the one beating her!",
      "time": "2013-12-19T00:28:18",
      "id": "1169477070"
    },
    {
      "threadId": "2059482674",
      "post": "You are right, this is only the beginning. There is now an all out war against traditional beliefs and now there is talk of jailing people for their opinions! These are scary times my friend!",
      "time": "2013-12-19T00:14:10",
      "id": "1169465635"
    },
    {
      "threadId": "2051308085",
      "post": "Thanks for the link Matt.",
      "time": "2013-12-15T23:54:28",
      "id": "1165131599"
    },
    {
      "threadId": "2050343385",
      "post": "Six to twelve inches of global warming, maybe more, are headed my way tonight!",
      "time": "2013-12-15T01:12:49",
      "id": "1164060666"
    },
    {
      "threadId": "2049356480",
      "post": "Kelly Ayotte will be number five, she does whatever McCain tells her to do.",
      "time": "2013-12-14T10:28:59",
      "id": "1162833910"
    },
    {
      "threadId": "2044013644",
      "post": "Thanks for the link Matt. They must be racists! Seriously though, it is sickening to see what the Dems are doing up here. Thanks for covering this story.",
      "time": "2013-12-13T10:55:30",
      "id": "1161229806"
    },
    {
      "threadId": "2044505964",
      "post": "What a bargain! I am so glad healthcare is free now!",
      "time": "2013-12-12T03:04:49",
      "id": "1159582129"
    },
    {
      "threadId": "2040825464",
      "post": "The rationing has begun, as has the death panels!",
      "time": "2013-12-11T00:43:30",
      "id": "1158061043"
    },
    {
      "threadId": "2039499343",
      "post": "It is only a matter of time before the regime mandates that all doctors accept Obamacare.",
      "time": "2013-12-10T00:36:16",
      "id": "1156672142"
    },
    {
      "threadId": "2034416114",
      "post": "Thanks for the link Matt.",
      "time": "2013-12-09T01:09:40",
      "id": "1155448703"
    },
    {
      "threadId": "2021266840",
      "post": "Needless to say I am watching this closely as she is from my state. I plan on doing a post on this as well, suddenly there is no war on women in this case because she is a conservative. Funny how that works, isn't it?",
      "time": "2013-12-04T00:16:28",
      "id": "1149643591"
    },
    {
      "threadId": "2016218837",
      "post": "Thanks for the link Matt! I hope you had a wonderful Thanksgiving.",
      "time": "2013-12-02T23:54:15",
      "id": "1148013280"
    },
    {
      "threadId": "2017679322",
      "post": "It would seem to me that Obamacare is such a disaster that even CNN has to report the truth in order to distance themselves for Obama so they can set up their support for a Hillary presidential run.",
      "time": "2013-12-02T23:51:17",
      "id": "1148010626"
    },
    {
      "threadId": "2015680033",
      "post": "Not only did he know this was coming, his regime debated whether or not he should make the claim that you could keep your insurance if  you liked it because they knew it was a lie. But Obama decided to run with the lie and deal with it afterwards. And now he has lost his credibility and it is due to the fact that he is a narcissistic who believed the American people would never hold him accountable, and based on what we have seen so far who could blame him for this miscalculation?",
      "time": "2013-12-02T00:17:59",
      "id": "1146740647"
    },
    {
      "threadId": "2005334481",
      "post": "Thanks for sharing this and Happy Thanksgiving!",
      "time": "2013-11-28T00:44:52",
      "id": "1142331305"
    },
    {
      "threadId": "2000836554",
      "post": "Great find Larry, this is the first place I have seen anything written about this. After the Obamacare decision I have no faith left in SCOTUS. Roberts has been compromised and it is rumored he illegally trafficked children out of Ireland in order to adopt them. If this is true Obama could be threatening him with this and we can no longer trust the Supreme Court to do the right thing.",
      "time": "2013-11-27T00:30:35",
      "id": "1140380504"
    },
    {
      "threadId": "1997635221",
      "post": "This was another great video by Bill Whittle, he has outdone himself once again!",
      "time": "2013-11-25T23:28:33",
      "id": "1138830493"
    },
    {
      "threadId": "1995920307",
      "post": "Thanks for the link Matt!",
      "time": "2013-11-24T23:25:26",
      "id": "1137625282"
    },
    {
      "threadId": "1995001021",
      "post": "It seems to me that Obama was anxious to agree to anything so that he could say he did something. I don't see where this accomplishes anything and in fact I have read that this guarantees Israel will attack Iran--perhaps that is what Obama really wants.",
      "time": "2013-11-24T23:21:47",
      "id": "1137622463"
    },
    {
      "threadId": "1991942550",
      "post": "Thanks for covering this story Larry, I meant to write about it a couple of days ago and didn't get around to it. The regime throws so much at us that it is hard to cover it all, but with our numbers we can rely on each other to post what other miss and that is valuable.\n Don't forget that Valerie Jarrett promised that when the election was over the regime was going to reward their friends and punish their enemies because they wouldn't have another election to worry about. This wasn't purely political rhetoric, she was serious, and now we are finding out exactly what she was talking about.",
      "time": "2013-11-23T23:23:42",
      "id": "1136396306"
    },
    {
      "threadId": "1990124027",
      "post": "I wanted to add; they do not make Democrats like this any more.",
      "time": "2013-11-23T00:37:57",
      "id": "1135206760"
    },
    {
      "threadId": "1987312726",
      "post": "Thanks for the link Matt, there is no way Obama is going to allow this to happen before the election. But after the election all bets are off! Millions of people will lose their healthcare and that is what Obama wants, he is just going to hide it until after the election when it is too late. I hope the American people see this!",
      "time": "2013-11-22T01:59:34",
      "id": "1133870431"
    },
    {
      "threadId": "1985480115",
      "post": "I think Obama is a pathological liar and he is lying here. He cannot help himself and he thinks that the people will believe him just because he said it. He knows he is lying but the end justifies the means.",
      "time": "2013-11-22T01:53:51",
      "id": "1133865643"
    },
    {
      "threadId": "1975250253",
      "post": "Thanks for the link Matt.",
      "time": "2013-11-19T00:10:54",
      "id": "1128837019"
    },
    {
      "threadId": "1976020932",
      "post": "This has happened to me as well Larry. It really bothers the hell out of me when people say that I should leave the country if I do not like it simply because I oppose what the government is doing. We can oppose the president and still love the country, but these people do not seem to understand that. I do not like it when people on the right say this to people on the left either, there is nothing wrong with having different points of view and in fact the fact that we are allowed to have different points of view is part of what makes America great.",
      "time": "2013-11-18T23:50:39",
      "id": "1128814923"
    },
    {
      "threadId": "1973535354",
      "post": "Thanks for the link Matt! We tried to warn people that while Obama was claiming the Republicans wanted to push granny off the cliff by cutting Medicare that Obamacare actually did what they were accusing the Republicans of trying to do but the people didn't listen. Now they are finding out the hard way, I guess people actually have to see things in order to believe them, and now that is what is happening.",
      "time": "2013-11-17T23:58:39",
      "id": "1127459862"
    },
    {
      "threadId": "1968121272",
      "post": "Obama announced that he was illegally going to \"fix\" Obamacare and then when the House passed a legal \"fix\" to Obamacare the president threatened to veto it proving to me once and for all that Obama cares nothing about the rule of law because he wants to get credit for \"fixing\" the mess he created.\n I am with you, the Republicans should do nothing to help Obama out of this mess for they will never get the credit, let Obama hang himself.",
      "time": "2013-11-16T23:29:26",
      "id": "1126374264"
    },
    {
      "threadId": "1963765317",
      "post": "I have never used that site but now there is no way I ever will!",
      "time": "2013-11-14T00:29:42",
      "id": "1122141628"
    },
    {
      "threadId": "1962273020",
      "post": "Isn't it ironic that Bill Clinton is talking about honoring commitments when he never honored the one he made to his wife when they got married? Bill and Hillary care only about politics and their legacy and Bill knows that if Hillary is tied to Obamacare it could doom her in 2016, and coupled with the fact that he and Hillary have never forgiven Obama for the 2008 campaign, that is why he spoke up the other day.",
      "time": "2013-11-14T00:19:32",
      "id": "1122131582"
    },
    {
      "threadId": "1963561992",
      "post": "The one thing Obama always had going for him was the likability factor and now he is losing this as well. The people no longer trust him but instead of admitting his mistake he is doubling down and digging the hole deeper.",
      "time": "2013-11-14T00:14:37",
      "id": "1122127150"
    },
    {
      "threadId": "1958040948",
      "post": "Congratulations of the honor Matt! You are truly deserving, keep up the great work.",
      "time": "2013-11-13T00:02:10",
      "id": "1120376643"
    },
    {
      "threadId": "1959990310",
      "post": "We knew that Obamacare was ripe for fraud and abuse but now it even extends to the people who are charged with implementing it. This is the one time Max Baucus was right, this is a train wreck.",
      "time": "2013-11-12T23:59:07",
      "id": "1120373844"
    },
    {
      "threadId": "1956047725",
      "post": "A wonderful tribute, your father and your brother are my heroes and it must make you so proud!",
      "time": "2013-11-12T00:20:18",
      "id": "1118788250"
    },
    {
      "threadId": "1947611267",
      "post": "He is only sorry because he was caught in a lie, he knew people would lose their insurance but he thought he would be able to blame the insurance companies and use the whole rich versus poor argument in the 2014 election but people are blaming him. That is the only reason he \"apologized\" in the first place. During the interview he said HE had been burned by a website and then corrected himself by saying the American people have been burned by the website. This little slip up proves to me that he only cares about hos Obamacare is hurting him and not about how it is hurting the American poeple.",
      "time": "2013-11-09T00:02:39",
      "id": "1114640822"
    },
    {
      "threadId": "1944382500",
      "post": "So much for equal protection under the law as Obama prepares to take care of the Democrats' largest special interest group!",
      "time": "2013-11-08T02:52:21",
      "id": "1113422434"
    },
    {
      "threadId": "1942779088",
      "post": "Sadly we won't know how bad it really is until after it is too late!",
      "time": "2013-11-07T00:14:21",
      "id": "1111899550"
    },
    {
      "threadId": "1942159414",
      "post": "Welcome to Political Realities, I look forward to your contributions and will be checking out your blog as well.",
      "time": "2013-11-07T00:12:43",
      "id": "1111898132"
    },
    {
      "threadId": "1938948623",
      "post": "Why would young people sign up when they are covered on their parents' plan until 26?",
      "time": "2013-11-05T19:02:23",
      "id": "1109989770"
    },
    {
      "threadId": "1933808049",
      "post": "Thanks for the link Matt, and just for the record I have noticed the page is loading much quicker now!",
      "time": "2013-11-05T00:31:18",
      "id": "1109027915"
    },
    {
      "threadId": "1932187860",
      "post": "These warning labels aggravate me as well because not only do they show the lack of responsibility people feel nowadays but they also show a lack of common sense. If people still had common sense these warnings would not be needed. The laws are designed to protect the people against themselves and by doing this they are doing the thinking for the people.",
      "time": "2013-11-03T13:05:39",
      "id": "1107198409"
    },
    {
      "threadId": "1929612137",
      "post": "I do not feel sorry for these people in the least, they are getting what they voted for. Obama claimed these people were getting screwed by \"bad apple\" insurance companies, now they are getting screwed by the Obama regime and this is supposed to be a better option?",
      "time": "2013-11-02T23:43:13",
      "id": "1106702284"
    },
    {
      "threadId": "1926188706",
      "post": "I sure hope so Larry, surely Americans can see through this. Right?",
      "time": "2013-11-02T23:36:30",
      "id": "1106698068",
      "parentPost": "They want a delay so they can claim they are trying to protect their constituents. Anyone with one good eye should be able to see through that lie. We must have a lot of people in America with two bad eyes.",
      "parentPostTime": "2013-11-02T09:09:28",
      "parentPostId": "1106036354"
    },
    {
      "threadId": "1928084748",
      "post": "I am sure this has nothing to do with Obamacare but is the result of \"bad apple\" insurance companies! ;)",
      "time": "2013-11-01T22:42:50",
      "id": "1105633050"
    },
    {
      "threadId": "1924373362",
      "post": "It is now no longer enough that Lerner had to resign in disgrace, it is time for criminal charges.",
      "time": "2013-10-31T22:47:28",
      "id": "1104234393"
    },
    {
      "threadId": "1922374309",
      "post": "What Obama should have said was, if I like your plan you will be able to keep it!",
      "time": "2013-10-31T22:44:41",
      "id": "1104231807"
    },
    {
      "threadId": "1920304201",
      "post": "Yes, they will force doctors into this and they will do it by blaming greedy doctors for this. You know, the same greedy doctors whom Obama accused of lopping off arms and legs to make a few extra dollars.",
      "time": "2013-10-30T23:18:33",
      "id": "1102934992"
    },
    {
      "threadId": "1918245778",
      "post": "We saw this coming Larry and we tried to warn people but sometimes people actually have to see it to believe it and now they are, unfortunately it is to late. Even if these people read the bill before they passed it they still wouldn't have known what was in it because the bill left it up to HHS to write the regulations after the bill was passed. This was a dangerous precedent, as we are now learning.",
      "time": "2013-10-30T23:15:50",
      "id": "1102932340"
    },
    {
      "threadId": "1915769950",
      "post": "The NSA is not happy Obama threw then under the bus and they are fighting back but they better be careful or Obama will sic the IRS on them!",
      "time": "2013-10-29T23:43:10",
      "id": "1101574180"
    },
    {
      "threadId": "1914120701",
      "post": "The regime is now starting to blame the insurance companies Larry and that is expected for nothing is ever his fault. The truth is, as we are now learning and gaining more proof of as the days roll on, is that this is exactly what Obama had planned all along. He does not consider the rollout to be a failure because it is accomplishing his goal.",
      "time": "2013-10-29T23:25:52",
      "id": "1101557817"
    },
    {
      "threadId": "1909857929",
      "post": "I wrote about this tonight as well Larry, great minds think alike! :) It is sickening to me because it appears that when he gained this knowledge Barack Obama crafted a defense for this attack to protect his reelection when he should have been crafting a defense to prevent the attack and protect our American heroes.",
      "time": "2013-10-28T22:52:39",
      "id": "1100131254"
    },
    {
      "threadId": "1905297823",
      "post": "Thanks for the hat tip Matt! Bill Whittle just keeps outdoing himself.",
      "time": "2013-10-27T12:29:53",
      "id": "1098333910"
    },
    {
      "threadId": "1905436169",
      "post": "Thanks for the link Matt!",
      "time": "2013-10-27T12:26:24",
      "id": "1098332142"
    },
    {
      "threadId": "1903857754",
      "post": "Obamacare passed with no Republican support so I am sorry Ms. Sebilius but the blame for this one lands solely on the back of Democrats. I don't think the American people are going to buy this excuse for it is harder to believe this than it is to sign up for Obamacare. :)",
      "time": "2013-10-26T22:20:20",
      "id": "1097911118"
    },
    {
      "threadId": "1899024212",
      "post": "Thanks for the link Larry! You drew a brilliant distinction between the way Jane Fonda is treated compared to the Tea Party. Funny how dissent is only patriotic when you are opposing the Republicans, isn't it?!",
      "time": "2013-10-25T23:06:25",
      "id": "1096997763"
    },
    {
      "threadId": "1890376141",
      "post": "Sounds to me like this is more of a strategy session than anything else.....",
      "time": "2013-10-23T23:41:21",
      "id": "1094429848"
    },
    {
      "threadId": "1886900982",
      "post": "You are on a roll Larry, you nailed it again! Obama is comfortable campaigning but not really comfortable governing and that is because he has never governed before. He has never stopped campaigning even when it was time for him to lead and that is because he believes it is his way or the highway, he has no idea how to govern so he is forced to rely on what he does best.",
      "time": "2013-10-22T23:47:39",
      "id": "1092866611"
    },
    {
      "threadId": "1882310721",
      "post": "Simply put, he cannot be trusted. The good news is that the Republicans may finally realize this. Some GOP supporters of immigration reform are now changing their tune because of the way Obama handled the shutdown and they feel he cannot be trusted. If this is true maybe there is a silver lining to the cave in on the government shutdown.",
      "time": "2013-10-21T22:55:16",
      "id": "1091418977"
    },
    {
      "threadId": "1879672750",
      "post": "And then there is Representative Steve Cohen who called the Tea Party domestic enemies of the country, the rhetoric has now led to a threat on Ted Cruz on Twitter. These are the same people who told us we had to stop using this rhetoric after Gabby Giffords was shot. They have short memories, don't they? I fear this rhetoric is eventually going to lead to violence. And I think the left wants it.",
      "time": "2013-10-20T20:43:16",
      "id": "1090057447"
    },
    {
      "threadId": "1871348738",
      "post": "I feel the same way Larry, it seems as if we are fighting a losing battle and I expect the Republicans to lose big next year. I hope I am wrong but I will continue to fight for as long as I can write because this is a battle we must win! We cannot give up hope.",
      "time": "2013-10-18T23:31:31",
      "id": "1087746300"
    },
    {
      "threadId": "1867319805",
      "post": "It might be temporary but I still don't like to see the Congress give up this power, it seems they no longer have the will to fight and that is a bad sign with immigration reform coming up next.",
      "time": "2013-10-18T00:28:52",
      "id": "1086533255"
    },
    {
      "threadId": "1863409162",
      "post": "You nailed it again Larry! What Obama forgets is the fact that the House represents the people not John Boehner. We are the ones who are supposed to control our representatives in the House, it isn't up to the establishment to control the representatives for they are supposed to represent the will of the people. This mindset is exactly what is wrong in Washington today.",
      "time": "2013-10-16T22:41:14",
      "id": "1085066218"
    },
    {
      "threadId": "1645377979",
      "post": "Once again Obama's rhetoric does not match hie actions. Obama wants the feds to regulate every aspect of our childrens' education and this is proof of that. Homeschooling is the greatest threat to the feds when it comes to education and it is only a matter of time before they go after the homeschoolers.",
      "time": "2013-08-25T23:01:36",
      "id": "1017283996"
    },
    {
      "threadId": "1633014455",
      "post": "I am right there with you Larry: While I love and respect everyone who serves in our military there is no doubt that the restrictive ROE and the military's focus on social engineering ahead of national defense has weakened the military. This goes for the leaders in the military all the way up to Barack Obama.\n\nI would also add that the world no longer fears the United States as a whole and our influence is waning because of the lack of leadership from the commander in chief. We are becoming a laughing stalk in the world.",
      "time": "2013-08-23T23:33:41",
      "id": "1015506999"
    },
    {
      "threadId": "1628221748",
      "post": "The left thinks this is proof that the system is working and that is how they are defending this. And they wonder why we do not trust them? Everything is secret and are we really supposed to believe when the NSA investigates itself they are really going to be truthful about all the violations?",
      "time": "2013-08-23T09:43:50",
      "id": "1014638546"
    },
    {
      "threadId": "1623312789",
      "post": "A sad, tragic, and terrible story to say the least and yes this does speak to our society and the destruction of the family and the degradation of our morals as a nation. While we do not know if this was race related I would not be surprised if we learn this was \"justice for Trayvon\" before all is said and done. Whatever the reason this speaks to a much larger issue, the one I stated above.\n The MSM and Barack Obama, by not really addressing this issue, shows us they feel some lives are more valuable than others. And by this I mean from a political standpoint, there is no doubt they have no interest in covering this story because they cannot use it to forward their divisive agenda.",
      "time": "2013-08-21T23:28:18",
      "id": "1011638442"
    },
    {
      "threadId": "1610438099",
      "post": "I am right there with you Larry, I do not see how anyone can trust our government at this time for they have proven themselves unworthy of our trust.\n The NSA is admitting to thousands of violations a year, but they are only counting the violations that occurred in a few offices, people in the NSA are saying if they counted them all the violations would be much higher. Because they are spying on virtually every American I say the violations range in the millions.",
      "time": "2013-08-16T23:11:25",
      "id": "1004256446"
    },
    {
      "threadId": "1605550131",
      "post": "It turns out that rodeos have made fun of political figures for many years, and that includes both Clintons, bush, and many others, but what separates Obama is two things: How thin-skinned he is, and how beyond reproach his followers believe him to be.\n This is nothing but an attempt at intimidating his opponents into silence.",
      "time": "2013-08-14T23:45:45",
      "id": "1001644392"
    },
    {
      "threadId": "1603249178",
      "post": "Go Oklahoma! This is great news Larry! The law left it up to HHS to write the laws after the bill was passed so you are right, this was open ended and nobody knew everything that was in the bill because it was not complete. This means the law can be written to suit Obama's whims and that is exactly what they are doing.",
      "time": "2013-08-13T23:13:22",
      "id": "999810461"
    },
    {
      "threadId": "1588532843",
      "post": "Money is the driving force behind everything the government does, so I would say that is what is driving this as well. They do not care about our well-being, they only care about revenue.",
      "time": "2013-08-09T23:02:23",
      "id": "995083019"
    },
    {
      "threadId": "1582256625",
      "post": "That is a great quote from Buckley, and all too true.",
      "time": "2013-08-07T23:35:45",
      "id": "992243362"
    },
    {
      "threadId": "1576409791",
      "post": "Valerie Jarrett is a very dangerous woman as you can tell by the quote in the picture you provided in the article and some would argue she is the defacto president. I would not argue against that claim, but if she is not she certainly has a remarkable amount of influence over Obama.\n\n Barack Obama went to bed during the attack in order to rest up for a fundraiser so somebody had to make the call and I wouldn't doubt it was her for a minute. But of course, she did know what Obama wanted so this cannot be used to wash Barack Obama's role in the scandal.",
      "time": "2013-08-06T23:11:55",
      "id": "990832240"
    },
    {
      "threadId": "1571825989",
      "post": "I agree with Bunkerville here: I do not think that Obama believes in green energy as a solution to the problem because in my opinion the green energy supporters in the government are only interested in one thing and one thing only, and that is control. That is what this whole movement is about and the end justifies the means in Obama's opinion.",
      "time": "2013-08-06T00:08:20",
      "id": "989743474"
    },
    {
      "threadId": "1569873089",
      "post": "Bill Whittle's last three Afterburners are some of his best work. This one was great as he nailed dean for basically admitting Palin was right while also exposing the hypocrisy of the IRS implementing a law they are trying to get out of themselves.",
      "time": "2013-08-05T10:06:06",
      "id": "989006967"
    },
    {
      "threadId": "1564464568",
      "post": "You nailed it Larry, as did Greta when she called this indecent. Because that is exactly what this is. we sent them there to do our business and they are busy taking care of themselves. To think that they know how bad this law is going to be and then instead of doing anything to fix it them make sure they exempt themselves from it makes me absolutely livid.",
      "time": "2013-08-04T12:33:29",
      "id": "987946846"
    },
    {
      "threadId": "1560133308",
      "post": "I hadn't seen that one before. Great stuff, thanks for sharing it.",
      "time": "2013-08-03T01:44:42",
      "id": "986647151"
    },
    {
      "threadId": "1559783527",
      "post": "Well said Larry! The way he is treating these scandals disgusts me but this is his standard operating procedure: He turns the tables on those who question him by acting all offended and by getting louder while basically proclaiming how dare you question me. It works, the media then focuses on Obama's response and forgets about the original question.",
      "time": "2013-08-02T09:59:35",
      "id": "985516110"
    },
    {
      "threadId": "1543807167",
      "post": "I agree Larry, it is time for the Republicans to realize they have some power and start using it. For all of the hype surrounding the sequester it has not been bad at all. Now Obama is claiming he reduced the deficit while neglecting to mention that part of the reason is because of the sequester which he is now opposed to.\n The time to fight is now! I say shut down the government if that is what it takes and let the chips fall as they may.",
      "time": "2013-07-30T00:14:43",
      "id": "980872996"
    },
    {
      "threadId": "1541452253",
      "post": "Great post and thank you for your service. I think you are spot on, he needs and craves the attention and he just cannot live without it.",
      "time": "2013-07-28T20:39:54",
      "id": "979426559"
    },
    {
      "threadId": "1436481272",
      "post": "That's great but maybe Palin should have done a little more research before endorsing Ayotte when she was running for senate in the first place. True conservatives backed Ovide Lamontagne over the \"granite grizzly\" (as Palin called her) but Palin didn't know what she was talking about back then and endorsed Ayotte simply because she was a woman. In a race that boiled down to about 1,000 votes Palin probably put Ayotte over the top.",
      "time": "2013-06-26T09:47:04",
      "id": "942718405"
    },
    {
      "threadId": "1123436821",
      "post": "Graham amd McCain can go to hell\n",
      "time": "2013-03-07T17:47:53",
      "id": "822115169"
    },
    {
      "threadId": "1082377900",
      "post": "He was just preaching to the choir. Everyone else knows he's full of it.",
      "time": "2013-02-14T14:42:57",
      "id": "799101065"
    },
    {
      "threadId": "1081033560",
      "post": "I have to give you credit for at least trying to watch the speech Larry, I did not. I woke up this morning in a good mood for not paying attention for once because it felt good. Obama is still in campaign mode and I heard someone say on the radio today that this is because this is what Obama does well; he is a campaigner who thrives on dividing Americans and not on governing and I can't think of a truer statement. I have been hard on Boehner but perhaps he just might have learned his lesson, it will be interesting to see how Boenher acts moving forward but he is talking a good game right now.",
      "time": "2013-02-14T01:40:15",
      "id": "798442738"
    },
    {
      "threadId": "1078944453",
      "post": "He keeps calling for a balance approach and yet he is unwilling to cut anything. If I were in the republican leadership I would tell him \"you got your tax increases in the fiscal cliff deal, now it is time for the cuts\" and I would refuse to authorize any new spending. It seems simple to me and that is why I am leaning towards letting the sequester happen--it is the only way we will see any cuts.",
      "time": "2013-02-13T00:53:31",
      "id": "797195654"
    },
    {
      "threadId": "1076905290",
      "post": "Thanks for the link Larry! The first part of recovery is admitting that you have a problem and until that happens we will never see anything positive. Nancy Pelosi and Barack Obama have no intention of working with the Republicans to reduce spending, they only wish to increase taxes. At this point I see no reason why the Republicans should even try to negotiate with them, it is a losing cause and I say let the sequester take place at this point.",
      "time": "2013-02-12T00:15:57",
      "id": "795963976"
    },
    {
      "threadId": "1075634738",
      "post": "Another Friday document dump, I hadn't seen this anywhere else Larry. Good find! This man is no friend of Israel and I suppose we shouldn't be surprised by this because he did once say when the winds shift he would stand with the Muslims and he also said the future must not belong to those who slander the profit of Islam.This is a very dangerous man and I don't like the direction he is taking us",
      "time": "2013-02-10T20:12:04",
      "id": "794859195"
    },
    {
      "threadId": "1073672060",
      "post": "Ugh! They  just keep coming at us, don't they Larry? I don't take what Obama said about climate change in his inaugural address lightly, I think he is going to push it hard in his second term because between cap and trade and Obamacare the government will have control over more aspects of our lives than ever before, and that is what this is all about.",
      "time": "2013-02-09T12:55:07",
      "id": "793846763"
    },
    {
      "threadId": "1072110431",
      "post": "I'm with you Larry, this is the deal he wanted and I think it is time for the Republicans to stand up to him and remind the people that this deal is his deal and hold him to the fire. If they can show the American people that this was his idea he might actually back down for once. I just don't know if the Republicans will be willing to do it because they have been burned so many times in the past and they know the MSM will spin this to take the blame away from Obama.",
      "time": "2013-02-08T21:04:00",
      "id": "793426376"
    },
    {
      "threadId": "1068391531",
      "post": "We've heard this before, haven't we?!",
      "time": "2013-02-06T15:10:34",
      "id": "790591029"
    },
    {
      "threadId": "1064737959",
      "post": "Sounds like he'll fit right in!",
      "time": "2013-02-04T20:06:21",
      "id": "788535413"
    },
    {
      "threadId": "1053070034",
      "post": "The problem is that nothing we do will win these voters over once they become citizens and the fact is that while they may talk about securing the border I doubt it will ever come to pass. We will be played by OBama and the Democrats just like we always are; there will still be people coming here illegally and nothing will be done about it.",
      "time": "2013-01-30T11:08:46",
      "id": "783056452"
    },
    {
      "threadId": "1051125914",
      "post": "I don't know if he is saying this because he is out of touch or not. Barack Obama wants to control the message and to do this he must have the full cooperation of the media. He was about 99% of the media in his pocket and is upset that he doesn't have the other 1% so he is trying to demonize the rest of the media and intimidate them into supporting him.",
      "time": "2013-01-29T01:23:50",
      "id": "781344227"
    },
    {
      "threadId": "1047087539",
      "post": "Okay, I'm not going crazy then! :)\n \nI didn't hear his speech but I am glad to hear he isn't talking about becoming more like the Democrats and I do agree that we have a messaging problem. I't will be interesting to hear what he has to say.",
      "time": "2013-01-27T12:29:35",
      "id": "779702637",
      "parentPost": "You did comment last night. Right after that, I reinstalled Disqus and the comments haven't finished importing yet.\n\n\nI do not believe Jindal is talking about becoming more like the Democrats. I watched his entire speech last night and he made it clear that America already has one liberal party and doesn't need another. I get the feeling he wants to change the way we approach certain issues, improving the way we portray our message, etc. I am interested in hearing more details about what he proposes.",
      "parentPostTime": "2013-01-27T00:49:03",
      "parentPostId": "779400521"
    },
    {
      "threadId": "1048785657",
      "post": "Barack Obama is going to use his second term to push through as much of his far left agenda as he can because he doesn't have to worry about reelection. This is the flexibility he talked about and this is what many of us were afraid would happen. While he pushes this agenda he will hope that the economy improves, but actually doing something about the economy doesn't help his leftist agenda so he is going to ignore it.",
      "time": "2013-01-27T12:26:40",
      "id": "779701849"
    },
    {
      "threadId": "984944858",
      "post": "Unfortunately the time to do that would have been last month, this is what the people voted for and this is what we are stuck with. ",
      "time": "2012-12-21T04:00:27",
      "id": "744460140",
      "parentPost": "We the people need to really hold their feet to the fire. Dump them all. Close down Washington. They are useless wastes of money. Get rid of all the alphabet agencies. Every state has those controls already. Why put the fed in charge of anything? They have no clue. EPA, TSA, FDA, FTA, whatever. You name the letters, they should all be gone. Let the states and towns make decisions based on how their towns and states vote. Get the feds out of your life and mine.",
      "parentPostTime": "2012-12-21T00:31:16",
      "parentPostId": "744271270"
    },
    {
      "threadId": "979452614",
      "post": "I think we are going to see Deval run against Brown in the special election, I think that is what Obama discussed with him at that dinner at the White House last month. and knowing Massachusetts Deval will beat Brown easily.",
      "time": "2012-12-18T01:39:04",
      "id": "741247526",
      "parentPost": "Is that really the best the left has to offer up?  Dukakis was a failure as governor.  He was a failure as a presidential candidate.  It is a pretty telling choice - they don't want a senator.  They want a rubber stamp.\n\nI will be happy to see Kerry out of the senate.   Hopefully, he can be easily defeated in the special election when it comes time.  Maybe Brown can win again? ",
      "parentPostTime": "2012-12-17T19:17:45",
      "parentPostId": "741002695"
    },
    {
      "threadId": "971227762",
      "post": "That is the most asinine proposal Goodell could have come up with!",
      "time": "2012-12-12T22:34:31",
      "id": "734320782"
    },
    {
      "threadId": "960409495",
      "post": "If the Republicans give Obama everything he wants and the economy tanks he will just turn around and blame the Republicans for giving him what he wanted when they knew it would fail. He will claim they tricked him!",
      "time": "2012-12-06T10:44:31",
      "id": "729057760"
    },
    {
      "threadId": "959670878",
      "post": "Amen to that!",
      "time": "2012-12-05T17:04:33",
      "id": "728439882",
      "parentPost": "It is high time to Purge House Republican Leadership",
      "parentPostTime": "2012-12-05T16:30:35",
      "parentPostId": "728404762"
    },
    {
      "threadId": "956374148",
      "post": "Costas is just another self-righteous on air personality who thinks what he has to say is important when all he really is is a sportscaster who couldn't have made it in the world of real journalism.",
      "time": "2012-12-04T11:14:39",
      "id": "727030049"
    },
    {
      "threadId": "951379255",
      "post": "I am probably less socially conservative than you are Larry, I consider myself to be a social libertarian and I think that what adults do is their own business but I still think that you are right. The dismantling of the family unite and the erosion of values is a major problem in this country and one that is not easily remedied. People no longer feel they are responsible for their actions and the federal government propagates this problem by accepting it as the norm. This extends beyond the family and into the workforce as people feel the government and the corporations owe them something and they are unwilling to put in the hard work needed to get ahead.",
      "time": "2012-12-01T01:23:27",
      "id": "724353205"
    },
    {
      "threadId": "949715802",
      "post": "Taxes are merely the symptoms of the disease and the disease is spending. Until we cure the disease the symptoms will only get worse.",
      "time": "2012-11-30T00:12:15",
      "id": "723216309"
    },
    {
      "threadId": "949853239",
      "post": "Perhaps he would like to move all these corporations to Guam so than when it tips over we won't have to worry about them any more.",
      "time": "2012-11-29T17:14:37",
      "id": "722796466"
    },
    {
      "threadId": "946953558",
      "post": "No problem.",
      "time": "2012-11-28T11:28:37",
      "id": "721352856",
      "parentPost": "That's what it was! Thank you!",
      "parentPostTime": "2012-11-28T03:24:42",
      "parentPostId": "720985163"
    },
    {
      "threadId": "945780272",
      "post": "Did it really take a study to determine that porno actresses had more partners than most women, were bisexual, and had an increased concern over STDs? Seems like this could have been concluded from the parent's basement, if you know what I mean.",
      "time": "2012-11-28T02:35:54",
      "id": "720945191"
    },
    {
      "threadId": "946301062",
      "post": "Unfortunately the president's rhetoric seems to resonate with a majority of the voters and even though Obama is willing to hold the middle class hostage if he doesn't get what he wants the American people will blame the Republicans if a deal is not reached. He has brilliantly triangulated this position and has painted the Republicans into a corner. The only concession the Republicans might win is that taxes will not go up as high as Obama would like, but taxes will go up and there will be no spending cuts. Somehow Barack Obama managed to win this battle and he is already setting the Republicans up for future defeats in 2014 and 2016.",
      "time": "2012-11-28T01:04:38",
      "id": "720870579"
    },
    {
      "threadId": "944584498",
      "post": "Agreed Larry, there are good people in the GOP but leadership is shunning them at this point. I don't know what we can do about it other than keep pressuring the leadership to listen to us.",
      "time": "2012-11-27T11:49:43",
      "id": "720213408",
      "parentPost": "Personally, I believe we have some good, principled people in the GOP. Just not in the leadership. That's where the real problem lies and I see no way we can rectify the situation, unless the conservatives still remaining in the party stage a revolt.",
      "parentPostTime": "2012-11-27T08:56:09",
      "parentPostId": "720126356"
    },
    {
      "threadId": "945390095",
      "post": "If the Republicans force this upon us like they did with Romney it just shows us the good ole boy network is alive and well and they really don't give a damn about us or what we think.",
      "time": "2012-11-27T01:21:56",
      "id": "719823192"
    },
    {
      "threadId": "944786330",
      "post": "Liberals are just angry people, pure and simple. I don't think it's too hard to understand.",
      "time": "2012-11-26T23:19:40",
      "id": "719754006"
    },
    {
      "threadId": "944338592",
      "post": "Why not just show pictures of the toys with no children?",
      "time": "2012-11-26T10:36:07",
      "id": "719237233"
    },
    {
      "threadId": "942020660",
      "post": "This is something I have gone back and forth on in my mind since the election. Part of me says screw it, give Obama what he wants and then the world will see he is a failure and the American people will realize we were right all along. But then part of me thinks if we do this the damage will be irreparable and I am not sure if we should attempt it. I still don't know what the best course of action is, I guess we'll just have to let it play out and report on it as it happens.",
      "time": "2012-11-25T00:13:27",
      "id": "718401935"
    },
    {
      "threadId": "940359275",
      "post": "Great post Larry! You are right about the states pushing back against the feds, that is the only hope we have of slowing down the federal government and you hit on the biggest reason why many states do not. The feds hold that money over the states heads and basically bribe them to go along by using money which belongs to us in the first place to coerce them into neglecting the 10th amendment.",
      "time": "2012-11-23T11:54:18",
      "id": "717445150"
    },
    {
      "threadId": "936451502",
      "post": "I wrote about this issue today as well. The original intent of this legislation was to protect our online privacy but after facing pressure from law enforcement and the Justice Department the bill has the exact opposite effect. At some point we have to stand up and say enough is enough!",
      "time": "2012-11-21T00:27:01",
      "id": "715380738"
    },
    {
      "threadId": "934468560",
      "post": "So have I Larry, they seem all too willing to give up because of this loss and while I understand their frustration I think their conclusions are flawed.",
      "time": "2012-11-20T11:03:52",
      "id": "714755902",
      "parentPost": "Oh, I knew you weren't implying that. I have just heard several of the pundits saying things along those lines and I strongly disagree with them.",
      "parentPostTime": "2012-11-20T02:19:42",
      "parentPostId": "714433120"
    },
    {
      "threadId": "934725802",
      "post": "This is acceptable behavior from a Senator? Stay classy Mz. Turner and don't worry, I don't think you will have a problem keeping people out of your panties.",
      "time": "2012-11-20T10:46:00",
      "id": "714750243"
    },
    {
      "threadId": "933214420",
      "post": "What really bothers me is the way the US media also makes it sound as if Israel is the aggressor. The media never seems to report the fact that Hammas puts its weapons near schoolyards and hospitals hoping that Israel will fire at them and kill their own people so they can win the propaganda war. The media also fails to mention that Obama's policies have helped to lead to this unrest.These are dangerous times and Obama shares part of the blame and yet he is allowed to claim he stabilized the Middle East.",
      "time": "2012-11-19T01:01:19",
      "id": "713516960"
    },
    {
      "threadId": "871444096",
      "post": "He can joke about it all he wants to now, but he didn't have an answer for it last night when it counted, did he?",
      "time": "2012-10-05T02:20:37",
      "id": "671702066"
    },
    {
      "threadId": "773494289",
      "post": "So her answer is to have the poor pay more for a product they can afford? ",
      "time": "2012-07-22T11:54:47",
      "id": "594654398"
    },
    {
      "threadId": "760458113",
      "post": "I couldn't agree more! What are the Republicans waiting for?",
      "time": "2012-07-12T00:58:46",
      "id": "584763208",
      "parentPost": "The RNC keep making hard hitting great videos.  But we only see them on the web.  These should be all over TV already.",
      "parentPostTime": "2012-07-11T16:58:16",
      "parentPostId": "584349586"
    },
    {
      "threadId": "751016269",
      "post": "Happy Independence Day! I hope you had a great day today but after today the final push is on to maintain our freedoms and our liberties and I know you will be up to the task of spreading the message.",
      "time": "2012-07-05T00:10:50",
      "id": "576525175"
    },
    {
      "threadId": "738919564",
      "post": "It does say quite a bit about Obama's supporters that he felt he had to tell them he was the incumbent, doesn't it?",
      "time": "2012-06-25T02:29:06",
      "id": "566350176",
      "parentPost": "\"For the first time in modern American history, the incumbent (that's us)\" ...that they had to specify who the incumbent is tells us much about how stupid they know their supporters are... lol ",
      "parentPostTime": "2012-06-25T02:14:20",
      "parentPostId": "566344612"
    },
    {
      "threadId": "735894303",
      "post": "He should be thankful, if the government did have a plan there would probably already be 300+ dead Puerto Ricans to go along with the 300 dead Mexicans from Fast and Furious.",
      "time": "2012-06-24T11:07:41",
      "id": "565908725"
    },
    {
      "threadId": "722244529",
      "post": "Holder says he won't tolerate voter fraud, voter intimidation on the other hand...well, thats okay.",
      "time": "2012-06-12T09:44:21",
      "id": "555068250"
    },
    {
      "threadId": "718831864",
      "post": "Rove is not a Tea Party guy, he is part of the good ole boy establisment. Rove is part of the problem, he is not part of the solution.",
      "time": "2012-06-09T12:06:17",
      "id": "552976345"
    },
    {
      "threadId": "663819203",
      "post": "Yeah, why is it news that Obama broke the law? It happens all the time, I wouldn't expect less!",
      "time": "2012-04-26T02:16:56",
      "id": "509331873",
      "parentPost": "As if this is the only law or rule that this guy has broken. Let me guess what will happen...nothing. Just another free pass.",
      "parentPostTime": "2012-04-25T17:37:25",
      "parentPostId": "508923405"
    },
    {
      "threadId": "619941693",
      "post": "And the White House is astoundingly arrogant and willfully divisive.",
      "time": "2012-03-22T01:51:42",
      "id": "473028690"
    },
    {
      "threadId": "617357040",
      "post": "Just more liberal hypocrisy, this will be ignored. The double standard is laughable at this point.",
      "time": "2012-03-20T09:43:58",
      "id": "470017561"
    },
    {
      "threadId": "516903351",
      "post": "When the government fears the people you have liberty, when the people fear the government you have tyranny. I guess we know what direction we are headed in.....",
      "time": "2011-12-27T01:04:13",
      "id": "394683150",
      "parentPost": "What would happen if a few of the disingenuous sleazy politicians like Schumer were found face down somewhere in a DC dumpster?  Do you think that maybe then the rest of the politicians might start to respect the American people a little more than they do now?\n \n Our politicians sh#t all over us because they don't fear us.  That needs to change!  Soon!",
      "parentPostTime": "2011-12-26T22:35:22",
      "parentPostId": "394613950"
    },
    {
      "threadId": "515048799",
      "post": "I couldn't agree more Pat, calling Holder incompetent is giving him the benefit of the doubt which he does not deserve. Holder KNEW what was going on and he condoned it. This makes him evil and criminal. Now he has played the race card because he has nowhere else to turn. He knows this has nothing to do with race but he is hoping this will help him gain support with minorities. He welcomes a race war, because that is the only way Obama can win.",
      "time": "2011-12-26T03:14:05",
      "id": "394258381",
      "parentPost": "Holder is not incompetent. \nHolder is just evil.\nTo say he is incompetent is to imply Holder doesn't know all the evil that is going on in DOJ.\nHolder is prosecuting states for trying to enforce immigration laws because DOJ won't enforce the laws.\nHolder is prosecuting states for trying to enforce voting laws because DOJ won't enforce the laws.\nHolder won't prosecute blacks who are violating voting laws.\nThe list goes on.\n\n",
      "parentPostTime": "2011-12-24T19:24:05",
      "parentPostId": "393764022"
    },
    {
      "threadId": "513300544",
      "post": "It was Wide Receiver that was shut down in '05 if I am not mistaken.",
      "time": "2011-12-23T03:43:01",
      "id": "392782409",
      "parentPost": "wasn't gunrunner shut down in 05 after its issues?",
      "parentPostTime": "2011-12-23T00:47:28",
      "parentPostId": "392702639"
    },
    {
      "threadId": "455582651",
      "post": "Bought off for a pizza, I thought the propaganda arm of the Obama regime would hold out for a little more than this in return for their loyalty.",
      "time": "2011-10-30T01:20:42",
      "id": "349145940"
    },
    {
      "threadId": "417467510",
      "post": "There is no doubt that Boehner has drawn the ire of the Tea Party, and I consider myself a Tea party person, but if the Tea Party runs a candidate against him on this one issue alone it simply isn't going to work. If the Tea Party wants to defeat Boehner they are going to have to look for a better candidate than a one trick pony.",
      "time": "2011-09-18T00:00:33",
      "id": "314052397"
    },
    {
      "threadId": "378282222",
      "post": "The left is afraid of the Tea Party and that is why they have engaged in this name calling as of late. They laughed at the Tea Party a couple of years ago, but they began to get worried about the Tea Party after 2010m but with the Tea Party flexing its muscles during the debt ceiling debate they are now in full panic mode. For the first time they feel threatened by the Tea Party and because they are losing the debate, they are going on the attack and I think this shows that the Democrats are getting desperate.",
      "time": "2011-08-06T23:44:02",
      "id": "279479670"
    },
    {
      "threadId": "358815818",
      "post": "This article fails to mention that it was the United States government and Eric Holder in the DOJ who was responsible for the weapons trafficking in the first place. The government sold these weapons to Mexican criminals in order to create a crisis so they implement these new laws, and now they are implemening these laws but we have s dead border patrol agent--Brian Terry--on our hands because our government sold these weapons.",
      "time": "2011-07-17T11:27:10",
      "id": "254720551"
    },
    {
      "threadId": "2054472",
      "post": "It is fun to watch the ubber-left Democrats as they realize that Obama is no different than the rest. The more he \"moves to the center\" the more he pisses off the far left. I just sit here and laugh.",
      "time": "2008-07-21T02:18:49",
      "id": "952918"
    },
    {
      "threadId": "2015179",
      "post": "I don't really have a problem with the trust fund, I just wouldn't ever donate to it. I understand where you are coming from on this.",
      "time": "2008-07-19T03:31:48",
      "id": "939379"
    }
  ],
  "profileInfo": {
    "username": "mpinkeyes",
    "about": "",
    "name": "Steve Dennis",
    "disable3rdPartyTrackers": false,
    "isPowerContributor": false,
    "isAnonymous": false,
    "rep": 1.381783,
    "profileUrl": "https://disqus.com/by/mpinkeyes/",
    "url": "http://americaswatchtower.com/",
    "reputation": 1.381783,
    "location": "",
    "isPrivate": false,
    "signedUrl": "http://disq.us/?url=http%3A%2F%2Famericaswatchtower.com%2F&key=dwWRrrPo-6LGVSbC66gVDQ",
    "isPrimary": true,
    "joinedAt": "2008-07-19T03:33:08",
    "id": "64329",
    "avatar": {
      "small": {
        "permalink": "https://disqus.com/api/users/avatars/mpinkeyes.jpg",
        "cache": "//a.disquscdn.com/uploads/users/6/4329/avatar32.jpg?1454791879"
      },
      "isCustom": true,
      "permalink": "https://disqus.com/api/users/avatars/mpinkeyes.jpg",
      "cache": "//a.disquscdn.com/uploads/users/6/4329/avatar92.jpg?1454791879",
      "large": {
        "permalink": "https://disqus.com/api/users/avatars/mpinkeyes.jpg",
        "cache": "//a.disquscdn.com/uploads/users/6/4329/avatar92.jpg?1454791879"
      }
    }
  }
}