{
  "comments": [
    {
      "threadId": "4026089006",
      "post": "Having these perfectionist tendencies is also a major obstacle for every PhD researcher and established academic. Many PhD dissertations (and other research projects) take more than necessary because the researcher cannot let go.\n\nA good supervisor, therefore, is reminding their PhD students that there is a \"good enough.\" After all, the thesis will most likely not be their best work. \nStrategies like the ones mentioned above, small \"easy\" milestones and frequent deadlines are very helpful for these perfectionist PhD researchers. A related strategy from programming also helps with writing research: Release early, release often. You can only get feedback if you share your work. And only with feedback you can really improve.",
      "time": "2015-08-14T12:38:47",
      "id": "2193668304"
    },
    {
      "threadId": "2078372144",
      "post": "I usually use this here only for book keeping. But you are right, maybe I should write more, and maybe teachability is a topic on which I could elaborate a bit... Let's see what the next days and the new year bring.",
      "time": "2013-12-29T16:47:17",
      "id": "1180301064",
      "parentPost": "@ No one is really teachable who does not freely exercise his power of independent judgment-\n\n\nSince that in particular caught your and my attention I'd love you to expand your thoughts on this in a separate blog ?",
      "parentPostTime": "2013-12-29T08:42:51",
      "parentPostId": "1180027378"
    },
    {
      "threadId": "1672713854",
      "post": "Since I am asked in various places to bring insideEAv back online...\n\nNo. For at least two reasons:\n\nI cannot make any time during the fall term.\n\nI am unwilling to support EAv in any way - at least for the near future.\n\nI have joined EAv for the social stock market game and the analytics. \n\nThey fail on the analytics part. E.g. instead of looking for improvements for measuring blog activity they killed the blog stats completely. Even the dated http://www.blogoscoop.net is doing a better job. Look at https://socialcrawlytics.com for on idea where things could go. The few statistics on EAv for the remaining networks are almost perfectly useless. I get much more from using the respective APIs directly. Good social media statistics could have been a cash cow and EAves sink (to battle the ever present inflation without hurting users / players).\n\nThey are not interested in the game. (I talked to Dups and he made that very clear. His vision for EAv lies somewhere else.) They were / are interested in gamification. This is something completely different from the game that they seemed to offer when I joined. Unfortunately they are also not very, let's say, successful with their approach to gamification. Explicit incentives destroy intrinsic motivation; from a social cohesion perspective missions were a very unwise decision. \n\nHence, the path EAv is going and where I wanted to go when I joined are not the same.\n\nI am only doing things that I am interested in (THAT is the biggest benefit of academic freedom: doing things you like and also getting paid for it). Therefore, luring me with cash is (almost) always the wrong approach.  I will have a look at EAv every once in a while. What was its business strategy on one day was not necessarily its business strategy the next day or at least what they are doing the next day is not always congruent when their stated business strategy yesterday; timelines do mean nothing on EAv. So maybe, just maybe, I'll get interested in EAv again in the future and think about it.",
      "time": "2013-10-07T13:13:38",
      "id": "1073472294"
    },
    {
      "threadId": "1506764836",
      "post": "Good point. I definitely need to check what the credit card fee is. Though it should not be more than the usual fee for a use abroad.\n\nStill, I read on their blog that they are looking for a Europe-friendly payment solution as well. So maybe they will become a more attractive service for us Europeans in future as well.\n\nAnd yes, the paypal donate buttons are still on the import portfolio page of the app, and they will remain to be there...",
      "time": "2013-07-19T21:59:40",
      "id": "969629853",
      "parentPost": "Its a nice service and I nearly set up a tip for you. Problem is my credit card is English so I would be paying more in fees each time I gave you a tip as I would be actually giving you.... I think I need money more than my bank... but will be sending a Paypal donation your way at some stage if you are still accepting those!",
      "parentPostTime": "2013-07-19T16:40:28",
      "parentPostId": "969210360"
    },
    {
      "threadId": "1248753807",
      "post": "At the moment I use the API only for obtaining the dividend (etc.) data. Buying and selling is still done directly through the website's forms to circumvent the API call limit. The guys at EAv know. I would like to move fully to the API. Yet, I am still waiting for an answer to an email I sent to Dups in February concerning some bugs, features, and of course the API call limit...",
      "time": "2013-06-03T22:16:35",
      "id": "918101391",
      "parentPost": "I'd love to see just enough of your code to understand how to use the API.",
      "parentPostTime": "2013-06-03T06:45:55",
      "parentPostId": "917267425"
    },
    {
      "threadId": "1132401087",
      "post": "Problem solved. Was a result of how EAv deals with blocking.",
      "time": "2013-04-25T18:04:08",
      "id": "875607043",
      "parentPost": "I cannot replicate the error, try using https://dr-dittrich.de/eav/frontend/eav.pl instead. I added a few extra debug hooks in that script.",
      "parentPostTime": "2013-04-25T16:43:43",
      "parentPostId": "875535906"
    },
    {
      "threadId": "1132399108",
      "post": "Interesting. I'll put it on the list.",
      "time": "2013-04-23T21:47:41",
      "id": "873638711",
      "parentPost": "How about an exclude buying stocks with no profile picture?",
      "parentPostTime": "2013-04-23T17:46:32",
      "parentPostId": "873434076"
    },
    {
      "threadId": "1186388653",
      "post": "The (e) links do not work here. And, I do not think Dups ever browsed through the comments here either.",
      "time": "2013-04-20T22:04:24",
      "id": "870201903",
      "parentPost": "Nice I have 1600 in all the communties I am engaged in. Now what (e)DUPS?",
      "parentPostTime": "2013-04-20T14:04:01",
      "parentPostId": "869721503"
    },
    {
      "threadId": "1177140991",
      "post": "I completely agree with you, Harold.",
      "time": "2013-03-31T21:22:57",
      "id": "848078155",
      "parentPost": "There are a number of better critiques of God and religion than Dawkins.  I think the diatribe intrigued him more than careful reasoning.  That said, I have found it is bad science and bad religion that cause the trouble and not just in the mixing.",
      "parentPostTime": "2013-03-31T21:15:05",
      "parentPostId": "848074227"
    },
    {
      "threadId": "806049891",
      "post": "Yes, empireavenue.com had serious problems with their servers, they could handle the many shouts that were posted through 3rd party tools like mine and thus they asked to turn off the shouts.",
      "time": "2013-03-21T20:47:26",
      "id": "837589370",
      "parentPost": "SOOOOOO happy you're back!!! One little question....do we no longer have the ability to post shout-outs through your site anymore?",
      "parentPostTime": "2013-03-21T13:51:17",
      "parentPostId": "837234440"
    },
    {
      "threadId": "718342036",
      "post": "@google-04cc7f06e6cbce7f720d0af885e42c6b:disqus and @google-f35bb650190d2e8fa5b73f80d5b7c615:disqus, here is what happened: Recently, EAv started to cache more aggressively due to load issues they were experiencing on their servers. The wealth they report on your profile or the buying form is only updated once every minute. In that time my script performs about 20 transactions. As I rely on the numbers EAv shows on its pages the wealth was off and the error you reported was the result.\n\n\nI just implemented a little work-around that should (mostly) take care of this. It's not perfect as it does not catch higher expenditures due to increased fast mover commissions. It will also not \"see\" increased wealth during the dividend payout period; the script may now stop due to insufficient wealth even though your cash stock was replenished during the past 59 seconds to allow another investment.",
      "time": "2013-03-11T11:04:48",
      "id": "825413344",
      "parentPost": "Today march 6 2013 - I noticed something odd. The \"you have 414726 eaves in cash available.\" is not changing after each purchase. The \"funds left\" changes but then at the next buyer it is back to the same starting amount available.  I think this will cause problems when eaves get below the actual amount available.",
      "parentPostTime": "2013-03-06T16:14:50",
      "parentPostId": "821113964"
    },
    {
      "threadId": "1116985545",
      "post": "Glad you like it. There are still two more things on my to-do-list that will come soon...",
      "time": "2013-03-04T14:07:22",
      "id": "818850782",
      "parentPost": "Good feature!",
      "parentPostTime": "2013-03-04T13:57:35",
      "parentPostId": "818844640"
    },
    {
      "threadId": "1110490861",
      "post": "Your portfolio was imported just fine. Your shareholder list not. I don't know why. Doing it manually generated no errors. Your are ok for the moment, tell me if the problem persists.",
      "time": "2013-03-01T01:00:09",
      "id": "815981744",
      "parentPost": "Hmmm. I have tried three times and my data isn't being imported...",
      "parentPostTime": "2013-03-01T00:31:17",
      "parentPostId": "815955791"
    },
    {
      "threadId": "819070879",
      "post": "Found the error. Corrected it. :)",
      "time": "2013-02-28T17:30:24",
      "id": "815606374",
      "parentPost": "My profile: http://www.empireavenue.com/ANDREWBAKER\n\nHi Dennis, when I query a list of my stocks and as it to sort by price, it sorts them by score, not price.  \n\nI re-imported my portfolio before trying this.\n\nHere is the query I used: http://bit.ly/XZ9kjj   (The query looks like it should be fine)\n\nThanks\n\n-ASB: http://XeeMe.com/AndrewBaker",
      "parentPostTime": "2013-02-26T23:23:39",
      "parentPostId": "813458483"
    },
    {
      "threadId": "811930980",
      "post": "Recently, I had a server crash (hard disk failure) and I have not not restored all of the former functions. Please use the portfolio management in the meantime.",
      "time": "2013-02-19T22:15:20",
      "id": "804805972",
      "parentPost": "I'm afraid I don't understand a word of the above!  It is my first day in Empire Avenue and I was looking for the top newcomer buy site as per PCMTECHHELP's video suggestion on Youtube and thought this was the right page but I get the dreaded 404 not found when I click the link above?  Jan",
      "parentPostTime": "2013-02-19T19:58:56",
      "parentPostId": "804641436"
    },
    {
      "threadId": "774686256",
      "post": "done.",
      "time": "2013-01-11T15:36:39",
      "id": "763769755",
      "parentPost": "Add me to the no shout list please. (e)BRETZKE",
      "parentPostTime": "2013-01-11T05:56:54",
      "parentPostId": "763391924"
    },
    {
      "threadId": "809998661",
      "post": "Game Theory is much more than that. (BTW: Axelrod writes about the iterated prisoner's dilemma not tic tac toe; the two games a rather different)\nMaybe a look at http://pro-libertate.net/20101213/140-read-rock-paper-scissors-game-theory-everyday-life could get you interested enough to read the more serious yet still very brief http://pro-libertate.net/20101215/142-read-game-theory-very-short-introduction . If you get interested I am happy to recommend more in-depth treatments on special topics.",
      "time": "2012-08-20T14:11:30",
      "id": "623967721",
      "parentPost": "I see economic Game Theory more a game of Tic-Tac-Toe described in Axelrod's - Evolution of Cooperation. Huge corporations and powerful nations, brands, universities, now concentrate winners requiring more clever negotiations to sustain the game.  ",
      "parentPostTime": "2012-08-19T19:47:45",
      "parentPostId": "623516282"
    },
    {
      "threadId": "748273982",
      "post": "soon...",
      "time": "2012-07-21T17:58:47",
      "id": "594226021",
      "parentPost": "Awesome tool! Any chance we could select by yield on the sell screen, searching for the people with lowest yield? Thanks!",
      "parentPostTime": "2012-07-19T17:26:53",
      "parentPostId": "592182249"
    },
    {
      "threadId": "730154355",
      "post": "Interesting, I went the other way.\nDo you have a reference for social psychology claim?\nI have a feeling that the (or at least my) likelihood of actually reading the paper (in full) is higher with the more personal style of writing.",
      "time": "2012-07-05T20:30:16",
      "id": "577304429",
      "parentPost": "Thanks for the book review.\n\n\nre: social science writing... I recently changed my default style from \"we did\" to \"was done\" / \"this article proposes\" for reasons of social psychology. \n\n\nEvery time there is an \"I\" or \"we\" in an article it reminds the reader of the separation between themselves and the researcher(s). The passive voice alternative draws people into the research itself which (social psych suggests) makes them more likely to embrace the results.",
      "parentPostTime": "2012-07-05T12:05:40",
      "parentPostId": "576798299"
    },
    {
      "threadId": "714921248",
      "post": "Form what I see in the source that should not happen. Will need to take a harder look... Thank you, David!",
      "time": "2012-06-12T08:52:15",
      "id": "555051220",
      "parentPost": "DBD::mysql::st execute failed: You have an error in your SQL syntax; check the manual that corresponds to your MySQL server version for the right syntax to use near 'AND eav1.adjroi < 0.6    order by adjroi ASC limit 100' at line 1. Following SQL is executed.\n select * from  eavuser_dsp LEFT JOIN eav1 USING (ticker) left join eav2 using(ticker)  LEFT JOIN (select ticker from eav1 where deleted = 0 order by divs desc limit 5000) t USING(ticker) where t.ticker is NULL AND  deleted = 0 AND (shares >0)    AND ( eav_weekly <= 0 AND eav_today <= 0 ) AND shares >= 1 AND (shares <= 900 OR shares IS NULL) AND divs <=   AND eav1.adjroi < 0.6    order by adjroi ASC limit 100\n(DBIx::Custom::execute) at /var/www/dr-dittrich.de/htdocs/eav/eav.pl line 926\n\n",
      "parentPostTime": "2012-06-12T05:34:40",
      "parentPostId": "554969749"
    },
    {
      "threadId": "709486567",
      "post": "The \"no reply\" error can be exactly that: EAv timed out. It can also occur if you are blocked (unlikely here) or the guy is sold out.",
      "time": "2012-06-01T17:01:48",
      "id": "545098215",
      "parentPost": "I got a string of errors just now - with this format :\nBuy ANTHONYRUSSO: 1 at 38.49 eaves (38e); funds left: 431589.5855ERROR: no reply You now own 0 shares in ANTHONYRUSSO.\n\nbut some in the same request went through - AFTER the error messages",
      "parentPostTime": "2012-06-01T16:54:23",
      "parentPostId": "545091989"
    },
    {
      "threadId": "700933815",
      "post": "I could offer another quick hack for that: How about an URL that you can bookmark?\nI know that a few others have already figured out that instead of filling out the form every time that can construct an URL that does the same thing (as long as you stay logged-in). You will find (a link to) the URL that generates your query at the bottom the page.\n\nNevertheless, I put it on my ideas-to-implement list. Thank you for the input!",
      "time": "2012-05-23T14:45:50",
      "id": "536588869",
      "parentPost": "What I would love is to build a persistent query (for example, investors with share price over 150e) and be able to throw eaves at it on a regular basis ... and it does buys across the query which would, over time, level everyone at a certain shares-purchased or eaves-invested amount. That is a feature I would pay a little bit to have, it would save me a lot of time and errors.",
      "parentPostTime": "2012-05-23T14:32:02",
      "parentPostId": "536579697"
    },
    {
      "threadId": "696008808",
      "post": "Currently, I do not have any voice chat capabilities. Ping my either on facebook or google talk for a quick text chat. Meanwhile, I will have a look at your problem.\n...wow, your portfolios are big...",
      "time": "2012-05-23T11:29:53",
      "id": "536475745",
      "parentPost": "Dennis, having a problem with what I own in people not updating for days, with purchases made outside the app, can we chat",
      "parentPostTime": "2012-05-23T03:36:54",
      "parentPostId": "536284811"
    },
    {
      "threadId": "667885842",
      "post": "Yes, Scott. I also conditioned many decisions on the pie size and its relation to the number of shares the person had bought in my stock.\n\nRegarding the pie size: I just included that number in the cookie that I have to set for the session management anyway.",
      "time": "2012-04-30T17:52:56",
      "id": "514310148",
      "parentPost": "That's disappointing. I really liked being able to prioritize my buys based on the size of their piece of pie.\n\nRegarding your own slice of pie... could you at least cache it or set a cookie or something?  Kind of a pain to have to keep resetting it.\n\nThank you SO much for all the work you do on this.  I've checked out all the different portfolio management tools, and yours is by far my favorite.",
      "parentPostTime": "2012-04-30T17:26:06",
      "parentPostId": "514291592"
    },
    {
      "threadId": "585383863",
      "post": "There is a further addition to the instant buy feature of my recommendation lists and rankings: http://dr-dittrich.de/eav/eav.pl offers dynamic lists that can be sorted by various criteria and take one's current portfilio into account.",
      "time": "2012-02-29T22:04:58",
      "id": "452715033"
    },
    {
      "threadId": "575740091",
      "post": "Yes, Paul.",
      "time": "2012-02-14T15:30:57",
      "id": "438928663",
      "parentPost": "Dennis, to calculate the dividend once you start diluting it beyond a certain threshold do you take the dividend x threshold / shares outstanding?  So, if the threshold were 250k shares and someone had 500k shares their diluted dividend would be half their current dividend?",
      "parentPostTime": "2012-02-14T15:13:06",
      "parentPostId": "438911171"
    },
    {
      "threadId": "572511642",
      "post": "Let me see how many and how hard they would be affected... one could easily choose different thresholds for dividend dilution. The 100k is just a first proposal. With 250k you would pay 0.79e/share and could sustain to boost up to 1.59e/share. That does not sound too bad.",
      "time": "2012-02-14T10:36:56",
      "id": "438676456",
      "parentPost": "0.32e/share... Ouch!  I think there would be a massive sell-off of veteran stocks if this were implemented and a huge uproar from those veterans, to the point where it could totally sink EAv.  I love your outside-the-box thinking, Dennis, but I don't think this is a viable option.",
      "parentPostTime": "2012-02-13T22:32:42",
      "parentPostId": "438115205"
    },
    {
      "threadId": "545425265",
      "post": "You are referring to the introduction of a real two sided market instead of the strange market maker construct?  Without dividend dilution this would not affect inflation at all. And, such a market mechanism would attract a different crowd to the game. EAv moved away from the pure stock market model and will, I guess, continue to do so. See also me other reply to your comments to the more recent article.",
      "time": "2012-01-21T17:14:54",
      "id": "417499141",
      "parentPost": "I think you need to comment on my own points, which I think are more germaine to the inflation issue.",
      "parentPostTime": "2012-01-21T03:31:33",
      "parentPostId": "417218564"
    },
    {
      "threadId": "546618784",
      "post": "a) I agree with respect to the limit on the portfolio size, i.e. the number of different stocks you can buy. I do not agree with respect to the number of shares you can buy in one stock as long as we have the current general setup. In a two sided market I would agree.\nb) No. They should delete 0-dividend accounts. But as long as someone does not delete his dividend generating account it should not matter whether (s)he logs on EAv or not. Otherwise this would slash the number of investment opportunities to less than 1/3.\nc) I do not like the price setting mechanism (much). There we can agree. We can also agree that a two sided market along with dividend dilution would solve many problems. However, it would create new ones.  Basically, people are commoditized  on EAv. As long as your stats (whatever they may be, wealth, price, etc) improve things are fun. Already being sold is evoking negative emotions in some. And negative emotions are bad for such a platform. In a real two-sided market many people would become rather unhappy. If they are unhappy they leave the game. EAV moved away and is still moving further away from a (social media) stock market for that very reason. They want to have as many happy people on their platform as possible otherwise it could not serve as an engagement enabler, their current business model.",
      "time": "2012-01-21T17:05:53",
      "id": "417494417",
      "parentPost": "Here are my thoughts: \na) the hefty fees on upgrades to be able to buy more shares and invest in more stocks are counter productive, they disincentivize people from doing either. If the fees were lower, more people would buy them and EAv would cumulatively remove more Eaves from the marketplace, so inflation would go down more, \nalso b) Dead accounts (say, no EAv activity for 30 or 60 days straight) should be declared bankrupt or deceased, and half their assets removed from the game. If you own shares in someone who dies, the other half of their assets get divided among you, the share holders.\nand c) As I detailed in a comment on your previous article, EAv should let people buy and sell shares to each other, eliminate this ghost \"market\" that you can sell your shares to. This would force down prices of unpopular shares based on true market price signals and not the fictitious crap that EAv's computers generate. It's called free market economics, people!",
      "parentPostTime": "2012-01-20T20:01:13",
      "parentPostId": "416939679"
    },
    {
      "threadId": "535655554",
      "post": "You are quite right, Mike. I do not think, however, that EAv is willing to move to a true double-sided market. This would imply further changes as well. Their current design is a result of wishing to please the new player, keep things simple. The current set of rules almost guarantees a rising share price for the active player for a rather long time once he manages to get pass the first two weeks. And a rising share price feels fine; very few people get upset about it.\n\nAlso the ever increasing number of shares without any effect on the dividends (per share) is by design (this is the true cause of inflation). It allows for early and fast achievements without an implied slow-down of success.\n\nIn my opinion they should have kept diluting dividends (they did have those just until I joined, I think; at least there was some talk about it). If you started with, say, 250.000 shares increasing the number of shares with a full effect on the dividends/share it would not hurt at all. Especially, if they allowed everyone to boost his/her dividends by distributing his/her own dividend earnings to his/her shareholders. Indeed, this was an idea for an article I have.... wait for it.",
      "time": "2012-01-17T17:54:32",
      "id": "413532356",
      "parentPost": "Hi Dennis, great blog, and thanks for ranking (e)BNT so highly, I work hard at it. As to the article in question, I agree that inflation is a problem, it was a problem on Blogshares as well when I was active there. The inherent problem is that some things are overvalued and others are undervalued. Sources of user revenue are overvalued in what they pay out (i.e. your weekly earnings for activity, for instance, plus IMHO the effects of buys shouldnt bump prices up like that. I used to run an actual virtual stock exchange in which the players were responsible for buying and selling shares to each other post-IPO, unlike EAv and Blogshares, we didnt have this cloudy mystery buyer that would buy your shares at market whenever you wanted, it had to be other players, and a stock couldn't just issue more shares on a constant basis, doing a secondary issue required the same review process as an IPO application, and once those shares were sold, if someone wants more, they have to buy them from another actual trader, which tends to make trading volatility more exciting, and resulted in a good number of day traders profiting off the spread. If EAv implemented this and got rid of the mystery market buyer, it would help things out a lot.",
      "parentPostTime": "2012-01-16T01:37:25",
      "parentPostId": "412315488"
    },
    {
      "threadId": "527737750",
      "post": "Anne, you may be happy to hear that both your \"reciprocity\" factor and your \"activity\" factor are above 1 and therefore improve your ranking according to the adjusted dividend yield. So your earlier comment about a player's limited ability to reciprocate due to wealth constrains was well received and taken into account.",
      "time": "2012-01-05T16:54:11",
      "id": "401309236",
      "parentPost": "Thanks Dennis !",
      "parentPostTime": "2012-01-05T16:45:18",
      "parentPostId": "401291180"
    },
    {
      "threadId": "522271335",
      "post": "Hi Paul: For your request please see today's article. The issue you are raising is interesting in itself. I cannot answer it. Though, I could try to collect the data for the future. Not quite sure yet whether I am going to do that.",
      "time": "2012-01-01T17:34:39",
      "id": "398322254",
      "parentPost": "Dennis, very interesting post. I agree with the conclusion that EAv has a problem keeping people active.  One graph I'd like to see is the % of people active by number of weeks on EAv. And by \"active\" I would use 10 actions/week as the minimum.\n\nOne other thing I thought of which I'm not sure your data takes into account are people who have cancelled their accounts. The total number of accounts may be ~78,000, but how many other people have cancelled their accounts completely?  I don't think there's any way to find that out but it would definitely change the % of people who stick with EAv.",
      "parentPostTime": "2012-01-01T02:02:07",
      "parentPostId": "398135323"
    },
    {
      "threadId": "520097420",
      "post": "Little addendum: The weight for the two measures in the total score should, of course, not (only) depend on the time someone is already on EAv but rather on his or her wealth or the total number of shares that the person owns. Thus, instead of 'young' and 'old' I should have written poor and rich.",
      "time": "2011-12-30T21:52:28",
      "id": "397564098",
      "parentPost": "I agree with you, Paul. The above measure is just a crude approximation. \n\nI was thinking about one change that may at least address the issue of 'young' vs 'old' players, i.e. the ability to match investments. Right now, I have two scores: one for matching up with the numbers of investors even when you just buy one share while the other bought plenty, and one measure for matching the numbers of shares. A young player would only be able to score high on the first measure while an older player will be able score high on both measures but in particular also on the second. Above, both measures have the same weight in the total score. I could easily shift the weight to one or the other measure depending on the time a player is on EAv. A recent Newbie would be measured almost exclusively by the matching up the numbers of investors while an oldtimer like me would rather be measured by the number of shares.\n\nFinally, the score needs to be complemented by a measure of (recent) activity on EAv. Only those who are (still) active can be expected to match a future investment. Since I now have access to network scores and activities I can easily use the weekly EAv activities for that.\n\nThe second issue you mention, buying someone else instead of reciprocating cannot be dealt with using the above measure. You would really need to look into the portfolio and shareholder lists. This could be done. It is just too expensive and, I would argue, not worth the effort. If you got the modified score, you at least considerably reduced the number of portfolios you need to look at to find the true reciprocators. Anyway, I never base my buying decision on a score alone. If I would do that I could just implement an automated trader program and never log on EAv again.\n\nI can (and will) do a more in-depth analysis when my data base is complete and I have the necessary numbers for all players. Then, I can calibrate the scoring procedure and we can check how the score captures what our trained eye is able to see when we look at the profile ourselves.\n\n",
      "parentPostTime": "2011-12-30T21:21:17",
      "parentPostId": "397547844"
    },
    {
      "threadId": "405618707",
      "post": "Seeing the tweet accompanying this post Jonathan Smiles (@JonnySmiles:twitter ) made me aware of a recent Pratchett documentary: Choosing to Die ( http://youtu.be/slZnfC-V1SY ). Quite moving.",
      "time": "2011-09-05T21:14:18",
      "id": "303133047"
    },
    {
      "threadId": "323110508",
      "post": "Oh look. The tag cloud is working again. ",
      "time": "2011-06-09T18:01:44",
      "id": "222498422"
    }
  ],
  "profileInfo": {
    "username": "davdittrich",
    "about": "Prof of Economic Theory & Behavioral Economics @jacobs_bremen, pragmatic libertarian, member of @fdp_de, Linux user since the mid-90s, bibliophilic.\r\nhttp://gplus.to/davdittrich",
    "name": "Dennis A. V. Dittrich",
    "disable3rdPartyTrackers": false,
    "isPowerContributor": false,
    "isAnonymous": false,
    "rep": 1.329534,
    "profileUrl": "https://disqus.com/by/davdittrich/",
    "url": "http://pro-libertate.net/",
    "reputation": 1.329534,
    "location": "Germany",
    "isPrivate": false,
    "signedUrl": "http://disq.us/?url=http%3A%2F%2Fpro-libertate.net%2F&key=7PUmI_TY83brhZcFii10jA",
    "isPrimary": true,
    "joinedAt": "2009-01-14T11:36:25",
    "id": "188642",
    "avatar": {
      "small": {
        "permalink": "https://disqus.com/api/users/avatars/davdittrich.jpg",
        "cache": "//a.disquscdn.com/uploads/users/18/8642/avatar32.jpg?1281549414"
      },
      "isCustom": true,
      "permalink": "https://disqus.com/api/users/avatars/davdittrich.jpg",
      "cache": "//a.disquscdn.com/uploads/users/18/8642/avatar92.jpg?1281549414",
      "large": {
        "permalink": "https://disqus.com/api/users/avatars/davdittrich.jpg",
        "cache": "//a.disquscdn.com/uploads/users/18/8642/avatar92.jpg?1281549414"
      }
    }
  }
}