{
  "comments": [
    {
      "threadId": "4964960190",
      "post": "All three are confirmed for physical and digital releases.",
      "time": "2016-07-06T15:41:22",
      "id": "2768317892",
      "parentPost": "please be physical, please be physical.. and possibly a collector for persona 5...",
      "parentPostTime": "2016-07-06T14:39:02",
      "parentPostId": "2768212378"
    },
    {
      "threadId": "4819421086",
      "post": "Yes, there was a choice of English or Japanese voice options.",
      "time": "2016-05-12T14:13:05",
      "id": "2671906776",
      "parentPost": "It's Dual Audio confirmed right?",
      "parentPostTime": "2016-05-12T03:43:14",
      "parentPostId": "2671315170"
    },
    {
      "threadId": "4767942312",
      "post": "Yes, PS4 and Steam only.",
      "time": "2016-04-22T14:36:56",
      "id": "2637199055",
      "parentPost": "is it confirmed that the ps3 version won't come in the west?",
      "parentPostTime": "2016-04-22T14:34:43",
      "parentPostId": "2637195509"
    },
    {
      "threadId": "4758157191",
      "post": "I would have gone for Clorica had Dolce not been in the game! I have to say this is the first HM/RF game I've played where the whole cast is so likable!\n\nRF4 has very quickly jumped into my list of favourite games, I don't think I've put 70 or so hours into a game so quickly before.",
      "time": "2016-04-20T22:10:23",
      "id": "2634372717",
      "parentPost": "> I’m playing Rune Factory 4 at the moment and figured why not just stick Dolce in there.\n\nGood taste there, Douglas, but Clorica is still the best bae.\nAlso, IMHO, you're playing the current best 3DS game. I didn't enjoyed a handheld game so much since Ghost Trick.",
      "parentPostTime": "2016-04-19T01:21:30",
      "parentPostId": "2630830385"
    },
    {
      "threadId": "4712984687",
      "post": "This is what I meant : )",
      "time": "2016-04-03T21:42:20",
      "id": "2604319533",
      "parentPost": "That's talking about the Surge Concerto and Ar tonelico games, as they're both sci-fi in nature.",
      "parentPostTime": "2016-04-02T20:46:44",
      "parentPostId": "2602794423"
    },
    {
      "threadId": "4575046575",
      "post": "Yes! It assumes you're new to the series and everything is explained.",
      "time": "2016-02-16T09:59:33",
      "id": "2516165264",
      "parentPost": "So I take it this means that people totally new to the anime could play this game and understand the story??? If so I'm kinda tempted to get it when it goes on sale... That art style just looks so pretty. KT is really nailing the cell-shaded anime aesthetic with their recent games.",
      "parentPostTime": "2016-02-13T17:28:24",
      "parentPostId": "2511770674"
    },
    {
      "threadId": "4566294216",
      "post": "It only covers the first series. We'll have a follow up post soon specifically on how it adapts the anime series.",
      "time": "2016-02-10T14:00:58",
      "id": "2506058090",
      "parentPost": "Does this game ends where the first season of the anime ends or goes beyond in the part of the story that will be covered in this year' second season?",
      "parentPostTime": "2016-02-10T08:57:36",
      "parentPostId": "2505770945"
    },
    {
      "threadId": "4356711493",
      "post": "This was based on playing a demo version at a event a short while ago.",
      "time": "2015-11-28T13:33:50",
      "id": "2382504084",
      "parentPost": "wait there's a demo??",
      "parentPostTime": "2015-11-28T04:55:43",
      "parentPostId": "2382165506"
    },
    {
      "threadId": "4347984982",
      "post": "I tried that but when I click on the price to buy it - nothing happens. I assume it's because I don't have any compatible devices currently.",
      "time": "2015-11-25T21:21:02",
      "id": "2378825427",
      "parentPost": "You can always buy them on the web. ",
      "parentPostTime": "2015-11-25T19:25:15",
      "parentPostId": "2378625699"
    },
    {
      "threadId": "4348444901",
      "post": "The Kirito harem is unstoppable!",
      "time": "2015-11-25T12:53:20",
      "id": "2377990444",
      "parentPost": "I'm a huge fan of Seven and Rain. Sumeragi too. Hopefully they all show up in the next one. Which they probably will (at least the girls), since ya gotta have some continuity.",
      "parentPostTime": "2015-11-25T03:37:55",
      "parentPostId": "2377514255"
    },
    {
      "threadId": "4305042319",
      "post": "Just to clear this up, I did mean there are 3D cutscenes in the game. The majority of dialogue is through the talking portraits but from what I saw in the opening, there's some 3D cutscenes for some key story scenes. This is only a preview based on the opening moments of the game.",
      "time": "2015-11-10T17:46:05",
      "id": "2352101882",
      "parentPost": "yeah they should fix that up to avoid confusion. I played the game so i know what its like but people will get confused if they call it 3D model.",
      "parentPostTime": "2015-11-10T04:27:02",
      "parentPostId": "2351275152"
    },
    {
      "threadId": "4143326818",
      "post": "I believe the PS3 version is also missing the lyrics in the opening unless you mean importing the Japanese version.",
      "time": "2015-09-19T12:20:38",
      "id": "2262172103",
      "parentPost": "So, do I want to buy the PS3 version with the fully-voiced opening song but lower graphice, or the PS4 version with improved graphics but an instrumental-only opening?\nI'm gonna have to think hard on this one.",
      "parentPostTime": "2015-09-19T06:31:50",
      "parentPostId": "2261925549"
    },
    {
      "threadId": "3774881668",
      "post": "And platinum'd it. Re;Birth 1 too : P",
      "time": "2015-05-18T22:18:09",
      "id": "2032630600",
      "parentPost": "Douglas? reviewing games for click bait?\n\nPlease just because it's a neptunia game doesn't excuse it from being criticized. Also hes one of the few people I know who would actually give a game like neptunia a chance, heck he god damn bought that neptunia idol game for goodness sake.",
      "parentPostTime": "2015-05-18T20:29:54",
      "parentPostId": "2032469952"
    },
    {
      "threadId": "3703578703",
      "post": "There's difficulty options when you start the game of easy, medium and hard. I played on normal and while it was challenging at times, it was nothing like Contra.",
      "time": "2015-04-22T18:33:53",
      "id": "1981785068",
      "parentPost": "How difficult is this game? I'm used to a GBA-Castlevania kind of level of difficulty but I'm hearing this compared to Contra and that scares me.",
      "parentPostTime": "2015-04-22T17:31:00",
      "parentPostId": "1981648292"
    },
    {
      "threadId": "3657639972",
      "post": "Just the first five episodes.",
      "time": "2015-04-08T18:42:41",
      "id": "1953273962",
      "parentPost": "When you say first series, are you talking about the first 5 episodes? or the 1st episode?",
      "parentPostTime": "2015-04-08T18:05:44",
      "parentPostId": "1953198360"
    },
    {
      "threadId": "3578858794",
      "post": "The player character is male. You can name him whatever you want to though. You've even got to input height, weight, eye-sight and favourite class...",
      "time": "2015-03-09T16:05:07",
      "id": "1896918605",
      "parentPost": "Can't wait to pick this up tomorrow. ^_^ Also, what gender is the player character or does that not matter? 0_o *totally wants to name the character Mai Taniyama*",
      "parentPostTime": "2015-03-09T14:39:54",
      "parentPostId": "1896680586"
    },
    {
      "threadId": "3522846084",
      "post": "I really hope things work out for these guys and we see a return of Steambot Chronicles one day.",
      "time": "2015-02-17T09:30:50",
      "id": "1859548483"
    },
    {
      "threadId": "3332854460",
      "post": "Because it looks like Sony wants everyone to use PlayStation Now for backwards compatibility : /",
      "time": "2014-12-17T13:47:40",
      "id": "1746616917",
      "parentPost": "Why can't they just make PS1 classics playable on PS4? They did it with the vita...",
      "parentPostTime": "2014-12-17T11:55:18",
      "parentPostId": "1746506945"
    },
    {
      "threadId": "3329231033",
      "post": "I assume they've licensed JAST USA's script, so it'll be the same as the PC version. I can't imagine -another- company wanting to spend money on another localisation!",
      "time": "2014-12-16T11:26:45",
      "id": "1744782332",
      "parentPost": "I hope they just translate the game, not Americanize/Westernize it~",
      "parentPostTime": "2014-12-16T11:15:26",
      "parentPostId": "1744770960"
    },
    {
      "threadId": "3300988994",
      "post": "RCR DX was released first on the 3DS and other platforms only recently received the upgrade to the DX version. : )",
      "time": "2014-12-08T14:21:05",
      "id": "1731399567",
      "parentPost": "... Have I traveled to the past???? I'm pretty sure I have played RCR DX before on my Nintendo 3DS...",
      "parentPostTime": "2014-12-08T02:01:01",
      "parentPostId": "1730703943"
    },
    {
      "threadId": "3221674403",
      "post": "The body just looks... too tall...",
      "time": "2014-11-13T21:39:13",
      "id": "1692017521"
    },
    {
      "threadId": "3209001689",
      "post": "I think the F2P model in general would benefit hugely from finding a proper solution to the \"energy\" mechanic. I think it just makes the business side of the game so obvious to the player it can ruin the fun. That said, as I mentioned in the playtest, since the game gives out a lot of the in game currency, I feel the Spider Energy is the lesser of two evils...",
      "time": "2014-11-10T15:23:36",
      "id": "1685833428",
      "parentPost": "I feel like this game's energy mechanic is still too limiting for my taste.  Maybe Sonic Dash spoiled me by letting me play all I want (you know... like a video game).  Also the controls force you to swipe very quickly which, again since I was used to having the ability to just kinda drag my finger across the screen in Sonic Dash, resulted in a lot of unnecessary deaths.  The game's got a lot going for it and I really want to like it!  Remove the stupid energy mechanic and maybe I'd be able to play for long enough to get used to the controls!",
      "parentPostTime": "2014-11-10T02:05:05",
      "parentPostId": "1685128056"
    },
    {
      "threadId": "3202650333",
      "post": "The regrets of life will always weigh heavy on my shoulders... If only the game came out in September instead!",
      "time": "2014-11-09T21:02:02",
      "id": "1684754907",
      "parentPost": "<i>\"....... assigned an element of fire, water, earth and wind.\" </i>\n\n\n\nAaaahhhh man, you missed the perfect chance to make an Earth, Wind, and Fire (and also water) pun. :)",
      "parentPostTime": "2014-11-08T21:57:47",
      "parentPostId": "1683352631"
    },
    {
      "threadId": "3094828169",
      "post": "UK bundle is like Japan's one, it's just the game and an adapter - no controller.",
      "time": "2014-10-08T09:27:11",
      "id": "1624920859",
      "parentPost": "Why on earth is it 99 dollars when in the UK it's 57 pounds.",
      "parentPostTime": "2014-10-08T08:50:11",
      "parentPostId": "1624871050"
    },
    {
      "threadId": "3032897323",
      "post": "Given their work on Okami HD and saving Zone of the Enders 2 HD, I think we can all agree Type 0 HD is in very safe hands.",
      "time": "2014-09-19T12:09:06",
      "id": "1596117399"
    },
    {
      "threadId": "2884821033",
      "post": "What was the problem with Soul Hackers? And I don't remember an issue with Overlocked aside from needing the patch and that it took a while to come out here. And the whole P4A situation felt worst than SMT IV did.",
      "time": "2014-07-30T12:32:27",
      "id": "1511857063",
      "parentPost": "Did you forget about Devil Survivor Overlocked, Persona 4 Arena and Soul Hackers?\n\nIt's almost always been like this.",
      "parentPostTime": "2014-07-30T12:16:35",
      "parentPostId": "1511835773"
    },
    {
      "threadId": "2879319091",
      "post": "Not intending to be negative, just realistic! No one sells the numbers they used to from the past generations and it feels like this is something SE is only just coming to terms with. \n\nIf their games aren't sustainable selling a couple of million then clearly something has to change.",
      "time": "2014-07-28T14:04:15",
      "id": "1508155513",
      "parentPost": "I have to agree with @davidgarcaabril:disqus. Your negativity should be put aside when considering that Bravely Default is still behind FF titles. Yes, even the XIII saga.",
      "parentPostTime": "2014-07-28T13:20:38",
      "parentPostId": "1508104870"
    },
    {
      "threadId": "2765121496",
      "post": "I meant for a commercially released game rather than a community created one, you don't normally see companies be so generous with their content. Good to know Osu is still kicking around though since it looks like we'll never seen another Ouendan or EBA...",
      "time": "2014-06-15T08:53:49",
      "id": "1436202687",
      "parentPost": "someone has never played osu. online multiplayer, 50000+ songs, and a active online community, plus a great lobby system.",
      "parentPostTime": "2014-06-15T08:14:56",
      "parentPostId": "1436184079"
    },
    {
      "threadId": "2761847973",
      "post": "Glad to see it has done well, let's just hope there won't be such a long wait for more Persona RPGs with original content... ",
      "time": "2014-06-14T04:14:09",
      "id": "1434793773"
    },
    {
      "threadId": "2720416060",
      "post": "It's out for Android on the Google Play Store too if anyone is interested. \nhttps://play.google.com/store/apps/details?id=com.square_enix.android_googleplay.dq8",
      "time": "2014-05-29T08:44:57",
      "id": "1409691449"
    },
    {
      "threadId": "2508941852",
      "post": "You definitely get to know Fetch the most out of all of them and so far, you get a few more tidbits about her past and such from paper trail. I've just finished getting all of the audio files which goes into the backstory of the conduits as well which was pretty interesting. I guess I'm just a little sad to leave that cast behind as they all seem very interesting and it's all over so quickly.",
      "time": "2014-03-25T23:38:03",
      "id": "1302762456",
      "parentPost": "I felt like I got to know Fetch pretty well. But more development with Eugene would have been neat. Apparently, Paper Trail helps with that. I wouldn't know though, because the dangnabbit Paper Trail website won't accept the tracking code in Delsin's phone (even though I *know* it's the correct code).",
      "parentPostTime": "2014-03-25T22:28:55",
      "parentPostId": "1302609490"
    },
    {
      "threadId": "2509127446",
      "post": "I don't think it's a matter of access rather than having the staff to create the European version...",
      "time": "2014-03-25T22:00:06",
      "id": "1302557135",
      "parentPost": "Quite honestly, it all sounds like excuses to me. I feel like Marvelous MUST have the code they supposedly need, or at least access to it, as the game's publisher. But yeah, region locking is awful too.",
      "parentPostTime": "2014-03-25T21:50:04",
      "parentPostId": "1302531108"
    },
    {
      "threadId": "2299307857",
      "post": "It is, no doubt about that. The items I wanted most are still there, just the US one looks more... premium.",
      "time": "2014-02-21T19:26:48",
      "id": "1255218004",
      "parentPost": "its still a pretty good CE both of them are",
      "parentPostTime": "2014-02-21T19:04:37",
      "parentPostId": "1255189259"
    },
    {
      "threadId": "2056305909",
      "post": "I really hope SMT IV is mentioned, it's been a while since we've heard anything...",
      "time": "2013-12-17T15:07:27",
      "id": "1167483027",
      "parentPost": "i hope Nintendo shows more WiiU games but there are also some 3DS games i want here in Europe SMT IV and DQVII",
      "parentPostTime": "2013-12-17T14:37:26",
      "parentPostId": "1167446121"
    },
    {
      "threadId": "2019448326",
      "post": "Yu really doesn't want to get rid of that Yasogami High uniform...",
      "time": "2013-12-03T11:58:28",
      "id": "1148558860"
    },
    {
      "threadId": "1975640196",
      "post": "I love the little detail with streaming the PS4 audio to the controller for use with headphones, such a handy feature.",
      "time": "2013-11-18T11:39:45",
      "id": "1127931395"
    },
    {
      "threadId": "1368239885",
      "post": "Excellent! Can't wait for this to make it to the EU eShop. I really hope they start adding in the larger puzzles soon!",
      "time": "2013-06-06T07:29:15",
      "id": "920733403"
    },
    {
      "threadId": "1285772312",
      "post": "I think that's a safe bet for a cheaper release... Either that or an episodic release... : O",
      "time": "2013-05-13T18:42:21",
      "id": "896154647"
    },
    {
      "threadId": "1277479077",
      "post": "It doesn't look like Rising Star have Rune Factory 4 either...\n\nhttps://twitter.com/RisingStarGames/status/316151663645827072",
      "time": "2013-05-10T12:39:42",
      "id": "892186374"
    },
    {
      "threadId": "1228714531",
      "post": "Free Animal Crossing, here I come! >D",
      "time": "2013-04-22T16:10:23",
      "id": "872333466"
    },
    {
      "threadId": "1218019284",
      "post": "Anyone correct me if I'm wrong but I think this is the first time we've had a EU confirmation for an Atlus-produced game before the US launch... ;_; How times are changing~",
      "time": "2013-04-17T15:20:49",
      "id": "866072059"
    },
    {
      "threadId": "1182948483",
      "post": "This ; )",
      "time": "2013-04-03T08:28:01",
      "id": "850508207",
      "parentPost": "I think they meant that, between playing AC:NL and Fantasy Life, they wouldn't have the time to do anything else.",
      "parentPostTime": "2013-04-03T02:25:19",
      "parentPostId": "850182804"
    },
    {
      "threadId": "1160081256",
      "post": "The heads-up is very much appreciated! Next week is going to be killer on the wallet though... Luigi's Mansion 2, Devil Survivor: Overclocked and now Code of Princess...",
      "time": "2013-03-24T01:59:01",
      "id": "840151422"
    },
    {
      "threadId": "1110766591",
      "post": "You shouldn't have a problem with the forums, have you checked your spam folder?",
      "time": "2013-02-28T20:55:40",
      "id": "815769877",
      "parentPost": "That, or remove region locking completely of their game (which to my knowledge isn't possible on 3DS).\n\nRegion locking + massive delay = ultimate trolling for fans of concerned region(s) (usualy europeans).\n\nAnd the sad thing in all of this is that the game will most probably make ridiculous sales, comforting atlus in  not opening an european branch...\n\n(A bit unrelated, but are the AtlusUSA forums also region locked ? I tried several times to create an account, I never received the email confirmation to validate my profile...)",
      "parentPostTime": "2013-02-28T20:47:28",
      "parentPostId": "815763649"
    },
    {
      "threadId": "1106744009",
      "post": "Guess Nintendo want to get the last they can out of the Wii and get in the 50 remaining Wii-less homes left in the UK ; )",
      "time": "2013-02-26T20:14:16",
      "id": "813248728",
      "parentPost": "This is truly terrifying. I don't think this revision has any redeeming features at all (it's not even much smaller than the Wii, and the power supply is still external). Also I bet it won't cost much less either.\n\nWhat's the point? This is worse than the GBMicro... at least that one, for all its problems, was very portable.",
      "parentPostTime": "2013-02-26T19:52:54",
      "parentPostId": "813227104"
    },
    {
      "threadId": "1106494993",
      "post": "I doubt this is anything for anyone to RAGE over, I don't know to what extent the Japanese version was dubbed but I would imagine what was scrapped were some scenes not vital to the story or characters that only make brief appearances...",
      "time": "2013-02-26T17:31:57",
      "id": "813100695"
    },
    {
      "threadId": "1077591786",
      "post": "Is there any word on multiplayer for this?",
      "time": "2013-02-12T00:13:08",
      "id": "795962456"
    },
    {
      "threadId": "731323754",
      "post": "Somehow I think \"Eastasiasoft\" isn't in the west... ; )",
      "time": "2012-06-18T19:22:34",
      "id": "561233669",
      "parentPost": "a srpg made by the west\n\nwho would of guessed",
      "parentPostTime": "2012-06-18T17:10:37",
      "parentPostId": "561142561"
    },
    {
      "threadId": "499127255",
      "post": "Well I clearly haven't followed it as closely as you have, and I agree that shipping less than retailers was expecting counts as a \"poor performance\" but I guess that's just the reality of the JRPG market : (",
      "time": "2011-12-10T16:24:25",
      "id": "383508237",
      "parentPost": "Apparently you haven't followed all of Abyss 3DS' European ordeals :P \n\nIt wasn't an online exclusive (Game sold it only online, but in the UK and in other European states you could find it at other retailers, albeit in extremely small numbers), and it was undershipped since many retailers had to cancel preorders since Namco wasn't able to ship the agreed number of copies. \n\nIt went to the point that some stores pretended that the game has been delayed till the first week of december, while others said to their customers that its release will be in January (probably confusing its second shipment with its release date, or trying to justificate their inability to provide pre-ordered copies). \n\nOne retailer said that Abyss 3DS is probably the least shipped game in 3DS's history, as short as it is, even counting \"shovelware\" games. It's no wonder that people consider this game \"rare\" after less than three weeks, and that 5 days after its release people were selling copies for astounding prices simply because the game wasn't available anywhere and many preorders went unanswered (I saw a copy sold at some 75 EU...).\n\nOf course no one expected Namco to flood the market with copies of a rather niche jrpg on a young platform, but what actually happened is a poor performance even in the context of niche jrpgs.",
      "parentPostTime": "2011-12-10T15:03:32",
      "parentPostId": "383462264"
    },
    {
      "threadId": "490662092",
      "post": "It was probably delayed because it would get lost in the sea of November releases (though February is looking pretty crowded now too!).",
      "time": "2011-12-02T11:36:31",
      "id": "377434482",
      "parentPost": "what took them so long? are they re dubbing it to british english or maybe adding another voice? original JP voice, or maybe germany/italy/france/spain?",
      "parentPostTime": "2011-12-02T08:27:48",
      "parentPostId": "377380190"
    },
    {
      "threadId": "440480887",
      "post": "I'm glad that EU is getting it first but this November is -ridiculous- when it comes to new releases. I wish that Abyss was coming out here next year too because it's going to get slaughtered with the dozens of other high profile releases out the same month!",
      "time": "2011-10-11T21:08:05",
      "id": "331998628",
      "parentPost": "But but America had the PS2 version and PAL territories never got it at all.... so hahahaha Sorry...heh. Yay November is going to be busy..and I'll be poor.",
      "parentPostTime": "2011-10-11T20:23:07",
      "parentPostId": "331964765"
    },
    {
      "threadId": "434343001",
      "post": "I think it's been mentioned that it -could- play PSN games but it would be on a game-by-game basis rather than supporting everything.",
      "time": "2011-10-05T09:54:19",
      "id": "327034659",
      "parentPost": "Hasn't the Vita already been confirmed to be able to play PSN games?",
      "parentPostTime": "2011-10-05T01:16:43",
      "parentPostId": "326788880"
    },
    {
      "threadId": "431637235",
      "post": "Isn't this just like Spectrobes?",
      "time": "2011-10-02T08:12:22",
      "id": "324913792"
    },
    {
      "threadId": "355509971",
      "post": "Ah~ Thanks~ Let's just hope that August is right!",
      "time": "2011-07-11T20:13:48",
      "id": "247925147",
      "parentPost": "According to their schedule on Udon's website the Ar Tonelico book is due for an August release. (This is a recent update as when it was first put back to Jan, there was no mention of the AT book anywhere on the site)\nNone conflicting info really would be nice",
      "parentPostTime": "2011-07-11T19:27:16",
      "parentPostId": "247858483"
    },
    {
      "threadId": "347366297",
      "post": "Here in the UK, it is a Game Group exclusive so only Game, Gamestation and Gameplay.co.uk are carrying it. ",
      "time": "2011-07-02T08:46:46",
      "id": "240492898",
      "parentPost": "This game is hard to find. \nlocal retails (Austria) > sold out or not even listed in their databases\nAmazon.de > has it, obligatory ugly USK rating on the box\nAmazon.co.uk > 3 of the 4 listed retailers ship from Germany\n\nWhat kind of publishing is that !?",
      "parentPostTime": "2011-07-02T06:42:26",
      "parentPostId": "240458380"
    },
    {
      "threadId": "347588539",
      "post": "After reading this, I hope Vita turns out to be a successful platform as it seems like it would answer a lot of these problems, acting as a bridge between the huge portable market in Japan and the larger console market in the west.",
      "time": "2011-07-02T08:39:37",
      "id": "240489590"
    },
    {
      "threadId": "346746677",
      "post": "Wow, great interview! I had no idea Gust was that small - it's impressive that such a small team is able to deliver the quality of games that they do compared to other bigger developers! As for Meruru, as much as I'd love to get Meruru sooner, it seems like it'd be a lot easier for NISA to just doing it yearly.",
      "time": "2011-07-01T08:36:30",
      "id": "239550723"
    },
    {
      "threadId": "344070155",
      "post": "I know, I'm a fellow Brit too ; ) Personally, I'm so used to hearing American VO that it's weird to hear actual local accents in a game!",
      "time": "2011-06-28T11:23:25",
      "id": "236785576",
      "parentPost": "Not all us Brits are evil bastards or quirky doctors, you know? LOL",
      "parentPostTime": "2011-06-28T11:12:06",
      "parentPostId": "236777685"
    },
    {
      "threadId": "341648975",
      "post": "Disgaea HD for Vita and Disgaea 3D for 3DS confirmed? : P",
      "time": "2011-06-25T01:32:23",
      "id": "234468555"
    },
    {
      "threadId": "328553144",
      "post": "Nintendo has said that Ghirahim isn't Vaati, right? They have pretty similar designs... The hair, the belt...\nCan't wait to play this with that gold controller though!",
      "time": "2011-06-11T09:09:01",
      "id": "223724974"
    },
    {
      "threadId": "308321185",
      "post": " Man, I had no idea that newsletter would lead to awesome news like this! It reminded me of the days when I had no idea of all the games Europe missed out on~ ",
      "time": "2011-05-19T21:23:49",
      "id": "207339123"
    },
    {
      "threadId": "293530794",
      "post": "The actual story doesn't change too much (aside from the endings), it's more that you're given a different perspective on the same events. It's definitely something worth experiencing.",
      "time": "2011-05-02T21:59:18",
      "id": "195966064",
      "parentPost": "Really? The story changes that much each playthrough? ",
      "parentPostTime": "2011-05-02T21:47:54",
      "parentPostId": "195961063"
    },
    {
      "threadId": "266603931",
      "post": "Wow, didn't expect this to happen. Will definitely pick these up!",
      "time": "2011-03-30T19:48:59",
      "id": "175109204"
    },
    {
      "threadId": "255691663",
      "post": "Shops here are charging about £19.99 online so it'll probably be £25 in-store which is just over $40.",
      "time": "2011-03-16T21:32:03",
      "id": "166840665",
      "parentPost": "any idea what Zen United's price will be?  I've got some family heading to the UK in the summer and I'm kinda curious if it'll be in my price range.",
      "parentPostTime": "2011-03-16T20:13:19",
      "parentPostId": "166793853"
    },
    {
      "threadId": "252021454",
      "post": "Ah~ I know that feeling too well... All those nice prices quickly add up... ;_;",
      "time": "2011-03-14T22:38:17",
      "id": "165791894",
      "parentPost": "That's what I've been doing for a loooong time, haha! Problem is I keep spending the money on the wrong games. For instance, I picked up the Legend of Zelda Collector's Edition the other day. I'm like a stupid shark - I've just got to keep wasting money. ;P",
      "parentPostTime": "2011-03-14T08:49:20",
      "parentPostId": "165467500"
    },
    {
      "threadId": "248755040",
      "post": "Do I hear Laura Bailey voicing two characters? : D",
      "time": "2011-03-08T21:31:48",
      "id": "162587049"
    },
    {
      "threadId": "242577174",
      "post": "Well the ratings just mean the content is suitable for that age and the parents won't complain about it : P",
      "time": "2011-03-01T09:53:58",
      "id": "158193154",
      "parentPost": "Europe's ratings can be wierd, unless Pegi means something other than age range. Sonic Colors gets Pegi 3. LOL They think 3-year olds can play that game. ",
      "parentPostTime": "2011-03-01T08:56:28",
      "parentPostId": "158178645"
    },
    {
      "threadId": "217976607",
      "post": "\"The Home menu will also notify you when there’s a downloadable update available for a game you own.\" Does this mean retail and downloadable games?",
      "time": "2011-01-28T22:40:19",
      "id": "136242999"
    },
    {
      "threadId": "212254355",
      "post": "I think I'd rather get Pokemon later and skip the Square Enix LEs which have only really been a six-track soundtrack and minimalist artbooks than pay a $120 markup. We're even paying more than Japan!",
      "time": "2011-01-19T15:42:25",
      "id": "131345135",
      "parentPost": "Still complaining since we are also getting PKMN Black and White later as well, and let me not forget to mention the limited editions of games that we are not getting...",
      "parentPostTime": "2011-01-19T15:35:33",
      "parentPostId": "131342559"
    },
    {
      "threadId": "191738138",
      "post": "Maybe if they delay it for 10 years : P",
      "time": "2010-12-16T00:13:24",
      "id": "112485161",
      "parentPost": "Messed up. Is this their revenge for Chrono Trigger?",
      "parentPostTime": "2010-12-16T00:10:41",
      "parentPostId": "112482662"
    },
    {
      "threadId": "186846698",
      "post": "A lot of PSP games that Siliconera reports on don't even come here at all!",
      "time": "2010-12-08T19:27:29",
      "id": "108766604",
      "parentPost": "But this the PSP we're talking about.",
      "parentPostTime": "2010-12-08T18:02:40",
      "parentPostId": "108736738"
    },
    {
      "threadId": "185961357",
      "post": "Man, March is looking to be a really busy month for games...",
      "time": "2010-12-06T21:37:19",
      "id": "108014315"
    },
    {
      "threadId": "178482083",
      "post": "Wow, this looks a lot better than I thought it was going to be.",
      "time": "2010-11-24T11:18:19",
      "id": "101748100"
    },
    {
      "threadId": "159346982",
      "post": "http://www.youtube.com/watch?v=3MTQXpj72S4 We've subbed the video here.",
      "time": "2010-10-20T22:19:32",
      "id": "88637060",
      "parentPost": "That was... interesting. Seems like it might be kind of neat.\n\nAnd does anyone know what she says after she says, \"Why/How?\"",
      "parentPostTime": "2010-10-20T22:10:55",
      "parentPostId": "88633851"
    },
    {
      "threadId": "155162361",
      "post": "Surely Celebi would have made more sense for the anniversary of Gold and Silver? ",
      "time": "2010-10-12T16:39:24",
      "id": "86307979"
    },
    {
      "threadId": "153481352",
      "post": "Can we get a Prinny stress-reliever or padded PSP case as a pre-order bonus? : P",
      "time": "2010-10-08T23:31:27",
      "id": "85353034"
    },
    {
      "threadId": "117910687",
      "post": "Enjoy our huge chunky DS cases : P",
      "time": "2010-07-14T19:33:45",
      "id": "62260984",
      "parentPost": "Welll... this may be the first game I've ever imported from Europe...",
      "parentPostTime": "2010-07-14T17:16:20",
      "parentPostId": "62236729"
    },
    {
      "threadId": "112620226",
      "post": "Nooooooo Sakura Wars... ;_;",
      "time": "2010-06-29T23:25:05",
      "id": "59915978"
    },
    {
      "threadId": "112395668",
      "post": "As long as the downloadable games are cheaper than importing, I would probably go for the download.",
      "time": "2010-06-29T09:26:21",
      "id": "59497526"
    },
    {
      "threadId": "109837742",
      "post": "A Prinny game would be interesting in 3D~",
      "time": "2010-06-21T16:07:33",
      "id": "57903494"
    },
    {
      "threadId": "109399991",
      "post": "\"We’re thinking that the timing should be once the 3D television adoption rates crosses the 30% mark.\" How long do you think that's going to be? : P",
      "time": "2010-06-19T23:20:53",
      "id": "57693249",
      "parentPost": "Don't do it Iwata! Don't jump on the 3DTV bandwagon!",
      "parentPostTime": "2010-06-19T21:56:14",
      "parentPostId": "57681817"
    },
    {
      "threadId": "105181480",
      "post": "Great interview, NISA always comes across as really passionate about their titles. It's been a while since I imported a US game, but a Disgaea visual novel is too good to pass up! ",
      "time": "2010-06-07T20:24:51",
      "id": "55171347"
    },
    {
      "threadId": "103670287",
      "post": "This is looking interesting. I wonder what the track list will be like, I hope the tracks from Azusa and Ritsu's character CDs make it onto it.",
      "time": "2010-06-02T20:16:50",
      "id": "53578415"
    },
    {
      "threadId": "96840322",
      "post": "It'll probably come out here eventually, we're about 4? Harvest Moon games behind now I think. Just got to wait it out~ At least we can import the DS/PSP ones like these.",
      "time": "2010-05-19T15:25:30",
      "id": "51059309",
      "parentPost": "I cannot, for the life of me find Animal Parade here in the EU!!  Did that not get ported over?  *sadness*",
      "parentPostTime": "2010-05-19T14:42:08",
      "parentPostId": "51051241"
    },
    {
      "threadId": "93481365",
      "post": "I know where we're going!",
      "time": "2010-05-08T18:28:43",
      "id": "49103941"
    },
    {
      "threadId": "78519487",
      "post": "Ah yep, you're right. I had a quick look before I posted my comment but I guess I didn't look hard enough!",
      "time": "2010-03-23T12:16:10",
      "id": "41189812",
      "parentPost": "I am pretty sure they put out a press release that Rorona was coming during the summer.",
      "parentPostTime": "2010-03-23T12:05:21",
      "parentPostId": "41188576"
    },
    {
      "threadId": "71975938",
      "post": "And so close to the US release as well! Times sure have changed~~",
      "time": "2010-03-03T11:14:43",
      "id": "37787206",
      "parentPost": "At least Europe is getting the game.  ATLUS still doesn't have a European branch to release their titles over there.\n\nHonestly, you should be a bit more appreciative, I think.",
      "parentPostTime": "2010-03-03T10:49:14",
      "parentPostId": "37786008"
    },
    {
      "threadId": "69053505",
      "post": "I can't wait to play this on Friday! A Heavy Rain Facebook Files would certainly be interesting reading.",
      "time": "2010-02-22T11:59:01",
      "id": "35841603"
    },
    {
      "threadId": "67899223",
      "post": "I wonder if it'll have the voice overs this time...",
      "time": "2010-02-18T10:09:11",
      "id": "35001757"
    },
    {
      "threadId": "66694709",
      "post": "That Zelda-Phantom was included in the \"limited edition\" sets of Spirit Tracks in the UK and I'd assume the rest of Europe as well. She and Link proudly sit on my desk~~",
      "time": "2010-02-13T22:29:10",
      "id": "34135428"
    },
    {
      "threadId": "63010547",
      "post": "Amazon UK is doing pre-orders for this for £12.99.",
      "time": "2010-01-31T18:28:44",
      "id": "32221703"
    },
    {
      "threadId": "60759024",
      "post": "Will this effect Marvelous games they are currently publishing?",
      "time": "2010-01-23T10:23:55",
      "id": "30957653"
    },
    {
      "threadId": "60663570",
      "post": "Where did you see the price?",
      "time": "2010-01-22T22:39:30",
      "id": "30922016",
      "parentPost": "All that for £59.99? honestly I don't think thats worth it for all that. All you get is probably stuff you guys wont even look at like the artbook or even the art card (star ocean 4 collectors edition anyone?). As for the \"hand picked soundtrack\" I would probably want to get my hands on the full ost but still good to know what Masashi Hamauzu likes. ",
      "parentPostTime": "2010-01-22T22:10:48",
      "parentPostId": "30919011"
    },
    {
      "threadId": "58572139",
      "post": "Just get it online, you won't have to worry about missing it then.",
      "time": "2010-01-14T21:25:45",
      "id": "29872225",
      "parentPost": "ahhhhh! why atlus?! why did atlus have to pick up this game?! i wish another publisher/developer was releasing this game in the united states and europe instead, at least the game would last a little longer when it comes to being printed. \n\nwatch how fast this game goes out of print. i'll give it two months. ",
      "parentPostTime": "2010-01-14T18:02:05",
      "parentPostId": "29852695"
    },
    {
      "threadId": "58438687",
      "post": "http://www.playtvps3.com/ Pretty much the same thing.",
      "time": "2010-01-14T15:35:06",
      "id": "29836304",
      "parentPost": "Need a PS3 first. If this Torne-device ever comes to the EU, I might consider it.",
      "parentPostTime": "2010-01-14T09:33:55",
      "parentPostId": "29800463"
    },
    {
      "threadId": "57765882",
      "post": "Disc swapping won't work? Augh~ Now I'm in your boat : P",
      "time": "2010-01-12T14:20:46",
      "id": "29491497",
      "parentPost": "Slimline one. Can't solder but I've been looking at the solderless chips (gonna cost about £40-£50). The Japanese version of this is dual layer so disc swapping is a no-go",
      "parentPostTime": "2010-01-12T11:58:33",
      "parentPostId": "29485847"
    },
    {
      "threadId": "57054372",
      "post": "The snow is messing everything up! I'm still waiting for Demon's Souls to arrive from America : (",
      "time": "2010-01-09T11:09:20",
      "id": "29041963",
      "parentPost": "lol, I'm in neither, so I miss out again.  And GAME is taking its sweet time delivering my pre-order copy.  Gah!",
      "parentPostTime": "2010-01-09T08:25:44",
      "parentPostId": "29032928"
    },
    {
      "threadId": "54293947",
      "post": "I played this when I was in LA earlier in the year but the machine I was playing on wasn't rendering anything correctly so everything was all loooooooong and all over the screen.",
      "time": "2009-12-28T11:26:41",
      "id": "27368193"
    },
    {
      "threadId": "52526028",
      "post": "So as someone who's never played this, how does the game hold up in 2009?",
      "time": "2009-12-17T23:11:57",
      "id": "26179360"
    },
    {
      "threadId": "46448545",
      "post": "I played through the fan translation a while ago and really enjoyed it. You should finish it Ishaan, the ending is worth it!",
      "time": "2009-11-18T19:51:18",
      "id": "23476179"
    },
    {
      "threadId": "45357026",
      "post": "Is all this fuss over changing the opening song? I mean, it's just going to be... 3-4 minutes of Leona Lewis. Is it really that hard to tolerate? ",
      "time": "2009-11-13T17:46:16",
      "id": "22916294"
    },
    {
      "threadId": "45371465",
      "post": "http://blog.eu.playstation.com/2009/11/13/adhocparty-for-playstation-portable-coming-to-scee/ And PAL regions too! An Hotel Dusk sequel, simultaneous FFXIII dates... it's all becoming too good to be true ;p",
      "time": "2009-11-13T17:32:03",
      "id": "22914792"
    },
    {
      "threadId": "44293340",
      "post": "I usually just play with whatever is the default option. As long as I get to play the game, I'm happy.",
      "time": "2009-11-08T16:40:21",
      "id": "22248290"
    },
    {
      "threadId": "34552798",
      "post": "I wish this was in effect years ago~ I'd have about 2500 extra points then!",
      "time": "2009-09-16T15:48:58",
      "id": "16717387"
    },
    {
      "threadId": "34301728",
      "post": "It's as if they want us to import!",
      "time": "2009-09-15T08:38:04",
      "id": "16618192"
    },
    {
      "threadId": "34052247",
      "post": "I wonder if he uses that multiplayer mode when he's triple dating...",
      "time": "2009-09-13T19:48:50",
      "id": "16544674"
    },
    {
      "threadId": "33757688",
      "post": "They're run from NISA and Tecmo Koei are acting as distributors for their titles. Or at least, that is my understanding of it.",
      "time": "2009-09-11T10:02:37",
      "id": "16412480",
      "parentPost": "NIS, uh, \"Europe\"? Whenever did that happen?",
      "parentPostTime": "2009-09-11T08:45:22",
      "parentPostId": "16410490"
    },
    {
      "threadId": "33459571",
      "post": "I've recently finished playing through IV and V so knowing this is finally on the way is great news!",
      "time": "2009-09-09T12:28:30",
      "id": "16247377"
    },
    {
      "threadId": "33249972",
      "post": "So when can we expect the Siliconera review telling us the path to true love? : P",
      "time": "2009-09-08T17:24:30",
      "id": "16200712"
    },
    {
      "threadId": "32995702",
      "post": "I used to watch this everyday before school! I still have one of the GBA games too XD",
      "time": "2009-09-06T22:45:18",
      "id": "16076276"
    },
    {
      "threadId": "32861955",
      "post": "You choose at the beginning who you want to play as.",
      "time": "2009-09-05T08:06:12",
      "id": "16016013",
      "parentPost": "So,the female scenario of the game is gonna be the only choice or what?,I've never played P3 so I want the original scenario as well.",
      "parentPostTime": "2009-09-05T06:57:14",
      "parentPostId": "16015085"
    },
    {
      "threadId": "32310968",
      "post": "Now, now. We all love you both the same, no matter who gets articles up first : P",
      "time": "2009-09-02T08:50:43",
      "id": "15753014",
      "parentPost": "Actually, Spencer was going to cover this initially, but we decided it would be a good idea to represent both sides of the argument...for and against DS. I did find it before him though, yea! (I think) :P",
      "parentPostTime": "2009-09-02T07:45:42",
      "parentPostId": "15752183"
    },
    {
      "threadId": "29441217",
      "post": "I can't wait to try this out, although I'll probably never make anything worthwhile...",
      "time": "2009-08-13T11:15:01",
      "id": "14771628"
    },
    {
      "threadId": "28910763",
      "post": "Is this the Sakura path?",
      "time": "2009-08-09T21:49:14",
      "id": "14525751"
    },
    {
      "threadId": "28093899",
      "post": "When this came out in the UK, (I think it was just before Christmas) I think Nintendo must have underestimated how well it would do because it was sold out -everywhere-. I saw people paying nearly £70 or more on eBay!",
      "time": "2009-08-03T21:48:39",
      "id": "13852289"
    },
    {
      "threadId": "27736548",
      "post": "Pulling the plug? But the virtual console is one of the Wii's best features...",
      "time": "2009-07-31T15:27:06",
      "id": "13746315"
    },
    {
      "threadId": "27469828",
      "post": "Well it looks like I'll be importing from the US then!",
      "time": "2009-07-29T22:02:55",
      "id": "13560107"
    },
    {
      "threadId": "26797062",
      "post": "Ah, excellent! Now to endure the painfully long wait!",
      "time": "2009-07-27T20:05:42",
      "id": "13414549",
      "parentPost": "K, I played far enough now.  Act 3 made clear that this takes place right after the 3rd game.  \r\n",
      "parentPostTime": "2009-07-27T01:54:42",
      "parentPostId": "13369401"
    },
    {
      "threadId": "26683952",
      "post": "I wish this game out here in Europe on the GameCube. I can only imagine the die-hard fans would want this poor port.",
      "time": "2009-07-24T12:27:23",
      "id": "13266464"
    },
    {
      "threadId": "25773322",
      "post": "If anyone is interested, this is getting a retail European release...",
      "time": "2009-07-17T00:10:19",
      "id": "12788802"
    },
    {
      "threadId": "24495193",
      "post": "Ah, that makes sense. After all, if you were playing with friends and one got stuck on a tricker platforming sequence, it wouldn't desrupt the other players while the stuck player is still able to enjoy the game.\r\n\r\nSingle-Player experiences could use the videos and hints to 'teach' the player what to look out for in the future as well as helping them with whatever they are stuck on.\r\n\r\nIf this catches on, Nintendo have an excellent way of lowering the barrier of entry to their more \"hardcore\" series while still leaving them perfectly intact for those who enjoy the challenge.",
      "time": "2009-07-07T22:27:57",
      "id": "12282616",
      "parentPost": "In New Super Mario Bros. Wii, it plays for you. But in the patent for demo play, a video tutorial is also listed. There is also mention of a hint system among other things. ",
      "parentPostTime": "2009-07-07T22:04:13",
      "parentPostId": "12281547"
    },
    {
      "threadId": "24552737",
      "post": "As much as I love my physical products, I'd rather have the game available to buy than not at all.",
      "time": "2009-07-07T21:32:10",
      "id": "12280509"
    },
    {
      "threadId": "24458526",
      "post": "If we can get Agarest: Generations of War here, then we can get -anything- : P",
      "time": "2009-07-07T11:55:10",
      "id": "12249339",
      "parentPost": "How irritating. I'm in the UK so imported the Asian version. Considering I've played 3 player co-op with invading phantoms with no lag I cannot see this decision doing anything but splitting an already small community. This game will probably not see the light of day in Europe either...",
      "parentPostTime": "2009-07-07T11:48:39",
      "parentPostId": "12247237"
    },
    {
      "threadId": "24070260",
      "post": "I think (or rather, I hope) that means it's like the Crisis Core box where everything fits in snugly. The horrible clamshell packaging for a game would be... ridiculous.",
      "time": "2009-07-03T20:12:42",
      "id": "12088882",
      "parentPost": "The press release lists clamshell packaging as a feature. Oh gee, I want to be able to pay extra to cut my finger off while trying to open the thing.",
      "parentPostTime": "2009-07-03T19:56:48",
      "parentPostId": "12088393"
    },
    {
      "threadId": "22988924",
      "post": "I'm pretty sure as long as you're playing it on an HD setting, you should be fine. So many of our Wii games are -still- only in 50hz which would be why you're unable to play them.",
      "time": "2009-06-27T09:06:21",
      "id": "11823523",
      "parentPost": "I have a Hanns-G JW199D 19-inch Monitor, my PS3 is hooked up via VGA...Though I also have an HD Box Pro, that I sometimes use with it, via component. But the HD Box Pro is mainly used for my wii, which I've tried PAL games on before, and only got a blank screen, I could hear the sound and everything, but there was no picture.",
      "parentPostTime": "2009-06-25T20:35:35",
      "parentPostId": "11742435"
    },
    {
      "threadId": "22687329",
      "post": "I saw a trailer for this on the (EU) PSN. It looked interesting but what struck me as a susprise was that it had British voice acting! The other games that come to mind featuring that are Klonoa Beach Volleyball and Dragon Quest VIII...\n\nEdit: I uploaded the trailer if anyone wants to see it: http://www.youtube.com/watch?v=mPhM_Pe5MUc",
      "time": "2009-06-23T07:42:05",
      "id": "11609894"
    },
    {
      "threadId": "21395471",
      "post": "Wow, this is really shaping up to be leaps and bounds better than the current pokemon games!",
      "time": "2009-06-12T21:04:03",
      "id": "10815136"
    },
    {
      "threadId": "21399744",
      "post": "I'm hoping one of those un-announced titles is Fragile, it seems to fit in with what Rising Star releases.",
      "time": "2009-06-12T18:42:56",
      "id": "10810055",
      "parentPost": "Hooray!\r\n\r\nEDIT: Strangely enough, their \"releases for 2009\" list doesn't include Muramasa. http://www.risingstargames.com/news/rising-star-games-announces-2009-line-up.html\r\n\r\nEDIT2: Their forum. and more precisely staff member Torisu, is a better source of info. He posts some updates to their release list:\r\n\"\r\nValhalla Knights Episode 2 June 2009\r\nRygar: The Battle of Argus July 2009\r\nMoon (Gamebridge) July 2009\r\nAnimal Kororo September 2009\r\nSteal Princess September 2009\r\nHappy Party with Hello Kitty & Friends! September 2009\r\nMy World My Way September 2009\r\nMahjongg Ancient Mayas September 2009\r\nAngel Cat Sugar October 2009\r\nLuminous Arc 2 October 2009\r\nJU-ON: The Grudge October 2009\r\nMuramasa: The Demon Blade November 2009\r\nEldar Saga November 2009\r\n\r\nThere are also a couple of titles I'm not allowed to talk about yet... \"\r\n\r\nhttp://www.risingstargames.com/forum/viewtopic.php?f=19&t=143\r\n\r\nStuff he isn't allowed to talk about, hehe.",
      "parentPostTime": "2009-06-12T17:32:21",
      "parentPostId": "10806272"
    },
    {
      "threadId": "21240074",
      "post": "I wonder if we'll ever see anything in the form of proper Pokemon DLC such as returning to a previous region.",
      "time": "2009-06-11T14:08:52",
      "id": "10737188",
      "parentPost": "Yea, this is what I've maintained all along, too. Considering the rate at which the DSi userbase is growing, by 2010 (which is when we'll get this game), a lot of people will likely have upgraded.\r\n\r\nHg/Ss seem like they'll be the last of the current gen games to me, coinciding with the Arceus movie which concludes the Di/Pe trilogy. That's probably one of the reasons there are so many legendaries in Hg/Ss alone.",
      "parentPostTime": "2009-06-11T13:41:48",
      "parentPostId": "10736347"
    },
    {
      "threadId": "19874235",
      "post": "I would be sold if something to that effect was released.",
      "time": "2009-05-30T20:38:29",
      "id": "10302312",
      "parentPost": "I think we could be seeing a USB transfer tool pop up for the PS3. That can't be cheap though, at least 40$ for a standalone UMD reader, no?",
      "parentPostTime": "2009-05-30T19:41:51",
      "parentPostId": "10301443"
    },
    {
      "threadId": "18908666",
      "post": "I'd assume since they weren't as big releases as the others on the list they were heaped into that big \"others\" section.",
      "time": "2009-05-21T16:07:36",
      "id": "9732946",
      "parentPost": "I wonder why the Star Ocean psp games were ignored...hmmmm",
      "parentPostTime": "2009-05-21T15:18:39",
      "parentPostId": "9730537"
    },
    {
      "threadId": "18612908",
      "post": "It's getting a European release too : )",
      "time": "2009-05-19T09:46:31",
      "id": "9530648",
      "parentPost": "I keep hearing the infrastructure of an online versus gameplay would be difficult to create, but since Capcom is behind it, who knows? I'm not going to hold my nose on it, though.\r\nThey can toss in anything, I'm just ecstatic the game is coming to states at all. It would be cool if the PAL people could get it, too.",
      "parentPostTime": "2009-05-19T06:59:05",
      "parentPostId": "9528462"
    },
    {
      "threadId": "16439250",
      "post": "Assuming the game gets released in the UK too, I know that game.co.uk will ship overseas.",
      "time": "2009-04-23T22:46:56",
      "id": "8629779",
      "parentPost": "No problem....European countries have some very different laws regarding the shipment of electronics of all kinds. There used to be a few proxy companies out there, but even given how much I'd love to play this title, I won't go that route.",
      "parentPostTime": "2009-04-23T17:06:50",
      "parentPostId": "8612428"
    },
    {
      "threadId": "16129603",
      "post": "I was going to mention Mushi-shi and Noein! An Atelier-style Mush-shi game would be fantastic if that were to happen!",
      "time": "2009-04-20T19:08:33",
      "id": "8463654",
      "parentPost": "A sandbox-style game using \"X\" might be interesting if done right. Lots of unique characters, unique powers, all set in a to-scale Tokyo. The potential is there; and since Clamp never seems to decide on a proper ending for the franchise, sandbox open-ended stories for each character would be acceptable without hurting any sort of fanatic's idea of \"X canon\".\r\n\r\nThere have been some Berserk games already; I enjoyed the Dreamcast one quite a bit, but we never saw the PS2 one. Supposedly it wasn't that great.\r\n\r\nA few other good ones: \r\n-Mushi-shi in the style of the early Atelier games (collecting ingredients) with a splash of adventure titles (gathering clues, solving mysteries)... of course, that probably exists already since it seems like such a great idea.\r\n-Innocent Venus - you have robots, you have strong lead and secondary characters... and you have a solid ending. The show really was like Xenogears in many ways (one of the dudes even looked like he could be Fei Fong Wong's twin).\r\n-Noein... I know! It'd be insane. Parallel universes, multiple characters of the same person in your party (if we go RPG)... I have no idea how it'd work, but that show had so many great ideas and world concepts/enemy/character design.\r\n\r\nOh, and I say \"show\" for all these because... well... I don't read the comics. I don't read much domestic material, so why should I read international stuff? Readin' ain't my thing anymore. Writing is. Sorry for the long post!",
      "parentPostTime": "2009-04-19T18:43:36",
      "parentPostId": "8353394"
    },
    {
      "threadId": "16176057",
      "post": "Spencer, are you planning to do a review of Last Bullet?",
      "time": "2009-04-20T18:10:08",
      "id": "8461328"
    },
    {
      "threadId": "15031908",
      "post": "I'm exactly the same way with the camera and microphone, I didn't care about them when purchasing but now I just find myself messing around with them all the time.\r\n\r\nHow is Art Style: Code? I went for getting Art Style: Aquite myself along with Paper Plane and Pyoro.",
      "time": "2009-04-04T19:18:46",
      "id": "7831334",
      "parentPost": "Who says you can't buy a DSi anyway? Or even two? :) \r\n\r\nI sure did, and so will quite a few others. It's a sexy machine, DSiWare is great (ArtStyle: Code rocks BTW), I saw myself actually using the camera and sound features (even though I wasn't interested before I had the systems), and I'm thinking about passing my Lites on to people who still have a fat model or maybe my nieces (my GBA needs are taken care of through SPs, Micros and even GBAs (one of which is a modded version including a lighting solution).\r\n\r\nI love the feel of the new dpad and buttons, and the larger screens are ok as well. Sound is absolutely better, and I just plain like having new gadgets. With DSi-enhanced and -only carts on the way, maybe even a VC like service... good enough reasons for me.",
      "parentPostTime": "2009-04-04T18:43:50",
      "parentPostId": "7830718"
    },
    {
      "threadId": "14955479",
      "post": "Is that meant to be a link to the P3 song \"Mass Destruction\" or am I missing something....",
      "time": "2009-04-03T07:45:48",
      "id": "7781252",
      "parentPost": "Oh my God. Is anyone following these updates? The new video is...well, see for yourself.\r\n\r\nhttp://www.youtube.com/watch?v=Q9E3VR8Fnj0",
      "parentPostTime": "2009-04-03T05:30:57",
      "parentPostId": "7771697"
    },
    {
      "threadId": "14242199",
      "post": "I'd pay for a demo if it was something I couldn't wait to try out or there was some kind of incentive to get the demo and then the full game  ie. In a RPG, the demo would give an exclusive item that would be unlocked when you play the full game.",
      "time": "2009-03-23T19:06:19",
      "id": "7449215"
    },
    {
      "threadId": "14089412",
      "post": "I think there's four controller options, so no problem there.",
      "time": "2009-03-21T01:49:56",
      "id": "7388465",
      "parentPost": "Sucks they felt the need to add waggle into this game, hope you don't have to use that feature to progress.",
      "parentPostTime": "2009-03-21T01:29:42",
      "parentPostId": "7388208"
    },
    {
      "threadId": "13472967",
      "post": "Yes! No hassle importing it then >D",
      "time": "2009-03-11T20:16:22",
      "id": "7110064"
    },
    {
      "threadId": "13407853",
      "post": "You're a mind reader ;p",
      "time": "2009-03-11T00:26:07",
      "id": "7088455",
      "parentPost": "Perhaps not but hey its more relevant than half the stuff on Kotaku.  At least it isn't about a girl showing her ass in Akihabara.",
      "parentPostTime": "2009-03-10T23:40:00",
      "parentPostId": "7087601"
    },
    {
      "threadId": "13261468",
      "post": "My first most vivid gaming memory would be playing Donkey Kong on the original GameBoy (and somehow deleting my father's save file) and playing a Teenage Mutant Ninja Turtles fighting game on the SNES...",
      "time": "2009-03-08T19:31:01",
      "id": "6997893"
    },
    {
      "threadId": "13100002",
      "post": "I can't handle games with a scary freaky atmosphere either. I even found it hard to get through Baroque.",
      "time": "2009-03-05T19:52:38",
      "id": "6920136"
    },
    {
      "threadId": "12961945",
      "post": "Ah right. thanks for the heads up ; )",
      "time": "2009-03-03T22:23:39",
      "id": "6849771",
      "parentPost": "It is during an optionnal fight in Phase 5 (Raki being your opponent).",
      "parentPostTime": "2009-03-03T21:35:38",
      "parentPostId": "6848717"
    },
    {
      "threadId": "11740175",
      "post": "Played the demo, I kept dying all the time XD Looking forward to the english release.",
      "time": "2009-02-13T23:55:18",
      "id": "6250799"
    },
    {
      "threadId": "11375598",
      "post": "Ishaan, you'd definately get a kick out of this old interview: \r\nhttp://www.computerandvideogames.com/article.php?id=184821 \r\nI think that's a great one to look back on and see how things are now.\r\n\r\nI didn't mind the lack of blood in the PAL release, apart from a lot of cutscenes looked really... empty.",
      "time": "2009-02-08T21:48:50",
      "id": "6099468"
    },
    {
      "threadId": "11233825",
      "post": "I just hope finding your way around the world map is easier.",
      "time": "2009-02-06T12:50:01",
      "id": "6040819"
    },
    {
      "threadId": "11144740",
      "post": "I'll vouch for Video Games Plus as well. They're the first I go to when I want to import.",
      "time": "2009-02-05T21:26:38",
      "id": "5875560",
      "parentPost": "You know, you might be right. If you search for the game on Play-Asia, the thumbnail shows all the goodies in that pic above. Unfortunately, clicking on the game itself takes you back to the front page at the moment. :(\r\n\r\nGreat news if it's true though! I was really disappointed when I found out I could never own the Persona 4 art book. I even wrote in to Atlus USA and they said they couldn't do much to help.",
      "parentPostTime": "2009-02-05T07:41:06",
      "parentPostId": "5857193"
    },
    {
      "threadId": "10842738",
      "post": "Pre-ordered from Play-Asia! Teddie will have a new friend in May then >D",
      "time": "2009-02-01T19:51:43",
      "id": "5758819"
    },
    {
      "threadId": "10756109",
      "post": "Great article Ishaan; I'm susprised you didn't mention Hirameki's attempts at bringing the genre overseas.",
      "time": "2009-01-29T23:02:16",
      "id": "5661576"
    },
    {
      "threadId": "10637114",
      "post": "I hope Video Games Plus gets it with the preorder plushie...",
      "time": "2009-01-27T22:48:32",
      "id": "5603220",
      "parentPost": "gah! sold.\n\nNow I just have to figure how much will postage costs be for the game... and the plushie. To europe, that is.",
      "parentPostTime": "2009-01-27T21:48:12",
      "parentPostId": "5601601"
    },
    {
      "threadId": "10445982",
      "post": "It could be Square Enix now; don't forget. Unless Persona 4 is just a one time thing due to it's reputation.",
      "time": "2009-01-24T14:19:27",
      "id": "5515337",
      "parentPost": "Koei better pick this up in Europe even though the first Raidou game didn't sell very well :/",
      "parentPostTime": "2009-01-24T13:40:48",
      "parentPostId": "5515067"
    },
    {
      "threadId": "10195848",
      "post": "I've claimed my few comments, changed my username though as it feels weird (and not a good idea? : P) to use my actual name as a username...",
      "time": "2009-01-20T00:33:56",
      "id": "5378077"
    }
  ],
  "profileInfo": {
    "username": "Celedin",
    "about": "European Editor at Siliconera",
    "name": "Douglas",
    "disable3rdPartyTrackers": false,
    "isPowerContributor": false,
    "isAnonymous": false,
    "rep": 1.3429,
    "profileUrl": "https://disqus.com/by/Celedin/",
    "url": "http://www.twitter.com/Celedin",
    "reputation": 1.3429,
    "location": "England, UK",
    "isPrivate": false,
    "signedUrl": "http://disq.us/?url=http%3A%2F%2Fwww.twitter.com%2FCeledin&key=mLhfTbzokpEujLLxWLgA9Q",
    "isPrimary": true,
    "joinedAt": "2009-01-20T00:30:16",
    "id": "193308",
    "avatar": {
      "small": {
        "permalink": "https://disqus.com/api/users/avatars/Celedin.jpg",
        "cache": "//a.disquscdn.com/uploads/users/19/3308/avatar32.jpg?1463062386"
      },
      "isCustom": true,
      "permalink": "https://disqus.com/api/users/avatars/Celedin.jpg",
      "cache": "//a.disquscdn.com/uploads/users/19/3308/avatar92.jpg?1463062386",
      "large": {
        "permalink": "https://disqus.com/api/users/avatars/Celedin.jpg",
        "cache": "//a.disquscdn.com/uploads/users/19/3308/avatar92.jpg?1463062386"
      }
    }
  }
}