{
  "comments": [
    {
      "threadId": "2331579136",
      "post": "I'm going to use it to document America in 2014.",
      "time": "2014-02-27T23:19:04",
      "id": "1263701994"
    },
    {
      "threadId": "79216139",
      "post": "lolz,\n\nwell I am sorry about that my dear! Did you guys get it? I wasn't sure because I threw out the UPS tracking info. I'll just have to throw another Chicago related contest :-)\n",
      "time": "2011-04-04T19:11:13",
      "id": "178100714"
    },
    {
      "threadId": "266187703",
      "post": "It is sad that we have the \"If it bleeds it leads\" mentality in news, however, I'd rather have it be something that gets exposed rather than photographers not taking the picture. As long as horrors such as this exist in our world they should be documented. The thing that makes me most sad is that for this one girl there were a dozen other equally horrific things happening where instead of getting the same shot of the same tragedy, the photographers could have been documenting the other horrible things that were happening that day.",
      "time": "2011-03-29T21:20:34",
      "id": "174369602"
    },
    {
      "threadId": "151113906",
      "post": "Thank you very, very much for the kind words and the reblog. :-) Much appreciated.",
      "time": "2010-11-03T22:46:26",
      "id": "93533140",
      "parentPost": "reblogged @ http://morethanthesumofitsparts.blogspot.com/\r\n\r\nGorgeous picture of our amazing city- thanks for capturing it.",
      "parentPostTime": "2010-11-03T21:01:44",
      "parentPostId": "93507074"
    },
    {
      "threadId": "163462115",
      "post": "They're absolutely incredible... there was nothing like it that I've ever experienced. So huge but so gentle.",
      "time": "2010-10-28T18:21:12",
      "id": "91227987",
      "parentPost": "Aren't they just amazing creatures? I took care of one for 10 hours and road on its head for 3.. Loved! ",
      "parentPostTime": "2010-10-28T17:42:13",
      "parentPostId": "91209900"
    },
    {
      "threadId": "162843278",
      "post": "Thanks for the heads up! I appreciate the compliments too!",
      "time": "2010-10-27T16:02:35",
      "id": "90772544",
      "parentPost": "Actually, Jeff Staple is the one doing the interview as part of his 1-2-1 series. 13th Witness is the guy who photographed John Mayer. \n\nJust came across your blog, and I love it!",
      "parentPostTime": "2010-10-27T16:00:16",
      "parentPostId": "90771957"
    },
    {
      "threadId": "161834741",
      "post": "Thanks very much!",
      "time": "2010-10-26T22:00:34",
      "id": "90486876",
      "parentPost": "nice!",
      "parentPostTime": "2010-10-26T21:59:48",
      "parentPostId": "90486093"
    },
    {
      "threadId": "151102807",
      "post": "Thanks for the link! Yeah, that's almost exactly what I'm going for! I'm still trying to work out wether I can let the lightbulbs touch without getting too hot and popping.... I think I'm going to play it safe and separate them by wire. We shall see, though.\n\nAnyway, thanks again for the link!",
      "time": "2010-10-07T15:20:55",
      "id": "84899952",
      "parentPost": "http://www.instructables.com/id/How-to-save-1164407-on-a-designer-lighting-fixtu/\n\nI immediately thought of this, though I'm sure you could make it much nicer ;-)",
      "parentPostTime": "2010-10-07T05:40:34",
      "parentPostId": "84776786"
    },
    {
      "threadId": "141906118",
      "post": "Thanks very much!\n\nWeird coincidence! Did you go to the fair?\n",
      "time": "2010-09-15T03:35:38",
      "id": "77709875",
      "parentPost": "So yeah- I always follow your work because I'm a huge fan...and noticed you live around my neighborhood (I live right by the Longroom)....and...I was in Allagan this weekend?!  This world is tooo small!",
      "parentPostTime": "2010-09-15T00:49:25",
      "parentPostId": "77674397"
    },
    {
      "threadId": "134045894",
      "post": "Thanks so much! Thats hands down one of the nicest things anybody has ever said about/ to me :-D",
      "time": "2010-08-26T17:42:37",
      "id": "72434841"
    },
    {
      "threadId": "130903532",
      "post": "This is true... though... this was in Michigan and... you guys were about and hour and a half away from here when I needed a model :-/ but from now on - just expect to travel with me wherever I go! ",
      "time": "2010-08-18T15:14:59",
      "id": "69576538",
      "parentPost": "You know who to call when you want people to plow through some birds in Daley Plaza.",
      "parentPostTime": "2010-08-18T15:06:47",
      "parentPostId": "69575017"
    },
    {
      "threadId": "128147279",
      "post": "Your daughter made this photograph, so it's all her creative framing! I suppose I should put photo-credit on here, huh? Also, aren't cherries the way to anyone's heart? So delicious and tart! Yum! I think we messed up the preserves on that one, though... it's quite runny!",
      "time": "2010-08-10T20:35:00",
      "id": "67637088",
      "parentPost": "P.S. your hand looks like a heart!!",
      "parentPostTime": "2010-08-10T20:33:04",
      "parentPostId": "67636780"
    },
    {
      "threadId": "128198968",
      "post": "Thanks! It's at like... Paulina and Fulton Market-ish. It's right near that antique store on Paulina! ",
      "time": "2010-08-10T17:55:28",
      "id": "67607203",
      "parentPost": "I love this. Beautiful. Looks like a Bucktown underpass.",
      "parentPostTime": "2010-08-10T17:37:37",
      "parentPostId": "67603489"
    },
    {
      "threadId": "128118178",
      "post": "I think we're going to, but so far we've been able to find windows for $100 bucks a window - which... while not a bank breaker kinda makes it an expensive project, you know :-)\n",
      "time": "2010-08-10T17:53:52",
      "id": "67606955",
      "parentPost": "I've loved this idea since seeing it in action at M Henry my first year in Chicago.  Been dying to do it and hope you guys go for it!",
      "parentPostTime": "2010-08-10T17:42:30",
      "parentPostId": "67605018"
    },
    {
      "threadId": "29370866",
      "post": "Yeah... he's fine... just.. other peoples. They SUCK!\r\n\r\n",
      "time": "2009-08-12T22:15:01",
      "id": "14751031",
      "parentPost": "Hey now, I will drop kick you in the face! You met my dog and he is NOT yippee. Yes, he has napoleon complex and yes I do spoil him but how could you not? He is so darn cute! You can't deny it.",
      "parentPostTime": "2009-08-12T20:35:59",
      "parentPostId": "14746317"
    },
    {
      "threadId": "28796614",
      "post": "Agreed. That would've been nice of her to acknowledge. :-/  So... you're not sporadically going to go and get married, now, are you? ",
      "time": "2009-08-08T16:30:01",
      "id": "14490711",
      "parentPost": "I get that she was suppose to be a bitch. The joke with my sister was that this was pretty much... me. I mean, I've always been very independent and haven't understood why I need someone around like some people do. But when you care about someone, you have to kind of break down that wall somewhat. I just thought when she walked away and he said he wished she was happy, she would have said \"Yeah, I'm an asshole. I'm sorry. I'm completely inconsiderate. Take care!\" These Manic Pixie Dream Girls. They kill me. ",
      "parentPostTime": "2009-08-08T16:26:46",
      "parentPostId": "14490649"
    },
    {
      "threadId": "28578415",
      "post": "Good... that relieves some worries. ",
      "time": "2009-08-06T23:25:20",
      "id": "14400911",
      "parentPost": "I would never lock myself with Frank in the room listening to emo shit ;p I'm the one who makes him turn it off!",
      "parentPostTime": "2009-08-06T23:23:45",
      "parentPostId": "14400866"
    },
    {
      "threadId": "28579640",
      "post": "I can't wait that long... the urge to do something stupid is to strong. I'm sure we'll do something similarly dumb, though.",
      "time": "2009-08-06T23:22:19",
      "id": "14400802",
      "parentPost": "Perfect. See you in a few months.",
      "parentPostTime": "2009-08-06T23:19:18",
      "parentPostId": "14400714"
    },
    {
      "threadId": "28573957",
      "post": "Yeah, well... caring SUCKS. Thank you for rationalizing for me, though. :)",
      "time": "2009-08-06T22:23:31",
      "id": "14397499",
      "parentPost": "No way, you didn't overreact. You'd be an ass for not caring.",
      "parentPostTime": "2009-08-06T22:17:58",
      "parentPostId": "14397000"
    },
    {
      "threadId": "28526699",
      "post": "Meh... the moonwalking was cool. But otherwise - way to much time wasted going to the surface for air. ",
      "time": "2009-08-06T17:44:03",
      "id": "14354735",
      "parentPost": "Sorry, I think this <a href=\"http://www.youtube.com/watch?v=qV9VWKsC0_Y\">South Korean underwater synchronized swimming MJ tribute</a> beats it.",
      "parentPostTime": "2009-08-06T16:42:47",
      "parentPostId": "14351777"
    },
    {
      "threadId": "27445471",
      "post": "You should be ;)\r\n\r\n",
      "time": "2009-07-29T17:54:12",
      "id": "13545917"
    },
    {
      "threadId": "27163782",
      "post": "Awesome suggestion! I definitely will... running on the treadmill yelling out spanish. I'm definitely going to freak out some of my neighbors. ",
      "time": "2009-07-27T19:49:08",
      "id": "13413852",
      "parentPost": "You should check out some podcasts. There are a bunch of awesome ones out there I use to brush up on my Spanish.",
      "parentPostTime": "2009-07-27T19:45:12",
      "parentPostId": "13413681"
    },
    {
      "threadId": "25903718",
      "post": "awwww hells yeah!",
      "time": "2009-07-17T18:21:37",
      "id": "12824924"
    },
    {
      "threadId": "25891073",
      "post": "helvetica is so fucking played out. Not that I actually know what I'm talking about... but I'm saying it's played out!\r\n\r\n",
      "time": "2009-07-17T17:04:14",
      "id": "12821707"
    },
    {
      "threadId": "24746655",
      "post": "What makes you say that? I make fun of drunk girls/ Paris Hilton, so I'm turning into Frank? I don't think you look heavy. I think you're a stunning girl and I'm sure you get that because you're getting hit on more and more these days. What I'm saying is that I'm better than everyone.  Ever. Which has nothing to do with Frank. ",
      "time": "2009-07-09T20:31:11",
      "id": "12407112",
      "parentPost": "I love you but try not to turn  into frank pleez next thing you know youll be telling me i look a bit heavy and i will go ape shit on ur ass",
      "parentPostTime": "2009-07-09T03:04:15",
      "parentPostId": "12361531"
    },
    {
      "threadId": "24858459",
      "post": "Fuckin A, Man. Me too.",
      "time": "2009-07-09T20:22:03",
      "id": "12406289"
    },
    {
      "threadId": "24697493",
      "post": "Oh, you better belieeeeve it! He is magic. And everyone tells him so. ",
      "time": "2009-07-08T18:44:16",
      "id": "12324426",
      "parentPost": "Dear God- Frank looks like magic here.",
      "parentPostTime": "2009-07-08T18:41:15",
      "parentPostId": "12324300"
    },
    {
      "threadId": "23395009",
      "post": "The more corroded and messed up the better. Urban Decay is the name o the game. I have so much to see and only 4.5 days to see it in. Oh well... when in the city that never sleeps, follow suit I suppose. ",
      "time": "2009-07-01T00:35:00",
      "id": "11953922",
      "parentPost": "I heard! Hope to see you guys\r\n\r\nYou'll have to take the 7 train into Queens to visit: http://5ptz.com/graff/about/ \r\nUnfortunately, there's some sort of renovations going on at the moment so a lot of the graffiti is corroded, but it's definitely worth checking out nonetheless",
      "parentPostTime": "2009-07-01T00:31:33",
      "parentPostId": "11953831"
    },
    {
      "threadId": "22122301",
      "post": "Nice! Will do!",
      "time": "2009-06-18T19:28:03",
      "id": "11114602",
      "parentPost": "Dear Pick, Don't forget... have everyone wear black to your party - it's slimming! More folks'll fit!!!!",
      "parentPostTime": "2009-06-18T18:35:18",
      "parentPostId": "11109740"
    },
    {
      "threadId": "20614989",
      "post": "I think it was a long time coming, but it still sucks it had to happen the way it did. Anyway, now comes the arduous task of dividing our shit and finding a new place to live.",
      "time": "2009-06-06T01:51:26",
      "id": "10554814"
    },
    {
      "threadId": "18958717",
      "post": "Note to self, carry mcdonalds cheeseburgers to distract the dog if it comes after you... ",
      "time": "2009-05-21T19:54:19",
      "id": "9745985"
    },
    {
      "threadId": "18621390",
      "post": "Youuuuuu love iiit!",
      "time": "2009-05-19T03:15:46",
      "id": "9524460",
      "parentPost": "NICK STOP. STOP WITH THE FOOD PORN.",
      "parentPostTime": "2009-05-19T01:22:36",
      "parentPostId": "9519911"
    },
    {
      "threadId": "18484552",
      "post": "If you're gonna go chocolate, maybe... I dinno, hard to say. It needs to be VERY chocolatey which is why a browny works.",
      "time": "2009-05-17T19:41:54",
      "id": "9478255",
      "parentPost": "If it's chocolate I say yes",
      "parentPostTime": "2009-05-17T19:34:08",
      "parentPostId": "9478151"
    },
    {
      "threadId": "18485287",
      "post": "It's actually on my front door... No just kidding. Ravenswood between montrose and... bertau? I dunno.. near architectural artifacts\r\n\r\n",
      "time": "2009-05-17T19:41:03",
      "id": "9478242"
    },
    {
      "threadId": "18309235",
      "post": "P.S. Did I meet you at Dave and Lisa's wedding? ",
      "time": "2009-05-15T20:44:44",
      "id": "9372952",
      "parentPost": "I had completely forgotten about Kozy when I moved out of Lakeview- nice reminder on one of my favorite noodle joints!!",
      "parentPostTime": "2009-05-15T20:29:32",
      "parentPostId": "9372387"
    },
    {
      "threadId": "18235484",
      "post": "A function of you being a pretty woman. Dudes lose their shit when a pretty girl fucks with them. They take it seriously and sometimes get defensive. Welcome to the male psyche - if you arent doting on me and telling me I am the shit... I just... do NOT know what to do with you. Then there are the few exceptions. The guys that had older sisters growing up. They know what to do when a girl says: YOU SUCK! ... I unfortunately dont belong to group b. When a girl isnt telling me Im great I ... just... plain old, dont know how to act. Its also a function of me being great.... Im great, you see... I like to hear it. Yeahhhh.... thats it. Great....",
      "time": "2009-05-15T05:29:20",
      "id": "9353803",
      "parentPost": "Yeah, exactly. I just feel like I'm usually able to boss those guys around and they take my jabs personal. Suck it up, wusses! ",
      "parentPostTime": "2009-05-15T05:01:00",
      "parentPostId": "9353431"
    },
    {
      "threadId": "18166594",
      "post": "Fuck that... I assume you are takin care of your business - sans sugar daddies. At what point does it become actually trading of ass for money. I.E. at what point does she actually get called a pros... Im not gonna say it. You know what I  mean, though. Yeah, shes getting hers, at the cost of running up a bill she can not take care of on her own and is trading her company to a sap that just likes to spend money on her. I guess my question is, is she just hanging out with him because of the cash, or is it because he is an interesting person... If its column a then shes a ho. If its column b then its legit and she should buy him dinner. Just once... show him its not just sex or company for money. Having said that I do not mind spending money on a girl that I am forming a long lasting and emotionally rewarding relationship with. AT ALL. But it needs to be emotionally fulfilling.",
      "time": "2009-05-15T04:49:55",
      "id": "9352003",
      "parentPost": "It's been awhile since she's been interested in sugar daddies. I've witnessed her call and say, \"Listen, my electric bill is $136....\" Sigh. ",
      "parentPostTime": "2009-05-15T00:24:54",
      "parentPostId": "9339810"
    },
    {
      "threadId": "18103416",
      "post": "Exactly! Personality!",
      "time": "2009-05-14T02:12:28",
      "id": "9309604",
      "parentPost": "For me, she's too obviously pretty. I like when someone speaks and they become more attractive because of their mannerisms and facial expressions. ",
      "parentPostTime": "2009-05-13T22:25:44",
      "parentPostId": "9298737"
    },
    {
      "threadId": "18117999",
      "post": "Gotcha!",
      "time": "2009-05-14T02:06:44",
      "id": "9309420"
    },
    {
      "threadId": "18113811",
      "post": "It's great! We did it and have hired a lot of people after the fact. They learn something, you get help, and potentially you get to work with someone artistic, talented, and highly motivated. We've got photogs out of it, web designers, graphic designers etc. etc. It's one of the best things we've ever done. :) Doooo Eeeeeeet!\r\n\r\nColumbia has proven to be awesome. The art institute is good to. Yeah... can't go wrong. Well... you could, but you probably won't.",
      "time": "2009-05-14T01:04:58",
      "id": "9303686"
    },
    {
      "threadId": "17816081",
      "post": "hahahahahah... he's going to be so bright red when he sees this! Wait... do asians blush?\r\n",
      "time": "2009-05-12T03:57:33",
      "id": "9231176"
    },
    {
      "threadId": "17852501",
      "post": "I think it's like european time.... It's the 11th of May in the year 2009.",
      "time": "2009-05-11T15:10:25",
      "id": "9206085",
      "parentPost": "why does your date say 11/5/09? And... good idea.",
      "parentPostTime": "2009-05-11T14:33:15",
      "parentPostId": "9205207"
    },
    {
      "threadId": "17673562",
      "post": "Since it was such a huge meal I actually attained a gravity of my own... I was standing camera left and the drink stayed allll on its own ;)",
      "time": "2009-05-09T03:39:09",
      "id": "9148589",
      "parentPost": "Hey Nick, I'm glad you turned that picture around. I was about to ask how you got that tiny drink to not spill. Haha ;)",
      "parentPostTime": "2009-05-09T03:09:38",
      "parentPostId": "9148148"
    },
    {
      "threadId": "16869958",
      "post": "First off, Missy, I've got comments... you just need to navigate to my actual page. I think... I mean, I am powered by Disqus. Maybe not... I dunno....\r\n\r\nAnyway, I'm on Lightroom 2 and Photoshop CS4.... I was on photoshop for a long time, so it made sense to go to Lightroom over aperture because the integration is way better. What are you using?",
      "time": "2009-04-28T18:37:02",
      "id": "8783080"
    },
    {
      "threadId": "15749296",
      "post": "Wow, Billy! Who's fuckin ya up?\r\n",
      "time": "2009-04-14T17:56:38",
      "id": "8202144"
    },
    {
      "threadId": "14328777",
      "post": "Fuck you smartass! It's easier for someone who already knows to tell me while I work on albums and edit the website pictures together! So there!",
      "time": "2009-03-24T22:20:02",
      "id": "7478812"
    },
    {
      "threadId": "14040604",
      "post": "Actually, in retrospect I don't think it would work. Damn! $75 is to much to spend on a pinhole camera anyway!\r\n\r\n",
      "time": "2009-03-20T16:35:01",
      "id": "7377038",
      "parentPost": "proving once again that you're a super nerd...",
      "parentPostTime": "2009-03-20T06:02:36",
      "parentPostId": "7367330"
    },
    {
      "threadId": "13803192",
      "post": "Alright, so you may think English is my second language based on this post buuut the article just mentions girls and boys take different pics. Of course in all things photo - rules are made to be broken. Nothing is ever set in stone and everything is based on taste. So... there!",
      "time": "2009-03-16T22:14:19",
      "id": "7269547"
    },
    {
      "threadId": "13567046",
      "post": "Im flustered, Im flabbergasted... actually, Im jealous and want to make some pictures like this... Im a nerd at heart..",
      "time": "2009-03-13T02:58:43",
      "id": "7160126",
      "parentPost": "please.. you just wanted to post robert pattison, you can't fool us with your photography lingo...",
      "parentPostTime": "2009-03-13T00:17:50",
      "parentPostId": "7157072"
    },
    {
      "threadId": "13503608",
      "post": "Uhhh totally flattered!",
      "time": "2009-03-12T03:16:00",
      "id": "7124998"
    },
    {
      "threadId": "12648612",
      "post": "Went to Twist on tuesday with a coupon exactly like that. They have a ton of rules, but it still works out purty sweet.",
      "time": "2009-02-26T18:19:14",
      "id": "6660296"
    },
    {
      "threadId": "12524951",
      "post": "Wheres the undies, Ashton!",
      "time": "2009-02-25T06:04:39",
      "id": "6591004"
    },
    {
      "threadId": "12443495",
      "post": "AWESOME!",
      "time": "2009-02-24T04:35:25",
      "id": "6539433"
    },
    {
      "threadId": "12236462",
      "post": "you'll look like 'mad eye moody'",
      "time": "2009-02-20T21:42:18",
      "id": "6441371"
    },
    {
      "threadId": "12151607",
      "post": "I couldn't help myself! Yours was certainly top on the list of weddings from last year! BTW - the preggo picture is Jen from Hotel 71~ who had a major crush on you guys as a couple!",
      "time": "2009-02-19T16:40:30",
      "id": "6404855",
      "parentPost": "hey, that's me!  ",
      "parentPostTime": "2009-02-19T15:30:44",
      "parentPostId": "6403211"
    }
  ],
  "profileInfo": {
    "username": "nickgerber",
    "about": "",
    "name": "nickgerber",
    "disable3rdPartyTrackers": false,
    "isPowerContributor": false,
    "isAnonymous": false,
    "rep": 1.264446,
    "profileUrl": "https://disqus.com/by/nickgerber/",
    "url": "http://nickgerber.tumblr.com",
    "reputation": 1.264446,
    "location": "Chicago",
    "isPrivate": false,
    "signedUrl": "http://disq.us/?url=http%3A%2F%2Fnickgerber.tumblr.com&key=KmKL6qwS8Erq63V4pcHscg",
    "isPrimary": true,
    "joinedAt": "2008-12-17T22:05:06",
    "id": "167791",
    "avatar": {
      "small": {
        "permalink": "https://disqus.com/api/users/avatars/nickgerber.jpg",
        "cache": "//a.disquscdn.com/uploads/users/16/7791/avatar32.jpg?1393543146"
      },
      "isCustom": true,
      "permalink": "https://disqus.com/api/users/avatars/nickgerber.jpg",
      "cache": "//a.disquscdn.com/uploads/users/16/7791/avatar92.jpg?1393543146",
      "large": {
        "permalink": "https://disqus.com/api/users/avatars/nickgerber.jpg",
        "cache": "//a.disquscdn.com/uploads/users/16/7791/avatar92.jpg?1393543146"
      }
    }
  }
}