{
  "comments": [
    {
      "threadId": "7202115",
      "post": "Dear Giselle,\nYou will need to ask Dr. Peter M. Rosset (the author) for permission to repost any content from the pdf file. Good luck!",
      "time": "2016-04-04T20:40:26",
      "id": "2606004606",
      "parentPost": "I would like to request permission to site the draft posted in the pdf file for a class discussion that I am writing. Thank you.",
      "parentPostTime": "2016-04-04T20:37:05",
      "parentPostId": "2605999045"
    },
    {
      "threadId": "4009089507",
      "post": "Aprove",
      "time": "2015-09-08T14:31:13",
      "id": "2242469573",
      "parentPost": "It seems it *is* a matter of religion, and The Faith is held by those who insist it isn't happening, or that 'we' aren't causing it, or that nothing can be done, or that it's all a conspiracy by Maoist tax-bludgers.",
      "parentPostTime": "2015-08-18T22:33:42",
      "parentPostId": "2201709629"
    },
    {
      "threadId": "3241669175",
      "post": "Thank you for your comment, Nancy! Great insight!",
      "time": "2014-11-20T15:24:12",
      "id": "1703353269",
      "parentPost": "While rarification of local food may well occur in some cases, I'm proud to say that our local CSA offers year-round \"Staples\" shares (consisting of carrots,potatoes and onions) to ensure affordability, in adition to the veggie shares available in two sizes, the fruit shares, the meat shares and the flower shares they offer. Our food principles shine through everything that is done at TapRoot Farms in contrast to the scenarios described above.",
      "parentPostTime": "2014-11-20T03:22:52",
      "parentPostId": "1702546449"
    },
    {
      "threadId": "3136802362",
      "post": "Dear Phil, thank you for your comment! \n\n\nAt Policy Innovations we always welcome counter-arguments and differing opinions. We believe they enrich the debate. However, we encourage our readers to use respectful language when making their comments. Even though we see the value of your comment and the point you are making, we would appreciate a more considerate approach when talking about other human beings! Thank you for reading!",
      "time": "2014-11-14T16:38:21",
      "id": "1693162391"
    },
    {
      "threadId": "3218460143",
      "post": "Thank you for your comment!\n\nHere some further reading and links to useful articles reflecting on waterless fracking. Existing literature yields contradictory results on the risks of using propane instead of water as a fracking method. \n\nhttp://insideclimatenews.org/news/20111104/gasfrac-propane-natural-gas-drilling-hydraulic-fracturing-fracking-drinking-water-marcellus-shale-new-york\n\nhttp://dotearth.blogs.nytimes.com/2011/11/08/a-fracking-method-with-fewe-water-woes/?_r=0\n\nhttp://www.catskillmountainkeeper.org/our-programs/fracking/whats-wrong-with-fracking-2/fracking-with-liquid-propane-gas/\n\nAs regards to Malthus, it would be something in the middle. \n\nThank you again for reading and contributing to the debate!",
      "time": "2014-11-14T16:31:28",
      "id": "1693147957",
      "parentPost": "This interview is full of factual errors.\n  1) Malthus published about  200 not 300 years ago. \n\n 2)  One reliable source is likely to be more secure than two unreliable sources unless their surprise variation is negatively correlated. \n\n  3) Brazil is a small part of the world oil market. Prices in the world oil market are largely independent of what Brazil does or doesn't do \n  4) NO damaging earthquakes have occurred as a consequence however indirectly of fracking. What have occurred are slight grown tremors as a consequence of the injection of waste water in injection wells. \n\n  5) The Canadian company Gasfrac which uses natural gas liquids to frack rather than water which avoids any risk of ground water contamination or earth tremors from water injection. In addition Gasfrac's technology dramatically lowers the emission of methane as the fracking fluid is extracted\n  6) No onw knows whether China's shale will prove as productive as American shale.",
      "parentPostTime": "2014-11-13T21:58:13",
      "parentPostId": "1692045435"
    },
    {
      "threadId": "3027513381",
      "post": "Approved",
      "time": "2014-10-22T14:56:40",
      "id": "1648213373",
      "parentPost": "It is correct to say that e-bike kits can be purchased for 1/3 the cost of a regular e-bike but they will not be close in comparison. A quality e-bike kit with a 350 watt motor and 36 volt lithium battery is going to cost between $1400-$2400. The \"E-Bike Kit\" is a good choice as well as \"Bionx\" .",
      "parentPostTime": "2014-10-22T14:06:44",
      "parentPostId": "1648139770"
    },
    {
      "threadId": "3079534426",
      "post": "Approved",
      "time": "2014-10-17T19:33:23",
      "id": "1641244041",
      "parentPost": "Quite a moving article, thanks a lot. Protecting life starts by protecting those who carry it and providing the appropriate cares to enable life to thrive, including the possibility to plan a family.",
      "parentPostTime": "2014-10-17T19:32:15",
      "parentPostId": "1641242267"
    },
    {
      "threadId": "3089499607",
      "post": "Approved",
      "time": "2014-10-15T17:18:13",
      "id": "1637493687",
      "parentPost": "Thanks for this great interview, a very thoughtful view of what China and potentially emerging countries came come up with using \"frugal\" innovation. I agree there is going to be some other systemic innovation to make sure geoengineering falls in the right hand and is driven for the purpose of all. Could China be also talking to regional partners or global partners to make a change? How would the population be included in talks?",
      "parentPostTime": "2014-10-15T09:51:49",
      "parentPostId": "1636626320"
    },
    {
      "threadId": "1578350252",
      "post": "Good question, V.K. I reached out to the author and hopefully he will answer you.",
      "time": "2013-08-12T18:45:47",
      "id": "997775319",
      "parentPost": "Have you considered equipping customs officials with sniffer dogs? They may be successful in detecting animal contraband, dead or alive.",
      "parentPostTime": "2013-08-10T23:18:18",
      "parentPostId": "995984742"
    },
    {
      "threadId": "1123871691",
      "post": "Well said, Joel. This article shows that the right policies can respect environment, economy, and culture all at once.",
      "time": "2013-03-11T19:13:42",
      "id": "825861561",
      "parentPost": "the true wealth of china lie not in their own,it is lie on the cooperativeness of surrounding nation.",
      "parentPostTime": "2013-03-10T20:53:09",
      "parentPostId": "824940433"
    },
    {
      "threadId": "803829877",
      "post": "This is an amazing event that leaves interesting digital tire tracks wherever it rides. Can't wait to see it go to the next level, expanding to more cities and regions around the country. I'm sure Climate Ride's social media strategy will play a key role in helping it grow. Bikes and better urbanism are two of the most powerful weapons we have in the fight against global warming.",
      "time": "2012-08-28T17:15:20",
      "id": "632165053"
    },
    {
      "threadId": "803885160",
      "post": "Love these guys. They make informative, fun short pieces on the most important urban innovations.",
      "time": "2012-08-28T17:10:47",
      "id": "632160652"
    },
    {
      "threadId": "789912739",
      "post": "Robert, glad you enjoyed this story. Thanks for spreading word.",
      "time": "2012-08-16T15:29:40",
      "id": "621137558",
      "parentPost": "I like this very much--and am a fan of both Paul Goodman and Russell Ackoff.  Above is in today's Open Design section of the daily Open Source Everything Highlights, short URL http://tinyurl.com/OSE-ALL and twitter hash #openall ",
      "parentPostTime": "2012-08-03T02:18:19",
      "parentPostId": "608175696"
    },
    {
      "threadId": "791487052",
      "post": "Michael, thanks so much. Part 2 and Part 3 are now published. Enjoy:\nhttp://www.policyinnovations.org/ideas/briefings/data/000242\n\nhttp://www.policyinnovations.org/ideas/briefings/data/000243",
      "time": "2012-08-15T18:35:28",
      "id": "620276849",
      "parentPost": "",
      "parentPostTime": "2012-08-04T16:41:52",
      "parentPostId": "609665284"
    },
    {
      "threadId": "45434011",
      "post": "He's talking nonsense about the fake \"climategate\" scandal from a few years back wherein emails were hacked and stolen from scientists and then distorted in a smear campaign. The whole incident has been debunked by several different investigations. See, for example: http://www.ucsusa.org/global_warming/science_and_impacts/global_warming_contrarians/debunking-misinformation-stolen-emails-climategate.html or http://mediamatters.org/research/200912010002",
      "time": "2012-03-07T15:35:24",
      "id": "458826223",
      "parentPost": "I'm not aware of the e-mails and the fraud. Could you direct me to a link or tell me in brief?",
      "parentPostTime": "2012-03-07T14:17:17",
      "parentPostId": "458744242"
    },
    {
      "threadId": "592290398",
      "post": "Scratch a match on it, @j_zimms:disqus!!! Great find.",
      "time": "2012-03-02T18:35:41",
      "id": "454695139"
    },
    {
      "threadId": "465413804",
      "post": "Sam, this article is about fiction, not science. If you want science, read the IPCC reports: http://www.ipcc.ch/publications_and_data/publications_and_data_reports.shtml",
      "time": "2011-11-09T16:06:30",
      "id": "359219722",
      "parentPost": "There was literally no true science in this article. Last time I checked, novelists don't dictate how science behaves.",
      "parentPostTime": "2011-11-09T00:51:00",
      "parentPostId": "358831866"
    },
    {
      "threadId": "446116890",
      "post": "It seems that China has reached its \"Kitty Genovese\" moment: http://www.guardian.co.uk/world/2011/oct/17/toddler-hit-and-run-china",
      "time": "2011-10-18T14:51:59",
      "id": "338201015"
    },
    {
      "threadId": "423921356",
      "post": "Thanks, the text has been emended to reflect this correction. Our apologies. We're happy you're alive!",
      "time": "2011-09-28T21:43:33",
      "id": "322144510",
      "parentPost": "A correction, WattzOn (http://www1.wattzon.com) is very much alive and well (and growing) providing free guidance to help understand how you use energy, how you compare to similar households and ways to reduce your energy consumption. To make this even easier, WattzOn provides automated connection into a large and growing number of energy utilities natiowide.\n\nAnd worth noting that WattzOn has been selected by the PBS Series, Earth the Operator's Manual, to support viewers in creating pesonalized energy savings plans. ",
      "parentPostTime": "2011-09-24T23:06:55",
      "parentPostId": "319268355"
    },
    {
      "threadId": "409719220",
      "post": "Reader Alan Ecob submitted the following to the Forum:\n\nSustainability and Full-Product Barter\n\nIn 1946, Kurnell, the \"birthplace of Australia,\" was a weekender village on the south side of Botany Bay, seven miles from Sydney, our capital city. Through that year, twelve dads, aided by their families—mums and kids all pitching in—but working only on weekends, built twelve cottages to full residential standard. Each family owned their own block of ground and paid for their own materials. It was a team effort. Seven of the men as tradesmen counted their worked hours as standard. The others as helpers worked 1.5 hours to equal a standard hour.  \n\nIt was a fun gig. Morale was so high—the atmosphere was so stimulating—that even other kids like me welcomed being roped in to assist as occasion required, such as carrying building materials to site from off the punt that brought them across the bay. The scheme was an example of full-product barter. The need for money had been minimal. Cottage completion was attained for only a quarter of comparable market prices. \n\nDespite the enthusiasm and benefits, such schemes were seen by authority to be seriously illegal. When in 1961, in the midst of a severe recession, I naively made a submission to our ATO (Australian Tax Office) proposing to organize out-of-hours full-product barter among consenting tradesmen, a no-name voice on the phone told me that if I did, they would impute $ values to everything, impose $ penalties on all concerned that I would find hard to believe, and pursue us through every court in the land—if necessary, \"to the ends of the Earth\"—to exact payment.   \n\nWhat connection may be made between sustainability and nationally organized full-product barter? The starting point could be the 20 percent of our federal government's budget now being spent because of unemployment, idle manufacturing capacity, and widespread social need. If this level of government expenditure and application of resources could be halved, as it could so easily be if full-product barter were made freely allowable, even if only on weekends, then the savings could be directly applied to sustainable environmental objectives.  \n\nIn response to the posed question—What can a person do?—my suggestion is: Become aware of all the options, including the freeing of full-product barter, perhaps under the banner of Saturdays Tax-Free for the Workers, and act, agitate, and vote accordingly.  \n\n© Alan Ecob FCPA  M.Phil.",
      "time": "2011-09-28T21:36:50",
      "id": "322139585"
    },
    {
      "threadId": "407482896",
      "post": "A slightly longer meditation on this question can be found in Peter Marcuse's 1998 essay \"Sustainability is not enough\" (Environment and Urbanization, Vol. 10, No. 2) wherein he reformulates the Brundtland definition of sustainability: \"Sustainable development is development that meets specific needs of the present, and can be maintained into the future, without detracting from the satisfaction of other needs in the present or future.\" His view is that sustainability should be considered a constraint, not a goal in itself: \"If ... sustainability is a constraint rather than a goal, then it can be used as a criterion to evaluate measures that achieve otherwise defined desirable goals; a desirable measure that is not sustainable is not as good as an equally desirable measure that is.\" Those desirable goals being ones that are socially just. For more: \nhttp://eau.sagepub.com/content/10/2/103.full.pdf",
      "time": "2011-09-07T19:45:43",
      "id": "304418485"
    },
    {
      "threadId": "11683335",
      "post": "Bronwen, I'm not sure which questionnaire you mean. I would try contacting nef directly or searching their site for your needs: http://www.neweconomics.org/\n",
      "time": "2011-08-24T15:00:03",
      "id": "294421199",
      "parentPost": "I would like to complete the NEF questionnaire. Where can I source this?",
      "parentPostTime": "2011-08-24T14:11:51",
      "parentPostId": "294392888"
    },
    {
      "threadId": "368276984",
      "post": "Good points. Craig Venter is playing the algae game as well: http://www.washingtonpost.com/lifestyle/magazine/is-craig-venter-going-to-save-the-planet-or-is-this-more-hype-from-one-of-americas-most-controversial-scientists/2011/06/07/gIQAfr2c8I_story.html",
      "time": "2011-08-16T16:30:51",
      "id": "288176352",
      "parentPost": "Open ponds are 35 year old technology. Will never be used for industrial use.  All ponds have daily contamination issues and low producction levels. The aquatic species program was a failure ond the DOE is too ashamed to admit it. Most commercial algae producers use PBR's and fermentors, not ponds.\n\n\"Microalgae technology is in the R&D phase, and not yet ready for commercial implementation\".\n\nThe US taxpayer has spent over $2.5 billion dollars on algae research at universities for 50 years. As long as algae researchers can say 3 things:\nIt's too expensive. Cannot be done. We need more research. The DOE has given them grants. To date nothing has been commercialized at any university. \n\nThe REAL PROBLEM is: Does the DOE really want to get off of foreign oil or do they want to continue giving grants to algae researchers to keep them employed at universities for another 50 years??? Heard the DOE has lost $700-$900 million from their budget. ",
      "parentPostTime": "2011-07-26T13:52:11",
      "parentPostId": "265363847"
    },
    {
      "threadId": "63916934",
      "post": "Sour Strawberries, Thanks for sharing these links with us. As you may have noticed, the author is a government official offering a unique internal perspective, and it should be read as such.",
      "time": "2011-07-25T17:15:19",
      "id": "263568668",
      "parentPost": "How can you write an article on immigration control in Japan and not mention the various back doors and loop hole policies that have been created and are used for importing manual work force? This might be a better read: \nGabriel Vogt (Professor of Japan Studies): \nhttp://www.aai.uni-hamburg.de/japan/Personal/docs/Vogt/20071001ja-Studie-Vogt.pdf\n\nAlso check out the documentary movie \"SOUR STRAWBERRIES - Japan's hidden »guest workers«\" \nhttp://www.cinemabstruso.de/strawberries/main.html and http://www.myspace.com/sour.strawberries",
      "parentPostTime": "2011-07-25T15:26:13",
      "parentPostId": "263499583"
    },
    {
      "threadId": "355618727",
      "post": "Sylvana, that's great to hear. Why don't you reach out to them via social media: http://twitter.com/#!/dance4peacenow",
      "time": "2011-07-25T14:19:11",
      "id": "263463266",
      "parentPost": "I'd like to get connected and work with D4P.",
      "parentPostTime": "2011-07-23T21:22:07",
      "parentPostId": "262296851"
    },
    {
      "threadId": "365552505",
      "post": "That's our goal. Glad you liked it.",
      "time": "2011-07-25T14:18:18",
      "id": "263462834",
      "parentPost": "The article is so clearly written and informative, a pleasure to read about a solution instead of just the problem.",
      "parentPostTime": "2011-07-24T14:08:43",
      "parentPostId": "262783446"
    },
    {
      "threadId": "7229189",
      "post": "John, yes, it looks like the electric jeepney routes are expanding (http://www.philstar.com/Article.aspx?articleId=705472&publicationSubCategoryId=65) but you'll have to find someone on the ground there for more specific details.",
      "time": "2011-07-15T14:49:51",
      "id": "252773706",
      "parentPost": "Can anyone tell me if there are still electric jeepneys opperating? and if yes the places and numbers ?",
      "parentPostTime": "2011-07-15T00:01:26",
      "parentPostId": "252445628"
    },
    {
      "threadId": "267844100",
      "post": "Yes, Jorge, bike share is a big movement in the United States. New York is about to announce the chosen vendor for our system to be installed next year. http://transportationnation.org/2011/07/11/new-york-expected-to-select-bike-share-vendor-by-next-month/comment-page-1/ If you want advice on how to get one started in the Philippines, I recommend contacting the Institute for Transportation and Development Policy (http://www.policyinnovations.org/innovators/organizations/data/00958) and StreetsBlog (http://www.streetsblog.org/). Best of luck!",
      "time": "2011-07-15T14:15:43",
      "id": "252751074",
      "parentPost": "I am a road biker and I blog about biking using username bikeshare.  I did not realize that bikeshare is a big movement, and new public policy that impacts mass transport system and saving the earth.  I should  help promote bikeshare in the Philippines.",
      "parentPostTime": "2011-07-15T02:31:45",
      "parentPostId": "252512137"
    },
    {
      "threadId": "325884921",
      "post": "He wants to hide the tax in the declining gas prices. Brilliant!",
      "time": "2011-06-08T20:41:45",
      "id": "221491840"
    },
    {
      "threadId": "323774983",
      "post": "Definitely not a hipster.",
      "time": "2011-06-06T17:10:21",
      "id": "219283419"
    },
    {
      "threadId": "285952358",
      "post": "As economist Dani Rodrik discovered while researching his new book The Globalization Paradox, \"Markets are most developed and most effective in generating wealth when they are backed by solid governmental institutions.\" If you want a big market, you will need a big government. Or, as economist Joseph Stiglitz puts its, the costs of having an inadequate regulatory structure far outweigh the costs of an effective one. We have anti-trust law to handle things like moral hazard because any institution that becomes too big to fail should be considered too big to exist: http://www.policyinnovations.org/ideas/commentary/data/000158\n\n ",
      "time": "2011-04-27T21:02:59",
      "id": "192941951"
    },
    {
      "threadId": "283623129",
      "post": "So you're OK with arresting people for what they write and say?\n\nYour comment is the first I've heard of a \"right to stability,\" and you argue in a circle: If the CCP tells people they want stability not rights, what do you think they'll demand?\n\nThe author, as a Chinese writer living in exile, is aware of how 'the West' abets Chinese repression: \"When global leaders behave like conniving hucksters to do business with this new China's rulers, they betray the values and principles that are the basis of democracy.\"\n\n\"Studies have shown\" ... the experts have spoken... Case closed. No freedoms for the Chinese, just shiny new cars.",
      "time": "2011-04-20T15:21:44",
      "id": "188250658",
      "parentPost": "You are woefully misinformed, but it's not your fault. \nChina is an enormous, undeveloped, poor country. It average income per person is about 1/10th that of the USA. Not to mention its culture is enormously different from the West's. \n\"the government has chosen repression as the only means to \"maintain stability.\"\"\nI know it's hard to believe for citizens of rich, Western countries, but stability as a right, ranks higher than the right to expression not just for the CCP but for the Chinese people. \nChina, and the Chinese fear a Jasmine Revolution because it would mean a grinding halt to their economic development, the massive increase in quality of life its people have enjoyed would retrogress. Development PERIOD would retrogress, not just economic, but social and cultural. \nStudies have shown that nations at China's economic state have not been able to maintain stability after adopting morel liberal civil policies. \n\nThe West focuses on Ai Weiwei because he is a useful tool for power politics. They use cases such as his to remind the world that China is morally inferior. This politicization of human rights issues is, for the United States at least, profoundly hypocritical and itself immoral. ",
      "parentPostTime": "2011-04-20T00:46:33",
      "parentPostId": "187975551"
    },
    {
      "threadId": "276328325",
      "post": "Great work, guys. As the Colombian bike policy pioneer Enrique Penalosa says, \"A bicycle lane that isn't safe for an eight-year-old isn't a bicycle lane.\"",
      "time": "2011-04-11T15:07:43",
      "id": "182530394"
    },
    {
      "threadId": "260419550",
      "post": "Thanks, Arijit. I agree that the transition off oil will be rough, and roughest on those who can least afford to change. But if people are able to pay $4/gallon, then clearly there's some room for increasing the gasoline tax. It seems to me that the best time to raise it gradually would be while prices are falling naturally. Hide it in the decline, so to speak ;) Infrastructure investment is way overdue in America. The roads here in NYC are falling apart, and it's high time that road users pay their way: http://www.policyinnovations.org/ideas/policy_library/data/01600\n\nThat's why it was disappointing to hear little mention of urban density and mass transit in Obama's recent energy security speech. It was even more disappointing that he spread misinformation about nuclear power having no carbon emissions. During normal operation the plants are relatively benign, but when you look at the whole process from mining to waste disposal it's simply not true that nuclear is carbon neutral. http://www.nature.com/climate/2008/0810/full/climate.2008.99.html\n\nEfficiency improvements and renewable energy investments end up giving much better low-carbon bang for the buck. In fact, Bloomberg New Energy Finance is reporting that the costs for high-quality wind projects are now on par with new coal-fired generation. http://www.bloomberg.com/news/2011-04-05/wind-power-s-best-projects-rival-costs-of-new-coal-fired-plants-bnef-says.html",
      "time": "2011-04-07T18:25:15",
      "id": "179988616",
      "parentPost": "Evan, I waited a long time for your piece and it isn't disappointing. \n\nMy perspective as a Canadian and an outsider to the American political scene is that at the present time, I cannot see how the American people would accept a Pigouvian tax --whether it is a carbon tax or additional gasoline taxes-- given the increasing inequality and process of deleveraging that is the burden of the working and middle class in the States. \n\nFurthermore, the lack of reasoned political discourse amongst the populace at large --framed by the divergence between red and blue states-- combined with a sclerotic political class means that doing nothing is better than doing something. \n\nI can say that discourse in Canada is not any better although other Canadians would disagree; frankly, Canada is a rudderless ship and we are completely devoid of a serious discussion about the nation's energy needs and strategy: Ontario, where I live, is continuing on the path of increasing nuclear supply, and the 'energy rich' provinces in Western Canada, particularly Alberta, appear to be fine with turning the tar sands area --the size of NY state as you stated-- into a massive tailings pond. There is no vision for the future: we are rushing headfirst into a fog with no leadership or sense of direction while the ideological media outlets feed us meaningless pablum like 'ethical oil.'",
      "parentPostTime": "2011-03-22T19:49:40",
      "parentPostId": "169758759"
    },
    {
      "threadId": "7225618",
      "post": "Tinty-1, Thanks for the great comment. We hope everything is going well back home in Senegal.",
      "time": "2011-01-12T19:07:59",
      "id": "128292942",
      "parentPost": "Hello Everyone.Thanks for the artikel written about the Platform in Bantantinty.It shows how progress are being made to erradicat poverty in Afrika as a whole.I'm a native of Bantantinty living in Switzerland,and i'm so suprise to see my isolated village on the Net.I'm happy to learned that,i`m not the only one who's preoccupied about the  situation there.",
      "parentPostTime": "2011-01-12T18:28:49",
      "parentPostId": "128276047"
    },
    {
      "threadId": "161543231",
      "post": "Dear Claudia, two groups you may wish to explore are Echoing Green (<a href=\"http://www.echoinggreen.org/about\" rel=\"nofollow\">http://www.echoinggreen.org/about</a>) and Ashoka (<a href=\"http://ashoka.org\" rel=\"nofollow\">http://ashoka.org</a>/). Both promote innovator-entrepreneurs such as you. Environment is part of their portfolios.",
      "time": "2010-11-18T16:09:01",
      "id": "98850465",
      "parentPost": "Fantastic article ! I wonder , do you know where to turn to for funding projects that are 100% green , Eco - friendly, innovative and sustainable , as well having social impact at cultural , social and economic level ?\nAny suggestions appreciated !\nTanks",
      "parentPostTime": "2010-11-18T08:58:04",
      "parentPostId": "98734986"
    },
    {
      "threadId": "119729598",
      "post": "It's a gorgeous structure but I wonder if covering the building in an array of smaller pre-fab turbines like the Windtronics one mentioned here http://www.policyinnovations.org/ideas/innovations/data/000169 might be a smarter solution. How much energy does the building use overall?",
      "time": "2010-07-19T18:27:11",
      "id": "63227592"
    },
    {
      "threadId": "117932863",
      "post": "Leo, good eye. That building is in London. Given the rarity of these turbines I'd say urban small-wind is definitely still in the innovation and experimentation phase.",
      "time": "2010-07-16T22:00:14",
      "id": "62596199",
      "parentPost": "Interesting - except that the United States may NOT be the leader in such technologies. The building in the picture is in London and the installation is several years old. Nobody speaks of it as 'innovation' nowadays..\r\n\r\nGood stuff, though - and best of luck to Windtronics!",
      "parentPostTime": "2010-07-14T21:01:12",
      "parentPostId": "62275471"
    },
    {
      "threadId": "106242967",
      "post": "Frank, We appreciate the support. Glad you enjoyed the article, and thank you for circulating it. -Evan",
      "time": "2010-06-22T18:55:49",
      "id": "58088446",
      "parentPost": "A fabulous article...congratulations to the author and to Policy Innovations...please see front page of www.ethicsworld.org\nthank you\nFrank Vogl",
      "parentPostTime": "2010-06-22T17:17:32",
      "parentPostId": "58071695"
    },
    {
      "threadId": "101269669",
      "post": "The J Curve presentation is Flash: http://www.cceia.org/resources/video/data/000018\n\nDevin's interview with Bremmer is an MP3 and should download if you right-click and Save As: http://www.policyinnovations.org/ideas/audio/data/000058",
      "time": "2010-06-01T16:03:44",
      "id": "53384801",
      "parentPost": "Devin, great interview, thoroughly interesting. The J-Curve videos (interview and book presenation) are no longer available as right-click downloads. Could you please repost them?",
      "parentPostTime": "2010-05-29T11:12:59",
      "parentPostId": "52919847"
    },
    {
      "threadId": "74941595",
      "post": "B. A., The author sent me the following response to your comment. -Evan\n\n1. Is there any evidence to suggest that there is a rush for patents? \n\nSee EPO, The Age of Windustry?, available at http://www.epo.org/topics/innovation-and-economy/emerging-technologies/article-10.html (this study points to a dramatic increase in patenting of wind energy technologies since 2000) \n\nSee Bernice Lee et al (2009), Who Owns Our Low Carbon Future? Intellectual Property and Energy Technologies, Chatham House, pp.23-24 (this shows that almost half of the patents in wind energy industry are from the OECD countries) \n\nThese suggest an increase since 2000 in the number of patents on wind energy which is highly concentrated in OECD countries. \n\nWith regard to solar power, the article states that while the basic technology is in the public domain, advances in solar PV technology will be based on fields like nanotechnology. Again, the study by Bernice Lee (2009) referred above shows that patents in solar PV have reached similar proportions to patents in wind energy. \n\nAlso see ETC Group (2005), The Potential Impacts of Nano-scale Technologies on Commodity Markets: The Implications for Commodity Dependent Developing Countries, Trade-Related Agenda, Development and Equity (T.R.A.D.E.) Research Papers (4), South Centre, Geneva, p.18 (this study shows that many of the basic ideas in nanotechnology have already been patented). It should be noted that the article refers to a rush for patents in general which can impede technology transfer insofar as such patented technologies are required for advances in existing ESTs e.g., nanotechnology based solar PV cells. \n\nFor evidence on increase in the number of patents on biofuel technology, see \n\nRonald Kamis and Mandar Joshi (2008), Biofuel Patents are Booming, available at http://cleantech.com/news/2329/biofuel-patents-are-booming \n\nOn increased patenting in the field of synthetic biology, see ETC Group (2007), Extreme Genetic Engineering : An Introduction to Synthetic Biology, p.29, available at http://www.etcgroup.org/upload/publication/602/01/synbioreportweb.pdf \n\n\n2. The article assumes that the number of patents of patents in this field are increasing beyond expectations, and the commentator suggests that perhaps this should not be unexpected because this is a new field of technology. \n\nThe article does not make an assertion that the increase in patents is beyond expectations, nor does it hold this assumption. It recognizes the fact that there has been an increase in patents in these areas and seeks to understand the implications of this. \n\n3. Contrary to the assertion in the article that patents could slow down transfer of technology, the commentator suggests that there would be more technologies to license. \n\nIncreasing patents on ESTs would ideally suggest that there are more technologies to be licensed. However, if developing countries are to take meaningful action for adaptation and mitigation in response to climate change, then it has to be ensured that developing countries can adapt exisiting technologies to their local needs, make the technology affordable and also further develop new technologies by using their endogenous capacities. In this regard, the article submits that  increasing patents over technology that is necessary for further advancement over ESTs can be a problem for developing countries. \n\nFirst, the existence of a patented technology that could be licensed out does not ensure that such licensing will take place on equitable terms. There have been instances where Indian and Korean firms were denied the non-ozone depleting refrigeration technology by an American patent holding firm in spite of their willingness to pay the best price. This was done with the objective of stifling competition. As pointed out in the article, a Malaysian company could get access to foreign technologies on condition of buying machines from the patent holding company.  Again, in respect of adaptation, traditional breeding methods practiced by farming communities in developing countries can contribute immensely to developing new varieties of crops that can withstand climate change. However, this ability of traditional breeding can be severly constrained by increased patenting of seeds by transnational companies which could inhibit the right of farmers in developing countries to develop new varieties by using, saving and exchanging those seeds among themselves.\n\nBest Regards \nNirmalya Syam",
      "time": "2010-03-15T15:39:57",
      "id": "39754111",
      "parentPost": "There are a lot of assumptions here. First there is a \"rush\". Maybe but I have no evidence. Second, the number of patents are increasing beyond expectations(this is a new field so more are expected). Maybe but I have no evidence. Third, this activity can slow transfer. Maybe but I can make a case that there will be more technology to license. bathorp@comcast.net ",
      "parentPostTime": "2010-03-12T22:01:16",
      "parentPostId": "39437443"
    },
    {
      "threadId": "66207172",
      "post": "James, Thanks for your question. While the ocean is everywhere, tidal installations need very specific conditions to capture enough flow. This briefing from the American Council on Renewable Energy does a pretty good job of explaining which sites work best: http://www.acore.org/what_is_renewable_energy/ocean It also lists companies that might be working in your area on similar projects. ",
      "time": "2010-02-16T16:39:20",
      "id": "34721451",
      "parentPost": "Very interesting, I think this type of power could be everywhere. Whre I live Port Townsend WA USA the curren moves very fast of a place called Pt Wilson or Mid Channel Bank. Is anyone dong this type of stuff here? Thanks James Hupf",
      "parentPostTime": "2010-02-12T19:15:33",
      "parentPostId": "34039522"
    },
    {
      "threadId": "10640617",
      "post": "Ms. Gorman, You are welcome to print this out and send it to Mr. Bloomberg.",
      "time": "2010-02-11T19:03:50",
      "id": "33898633",
      "parentPost": "I'd like to make this more widely available along with emphasis on what people can do. \r\nCan I request that a copy of it be sent to the Mayor of New York City, Michael Bloomberg.",
      "parentPostTime": "2010-02-07T04:59:47",
      "parentPostId": "32894102"
    },
    {
      "threadId": "62613392",
      "post": "littlefield, Good point. I forgot to note that the conference organizers have extended the deadline to February 10, 2010.",
      "time": "2010-02-01T16:18:29",
      "id": "32296956",
      "parentPost": "How can this be a call for papers? It was announced on 1/29 and the deadline is 1/31! Next time please send this out at least 3 months ahead of time or else don't call it a call for papers.",
      "parentPostTime": "2010-02-01T07:04:43",
      "parentPostId": "32265699"
    },
    {
      "threadId": "50616741",
      "post": "Thanks, Casey. The legislation did pass: http://www.crainsnewyork.com/article/20091209/FREE/912099982",
      "time": "2009-12-10T18:56:00",
      "id": "25461298",
      "parentPost": "Let's hope the New York City Council votes to reduce greenhouse emissions. If you're committed to reducing greenhouse gases then check out this great website with hundreds of case studies on wind energy and emerging green technologies:  http://www.greencollareconomy.com\nGreencollareconomy.com has the largest b2b green directory on the web and lots of sustainability white papers for businesses to use in going green.\n",
      "parentPostTime": "2009-12-09T22:08:04",
      "parentPostId": "25332368"
    },
    {
      "threadId": "28554350",
      "post": "@livingwater4all, you'll have to reach out to Mr. Pritchard directly for answers to your questions. We merely republished the video of his innovative technology from TED. Follow the link on his name above for more info.",
      "time": "2009-08-24T15:02:36",
      "id": "15308928",
      "parentPost": "Hi, some questions about the LifeSAVER water bottle:\r\n\r\n1. What are the test results about the endurance of the UF filter up till 4000/6000 liter contaminated water? (lab tests only a few liter)\r\n2. How to clean the UF filter (15 nanometer pores)?\r\n3. What is the proof of reduction by activated carbon of heavy metals? (not known in litt.)\r\n ",
      "parentPostTime": "2009-08-20T10:38:35",
      "parentPostId": "15120848"
    },
    {
      "threadId": "23025698",
      "post": "Couldn't agree more with point 9. We launched #death2autoDM as a hashtag last week. They are spam!",
      "time": "2009-06-25T19:44:57",
      "id": "11738385"
    },
    {
      "threadId": "19392084",
      "post": "Related Washington Post coverage of the current status of the climate bill: Caps, Trades and Offsets: Can Climate Plan Work? http://bit.ly/48jlIi",
      "time": "2009-05-26T16:06:02",
      "id": "9956061"
    },
    {
      "threadId": "7210192",
      "post": "CCP, here's a great related presentation you might enjoy on an innovative technique to regrow rainforests, with local agriculture, in a way that creates a natural sanctuary for orangutans: http://www.policyinnovations.org/ideas/media/video/data/000119",
      "time": "2009-04-23T21:16:46",
      "id": "8620415",
      "parentPost": "Indonesia certainly has motives for environmental conservation.  Their economy can't go on consuming their islands forever - regardless of the religious politics.",
      "parentPostTime": "2009-04-23T21:00:17",
      "parentPostId": "8619888"
    },
    {
      "threadId": "11452530",
      "post": "Shig, Thanks for catching the typo. Singer's research is ahead of the curve, for sure.",
      "time": "2009-02-16T15:25:45",
      "id": "6305962",
      "parentPost": "Is this video from year 2006? Isn't it 2009?",
      "parentPostTime": "2009-02-14T15:40:55",
      "parentPostId": "6259980"
    }
  ],
  "profileInfo": {
    "username": "policyinnovations",
    "about": "Policy Innovations is the @carnegiecouncil magazine for social innovation and global ethics. Through weekly publication and multimedia, Policy Innovations explores new ideas for crafting a fairer global system that respects people, protects the planet, and promotes sustainable livelihoods. #socialinnovation",
    "name": "policyinnovations",
    "disable3rdPartyTrackers": false,
    "isPowerContributor": false,
    "isAnonymous": false,
    "rep": 1.256449,
    "profileUrl": "https://disqus.com/by/policyinnovations/",
    "url": "http://www.policyinnovations.org/",
    "reputation": 1.256449,
    "location": "New York, NY",
    "isPrivate": false,
    "signedUrl": "http://disq.us/?url=http%3A%2F%2Fwww.policyinnovations.org%2F&key=GiHwV97Flc2vVujWhQ_rpw",
    "isPrimary": true,
    "joinedAt": "2008-11-14T20:47:35",
    "id": "143997",
    "avatar": {
      "small": {
        "permalink": "https://disqus.com/api/users/avatars/policyinnovations.jpg",
        "cache": "//a.disquscdn.com/uploads/users/14/3997/avatar32.jpg?1281549414"
      },
      "isCustom": true,
      "permalink": "https://disqus.com/api/users/avatars/policyinnovations.jpg",
      "cache": "//a.disquscdn.com/uploads/users/14/3997/avatar92.jpg?1281549414",
      "large": {
        "permalink": "https://disqus.com/api/users/avatars/policyinnovations.jpg",
        "cache": "//a.disquscdn.com/uploads/users/14/3997/avatar92.jpg?1281549414"
      }
    }
  }
}