{
  "comments": [
    {
      "threadId": "408138550",
      "post": "Very succinctly explained Jeff. Thanks!\n\nIn the email marketing game, I am constantly dissuading customers from renting or purchasing email lists. Smaller, more targeted, in-house permission-based lists will always outperform mega-lists any day. \n\nMy Tribe \n(an impromptu for you)\n\nI want a tribe. I think I really do\n1000, 100? No thanks, just a few!\nActually, with none I'd really get relief\nI don't want any that would have me as their chief.\n",
      "time": "2011-09-12T08:26:53",
      "id": "307679915"
    },
    {
      "threadId": "398683678",
      "post": "The buzz is because this analysis confirms the prescience of US Senator Ted Stevens, who described the Internet as a \"series of tubes\" in 2006; by paraphrasing \nhis definition as \"an emerging Internet of Things\". \n\nThe report also includes a graph, which very clearly shows a \"series of tubes\" \nplaying a prominent role in the future of the Internet. See http://tiny.cc/xq66k",
      "time": "2011-08-29T16:52:43",
      "id": "297843608",
      "parentPost": "this sounds like a straight linear analysis. Why all the buzz?",
      "parentPostTime": "2011-08-29T13:17:28",
      "parentPostId": "297722570"
    },
    {
      "threadId": "301088929",
      "post": "Thanks, but all of these still fail to make things really clear for non-tech writers. For example, taking a quick look at these files, I am still uncertain about what application I would use to actually create my work. Does it matter? Can I write my book in Word and convert it easily to the right format? I suppose that's why some writers pay others to format their work for publication.\n",
      "time": "2011-05-25T23:02:17",
      "id": "211767381"
    },
    {
      "threadId": "306769818",
      "post": "Yes, of course we would. Using Twitter isn't being insincere. But, we are only being \"sincere\" when we say \"Hey, our company uses Twitter (as everyone knows businesses do) and that's what we're doing. We are a business and we are listening for opportunities here and all across the Internet to help people who are either interested in our products or need help with them.\" We aren't being sincere when we are trying to manipulate people behind their backs to maximize our benefit from them.\n\nIt's a rather simplistic deal: \n\nHey! I'm a sales guy for that company. Can I help? or Hey, I'm a support guy for that product. Can I help? \n\nWe're not trying to be something we're not -- we're not pretending we have a personal relationship with people we don't have one with. We're not over-analyzing our interaction with you. \n\nIn a physical analogy, we have sales people in the aisles of our shop who step up when someone is looking for help. Our sales people aren't standing behind the racks of clothes eavesdropping for opportune moments of engagement. That's creepy. \n\n...of course, the offer for help shouldn't come across as desperate, self-indulgent or creepy in any way. It should be normal and straightforward...no pressure, just wondering if I can help in any way. \n\nI think it's more about how (personality-wise) that we approach people and not so much about the specific timing of when we approach them. Are we really trying to help them with something, regardless of how it might benefit us or are we trying to persuade them to buy into something whether they need it or not?",
      "time": "2011-05-18T19:02:30",
      "id": "206297795",
      "parentPost": "But then, if we were being sincere and real, would we really be monitoring constantly for mentions? ",
      "parentPostTime": "2011-05-18T18:40:30",
      "parentPostId": "206272510"
    },
    {
      "threadId": "300036679",
      "post": "When front line employees are treated/paid like brand managers, perhaps they will start behaving like them. Historically, capitalist/corporatist culture in America expects so very much from the least of its brothers. Profit is built on the backs of the most willing and, often, least paid. \n\n\nRather than thinking about how much more we can get from our front line -- or, how much more our front line people can do for us to improve our brand; perhaps we should be thinking, \"what more can we do for our front line people?\" This shift in approach will more likely create naturally willing and enthusiastic brand advocates on the front line.\n",
      "time": "2011-05-11T16:44:12",
      "id": "201507084"
    },
    {
      "threadId": "276830997",
      "post": "Hi Amanda. Not sure if you got my earlier reply on Twitter, but the phones seem to be working fine today. Our US office hours are 9-5 Pacific Time. If you continue to have problems, please email me at oleary@infacta.com so I can check into it further. Thanks!",
      "time": "2011-04-11T19:56:13",
      "id": "182683877"
    },
    {
      "threadId": "65640998",
      "post": "I suppose that the value of the business plan is to get people to think about all of those elements of a business and how they link together. In that sense, a plan will always be beneficial. Couldn't agree more though that the  \"plan\" needs to evolve to a shorter, more easily digestible, scalable and adaptable format -- like widgets that can be connected to tell the right story to the right people.",
      "time": "2010-02-10T07:28:46",
      "id": "33370224"
    },
    {
      "threadId": "31663840",
      "post": "Congratulations Michelle and Derek! Great work and well deserved recognition. ",
      "time": "2009-08-28T19:10:13",
      "id": "15539412"
    },
    {
      "threadId": "192813",
      "post": "Ok, I'll say it. Ass.",
      "time": "2008-02-15T06:20:35",
      "id": "151270"
    },
    {
      "threadId": "171446",
      "post": "I agree about wasteful government spending. But I don't mind government spending that is well spent. Having just returned from living in Ireland for the past 7 years, my tax dollars provided free medical and dental care, and free college (excellent academic quality). Nobody really minds paying taxes in Ireland because you actually get stuff for it - practical stuff that makes living easier. At the same time, the private sector is fueled (Celtic Tiger anyone?) by low corporate tax rates and grants for innovation and small business growth that creates jobs in communities. The balance between responsible government spending and a healthy, capitalist private business environment is possible and a reality in some parts of the world, like Ireland.\r\n\r\nOne of the points about public health care that many people don't realize because they never experienced it is that in a public health culture like Ireland, everyone is covered and there aren't long waits. I actually wait longer here in the States (with expensive private insurance coverage) for routine appointments than I did in Ireland with Public health care. And the care is comparable, if not a bit more personal in Ireland. Our first two daughters were born in Ireland and it didn't cost us one penny. As a matter of fact, we were given 80 euro each after we checked out of the maternity ward (5 days allowed in the ward rather than 24 hours here in the States). For every child you have in Ireland, you are given 150 euro per month until they are 18 years old. Children are not considered a burden by the Irish government. They are invested in and taken care of. \r\n\r\nAlso, many people don't realize that , in countries like Ireland, people can carry private insurance coverage on top of the public health care provided to ensure prompt treatment for certain conditions, private rooms, etc.. But those who can't afford private coverage are taken care of very well without stressing about how they are going to pay for it. Tax money in cultures like Ireland are fed back to tax payers in practical, meaningful ways by providing good, quality services for all residents. \r\n\r\nWe can only hope that such a balance will be found here.",
      "time": "2008-02-10T23:10:35",
      "id": "139094",
      "parentPost": "Actually I think it's 300 billion and you are right, the money spent on IRAQ should not be spent there.  But hey what's another 25 billion when the masses are giving freely at the trough asking for more?  There is govt waste, and programs that should never be part of the government to begin with.  ",
      "parentPostTime": "2008-02-08T11:50:07",
      "parentPostId": "134279"
    },
    {
      "threadId": "173547",
      "post": "For better or for worse, after all of the 'confusion' about our reasons for occupying Iraq, it doesn't surprise me that more people do become suspicious about government activity in general today, both at home and abroad. ",
      "time": "2008-02-07T03:13:33",
      "id": "130942"
    },
    {
      "threadId": "2440739",
      "post": "I suppose that the most hyper-local subset is the individual. If individuals tag all of their participation online with a zip code, it would be easy to aggregate it all. Of course, then we'd have a lot of noise that would require filters for each reader (not a big deal). If there was a mechanism for anyone publishing information online to add a zip code to every photo, blog post, blog comment, article, review - then they could be aggregated quite easily by zip. To be most effective, individuals should be able to tag content published by other sources in the same way. For example, if I come across a restaurant review on tripadvisor for Bellingham, Washington (where I live), I should be able to tag it with a zip for Bellingham while I'm reading it (perhaps a right-click, Add Zip function). That way, active hyper-local participants could add content to the mix that others contribute - others who aren't aware about the need to tag content for aggregation. \r\n\r\nIn this sense, every post, photo, comment, review, notice would be published like an AP wire: (98225: Comment or 98225: Photo)",
      "time": "2008-01-24T17:49:37",
      "id": "98924"
    },
    {
      "threadId": "115054",
      "post": "It's all subjective. Puritans think that anyone who drinks is doing something wrong. Who's moral compass should we run with? It's not that big a deal. A ban was the consequence. Fair enough. Sorted now. Get over it. \r\n\r\nRemember the prank when you'd stop to give your  buddy a ride and then pull off when he opened the door of the car? Then you'd stop again a bit further up to let him in, only to pull off again. The next time, you'd say, \"ok, ok, c'mon, get in\" only to pull off again. The more you did it the funnier it was. \r\n\r\nWell, I remember one guy who thought that this prank (when done to him) was horrific and would hold a grudge against the prankster for weeks. Once, he fell out completely with one of his friends as a result. \r\n\r\nThe moral: Humor is subjective. \r\n\r\nSome people take events like CES seriously. Others like to make fun of them. But jaysus, it's not like computer equipment was damaged or the event had to be canceled. There were some temporary 'glitches' caused by geek pranksters. Geeks are funny like that. Sometimes when you mix young geeks with stuffy shirts on the corporate playground, it will end in tears. C'est la vie.\r\n\r\n ",
      "time": "2008-01-14T22:18:01",
      "id": "77462"
    }
  ],
  "profileInfo": {
    "username": "tomoleary",
    "about": "A vegetarian VP of sales and marketing and brand ambassador for GroupMail.",
    "name": "Tom O'Leary",
    "disable3rdPartyTrackers": false,
    "isPowerContributor": false,
    "isAnonymous": false,
    "rep": 1.258236,
    "profileUrl": "https://disqus.com/by/tomoleary/",
    "url": "http://about.me/tomoleary",
    "reputation": 1.258236,
    "location": "Bellingham, Washington",
    "isPrivate": false,
    "signedUrl": "http://disq.us/?url=http%3A%2F%2Fabout.me%2Ftomoleary&key=q1jqFeC1bfE7XalVmfa18A",
    "isPrimary": true,
    "joinedAt": "2008-02-07T18:30:23",
    "id": "9835",
    "avatar": {
      "small": {
        "permalink": "https://disqus.com/api/users/avatars/tomoleary.jpg",
        "cache": "//a.disquscdn.com/uploads/users/9835/avatar32.jpg?1320868921"
      },
      "isCustom": true,
      "permalink": "https://disqus.com/api/users/avatars/tomoleary.jpg",
      "cache": "//a.disquscdn.com/uploads/users/9835/avatar92.jpg?1320868921",
      "large": {
        "permalink": "https://disqus.com/api/users/avatars/tomoleary.jpg",
        "cache": "//a.disquscdn.com/uploads/users/9835/avatar92.jpg?1320868921"
      }
    }
  }
}