{
  "comments": [
    {
      "threadId": "2176690528",
      "post": "This needs better copy editing.. \n\n\"At this time of year ,spring bulbs\" and \"a hybridof a\".\n\nAlso the restaurant wasn't actually reviewed, how do we know whether the flowers are actually as good as the food? Very misleading!",
      "time": "2014-01-27T16:39:20",
      "id": "1218877070"
    },
    {
      "threadId": "442578302",
      "post": "I interpret it differently - he uses 'can be finished in' and not 'finished in'. I didn't interpret it to mean the whole game and everything can be finished in that time. ",
      "time": "2011-10-14T02:30:37",
      "id": "334326869"
    },
    {
      "threadId": "438231366",
      "post": "Welcome back.",
      "time": "2011-10-10T14:38:01",
      "id": "330942873"
    },
    {
      "threadId": "100809854",
      "post": "Thing is I really like the song, but I wish there was more to it. It's too catchy for just one sentence. \n\nAlso I really miss Lost. :(",
      "time": "2010-05-27T19:04:07",
      "id": "52448129",
      "parentPost": "I never realized that the lyrics are literally nothing more than \"You all everybody\" and \"Look at all the stupid people wearing expensive clothes\".",
      "parentPostTime": "2010-05-27T18:23:39",
      "parentPostId": "52442531"
    },
    {
      "threadId": "73355444",
      "post": "Loved the demo and this was a nice write up! \n\nMy housemate and me have been taking the piss out of Bolo Santosi, because we've seen that bloody into far too many times!",
      "time": "2010-03-07T17:00:06",
      "id": "38433815"
    },
    {
      "threadId": "67876852",
      "post": "US only. *sigh*",
      "time": "2010-02-18T18:15:27",
      "id": "35041115"
    },
    {
      "threadId": "67718234",
      "post": "Those toy Darwinians are cute!",
      "time": "2010-02-17T19:01:17",
      "id": "34893455"
    },
    {
      "threadId": "67724667",
      "post": "I actually have three of those. Shame about Paperboy, great game that is. ",
      "time": "2010-02-17T19:00:51",
      "id": "34893400"
    },
    {
      "threadId": "62855339",
      "post": "So jealous of wargamer!! \n\nCongrats all!",
      "time": "2010-02-04T22:38:37",
      "id": "32653841"
    },
    {
      "threadId": "63966741",
      "post": "Ah yes, Donski already explained this via Twitter earlier, I just thought it was odd!\n\nAnyways, I've listened to it and it's pretty good. Maybe a bit too aimless at times and there were quite a few sound corruptions. \n\nBut good work overall! :)",
      "time": "2010-02-04T20:21:37",
      "id": "32632239",
      "parentPost": "yea, that's when it was originally recorded. but this specific episode seemed like just it didn't want to come out. First was the issue with having to RE-record the episode, then I think Shane had some problems retrieving our parts of the show & then couldn't upload it due to a poor internet connection while he was on winter break. And then these issues with the Podpress plugin... not fun. But oh well. We'll see what happens with Ep 7.",
      "parentPostTime": "2010-02-04T17:12:56",
      "parentPostId": "32613068"
    },
    {
      "threadId": "63632267",
      "post": "I think it would make an awesome film series if it ISN'T based on the games. The games are too open ended with too many choices and it can't be transferred into films. <br><br>Mass Effect works because of the extra material. There are the books and now the comics. I'd love to watch a film based on the first book for example. Or perhaps when humanity first discovered the Prothean leftovers on Mars. Or events that occur on the sidelines of the main Mass Effect story. <br><br>The universe created by BioWare is awesome and I would love for more people to experience it.\n\n",
      "time": "2010-02-03T02:52:28",
      "id": "32443601"
    },
    {
      "threadId": "61449858",
      "post": "Oh look, it's a comment!\n\nAlso, I'll be getting this even though Forli was my least favourite region and I was glad so few missions happened there. However, the whole game was far too good to pass up DLC!",
      "time": "2010-01-26T00:56:57",
      "id": "31322849"
    },
    {
      "threadId": "29201333",
      "post": "Retweeted, albeit slightly different. \r\n\r\nYou might wanna include a link back to this post in your suggested tweet in the post. Just sayin'. :)",
      "time": "2009-08-12T01:05:13",
      "id": "14689228"
    },
    {
      "threadId": "28417571",
      "post": "Playfire needs some better PR as the site isn't actually all that bad. \r\n\r\nOut of all of those I've got accounts on Raptr and GamerDNA and have to say that I most definitely prefer GamerDNA and not just because it's merged with 360Voice.com. ",
      "time": "2009-08-06T23:46:12",
      "id": "14401993"
    },
    {
      "threadId": "28479589",
      "post": "I follow 600 properly and engage in the conversations. I tend to read every tweet posted, too. \r\n\r\nIt's just a matter of slowly scaling up rather than going on following sprees. \r\n",
      "time": "2009-08-06T10:54:48",
      "id": "14333698",
      "parentPost": "Leonid, when you say you follow 1600 people easily, can you define \"easily\", please?  What tips, tools and techniques have you for engaging in dialogue with that many people?  Many others say following 50 is enough;  I follow 300 and don't have the time to engage properly in their discussions.  How do you cope?",
      "parentPostTime": "2009-08-06T10:24:46",
      "parentPostId": "14299578"
    },
    {
      "threadId": "22989838",
      "post": "Woohoo!!\r\n\r\nThis better have co op which was awesome on the second one. ",
      "time": "2009-06-25T15:43:17",
      "id": "11727494"
    },
    {
      "threadId": "20160008",
      "post": "Trailer looks so much more fun than the first game! Love it!",
      "time": "2009-06-02T16:23:13",
      "id": "10389754"
    },
    {
      "threadId": "16274387",
      "post": "Yeah, I guess the taste's more important! \r\n\r\nI often make milkshakes and they sometimes look horrible when i have a lot of fruit or something in there. ",
      "time": "2009-04-21T06:49:21",
      "id": "8479333",
      "parentPost": "Admittedly, it does look a little strange, here. I'd never seen one in a clear cup before. I'm not so much posting it for the look, so much as for what I know it would taste like. They're wonderfully refreshing, in the warmer weather. I'd still drink them in winter, though. :)",
      "parentPostTime": "2009-04-21T06:43:26",
      "parentPostId": "8479275"
    },
    {
      "threadId": "15597297",
      "post": "Have you watched the extended versions? Nothing's better than them!",
      "time": "2009-04-12T10:28:48",
      "id": "8093769"
    },
    {
      "threadId": "14042156",
      "post": "Yep, same here. Sans the man part, facial hair and the Spongebob snacks. I've got yoghurt though..",
      "time": "2009-03-20T21:01:42",
      "id": "7383801"
    },
    {
      "threadId": "13925835",
      "post": "Green grass. \r\nDaffodils. \r\nThis image: http://intertwingled.net/images/running_kitten.jpg\r\nThis song: http://www.last.fm/music/Edvard+Grieg/_/Morning\r\nBeergardens. \r\nSun. \r\nEarly morning dew on leaves. \r\nShort sleeved clothes. \r\n",
      "time": "2009-03-18T18:03:18",
      "id": "7320602"
    },
    {
      "threadId": "13693200",
      "post": "Something's very wrong with the order of comments here..",
      "time": "2009-03-16T16:48:36",
      "id": "7258231"
    },
    {
      "threadId": "13273789",
      "post": "http://www.winamp.com/\r\n\r\nI could not live without it. Imagine how much better FF is to IE. Or sleep to running through the rain for hours. Etc. ;)",
      "time": "2009-03-08T21:30:26",
      "id": "6999481"
    },
    {
      "threadId": "13158602",
      "post": "I kinda liked the second one for Spike and Sid, but overall the first one was brilliant. I loved the special moves. ",
      "time": "2009-03-08T03:06:47",
      "id": "6986116",
      "parentPost": "The first Buffy game was much better than the second.  The voice actress for Willow in Chaos Bleeds (it's not Alyson Hannigan) makes my ears bleed while I cringe in the corner crying :/\r\n\r\nI also didn't like jumping from character to character.\r\n\r\nAs much as I loved Faith, it wasn't enough to raise the game from the trash can (imo).  They should have released a game strictly focused around her character... I'd have bought two copies, lol.",
      "parentPostTime": "2009-03-07T13:37:19",
      "parentPostId": "6976938"
    },
    {
      "threadId": "13228111",
      "post": "Somehow wish I hadn't seen this post on my Dashboard as I spent/wasted about an hour looking up my stats and adding more things to it! ;)",
      "time": "2009-03-08T03:04:55",
      "id": "6986091"
    },
    {
      "threadId": "12377393",
      "post": "So basically once you cash those checks there'll be a party? ;)",
      "time": "2009-02-23T12:00:57",
      "id": "6495361"
    },
    {
      "threadId": "12259982",
      "post": "I guess I'm glad I'm not a super nerd then!",
      "time": "2009-02-21T11:15:34",
      "id": "6464222",
      "parentPost": "<i>Also, I’ve never come across KISS.</i>\r\nI have. It's only the super nerds who use it. Geeks are cool, they don't use stupid stuff like this! :P",
      "parentPostTime": "2009-02-21T05:00:01",
      "parentPostId": "6449482"
    },
    {
      "threadId": "12204909",
      "post": "Nice to see you like it! :)",
      "time": "2009-02-20T14:15:29",
      "id": "6429950",
      "parentPost": "That has me grinning from ear to ear, because it's so true. Bravo!",
      "parentPostTime": "2009-02-20T11:44:10",
      "parentPostId": "6428033"
    },
    {
      "threadId": "12085774",
      "post": "It took me a while to realise how easy it'd be doing it this way. I think this is the fith attempt of merging all into one place. \r\n\r\nSaying that have you tried chi.mp? It somehow takes things from everywhere too. I've got a spare beta code if you need/want one. ",
      "time": "2009-02-18T23:12:24",
      "id": "6386007",
      "parentPost": "Not a problem! Nice way you have that set up, I didn't think of that back when I was trying to get it all to place nice.\r\n=)",
      "parentPostTime": "2009-02-18T22:54:41",
      "parentPostId": "6385432"
    },
    {
      "threadId": "10446425",
      "post": "You keep telling yourself that! ;)\r\n",
      "time": "2009-01-27T10:26:31",
      "id": "5572648",
      "parentPost": "<i>This is just here in case he ever claims he never said it.</i>\r\n*cough* You don't trust me? :P Plus I am confident I can beat you. YES I CAN! :P",
      "parentPostTime": "2009-01-24T05:26:52",
      "parentPostId": "5510711"
    },
    {
      "threadId": "10585405",
      "post": "Yeah, it's extremely random when/if it does. \r\n\r\nI don't like all of tumblr either..",
      "time": "2009-01-27T10:26:13",
      "id": "5572643",
      "parentPost": "You SEE why I don't like tumblr? This hasn't shown up on Incoming Links!",
      "parentPostTime": "2009-01-27T02:50:03",
      "parentPostId": "5566892"
    },
    {
      "threadId": "10423326",
      "post": "Well, it's going to be in gaming. I recon he'll pick AoE which I've never played. The problem is he's got not Xbox/360 so some of my games can't be played!",
      "time": "2009-01-23T20:04:03",
      "id": "5499580"
    },
    {
      "threadId": "10109981",
      "post": "Sounds like a really shit night. :(",
      "time": "2009-01-19T20:26:35",
      "id": "5370485"
    },
    {
      "threadId": "9712882",
      "post": "Hehe, I don't mind the purple, my MC was always in a mix of crimson and purple. Just surprised that that's a prominent colour for the toys aimed at men! ;)\r\n\r\nAnd look at Fenix's boots, they're the size of MC's head!!",
      "time": "2009-01-11T00:44:14",
      "id": "5050022",
      "parentPost": "Lol.  I think that they needed to pretty the lancer up so instead of using red for the blood, they used a purple color.  I won’t talk bad about my Master Chief though :P",
      "parentPostTime": "2009-01-11T00:36:35",
      "parentPostId": "5049946"
    },
    {
      "threadId": "9567025",
      "post": "Do you have just real life friends on Twitter? \r\nDo you just follow celebrities?\r\nDo you just follow news sites?\r\n\r\nIt's a no to all the above, so no, not you!",
      "time": "2009-01-09T10:49:30",
      "id": "5009680",
      "parentPost": "*cough*me*cough*",
      "parentPostTime": "2009-01-09T06:57:28",
      "parentPostId": "5004955"
    },
    {
      "threadId": "9253592",
      "post": "I love comments like that, gutted I didn't get any on my post about this. :(",
      "time": "2009-01-04T01:20:26",
      "id": "4873001",
      "parentPost": "No.  Look where \"acting civilized\" got us on 9/11.  It is the Muslim nationals who came to our country and proudly portray themselves as American-Haters.  We did not do this to them.  We did not go to their country and hijack their planes in the name of religion.  The education needs to come from their country of origin due to their behavior in our country.  Why must our president (s) fix Muslim's problems?  Should not the Muslim leaders and governmental figures do this?  Of course we question foreign speaking Muslims on our air planes discussing airline safety!  You would have to be ignorant and naive not to be cautious and protective.  This is no one's fault but the Muslim community's fault.  And, yes, we must group them all together--that is the choice made by the Muslims.  I do not see Muslims coming out to disassociate themselves from the extremists within their culture and religion.  Blaming Americans for feeling threatened is what I call ignorant.  Looking to our president (s) to solve Muslim's problems is ludicrous and something as an American I do not wish for our president to waste his time on.  Muslims come to our country because it is the best there is; how dare they come here and expect Americans not to be suspicious of them now!  They must be uneducated to think otherwise.  I applaud AirTran for keeping Americans safe, for their diligence and for not cowtowing to so-called foreign-stereotyping--the Muslims stereotyped themselves--take your civilized ideas to THEM--they are the ones with \"disgusting\" behaviors who paved the path for all the other Muslims, not us.  We have a right to be safe in our country--the rights of Americans should come before the feelings of a Muslim family who left their homeland to live here. ",
      "parentPostTime": "2009-01-02T16:46:44",
      "parentPostId": "4830785"
    },
    {
      "threadId": "9003345",
      "post": "The Thomas Crown Affaire. ",
      "time": "2008-12-29T03:00:09",
      "id": "4704266"
    },
    {
      "threadId": "8745568",
      "post": "Spaz is pretty awesome, too. \r\n\r\nhttp://funkatron.com/spaz\r\n\r\n\r\n",
      "time": "2008-12-22T22:19:31",
      "id": "4578050"
    },
    {
      "threadId": "8369289",
      "post": "A new haircut can be amazing in that way. How does it look like now?",
      "time": "2008-12-14T15:56:44",
      "id": "4397557"
    },
    {
      "threadId": "8329123",
      "post": "You're welcome, I thought it's quite good. :)",
      "time": "2008-12-13T18:58:13",
      "id": "4389144",
      "parentPost": "Thanks for reblogging this. Glad you like it :)",
      "parentPostTime": "2008-12-13T18:38:20",
      "parentPostId": "4388936"
    },
    {
      "threadId": "8315968",
      "post": "Well, there were some people that hadnt followed me yet, so I thought I'd post this! Nowt wrong with that. ;)",
      "time": "2008-12-13T12:09:53",
      "id": "4385906",
      "parentPost": "I do :D This is shameless advertising! haha.",
      "parentPostTime": "2008-12-13T01:33:06",
      "parentPostId": "4380853"
    },
    {
      "threadId": "8029186",
      "post": "I've sent you an email about it. Feel free to ask more questions if you have them! I'll be glad to answer them!\r\n\r\n",
      "time": "2008-12-08T01:54:06",
      "id": "4240753",
      "parentPost": "The use of wood amazes me! The architecture varies so much, depending upon the country. Is this architecture typical of Germany? Sorry for asking so many questions!\r\n\r\nYes, there is nothing revealing- except anyone who has a secret crush on you must be loving this tumblelog ;) You know what I mean? That's what I like about Tumblr- I can post anything personal without feeling uncomfortable. ",
      "parentPostTime": "2008-12-07T18:00:01",
      "parentPostId": "4236701"
    },
    {
      "threadId": "7910226",
      "post": "Thank you very much! I like cute! :D",
      "time": "2008-12-07T00:15:12",
      "id": "4229152",
      "parentPost": "Cat, I think you sound quite British! A lil Australian too...weirdly. Haha. But a really cute voice. ",
      "parentPostTime": "2008-12-06T23:51:24",
      "parentPostId": "4228913"
    },
    {
      "threadId": "8027196",
      "post": "Well, it's more in the centre of the house to warm up the entire place. \r\n\r\nHang on, I'll post a video I did last year of the house, even though a lot has changed since then. ",
      "time": "2008-12-07T00:14:33",
      "id": "4229143",
      "parentPost": "I wish I had a fireplace here. The coziest corner in the entire house, I'm sure.",
      "parentPostTime": "2008-12-06T23:52:01",
      "parentPostId": "4228922"
    },
    {
      "threadId": "8028249",
      "post": "Eurogamer's RSS feed has been messing up for days, albeit not to this extent so far! No big deal, I just marked it all as read. \r\n\r\nI just thought the 'Take it easy' describing the game was ironic considering the RSS was duplicated so many times!",
      "time": "2008-12-06T23:53:33",
      "id": "4228936",
      "parentPost": "whoa! what is this? Thank god I dont use an RSS reader anymore. :P",
      "parentPostTime": "2008-12-06T23:48:34",
      "parentPostId": "4228888"
    },
    {
      "threadId": "7835374",
      "post": "I'm still thinking it's more scary than anything, but thanks. :)",
      "time": "2008-12-04T07:50:28",
      "id": "4162720",
      "parentPost": "Awww :) That's so cute! Thanks for sharing.",
      "parentPostTime": "2008-12-02T23:21:00",
      "parentPostId": "4136490"
    },
    {
      "threadId": "7764844",
      "post": "Why thank you, Carlito. ",
      "time": "2008-12-01T21:54:38",
      "id": "4092441",
      "parentPost": "Oh shit i used a stupid ps3forum smilie...",
      "parentPostTime": "2008-12-01T19:58:13",
      "parentPostId": "4087198"
    },
    {
      "threadId": "7743202",
      "post": "Yep, four hours is normally good for me. ",
      "time": "2008-12-01T16:00:26",
      "id": "4083652",
      "parentPost": "You make do with 4 hours? I can't be satisfied with 8! :P Have fun kitty and no, nothing's wrong with the title. :)",
      "parentPostTime": "2008-12-01T04:09:33",
      "parentPostId": "4078991"
    },
    {
      "threadId": "7718375",
      "post": "You know I think I might have to limit you to one sensible thing a day or a week! \r\n\r\nI do know what you mean and I agree, but I think it's much more the family that's tiring. There are many reasons I've avoided them for the past five ish years with less than one visit a year!",
      "time": "2008-11-30T12:32:37",
      "id": "4069293",
      "parentPost": "I think this real life social interaction will do you good :) You have to adapt somewhat, and you will. It's important that you don't lose the ability to communicate and interact socially with people in real-life as well as you do with your friends on the net.",
      "parentPostTime": "2008-11-30T10:15:08",
      "parentPostId": "4068279"
    },
    {
      "threadId": "7532687",
      "post": "Yep, pretty much!! \r\n\r\nNothing woring with difference in opinion thoguh!",
      "time": "2008-11-26T12:13:57",
      "id": "4022399",
      "parentPost": "Oh yes I liked DiRT, amazing graphics. Didn't play it for long as am not a big fan of rally type racers. (They skid a lot =P)\r\nAnd you don't like \"realistic-racers\" hmmm.. looks like we are on diagonal ends of the field =D",
      "parentPostTime": "2008-11-26T11:41:51",
      "parentPostId": "4022229"
    },
    {
      "threadId": "7521268",
      "post": "I see what you mean and I agree to an extent which is why I'm keeping my currently not so active wp.com blog, but tumblr suits me better for the posts I've got at the moment which are just quotes and links. \r\n\r\nBut I didn't think tumblr is that difficult to set up? Yes, I know I'm tech savvy, but following the disqus instrucitions or copying/pasting a theme or use a default one and change the colour is simple?",
      "time": "2008-11-26T11:27:59",
      "id": "4022155",
      "parentPost": "It's dead easy to start a Tumblr, and if I were teaching blogging to OCD sufferers who also had violent tendencies, I'd definitely use this. For one thing, unless you're QUITE savvy, you can't personalize it much. For another, nobody will ever even FIND you, much less be able to let you know what they think of the blog.\r\n\r\nThat's surmountable if you're technically sophisticated, but seriously, why build the world's easiest blogging platform only to make connecting with people outside it difficult? It looks and functions like a gated community of hipsters.",
      "parentPostTime": "2008-11-25T02:21:18",
      "parentPostId": "3997974"
    },
    {
      "threadId": "6971460",
      "post": "It must be something like that, normally my dashboard is so full of stuff I've given up looking through it most of this week. ",
      "time": "2008-11-13T01:51:48",
      "id": "3725856",
      "parentPost": "well my page count is minus karishma's posts :) I don't follow her. I think toperchris or someone else noticed a reduction in page count too. I think Tumblr's screwed up today. ",
      "parentPostTime": "2008-11-13T01:43:01",
      "parentPostId": "3725759"
    },
    {
      "threadId": "6744398",
      "post": "Glad you liked it! And so do I!\r\n\r\n\r\n[Now why did Disqus never tell me I had a comment? *sigh*]",
      "time": "2008-11-12T14:56:43",
      "id": "3702725",
      "parentPost": "that is great. i love the t-shirts, too.",
      "parentPostTime": "2008-11-08T02:57:39",
      "parentPostId": "3611650"
    },
    {
      "threadId": "6593777",
      "post": "Thanks. I loved the clouds. \r\n\r\nI'm currently in Torremolinos, Playa de Bajondillo which isn't actually as touristy as I remembered it, but then again it's off season now. \r\n\r\nGoing to Malaga tomorrow I think and possibly Gibraltar on Wednesday. Not having a driver's license complicates things a little! ",
      "time": "2008-11-03T23:34:33",
      "id": "3463791",
      "parentPost": "I know that view well but it's a great shot! Where are you now, exactly?",
      "parentPostTime": "2008-11-03T23:19:15",
      "parentPostId": "3463566"
    },
    {
      "threadId": "6300321",
      "post": "I feared the worst when I saw Friday's comic, but it's great to see you're not throwing the towel with your drawing. Looking forward to seeing more stuff. \r\n\r\nGood Luck. ",
      "time": "2008-10-27T16:07:18",
      "id": "3325637"
    },
    {
      "threadId": "5953211",
      "post": "Take it from experience, you will need a LOT of patience every time you'll visit home as everything will be like before with your added knowledge what freedom is like!",
      "time": "2008-10-18T15:31:44",
      "id": "3145168",
      "parentPost": "That was followed by closely \"God physics\". I sometimes wonder why did I chose chemistry. I'm insane.\r\n\r\nI like Bristol and living away from home gives me the freedom to come and go as I please anytime of the day. I also feel more independent. Heaven, not quite sure how close it is to that. Heaven as in freedom yep.",
      "parentPostTime": "2008-10-18T15:24:16",
      "parentPostId": "3145104"
    },
    {
      "threadId": "5953118",
      "post": "Yes. \r\nWrong. Sadly. ",
      "time": "2008-10-18T13:03:57",
      "id": "3144006",
      "parentPost": "Me thinks it's a pregnancy test. I'm going with the conclusion no one is pregnant?",
      "parentPostTime": "2008-10-18T12:52:16",
      "parentPostId": "3143703"
    },
    {
      "threadId": "5823964",
      "post": "Yeah, but I tend to ignore the shops at this time as well. ;)",
      "time": "2008-10-15T22:52:48",
      "id": "3077939",
      "parentPost": "OMG! It's never too early for \"Winter Wonderland\" :P (As proven by the shops)",
      "parentPostTime": "2008-10-15T20:55:56",
      "parentPostId": "3076121"
    },
    {
      "threadId": "5467471",
      "post": "For what it's worth, Twitter finally replied to one of my threads from four days ago with a non solution. ",
      "time": "2008-10-08T06:56:15",
      "id": "2932809"
    },
    {
      "threadId": "5166989",
      "post": "Midsomer Murders mainly classical music from the TV show. \r\nLudovico Einaudi - I don't really have any recommendations, although he's great. \r\nMichael Giacchino - He did the OST for Lost, also classical music. \r\nAnd Oasis' early stuff is brilliant. ",
      "time": "2008-10-07T20:30:02",
      "id": "2923333",
      "parentPost": "Muse... um ok.\r\nMidsomer Murders - Check's temperature.\r\nLudovico guy - You need to write a nice post on classical music with recommendations for souls like me.\r\nMichael Chinaman - Who is he?\r\nOasis - F*cking OASIS?!!! ",
      "parentPostTime": "2008-09-30T04:33:28",
      "parentPostId": "2744994"
    },
    {
      "threadId": "5066610",
      "post": "Only one for clothes? That's fairly impressive! \r\n\r\nHow is uni so far then? Better or worse than expected? ;)",
      "time": "2008-10-01T09:31:29",
      "id": "2773911",
      "parentPost": "It starts on Monday, but for people living out of halls, we have to move in\r\nby today. My entire life is packed into 12 boxes and numerous bags. (I'm\r\nquite pleased. One suitcase for clothing).\r\n\r\n2008/9/27 Disqus <>",
      "parentPostTime": "2008-09-27T09:42:08",
      "parentPostId": "2655752"
    },
    {
      "threadId": "4704617",
      "post": "I can only recommend NatWest, they're great and I've been with them for over four years. I do recommend dealing with most stuff in the branch and not via their phone support though. \r\n\r\nWhat do you think of Kathy Reichs?",
      "time": "2008-09-18T02:11:33",
      "id": "2411617"
    },
    {
      "threadId": "4424072",
      "post": "I did get your email and the email reference in this post was that I still have to reply to your email which I've since done. \r\n\r\nI've just renewed the domain mapping for my wp.com blog, but I don't see how I'll have time to post much on there really. Although I'm thinking of making weekly posts out of stuff I post here on tumblr or something. ",
      "time": "2008-09-11T15:29:07",
      "id": "2285420",
      "parentPost": "Yeah, I emailed you the code for displaying those tumblelogs in the sidebar. :) I guess you didn't check your email. And tumblr is so much better when we don't have time. Writing a full post at WP takes a lot of time and energy- and I just dont have the time for that right now. I do miss WP a lot though :(",
      "parentPostTime": "2008-09-11T15:19:46",
      "parentPostId": "2285290"
    },
    {
      "threadId": "1443746",
      "post": "Nope, although that would explain loads.. ",
      "time": "2008-07-03T14:18:20",
      "id": "806677",
      "parentPost": "Are you sure they haven't locked you two in adjoining rooms at Arkham? :P",
      "parentPostTime": "2008-06-28T09:03:04",
      "parentPostId": "768670"
    },
    {
      "threadId": "1371093",
      "post": "Been listening to LOADS of Muse though for the first time ever. ",
      "time": "2008-06-23T17:28:05",
      "id": "731687"
    },
    {
      "threadId": "844482",
      "post": "Awesome. I love it. ",
      "time": "2008-05-31T22:05:56",
      "id": "564587"
    },
    {
      "threadId": "824048",
      "post": "Me, me, me, pick me! \r\n\r\n\r\n\r\n\r\nBut I'm in germany..",
      "time": "2008-05-25T19:06:14",
      "id": "527878"
    },
    {
      "threadId": "801962",
      "post": "http://blog.disqus.net/2008/05/22/disappearing-comments-on-tumblr-blogs/",
      "time": "2008-05-23T09:09:08",
      "id": "516179"
    },
    {
      "threadId": "795184",
      "post": "YEah, maybe. \r\n\r\nI'm currently trying to motivate myself to write a blog post about it all, but Im thinking it'll have to wait til tomorrow. I've been on automatic mode for the last 2 hours meaning I should probs go to bed!",
      "time": "2008-05-22T23:59:53",
      "id": "514296",
      "parentPost": "Congrats! True. It's going to be a big culture shock. My dad has been dealing with Japanese clients for the past few years, if you want I can ask him some things about Japan that he might know?",
      "parentPostTime": "2008-05-22T20:26:17",
      "parentPostId": "512890"
    },
    {
      "threadId": "796498",
      "post": "I literally just noticed that on my blog and then came here to see what's broken. Coincidently I didn't notice they changed they permalink!\r\n\r\nThanks a lot for the quick work guys, I really appreciate it and just wanted to say I love Disqus. :)\r\n\r\n*Patiently awaits her blog comments to fix themselves* Hey, guess this means I don't have the pressure of having to reply to the comments and can actually watch a film!",
      "time": "2008-05-22T23:58:43",
      "id": "514292"
    },
    {
      "threadId": "789530",
      "post": "You need to read them in order. That was imported from Twitter: \r\n\r\nI want to watch Indiana Jones. Been waiting for years. And I can't find any place here that shows an undubbed version.\r\n\r\nDubbing annoys me greatly and I don't understand how I've ever been able to watch stuff dubbed. Meh!\r\n\r\nOh, but there's a turkish version in the next town. WTF.\r\n\r\nMakes sense now?",
      "time": "2008-05-22T09:53:03",
      "id": "508946",
      "parentPost": "Huh?!",
      "parentPostTime": "2008-05-22T08:36:03",
      "parentPostId": "508837"
    },
    {
      "threadId": "785796",
      "post": "Well, there are two new posts today..",
      "time": "2008-05-22T09:51:25",
      "id": "508942",
      "parentPost": "LOL. Now only if he strung all these little bits of wisdom and made a post, he'd be femes!",
      "parentPostTime": "2008-05-22T04:35:57",
      "parentPostId": "508310"
    },
    {
      "threadId": "778033",
      "post": "Nope, go away. Shoo... ",
      "time": "2008-05-22T09:50:24",
      "id": "508938",
      "parentPost": "You two gonna consider a new thread? This one's getting squishy. :P",
      "parentPostTime": "2008-05-22T04:48:02",
      "parentPostId": "508352"
    },
    {
      "threadId": "782270",
      "post": "Yeah. So I can make plans either way, you know?",
      "time": "2008-05-21T20:26:55",
      "id": "505633",
      "parentPost": "I know. You just want a yes or no and not to be stuck in limbo?",
      "parentPostTime": "2008-05-21T19:45:07",
      "parentPostId": "505324"
    },
    {
      "threadId": "783214",
      "post": "There's a reason I dropped maths at school!",
      "time": "2008-05-21T18:45:37",
      "id": "504885"
    },
    {
      "threadId": "780418",
      "post": "Please tell me you didn't write that or something like it! ;)",
      "time": "2008-05-21T18:09:07",
      "id": "504630",
      "parentPost": "First maths exam over! 5 more to go!!!!!!!!!",
      "parentPostTime": "2008-05-21T17:51:27",
      "parentPostId": "504470"
    },
    {
      "threadId": "778026",
      "post": "I was gonna combine it and write the plot, but there's too much: http://en.wikipedia.org/wiki/Nineteen_Eighty-Four",
      "time": "2008-05-21T18:03:36",
      "id": "504575",
      "parentPost": "I remember reading it a while back. Was it to do with big brother? That's all I remember of it. I think I need to reread it. Do remember it was a good book.",
      "parentPostTime": "2008-05-21T16:38:47",
      "parentPostId": "503850"
    },
    {
      "threadId": "762708",
      "post": "That would explain it.. \r\n\r\nLadies and gentlemen, we have solved the age old mystery on bad eyesight!",
      "time": "2008-05-21T11:11:12",
      "id": "501850",
      "parentPost": "No wonder kids are getting spects at so young an age. :P\r\n\r\n",
      "parentPostTime": "2008-05-21T11:04:06",
      "parentPostId": "501822"
    },
    {
      "threadId": "756804",
      "post": "Yeah, it must be due to that, but as I said it still worked after it wasn't associated any more. \r\n\r\nMust remember to upload some music.. ",
      "time": "2008-05-21T11:10:16",
      "id": "501847",
      "parentPost": "Thanks. :)\r\n\r\nI think point 5 is the cause of the problem although point 5 is caused by point 1 and point 4. But then again, last.FM is just a flaunting tool if you don't use it listen tracks online or use the recommendations thingy. ",
      "parentPostTime": "2008-05-21T10:26:28",
      "parentPostId": "501747"
    },
    {
      "threadId": "754541",
      "post": "Nah, not quite sumo. \r\n\r\nWe'll see what happens, if it doesn't work out I've got other plans now, so both would be good. \r\n\r\nAnd no, thanks. You're not known enough yet, need to work on your ruling the world :P",
      "time": "2008-05-21T09:39:06",
      "id": "501670",
      "parentPost": "Sumo Kitteh?!! :P And no one can beat our Cat, I'm sure you'll get the job.\r\n\r\nWant me to write them a recommendation letter? No? Good, I hate abusing my power. :P",
      "parentPostTime": "2008-05-21T09:03:25",
      "parentPostId": "501618"
    },
    {
      "threadId": "778025",
      "post": "Yey, go me!",
      "time": "2008-05-21T09:34:34",
      "id": "501659",
      "parentPost": "Go you!",
      "parentPostTime": "2008-05-21T07:14:31",
      "parentPostId": "501481"
    },
    {
      "threadId": "772404",
      "post": "Tomorrow. :D",
      "time": "2008-05-20T19:27:17",
      "id": "498309",
      "parentPost": "When is it being released?",
      "parentPostTime": "2008-05-20T19:01:02",
      "parentPostId": "498109"
    },
    {
      "threadId": "770484",
      "post": "Must. Work. On. My. Ability. To. Convince. People. :D",
      "time": "2008-05-20T19:27:03",
      "id": "498303",
      "parentPost": "-Cough.- Yeah right....I'll put it up this weekend if I have a chance. Exams are eating up my time.",
      "parentPostTime": "2008-05-20T18:58:12",
      "parentPostId": "498081"
    },
    {
      "threadId": "771077",
      "post": "Heh, it's fine, me too. ;)",
      "time": "2008-05-20T19:26:08",
      "id": "498295",
      "parentPost": "Really? I need to try one! I love the kinder surprise eggs. Still a big fan! Especially for the toys...okay that bit wasn't meant to be said aloud.",
      "parentPostTime": "2008-05-20T18:57:26",
      "parentPostId": "498073"
    },
    {
      "threadId": "763071",
      "post": "I wish I was, I just buy too many!",
      "time": "2008-05-20T18:04:18",
      "id": "497705"
    },
    {
      "threadId": "763062",
      "post": "Yeah, but you only leave school once!",
      "time": "2008-05-20T17:10:37",
      "id": "497316",
      "parentPost": "True. Which is the one thing that annoyed me, but the photo looks amazing. It's really pretty. I'll post a copy up of it when I get it. \r\n\r\nStill can't believe I spent over £100 just leaving school. ",
      "parentPostTime": "2008-05-20T16:51:19",
      "parentPostId": "497169"
    },
    {
      "threadId": "762713",
      "post": "Yeah, good. \r\n\r\nBtw, check your Facebook wall. ;)",
      "time": "2008-05-19T21:59:01",
      "id": "493076",
      "parentPost": "How was it?",
      "parentPostTime": "2008-05-19T21:38:14",
      "parentPostId": "492967"
    },
    {
      "threadId": "737984",
      "post": "So we've somehow gone from lasting batteries to the state of my life?!\r\n\r\nAs an answer to your earlier question, no I don't do last minute checks, I'm organised enough to know where stuff is and generally don't need more than the essentials which are with me/in use anyway. Such as my Ipod that's always with me. \r\n\r\nYet having a second battery for my phone has never even crossed my mind and now doesn't seem an option as it's something that isn't necessary. I can charge my phone through my laptop at all times, but phones should have a lasting battery life from themselves. 30mins on the net and my phone thinks more than half the battery life is gone which I don't think is acceptable. Especially as this phone's meant to have good battery life. \r\n\r\nAs I said it's not an issue, just annoying. \r\n\r\nAs for the rest of my life, that's a completely other thing..",
      "time": "2008-05-19T16:06:35",
      "id": "490442"
    },
    {
      "threadId": "750251",
      "post": "Yeah, M&S haven't quite landed in the 21st century yet!",
      "time": "2008-05-18T19:35:52",
      "id": "487038",
      "parentPost": "I'll have a look in the actual store. Sometimes you can't find stuff on the site but you  can instore which is a tad weird. ",
      "parentPostTime": "2008-05-18T19:33:48",
      "parentPostId": "487031"
    },
    {
      "threadId": "702735",
      "post": "Yeah, so... I'm still reading through my RSS feeds! \n\nSo the blog posts might be a little longer..!",
      "time": "2008-05-17T13:09:25",
      "id": "482840",
      "parentPost": "LOL. -Insert eager Mr. Burns hand rubbing thing.-",
      "parentPostTime": "2008-05-16T12:54:05",
      "parentPostId": "476768"
    },
    {
      "threadId": "715459",
      "post": "Thanks and thanks! I literally slept through my entire birthday!",
      "time": "2008-05-16T11:46:12",
      "id": "476513",
      "parentPost": "Have a safe and enjoyable journey! :)\r\n\r\nPsst... Happy Birthday! :)",
      "parentPostTime": "2008-05-15T11:59:37",
      "parentPostId": "469481"
    },
    {
      "threadId": "726411",
      "post": "Damn, why didn't you tell me this earlier before I embarassed myself in front of a German person by speaking English?!",
      "time": "2008-05-16T11:45:00",
      "id": "476511",
      "parentPost": "Well you had your birthday yesterday and you are in Germany. I think you should know about those two as they involve you. :P",
      "parentPostTime": "2008-05-16T10:49:41",
      "parentPostId": "476383"
    },
    {
      "threadId": "665106",
      "post": "No worries, enjoy. :)",
      "time": "2008-05-12T09:37:45",
      "id": "449211",
      "parentPost": "Actually, somebody came through with an invite today... Thanks anyway!",
      "parentPostTime": "2008-05-12T03:46:34",
      "parentPostId": "448083"
    },
    {
      "threadId": "661181",
      "post": "That message was imported from Twitter. ",
      "time": "2008-05-10T17:05:03",
      "id": "443262",
      "parentPost": "Huh?",
      "parentPostTime": "2008-05-10T15:19:06",
      "parentPostId": "442966"
    },
    {
      "threadId": "621871",
      "post": "Well, I think it's an auctionhouse that's selling it and I think they check against that.. ",
      "time": "2008-05-06T23:55:19",
      "id": "423569",
      "parentPost": "Then you'd definately be a millionaire. Hmm. Wonder if we can use monopoly money?",
      "parentPostTime": "2008-05-06T20:13:33",
      "parentPostId": "422624"
    },
    {
      "threadId": "585390",
      "post": "Did that..  No luck. \r\n\r\nGonna try hooking it up to my mates laptop tomorrow. Thanks. :)",
      "time": "2008-05-03T03:10:16",
      "id": "410235"
    },
    {
      "threadId": "567027",
      "post": "Well, I kinda solved the problem by falling asleep shortly after and only waking up now!",
      "time": "2008-04-29T22:04:56",
      "id": "394549",
      "parentPost": "Hire a slave/servant?",
      "parentPostTime": "2008-04-29T21:19:34",
      "parentPostId": "394301"
    },
    {
      "threadId": "547945",
      "post": "I was only asleep for a few hours, just when Doctor Who was on..",
      "time": "2008-04-28T16:53:46",
      "id": "388094",
      "parentPost": "As far as I know Cats are the laziest beings on the planet, so thats normal. *wears cat protector suit* Nyah Nyah Nyah",
      "parentPostTime": "2008-04-27T08:20:47",
      "parentPostId": "384801"
    },
    {
      "threadId": "555779",
      "post": "Counting the hours now.. 6 and a bit hours and counting.. ",
      "time": "2008-04-28T16:43:35",
      "id": "388051"
    },
    {
      "threadId": "536829",
      "post": "Of course that's provided I ever do it!",
      "time": "2008-04-25T14:53:13",
      "id": "379329",
      "parentPost": "Definitely!\r\n\r\nPlus I spend more time talking about what I have to do then doing it!",
      "parentPostTime": "2008-04-25T14:52:57",
      "parentPostId": "379327"
    },
    {
      "threadId": "530070",
      "post": "He knows you exist, right?",
      "time": "2008-04-24T20:04:23",
      "id": "376486"
    },
    {
      "threadId": "530025",
      "post": "Glad you liked it! I wasn't too impressed when I go there and realised it wasn't there any more! ",
      "time": "2008-04-24T17:04:36",
      "id": "375689",
      "parentPost": "That is honestly the most funniest thing i've heard today.",
      "parentPostTime": "2008-04-24T16:57:56",
      "parentPostId": "375641"
    },
    {
      "threadId": "527067",
      "post": "Overrated?!",
      "time": "2008-04-24T12:03:25",
      "id": "374219",
      "parentPost": "Oh ok, which means I don't get to tell you about how you can marry somebody, have kids and well emulate life in the game. :P\r\n\r\nAs a sidenote, I feel the series is a bit overrated. Vice City was good and refreshing, can't say the same about SA and LCS...",
      "parentPostTime": "2008-04-24T08:16:49",
      "parentPostId": "373905"
    },
    {
      "threadId": "518768",
      "post": "Yeah, well, it was like 6am and I had tried to figure it out all night. And yeah, I mean the transformer part, power brick, whatever!! \r\n\r\n:)",
      "time": "2008-04-23T10:07:36",
      "id": "369115",
      "parentPost": "Wait...you mean the transformer part?",
      "parentPostTime": "2008-04-23T07:31:17",
      "parentPostId": "368904"
    },
    {
      "threadId": "515441",
      "post": "Who is John and why do you hate him?",
      "time": "2008-04-22T21:38:22",
      "id": "366645"
    },
    {
      "threadId": "495292",
      "post": "If you wanted to say 'I very much debt have' then yes, you got it right. ;)\r\n\r\nKudos for the effort of going through a translator though.. ",
      "time": "2008-04-20T12:45:41",
      "id": "357559",
      "parentPost": "Vielen Dank. Ich bin sehr verschuldet haben. :) [Hopefully I got it right.]",
      "parentPostTime": "2008-04-20T12:04:13",
      "parentPostId": "357503"
    },
    {
      "threadId": "494863",
      "post": "Actually, I was surprised when you asked me if we just talked abotu COD4, but I don't remember if we did! I think it was your hearing.. :P\r\n\r\nYeah, need to work on the pauses.. \r\n\r\nThe music is another thing, I didn't know there was gonna be music til the first song played and I personally think that maybe music isn't the way to go. And the two songs, yeah.. \r\n\r\nThanks. :)",
      "time": "2008-04-20T07:12:25",
      "id": "357311",
      "parentPost": "Well, having been on the podcast once, I sort of knew going in that it wouldn't work out well live,  and yeah... it didn't. There were parts when I wasn't even sure what game you were talking about, like at one point a topic about Call of Duty 4 was started and then it went to Mercenaries and I didn't even realize. And sometimes the pauses between different people talking were too long and awkward. Really need to figure out a way to be more interesting, I'm afraid. \r\n\r\nAnd the music, erm... for one, it was a huge volume difference between the talking and the music. At one point I was in another room getting a drink and the volume was up double what I listen to music at so I could hear everyone, all of a sudden the Nickelback song started playing and I had to run in and lower it so it wouldn't deafen anyone. And I was also wondering why there was no mention before the music came on? No \"We'll be back in a moment!\", it just came on mid-conversation... Once you were talking and the music even started playing over you. \r\n\r\nAgreed with Josh on the game music recommendation too, the problem with regular songs is you're sort of stuck waiting til it's over (most technical fixes shouldn't take that long) so you don't annoy people if they're actually enjoying the song. With instrumental music there's no definite end, so you can cut it whenever you're ready. NIN's Ghosts would work too. What exactly was wrong that took so long to fix you had to play TWO songs?!\r\n\r\nIf you really, really want to do it live - definitely practice before you do. The fact you had to take 3 pauses of that length tells me there were pretty big things you weren't expecting. \r\n\r\nI didn't get any of the lag/buffering, though. Worked fine for me.",
      "parentPostTime": "2008-04-20T02:11:17",
      "parentPostId": "356945"
    }
  ],
  "profileInfo": {
    "username": "carocat",
    "about": "",
    "name": "carocat",
    "disable3rdPartyTrackers": false,
    "isPowerContributor": false,
    "isAnonymous": false,
    "rep": 1.3337599999999998,
    "profileUrl": "https://disqus.com/by/carocat/",
    "url": "http://carocat.co.uk/",
    "reputation": 1.3337599999999998,
    "location": "",
    "isPrivate": false,
    "signedUrl": "http://disq.us/?url=http%3A%2F%2Fcarocat.co.uk%2F&key=sAej-vJLvZjmoSQjBEv1mw",
    "isPrimary": true,
    "joinedAt": "2008-04-18T15:30:33",
    "id": "24109",
    "avatar": {
      "small": {
        "permalink": "https://disqus.com/api/users/avatars/carocat.jpg",
        "cache": "//a.disquscdn.com/uploads/users/24109/avatar32.jpg?1281549414"
      },
      "isCustom": true,
      "permalink": "https://disqus.com/api/users/avatars/carocat.jpg",
      "cache": "//a.disquscdn.com/uploads/users/24109/avatar92.jpg?1281549414",
      "large": {
        "permalink": "https://disqus.com/api/users/avatars/carocat.jpg",
        "cache": "//a.disquscdn.com/uploads/users/24109/avatar92.jpg?1281549414"
      }
    }
  }
}