{
  "comments": [
    {
      "threadId": "84731",
      "post": "Il tuo sito gratis in 5 minuti! http://www.mysiteproject.com/signup/?cat=0&email=%%email%%&prov=1-cb01-500-it Ricevi questa newsletter in seguito alla tua registrazione a siti di proprietà di MGRevolution e Partners \nPer informazioni sull'iscrizione a questa newsletter contatta newsletter@mgrevolution.com \nnel caso non desideri più ricevere questa newsletter, segui questo link http://newsletter.newspapermgr.com/unsubscribe.php?email=d22e66e75642b8c22552ceb108ec219e5f7fb1c21495d1adf2bd3efedb94efb15a87681a4e9a495e&deliveryId=2395&dataAdded=&landing=&smtp=40&templateId=51&domainId=32&idAzienda=3",
      "time": "2012-05-21T08:05:12",
      "id": "534198876",
      "parentPost": "CIao nn so se ti ricordi di me, sono brain0 ci siamo incontrati su raulken tempo fa.\r\nHo un grosso problema: nn so se tu usi google reader, ma da un paio di giorni è pssibile, grazie a google gears, utillizzarlo in modalita offline.\r\nA sentire loro, basta installare l'addon  e riavviare il browser e tutto funziona.\r\n\r\nIl problema è che così non è x me: ho provato con un win2003 con firefox e IE, su un vista con firefox e IE e su un ubuntu su firefox e nn riesco a farlo funzionare.\r\n\r\nCapisco che non sei l'helpdesk di google,  ma dal momento che non ho trovato una risorsa decente su google e che in fondo è uno strumento che che potrebbe interessarti, se mi dai una mano nella configurazione te ne sarei grato.\r\n\r\nCheers\r\nBrain0",
      "parentPostTime": "2008-03-09T04:17:36",
      "parentPostId": "212169"
    },
    {
      "threadId": "10547079",
      "post": "Lo fa Pecciola ;-)\r\n\r\nG.",
      "time": "2009-01-26T11:28:02",
      "id": "5547704"
    },
    {
      "threadId": "10172165",
      "post": "O Anto, allora poi programmalo per domani per le 9.30-10 del mattina\r\n\r\nGrazie! E miraccomando con l'esame! ;-)\r\n\r\nG.",
      "time": "2009-01-19T15:34:59",
      "id": "5365843"
    },
    {
      "threadId": "9567830",
      "post": "Sìsì, l'importante è dire lo faccio io, quelli che posto qui sono tutti che mi fa piacere vengano fatti. Questa settimana sei ancora l'unico a postare (assieme a me), poi poi arriva Antonio, il nuovo autore ;-)\r\n\r\nG:",
      "time": "2009-01-08T11:32:17",
      "id": "4985411"
    },
    {
      "threadId": "9512349",
      "post": "Perfect! ;-)",
      "time": "2009-01-07T09:14:03",
      "id": "4956752"
    },
    {
      "threadId": "457258",
      "post": "Devi salvarlo come host e non host.txt. Dopo Host, insomma, non metti alcuna estensione ;-) Ti chiederà se vuoi sovrascrivere, dirai di sì, ed è fatta\r\n\r\nA presto,\r\n\r\nGuido",
      "time": "2008-05-09T18:07:07",
      "id": "438853",
      "parentPost": "una volta aperto il file con il blocco note e inserita la stringa, come faccio a salvare il file hosts con le modifiche?\r\n\r\nne ho salvata una copia in formato .txt ma non è seevito ad eliminare le pubblicità",
      "parentPostTime": "2008-04-16T07:28:35",
      "parentPostId": "341127"
    },
    {
      "threadId": "650151",
      "post": "..infatti non sei mica tu lo Jacona di cui parlavo..cosa credi :-P No, scusami, sarà stata l' ora tarda in treno...correto subito :-D\r\nDai, ci becchiamo presto!\r\n\r\nGuido",
      "time": "2008-05-09T11:46:08",
      "id": "436544"
    },
    {
      "threadId": "606528",
      "post": "hai ragione, siceramente non avevo letto questa restinzione; per sdebitarci, ecco un' altra, idonea, segnalazione: http://www.delfinsblog.it/2007/12/07/inviare-fax-gratis/\r\n\r\nA presto!\r\n\r\nGuido",
      "time": "2008-05-05T18:02:07",
      "id": "417246"
    },
    {
      "threadId": "504061",
      "post": "Grazie mille, vi ringrazio davvero! Una cosa: vale anche x me \"invitato\" da voi invitati il fatto che abbia 20 inviti da distribuire a chi reputo opportuno? Grazie",
      "time": "2008-05-01T17:16:28",
      "id": "402977",
      "parentPost": "Invito inviato! ;-)",
      "parentPostTime": "2008-05-01T08:24:04",
      "parentPostId": "400987"
    },
    {
      "threadId": "537184",
      "post": ":-D :-D",
      "time": "2008-04-27T18:52:08",
      "id": "385655",
      "parentPost": "e si vede che questi bot sono più bravi di me, a volte per lasciare un commento in un blog amico devo riscrivere la sequenza alfanumerica 3 o 4 volte...",
      "parentPostTime": "2008-04-26T19:54:57",
      "parentPostId": "383673"
    },
    {
      "threadId": "545342",
      "post": "Ma certamente! Grazie per avercelo chiesto! A presto!\r\n\r\nGuido A.",
      "time": "2008-04-27T08:17:13",
      "id": "384795"
    },
    {
      "threadId": "420611",
      "post": "Ci vogliono dai 2 ai 3 giorni e ti arriva la mail\r\n\r\n----- Messaggio originale -----\r\nDa: Disqus <>\r\nInviato: venerdÃ¬ 11 aprile 2008 15.24\r\nA: arata.guido@gmail.com\r\nOggetto: [Disqus] Re: Provare gratis AdWords per pubblicizzare il proprio sito",
      "time": "2008-04-11T13:43:04",
      "id": "324426",
      "parentPost": "ho mandata la richiesta ma non ricevuto nessun bonus.. ",
      "parentPostTime": "2008-04-11T13:23:08",
      "parentPostId": "324336"
    },
    {
      "threadId": "394782",
      "post": "Disqus ha scritto:",
      "time": "2008-04-05T16:30:02",
      "id": "304201",
      "parentPost": "great blog, got a lot of usefull info here, keep this good work and i hope to see more soon, cya",
      "parentPostTime": "2008-04-05T13:40:34",
      "parentPostId": "303887"
    },
    {
      "threadId": "383833",
      "post": "Ciao Giada, ci sei riuscita a fare la versione mobile? Ma in WAP?",
      "time": "2008-04-04T10:52:08",
      "id": "300295"
    },
    {
      "threadId": "382396",
      "post": "Concordo con te sul target Daniele, però allora mi chiedo una cosa...perchè proporsi come esperto di sicurezza informatica? E soprattutto, e questo, non sembra poi dipendere da lui direttamente: perchè viene attichettato come uno dei più giovani hacker italinai, colui che mette in ginoccio Google, ecc? Cioè, ammettiamo sia vero, che ha avuto bravura, fortuna, o altro, ed ha scovato un pericoloso bug su Google...un video del genere è un acaduta di stile. Quindi dico, una persona coerente, definirebbe il suo target: se viene attichettato, ed accetta, il termine di esperto di sicurezza, dovrebbe non sentirsela di pubblicare un video del genere; se lo fai, lo fai dichiarandoti, presentandoti diversamente.\r\nPoi, credo che da parte di mooti vi sia spossatezza nel vedere che lui, che da tempo dimostra capacità limitate, ed un target utenza bambinesco, venga continuamente attichettato hacker, esperto di sicurezza, appaia sulle riviste, su Punto informatico..e credo che quindi giuseppe si rivolgesse a questo fatto in un punto del suo video, nel quale dice apppunto che ci sa, è piuttosto stanco di vederlo marciare su cose banali e semplici, con l' aria di chi è esperto di sicurezza; è un blogger bravissimo, forse uno dei migliori in italia; è un grande comunicatore; ma perchè fingere, spacciarsi pure da grande esperto di sicurezza agli occhi dei meno esperti e dei media (incapaci)? Penso dovrebbe risponderea  questo Salvo, perchè fino a quel momento, verrà criticato continuamente",
      "time": "2008-04-02T14:53:54",
      "id": "293456"
    },
    {
      "threadId": "364595",
      "post": "Ciao Luigi! Guarda qui:\r\n\r\nThis plugin allows you to add a sidebar widget to your theme where you can show a list of your recent online activity, with the data provided by Friendfeed. To install it, just upload the friendfeed_wiget folder to your /wp-content/plugins directory and activate the plugin into the plugins panel. Then, configure the widget into the Presentation / Widgets tab, putting it where you want, and setting up your username and how many entries you want to show. Then you’re done!\r\n\r\nDOWNLOAD: http://bloqnum.com/wordpress-plugins/friendfeed_widget.zip\r\nLink ufficiale: http://bloqnum.com/friendfeed-wordpress-widget-plugin/\r\nPs: ora che mi hai invitato in FriendFeed, mi sa che lo integrerò pure io ;-)",
      "time": "2008-03-31T20:54:11",
      "id": "286628"
    },
    {
      "threadId": "276995",
      "post": "Nono, dici bene!\r\n\r\nA presto qui sul blog ;-)",
      "time": "2008-03-10T20:47:45",
      "id": "216415"
    },
    {
      "threadId": "271724",
      "post": "Urca eva, gaffe tanto clamorosa che ho letto il tuo commento da mobile e l' ho modificato da lì :-D Grazie per l' avviso, bacchetterò Rappix ihihihih\r\n\r\nA presto!",
      "time": "2008-03-08T19:37:01",
      "id": "211409",
      "parentPost": "...comunque è Google Earth!! :D",
      "parentPostTime": "2008-03-08T19:28:31",
      "parentPostId": "211395"
    },
    {
      "threadId": "234888",
      "post": "Come mai non ti funziona? Non riesci ad installarlo? Perchè è praticamente indispensabile x lavorare con i Nokia...",
      "time": "2008-02-28T21:30:44",
      "id": "188543"
    },
    {
      "threadId": "79038",
      "post": "ihih, spero allora seguirai il blog ;-)",
      "time": "2008-02-08T19:13:12",
      "id": "135370"
    },
    {
      "threadId": "178161",
      "post": "Ciao Cirio, guarda, io l' upgrade l' ho fatto da FTP. Ho semplicemente disattivato i plugin atttivi e sovrascritto i files che avevo sul webserver (tanto non li sovrascrive tutti, i temi ti lascia quelli che hai, plugin anche, ecc ma sostituisce i files di struttura, contenenti funzioni, ecc). Per il backup, vado direttamente dal phpmyadmin e sfrutto la funzione \"Esporta\" (in passato usavo un plugin, ma al momento di effettuare il restore del Db backuppato, tutti i caratteri accentati erano stati sostituiti da ?? e da quel momento, faccio manualmente, è poca fatica)\r\nA presto",
      "time": "2008-02-08T19:12:17",
      "id": "135365"
    },
    {
      "threadId": "164590",
      "post": "Corretti, molto gentile",
      "time": "2008-02-04T12:58:49",
      "id": "123079"
    },
    {
      "threadId": "158930",
      "post": "Ciao Mk3000 scusa il ritardo ma ho cercato un po' sul Web,....Guarda cosa danno le FAQ ufficiali del servizio:\r\n\r\nCurrently we accept the following Virtual Cards: ICICI Bank Canada, Elan Financial Services, First direct, Westpac, TruCards.com, Card444 Visa Virtual Card, MasterVirtualCard.com, vcard pro, money-around-the-world.com, Epaycc, Secure Deposit Card, Inc, Instant Virtual Visa care, Instant Virtual MasterCard, HSBC UAE, EPassporte, 111 card, CREAPAY.com, Parex Group, PT Shamrock's, Citi Virtual Account, Rupay, INO.RU, Electronic Commerce, Splash Plastic, ECOUNT, NAB, Bank of China and First Direct Credit Cards\r\n\r\nNon c'è PostePay, anche se è del circuito VISA...forse a breve si più ipotizzare un' integrazione",
      "time": "2008-02-03T09:47:03",
      "id": "121384",
      "parentPost": "e per alertpay?\r\nle ptc ormai si avvalgono solo di alertpay lasciando PAYPAL...\r\ncosa ci consigli in proposito?",
      "parentPostTime": "2008-02-02T15:20:38",
      "parentPostId": "119978"
    },
    {
      "threadId": "156221",
      "post": "Io invece ammetto di essere attizzato dall' idea...cioè, perchè è un annetto che vedo un po' di staticità,e una botta di tale portata, potrebbe rimescolare un po' le carte in tavola...questo mi attira, sì",
      "time": "2008-02-01T19:53:19",
      "id": "118051",
      "parentPost": "Spero tanto non succeda, altrimenti mi sa che Flickr farà una brutta fine... :-/",
      "parentPostTime": "2008-02-01T17:10:27",
      "parentPostId": "117468"
    },
    {
      "threadId": "109459",
      "post": "Non te lo fa cancellare AVAST??\r\nSe no, dechekkalo da msconfig-->Avvio, riavvia il pc e prova ad eliminarlo manualmente",
      "time": "2008-01-31T13:31:50",
      "id": "114241",
      "parentPost": "sono entrato in modalità provissora ma nn me lo fa cancellare.                                      il programma di avast  mi aveva segnalato che in C:\\docume 1\\pippo\\inpost 1\\temp\\ svcghost.exe era infetto\r\ncosa devo fare",
      "parentPostTime": "2008-01-31T13:28:09",
      "parentPostId": "114233"
    },
    {
      "threadId": "125753",
      "post": "Ciao Matteo, sei sicuro? Io ho letto il comunicato stampa del caporedattore di Italia.it che diceva:\r\n\"Volevo comunicarle la situazione paradossale in cui versa il portale in questo momento. Questo è sempre in bilico tra la chiusura ed il rilancio, tra il passaggio all’Enit ed il prolungamento del contratto con il vecchio Rti a causa del rimpallo di non-decisioni che rischiano di mandare definitivamente all'aria un investimento cospicuo (pari a circa 5 milione e ottocentomila euro). Il portale è ancora online grazie anche al lavoro gratuito della redazione, anche se formalmente è stato dichiarato chiuso da un paio di mesi (ironia della sorte, nell'ultimo mese sono aumentati anche gli accessi). Ma intanto nessuno decide: classico esempio di bizantinismo politico di stampo kafkiano che in Italia produce continuamente delitti reati e sperperi senza arrivare mai a determinare colpevoli e cause. Le Regioni sono adesso fortemente interessate al contributo promesso per il portale e quindi sono passate dalla fase di rifiuto di un anno fa ad una di adesione, attiva partecipazio\r\n\r\nA rileggerci\r\n\r\nGuido",
      "time": "2008-01-20T11:38:48",
      "id": "88525",
      "parentPost": "ciao..hai pienamente ragione..però solo una piccola precisazione..non è costato 5,8 milioni ma 45 milioni(quarantacinque) e sulla repubbklica mi pare abbiano scritto addirittura 58(cinquantotto) milioni...uno scandalo anche se fossero \"\"soli\"\" 5,8 milioni",
      "parentPostTime": "2008-01-20T10:52:24",
      "parentPostId": "88512"
    },
    {
      "threadId": "125751",
      "post": "Ciao Fra, da quanto!! Humm...puoi spiegarti meglio? Sembrano una società che offre strumenti per il blogging, e che faccia marketing...no?",
      "time": "2008-01-20T10:25:48",
      "id": "88505"
    },
    {
      "threadId": "107040",
      "post": "Quii trovate come rimuovere il virus, calmi :-D http://www.delfinsblog.it/2008/01/11/rimuovere-il-virus-nakedmodel18com-win32ircbotaal-di-live-messenger/",
      "time": "2008-01-18T15:14:47",
      "id": "85688"
    },
    {
      "threadId": "122650",
      "post": "Vero, ma dovrebbe essere una lista aggiornata...grazie x la segnalazione del \"rinforzo\" ;-)",
      "time": "2008-01-18T12:41:13",
      "id": "85379",
      "parentPost": "Guido sei indietro di 4 mesi e se non mi sbaglio avevi gia' pubblicato queste news qui da qualche parte... ;-)\r\n\r\nhttp://www.spippolazione.net/index.php/2007/09/24/come-far-ripartire-emule/\r\n\r\nmi permetto di suggerire anche questa cosa qui:\r\n\r\nhttp://www.spippolazione.net/index.php/2008/01/15/emule-e-l%e2%80%99errore-%e2%80%9cimpossibile-scaricare-la-lista-server%e2%80%9d/\r\n\r\nche e' un valido \"rinforzo\" al met di cui sopra...\r\n\r\nsaludos",
      "parentPostTime": "2008-01-18T11:43:25",
      "parentPostId": "85323"
    },
    {
      "threadId": "110985",
      "post": "Comodo, ma è la stessa identica cosa del servizio citato...solo che, a scelta, si può decidere di modificare il bitrate del vio, ma non si è obbligati. Inserisci l' URL ed hai fatto :-) senza bisogno di scaricare alcun software.\r\nComunque grazie x la segnalazione, per amanti delle soluzioni software è un' ottima chicca ;-)\r\n\r\nSpero di rivederti sul blog",
      "time": "2008-01-13T13:22:59",
      "id": "75185"
    },
    {
      "threadId": "57519",
      "post": "Tranquillo Sniper, a quanto ho potuto intuire chi non è riuscito con questo metodo è perchè ha usato Emule e non la mod eMule MorphXT...per il resto, è pure possibile e probabile l' aggiornamento dei filtri dei provider. L' importante è che abbia aiutato una buona fetta di utenza ;-)",
      "time": "2008-01-05T00:44:55",
      "id": "60103"
    },
    {
      "threadId": "76587",
      "post": "Grazie per gli ottimi spunti di riflessione DPY, commento molto interessante e costruttivo. Ti ringrazio, e spero di rivederti qui sul blog ;-)",
      "time": "2008-01-05T00:40:06",
      "id": "60096"
    },
    {
      "threadId": "78340",
      "post": "Sì, può essere, però il tema vecchio era \"sporco\" anche proprio lato codice, tant'è che non mi garantiva una buona indicizzazione...ho colto così l' occasione per cambiare, provando questo, più pulito...",
      "time": "2007-12-22T18:25:11",
      "id": "45000"
    },
    {
      "threadId": "72466",
      "post": "Figurati, anzi, mi fa doppiamente piacere! A presto!",
      "time": "2007-12-17T23:21:06",
      "id": "38631"
    },
    {
      "threadId": "67225",
      "post": "No, ok, ma non è + per contatto diretto. C'è il feed in metto all' attacker ed alla vittima, la connex non è più diretta",
      "time": "2007-12-13T14:14:30",
      "id": "34191"
    },
    {
      "threadId": "55286",
      "post": "Ciao Edgar! Grande, un ex Chiavarese! D' obbligo ti aggiungo ai feed ;-) Intrigante Bangkok...c'era la mezza idea di andarci in vacanza quest' estate...magari ci becchiamo pure lì ihih",
      "time": "2007-12-06T09:14:30",
      "id": "27831"
    }
  ],
  "profileInfo": {
    "username": "Delfins",
    "about": "",
    "name": "Delfins",
    "disable3rdPartyTrackers": false,
    "isPowerContributor": false,
    "isAnonymous": false,
    "rep": 1.276522,
    "profileUrl": "https://disqus.com/by/Delfins/",
    "url": "http://www.delfinsblog.it",
    "reputation": 1.276522,
    "location": "Chiavari",
    "isPrivate": false,
    "signedUrl": "http://disq.us/?url=http%3A%2F%2Fwww.delfinsblog.it&key=Cmj8mrRr2cDzjXK7XtDdOg",
    "isPrimary": true,
    "joinedAt": "2007-10-31T12:33:24",
    "id": "928",
    "avatar": {
      "small": {
        "permalink": "https://disqus.com/api/users/avatars/Delfins.jpg",
        "cache": "//a.disquscdn.com/uploads/users/928/avatar32.jpg?1281549414"
      },
      "isCustom": true,
      "permalink": "https://disqus.com/api/users/avatars/Delfins.jpg",
      "cache": "//a.disquscdn.com/uploads/users/928/avatar92.jpg?1281549414",
      "large": {
        "permalink": "https://disqus.com/api/users/avatars/Delfins.jpg",
        "cache": "//a.disquscdn.com/uploads/users/928/avatar92.jpg?1281549414"
      }
    }
  }
}