{
  "comments": [
    {
      "threadId": "4761439197",
      "post": "When it comes to public transit, the BC Liberals are all about referendums. But when it comes to getting money out of politics, suddenly democracy is onerous. Without corporate money they and their municipal proxies would be a world of hurt. Statistically right-of-centre parties receive more donations from corporations rather than individuals. For example in the 2009 election, 60% of political donations to the BC Liberals came from corporations while the same percentage of political donations to the BC NDP came from individual donors. They need large amounts of money to survive.",
      "time": "2016-04-20T16:32:05",
      "id": "2633756518"
    },
    {
      "threadId": "4725657492",
      "post": "In 2011, 136,135 private households were rentals (51% of total) and in October 2015 there were 26,001 rental condos.\n\nSource: http://vancouver.ca/files/cov/housing-characteristics-fact-sheet.pdf\n\nI had heard on some news report somewhere there 4000-5000 AirBnB listings for Vancouver. Perhaps that's Greater Vancouver, can't remember. Currently there are 17 pages of search results with 18 listings per page (306) for AirBnB for CoV.\n\nJust to introduce some numbers.",
      "time": "2016-04-07T20:28:17",
      "id": "2611833391"
    },
    {
      "threadId": "4657325336",
      "post": "Not at the CoV level at BC Stats, but there is a table for Greater Vancouver that shows net population gains from international and interprovincial migration and net population loss from intraprovincial migration. It's not broken down by age groups, however.\n\nhttp://www.bcstats.gov.bc.ca/Files/1290e36e-dbb1-4ba8-911e-e6df69fb84fa/BCRegionalDistrictDevelopmentRegionMigrationComponents.pdf\n\nYou can dial down to CoV level population estimates for gains/losses in 5-yr age groups, but it doesn't explain what's driving it. The gist is there have been net gains 2005-2015 for ages 25-34 and losses for 35-44.\n\nhttp://www.bcstats.gov.bc.ca/StatisticsBySubject/Demography/PopulationEstimates.aspx",
      "time": "2016-03-15T17:19:03",
      "id": "2571112763",
      "parentPost": "Do the stats break out both how many people are coming and how many people are leaving and not just the net population value? Knowing to what degree the population is churning would be informative. I'd expect to see that there are lots of people arriving, but also lots of people leaving.\n\nAnecdotally amongst my millennial friends, everyone with skills that are valuable elsewhere has an eye on the door (or has left already). I am interested to see the 2016 census.",
      "parentPostTime": "2016-03-15T15:54:04",
      "parentPostId": "2570961496"
    },
    {
      "threadId": "4642108658",
      "post": "So the CoV should pay for this? Not the province, which was/is the level of government responsible for funding these things (according to the Kettle Society's tax return, 77% of their funding came from the BC Gov)? \n\nThis would be tacitly supporting the BC Liberal's agenda of downloading services onto municipalities, no? And with this precedent, how does the CoV say no to other groups? All to preserve the urbanist sensibilities of certain residents of a particular neighbourhood?\n\nThese are questions the No Tower group needs to answer. Like it or not, the two stories that have come out of Commercial Drive lately is \"no to density\" and \"no to bike lanes\". There's a narrative building.",
      "time": "2016-03-12T20:30:58",
      "id": "2566196153",
      "parentPost": "On a city budget of over a billion, 3.2 mill can be found.",
      "parentPostTime": "2016-03-12T19:03:59",
      "parentPostId": "2566068946"
    },
    {
      "threadId": "4623073590",
      "post": "I'm sure you've read about the reverse scenario from the same time period: <a href=\"http://www.macleans.ca/culture/books/how-canada-planned-to-invade-the-u-s-and-vice-versa/\">Defence Scheme No. 1</a>",
      "time": "2016-03-02T17:24:10",
      "id": "2547688537"
    },
    {
      "threadId": "4567374402",
      "post": "It depends on who the buyer is, I suppose. If it's someone from [Country X] trying to park their money in a safe harbour, probably not. If you're a local family, probably yes. It's also is a matter of whether the realtors who are shadow-flipping are being completely open and, you know, filing all the forms they're supposed too.\n\n<i>I doubt the practice is raise prices at all. At most, it's a symptom of an overheated market.</i>\n\nYou may be right, but given the dearth of data collection we don't know enough to judge. \n\nPersonally I think the affordability crisis is a scenario of death by a thousand paper cuts of which shadow-flipping is but one. There isn't a satisfying monocausal explanation and there isn't a satisfying monocausal solution, but a thousand ones. Which, in Canada's situation, would require multiple levels of government to act with common purpose. \n\nLet's just say I'm not hopeful.\n\nBut I still don't see any harm to society in tightening the rules up on this.",
      "time": "2016-02-14T01:51:51",
      "id": "2512428540",
      "parentPost": "Not sure why a buyer would have an issue.  They would see the original agreement,  as they would be taking an assignment.  No issue there.\n\nAs I said, the seller would have a good cause of action against his or her agent.  I would hope such an agent would also lose their licence.\n\nI doubt the practice is raise  prices at all.  At most, it's a symptom of an overheated market.\n\n",
      "parentPostTime": "2016-02-13T06:27:33",
      "parentPostId": "2511185861"
    },
    {
      "threadId": "4505434213",
      "post": "Shush, you. This is no place for logic.",
      "time": "2016-01-19T22:57:11",
      "id": "2467213336",
      "parentPost": "Question. If they don't have any stats on foreign ownership which they say they don't, how do they know how much this tax would theoretically cost in money/jobs?",
      "parentPostTime": "2016-01-19T19:36:55",
      "parentPostId": "2466880944"
    },
    {
      "threadId": "4259626576",
      "post": "[BC Place] <i>provides significant economic benefits to the City, the Province, and employees and businesses in the community.\"</i>\n\nOff topic, but...heh -> http://www.bcpavco.com/pdfs/PavCo%202015_17%20Service%20Plan_FINAL(2).pdf\n\n<i>\"...Pavco is willing to engage in detailed feasibility discussions with the City...\"</i>\n\nSo...it's kabuki. Rinse, repeat.\n\n\n\nAnd how dare you, sir, imply my humour is stale and/or recycled ;)",
      "time": "2015-10-29T01:50:06",
      "id": "2332296449",
      "parentPost": "Heh... that's about the 10th time I've now read that joke about email records since the article surfaced.\n\nFor those interested, here's a link to the PavCo letter to the City: \n\nhttp://www.scribd.com/doc/287592980/PavCo-letter-to-City-of-Vancouver-on-viaduct-removal",
      "parentPostTime": "2015-10-29T01:24:38",
      "parentPostId": "2332264849"
    },
    {
      "threadId": "4196638999",
      "post": "That's about scrap metal in the United States. In other countries (specifically the UK which was under U-boat blockade for much of the war and saw imports drop 40%) recycling metal was more important. Especially certain metals like aluminum. As was other materials like paper.",
      "time": "2015-10-08T21:30:24",
      "id": "2297306822",
      "parentPost": "They certainly were.\n\"Recent historical studies indicate that the scrap drives were more important as morale boosters than in providing essential products for the war effort. But, the general public did get caught up in the patriotic enthusiasm — some saved tin foil from gum wrappers, making a tin foil ball until it reached a size large enough to be accepted by the collection site. Scrap paper was more easily collected and was used to package armaments. Grease was saved and recycled to make ammunition..\"\n \n   And it was for the \"home front\" safe in their beds each night in North America far away from the reality of modern! warfare.",
      "parentPostTime": "2015-10-08T20:33:20",
      "parentPostId": "2297212399"
    },
    {
      "threadId": "4152348156",
      "post": "<i>Ask the citizens of Quebec who pay 30% more for government services than anyone else in Canada.</i>\n\n\nMore than, for example, Vancouver.",
      "time": "2015-09-23T02:24:54",
      "id": "2268413648",
      "parentPost": "I guess it's a question of human nature versus the law. Most objective observers have no trouble understanding the concept of conflict of interest. Apologists may split hairs (not actually illegal, municipal or provincial jurisdiction, just a no-strings-attached gesture of support, etc,) but a payoff followed by a kickback is corrupt no matter how you massage it. Ask the citizens of Quebec who pay 30% more for government services than anyone else in Canada.",
      "parentPostTime": "2015-09-23T01:07:25",
      "parentPostId": "2268327371"
    },
    {
      "threadId": "4143251529",
      "post": "Abbott: I'm telling you. Who's on first, What's on second, I Don't Know is on third--\n\nCostello: You know the fellows' names?\n\nAbbott: Yes.\n\nCostello: Well, then who's playing first?\n\nAbbott: Yes.\n\nCostello: I mean the fellow's name on first base.\n\nAbbott: Who.\n\nCostello: The fellow playin' first base.\n\nAbbott: Who.\n\nCostello: The guy on first base.\n\nAbbott: Who is on first.\n\nCostello: Well, what are you askin' me for?",
      "time": "2015-09-19T15:45:53",
      "id": "2262414698"
    },
    {
      "threadId": "4133033053",
      "post": "The average CEO pay for Canada in 2011/12 was $8,704,118. The median in 2006 was $2.2 million.\n\nSources:\n\nhttp://www.aflcio.org/Corporate-Watch/Paywatch-Archive/CEO-Pay-and-You/CEO-to-Worker-Pay-Gap-in-the-United-States/Pay-Gaps-in-the-World\n\nhttp://www.verisi.com/resources/us-ceo-compensation.htm",
      "time": "2015-09-16T17:23:21",
      "id": "2256990448",
      "parentPost": "For the job she was doing, what would a comparable private employee be worth? Should a position, paid for by the public be discounted just because it's a publicly paid position?\n\n\nI never said she should have done it for free, but is she overpaid? I don't know, show me some numbers.",
      "parentPostTime": "2015-09-16T17:06:47",
      "parentPostId": "2256957862"
    },
    {
      "threadId": "4106704219",
      "post": "I know to even mention the historical record in a dry, matter of fact way will bring hysterical accusations of partisanship, impropriety and calls for my head on a platter, but proposals to turn Vancouver <a href=\"http://www.geoffmeggs.ca/2014/05/30/key-to-sanctuary-city-is-access-without-fear-a-goal-that-requires-many-players-to-succeed/\">into a \"sanctuary city\" were made in 2014</a>.",
      "time": "2015-09-08T15:22:13",
      "id": "2242554687"
    },
    {
      "threadId": "4026769304",
      "post": "Finn Calrissian. It even rhymes.",
      "time": "2015-08-12T19:58:54",
      "id": "2189298841"
    },
    {
      "threadId": "3921870989",
      "post": "Those Humvees they drive look familiar. I wonder where they got them?",
      "time": "2015-07-23T16:56:10",
      "id": "2153351680",
      "parentPost": "An ISIS without access to military-grade weapons is about as dangerous as the Westboro kooks, which is to say barely at all. Figure it out.",
      "parentPostTime": "2015-07-23T04:08:34",
      "parentPostId": "2152350840"
    },
    {
      "threadId": "3940227111",
      "post": "And I don't think he's a candidate for the Great Hypocrisy Watch™\n\n\nWhile I appreciate the point that it's easy to endorse the revocation of a planned tax cut for others (although perhaps RC earns 150k/yr?), I do believe we are allowed to occasionally discuss the merits of government policies even if they don't directly relate to us.",
      "time": "2015-07-17T17:57:06",
      "id": "2142493620",
      "parentPost": "So did I.  And?",
      "parentPostTime": "2015-07-17T17:41:14",
      "parentPostId": "2142465516"
    },
    {
      "threadId": "3909398753",
      "post": "With respect MB, Ireland and Iceland had a different problem (they allowed their banking sectors to grow larger than their respective governments & GDPs could backstop).\n\nYet Iceland has recovered quite nicely. Therein lies a lesson: Iceland maintained it's own currency. They also didn't engage in ruinous austerity and did crazy things like actually hold their bankers to account. As in threw them in jail for crimes committed. Greece needs to generate revenue in order to pay it's creditors, but the slash and burn policies insisted by the EU have crashed it's economy and it's revenue.\n\nThe Readers Digest version of all this is this: \n\n1. Prior to adopting the Eurozone, Greece was a mild to moderate credit risk and paid interest rates that reflected that accordingly. As you mention, Greece has problems. Greece has a recent history looming over it like a shadow. But so do other countries.\n\n2. Greece joins the Eurozone and creditors start lending it money at lower rates in the mistaken belief the European project wasn't a house of cards. ie. Germany and/or the ECB would stand by the debts of member countries as the Bank of Canada would, push come to shrug, for the provinces here. And yes, Greece borrowed money. Because, you know, interest rates were low. What better time?\n\n3. After 2010, creditors start charging Greece high interest rates again while the EU simultaneously demands austerity. Greece can no longer afford to even borrow money to service it's debt.\n\nAs a side note, Greece's debt to GDP ratio in 2008 was 100%*. Now it's 172% and yet they've implemented all the austerity that was demanded of them.\n\nIf Greece, like Iceland, had maintained the drachma then the Greek Central bank would have had the option to \"print money\" as they say and/or devalue we would likely not be here. If the EU had acted in the spirit it was set up for and ECB had acted like a real Central Bank instead of as a proxy for Germany we would likely not be here.\n\n<i>But a significant part of that stems from the behaviour of its own citizens, businesses and politicians.</i>\n\nAnd yet only one of those three are being made to pay. The simple fact is the Euro was an idea half-implemented at best and fundamentally flawed at worst. Was Greece a middle-income state with governance not up to, say, German standards? Yes. Did it start acting like a high-income state with German-level governance after joining the Eurozone? Yes. Is this the heart of the issue? Extenuating, but ultimately no. Spain was running surpluses and had debt to GDP ratio of 30% when the crisis hit. And yet they're close to being in the same boat.\n\n\nThe EU will do what it will do. If they not worried about 25% unemployment, so be it. If they want to let radicals run riot in the streets of Athens, so be it. Just don't be surprised if some future Greek government decides to throw in with the Russians or Chinese.\n\n*This sort of debt to GDP ratio is not historically unusual. Japan's is currently 237% and no one worries about Japan. Most major countries including the UK and US have had much higher ones, particularly after the war. Did they slash spending? No, their economies grew and as a result those debt ratios shrank.",
      "time": "2015-07-10T00:27:56",
      "id": "2127609847",
      "parentPost": "There were several docs out on the uncouth behaviour of the banks.  In one of them they outlined how Greece was sold down the Agean on suspect deriviatives by Goldmand Sachs and others just before the whole toxic paper mountain collapsed.  The banks got their fees and profits while these nations were left holding the debt.\n\nThe same thing occurred with Ireland, Iceland and a few other nations who should have known better.  And knowing better is key here. Greece has an added reputation for a vast underground economy where corruption and tax avoidance is a national sport, and therein they have undercut their government by tens of billions of Euros a year at the same time the government foolishly piled on the debt. \n\nhttps://en.wikipedia.org/wiki/Tax_evasion_and_corruption_in_Greece\n\nPerhaps the EU financiers have been too demanding and conservative in their requirements for deep austerity in exchange for bailouts.  But there is a point to be made here that this is in the context of a lot of corruption, a lack of accountability and poor fiscal acuity.\n\nThe bailed out banks were filled with charlattans who are still flogging the same damned precept that having extreme debt-to-asset ratios and playing chicken every hour with other's money is part of the culture, and are still in a precarious financial position.  But I doubt they will ever get bailed out to the same extent again because there just ain't enough devalued money left in the world or public will to socialize the losses any further.\n\nGreece may default and go back to the drachma, and there will be a lot of suffering as the result.  But a significant part of that stems from the behaviour of its own citizens, businesses and politicians.  It's a shame because Greece is a beautiful country with overall fine people and deep ancient history.  Insurmountable debt is a hard but fair teacher, especially when you are forced to start over and consider building a better society.",
      "parentPostTime": "2015-07-09T23:20:23",
      "parentPostId": "2127516608"
    },
    {
      "threadId": "3859958847",
      "post": "The title of this piece is \"City of Vancouver's red tape inflating housing prices.\"  Missing is any sort of analysis of what percentage of a home's price is due to costs incurred by complying with the City's bylaws. 10%? 20%? Or 0.2%? Or why a developer would pass along the savings to the purchaser should such \"red tape\" was eliminated. It's all just ancedata.\n\nAs always with these things, the devil is in the details. Which \"red tape\" should be eliminated? For example, the tree stump removal fee* is, as far as I can tell, mostly due to requiring a certified arborist determine if the tree meets certain criteria. What would happen if we removed that requirement and left it up to the developer to determine if a tree can be removed? \n\nHow do you think that would work out?\n\n*Keith Roy says it costs \"$561 to $650\" to \"get permission\" to remove a tree stump and a dead pear tree. According to the CoV's website the costs are: \n\nTree removal permit: first tree removed in a 12-month period - $65.00\nTree removal permit: each additional tree removed in the same 12-month period - $186.00\n\nhttp://vancouver.ca/home-property-development/tree-removal-permit.aspx",
      "time": "2015-06-22T17:44:13",
      "id": "2093140552"
    },
    {
      "threadId": "3816140354",
      "post": "Seems a bit slapdash.",
      "time": "2015-06-04T21:58:52",
      "id": "2062594645",
      "parentPost": "Hmmm very misleading. It is saying as of 2001 basically all of Grandview Heights is as 'urban' already which it most certainly was not. Go look at an aerial from 2001, it's all rural west of the freeway.\n\n\nWhere did it get that 2001 'urban area' from?\n\n\nOk, in the overview it says it did it from aerial photos. I have no idea how that makes any sense.",
      "parentPostTime": "2015-06-04T21:24:20",
      "parentPostId": "2062542819"
    },
    {
      "threadId": "3815869016",
      "post": "His point is he's shocked that a commission investigating residential schools contained members of the First Nations in the same way he would be shocked investigators looking into German war crimes were Caucasian. Ironically he is not shocked that this column was written by a supervisor of a residential school and thus might be self-serving and be in a conflict of interest.",
      "time": "2015-06-03T01:13:03",
      "id": "2059132259",
      "parentPost": "I don't see your point.",
      "parentPostTime": "2015-06-02T22:55:22",
      "parentPostId": "2058970396"
    },
    {
      "threadId": "3701226135",
      "post": "Hey Allthat,\n\n\nIf you are going to doxx someone to attempt to intimidate them into silence, you really need to up your game. At least post my name & address and if you *really* want to get my attention, maybe my child's school.\n\n\nI know shooting the breeze about issues on a corner of the internet is life or death to some, but maybe just settle the f$@k down. It really doesn't matter that much.",
      "time": "2015-05-01T17:15:44",
      "id": "1998004359",
      "parentPost": "PS Spartikus.\n\nUnrelated, but I can't help flagging this as it does pertain to more each 'skills' as exhibited to certain of the posters here.\n\nI see our 'non partisan' librarians have recently taken up the cause (e.g worked in lockstep with the 3rd floor at City Hall), and brought propaganda operations inside, on behalf of the ruling party. :-) On the taxpayers dime, yet again.\n\nPhew! Sure does cost a pretty penny to data mine and develop new talent, doesn't it?\n\nhttp://www.straight.com/news/w2-hopes-avoid-eviction",
      "parentPostTime": "2015-05-01T15:24:07",
      "parentPostId": "1997812396"
    },
    {
      "threadId": "3701428372",
      "post": "<i>“It’s like that thing about state and religion, how you try to separate it,”</i>\n\nPublic transit = Psalms 23 for some I suppose. \n\n\nIt equals a safe, economical way for my daughter to get to her school for me.",
      "time": "2015-04-22T05:00:48",
      "id": "1980743335"
    },
    {
      "threadId": "3687484196",
      "post": "This seems as good a place as any, but here is the <a href=\"http://www.courts.gov.bc.ca/jdb-txt/SC/15/05/2015BCSC0599.htm\">Judge's ruling in Helten v. Robertson/Meggs</a>\n\nQuestion: The judge writes the following in the conclusion:\n\n<i>Unless either of the parties wishes to make further submissions on costs, the ordinary rule will apply, and the respondents will have their costs at Scale B.  If there are to be submissions on costs, they should be made, at least initially, in writing, on a schedule to be agreed by counsel.</i>\n\n\n\nFor all I know this may be standard in such things, but it strikes me as an invitation to apply for special costs.",
      "time": "2015-04-17T19:34:21",
      "id": "1973151304"
    },
    {
      "threadId": "3669117655",
      "post": "<i>I have no idea how you could climb into Christy Clark's mind so readily.</i> \n\nGee...with her love of highways & big bridges for automobiles and the very fact of calling an unprecedented referendum on transit in the first place...call it an informed guess.\n\n<i>you'[ll find out how few people actually live here</i>\n\n\n\nOh snap! Except we still have a short-form census that Stephen Harper hasn't managed to ruin yet.\n\n\nYou're not standing up to Christy with a \"No\" vote. All you are doing is screwing transit users. Don't fool yourself.",
      "time": "2015-04-10T21:08:21",
      "id": "1958035270",
      "parentPost": "I have no idea how you could climb into Christy Clark's mind so readily.  Perhaps you could tell us why she gave us this Hobson's choice in the first place, O omniscient one?  She's playing politics with a veangance on Vancouver, and as long as she has shills who encourage us to play her game, she will always win.  \n\nNeither I nor most of the region's residents are playing.  And she will be taken care of in 2017.  Meanwhile, let's continue planning the region in an organized fashion starting first with the assumption that people will continue to move here for the forseeable future even though there are no jobs here apart from serving each other coffee and renovating each other's apartments. \n\nWhen hot money from China, Thailand and other crooked jurisdictions stops sloshing around the world (or better yet, when some BC politician grabs the stones to tax it as it sloshes around here) the rampant speculation that has driven our local economy for a decade will screech to a halt and you'[ll find out how few people actually live here. .",
      "parentPostTime": "2015-04-10T19:22:26",
      "parentPostId": "1957848426"
    },
    {
      "threadId": "3632002886",
      "post": "Ok Thomas.",
      "time": "2015-04-03T17:28:13",
      "id": "1944487390",
      "parentPost": "Maybe the local Governments shouldn't have given away the farm to public sector employees and they wouldn't have needed a new revenue source.",
      "parentPostTime": "2015-04-03T04:34:45",
      "parentPostId": "1943620178"
    },
    {
      "threadId": "3650812125",
      "post": "It's being reported in the media that Vision is paying.",
      "time": "2015-04-03T17:26:48",
      "id": "1944485166",
      "parentPost": "Are the Meggs/Robertson legal costs borne by the City because they were acting in their capacity as councillors or were they acting on behalf of Vision the political party and not the citizens when they made the impugned statements,. Vision should perhaps cover the costs.\n\n\nThere is a fine difference and why should ordinary taxpayers pay to support the CUPE position ?\n-30-",
      "parentPostTime": "2015-04-03T05:56:25",
      "parentPostId": "1943693746"
    },
    {
      "threadId": "3599856034",
      "post": "<i>I’m a little disappointed that your behaviour goes unremarked by some of the other regular commenters here.</i>\n\n\n\nThere are only so many hours in the day, Chris.",
      "time": "2015-03-22T02:10:58",
      "id": "1920678594",
      "parentPost": "You haven't been paying attention. You don't upset me because I have zero expectations you will debate with integrity. I'm a little disappointed that your behaviour goes unremarked by some of the other regular commenters here. I do find your tendency to make bold statements and then run from them (see the great Singapore Retreat that you had to engage in as an example) a bit frustrating. But I've always found fools maddening.",
      "parentPostTime": "2015-03-21T23:25:52",
      "parentPostId": "1920522261"
    },
    {
      "threadId": "3592483363",
      "post": "<i>Good planners fix the issues in front of them and once the system is streamlined they plan for growth of their effective model</i>\n\nHi, yeah - the future unfolds whether you want it to or not. The region is growing, whether you want it to or not. Waiting until everything is perceived to be \"perfect\" (and it never will be) is simply a recipe for perpetual problems.\n\n<i>Skytrain is the most expensive transportation system per kilometer of track on the planet period.</i>\n\nBesides being false (the most expensive transportation system per kilometre of track was London's Jubilee Line - see <a href=\"http://www.railway-technical.com/finance.shtml\">here</a> for more) it's also a non-sequitor.\n\nTranslink didn't exist when Skytrain tech was chosen for the Expo & Millennium lines. The provincial govts at the time chose it. \n\nThe Translink board favoured LRT for the Evergreen Line and was overridden by the BC Liberals in favour of Skytrain. This was one of the reasons then Tranlink chief Thomas Prendergast departed.\n\nIn 2005, the Translink board unanimously rejected faregates, again only to be overridden and replaced by Kevin Falcon (whose pal Ken Dobell went on to become a lobbyist for Cubic thereby sealing the deal) & the BC Liberals. Oddly the CTF didn't include the faregates in their list of Translink \"waste\".\n\nThe problem begins and ends in Victoria. The solution is a new provincial government, not defunding transit. \n\nI will not send my \"message\" on the backs on transit users or the region's economic health. To do so is selfish, self-defeating and stupid.\n\nI will send my message in the vote that might actually change such things: The provincial election.",
      "time": "2015-03-17T20:19:29",
      "id": "1912462248",
      "parentPost": "Good planners fix the issues in front of them and once the system is streamlined they plan for growth of their effective model.When is this going to happen in BC?  Skytrain is the most expensive transportation system per kilometer of track on the planet period. The other cities who took up Skytrain have not updated or added to their systems or have shut them down because they are not cost effective. What is the total passenger subsidy for each ride on Skytrain, 8 bucks, 10?  Will it ever be paid off.\nPeople are fed up of being gouged and lied to. If there was transparency then this might be a different kettle of fish.",
      "parentPostTime": "2015-03-17T19:14:29",
      "parentPostId": "1912280516"
    },
    {
      "threadId": "3561155544",
      "post": "This is an excellent book that touches on that subject (as well as many others). \n\nhttp://www.amazon.com/Flat-Earth-News-Award-Winning-Distortion/dp/0099512688\n\n\n\nAfter reading I came out of it feeling a great deal of sympathy for those trying to make a career as reporters. Declining pay, resources, extra duties, etc.",
      "time": "2015-03-06T18:20:55",
      "id": "1892157174",
      "parentPost": "It's hard to trust reporters nowadays with so many of them leaving news organizations for jobs in corporate public relations.  i wonder if there's a list somewhere.  \n\nI don't begrudge Jas Johal's personal career aspirations, but other frustrated reporters have to understand that it adds to the general public's perception that media is biased.  It's such an unstable career now, I wonder how many investigate the news with the fear of burning future bridges?\n\nhttp://www.straight.com/blogra/795906/jas-johals-career-transition-reporter-lng-industry-publicist-isnt-unusual",
      "parentPostTime": "2015-03-06T17:51:39",
      "parentPostId": "1892104468"
    },
    {
      "threadId": "3530105605",
      "post": "Actually it has more to do with having realistic expectations and actually taking the time to see how things have played out elsewhere in comparative sample sizes larger than Hong Kong and London before proclaiming \"incompetence\". \n\nEvery card of this type - including Octopus and Oyster - has been rolled out over years, and quite a few of them, if not the majority, have had technical problems.\n\nI'm not sure how the contract with Cubic is structured, but i note this:\n\n<i>But some Metro Vancouver directors, particularly in Burnaby, argued the regional district should not be paying for cost overruns associated with a provincial project that was pushed through without Metro’s approval.\n\nMadill said no operational costs will be paid to Cubic Transportation Systems, which designed and built the system, until the project is running smoothly.</i>\n\nhttp://bc.ctvnews.ca/compass-card-systems-causing-problems-in-other-cities-1.1841284\n\nThe overruns may be, though it may not either, the vendor's cost to swallow or partially swallow.\n\nYou'll note that London's system has also encountered the same problems with the tap out requirement:\n\n<i>In London, England, many riders say tapping out with their Oyster cards doesn’t always work. And, just as in Vancouver, when the system doesn’t register a tap out, the rider is charged the maximum fare.\n\nWhen you add together all the overpayment in London, the figures are huge, according to the BBC: an overpayment of as much as £64 million a year, the equivalent of about $110 million. The Greater London Authority disputed those figures, saying they are closer to £14 million a year.\n\nThe equivalent in Vancouver, a system about a fifth of the size of London’s, would be between about $5 and $23 million a year.\n\nCaroline Pidgeon, a member of the London Assembly, told the BBC that overcharging of that degree can’t be blamed just on people forgetting to tap out.</i>\n\nhttp://bc.ctvnews.ca/compass-card-systems-causing-problems-in-other-cities-1.1841284\n\n\n\nIt strikes me that Translink could have rolled it out and taken the extra revenue, as London did. That they haven't suggests they're actually trying to look out for the transit user.",
      "time": "2015-03-02T21:11:54",
      "id": "1884039117",
      "parentPost": "So, your assertion is that we can't reasonably expect Translink to accomplish something that's not easy?  Damning with faint praise, IMO.",
      "parentPostTime": "2015-03-02T19:29:11",
      "parentPostId": "1883858503"
    },
    {
      "threadId": "3507944719",
      "post": "Oddly, in 2013, the Fraser Institute found the differential to be 13.6%. A year later it's 6.7%.\n\nhttp://www.fraserinstitute.org/uploadedFiles/fraser-ca/Content/research-news/research/articles/comparing-public-and-private-sector-compensation-in-BC-ff-2013.pdf\n\nDid the facts on the ground change? No.\n\nThe Fraser Institute's methodology changed, after being widely mocked by real economists.\n\n\n\nAs mentioned above, the differential is almost entirely due to that pesky requirement by the public sector to pay women and people of colour the same wage as white males.",
      "time": "2015-02-22T02:06:50",
      "id": "1868586034",
      "parentPost": "Translink is not a deflection.  If someone knocks on your door offering to paint your house for an estimated $10,000 on a time and materials basis which you can pay for by direct withdrawal from your bank account over the next year most people would first reflect on whether the house needs painting, will the painter be able to deliver on its estimate based on its track record and whether you are willing to pay the $10,000.  The last thing you consider is how you are going to pay for it.\nFair enough if you are satisfied with the performance of Translink but if you are using the public sector as your measure of efficiency then you should consider using a different yardstick.  The Fraser Institute has quantified the differential earned by B.C. public sector employees over the private sector at 6.7% (you may say that's a bargain since the differential in Ontario is 11.5%).  Think of all the additional public services (not just in transit) if the public sector was just paid on an equal scale as the private sector.",
      "parentPostTime": "2015-02-18T17:24:51",
      "parentPostId": "1862057501"
    },
    {
      "threadId": "3483208101",
      "post": "The origins of the Compass Card & the fare gates as from provincial government dictat - over the objections of the then Translink board -  has been discussed here previously ad nauseum. But, since you obviously know, what was the implementation rate of this type of system in other cities? You see, to claim \"mismanagement\" you have to compare it with other examples to show whether it's an a) easy thing botched or a b) difficult thing undergoing typical implementation problems. \n\nNot being able to upgrade certain pieces of equipment is a result of funding scarcity of the type you advocate. But again, and as you surely know because you make definitive statements, what is the breakdown rate of our Skytrain system to mass transit systems in other cities. Perhaps you could provide a chart? Or is it your position that Translink is unique in the world in experiencing breakdowns?\n\nThe Transit Police is the creation of, and beholden to, the provincial government via the <i>Greater Vancouver Transportation Authority Amendment Act</i>. Only they, not Translink, can disband them.\n\nAnd with that, goodbye. You're not here in good faith.",
      "time": "2015-02-05T02:54:46",
      "id": "1835774719",
      "parentPost": "It is not just the visible waste at issue with Translink but their record of poor decisions:\nThe Compass Card fiasco - if Translink can't implement a small project like this on time on budget yet we expect them to do better with the $7.5 billion transit plan?\nDecision not to upgrade Skytrain equipment resulting in the shut down last year.  Would we accept a private company cutting corners on a potential safety issue to save money?\nA very costly Transit Police - why are we paying people over a $100,000 a year to check tickets?\nAnd it isn't a scare tactic to inform people of how much tax they are paying and what the politicians are doing with it.  You could afford more services than we receive today just by bringing compensation in the public sector in line with the private sector.  If we keep giving the politicians more money to spend there is absolutely no incentive for them to hold the line on compensation.",
      "parentPostTime": "2015-02-05T00:47:44",
      "parentPostId": "1835634727"
    },
    {
      "threadId": "3483168197",
      "post": "I joked earlier that I'd like to see this turned into a open air Bavarian beer garden. But in a city without a true central square, isn't this space, if the platform is extended north, the perfect spot for a civic square? \n\n\nView, centrality, and next to a major transit hub. A perfect spot for protesting The Man.",
      "time": "2015-02-04T02:37:36",
      "id": "1833727843"
    },
    {
      "threadId": "3446136706",
      "post": "<i>Did you have to stretch before you reached?</i>\n\nJesus Christ. Good-bye",
      "time": "2015-01-31T02:34:17",
      "id": "1826696987",
      "parentPost": "Did you have to stretch before you reached?  I think we all know some vans and trucks and cars are used for commercial purposes.  Is it possible you are forgetting about the really big vehicles moving large quantities of goods though?  I'm pretty sure they pay as well, regardless of where they are from. In fact I'm almost certain they pay considerably more for just about everything.",
      "parentPostTime": "2015-01-31T02:19:43",
      "parentPostId": "1826682859"
    },
    {
      "threadId": "3464224368",
      "post": "CPR has also paid some lawyers in losing cases.",
      "time": "2015-01-29T23:34:20",
      "id": "1824637468",
      "parentPost": "In fairness, most of these proceedings involve the City as a defendant or respondent.   With the exception of the CPR injunction action, the City didn't instigate the proceedings and had no choice but to respond.\n\n\"Or, maybe they should fire their lawyers(!).\"\n\n\nOh, I don't know about that.  I don't think there are any lawyers alive who could have won the CPR issue.",
      "parentPostTime": "2015-01-29T23:19:18",
      "parentPostId": "1824617767"
    },
    {
      "threadId": "3464164222",
      "post": "Sayeth Minister Stone: <i>...the idea is for people to vote on the “concept” of the tax</i>\n\n\n\nYou're damn right they don't really want this to succeed. It's out and out sabotage.",
      "time": "2015-01-28T22:11:52",
      "id": "1822308295",
      "parentPost": "Funny, it continues to kinda feel like the Province doesn't want this to succeed or something.",
      "parentPostTime": "2015-01-28T21:41:46",
      "parentPostId": "1822249100"
    },
    {
      "threadId": "3442943679",
      "post": "A beer garden is in essence an open square!",
      "time": "2015-01-22T02:25:40",
      "id": "1810371181",
      "parentPost": "Neat building, but wrong place for it. I actually like mixing modern and heritage (Flats on Georgia is great in Chinatown IMO), but the way this building creeps over the train station isn't right. \n\n\nThis parking lot should be mostly an open square. That's one thing I think most people should be able to agree on.",
      "parentPostTime": "2015-01-22T00:58:02",
      "parentPostId": "1810271613"
    },
    {
      "threadId": "3414848332",
      "post": "As has been pointed out to you before, Singapore's government invests heavily in public transit and engages in all sorts of taxation and licensing to encourage it's use and discourage the use of private automobiles.\n\nThat some of it is put out to tender is besides the point. The government is ponying up.\n\nSingapore does have one of the most efficient public transport networks. Interesting however, not the most efficient. That honour goes to Copenhagen and Madrid.\n\nhttp://www.siemens.com/press/pool/de/feature/2014/infrastructure-cities/2014-06-mobility-opportunity/Study-mobility-opportunity-preview.pdf\n\nI also found the comment on this story amusing. \n\nhttp://www.straitstimes.com/news/singapore/transport/story/study-singapores-public-transport-system-one-worlds-most-efficient-20\n\nOf note:\n\n<i>And also most crowded and expensive, add it to the crown please.\n\nHi ST your headline and the story is \"misleading\", it's about COST EFFICIENT, Not Efficient.\n\nIt's efficient in breaking down and slowing down too...</i>\n\n\n\nAll of which proves nothing, other than grumbling on internet comment boards is a universal comment.",
      "time": "2015-01-20T04:00:46",
      "id": "1803669023",
      "parentPost": "A substantial proportion of transit in the lower mainland will eventually be privatized. As in Singapore, this will almost certainly improve efficiency. \n\nAndrew Coyne suggested privatization of transit in his SFU presentation ( it's on YouTube ). \n\n",
      "parentPostTime": "2015-01-20T03:38:23",
      "parentPostId": "1803643508"
    },
    {
      "threadId": "3396993867",
      "post": "Hi Brilliant,\n\n\nThe Victorian Era called. It'd like it's prudery back.",
      "time": "2015-01-09T16:11:40",
      "id": "1782620793",
      "parentPost": "Nobody asked the question during the campaign. Does anyone really think Moonbeam just ditched his wife on a whim. There was a  reason. But apparently mere mortals weren't deemed worthy of knowing and the media sat on the story.",
      "parentPostTime": "2015-01-09T07:59:43",
      "parentPostId": "1781674921"
    },
    {
      "threadId": "3334857583",
      "post": "<i>When the previous growth document, \"Livable Regional Plan\", was unfolded it estimated 4 million people living in the region by 2020.</i>\n\nThe actual quote is:\n\n\"In 1999, the population reached two million, and nearly one million more people may live here by the year 2021.\"\n\nhttp://www.metrovancouver.org/about/publications/Publications/LRSP.pdf\n\nThe current population of Greater Vancouver is 2,451,783. If it increases 1.5% a year (as it has been recently, approximately) it will  reach 2.7 million by 2021, which is not far off.\n\nAs for 4 million, you may be confusing this with a different quote from Liveable Regional Plan\"\n\n<i>In 1960, the Georgia Basin/Puget Sound bioregion was home to 2.6 million people. By 1996, the population had risen to over 6 million. By 2020, there may be an additional 3 to 5 million more people living and working in this area</i>\n\n\n\nIn others, Greater Vancouver AND Greater Seattle plus everything in between.",
      "time": "2015-01-05T19:45:14",
      "id": "1773390167",
      "parentPost": "By \"transit investments\" you mean urban rail investments and the reason for urban rail investments is for shaping growth according to North American transportation planners.\n\nThe Mayors believe yet again in their own population forecasts.  When the previous growth document, \"Livable Regional Plan\", was unfolded it estimated 4 million people living in the region by 2020.  Under the Regional Growth Strategy that estimate is now 3 million but in 2030!\n\nPoliticians love predicting the future as there is no way of proving the accuracy of the prediction.\n\nIn LA the number of daily boardings on its transit system are mainly on buses, 1.1 million, the rest, 300,000, is on rail, however, many rail passengers also arrived at their train stations on a bus.\n\nVote NO!",
      "parentPostTime": "2015-01-05T16:37:30",
      "parentPostId": "1772858658"
    },
    {
      "threadId": "3313697743",
      "post": "That's pretty much what my link below says. Most of their staff are salespeople paid on commission who seek new members and their entrance fees. And members don't vote on the CTF's positions. That's all done in secret by the appointed leadership.",
      "time": "2014-12-12T15:53:10",
      "id": "1738807051",
      "parentPost": "My main impression of them is that they are simply in it to pay their own salaries by riling people up so they will give money without actually becoming members. The CTF is not in any way an actual federation, but essentially a privately held corporation that 'sells' outrage. Be it said, news media love this kind of organization and do not care how they are organized, because they are always easily available for a pithy and reliable quote. Remember that most news organizations are also in the business of paying their owners and investors by 'selling' whatever will draw eyes and ears; and outrage works very well for them, too.",
      "parentPostTime": "2014-12-12T06:35:52",
      "parentPostId": "1738140865"
    },
    {
      "threadId": "3305792367",
      "post": "The preceding comment was brought to you by The Onion.",
      "time": "2014-12-09T16:08:53",
      "id": "1733368545",
      "parentPost": "Without cars, and drivers Canada would cease to function. Not so without cyclists. Drivers are keeping the whole population alive so there is no fair comparison.",
      "parentPostTime": "2014-12-09T15:52:57",
      "parentPostId": "1733344239"
    },
    {
      "threadId": "3291038200",
      "post": "You'll need to revisit the definition of ad hominem. It does not mean what  you think it means.\n\n<i>\"Shill our children out\" is a meaningless (and insulting) statement in this context.</i>\n\n\n\nNo more than your attempt to frame acceptance of corporate donations as \"adult\". The language of which, yes, I deliberately mirrored. Or that the only choice is between accepting corporate donation or the \"kids will go without\" (Emotionalist, tsk tsk).\n\n\nAnd once again we must note your attempt to try and change the channel away from the ethics of the Sun editorial.",
      "time": "2014-12-08T23:50:49",
      "id": "1732413263",
      "parentPost": "\"Shill our children out\" is  a meaningless (and insulting) statement in this context. Kids wouldn't even see any of the mechanisms by which school's receive money. And if a few people changed where they bought their gas does that matter a bit? Tell me how.\n\n\nI presume all adults read all articles on this subject with a critical eye. I assume you think you do.\n\nIn any event, you seem quite content to lower the level of debate to ad hominem attacks, imputed positions ( For instance \"I know it doesn't sit well with you, but an adult accepts the outcome of the democratic process.\" Childish of you.), and concluding that kids will go without while adults conduct a futile debate. Patti Bacchus, union members, and you all seem to like to sling mud and miss the point. Clearly there should be a bit more emphasis on logic and critical thinking in our schools.",
      "parentPostTime": "2014-12-08T23:35:09",
      "parentPostId": "1732373353"
    },
    {
      "threadId": "3285293290",
      "post": "And who appointed these execs and set their compensation package?\n\n\nOh right, the BC Liberals.",
      "time": "2014-12-04T02:17:41",
      "id": "1724794870",
      "parentPost": "Given that the .media just revealed the  very generous vehicle allowance for Translink execs, the taxpayer is right to be skeptical. If they don't believe in their own product why should we?",
      "parentPostTime": "2014-12-03T22:17:17",
      "parentPostId": "1724508562"
    },
    {
      "threadId": "3285263363",
      "post": "<i>The activist groups that were trying to marshall support for change were so black and white, so hostile to moderates, that those middle-of-the-road voters felt like they didn’t belong.</i>\n\nHere here.\n\nYou will never gain allies if you assume people, if they aren't already on-board with your program, must therefore be enemies. And if you find people are not being convinced by your arguments...maybe it's your arguments and not them.",
      "time": "2014-12-04T00:23:52",
      "id": "1724673162"
    },
    {
      "threadId": "3266148272",
      "post": "Meanwhile, pgs S-3 & S-4 <b>of your own cite</b> show a long-term decline of all particulates except ozone.",
      "time": "2014-11-27T20:34:59",
      "id": "1715745523",
      "parentPost": "Page 8 of \n<b>metrovancouver.org/about/publications/Publications/2013_LFV_AQ_Monitoring_Report.pdf\n</b>\n\"Fine Particulate Matter (PM2.5) – 2013\nMonitoring results for all PM2.5 monitoring stations with sufficient data requirements are shown in Figure S8. The Canadian Ambient Air Quality Standard values for two stations are not shown in Figure S8 because the data are incomplete for the year.\n\n...Metro Vancouver’s 24-hour PM2.5 objective was exceeded at five stations in 2013. Exceedances occurred during three separate periods on January 20-22, October 19-20 and November 25-26.\nElevated levels of regional PM2.5 can occur when high pressure weather systems are present. Typically experienced in the summer, 2013 had three occurrences of high pressure systems which contributed to PM2.5 exceedances in the fall and winter. During these times regional and local emissions sources combined with stagnant atmospheric conditions led to elevated PM levels.\"\n\n<b>BUT </b>see worries in <b>Paris </b>[ <b>airqualitynow.eu/city_info/paris/page2.php</b> ]\n<b>aqicn.org/city/paris/</b>\n\nAnd the usual summer debate: <b>theguardian.com/environment/2014/mar/17/paris-worse-air-pollution-beijing</b>\n\nAnd Kits, \"It's Organic!\" ;)\n\nhttp://aqicn.org/city/british-comlumbia/vancouver-kitsilano/",
      "parentPostTime": "2014-11-27T19:11:43",
      "parentPostId": "1715648383"
    },
    {
      "threadId": "3242312556",
      "post": "Perhaps Gasp could cite us the vacancy rate for business properties - statistic that is publicly available. \n\n\nI remember another commenter here claiming 4th Ave. was a ghost-town due to the Pt. Grey Rd bike lane. So I walked it's length and found precisely \"For Lease\" signs on stores.",
      "time": "2014-11-27T15:52:35",
      "id": "1715405979",
      "parentPost": "<p><i>Businesses, families and retirees are now leaving Vancouver because it's becoming too expensive to live here. In the past week, I've heard from 5 long time residents who are now planning to leave, even though they had no intention to do so 5 years ago. Businesses are also closing all over the City due to high taxes.\nTake a walk along Denman, or Robson, or 4th Avenue or West Broadway and see for yourself what's going on.</i></p>\n\nAnecdotal evidence at best.  Most arterials with mixed use storefront commercial zoning are thriving and business is growing.\n\nLocal and provincial property taxes are based on the value of land.  The market created the high land values through simple supply and demand mechanisms.  Speculation helped, but the land values held under a major recession which tested the bubble theory and found it wanting.  Businesses can write off a portion of their taxes, residents cannot.  The landowners pass\nit on the tenants.  Vancouver has lowered commercial taxes while raising residential taxes.  So where’s your balance in the reality of the land value escalator, Gasp?\n\nYou have posted comments lamenting the loss of “green space”, then the loss of industrial lands.  You’re now defending car-dependency and suburban sprawl using a highly suspect and provably vested source.  I don’t see how you can reconcile these conflicting issues.\n\nNow you’re going on about some kind of mass migration out of Vancouver (presumably to the suburbs) based only on affordability issues, not on other things like retirees downsizing regardless of housing costs, employment opportunities elsewhere, etc. etc.  \n \nYou also do not account for the huge jump in transportation costs families experience in the suburbs where car ownership is necessary.  Even with the most\nrecent decrease, fuel is still 500% higher than 15 years ago.  In some jurisdictions transportation ends up\nequalizing the total cost burden on family budgets comparing more expensive inner city housing in a low-cost transit and walking environment to lower suburban\nhousing costs jacked by multiple vehicle ownership.  Doing the research may lead some families to\ndecide to stay put in more expensive Vancouver. Mine is one of them.  This economic phenomenon is common and not isolated to Vancouver.\n\nFamilies at the periphery also do not pay fully for the public services they consume.  Publicly financed roads and utilities consume a horrible amount of land\nand are stretched farther out to serve fewer people.  [There’s the source of your runoff toxins, Gasp.]  Families who drive more have more accidents and therefore cost the public healthcare, insurance and court systems a lot more than the downtown walkers, transit users and cyclists who pay just as many income and property taxes.  How is this not an inner city subsidy to exurbanites?",
      "parentPostTime": "2014-11-26T22:14:36",
      "parentPostId": "1714433502"
    },
    {
      "threadId": "3231347361",
      "post": "<i>I'd like to think that voters are motivated by the issues</i>\n\n\nI'm not suggesting they aren't. On the contrary, I'm pointing out the Sun's poll suggesting which issues motivated them. I could be wrong but don't think the other issues are sufficiently embarrassing for social desirability bias to come in to play.",
      "time": "2014-11-18T01:22:45",
      "id": "1698399439",
      "parentPost": "I hate to throw cold water on this parade, as I'd like to think that voters are motivated by the issues. But numerous studies have shown that what people self-report they like/want/are influenced by is somewhat different, it turns out, from what they actually like/want/are influenced by.\n\nIf you ask people what kind of news they read, they will invariably tell you international news or local politics or issues. When a machine tracks what they actually read, it turns out it's somewhat lighter than that. We like to portray ourselves in a good light.\n\nThat's not to say people don't care about issues. But they may be influenced more than they think by peripherals.\n",
      "parentPostTime": "2014-11-17T23:55:24",
      "parentPostId": "1698271248"
    },
    {
      "threadId": "3196933473",
      "post": "Yep. (and as for the voluntary disclosure proposal, it goes like this: \"I'm asking the people whom I vehemently distrust to voluntarily disclose information because, hey, I will trust them.\")\n\n\nOnly the weight of law will have actual teeth. And the province makes the law on this here.",
      "time": "2014-11-06T17:49:31",
      "id": "1679905161",
      "parentPost": "Yet we think throwing out group A and replacing them with group B will change anything? It's truly bizarre why anyone thinks that...\n\n\nDon't hate the players, hate the game as the saying goes. You want actual change, start with the Province. Good luck with that.",
      "parentPostTime": "2014-11-06T16:39:35",
      "parentPostId": "1679787785"
    },
    {
      "threadId": "3185323418",
      "post": "Overheard on the street this morning [mother to child]: <i>\"Gregor Robertson is our mayor. He lives in a big house on a private road where no cars are allowed....\"</i>\n\n\nThe great thing about #vanpoli is the campaigns take great care to inform the voters accurately on the issues that matter. \n\n\nMission accomplished!",
      "time": "2014-11-04T17:21:27",
      "id": "1676091956"
    },
    {
      "threadId": "3163801921",
      "post": "<i>The contract is between the city and the union for specific services which is no different that a contract between the city and a private company</i> \n\n\n\nOnce again, no. A collective agreement is a agreement b/w an employer and it's employees that \"regulates the terms and conditions of employees in their workplace, their duties and the duties of the employer\" that a trade union negotiates and signs on their collective behalf.",
      "time": "2014-10-31T18:56:48",
      "id": "1663582451",
      "parentPost": "The contract is between the city and the union for specific services which is no different that a contract between the city and a private company.  In both cases individuals  provide the contracted services.\nAgain - would you see nothing wrong if a political party guaranteed to a private company they would not consider bringing a contracted service in-house in order to secure that company's political support?",
      "parentPostTime": "2014-10-31T17:45:07",
      "parentPostId": "1663428922"
    },
    {
      "threadId": "3153102022",
      "post": "Callback: \"A telephone call made to return a call received.\"",
      "time": "2014-10-27T16:24:55",
      "id": "1655979700",
      "parentPost": "They call you out of the blue? Robert Lindsay and  Dave Rudberg read your blog all the time?\n\n\nOr does this mean <blockquote>After deadline, I got a callback from a couple of people I respect on transportation issues who gave me their assessment of the idea.\n</blockquote> \nthat you called them?\n\n\nMaybe they couldn't get through the barriers imposed by Disqus?\n\n\nPeep!",
      "parentPostTime": "2014-10-27T06:11:54",
      "parentPostId": "1655410313"
    },
    {
      "threadId": "3156691393",
      "post": "<i>As some of you may know, he lost it a little bit at the end of a news conference this week, declining to respond to a question from me, saying he didn’t have an answer for it and that it was a “bit of an empty question.”</i>\n\nMy personal take on this is that Mr. LaPointe, distinguished journalist, is having increasing difficulty holding his nose having to defend positions that sound like they were formulated by City Caucus. \n\n\nI suspect the addition of a City Caucus writer to the campaign team might exacerbate this.",
      "time": "2014-10-26T03:30:09",
      "id": "1654034759"
    },
    {
      "threadId": "3124035581",
      "post": "Is this the same Christy Clark now representing West Kelowna? :)",
      "time": "2014-10-17T23:36:57",
      "id": "1641568632",
      "parentPost": "It will be very interesting to see how voters respond to LaPointe's messaging.  Just last year in the city of Vancouver over 92,000 people voted for Christy Clark's pro natural resource platform.  Those people are probably still around.  Can Captain Kirk inspire them enough to come out and vote for him?\n\n\n\nRegardless of who wins, I'll be interested to see if Vancouver is really as green-washed as Mayor Moonbeam makes us out to be.",
      "parentPostTime": "2014-10-17T22:01:29",
      "parentPostId": "1641453707"
    },
    {
      "threadId": "3103678433",
      "post": "<i>Ooh, g uess since I don't have kids in school, I'm getting shafted </i>\n\n\n\nI'm assuming you went to school, however. You received the benefit of an education, and even if you don't have kids you're paying it forward now.\n\n\nParking is simply [another] subsidy to motorists. It's a regressive one at that. Whether you are rich or poor you pay the same - \"free\" in residential neighbourhoods and way below market rate in central business districts.\n\n\nYes, the article didn't answer your questions - such as whether the author was suggesting the land for parking be sold - because they were, once again, addressing points not made.",
      "time": "2014-10-14T21:45:02",
      "id": "1635835234",
      "parentPost": "It's a book actually, but i did read the article and it did not answer my questions, nor is it really relevant to Vancouver.  I did, however read this quote:\n\n\"The best way to implement market priced parking is for cities to remit all of the revenues from parking to what he calls \"parking benefit districts\", akin to business improvement areas. This way, decisions on how to collect and how to spend are made by the citizens most affected.\"\n\nWhat's that? Parking affects business? \n\nAlso,\n\n\"That parking doesn't just come out of thin air,\" Shoup says. \"So this means people who don't own cars pay for other peoples' parking. Every time you walk somewhere, or ride a bike, or take a bus, you're getting shafted.\"\n\n\n\nOoh, guess since I don't have kids in school, I'm getting shafted. Someone never got the taxation doesn't always pay only for what you use personally memo. It's called being part of a society that looks after one another beyond our personal needs/interests/beliefs/ableism/income/etc. Shafted, smh.",
      "parentPostTime": "2014-10-14T21:10:33",
      "parentPostId": "1635786606"
    },
    {
      "threadId": "3085459793",
      "post": "Bill you cannot argue the City is playing politics in the here and now and simultaneously talk about the history. The simple fact is if CPR hadn't started digging up gardens in the Spring there would have been no CoV lawsuit in October.",
      "time": "2014-10-07T16:18:09",
      "id": "1623708320",
      "parentPost": "Spartikus, please try to look at the bigger picture that I outlined above.  Among other aspects of this matter I said:\"CP, on the other hand, is probably playing silly buggers just to get back at the City\".  There is a fair bit of history here going back to the 90s and then the Supreme Court decision.",
      "parentPostTime": "2014-10-07T05:21:14",
      "parentPostId": "1622845050"
    },
    {
      "threadId": "3073291456",
      "post": "I, for one, am thrilled that I now have the ability to correct spelling and grammatical errors.",
      "time": "2014-10-07T01:17:47",
      "id": "1622637426",
      "parentPost": "I would be a poor scientist if I let an experiment run for only five days before ditching it, unless I was working with fruit flies.",
      "parentPostTime": "2014-10-06T00:16:12",
      "parentPostId": "1621169123"
    },
    {
      "threadId": "3074538985",
      "post": "There will be an adjustment period. [Edit: Thought you could post pictures, but I guess not] [Edit of the edit: Wait, yes you can!]",
      "time": "2014-10-03T03:24:16",
      "id": "1617486524",
      "parentPost": "I guess I didn't have to register when I posted because I'm the moderator.",
      "parentPostTime": "2014-10-03T00:34:01",
      "parentPostId": "1617334042"
    },
    {
      "threadId": "2941281975",
      "post": "If we ignore the positions held by all Vancouver political parties for decades & dismiss CoV planning documents, you're right.",
      "time": "2014-08-20T16:16:40",
      "id": "1551379362",
      "parentPost": "Actually spartikus, the CPR is asking for a little over $2 million an acre. On Vancouver's West Side. That can (and will) be rezoned to accommodate multiple uses. Do the math.",
      "parentPostTime": "2014-08-20T06:34:27",
      "parentPostId": "1550778627"
    },
    {
      "threadId": "2883361575",
      "post": "\"I interviewed 16 charity leaders in five provinces and five charitable sub-sectors, <b>along with five experts</b> on charity issues and civil society.\"\n\n\n\nWhoops.",
      "time": "2014-07-31T16:47:53",
      "id": "1516161923",
      "parentPost": "Wow Gareth, you interviewed 16 charities out of a total of 85,000. You have been a really busy guy. You must be the expert.",
      "parentPostTime": "2014-07-31T16:01:07",
      "parentPostId": "1516045887"
    },
    {
      "threadId": "2870561728",
      "post": "<i>Call it cowardice or self-interest or just plain “politics.”</i>\n\n\n\nNot only that, but keeping Kelly would have been political ju-jitsu: The gauntlet would have been thrown down for LaPointe to maintain his pledge of no personal attacks.",
      "time": "2014-07-25T16:03:54",
      "id": "1503368177"
    },
    {
      "threadId": "2792520525",
      "post": "Is this the same Michael Geller who wrote an op-ed arguing there will always be homeless people so we shouldn't bother building homeless shelters?\n\nGlad his priorities are straight.",
      "time": "2014-06-26T16:49:46",
      "id": "1455702741"
    },
    {
      "threadId": "2717294508",
      "post": "Missing from Mr. Geller's analysis: The compromises to the economic health of our city and province from not moving towards sustainability.\n\nI'd also like to know if he is basing statements like \"If anything we are buying larger cars\" on anything more substantial than anecdote. According to Canadian car sales, small and mid-sized cars like the Civic and Elantra top the list (and that's national stats, not Vancouver).",
      "time": "2014-05-30T17:24:21",
      "id": "1412410782"
    },
    {
      "threadId": "2670505505",
      "post": "There is no comment by \"IKEA Monkey\" on the 1130 article - who, unlike Global News who continue to leave an erroneous story up, correctly report this as a lockout.",
      "time": "2014-05-11T17:03:30",
      "id": "1379804065",
      "parentPost": "This came from another post from the 1130 News website.\n\nIKEA Monkey says:             \t\n\nThis is not a lock out, this is a full-blown strike.  The workers were locked out for one hour, during non-business hours, shortly after the union filed 72-hour strike notice.  It was only after that initial hour long lock out, when Ikea officially opened for regular business hours, the unionized workers went on strike.  During this time, certain workers have chosen to go back, due to personal reasons, and now the union will not go back unless these workers who crossed the picket line are fired.  Typical Teamsters bullying.",
      "parentPostTime": "2014-05-11T04:45:22",
      "parentPostId": "1378925639"
    },
    {
      "threadId": "2669224193",
      "post": "<i>He said Vancouverites deserve a city that is operated by people with high moral values and professional standards</i>\n\n\n\nDoes that mean the chicken suits have been retired?",
      "time": "2014-05-10T18:50:09",
      "id": "1378381267"
    },
    {
      "threadId": "2668603549",
      "post": "<i>Well, did Rob MacDonald say it to a packed room with media? </i>\n\nYes.\n\n<i>And how many of the people who created vision financially are old white men, spartikus?</i>\n\nI believe one or two old white men might have been among those involved in the creation of Vision Vancouver. Whether they were or are angry, I can't say, though I understand Larry Campbell can veer towards curmudgeonly.\n\nMr. MacDonald has a history of outlandish rhetoric that undermines his protestations here. Such as the time he stood up before Urban Development Insitute's annual luncheon <a href=\"http://thetyee.ca/Blogs/TheHook/BC-Politics/2009/01/23/RecessionForSissiesToEndQuicklyUnlessNDPElected/\">and pronounced Carole James a \"smiling, shiny puppet of left-wing ideologues\"</a>, to the thunderous applause of UDI real estate developers (a group I know you love), and that the B.C. NDP had been \"taken over by a mixed bag of Marxist, Leninists, Trotskyites, Maoists and Castroites.\"\n\nOr this...\n\n<i>He said former Premier Mike Harcourt had committed “confiscatory thievery” in the form of a corporate capital tax, and said former Premier Glen Clark “and his fellow travelers set about to make B.C. their very own socialist utopia, just like Cuba.” </i>\n\nSo a modest corporate tax = Cuba. Which is definitely not a statement that is unhinged or irate.\n\nWhile Mr. MacDonald may not be an angry, old white man I think many observers would concede he does a very good impersonation of one at times.\n\nTo the point where, personally, I think Canada can only afford one Mayor named Rob.",
      "time": "2014-05-10T18:44:42",
      "id": "1378375634",
      "parentPost": "Well, did Rob MacDonald say it to a packed room with media?  And how many of the people who created vision financially are old white men, spartikus? ",
      "parentPostTime": "2014-05-09T22:01:28",
      "parentPostId": "1377394807"
    },
    {
      "threadId": "2657147137",
      "post": "I was one of those pee-wee soccer players who played at half-time at Empire Stadium. The absolute thrill of having 30,000 people cheer you on is a treasured childhood memory.",
      "time": "2014-05-03T17:10:29",
      "id": "1368143695"
    },
    {
      "threadId": "2279518786",
      "post": "And look, there's one on 8th as well. And over in the corner, a few blocks from 8th, one on 10th. It's almost as if they were being spaced out in a rational grid. Just like roads are spaced out - at a much higher density than cycle paths. As for 3rd, here's a Street View from Google Maps that illustrates the problem of designating a street as a bike route: \n\nhttps://www.google.ca/maps/@49.269367,-123.175588,3a,75y,273.16h,81.97t/data=!3m4!1e1!3m2!1szI1DADjnnokzsyJwcC7jtQ!2e0",
      "time": "2014-02-17T19:56:32",
      "id": "1248418283",
      "parentPost": "Great post Chris! Except for you neglecting the fact that THERE'S A FREAKING BIKE LANE ALONG WEST 3RD! But of course you wouldn't know that, being an East Van resident and all. \n\nThe bottom line is good ol' Chip wanted Point Grey Road all to himself and now the residents of West 1st and 2nd (and 3rd) have to suffer the consequences. \n\nI wonder how many people rode their bikes along the Greenway today. I bet I could count them on both hands.",
      "parentPostTime": "2014-02-17T19:21:57",
      "parentPostId": "1248371456"
    },
    {
      "threadId": "2180421614",
      "post": "Behold the introduction of the non-sequitor.",
      "time": "2014-01-27T17:06:12",
      "id": "1218914790",
      "parentPost": "Since Jim Pattison is mentioned, how is his chief lieutenant Glen Clark doing these days?",
      "parentPostTime": "2014-01-27T15:12:52",
      "parentPostId": "1218761693"
    },
    {
      "threadId": "2125518112",
      "post": "I was wondering what is the proper way to describe an immigrant to this country? Should we call someone a \"native of Hong Kong\" or a \"native of New Delhi\" even if they are a Canadian citizen who has resided in this country for 30+ years, as Mr. Solomon has, or if it only applies to him? Anyone know the etiquette on this? Thanks!",
      "time": "2014-01-15T23:34:38",
      "id": "1202901891"
    },
    {
      "threadId": "2057459355",
      "post": "And perhaps you are unaware the term \"Ethical Oil\" refers to an astroturf group of opaque transparency that seeks to [shamelessly] exploit the cause of human rights in a bid to develop infrastructure to sell Canadian oil to communist China?",
      "time": "2013-12-18T03:03:34",
      "id": "1168287895",
      "parentPost": "Perhaps you are unaware that the term \"Ethical Oil\" refers to a comparison of Canadian oil, produced in a country that respects human rights and at least has some environmental standards, with oil produced in countries that violate human rights continually and have no environmental standards. And yes, Ezra was the one who coined the term in his book on the subject.\n\nOr perhaps you consider all oil unethical.  If that is the case, then I would expect that you live in an unheated home with no electricity, use no plastics, drive no vehicle and use no form of transportation that uses petroleum products.",
      "parentPostTime": "2013-12-18T02:18:45",
      "parentPostId": "1168254086"
    },
    {
      "threadId": "1774228083",
      "post": "I think this might not be accounting for the Crown's share of national wealth.",
      "time": "2013-09-24T15:21:38",
      "id": "1057187096"
    },
    {
      "threadId": "1198167477",
      "post": "This is the same form of argument as saying \"Joyce Murray is a vegetarian. You know who else is a vegetarian? Hitler! That's who!\"\n\nThere's either a direct link or there isn't. And there isn't. If you read carefully you note they didn't \"donate to\" or \"grant to\" or fund Dogwood. \n\nRockefeller, according the basic precepts of journalism, doesn't warrant a mention in this article.\n\nAnd the basis of the claim Joyce Murray's \"real backers\" are \"American environmental groups\" is a single blast email and automated phone call sent by a Canadian environmental group.\n\nP.S. And it should be noted that Dogwood only claims 1000 people joined the B.C. Liberal Party as part of their campaign. Not the 60,000 implied above. Krause knows this too.\n\nhttp://billtieleman.blogspot.com/2011/02/bc-environmental-groups-reap-bitter.html?showComment=1297455520048#c4319610144666513190",
      "time": "2013-04-09T20:04:17",
      "id": "857911103",
      "parentPost": "They donate to Dogwood, and Dogwood carries water for Murrey. Geddit?",
      "parentPostTime": "2013-04-09T18:26:22",
      "parentPostId": "857818850"
    },
    {
      "threadId": "1018629065",
      "post": "Apparently you can build a launchpad for a rocket but not a bikelane.",
      "time": "2013-01-10T18:45:51",
      "id": "762746126"
    },
    {
      "threadId": "1005156073",
      "post": "That it's important is not disputed. What is is the claim by the article author that *most* downtown jobs \"are derived from resource extraction and exports\". Which is not true.\n\nAnd, as noted by the commenter \"Zi\" only a small percentage of natural resource exports are viewed with concern - oil, coal, etc. In fact, according to the statistics on the Port of Vancouver webpage bulk, container, \"Ro-ro\" freighters formed the overwhelming bulk of traffic. Indeed there were 200 passenger vessels vs. 206 tankers.Finally, and ironically, most of the support jobs for the resource/export sector would actually qualify as green jobs under the definition the Vancouver Economic Commission is using.\n\n",
      "time": "2013-01-07T22:24:21",
      "id": "759393490",
      "parentPost": " There are over 800 mining and exploration companies in Vancouver. Not to mention all the consulting firms, laboratories, suppliers etc. that support this industry.  I counted 26 mining/exploration companies in my building alone. So yes, those jobs are a force in the downtown core. ",
      "parentPostTime": "2013-01-07T20:51:34",
      "parentPostId": "759310506"
    },
    {
      "threadId": "673444771",
      "post": "The article clearly states the Corner Brook and Area Labour Council organized this event. They are free to run the ceremony as they like. They are free to publicly announce the City Council laying a wreath.\n\nOr not.\n\nThis year they decided not to publicly announce the City Council's wreath. That is their prerogative. It's all very clearly written in the article with the extremely misleading, nay false, headline.\n\nFor the Corner Brook and Area Labour Council exercising its prerogative to run a private event as it likes you, Reasonista, have above called for the entire labour code to be changed. Let's repeat that: Based on the actions of a single town's labour council at their own event you want to change the entire province's labour code.\n\nWhich just goes to show you people will exploit anything. Shameful.",
      "time": "2012-05-03T17:54:38",
      "id": "517874403",
      "parentPost": "\"I've also alway felt \"prevented\" meant...well, you know, what it means in the dictionary.\" \n\nWell, you are right that, according to the article, it does not appear that the master of ceremonies physically manhandled the city councilor who was at the time trying to place the wreath upon the monument. He rather did not invite her to place the wreath, which was a departure with what appears to have been a tradition.\n\nThe matter must be considered in context, however. The event was a solemn one. Not to be invited to place the wreath in accordance with tradition and in the context of an organized and solemn event effectively prevented the councilor from doing so. The only alternative for her would have been for her to disturb the solemnity of the event and deprive many others of their time of reflection and mourning.\n\nWhat is material, I would suggest, are the reasons for breaking with tradition here: The fact that the city government had laid off four firefighters. Breaking with tradition over such a measure could easily be seen as amounting to a sort of petty coercion, hence the disgust resonating in many of the comments, here.\n\nI rather wonder: Who owned the monument and the land it was on?",
      "parentPostTime": "2012-05-03T13:58:32",
      "parentPostId": "517638769"
    },
    {
      "threadId": "630606486",
      "post": "Whining. You keep saying that word. I don't it means what you think it means.",
      "time": "2012-03-31T01:28:41",
      "id": "481406798",
      "parentPost": " The same goes for everyone across the board. Stop whining.",
      "parentPostTime": "2012-03-31T01:13:36",
      "parentPostId": "481396176"
    },
    {
      "threadId": "611310980",
      "post": " Government official pronounces guilt! Rilkefan satisfied! Move along...",
      "time": "2012-03-16T01:43:37",
      "id": "466527705",
      "parentPost": "Does Scahill present any positive evidence that Shaye beyond Shaye's best friend saying so? That Feierstein has no evidence for his contention?",
      "parentPostTime": "2012-03-15T01:04:22",
      "parentPostId": "465586826"
    },
    {
      "threadId": "542595095",
      "post": "\"Raised the alarm as much as I can\"\n\nBased on what evidence, Stephen? Canada has intelligence assets in Iran? Canada? Even George W. Bush at least pretended to have evidence about Saddam.",
      "time": "2012-01-17T16:24:00",
      "id": "413465952"
    },
    {
      "threadId": "263121875",
      "post": "To be expected -> If a party goes into an election publicly saying they'd be fine with a coalition...then that's the most they're going to get. \n\nAim high, adjust accordingly, etc.",
      "time": "2011-03-25T22:32:33",
      "id": "171977680",
      "parentPost": "I might buy that if Ignatieff weren't running away from a coalition like it was an STD.",
      "parentPostTime": "2011-03-25T22:06:42",
      "parentPostId": "171967305"
    },
    {
      "threadId": "186449556",
      "post": "I guess Kevin hasn't read The Girl With The Dragon Tattoo.",
      "time": "2010-12-07T18:02:12",
      "id": "108330515"
    },
    {
      "threadId": "16030421",
      "post": "That was a good interview. Also liked the format the NP used.\r\n\r\n-JG",
      "time": "2009-04-18T01:10:59",
      "id": "8314306"
    },
    {
      "threadId": "11198252",
      "post": "I have 2 tumblr blogs, but only posts from one are showing up on twitter (I'd like it to be the second one). Is there a way of choosing?",
      "time": "2009-02-06T17:05:19",
      "id": "6047435"
    },
    {
      "threadId": "718199",
      "post": "It's pretty sad and pathetic to be adopting Republican tactics right when they're on their way out too...",
      "time": "2008-05-16T21:12:40",
      "id": "480327"
    }
  ],
  "profileInfo": {
    "username": "spartikus",
    "about": "Does not work for, volunteer for, am “directed by” or donate to any political party, community organization, advocacy group, or media company. Anywhere. Ever.",
    "name": "spartikus",
    "disable3rdPartyTrackers": false,
    "isPowerContributor": false,
    "isAnonymous": false,
    "rep": 1.3372769999999998,
    "profileUrl": "https://disqus.com/by/spartikus/",
    "url": "http://exile.wordpress.com/",
    "reputation": 1.3372769999999998,
    "location": "",
    "isPrivate": false,
    "signedUrl": "http://disq.us/?url=http%3A%2F%2Fexile.wordpress.com%2F&key=NGAbz4tyds5oxzO20E3MbA",
    "isPrimary": true,
    "joinedAt": "2008-05-16T20:58:06",
    "id": "33716",
    "avatar": {
      "small": {
        "permalink": "https://disqus.com/api/users/avatars/spartikus.jpg",
        "cache": "//a.disquscdn.com/uploads/users/3/3716/avatar32.jpg?1281644972"
      },
      "isCustom": true,
      "permalink": "https://disqus.com/api/users/avatars/spartikus.jpg",
      "cache": "//a.disquscdn.com/uploads/users/3/3716/avatar92.jpg?1281644972",
      "large": {
        "permalink": "https://disqus.com/api/users/avatars/spartikus.jpg",
        "cache": "//a.disquscdn.com/uploads/users/3/3716/avatar92.jpg?1281644972"
      }
    }
  }
}