[
  {
    "text": "Check out my like-new Olympus EM5 Mark II  Camera listing on @eBay: https://t.co/iZ7zRlYmG1 via @eBay #Camera #Olympus",
    "time": "Fri Sep 16 22:00:10 +0000 2016",
    "id": 776903531890511900,
    "geo": null,
    "place": null,
    "coordinates": null
  },
  {
    "text": ", thanks for following me!  Anything I can do to make your day AWESOME?",
    "time": "Fri Sep 16 16:37:44 +0000 2016",
    "id": 776822385718747100,
    "geo": null,
    "place": null,
    "coordinates": null
  }
]