{
  "comments": [
    {
      "threadId": "4773391832",
      "post": "I was on vacay today, but my church did...\n\n-Here for You\n-God Be Praised\n-Jesus We Love You",
      "time": "2016-04-25T00:15:10",
      "id": "2640895508"
    },
    {
      "threadId": "3679419750",
      "post": "I would also add that every church is different. I've been in 3 different churches in ministry, and each one has a different library of songs. The few that have crossed over to each church for me are those timeless songs that seem to touch a chord everywhere. I look for those kind of songs more than anything.",
      "time": "2015-04-24T03:32:55",
      "id": "1984456709",
      "parentPost": "Gary, I understand what you are saying in theory. There are definitely some songs that are difficult to sing for most people, while others are more catchy and easier to pick up. Even technically some songs are written with a smaller range and less challenging rhythms, etc. But I would add that \"singable\" is a very subjective term. Some people are so tone deaf they can't even get through the first line of Jesus Loves Me without musically destroying it. Some of the most heartfelt worship I have ever heard has come from the mouths of Christ followers who can't sing one note correctly to save their lives. And yet they sing loudly, worshiping their Lord and proclaiming His greatness with a full heart! While I agree with you to a point here, I think worship leaders and musicians need to be careful to not \"dumb down\" the music they choose. One of the most popular hit songs of the 20th century was Queen's \"Bohemian Rhapsody\". Probably one of the most difficult songs to sing that ever hit the pop radio waves. But did that stop millions of people from two or three different generations from singing along at concerts and in their cars? Not at all. If a song is really good, and strikes a relevant chord in people's hearts, they are going to sing along, and with conviction. So I would say, work to put together sets that are singable for the majority, but don't let that scare you away from some songs that maybe are a bit more difficult to sing, but are beautiful musically and theologically rich and deep lyrically. A good song is a good song! Just my two cents... :-)",
      "parentPostTime": "2015-04-23T17:50:48",
      "parentPostId": "1983602046"
    },
    {
      "threadId": "2081917448",
      "post": "That's a great song, Karen. Thanks for sharing!",
      "time": "2014-01-11T07:08:14",
      "id": "1195999079",
      "parentPost": "We began our new year 2014 at CWC with the song \"Christ is Enough\" as one of our worship songs. The words include\" I have to decided to follow Jesus...no turning back...\"  It was a great declaration to begin the new year.",
      "parentPostTime": "2014-01-07T11:47:41",
      "parentPostId": "1190359228"
    },
    {
      "threadId": "1958371759",
      "post": "Thanks Randy...I loved those signs, as well. Great reminders.",
      "time": "2013-11-17T23:18:46",
      "id": "1127415143",
      "parentPost": "great post, Gary. love those 3 signs redford put up. so true. your points are well-taken.",
      "parentPostTime": "2013-11-14T18:39:53",
      "parentPostId": "1123163577"
    },
    {
      "threadId": "1911429428",
      "post": "Truth…thanks man.",
      "time": "2013-11-06T18:55:14",
      "id": "1111479141",
      "parentPost": "This is good insight Gary. It is also imperative that we know the culture. That needs to contribute to our thoughtfulness and awareness. \n\nKeep it coming.",
      "parentPostTime": "2013-11-06T18:52:48",
      "parentPostId": "1111475939"
    },
    {
      "threadId": "1836285461",
      "post": "true, excellent and inspiring words. thanks for the reminder. who do we think we are? :)",
      "time": "2013-10-08T22:55:15",
      "id": "1075637333"
    },
    {
      "threadId": "1777914037",
      "post": "Most definitely! Thanks Luke!",
      "time": "2013-09-24T03:25:33",
      "id": "1056682935",
      "parentPost": "Great thoughts, Gary! Along with #1 and #4, I always try to share the story of why its important for our church. I like to place new songs within the context of where we're at in scripture or events taking place in the life of our congregation. \n\nThis helps people connect with a song more deeply, but also helps reinforce the pastoral ministry of leading worship. I always want our people to know that thought and prayer went into the set each week. ",
      "parentPostTime": "2013-09-21T05:32:49",
      "parentPostId": "1053646864"
    },
    {
      "threadId": "1546193419",
      "post": "Thanks man. Great verse.",
      "time": "2013-07-31T02:21:10",
      "id": "982164171",
      "parentPost": "As one whose coolness factor ran out long ago, I couldn't agree more that our leadership goes way beyond music. Col 3:16 has been the verse that has strengthened me in ministry since I started, and it has never run out of fuel for letting me know exactly what it is that I'm supposed to be doing.\n\n\nThanks for the post, and be blessed in working this out according to God's word.",
      "parentPostTime": "2013-07-30T14:53:10",
      "parentPostId": "981416415"
    },
    {
      "threadId": "1431066344",
      "post": "yeah...thanks man. For me it's about worship and discipleship. Thanks for the comment!",
      "time": "2013-06-24T17:45:29",
      "id": "940517832",
      "parentPost": "Good stuff my friend.<br /><br />I do think part of this is that worship leaders take ourselves too seriously and over spiritualize our role. Andy Crouch says that in heaven worship leaders will be the only ones out of a job. Who would need us in heaven?<br /><br />In a video I made, I said &quot;every pastor is a worship leader&quot; because leading worship is not leading a service but calling people to worship God (i.e. making them disciples.) Bingo!<br /><br />I would add to your list of worship leaders your sound guy, the bass player, and anyone involved on or off stage. We say worship team, right? The pastor is part of that, but so are the ones who make sure the slides work and who prep the room. We under-spiritualize those roles. <br /><br />RK",
      "parentPostTime": "2013-06-24T17:34:50",
      "parentPostId": "940505527"
    },
    {
      "threadId": "1321853769",
      "post": "Lot of \"H\" songs today: http://www.garydurbinblog.com/2013/05/sunday-setlist-052613.html",
      "time": "2013-05-27T04:13:56",
      "id": "909483809"
    },
    {
      "threadId": "1283036381",
      "post": "Sunday Setlist from Orchard Church: http://www.garydurbinblog.com/2013/05/sunday-setlist-051213.html",
      "time": "2013-05-13T02:57:20",
      "id": "895549306"
    },
    {
      "threadId": "1228024440",
      "post": "Here's mine...we did a new one: http://www.garydurbinblog.com/2013/04/sunday-setlist-042113.html",
      "time": "2013-04-22T14:18:01",
      "id": "872240265"
    },
    {
      "threadId": "1215837653",
      "post": "Great song!",
      "time": "2013-04-17T15:53:00",
      "id": "866102941"
    },
    {
      "threadId": "1144720437",
      "post": "High impact set list today: http://www.garydurbinblog.com/2013/03/sunday-setlist-031713.html",
      "time": "2013-03-17T22:34:17",
      "id": "832919346"
    },
    {
      "threadId": "1128704426",
      "post": "Great morning...did a cool mash up of Amazing Grace (My Chains are Gone) with Break Every Chain. Great spirit.\n\nhttp://www.garydurbinblog.com/2013/03/sunday-setlist-031013.html",
      "time": "2013-03-11T01:44:09",
      "id": "825176384"
    },
    {
      "threadId": "1085096387",
      "post": "Great I Am - New Life Worship - HUGE SONG",
      "time": "2013-02-15T19:02:16",
      "id": "800617590"
    },
    {
      "threadId": "1079247622",
      "post": "Great post! I agree. I've seen such great benefits with using old songs. I think the best songs stand the test of time. The only thing I would say is, I don't do them for sentimental reasons of people, but I've never been too popular with the crowd that wants them for that reason. I definitely do them as a result of God's leading...in fact, I'm doing \"I Surrender All\" this Sunday. It's unfortunate that worship leaders would disregard older songs. I've always said that God isn't concerned with the date of a song, he's looking for the heart behind it.\n\nHere's a post I did a while back on it:http://www.garydurbinblog.com/2009/09/hymnosphere.html",
      "time": "2013-02-12T23:28:42",
      "id": "797109163"
    },
    {
      "threadId": "1077468607",
      "post": "Yes! #CelticsLifeGiveAway",
      "time": "2013-02-11T20:50:16",
      "id": "795780037"
    },
    {
      "threadId": "1039094707",
      "post": "Excellent suggestions....love it. Thanks!",
      "time": "2013-01-22T16:56:55",
      "id": "774919525"
    },
    {
      "threadId": "1036684116",
      "post": "Setlist on the blog: http://www.garydurbinblog.com/2013/01/sunday-setlist-012013.html",
      "time": "2013-01-20T23:35:37",
      "id": "773447513"
    },
    {
      "threadId": "875198470",
      "post": "here's the setlist for today: http://www.garydurbinblog.com/2013/01/sunday-setlsit-11313.html",
      "time": "2013-01-14T00:50:28",
      "id": "766606756"
    },
    {
      "threadId": "1010466951",
      "post": "Would love to have it!",
      "time": "2013-01-07T04:51:19",
      "id": "758479661"
    },
    {
      "threadId": "1011097050",
      "post": "Sunday Setlist: http://www.garydurbinblog.com/2013/01/sunday-setlist-010613.html",
      "time": "2013-01-06T23:11:59",
      "id": "758196855"
    },
    {
      "threadId": "645216942",
      "post": "check your link...it didn't work for me. I'd love to read it.",
      "time": "2012-04-17T16:13:08",
      "id": "499913295",
      "parentPost": "Great thoughts and ideas. Definitely agree with the power and importance of Scripture in worship - both spoken and in our songs. I posted a list of 10 ideas to use Scriptures in worship last year. Some of the same, but some other ideas too. \nhttp://www.journeyofworship.com/2011/worship-leading/10-ideas-to-in…orship-service/",
      "parentPostTime": "2012-04-17T15:31:11",
      "parentPostId": "499874942"
    },
    {
      "threadId": "633800350",
      "post": "cool stuff....I need to improve on dealing with the political players.....I have much disdain, indeed. Great post!",
      "time": "2012-04-04T02:38:34",
      "id": "485198271"
    },
    {
      "threadId": "433480610",
      "post": "God is truly orchestrating & he's an amazing composer & director. Thanks for your heart, bro. I'm blessed to be able to contribute. I love what Integrity is doing!",
      "time": "2011-10-04T12:33:55",
      "id": "326291776"
    },
    {
      "threadId": "307396481",
      "post": "As a worship leader, I feel its my responsibility to gain their attention first, so I can direct their attention to God. Mixing up how you start the service is important. Paul Baloche has some great thoughts on it. Sometimes you need to start off quiet and relate to the people and other times you need to bang in after a four count. It all comes back to knowing your church and feeling where they're at in the moment. ",
      "time": "2011-05-19T18:25:05",
      "id": "207253089"
    },
    {
      "threadId": "263121210",
      "post": "Beautiful. I have not gotten too caught up in all the hype, because I know it will die sooner than later and already is. That being said, this is probably the most refreshing post I've seen on the topic. I think I'm right with you, but I haven't read the book. You nailed it: \"...you lose some of your platform by trying to break apart his.\" It's laughably predictable to see the bashing that's gone way past concern. Thanks man!",
      "time": "2011-03-28T15:40:41",
      "id": "173361863"
    },
    {
      "threadId": "259107748",
      "post": "beautiful, man. thanks for sharing the video.",
      "time": "2011-03-22T15:37:32",
      "id": "169623169"
    },
    {
      "threadId": "78643661",
      "post": "Facebooked it. Thanks for the opportunity!",
      "time": "2010-03-23T15:50:53",
      "id": "41219082"
    },
    {
      "threadId": "72113990",
      "post": "That looks perfect. I'm glad I didn't submit the one I was tinkering with. Love it.",
      "time": "2010-03-03T14:26:32",
      "id": "37798228"
    },
    {
      "threadId": "68076048",
      "post": "\"Quite honestly, I'm not sure it would be a good thing if I wrote a book that everybody \"raved\" about.\"\n\nThat tells me you get it. Thanks for being real. Keep writing!",
      "time": "2010-02-19T15:56:03",
      "id": "35487158"
    },
    {
      "threadId": "66918389",
      "post": "great idea with the link page. loved the book. Thanks.",
      "time": "2010-02-16T15:41:24",
      "id": "34714342"
    },
    {
      "threadId": "66139737",
      "post": "& I'm a fan. Thanks. Hope I win.",
      "time": "2010-02-11T19:19:38",
      "id": "33900323"
    },
    {
      "threadId": "63655763",
      "post": "Vicky...cannot wait for this album. Enjoyed hearing the clips of the new songs. I think you've got, in my opinion, the big song of the year in Glory to God Forever. I thought that the first time I heard it and our church is eating it up right now. God bless your project!....Oh, and I visited London last year for the first time and loved it.",
      "time": "2010-02-04T20:30:49",
      "id": "32633219"
    },
    {
      "threadId": "63630980",
      "post": "I'm a huge LOST fan, and I just might have to read this book. Sounds like a cool idea to coincide it with the show this year. Never read any of his stuff. I loved the premiere last night. I was just telling someone this morning that all shows should plan an ending, not based on when the ratings go down, but based on big picture of the story. I think we would have a lot better shows as a result. Just dreaming, I guess.",
      "time": "2010-02-03T14:01:29",
      "id": "32477780"
    },
    {
      "threadId": "62043507",
      "post": "would love to be there for that. have an amazing time and give us some pics on that. :)",
      "time": "2010-01-28T14:04:24",
      "id": "31799058"
    },
    {
      "threadId": "52779035",
      "post": "I think you say it best when you say, \"Jesus needs new pr\"...for sure. \"Not that Jesus is killer, but, come on...\" Dear God help us.",
      "time": "2009-12-20T14:57:07",
      "id": "26731241"
    },
    {
      "threadId": "51804735",
      "post": "I tried to find their website, but couldn't. I'm assuming they have one, of course.",
      "time": "2009-12-14T20:43:25",
      "id": "25785922"
    },
    {
      "threadId": "50308038",
      "post": "The can't hurry love one was the desktop background of the church computer when I got hired at my church 5 years ago. Needless to say, we went through a transition.",
      "time": "2009-12-07T16:19:24",
      "id": "25011375"
    },
    {
      "threadId": "48139815",
      "post": "gotta say that I've really enjoyed reading you on here and in your books. Keep it coming!",
      "time": "2009-11-28T03:42:01",
      "id": "24219171"
    },
    {
      "threadId": "31269958",
      "post": "Don't worry...you're not the worst dancer...as long as I'm alive.  I'll throw this on my blog tomorrow. Keep the videos coming. Can't wait to hear the new stuff. Are you recording a version of \"Glory to God Forever\"?",
      "time": "2009-08-26T13:34:06",
      "id": "15418041"
    },
    {
      "threadId": "30412946",
      "post": "Hey Vicky...enjoyed the video so much I put it on my blog. Looking forward to the next one and the album. Great meeting you at the conference.",
      "time": "2009-08-20T16:59:06",
      "id": "15135698"
    },
    {
      "threadId": "8806473",
      "post": "hilarious...my wife and I have similar \"discussions\"....and this also proves my theory...\"children love Happy Day\". I think that was my son's first song he started singing along with. thanks for sharing.",
      "time": "2008-12-24T16:48:44",
      "id": "4609390"
    },
    {
      "threadId": "8771300",
      "post": "The tire marks goattee",
      "time": "2008-12-23T15:21:16",
      "id": "4589414"
    },
    {
      "threadId": "8022782",
      "post": "I don't really think there's a lack of options for the older generation. Traditional churches are everywhere. Churches that are relevant to the current culture are the ones that are hard to find. Be yourself.",
      "time": "2008-12-08T03:45:44",
      "id": "4242167"
    },
    {
      "threadId": "7894733",
      "post": "I'm #5 in Palm Bay, FL. Not a big deal actually.",
      "time": "2008-12-04T14:56:53",
      "id": "4165478"
    }
  ],
  "profileInfo": {
    "username": "garydurbin",
    "about": "Father, Husband, Worship Leader, Songwriter",
    "name": "Gary Durbin",
    "disable3rdPartyTrackers": false,
    "isPowerContributor": false,
    "isAnonymous": false,
    "rep": 1.095899,
    "profileUrl": "https://disqus.com/by/garydurbin/",
    "url": "http://www.garydurbin.blogspot.com",
    "reputation": 1.095899,
    "location": "Palm Bay, FL",
    "isPrivate": false,
    "signedUrl": "http://disq.us/?url=http%3A%2F%2Fwww.garydurbin.blogspot.com&key=oVlfBrApfd_MHa7u0gyrNA",
    "isPrimary": true,
    "joinedAt": "2008-12-04T14:56:53",
    "id": "157524",
    "avatar": {
      "small": {
        "permalink": "https://disqus.com/api/users/avatars/garydurbin.jpg",
        "cache": "//a.disquscdn.com/uploads/users/15/7524/avatar32.jpg?1379630869"
      },
      "isCustom": true,
      "permalink": "https://disqus.com/api/users/avatars/garydurbin.jpg",
      "cache": "//a.disquscdn.com/uploads/users/15/7524/avatar92.jpg?1379630869",
      "large": {
        "permalink": "https://disqus.com/api/users/avatars/garydurbin.jpg",
        "cache": "//a.disquscdn.com/uploads/users/15/7524/avatar92.jpg?1379630869"
      }
    }
  }
}