{
  "comments": [
    {
      "threadId": "4302553442",
      "post": "Hey CheetahMobile,\n\nIt looks like the tablet manufacturers got smarter on this one. Currently, the files sit on the directory /cloudsota/. In there rests the APK and the checkota.sh and it looks like it struck this week, constantly gaining unauthorised access into my co-worker's e-mail. I've been put in charge with getting rid of this thing and your guide half-helped. \nhttp://b.1339.cf/fcnffvr.png\nhttp://b.1339.cf/mmidxtp.png\nLooks like mounting it is no good. With that said, that even means...\n\nSo this is probably why Kingpad by TabletExpress went from K70 to K90 - they had to modify the system so that guides like this wouldn't work. \n\nDo you guys have any updates for this article on this one or is this one pretty much the end of the line?",
      "time": "2016-03-18T13:59:06",
      "id": "2576471547"
    },
    {
      "threadId": "4252939141",
      "post": "Hello!\n\nGreat website! It's very helpful for the number of international shipments I send/receive and your website is so great for that! \n\nJust one thing... could you look into investing on optimising the website's load times? It seems machines that have never gone onto this website load it painfully slowly.\n\nThanks!‮ ‮",
      "time": "2016-03-08T17:04:07",
      "id": "2558175179"
    },
    {
      "threadId": "4534186415",
      "post": "I feel bad for other fellow businesses depending on this port... and from what we may know, that's a lot.",
      "time": "2016-01-29T18:34:33",
      "id": "2485277017"
    },
    {
      "threadId": "4238303458",
      "post": "Don't hate on burb and Хорошо because they have two MedFes. After all, it's KLab's decision in the end ‮",
      "time": "2015-10-22T14:45:50",
      "id": "2320933569",
      "parentPost": "",
      "parentPostTime": "2015-10-19T13:22:23",
      "parentPostId": "2314905610"
    },
    {
      "threadId": "3554317193",
      "post": "Come @ me.",
      "time": "2015-10-08T04:33:49",
      "id": "2295893063"
    },
    {
      "threadId": "3579406101",
      "post": "Mama Honk got best husbando who can wolverine lightsticks.",
      "time": "2015-09-29T02:34:14",
      "id": "2279392286"
    },
    {
      "threadId": "4143817327",
      "post": "Don't be soft. Avenge hard. Tier 1. You have time.",
      "time": "2015-09-28T03:33:12",
      "id": "2277567545",
      "parentPost": "Samee",
      "parentPostTime": "2015-09-27T05:24:27",
      "parentPostId": "2276238756"
    },
    {
      "threadId": "3823600053",
      "post": "For those who are reading this comment because they've seen the movie or are curious about those who have seen the movie in North America or whatever English speaking country where this was distributed: I think most of us are very well aware that SR Honoka was probably the most heavily distributed card. Almost every person I know/met received a code for this one. It's pretty nice and rare to get most others... especially Umi. I know I had a hard time getting an SR Hanayo code. I never got the code, but I'm not upset because I received a Hanayo 色紙 after trading the Nozomi one I originally got at the screening in NYC and I received a Nico 色紙 the first time at the second screening in NJ. I'm happy to have received those in honouring two great idols and idol research group presidents!\nI hope everyone else enjoyed the film as I did! If you didn't get to see it or there wasn't a screening near you, I hope you'll look forward to it on BD this December!",
      "time": "2015-09-16T23:06:38",
      "id": "2257599997"
    },
    {
      "threadId": "3527866398",
      "post": "Probably the longest name for a normal character, I think. It's already flowing out to the rarity star count.",
      "time": "2015-07-11T02:19:07",
      "id": "2129683151"
    },
    {
      "threadId": "3789811354",
      "post": "I wouldn't say that. Try every interstate in Newark  (NJ I-280, I-78) and the Garden State Parkway between Exits/Mile Markers 123 (Sayreville/US-9) and 165 (Paramus/Oradell Ave.) Why can I confidently say that? Well, if the I-76 is as bad as you say, then I clearly haven't \"almost died\" in any of the aforementioned highways. Rather, I might have just hallucinated a car that braked hard behind me while going speed limit, honked, tailgated me again and hit the car to my left and spun out from the jersey barrier.\n\nIn regards to this article, may John Nash and his wife rest in peace. On a brighter note, they'll still be together in the very end!",
      "time": "2015-05-25T02:59:12",
      "id": "2043735208",
      "parentPost": "76 right behind it if it is",
      "parentPostTime": "2015-05-24T16:51:35",
      "parentPostId": "2043028633"
    },
    {
      "threadId": "3727089647",
      "post": "げんき？",
      "time": "2015-05-01T04:52:08",
      "id": "1997218208"
    },
    {
      "threadId": "2987928431",
      "post": "Let's say this: If your phone is burnt due to a fire against the device, you're probably screwed because the hardware inside might have burned enough to render the device unrecognisable. If your phone got run over by a car, truck, bus, motorcycle, moped, bicycle... you name it, they'll replace it.",
      "time": "2014-10-25T20:03:14",
      "id": "1653660816",
      "parentPost": "What if your phone is completely destroyed?",
      "parentPostTime": "2014-10-16T17:47:09",
      "parentPostId": "1639322067"
    },
    {
      "threadId": "2170427156",
      "post": "Yeah, my character got deleted. It doesn't show up anymore on the Rockstar Games Social Club and my other character got zeroed out (except for rank, which reverted to 1.) My license plates (created from the iFruit app) are gone and so are the vehicles for GTA Online.\n\n\nI'm glad I don't have Xbox Live Gold anymore because I wouldn't go back on GTA Online if Rockstar doesn't know how to maturely handle the situation by letting bygones by bygones.",
      "time": "2014-08-01T20:45:05",
      "id": "1520601894"
    },
    {
      "threadId": "2656912577",
      "post": "It is a sick man in it!",
      "time": "2014-05-16T05:51:47",
      "id": "1388413304"
    },
    {
      "threadId": "2634704255",
      "post": "\"Hey small fish, looks like a chicken that became looks of you!\"",
      "time": "2014-05-16T05:44:09",
      "id": "1388408693",
      "parentPost": "Sometimes money no very happy",
      "parentPostTime": "2014-05-16T05:43:47",
      "parentPostId": "1388408477"
    },
    {
      "threadId": "2600298694",
      "post": "Yeah, hopefully I don't catch you on a desktop Linux more than a server Linux. You won't learn anything outside the CLi.",
      "time": "2014-04-24T04:02:59",
      "id": "1352949868",
      "parentPost": "Thanks bud :3 you helped me a lot too and learned linux. i'll get there and master this! >:D",
      "parentPostTime": "2014-04-10T05:44:29",
      "parentPostId": "1328371419"
    },
    {
      "threadId": "2631516114",
      "post": "Well, folks, this looks like another modern-day case of the classic \"sore loser.\"",
      "time": "2014-04-23T21:14:21",
      "id": "1352504445"
    },
    {
      "threadId": "1966478114",
      "post": "It's good that BBM is here and all, but the bug where some photos don't send and resulting in Picture transfer encountered an error error message still hasn't been fixed. This is still very selective and transfers fail more than they succeed.",
      "time": "2013-11-15T08:23:29",
      "id": "1124030530"
    },
    {
      "threadId": "373876624",
      "post": "Furthest on Mobile:\nSW: Freehold Township CR-537 Monmouth Rd.\nSE: NJ-79/NJ-18 or NJ-34/NJ-18.\nNW: Sayreville/Old Bridge US-9 Borders\nHaven't checked NorthEast.\n\nI'll definitely give props to Rob, the repeater owner. Nice work!",
      "time": "2013-10-16T02:06:23",
      "id": "1083905946"
    },
    {
      "threadId": "1112162694",
      "post": "First, Facebook, then Facebook ads, now Facebook taking over Microsoft's advertising platform? When will the misery end? It's bad enough Facebook had once used users and their content for their own advertising platform... it's hard to see that Facebook will start doing honest, privacy invasion-free work without mucking around with other people's content. Maybe if Facebook changed their practices and worked harder on their privacy methods, maybe this wouldn't be a problem.\n\n(and then maybe people like me wouldn't have a problem with privacy and Facebook and maybe I'd have a Facebook account by now... not have mine blanked out to deletion.)",
      "time": "2013-03-03T05:21:07",
      "id": "817875927"
    },
    {
      "threadId": "1111930087",
      "post": "Yes, Wizzy, you can do that... but only if the one who were to do that on behalf of the deceased had the credentials to log into the website. If otherwise, no one can recover it presently. That being said, once someone has access, they can request to have the entire archive compiled and downloaded and, thereafter, have the account done as they will.",
      "time": "2013-03-03T05:18:17",
      "id": "817875210",
      "parentPost": "you can download save the photos off facebook....stupid people",
      "parentPostTime": "2013-03-01T14:45:47",
      "parentPostId": "816507616"
    },
    {
      "threadId": "1053896481",
      "post": "*HONK HONK*\nUnnecessary Honking is the utilisation of a vehicular horn when the clear and present need for it is absent.\n\nScenarios when you need Honking:\n1. Uncooperative driver in front of you. Has the driver fallen asleep? Is the driver not aware that the light is green and the road is clear? Instead of walking out of your car and kicking/tearing open the vehicle's door, honk. That is necessary to keep the flow of traffic going.\n2. Dangerous situation reminder (Use sparingly.) Did the person make a bad lane change that could have touched your vehicle, causing an accident or a potential pile-up? Honk 'em and let it be known that their actions were wrong. Don't hold the horn too long though, because after a while, it becomes rude and can cause headaches (especially to pedestrians.)\n3. Panic button. (Sometimes, you will forget where you parked your car... or perhaps someone is trying to steal it and you want to give them a scare. Use this sparingly and try not to make this a habit.)\n\nScenarios when honking is unnecessary:\n1. For fun (It's no fun when you're the pedestrian, a nearby resident, or the car around you doing absolutely no harm.)\n2. Just honking in the middle of the roadway, in-motion or not, with no present danger to you, your vehicle, anyone else, or their vehicle. (This causes a scare to others and causes unnecessary attention.)\n3. Calling someone out... (Hello? Mobile Phones exist now. Use them... when you're parked legally.)",
      "time": "2013-03-03T05:11:24",
      "id": "817873350",
      "parentPost": "What is the definition of \" unnecessarily Honking\"",
      "parentPostTime": "2013-02-28T16:14:55",
      "parentPostId": "815518548"
    },
    {
      "threadId": "971678650",
      "post": "It's a pretty huge insult to those who worked so hard on getting to Pro E. I feel bad for any Pro-E player. I wish I could pat the backs of those who had to sprain their backs through their times on Pangya to get to a high rank.",
      "time": "2012-12-15T15:08:42",
      "id": "737395981",
      "parentPost": "Jump from Rookie to Pro E... lol. All that hard work I had to grind to get to Pro E, now everyone gets to be Pro E. Wow. Our huge EXP boost better be much greater, like jump from Pro E to  World Pro E.",
      "parentPostTime": "2012-12-13T06:30:02",
      "parentPostId": "734598713"
    },
    {
      "threadId": "941392991",
      "post": "I would like an invite code because I would like to see what the hype is all about in this \"Ingress\" thing.",
      "time": "2012-11-26T02:59:03",
      "id": "719092382"
    },
    {
      "threadId": "861827651",
      "post": "I can't help but to disagree on your opinion that comes without explanation. American Dad has very little pop culture and has more intelligent remarks, only slightly dumbed down by Roger or Steve... or to have problems with the high protagonist, Stan. It's a great, fun series to watch if you're willing to go to the alternatives. \n\nIf it is any show I do not like, it would be the spinoff, The Cleveland Show. Not that raciam has anything to do with the judgment, but it was a really bad spinoff that was really boring and took the wrong turn. If anyone should have gotten a spinoff, it should have been Stewie and Brian if Brian moved out and Stewie tagged along without Brian's consent. It could have possibly went on the same trail as American Dad, only with safe boundaries of what is a quality popular culture joke and what isn't. \n\nMe and you may have completely different tastes, so next time you want to publicly disagree, at least make the effort to back your opinion up with a reason. ",
      "time": "2012-09-28T06:56:27",
      "id": "665318131",
      "parentPost": " Lol, American Dad is such a stupid series..",
      "parentPostTime": "2012-09-28T06:43:37",
      "parentPostId": "665314031"
    },
    {
      "threadId": "618390633",
      "post": "It's wrong that employers and human resources departments are asking for job applicants' Facebook details. Facebook is one of those things that is as private as the details as to what is being done inside a person's home. Even friending human resource managers/logging in one time at a workplace (without remaining logged on) is still something worth noting as wrong. [As for the non-disparagement agreements, that's stripping someone of free speech and still an invasion of privacy.]\n\nFor a job interview, I'd rather the background check be a \"warrant\" where the data liberation features of Facebook may be used one time for a manager to download a time-sensitive copy of the Facebook account data (minus passwords.) That being said, I'd want to see Facebook disable access to the said downloaed data after a set amount of time (72 hours seems like a reasonable maximum time to examine a person's Facebook account through data liberation.)\n\nAsking for a person's username and password is crossing the line. I hope there will be a law or act put out against this atrocity. I could never walk out of a job interview knowing I gave my Facebook credentials out to anyone.",
      "time": "2012-03-20T22:54:09",
      "id": "470676218"
    },
    {
      "threadId": "618025519",
      "post": "It's wrong that employers and human resources departments are asking for job applicants' Facebook details. Facebook is one of those things that is as private as the details as to what is being done inside a person's home. Even friending human resource managers/logging in one time at a workplace (without remaining logged on) is still something worth noting as wrong. [As for the non-disparagement agreements, that's stripping someone of free speech and still an invasion of privacy.]\n\nFor a job interview, I'd rather the background check be a \"warrant\" where the data liberation features of Facebook may be used one time for a manager to download a time-sensitive copy of the Facebook account data (minus passwords.) That being said, I'd want to see Facebook disable access to the said downloaed data after a set amount of time (72 hours seems like a reasonable maximum time to examine a person's Facebook account through data liberation.)\n\nAsking for a person's username and password is crossing the line. I hope there will be a law or act put out against this atrocity. I could never walk out of a job interview knowing I gave my Facebook credentials out to anyone.",
      "time": "2012-03-20T22:51:10",
      "id": "470673875"
    },
    {
      "threadId": "613514867",
      "post": "\"BONUS: 36,000 Rage Points (30,000 + 6,000 extra) is no longer available. Please remove it from cart.\" You could have said \"Limited to the first X-amount of customers who seal the deal.\"",
      "time": "2012-03-17T23:30:07",
      "id": "468044770"
    },
    {
      "threadId": "497300959",
      "post": "Well, like every year, it's screw-off-your-friends-and-play-awesome-games-of-Pangya time again this month!",
      "time": "2011-12-08T07:38:16",
      "id": "381845745"
    },
    {
      "threadId": "497099128",
      "post": "The way you feel is exactly why I had quit the game a while back. I'm just back for the fun. Gacha is past me. If something catches my eye and I have the spare money, then it COULD be worth having eaten... Just like the New York Lottery says to everyone... \"Hey, You Never Know\"",
      "time": "2011-12-08T07:34:14",
      "id": "381844659",
      "parentPost": "Hope the rates wont eat your money -.- ",
      "parentPostTime": "2011-12-08T07:25:18",
      "parentPostId": "381842274"
    },
    {
      "threadId": "466084962",
      "post": "https://www.facebook.com/ItsTsuiTime/posts/186932104724536",
      "time": "2011-11-17T19:07:22",
      "id": "366856207"
    },
    {
      "threadId": "471169061",
      "post": "https://twitter.com/#!/Tsuimonster/status/137243594577805312",
      "time": "2011-11-17T19:00:34",
      "id": "366851234"
    },
    {
      "threadId": "385472459",
      "post": "I would use the TimeToCall App to call my Filipino friend of mine because we're simply cool like that.",
      "time": "2011-08-17T08:41:31",
      "id": "289076560"
    },
    {
      "threadId": "319902715",
      "post": "Uhh, what, umm, mobile platform on a PC? I don't even...",
      "time": "2011-06-02T09:18:29",
      "id": "216368895"
    },
    {
      "threadId": "301495185",
      "post": " \nWait, huh? 5:30 PDT? You mean 5:30AM PDT!? Seriously!? Damn. I' still be asleep. 5:30PM PDT, then I' have a slight chance....",
      "time": "2011-05-12T02:43:31",
      "id": "201849297"
    },
    {
      "threadId": "255930573",
      "post": "200+ tries (coupons + pang) and I still haven't won any rares from Black Papel. I quit yesterday after reaching 700k Pang. ._.",
      "time": "2011-04-10T17:46:06",
      "id": "181961000"
    },
    {
      "threadId": "225467797",
      "post": "The 12th person who commented before me will not win.",
      "time": "2011-02-16T11:05:09",
      "id": "148474085"
    },
    {
      "threadId": "150801313",
      "post": "That... is not cool.\nI miss my younger days :/",
      "time": "2011-01-11T15:40:23",
      "id": "127625497"
    },
    {
      "threadId": "181537786",
      "post": "Nice future we got :D",
      "time": "2010-11-29T17:27:56",
      "id": "104742270"
    },
    {
      "threadId": "181543006",
      "post": "Good luck to all entrants! ;D",
      "time": "2010-11-29T17:24:29",
      "id": "104741461"
    },
    {
      "threadId": "134449698",
      "post": "It is such a total fake... it single-handedly killed my MacBook Pro and wouldn't install its drivers on any Windows 7 computer... even my XP computer rejected it.",
      "time": "2010-10-22T03:38:54",
      "id": "88989813"
    },
    {
      "threadId": "50776070",
      "post": "I know that I only receive tweets via SMS for the online games I play (which would be 3 Twitter users already), those holding giveaways at the moment (which is 1 for now), and one friend of mine. Of those 5 people, their tweets will be mixed in with a tweet from some person I don't even really know. That's strange, if you ask me...\r\n\r\nAnd this didn't just start this morning, but it started last week, which is an outrage... I highly doubt that Twitter will ever make a \"sponsored SMS tweet\" without notifying their users 60 days in advance, even though Twitter may need financial support at some point.",
      "time": "2009-12-10T01:27:11",
      "id": "25354004"
    },
    {
      "threadId": "28101724",
      "post": "... DAYUMNNHH!!!",
      "time": "2009-08-04T01:58:42",
      "id": "13860284"
    },
    {
      "threadId": "25772631",
      "post": "Yeah, IE6 is the obstacle/road block to innovations in the web. Webmasters should do what game publisher webmasters do: Disable access to any page if accessed using IE6, tell them to switch or don't even let them TOUCH any other part of the site.",
      "time": "2009-07-17T14:47:38",
      "id": "12813770"
    },
    {
      "threadId": "9896083",
      "post": "yay woot I have a star account! :D\n\nThanks charles! :D :D :D",
      "time": "2009-01-16T02:20:49",
      "id": "5157213"
    },
    {
      "threadId": "9805465",
      "post": "Charles account = God, as I see it XD\r\nCharles... charles... charlessssssssssssssss~! XD",
      "time": "2009-01-14T23:00:25",
      "id": "5121895"
    },
    {
      "threadId": "8658995",
      "post": "So this is what it looked like during the test... pretty good start, now it's such an AWESOME game!",
      "time": "2009-01-14T03:20:32",
      "id": "5105366"
    },
    {
      "threadId": "9425173",
      "post": "Eh, haha, TO BROOKLYN!!! ",
      "time": "2009-01-14T03:19:01",
      "id": "5105336"
    },
    {
      "threadId": "9860180",
      "post": "Ohmahgawhd SHAWEET!! I needed something like that! You are GOD! XD :D XD",
      "time": "2009-01-14T03:18:06",
      "id": "5105320"
    },
    {
      "threadId": "8749922",
      "post": "BEST ONLINE GAME!!!\r\n\r\n... and no other website can do better than this! With Balloono, iminlikewithyou is unstoppable!",
      "time": "2009-01-14T03:17:38",
      "id": "5105350"
    },
    {
      "threadId": "9201398",
      "post": "Yeah w00t! This website IS a lot faster! :D :D :D",
      "time": "2009-01-14T03:17:31",
      "id": "5105315"
    },
    {
      "threadId": "8660898",
      "post": "Well, I'm going to submit one... IN HD! :D :D :D\r\n\r\n(There's only two real funny parts, and that's the running parts and saying the website name for the 3rd time! :D)\r\n\r\nI'll be uploading it on YouTube soon, so watch out for it, everyone! :O",
      "time": "2009-01-14T03:13:28",
      "id": "5104681"
    }
  ],
  "profileInfo": {
    "username": "AlexanderTsui",
    "about": "Your I.T. guy all over the Internet, EDM Lover, a Hong Kong-Chinese who loves Country Music… you don't know me yet!",
    "name": "Alexander Tsui",
    "disable3rdPartyTrackers": false,
    "isPowerContributor": false,
    "isAnonymous": false,
    "rep": 1.271363,
    "profileUrl": "https://disqus.com/by/AlexanderTsui/",
    "url": "http://www.AlexanderTsui.me/",
    "reputation": 1.271363,
    "location": "Englishtown, New Jersey",
    "isPrivate": false,
    "signedUrl": "http://disq.us/?url=http%3A%2F%2Fwww.AlexanderTsui.me%2F&key=l14fVQuWtSdYMP60QFXX7g",
    "isPrimary": true,
    "joinedAt": "2009-01-14T03:13:27",
    "id": "188391",
    "avatar": {
      "small": {
        "permalink": "https://disqus.com/api/users/avatars/AlexanderTsui.jpg",
        "cache": "//a.disquscdn.com/uploads/users/18/8391/avatar32.jpg?1458309547"
      },
      "isCustom": true,
      "permalink": "https://disqus.com/api/users/avatars/AlexanderTsui.jpg",
      "cache": "//a.disquscdn.com/uploads/users/18/8391/avatar92.jpg?1458309547",
      "large": {
        "permalink": "https://disqus.com/api/users/avatars/AlexanderTsui.jpg",
        "cache": "//a.disquscdn.com/uploads/users/18/8391/avatar92.jpg?1458309547"
      }
    }
  }
}