{
  "comments": [
    {
      "threadId": "3050338697",
      "post": "To Sony BMG Zomba / Brutney Spears / Matt Haywood / HHO Publishing. Canada has unique laws that you won't be able to dodge quite as easily..  Your theft of artists songs is what manifests in your lives.  You can trick the public with deceipt ... But you can't cheat Karma... Just remember... You are the one that lost your head, kids and Kevin...the look in your eyes said it all..  You went crazy with guilt.   Bottom line.",
      "time": "2016-06-21T19:51:36",
      "id": "2743147668"
    },
    {
      "threadId": "4504815570",
      "post": "Currently looking between the Orion 32 and Symphony MKII.  I have not heard either...YET...looking forward to experiencing them both, and making my studio up-grade choice.",
      "time": "2016-01-20T10:29:26",
      "id": "2467922476"
    },
    {
      "threadId": "3704050439",
      "post": "What CISAC, WIPO, CIPO fail to do is the obvious.  While they spend millions of dollars creating new \"Treaties\" with countries, fair trade agreements and re-sale proposals, the power to hold companies such as Bell and Rogers accountable for profiting from the sharing of and down loading / streaming of Intellectual Property content, has not been addressed at all.  Bell / Rogers, are given the right to profit from the data associated with the services but make no contributions to the artists directly.  This is a giant gap loophole in the grand scheme of playing our musical creations.  Without Bell / Rogers acting as the driver in a Bank Robbery, thieves could not get away with the use of our content.  CISAC, WIPO and CIPO....go beyond platitudes and hotel surfing, utilize the court system to make charge against Corporations profiting from content without \"Fair Compensations\".  Also, hold the individuals who utilize streaming services accountable, by attaching tariff to use.  Should be quite easy when there is a \"Will, there is a Way\".  I see a lot of smiles and handshakes going on........how about showing your willingness to hold Government agencies, CRTC, and representatives accountable for a job, not well done.",
      "time": "2015-11-15T00:32:02",
      "id": "2360251140"
    },
    {
      "threadId": "4183607623",
      "post": "This gives others the chance and hope to take on these bandits of Intellectual Properties.  I met with Matt Haywood of HHO Publishing in Sept. of 2001.  He agreed to be my \"U.K.\" representative.  Since then, the music I entrusted to Matt Haywood / HHO Publishing House, Sarah Hadaway, Lord Henry Hadaway, ended up on it's affiliate Publishing House BMG / SONY catalog with Britney Spears.  Spears released my track originally called \"Take Me Higher\" with producer Robert John \"Mutt\" Lange.  Mutt sold principal interest in ZOMBA in the same year releasing my song SLAVE FOR YOU, when SONY merged with BMG ZOMBA.\n\nwww.youtube.com/watch?v=9HWmvnw7YGQ\n\nhttps://www.youtube.com/watch?v=8068Uu7Vt_0\n\nPlease go to 1:20 in the remix of DAVE AUDE / SLAVE DRIVER REMIX.  His song mix never leaves my original song creation.  Registered with SOCAN / DEAN HAJAS writer / oNe sKy Publishing. \n\nI have contacted One Media IP and asked if they are interested in assisting with taking on HHO Publishing / ZOMBA / SONY BMG for a larger piece of the pie, and will duly notify of their respective response.\n\nThe music industry is tough enough with society downloading and taking music without payment.  When the individuals responsible for the care and fair representations of the artists who create the music decide to do \"underhanded, dirty business\", it's up to us to assist Karma in pushing for justice.\n\nmdean707@hotmail.com",
      "time": "2015-10-01T17:57:48",
      "id": "2284162065"
    },
    {
      "threadId": "3906791251",
      "post": "When IMF and World Bank take fiscal and financial responsibility for manipulating and bullying many countries for decades, then this mess will be able to be addressed appropriately.  Non-of the G-7 or U.N. initiatives held the U.S. accountable for it's \"stock mockery\".....The effects will be devastating globally ....and as usual the ones at the bottom will pay dearly.",
      "time": "2015-07-05T16:25:44",
      "id": "2117968182"
    },
    {
      "threadId": "3868091066",
      "post": "Exactly.....this is advocation for artists being devalued.  Perhaps if more of the music icons thought of the state of our music industry, we wouldn't be in our current state!!!",
      "time": "2015-06-22T11:26:54",
      "id": "2092571156",
      "parentPost": "What she has in the bank is totally  irrelevant. If Apple wants to use the artists music-they should be paying the artist royalties-bottom line. Swift is 100% correct in this situation.",
      "parentPostTime": "2015-06-22T11:20:58",
      "parentPostId": "2092565649"
    },
    {
      "threadId": "3684815649",
      "post": "And what percentage does 8 Tracks pay for streaming our intellectual properties......pennies.....on the millions???",
      "time": "2015-04-17T00:16:58",
      "id": "1971718303"
    },
    {
      "threadId": "3625647847",
      "post": "These same students need to realize that stealing our musical creations, movies and software have been hurting creators of Intellectual Properties for almost twenty years....we have already been living on nothing....now it's your turn!",
      "time": "2015-03-27T13:33:38",
      "id": "1931188715"
    },
    {
      "threadId": "3612554679",
      "post": "I applaud anyone who stands in the gap for the musicians who feed the aching souls of society.",
      "time": "2015-03-27T09:23:02",
      "id": "1930910413"
    },
    {
      "threadId": "3623992092",
      "post": "He had a bad day.....every incident out of character is someone \"having a bad day\".....WTF???",
      "time": "2015-03-25T15:42:41",
      "id": "1927334325"
    },
    {
      "threadId": "3583384596",
      "post": "Interestingly, society is charged a tax for just about everything in their life.....yet there seems to be a large surprise when asked to pay for music.  The vehicles we drive...the roads we drive on....alcohol, cigarettes.....everything has a tax.  This is the entertainment tax...that recognizes our efforts as creators of a product...no different than the Beer product that is consumed in the Bars.  People don't argue about the price of a beer.....even though it's water, barley and yeast...and worth pennies per gallon, the bar charges and has it's profit margins.  Society has developed an attitude thinking they don't need to pay for our efforts...this is a reminder that in fact we are a commodity, and require payment as well.",
      "time": "2015-03-11T21:11:08",
      "id": "1902058136"
    },
    {
      "threadId": "3554559678",
      "post": "Grand Erie District School board ....this is your wake up call sign.....You are very lucky that nothing happened to this child.  The thing that gets me....It's illegal for me to drive my vehicle without my seat-belt on.  I also can be charged if I don't have my children strapped into their seats.  Yet....amazingly....these big yellow tin cans with 40 of our precious ones on it....can ride around to Ottawa, Hamilton, Brantford....and all the surrounding areas....with no seat belts.  Only one on the bus with a seat belt are the bus drivers.....Thank God the fat bus drivers are safe.  Think about it.....real hard...then go back to sleep people...You've done nothing for ever about this issue...so stay asleep...And don't you dare complain when a bus overturns crushing children, and throwing them all over the road....keep your mouths shut....OK",
      "time": "2015-02-28T11:24:57",
      "id": "1880166233"
    },
    {
      "threadId": "3551797635",
      "post": "I wanna throat  punch Jane South....just like she deserves.",
      "time": "2015-02-28T05:56:20",
      "id": "1879950999"
    },
    {
      "threadId": "3475899414",
      "post": "The Government has been completely irresponsible with the protection of artists Intellectual Property rights.  With organizations such as SOCAN / CMRRA / and CIPO to name a few, that syphon off Taxation dollars to perform administrative services for creators of musical art, and digital art forms.  These organizations allowed for monopolies to exploit our creations without fair compensations, that lead to mental health issues as a result of artists devoting their lives to their crafts, only to watch the renumerations be eaten up by Rogers, Bell, and Cogeco.  These organizations have no policing will, and Canadian Artists find themselves having to do the very work of these appointed Government Agencies, without the resources necessary.",
      "time": "2015-02-02T06:34:38",
      "id": "1830125827"
    },
    {
      "threadId": "3461755039",
      "post": "Damn Skippy.....and imagine SONY at the helm again, stealing from Dean Hajas / Britney Spears / Slave for You / oNe sKy publishing.  HHO PUBLISHING / Bruce Scavuzzo / Robert John Mutt Lange / Eric Lavine / Matt Haywood /",
      "time": "2015-01-28T06:09:16",
      "id": "1820999428"
    },
    {
      "threadId": "3338930257",
      "post": "Thanx Guys for your support.....Music business is difficult enough without SONY BMG ZOMBA assuming your Intellectual Properties.  Thank you for sharing my video.....Dean Hajas oNe sKy publishing / SOCAN",
      "time": "2014-12-19T05:12:56",
      "id": "1749728296"
    },
    {
      "threadId": "3334951399",
      "post": "Rolling Stone....must be owned by SONY.....freedom of speech is not encouraged...hmmmmmmm",
      "time": "2014-12-18T15:05:57",
      "id": "1748589145"
    },
    {
      "threadId": "3300728683",
      "post": "Congratulations Alonzo family.....I only go back 45 of the 50 years.....but I promise to try harder.....lol....Looking forward to supporting the best music store in the area for as long as I'm able.",
      "time": "2014-12-08T19:13:19",
      "id": "1731978235"
    },
    {
      "threadId": "3191755629",
      "post": "You gotta know the numbers they are banking on......There is going to be an absolute onslaught of money from baby boomers exchanging hands in the next 10 years.  The banks are just pulling Generation Next home to momma and poppa!!!  Watch how they spend money...after not having any....",
      "time": "2014-11-04T23:50:41",
      "id": "1676791625",
      "parentPost": "Hey Poloz, why don't you work for free and lead by example.  Or even better, take 25 years worth of your salary and fund a non-profit organization designed to help young people learn skills and find jobs?\n\nYou're telling people to work for free, but they will go homeless if they don't get their next paycheque from their dead-end job.  Advice from the 70's or 80's doesn't work in todays market.",
      "parentPostTime": "2014-11-04T20:20:23",
      "parentPostId": "1676411335"
    },
    {
      "threadId": "2432016743",
      "post": "I wrote songs with CPI artist John McDermott and Bill Ballard's cottage in Collingwood.   Larger than life, highly opinionated, you either loved him or hated him......He was completely authentic and real ...to the core!",
      "time": "2014-03-15T16:14:27",
      "id": "1285858214"
    },
    {
      "threadId": "1534470018",
      "post": "Numerical fun.....Enjoy this eve....everyone!",
      "time": "2014-01-15T05:14:56",
      "id": "1201357852"
    },
    {
      "threadId": "157881213",
      "post": "I'm struggling.......I have been physically hurt by my X wife.....she shoved my son into garbage cans in back alley ways.....and the system forces him to go to his access.....where she assaults him.....in the face, physically.....calls him names,.....and ridicules me through his self image of me......When he returns....I have to rebuild him, pull out the fear.....and redirect him every time......I have no faith in the church......or man",
      "time": "2013-11-21T02:10:52",
      "id": "1132091796",
      "parentPost": "As many others have said, forgiving others is something we need to do for our own health, not the other person's.  I once heard it said that holding on to anger and resentment is like drinking poison and expecting the other person to die.  Most people would agree that expectation is sort of silly.  At the end of the day, our Anger and hatred is poison to OUR soul, not theirs.",
      "parentPostTime": "2010-10-18T18:16:13",
      "parentPostId": "87918774"
    },
    {
      "threadId": "1942373428",
      "post": "The inevitable flip side to this is the lack of \"funding\" and respect for the current generation to get \"paid, skilled, work\"......Interns are running, rampant, tripping themselves ....to make coffee and sharpen pencils, and finish multi-conglomerate reports for their cohorts and fellow staff.  Attitudes of stealing from the artists in general is blatant justification, for simply not wanting to pay, for services rendered.  Good luck, generation.....jobless!",
      "time": "2013-11-07T00:21:52",
      "id": "1111908653"
    },
    {
      "threadId": "1856211206",
      "post": "These guys crack me up!",
      "time": "2013-10-29T23:01:41",
      "id": "1101533411"
    },
    {
      "threadId": "1901315359",
      "post": "SONY rips off Dean Hajas writer of Slave for You and Quincy Jones.  When will SONY learn?",
      "time": "2013-10-28T00:45:40",
      "id": "1099001448"
    },
    {
      "threadId": "1840398160",
      "post": "Look who I found staying at my house!.......!  Media mogul David Lee Roth !",
      "time": "2013-10-13T13:58:36",
      "id": "1080853910"
    },
    {
      "threadId": "1811990079",
      "post": "Excellent perspective for dealing with large volume and channel issues.  I'm wondering....for all the touring gear that is shipped and set up.....what about creating a tent like facade within the stadium....draping curtains...to absorb reflections...This is an issue with every venue, and drives the engineers nuts.  Every time you want to open up the horse power, it over stimulates the room abilities to make the broadcast \"musical\".",
      "time": "2013-09-30T21:28:06",
      "id": "1065028280"
    },
    {
      "threadId": "1170867209",
      "post": "Intellectual Property Infringement (theft), is the norm of HHO Publishing. Henry Hadaway, did knowingly allow Matt Haywood to take Dean Hajas song creation \"Take Me Higher\",http://www.youtube.com/watch?v=9HWmvnw7YGQ.  Sarah Hadaway, has admitted (as well as her husband), that Matt stole Dean Hajas song creations.  I look forward to my day in court with the lot of them.  Matt Haywood, Henry Hadaway, Sarah Hadaway, SONY BMG ZOMBA, Robert John Mutt Lange, Sir Howard Stringer, Eric Lavine, David Schmidt, Gary Wade Leak, Britney Spears, Bruce Scavuzzo....the list goes on and on!",
      "time": "2013-09-30T13:29:56",
      "id": "1064457706"
    },
    {
      "threadId": "1577576322",
      "post": "The majority of the recent comments are addressing the Life Span of CD's / sales / storage etc.  \n\nCD's are on the decline, however, they will stick around as long as Mastering houses, continue to choose this as it's most popular format for artists creations.\nWAV is the format you need for archival. You can always go down from WAV to everything else. You cannot come back up from low MP3 quality and it's very difficult to edit MP3. The world consumes degraded audio, (MP3), that originates from CD. \nIn all professional recording studios, the sharing, storage is both an\ninexpensive medium, and is standard.\n\nFor artisans, musicians alike, money remains an integral component in the chain, that connects us, there is an honouring to the Minstrel, and the character, portraying the part. The Snow cone vendor at the beach, to good Preacher, everyone needs to keep the lights on, and the gas bill paid.",
      "time": "2013-08-10T20:34:01",
      "id": "995821578"
    },
    {
      "threadId": "1523051984",
      "post": "Stream on.....this is not the issue....it's the associated advertisement dollars that are not being distributed as agreed to the artists, as a direct result of public traffic visiting sites, specifically to listen to music.",
      "time": "2013-07-24T11:49:31",
      "id": "974511098"
    },
    {
      "threadId": "1256534069",
      "post": "Thanx for the \"input\"...Collyer.....looking forward to 11 for sure.....Keep up the great work.",
      "time": "2013-05-14T21:47:59",
      "id": "897544038"
    },
    {
      "threadId": "1191629495",
      "post": "I'm \"DETERMINSIM\".......bet ya can't say that after a double vintage Scotch!",
      "time": "2013-04-11T02:41:24",
      "id": "859245864"
    },
    {
      "threadId": "1191584767",
      "post": "On the shopping list for sure!",
      "time": "2013-04-11T02:37:52",
      "id": "859243977"
    },
    {
      "threadId": "1198718915",
      "post": "Sorry....tried the MAudio Line.....distorts in the high end....not transparent....or true.  Just my observation.",
      "time": "2013-04-09T21:04:37",
      "id": "857961951"
    },
    {
      "threadId": "986464779",
      "post": "SONY JUNKYARD 01://www.youtube.com/watch?v=BFM5ZWcE6zU......SONY JUNKYARD 02.http://www.youtube.com/watch?v=OL-vKztTgD0........SONY B. Spears / Dean Hajashttp://www.youtube.com/watch?v=9HWmvnw7YGQ.....Please visit these videos to see how SONY BMG ZOMBA stole Intellectual Properties of artist Dean Hajas.  Over 89 million sales of my \"original body of works\" has transpired without one cent of return.  Please help get the word out, as justice has to have it's day in court.  Thank you.  Dean Hajas mdean707@hotmail.com",
      "time": "2012-12-26T16:10:51",
      "id": "747796665"
    },
    {
      "threadId": "940077280",
      "post": "SONY BMG ZOMBA, released Dean Hajas song creation \"SLAVE FOR YOU\" with artist Britney Spears illegally!",
      "time": "2012-11-23T08:14:45",
      "id": "717354453"
    },
    {
      "threadId": "762331579",
      "post": "Mutt Lange had large Karma playing out in his life.  He produced \"Slave for You\" written by Dean Hajas, and released it with artist Britney Spears.  He then sold principle interest of ZOMBA / Jive Records to SONY when they merged with BMG.  It's the only song on \"OOps I did it again\", that Britney Spears lays claim to writing.  Britney Spears is not a writer of music, she's a performer of other artist's music.  Since this Intellectual Property infringement, SONY shares are trading at $9.80 per.  Sir Howard Stringer CEO of SONY Japan, has been demoted. Eric Lavine, was fired as Britney Spears Entertainment Lawyer.  Matt Haywood of HHO Publishing has sunk into the sands of DUBAI (and a large truck of Jack Daniels).  Kaptain Karma is alive and well....Actually a good thing for Shania..however, I'm sure that Mutt, broke her heart.  mdean707@hotmail.com",
      "time": "2012-11-19T20:27:25",
      "id": "714138819"
    },
    {
      "threadId": "713414160",
      "post": "Simply put.....SONY is no different from any other hardware / software developer.  The reason for the rapid decline in stock value is because of public opinion.  Reject it if they will, SONY turned it's back on people. Stealing of Intellectual Properties by Mr. Dean Hajas.  Underhanded protocol of software released on C.D.'s that allowed SONY to police it's I.P. Breach of trust with regards to Playstation 3.  Bravia T.V. sets igniting in people's living rooms.  \n\nmdean707@hotmail.com",
      "time": "2012-06-06T00:06:42",
      "id": "548314426"
    },
    {
      "threadId": "708459227",
      "post": "This has certainly heated up the moments for Hockeyfest, and all parties.  This is how wars are started.....lack of communication, and obvious heavy handedness.  The fact that Brantford Police and GRCA decided to pullout for their own reasons were justifiable in their own right, as they were seemingly presented to the public interest.  Promoter Ralph Spoltore has been put between the Rock (and Roll) and a very hard place.  In a last minute ditch effort, he makes good on providing a venue site that will build bridges between Brantford and Ohsweken.  This would have brought a professional venue to the area, benefitting so many more than the usual ones with the hands out first.  The fact that the Brantford Police, pulled a Loyalty card of Solidarity with SIX NATIONS POLICE is eyeopening at least, and a sharp Gibson to the forehead!  \n\nWhat an opportunity for Ralph and Six Nations......despite the so called \"solidarity\" claim of Six Nations Police however, I firmly support Talent Venues of this magnitude for the future of SIX NATIONS.  I don't believe that SIX NATIONS POLICE have the man power to accomodate the security issues presented.  Further, SIX NATIONS POLICE are already on SOVEREIGN Land, and have SOLIDARITY to their own.  This move ultimately shows the residence of SIX NATIONS and Brant County at large, that regardless of how our communities struggle to live in harmony with each other, Governing bodies, use manipulations to undermine \"that which is out of their understanding\".  I ask all those who purchased tickets in good faith, to have patience and offer Ralph some time to overcome this devastating news, and let him honour his obligations.  In Fact In a sign of reverse solidarity, those willing, might consider letting Ralph have the ticket value towards renegotiating a venue at another facility.  I know it's a stretch, but there's no way he can personally be responsible for the outcome of this fiasco created.  It's amazing when Brantford wants to host a parade, game, run, or any other Harmony Square event, that they can make it come off without a hitch.   They should have kept their mouths shut, and saved face for all......\n\nBig Apologies and understanding to Ralph.....you Rock...... and........ Roll Sir......and we have faith in the recovery from this tragedy.  Keep going forward, put this behind you, and perhaps hire some additional legal personal, to CYA........cover your ass!\n\nPeace to you and all the bands, vendors, patrons, campers....and anyone else who is passionate about Hockeyfest 2012.....all the best to you.\n\nmdean707@hotmail.com",
      "time": "2012-05-31T20:40:08",
      "id": "544128946"
    },
    {
      "threadId": "707822221",
      "post": "This has certainly heated up the moments for Hockeyfest, and all parties.  This is how wars are started.....lack of communication, and obvious heavy handedness.  The fact that Brantford Police and GRCA decided to pullout for their own reasons were justifiable in their own right, as they were seemingly presented to the public interest.  Promoter Ralph Spoltore has been put between the Rock (and Roll) and a very hard place.  In a last minute ditch effort, he makes good on providing a venue site that will build bridges between Brantford and Ohsweken.  This would have brought a professional venue to the area, benefitting so many more than the usual ones with the hands out first.  The fact that the Brantford Police, pulled a Loyalty card of Solidarity with SIX NATIONS POLICE is eyeopening at least, and a sharp Gibson to the forehead!  \n\nWhat an opportunity for Ralph and Six Nations......despite the so called \"solidarity\" claim of Six Nations Police however, I firmly support Talent Venues of this magnitude for the future of SIX NATIONS.  I don't believe that SIX NATIONS POLICE have the man power to accomodate the security issues presented.  Further, SIX NATIONS POLICE are already on SOVEREIGN Land, and have SOLIDARITY to their own.  This move ultimately shows the residence of SIX NATIONS and Brant County at large, that regardless of how our communities struggle to live in harmony with each other, Governing bodies, use manipulations to undermine \"that which is out of their understanding\".  I ask all those who purchased tickets in good faith, to have patience and offer Ralph some time to overcome this devastating news, and let him honour his obligations.  In Fact In a sign of reverse solidarity, those willing, might consider letting Ralph have the ticket value towards renegotiating a venue at another facility.  I know it's a stretch, but there's no way he can personally be responsible for the outcome of this fiasco created.  It's amazing when Brantford wants to host a parade, game, run, or any other Harmony Square event, that they can make it come off without a hitch.   They should have kept their mouths shut, and saved face for all......\n\nBig Apologies and understanding to Ralph.....you Rock...... and........ Roll Sir......and we have faith in the recovery from this tragedy.  Keep going forward, put this behind you, and perhaps hire some additional legal personal, to CYA........cover your ass!\n\nPeace to you and all the bands, vendors, patrons, campers....and anyone else who is passionate about Hockeyfest 2012.....all the best to you.\n\nmdean707@hotmail.com",
      "time": "2012-05-31T20:39:31",
      "id": "544128509"
    },
    {
      "threadId": "703284543",
      "post": "Spot on PJNorth.  However, as you have truth and insight, the reality for the U.S. and Wall St. is written on the IPad tablets.  Forward thinking has inverted it's self, becoming it's own worst enemy.  Karma, paybacks, equalization....whatever the term used to describe, belligerent behaviour begets belligerent response!\n",
      "time": "2012-05-25T23:54:39",
      "id": "538755809",
      "parentPost": "Private Equity notwithstanding, America is going RIGHT down that path! With HUGE sclerotic Financial Behemoths; Vertizontal Conglomerates who still talk \"innovation\" even as they fear it and a Government that cannot differentiate between Bureaucracy and Necessary Regulation and thus becomes manipulable by short-sighted vested interests. We NEED an Highly Educated workforce; we NEED huge increases in Science and R&D; we NEED companies, nimble and fearless, who operate transparently and responsibly; we NEED a rational, developed infrastructure. Cut the DOD in half, restore education and infrastructure, get the parasites and greedheads OFF of Wall Street and for GOD SAKES do NOT elect that idiot Mitt Romney. He's a \"businessman\" like J.Fred Muggs is a Brain Surgeon. Japan is your warning, your lesson and your future if you choose to be short-sighted and insanely partisan like most of the GOP, America. Your fear is all that will destroy you.    ",
      "parentPostTime": "2012-05-25T15:50:04",
      "parentPostId": "538472759"
    },
    {
      "threadId": "701226653",
      "post": "SONY has been publicly warned as a result of Intellectual Property theft of Mr. Dean Hajas song creation \"Slave for You\".  Performed by Britney Spears, the only track on her C.D. that she lays claim to having written.  When SONY BMG purchased ZOMBA, they tried to hide the truth, however KARMA is alive and well for SONY.  Bruce Scavuzzo of EMI Publishing, wrote Mr. Dean Hajas a letter pointing fingers back at ZOMBA.  Upon further investigations, it would appear that SONY BMG are fully responsible for this infringement.  SONY BMG can expect a return to profit share of previous years, when they fully admit and apologize to Mr. Dean Hajas publicly and pay in full what is rightfully owed to the creator of this \"original body of works\"!\n\nmdean707@hotmail.com",
      "time": "2012-05-24T02:46:16",
      "id": "537115699"
    },
    {
      "threadId": "548744360",
      "post": "It's quite simple really.  When SONY BMG merged, they purchased ZOMBA.  This allowed them to steal music belonging to Mr. Dean Hajas.  Slave for You, performed by Britney Spears, is the only song on her C.D. which she lays claim to writing.  There is Karma playing out in the fields of SONY, and Howard Stringer, Gary Wade Leak, and David Schmidt are very familiar.  Bruce Scavuzzo head of EMI publishing wrote Mr. Dean Hajas pointing fingers back at ZOMBA, however the plot thickens the more we investigate.  When SONY apologizes to Mr. Hajas, and pays in full what it owes, we can expect a return of profit for SONY.  Not until they publicly admit their wrong doing, will this occur. \n\nmdean707@hotmail.com",
      "time": "2012-05-24T02:37:22",
      "id": "537109858"
    },
    {
      "threadId": "545248736",
      "post": "Hey David.....thank you for your support and understanding....As an artist, I was fully concentrated on creating, and learning how to develop all aspects.  The business side of creativity and the protection of it is elusive at best.  As a result of this IP theft to me, I kept looking for more people with similar stories and was blown away with the numbers.  The recourse for the originator of body of works, is a long, painful and expensive cause. This theft really affected my everything......However, on the other side of the B.S. of the music business,  I have the need to express.  I'm currently working with seasoned veterans of music.  Jim Windle from Whiskey Hollow, is our bass player, and Jim Miller on Keys, Randell Hill on vocals and guitar, Brandon Silver on electric and myself on drums for a band called \"Rufus Crabhawk\".....We have a great recording facility and rehearsal space.  We're all excited to share our talents to people who want to join in .  \n\nI'm on the mend, and things are moving ahead.  As a result of this issue though, it gave me my voice as a gift.  I'm not afraid to speak to the industry and the world, or to the \"Governing bodies\" who are put in place to \"protect\" our creative interests.  It's been a big learning curve, and fortunately has made me a better man.!\n\nTake care David Rodriguez.......Peace in all that you do.\n\nCheck out some of the history if interested.  Google Dean Hajas \nmdean707@hotmail.com",
      "time": "2012-01-23T08:31:17",
      "id": "418528619",
      "parentPost": "Even though I feel totally sympathetic with your case, I'm wondering if you know that what happened to you is more common than you think.\n\nThere are many top-songs -classics- that are actually rip offs of smaller/unknown artists. Examples are Enter Sandman and Stairway to Heaven.",
      "parentPostTime": "2012-01-22T02:56:32",
      "parentPostId": "417821971"
    },
    {
      "threadId": "529449876",
      "post": "SONY BMG ZOMBA are engaged in a game of subterfuge. The Corporate stance of assuming Intellectual Property belonging to Dean Hajas, in 2001, will result in paying back over 100 million dollars US.  Howard Stringer, Gary Wade Leak, Bruce Scavuzzo, Eric Levine, Matt Haywood and Robert John \"Mutt\" Lange released Slave for You ( Britney Spears ) without prior written consent.  Cease and desist orders along with independent musicologist's, and a letter from Bruce Scavuzzo point fingers directly at ZOMBA.  Who owns ZOMBA....SONY BMG....Therefore who purchased the issue!  I look forward to our day in court, perhaps now would be a good time for you to approach me.  The settlement has gone up in dollar value as SONY stock is at an all time trading low.\n\nmdean707@hotmail.com ",
      "time": "2012-01-18T21:03:22",
      "id": "414695466"
    },
    {
      "threadId": "488312000",
      "post": "Go to Reverbnation Artist Profile Dean Hajas to make comparison of Britney Spears 2001 release \"Slave for You\", and that of artist Dean Hajas / Take Me Higher.  \n\ncontact mdean707@hotmail.com",
      "time": "2011-12-01T22:06:00",
      "id": "377076878"
    },
    {
      "threadId": "344628957",
      "post": "Howard Stringer has vowed to stay home in front of his Burning Bravia TV.  It's reported that SONY wants to \"reinvent the TV\".  It looks like they might have to reinvent the moral compass of SONY before this endeavour.  Reverbnation profile Dean Hajas Take Me Higher vs,/ Britney Spears Slave for You, Dave Aude Remix.  Please go to 1;29 of Slave for You video to compare from that point on. The sight also includes letter from Bruce Scavuzzo pointing fingers back at Eric Levine.\n\nPlease contact mdean707@hotmail.com",
      "time": "2011-11-14T20:41:52",
      "id": "363057677"
    },
    {
      "threadId": "471471256",
      "post": "It's high time Howard Stringer and SONY stop reinventing the wheel.  First fix your corporate moral model by apologizing to Dean Hajas for Intellectual Property theft of Slave for You released by SONY BMG ZOMBA Britney Spears.  Please go to Reverbnation profile Dean Hajas and observe for yourself B. Spears release with Dave Aude Remix, and that of Take Me Higher.  Go to 1:29 in on the video of Slave for You, the song never leaves my creation.  There are documents supporting this allegation including but not limited to letter from Bruce Scavuzzo pointing fingers back at Eric Levine.  100,000,000.00 CDN funds, and a public apology is the only way for SONY Japanese Executives to turn the Titanic around.\n\nPlease contact Dean Hajas mdean707@hotmail.com",
      "time": "2011-11-14T19:55:49",
      "id": "363025086"
    },
    {
      "threadId": "468864666",
      "post": "Peter Lauria and Lionel Laurent please help me understand.  SONY merged with BMG in 2001, so why did the two companies bid for the same take over?  Doesn't this leave the music industry in a Monopolized Model?\n",
      "time": "2011-11-14T04:09:08",
      "id": "362609010"
    },
    {
      "threadId": "461405606",
      "post": "Howard Stringer is appropriately positioned for getting the boot.  Please go to Reverbnation, profile Dean Hajas to hear the creation \"Take Me Higher\" stolen and released by Britney Spears \"Slave for You'.  Not following the basics of SONY corp Moral Corporate Policies, has landed SONY BMG ZOMBA in a huge black kettle of disaster.  The daily stock value of ADR has slumped to an all time low of less than $17.00 / share.  This is directly related to the Karma associated with Gary Wade Leak, David Schmidt, and anyone else who turned a blind eye to the Intellectual Property theft of Dean Hajas.\n\nPlease contact mdean707@hotmail.com",
      "time": "2011-11-12T00:58:07",
      "id": "361485303"
    },
    {
      "threadId": "372107913",
      "post": "Congratulations to SONY!  Mr. Michael Dean Hajas would like to thank everyone involved at SONY for making the decision to assume \"SLAVE for YOU\", released by Britney Spears.  I'm sure that the cheque is in \"the mail\" and is in full amount owed.  The decision(s) by Howard Stringer, and Gary Wade Leak, to honour this Number one World Wide hit, has made history for us all.  Thanks also goes out to Bruce Scavuzzo, for pointing the way, back to ZOMBA.  This was truly the best advice Bruce!  Eric Lavine, unfortunately wasn't able to ride \"the back lash\" by those in position of power. \n\nI'm looking forward though to working closely with Universal Music Group for my future endeavours!\n\nPeace\n\nMr. Michael Dean Hajas",
      "time": "2011-09-04T13:47:10",
      "id": "302249367"
    },
    {
      "threadId": "381463124",
      "post": "Since SONY has a reputation for taking \"Music\" and Intellectual Properties without prior written consent from it's original owner(s), Mr. Michael Dean Hajas has on all accounts warned Howard Stringer and Gary Wade Leak of the potential financial outcome that could arise. Britney Spears released \"Slave For You\" through Zomba / Robert John \"Mutt\" Lange, with Matt Haywood of HHO Publishing in 2001 without signing a publishing contract. After 89 million sales of Mr. Michael Dean Hajas creation, renumeration has not taken place from any of the continents that sold this illegally obtained \"ART\". Many attempts have been made to communicate with these \"corporate thieves\" to no avail, and it is with the great regret to see the facade of the \"American Affiliated Business\" community, along with the Library of Congress and it's people following a path of financial destruction that will take generations to overcome. During interview with Radio One of Detroit in May of 2008, I publicly proclaimed that United States of America was under financial attack(s) by China, to which the reply was one of rebuke. Now the financial Global Status Quo is in \"dire\" position, with the entire European Community at risk, with it's Western cohorts, leading the way. This synopsis will continue Globally until there is a 100 % written public apology by all those affiliated with the assumption of Mr. Michael Dean Hajas Intellectual Properties, accompanied by renumeration of 100 million dollars in GOLD bullion. \n\n\n\nMy greatest apology is for those who had nothing to do with this Intellectual Property theft, and the financial burden that has been place over you. If you are tired of the financial status and your current situation, it is recommended to demand accountability by SONY BMG/ ZOMBA / ROBERT JOHN \"MUTT\" LANGE / Britney Spears, Eric Lavine, Gary Wade Leak, Howard Stringer, Matt Haywood. \n\n\n\nThis Global Financial Crisis will continue to escalate until the United States of America offers up it's corporate accountability by full investigation to be made public by Congress and it's authorities. \n\n\n\nPeace be with you all.......this winter of 2012, will be the crippler, Mark My Word! \n\n\n\nMr. Michael Dean Hajas\n",
      "time": "2011-08-29T03:55:13",
      "id": "297530137"
    },
    {
      "threadId": "371038044",
      "post": "Since SONY has a reputation for taking \"Music\" and Intellectual Properties without prior written consent from it's original owner(s), Mr. Michael Dean Hajas has on all accounts warned Howard Stringer and Gary Wade Leak of the potential financial outcome that could arise. Britney Spears released \"Slave For You\" through Zomba / Robert John \"Mutt\" Lange, with Matt Haywood of HHO Publishing in 2001 without signing a publishing contract. After 89 million sales of Mr. Michael Dean Hajas creation, renumeration has not taken place from any of the continents that sold this illegally obtained \"ART\". Many attempts have been made to communicate with these \"corporate thieves\" to no avail, and it is with the great regret to see the facade of the \"American Affiliated Business\" community, along with the Library of Congress and it's people following a path of financial destruction that will take generations to overcome. During interview with Radio One of Detroit in May of 2008, I publicly proclaimed that United States of America was under financial attack(s) by China, to which the reply was one of rebuke. Now the financial Global Status Quo is in \"dire\" position, with the entire European Community at risk, with it's Western cohorts, leading the way. This synopsis will continue Globally until there is a 100 % written public apology by all those affiliated with the assumption of Mr. Michael Dean Hajas Intellectual Properties, accompanied by renumeration of 100 million dollars in GOLD bullion.My greatest apology is for those who had nothing to do with this Intellectual Property theft, and the financial burden that has been place over you. If you are tired of the financial status and your current situation, it is recommended to demand accountability by SONY BMG/ ZOMBA / ROBERT JOHN \"MUTT\" LANGE / Britney Spears, Eric Lavine, Gary Wade Leak, Howard Stringer, Matt Haywood.This Global Financial Crisis will continue to escalate until the United States of America offers up it's corporate accountability by full investigation to be made public by Congress and it's authorities.Peace be with you all.......this winter of 2012, will be the crippler, Mark My Word!Mr. Michael Dean Hajas",
      "time": "2011-08-14T20:45:44",
      "id": "286568319"
    },
    {
      "threadId": "316486988",
      "post": "Since SONY has a reputation for taking \"Music\" and Intellectual Properties without prior written consent from it's original owner(s), Mr. Michael Dean Hajas has on all accounts warned Howard Stringer and Gary Wade Leak of the potential financial outcome that could arise. Britney Spears released \"Slave For You\" through Zomba / Robert John \"Mutt\" Lange, with Matt Haywood of HHO Publishing in 2001 without signing a publishing contract. After 89 million sales of Mr. Michael Dean Hajas creation, renumeration has not taken place from any of the continents that sold this illegally obtained \"ART\". Many attempts have been made to communicate with these \"corporate thieves\" to no avail, and it is with the great regret to see the facade of the \"American Affiliated Business\" community, along with the Library of Congress and it's people following a path of financial destruction that will take generations to overcome. During interview with Radio One of Detroit in May of 2008, I publicly proclaimed that United States of America was under financial attack(s) by China, to which the reply was one of rebuke. Now the financial Global Status Quo is in \"dire\" position, with the entire European Community at risk, with it's Western cohorts, leading the way. This synopsis will continue Globally until there is a 100 % written public apology by all those affiliated with the assumption of Mr. Michael Dean Hajas Intellectual Properties, accompanied by renumeration of 100 million dollars in GOLD bullion. \n\n\n\nMy greatest apology is for those who had nothing to do with this Intellectual Property theft, and the financial burden that has been place over you. If you are tired of the financial status and your current situation, it is recommended to demand accountability by SONY BMG/ ZOMBA / ROBERT JOHN \"MUTT\" LANGE / Britney Spears, Eric Lavine, Gary Wade Leak, Howard Stringer, Matt Haywood. \n\n\n\nThis Global Financial Crisis will continue to escalate until the United States of America offers up it's corporate accountability by full investigation to be made public by Congress and it's authorities. \n\n\n\nPeace be with you all.......this winter of 2012, will be the crippler, Mark My Word! \n\n\n\nMr. Michael Dean Hajas\n",
      "time": "2011-08-08T00:24:47",
      "id": "280060914"
    },
    {
      "threadId": "295426110",
      "post": "As predicted in earlier comment, things are not always what they seem.  Like the forum of court, I strongly suggest that we stick to fact.  Fact is, Obama was the face of the release of classified information, in an effort to do two strategic things.  First...to give positive feedback to the people of USA and justification for the billions of dollars spent on a war created by previous leadership, and secondly to demoralize the opposition.  This has been a strategy of war since the beginning of conquest.  I would ask the people to contemplate for a moment.....Why did Obama make the announcement, only to be followed by headlines and a babbling fool, to make excuse.  Fact is, when my children \"change their story\" about an issue, my hairs raise up and my instincts point in the direction of lie.  The scenario before us has the markings of trouble all over it.  The Obama admin. knows the potential for scrutiny on it's every move, yet they waved the \"puppet\" in front of the T.V. and hoped for the best.  I want to remind the leadership, that you will have to remove the Middle East way of Life, and conscious to achieve your collective goals.  Imagine if you will, being a Middle East child and seeing your family shot at, starved and belittled by the Global community.  The USA hasn't gotten rid of its enemies in the East, on the contrary, it has fed the very beast it strives to conquer. \nLike that of the Roman Empire and it's leadership....be careful not to fight on too many fronts.",
      "time": "2011-05-04T22:36:44",
      "id": "197155253"
    },
    {
      "threadId": "215278454",
      "post": "Slave For Truth by Michael Dean Hajas\n\nSony,BMG, Eric Lavine, Bruce Scavuzzo, Zomba, Britney Spears, Robert John Mutt Lange, Matt Haywood, and HHO Publishing need to come to grips with the facts.  Your life stogie choices depend on your abilities to carry on in the music business as honorable gentlemen and ladies. You performed a great travesty beyond your collective comprehension, and that is why Karma is knocking on your doors.  Your respective corporations and affiliate members will continue to witness the decline in monetary reward, until you have turned the tables with a full admission and recompense to the artists that you so depend on.  Shame on you and your leaders, especially Howard Stringer, you are suppose to represent the interests of the parent company.  They will have no tolerance for your disgrace.\n\nYou are all cowards, and shall be deal with, as common thieves.\n\nMichael Dean Hajas\nMdean707@hotmail.com",
      "time": "2011-01-26T18:20:13",
      "id": "134929274"
    },
    {
      "threadId": "162713516",
      "post": "M. Dean Hajas\nOctober 28, 2010 • 9:57 pm\nYour comment is awaiting moderation. \nIt is about time! Thank you to all who supported in taking down these pirate thieves. My guess is that after the smoke clears, perhaps those at Limewire can point the fingers back at the corporate record companies. For decades the very record companies that are complaining of lost revenues due to illegal file sharing, have been illegal in activity with assuming Intellectual Property rights of artists. Perhaps the judicial system would be in favour of listening to artists and their allegations. Canadian Intellectual Property Organization has not been able to hold any American Music corporations responsible for this kind of activity. Recognizing the need to pay for services by all is an appropriate behaviour by all concerned. Michael Dean Hajas has brought to the attention of Gary Wade Leak, Bruce Scavuzzo, Eric Lavine, Robert John Mutt Lange, Matt Haywood, and Lord Henry Hadaway, of Intellectual Property infringement. This would be a great opportunity for these individuals to also tell the absolute truth about where they obtained “Slave 4 You” released by Britney Spears in 2001. Michael Dean Hajas wrote this hook and submitted to Matt Haywood of HHO Publishing in Sept. of 2001 and has not been compensated one cent to date. Good Luck All!",
      "time": "2010-10-29T03:47:52",
      "id": "91362080"
    },
    {
      "threadId": "163683060",
      "post": "M. Dean Hajas\nOctober 28, 2010 • 9:57 pm\nYour comment is awaiting moderation. \nIt is about time! Thank you to all who supported in taking down these pirate thieves. My guess is that after the smoke clears, perhaps those at Limewire can point the fingers back at the corporate record companies. For decades the very record companies that are complaining of lost revenues due to illegal file sharing, have been illegal in activity with assuming Intellectual Property rights of artists. Perhaps the judicial system would be in favour of listening to artists and their allegations. Canadian Intellectual Property Organization has not been able to hold any American Music corporations responsible for this kind of activity. Recognizing the need to pay for services by all is an appropriate behaviour by all concerned. Michael Dean Hajas has brought to the attention of Gary Wade Leak, Bruce Scavuzzo, Eric Lavine, Robert John Mutt Lange, Matt Haywood, and Lord Henry Hadaway, of Intellectual Property infringement. This would be a great opportunity for these individuals to also tell the absolute truth about where they obtained “Slave 4 You” released by Britney Spears in 2001. Michael Dean Hajas wrote this hook and submitted to Matt Haywood of HHO Publishing in Sept. of 2001 and has not been compensated one cent to date. Good Luck All!",
      "time": "2010-10-29T03:27:26",
      "id": "91358955"
    },
    {
      "threadId": "1300604",
      "post": "Dean Hajas: With regards to B. Spears.  The absolute truth!  I met with Matt Haywood of HHO Publishing in Oct. of 2001 in England.  Matt originates from South Africa as does Robert Mutt Lang.  They both show up in the UK in the early 70's.  Matt started Expansion records and Mutt Zomba.  I went over to England to visit a son of mine during the 911 event and took my song roster with me.  I down loaded a UK music directory and circled two companies HHO Publishing and Zomba.  I met with reps from both companies and was advised that Matt Haywood wanted to be my UK representative.  Matt left HHO Publishing as the disgruntled employee and left with an undisclosed amount of intellectual properties.  I returned to Canada producing Jazz and Country and Native flute music.  I was at Future shop Christmas of 2005 and that's when I heard my melody.  I don't lay claim to the lyrical content of Slave 4 You, however Zomba and its affiliate members and representatives didn't change a thing about my creation.  I have the SOCAN registry of my creation which also predates B.Spears claim of ownership in her liner notes as \"previously unreleased original by B. Spears\".  B. Spears has 6 A & R representatives combing the Globe for potential hits, and they suck the life force out of creation.  Wade Leak of SONY BMG is the legal counsel for this matter and is trying to use \"statutory of limitations\" regarding the ownership of the said creation.  Our contention with this, the writer of Stairway to Heaven wrote the hit in 1972 and renumeration didn't take place until 1993.  Our plan is to win in two other zones (Countries) other than the USA, thereby forcing the USA to reopen this record smashing copyright infringement.  When I realized that the Media was Knee deep in this story, I took full advantage of the situation to draw attention to the real story behing the DLR supposed sighting.  Sorry for any hurt feelings, to DLR fans, however I hope you can appreciate the run around that I have been getting from Eric Levine, Bruce Scavuzzo, Dave Schmidt and Wade Leak to name a few.  Our country has contention with the library of Congress in Washington D.C.  It seems in 1864 Alexander Graham Bell claims to have invented the telephone.  For over a hundred years our media and schools have reported this as truth.  I later find out that Alexander Graham Bell promised Western Union 10% of earnings to remove Antonio Maouchi (sp?) from being recognized as the patent pending owner and holder.  If the Library of Congress can allow such a blunder when it comes to something as revolutionarey as the telephone, then how can the FBI and USA stand behind its copyright laws as enforceable, authentic and transparent to other would be artisans, inventors and musicians alike? ",
      "time": "2008-08-10T21:56:33",
      "id": "1153184"
    }
  ],
  "profileInfo": {
    "username": "deano",
    "about": "A creator of music, for 30 years.  Number 1 hit with SONY BMG ZOMBA, Britney Spears, called Slave for You.  Written also for numerous other artists, documentaries, and Radio.  Now involved, playing drums and recording with Rufus Crabhawk......who knows....in today's musical World, anything can happen right!",
    "name": "Dean Hajas",
    "disable3rdPartyTrackers": false,
    "isPowerContributor": false,
    "isAnonymous": false,
    "rep": 1.250859,
    "profileUrl": "https://disqus.com/by/deano/",
    "url": "https://www.facebook.com/RufusCrabhawk",
    "reputation": 1.250859,
    "location": "Brant County",
    "isPrivate": false,
    "signedUrl": "https://disq.us/?url=https%3A%2F%2Fwww.facebook.com%2FRufusCrabhawk&key=NuA3l4f4kPnePigcO-jubw",
    "isPrimary": true,
    "joinedAt": "2008-08-10T21:56:32",
    "id": "80176",
    "avatar": {
      "small": {
        "permalink": "https://disqus.com/api/users/avatars/deano.jpg",
        "cache": "//a.disquscdn.com/uploads/users/8/176/avatar32.jpg?1323235284"
      },
      "isCustom": true,
      "permalink": "https://disqus.com/api/users/avatars/deano.jpg",
      "cache": "//a.disquscdn.com/uploads/users/8/176/avatar92.jpg?1323235284",
      "large": {
        "permalink": "https://disqus.com/api/users/avatars/deano.jpg",
        "cache": "//a.disquscdn.com/uploads/users/8/176/avatar92.jpg?1323235284"
      }
    }
  }
}