{
  "comments": [
    {
      "threadId": "2290216082",
      "post": "Count me among the fans of this movie.  I appreciate it's romanticism.  It's one of the great modern fairy tales.",
      "time": "2015-09-07T16:11:23",
      "id": "2240874355"
    },
    {
      "threadId": "3012686840",
      "post": "Do you know if the \"Notification Center behavior\" flag has gone away?  It's not available for me and I really want to hide that bell...",
      "time": "2015-07-03T18:37:38",
      "id": "2115001229"
    },
    {
      "threadId": "1255352704",
      "post": "I'm looking forward to seeing whether or not this movie was worth losing a season of Sherlock...",
      "time": "2013-05-02T21:49:00",
      "id": "882753144"
    },
    {
      "threadId": "653421884",
      "post": "I have no reason to defend or attack the FCAT, but I'm interested in the particular example you mention.  When I see those four options, #4 is the only one that doesn't require some kind of consensus of sense information brought into the picture.  It requires mere observation.",
      "time": "2012-04-21T01:21:22",
      "id": "504776701"
    },
    {
      "threadId": "115472167",
      "post": "\"There are no ordinary people. You have\nnever talked to a mere mortal. Nations,\ncultures, arts, civilization—these are\nmortal, and their life is to ours as the life of\na gnat. But it is immortals whom we joke\nwith, work with, marry, snub, and\nexploit—immortal horrors or everlasting\nsplendours.\"  C. S. Lewis, The Weight of Glory",
      "time": "2010-07-08T17:26:39",
      "id": "61137702"
    },
    {
      "threadId": "115033360",
      "post": "Plural and singular and apparently undeletable!",
      "time": "2010-07-07T17:33:46",
      "id": "60961740"
    },
    {
      "threadId": "88297098",
      "post": "That pic totally messes with my head every time I scroll past it on my Tumblr dashboard.",
      "time": "2010-04-21T15:45:39",
      "id": "45828563"
    },
    {
      "threadId": "66400967",
      "post": "No problem, Peter!  I'm just happy to have discovered your art.  I remember now that it was through the <a href=\"http://www.theautumnsociety.com/search/label/peter%20wonsowski\">Autumn Society</a> site that I found your work and have since been following your blog.  I'm really drawn to your subject matter and your style...you use a really appealing combination of smooth, long curves and sharp angles.\r\n\r\nI still think it's so cool that you designed the \"three Jakes\" shirt.  I've worn out that t-shirt over the last decade.",
      "time": "2010-02-13T04:26:57",
      "id": "34081430"
    },
    {
      "threadId": "32440403",
      "post": "Looks like the precursor to the crazy straw hat.",
      "time": "2009-09-09T20:41:42",
      "id": "16271862"
    },
    {
      "threadId": "32234683",
      "post": "It will only be the end of you if you let it.  And I know you, you'll let it.",
      "time": "2009-09-01T19:19:18",
      "id": "15729826"
    },
    {
      "threadId": "27200393",
      "post": "I wonder if they'll make Last Stand and Martyrdom killstreak perks.  It'd probably be more fair...especially for Martyrdom.",
      "time": "2009-07-28T04:13:01",
      "id": "13432768"
    },
    {
      "threadId": "26126980",
      "post": "Needs lens flare.  And Candice says fire or lightning instead of hearts girlie man!",
      "time": "2009-07-20T00:38:50",
      "id": "12932158"
    },
    {
      "threadId": "22513552",
      "post": "Heh...at this rate your next care package is going to be a video game hostage situation.  You get Left 4 Dead 2 as soon as Fallout 3 arrives safely into my hands  ;)",
      "time": "2009-06-21T21:10:01",
      "id": "11537126"
    },
    {
      "threadId": "22164421",
      "post": "Awesome.  That was a great fight.  I loved how it even went into sudden death...and time ran out before the actual flag score could happen.",
      "time": "2009-06-18T19:41:47",
      "id": "11118269"
    },
    {
      "threadId": "17616036",
      "post": "Good work, Omar.  I think 11 pounds in a month is fine.  Don't try to do too much more than that in a short time frame.  A pound or two loss per week is a good goal.\r\n\r\nI guess I'm going to have to do the same thing pretty soon.  As soon as I finish these cases of soda.  I'm learning that I like the high fructose corn syrup variety better than these new ones with natural sugar...weird.",
      "time": "2009-05-08T13:36:38",
      "id": "9127185"
    },
    {
      "threadId": "15391051",
      "post": "Hehehe...that was great.  Be sure to see <a href=\"http://www.youtube.com/watch?v=_NtdCq0-Qn8&eurl=http%3A%2F%2Fronaldchevalier.com%2F&feature=player_embedded\">The Art of Relaxating</a>, as well.",
      "time": "2009-04-09T02:13:24",
      "id": "7994677"
    },
    {
      "threadId": "14850145",
      "post": "Wow.  That's really hard to read...",
      "time": "2009-04-01T13:38:12",
      "id": "7713123"
    },
    {
      "threadId": "14186993",
      "post": "Heh...I can't see sliders without immediately thinking Death Star.",
      "time": "2009-03-23T18:12:27",
      "id": "7447980"
    },
    {
      "threadId": "13471298",
      "post": "Heh...actually, this stuff finds me now.  I guess that's the power of the social internet.\r\n\r\nThe table lists its resources in the lower left.  I didn't find Verdana or Georgia in there either...which are apparently from the same designer as Tahoma (<a href=\"http://en.wikipedia.org/wiki/Matthew_Carter\">Matthew Carter</a>).  I guess those are too new or not yet influential...or some dude created this on a Mac and didn't want to include Windows fonts.",
      "time": "2009-03-11T20:58:25",
      "id": "7111116",
      "parentPost": "If there is one person who would find this, it's you Don. hehe\r\nBut where is Tahoma???",
      "parentPostTime": "2009-03-11T18:18:50",
      "parentPostId": "7106785"
    },
    {
      "threadId": "13454329",
      "post": "What were you thinking not giving sushi a chance?  Or what were you thinking eating all of that sushi?",
      "time": "2009-03-11T11:33:48",
      "id": "7097053"
    },
    {
      "threadId": "12862654",
      "post": "Here you go: <a href=\"http://www.holovaty.com/images/adrian_holovaty-mario2_gypsy_jazz.mp3\">mp3</a>",
      "time": "2009-03-02T18:25:20",
      "id": "6790449",
      "parentPost": "Awesome! I wish I could have an MP3 of that.",
      "parentPostTime": "2009-03-02T16:38:28",
      "parentPostId": "6787935"
    },
    {
      "threadId": "12220993",
      "post": "Blogging etiquette lesson: put the artist and song title in case someone other than me is reading (Third Eye Blind - Persephone).  And post links dude...you mentioned Stephen Jenkins' \"extended about me\" yesterday in a post and I have no idea where to find it...\r\n\r\nI like that song a lot, too.  It feels like the legacy of the last four songs on 3eb's self-titled album.",
      "time": "2009-02-20T17:01:28",
      "id": "6433707"
    },
    {
      "threadId": "12012665",
      "post": "You don't like Superman because he's not Batman, right?",
      "time": "2009-02-18T14:32:15",
      "id": "6373727",
      "parentPost": "Impressive...man, I can't stand Superman though..",
      "parentPostTime": "2009-02-17T15:38:49",
      "parentPostId": "6331091"
    },
    {
      "threadId": "11680265",
      "post": "Dude...how can they take CORN syrup out of candy CORN.  It wouldn't be corn anymore.  It'd be tiny sugar cones or something.\r\n\r\nAs much as I'd like to bring up personal responsibility (or lack thereof) in a conversation about America's obesity/diabetes problem, it's pretty darn hard to find any kind of manufactured product that doesn't include corn syrup or hydrogenated something-or-other.  Another problem is that those things make food much cheaper, which would make a large scale change even harder to make.\r\n\r\nAlso, I've always heard that Mexican Coca-Cola has cane sugar in it instead of corn syrup...I suppose I should go find some to taste the difference.",
      "time": "2009-02-12T17:29:14",
      "id": "6210301",
      "parentPost": "Why candy corn? Why? Any organic versions out there? :(",
      "parentPostTime": "2009-02-12T17:22:30",
      "parentPostId": "6210146"
    },
    {
      "threadId": "11504333",
      "post": "I knew I voted for the right man.  That cat had it coming.",
      "time": "2009-02-10T15:20:14",
      "id": "6138919"
    },
    {
      "threadId": "11479068",
      "post": "Umm...mmm...wha?  I was watching and waiting patiently for a punchline that never came.  And then I thought that I missed it.  And then I thought that maybe there was no punchline.  But then I thought, \"This is Rob...you missed the punchline.\"  Help me out here...",
      "time": "2009-02-10T04:15:07",
      "id": "6131109"
    },
    {
      "threadId": "11478618",
      "post": "Heh...\"until then, this fellow won't have to worry about being out of a job.\"  They predicted the economic crisis, too!  Actually, I can't help but wonder if the internet has something to do with it...",
      "time": "2009-02-10T04:04:08",
      "id": "6130915"
    },
    {
      "threadId": "11202335",
      "post": "This quote reminded me of <a href=http://blog.guykawasaki.com/2007/03/the_banality_of.html>this article</a>.",
      "time": "2009-02-05T21:16:36",
      "id": "5875318"
    },
    {
      "threadId": "9857080",
      "post": "Heh...that's pretty cool.  I like the fact that it takes place in the daytime.",
      "time": "2009-01-14T14:50:39",
      "id": "5112816"
    },
    {
      "threadId": "8304981",
      "post": "Heh...Sirpoins would actually be Rob...and he's commented before.",
      "time": "2008-12-12T22:35:57",
      "id": "4377580",
      "parentPost": "OMG! New commenter! And yes that made me wanna win an random epic battle!",
      "parentPostTime": "2008-12-12T22:31:55",
      "parentPostId": "4376915"
    },
    {
      "threadId": "7603744",
      "post": "If there is a \"role\" to play, then the role must be part of some kind of plan or have some kind of purpose.  Who's plan?  Who's purpose?  Is mankind just a cog in a machine that appeared out of chaos?",
      "time": "2008-11-26T18:06:00",
      "id": "4026892"
    },
    {
      "threadId": "7428583",
      "post": "Well, I've only read the Narnia books (which is a seven book series) and <i>Mere Christianity</i> (I'd recommend this one as first on your list).  I started <i>The Problem with Pain</i>, but haven't finished yet.",
      "time": "2008-11-24T04:50:27",
      "id": "3978073",
      "parentPost": "I need to put some C.S. Lewis books on my Xmas list...if you would recommend two of his works...which one they be?",
      "parentPostTime": "2008-11-23T18:18:41",
      "parentPostId": "3969782"
    },
    {
      "threadId": "7428575",
      "post": "Hmm...don't know about manatees, but how about <a href=\"http://www.youtube.com/watch?v=xp9Gm-aRe5A\">chimpanzee's</a>?",
      "time": "2008-11-24T04:46:14",
      "id": "3978037",
      "parentPost": "Hey not all viral vids can be \"Hamster on a Piano\", now excuse me I need to find \"Manatee on a Segway\". ;)",
      "parentPostTime": "2008-11-23T22:22:24",
      "parentPostId": "3973891"
    },
    {
      "threadId": "7039973",
      "post": "Heh...not to burst your bubble, but that was planned.  It's a <a href=\"http://en.wikipedia.org/wiki/The_Spartan_Cheerleaders\">Spartan Cheerleader</a> dance routine.",
      "time": "2008-11-14T15:56:02",
      "id": "3771863"
    },
    {
      "threadId": "6721926",
      "post": "I consider that a success on my part.",
      "time": "2008-11-07T22:06:07",
      "id": "3603957",
      "parentPost": "I'm at a loss for words on this one...seriously.",
      "parentPostTime": "2008-11-07T15:32:20",
      "parentPostId": "3592654"
    },
    {
      "threadId": "6684381",
      "post": "That's kinda neat, but I can't imagine how much it cost paying engineers to set it up over three weeks with 35 HD cameras...and can't help but think it was a huge waste of money.  And I don't think there's any sci-fi confusion there...Princess Leia's \"Help me Obi Wan Kenobi, you're my only hope\" was a hologram.  Star Trek had the holodeck...which was much more impressive.",
      "time": "2008-11-06T02:44:14",
      "id": "3563365"
    },
    {
      "threadId": "6476907",
      "post": "Heh...that's got to be one of the corniest things I've seen for awhile.  The fight scene towards the end was pretty funny though.",
      "time": "2008-10-31T16:44:28",
      "id": "3410327"
    },
    {
      "threadId": "6182630",
      "post": "Dude...that was great!  I'm impressed at how much they were able to do with the characters.  Of course, the TF2 characters are perfect for that kind of cartoon humor.",
      "time": "2008-10-24T03:32:18",
      "id": "3268161"
    },
    {
      "threadId": "5316588",
      "post": "I find that new games tend to awaken that feeling in me rather than the old ones that I used to play.  And Mega Man's one-hit deaths and bottomless pits annoy me.  Sometimes playing the old games make you realize how much you take for granted modern gameplay innovations.",
      "time": "2008-10-04T02:05:59",
      "id": "2834567",
      "parentPost": "That was a great comic, while I can't say I was a big Mega Man fan.\r\nAfter downloading Mega Man 9 off XBLA, I can say my time is past.",
      "parentPostTime": "2008-10-03T19:22:48",
      "parentPostId": "2826940"
    },
    {
      "threadId": "5303372",
      "post": "I've actually come across this site before, but I never played with it until now.  Very cool.",
      "time": "2008-10-03T13:13:55",
      "id": "2820424"
    },
    {
      "threadId": "5292493",
      "post": "I don't know man...it really should have Mike Tyson in it.  Besides, it'd give Nintendo a reason to sell a new peripheral with replaceable gummi ears.  What a moneymaker that would be.",
      "time": "2008-10-03T03:45:36",
      "id": "2816469"
    },
    {
      "threadId": "5280867",
      "post": "Yeah...it would appear that many of the \"persuasive techniques\" used by politicians and advertisers can be found in the guide.",
      "time": "2008-10-03T03:42:40",
      "id": "2816437",
      "parentPost": "I should print this out and use at tonight's VP debate!",
      "parentPostTime": "2008-10-02T21:50:32",
      "parentPostId": "2810827"
    },
    {
      "threadId": "5229603",
      "post": "So, if you happen to drop something you have to bend your knees and look stupid.",
      "time": "2008-10-01T16:40:42",
      "id": "2783120"
    },
    {
      "threadId": "5094011",
      "post": "I like how that turned out....looks good.  I still think you shouldn't wait for a better camera to do some panoramas.  Just take them with your current camera...then take new ones with your next camera.",
      "time": "2008-09-29T03:48:38",
      "id": "2723035"
    },
    {
      "threadId": "4741772",
      "post": "When my only subscriber chooses to post something that involves both Portal and typography, how can I not?",
      "time": "2008-09-19T18:06:53",
      "id": "2444392",
      "parentPost": "lol! I think it is funny when you reblog something from your only subscriber.",
      "parentPostTime": "2008-09-18T23:08:18",
      "parentPostId": "2434483"
    },
    {
      "threadId": "4592905",
      "post": "Well, if only two parties are going to be recognized, why not at least have two presidential candidates from each primary?  Then we could get to four choices for president...that's twice as many as two.",
      "time": "2008-09-16T19:37:38",
      "id": "2388567",
      "parentPost": "Well the primaries start ya with a lot of candidates, I like that, but I find the primaries too slow. Instead of 5 months, it should be like 2 weeks. Leading\r\nstraight to the election.\r\nIt keeps the energy up and lets people focus on issues instead of attacks.",
      "parentPostTime": "2008-09-16T14:28:47",
      "parentPostId": "2384730"
    },
    {
      "threadId": "4477189",
      "post": "Heh...so, leave the social skills and diplomacy up the the captain, right?",
      "time": "2008-09-12T19:57:32",
      "id": "2306311",
      "parentPost": "LMAO! Well at least he is a \"casual\" fan of both Star Wars and Star Trek.\r\nThat's fine, I rather he excels at quantum physics than movie trivia. ;)",
      "parentPostTime": "2008-09-12T19:43:53",
      "parentPostId": "2306094"
    },
    {
      "threadId": "4392310",
      "post": "That's a great photo...does she have a Flickr page?",
      "time": "2008-09-10T19:08:46",
      "id": "2269036"
    },
    {
      "threadId": "4358001",
      "post": "So, you believe Saddam Hussein was a benevolent ruler?  Despite all of the false pretenses and problems surrounding the war, I'm thinking that maybe it's good that Saddam isn't ruling there.  Whether another dictator will rise to take his place, is another matter entirely...\r\n\r\nBut if our country is going to parade around saying that it's helping Iraq and furthering the spread democracy, how about we give aid to a few countries that don't have any precious natural resources to offer.",
      "time": "2008-09-10T02:50:27",
      "id": "2255300",
      "parentPost": "We \"helped\" Iraq?",
      "parentPostTime": "2008-09-10T00:56:33",
      "parentPostId": "2254195"
    },
    {
      "threadId": "4197836",
      "post": "I read his book <i>Survivor</i>, actually.  He offers a good read, but his stuff is more scary weird than Vonnegut's funny weird.",
      "time": "2008-09-05T21:00:28",
      "id": "2150672",
      "parentPost": "If you like Kurt Vonnegut, you'll also like Chuck Palahniuk.\r\nYou know Fight club, but his other books Survivor, Diary, Lullaby, Choke, Monster...all of them great.\r\nChoke is also coming out as a new movie:\r\n\r\nhttp://www.apple.com/trailers/fox_searchlight/choke/\r\n",
      "parentPostTime": "2008-09-05T18:38:49",
      "parentPostId": "2147561"
    },
    {
      "threadId": "4204059",
      "post": "I believe you're looking for this:\nhttp://instantrimshot.com/\n(I really wish that was embeddable)",
      "time": "2008-09-05T20:57:18",
      "id": "2150633",
      "parentPost": "Oh Jeez, that was....oh man...oh god...oh man.",
      "parentPostTime": "2008-09-05T18:35:54",
      "parentPostId": "2147508"
    },
    {
      "threadId": "4127033",
      "post": "I think you can edit existing fonts in <a href=\"http://fontforge.sourceforge.net/\">FontForge</a>, which is a free font creation program.  But most fonts are copyrighted, so it might be better to do a remix of an OFL (open font license) font.  <a href=\"http://openfontlibrary.org/\">The Open Font Library</a> has a nice collection of open fonts, but they don't have pictures...which is LAME...with a upper-case, sans-serif L.",
      "time": "2008-09-04T18:15:26",
      "id": "2111015",
      "parentPost": "And that by itself is great. I wish there was an easy way to edit existing\r\nfonts. There is always something off by the fonts I want to use.",
      "parentPostTime": "2008-09-04T15:38:13",
      "parentPostId": "2107430"
    },
    {
      "threadId": "4056338",
      "post": "I wasn't speaking of the books.  The Torah IS the first five books of the Bible's Old Testament.  And the Queran does contain references to the biblical scriptures.  But saying that the same God is worshiped by all three isn't true.",
      "time": "2008-09-02T21:01:41",
      "id": "2018103",
      "parentPost": "Controversy? Saying that all three theological works have a lot in common is hardly such. Pick up the cliff-notes version of the other two books and give em a glance, you might be surprised. They are just books, none of them fell from the sky. ;)",
      "parentPostTime": "2008-09-02T19:54:06",
      "parentPostId": "2017052"
    },
    {
      "threadId": "3874975",
      "post": "Heh.  Well, the sad thing is that my alarm clock IS on the other side of the room.  And I will hit snooze usually around four times, getting out of bed and walking to the alarm clock and back.  I'm planning to change my sleeping habits very soon.  I need to find a way to fit exercise and breakfast into my morning routine.",
      "time": "2008-08-29T19:51:15",
      "id": "1918270",
      "parentPost": "In college I was a rabid snoozer, so I put my alarm clock across the room, at max volume. Believe me, it worked getting me outta bed hehe.",
      "parentPostTime": "2008-08-29T16:17:05",
      "parentPostId": "1912888"
    },
    {
      "threadId": "3341647",
      "post": "I knew that you would appreciate it.  I don't think there is a rimshot yet available for a pun of that magnitude.",
      "time": "2008-08-19T23:39:04",
      "id": "1656822",
      "parentPost": "Holy crap! That ..that was AWESOME!\r\nThat was like the pun of all puns!",
      "parentPostTime": "2008-08-19T20:45:08",
      "parentPostId": "1654552"
    },
    {
      "threadId": "3278883",
      "post": "Heh...you know I just wanted you to beat that last score so that you'd let your guard down, right?  Of course, it's cool that the badge updated itself...thereby rendering my text caption completely obsolete.  I guess that will teach people the value of comments.",
      "time": "2008-08-19T20:31:58",
      "id": "1654405",
      "parentPost": "The king is dead! Long live the king!\r\n\r\n2.491.255! Tee hee!\r\n\r\nUmm..how much for a new controller again? :(",
      "parentPostTime": "2008-08-19T18:41:38",
      "parentPostId": "1651620"
    },
    {
      "threadId": "3007143",
      "post": "The dude abides...dude.",
      "time": "2008-08-15T13:15:34",
      "id": "1468369",
      "parentPost": "Is that, \" The dude?\"",
      "parentPostTime": "2008-08-15T12:23:51",
      "parentPostId": "1467936"
    },
    {
      "threadId": "2686962",
      "post": "Note to self: Get \"Procrastination\" stamp...",
      "time": "2008-08-14T19:33:17",
      "id": "1440387",
      "parentPost": "Grabs the \"Procrastination\"  stamp....",
      "parentPostTime": "2008-08-14T12:41:05",
      "parentPostId": "1392152"
    },
    {
      "threadId": "2779869",
      "post": "Well, it all has to start somewhere, I guess.  I think it's still a bit of a problem that Publix charges for the cloth bags...and gives away the plastic ones.  Of course, if they give away the cloth bags, their charity would be taken advantage of.",
      "time": "2008-08-14T00:54:30",
      "id": "1225647",
      "parentPost": "Sure it's but a small thing, I heard some cities like San Francisco have banned plastic bags altogether. And in Holland plastic bags were banned since the 1980's. ",
      "parentPostTime": "2008-08-13T21:02:48",
      "parentPostId": "1218226"
    },
    {
      "threadId": "2642256",
      "post": "Yeah, it's a good show.  It's not too long and has a good variety of topics and guests.\r\n\r\nMy dad had a small telescope when I was young, and we would go out and look at the sky with it every now and then.  To be honest, I never really could see much though it...and it took incredible patience and steadiness to get any kind of view with it.  I pretty much enjoy just plain unaided stargazing...and the occasional lunar eclipse or meteor shower.\r\n\r\nI'm sure the sky down there is great...I'd imagine the only light pollution would come from the south.",
      "time": "2008-08-12T03:40:23",
      "id": "1164798",
      "parentPost": "Awesome, I am glad you like his show. You should see the skies down here, very nice views. I always wanted a telescope, but could never afford one :(",
      "parentPostTime": "2008-08-12T00:39:17",
      "parentPostId": "1163691"
    },
    {
      "threadId": "2464815",
      "post": "Might I recommend Fleet Foxes?  They have a sound that reminds me of My Morning Jacket.",
      "time": "2008-08-05T12:53:03",
      "id": "1100484"
    },
    {
      "threadId": "2379216",
      "post": "Well, they seemed to address the flammability issue in the video.  Either way, my point was that we've been attempting to replace oil as a power source for longer than I've been living...and made very little progress, it would seem.  Hopefully, that will change...",
      "time": "2008-08-03T01:42:08",
      "id": "1083114",
      "parentPost": "In all seriousness. Engined powered by hyrdogen are pretty old, it simply a flammable gas, just like propane powered engines. They are just a bit too volatile. Thats why the new hydrogen fuel cell cars make more sense nowadays.",
      "parentPostTime": "2008-08-02T19:58:07",
      "parentPostId": "1081613"
    },
    {
      "threadId": "2336071",
      "post": "Congrats on your first year!\n\nAlso, you might post something about rss feeds for tags (if you haven't already), which is mentioned in the comments to <a href=\"http://staff.tumblr.com/post/43021151/theme-engine-overhauld\">this post</a>.",
      "time": "2008-08-01T20:00:44",
      "id": "1074812"
    },
    {
      "threadId": "2357562",
      "post": "Actually, having now looked it up in the dictionary, apathy doesn't really refer only to new or old things...it means something more along the lines of \"indifferent\".  But surely there are new experiences that you don't have to have to know that you don't want to have them, right?  I would hope so, anyways...hehe...",
      "time": "2008-08-01T17:05:47",
      "id": "1073046",
      "parentPost": "Apathy is the disinterest in new things, an open mind to me is a the willingness to experience new things on the turn of a dime. But also\r\nto change my opinion on matters quickly...I guess that has more to do\r\nwith my personality I guess.",
      "parentPostTime": "2008-08-01T13:14:05",
      "parentPostId": "1070491"
    },
    {
      "threadId": "2099678",
      "post": "This is pretty cool.  Any chance that Streampad could be finessed into playing my <a href=\"http://raydancer.muxtape.com\">muxtape</a> on my <a href=\"http://raydancer.tumblr.com\">tumblr</a> page?  (the whole of social media has just gone cross-eyed)",
      "time": "2008-07-31T01:28:12",
      "id": "1056676"
    },
    {
      "threadId": "2301189",
      "post": "And THAT was for Charlie the Unicorn...",
      "time": "2008-07-30T14:56:32",
      "id": "1050452",
      "parentPost": "Oh Jeez, that was worse than that Badger video you sent me.\r\nI hate you. ;)",
      "parentPostTime": "2008-07-30T05:04:38",
      "parentPostId": "1046049"
    },
    {
      "threadId": "2225551",
      "post": "Awesome...it's a good read.  By the end it leaves you with a lot to think about.",
      "time": "2008-07-28T20:28:55",
      "id": "1023609",
      "parentPost": "I started reading the book...ya happy now!?",
      "parentPostTime": "2008-07-28T07:05:30",
      "parentPostId": "1017875"
    },
    {
      "threadId": "2243225",
      "post": "Hmm...did you comment on the wrong post or did a glitch attach it to this one?",
      "time": "2008-07-28T20:26:38",
      "id": "1023582",
      "parentPost": "Wait, what?\r\nSo he paints the Mona Lisa in dust, and you can undo his work with just a simple twist of the windshield wiper button!?\r\n\r\nWhoa.",
      "parentPostTime": "2008-07-28T07:04:03",
      "parentPostId": "1017869"
    },
    {
      "threadId": "2084890",
      "post": "CNN has a short <a href=\"http://www.cnn.com/video/#/video/us/2008/07/21/dnt.nc.car.hits.man.in.diner.wxii?iref=videosearch\">interview</a> with him, but they don't say much as to why the vehicle hit the diner.",
      "time": "2008-07-22T12:32:24",
      "id": "965053",
      "parentPost": "Holy crap! That guy was lucky, though he did seem hurt...is there a news story that details what happened before and after?",
      "parentPostTime": "2008-07-22T04:40:18",
      "parentPostId": "963364"
    },
    {
      "threadId": "2004904",
      "post": "No Star Wars posters that I've seen...but he did a really cool <a href=\"http://erictanart.blogspot.com/2007/12/i-need-sleep.html\">X-men poster</a>.  Also, I think he does art for Pixar movies.  Browse his blog...there's some more good stuff there.",
      "time": "2008-07-18T18:56:26",
      "id": "935498",
      "parentPost": "Wow! I would totally love this on my wall. Did he do Star Wars posters too?",
      "parentPostTime": "2008-07-18T18:19:43",
      "parentPostId": "935020"
    }
  ],
  "profileInfo": {
    "username": "raydancer",
    "about": "",
    "name": "raydancer",
    "disable3rdPartyTrackers": false,
    "isPowerContributor": false,
    "isAnonymous": false,
    "rep": 1.265452,
    "profileUrl": "https://disqus.com/by/raydancer/",
    "url": "http://raydancer.tumblr.com",
    "reputation": 1.265452,
    "location": "",
    "isPrivate": false,
    "signedUrl": "http://disq.us/?url=http%3A%2F%2Fraydancer.tumblr.com&key=4MMrblzTly8iT3qWAYbbQg",
    "isPrimary": true,
    "joinedAt": "2008-07-11T20:32:13",
    "id": "59419",
    "avatar": {
      "small": {
        "permalink": "https://disqus.com/api/users/avatars/raydancer.jpg",
        "cache": "//a.disquscdn.com/uploads/users/5/9419/avatar32.jpg?1281549414"
      },
      "isCustom": true,
      "permalink": "https://disqus.com/api/users/avatars/raydancer.jpg",
      "cache": "//a.disquscdn.com/uploads/users/5/9419/avatar92.jpg?1281549414",
      "large": {
        "permalink": "https://disqus.com/api/users/avatars/raydancer.jpg",
        "cache": "//a.disquscdn.com/uploads/users/5/9419/avatar92.jpg?1281549414"
      }
    }
  }
}