[
  {
    "text": "They said, let's move in and take some stuff, they won't care.",
    "time": "Thu Nov 03 04:58:11 +0000 2016",
    "id": 794040956865548300,
    "geo": null,
    "place": null,
    "coordinates": null
  },
  {
    "text": "When a couple of guys who were up to no good, started making trouble in our neighborhood. They choose one (cont) https://t.co/mKQeR1qXQe",
    "time": "Thu Nov 03 04:56:44 +0000 2016",
    "id": 794040593827516400,
    "geo": null,
    "place": null,
    "coordinates": null
  },
  {
    "text": "Chillin out max and relaxing all cool and all shooting some emailed thinking we were cool",
    "time": "Thu Nov 03 04:55:06 +0000 2016",
    "id": 794040181821083600,
    "geo": null,
    "place": null,
    "coordinates": null
  },
  {
    "text": "In South Wichita Kansas born and raised, at work is how we spent most of our day",
    "time": "Thu Nov 03 04:54:13 +0000 2016",
    "id": 794039960114339800,
    "geo": null,
    "place": null,
    "coordinates": null
  },
  {
    "text": "And I'd like to take a minute just sit right there, I'll tell you how @SAINTCOURTNEY and I got robbed out of thin air.",
    "time": "Thu Nov 03 04:51:19 +0000 2016",
    "id": 794039230200586200,
    "geo": null,
    "place": null,
    "coordinates": null
  },
  {
    "text": "Now this is a story all about how my house got flipped turned upside",
    "time": "Thu Nov 03 04:50:31 +0000 2016",
    "id": 794039029482127400,
    "geo": null,
    "place": null,
    "coordinates": null
  },
  {
    "text": "@travismcelroy good lucky, man!",
    "time": "Tue Nov 01 12:35:25 +0000 2016",
    "id": 793431248953716700,
    "geo": null,
    "place": null,
    "coordinates": null
  },
  {
    "text": "I feel like I'm on the verge of a panic attack for some reason. Maybe I should just go to sleep.",
    "time": "Sat Oct 22 18:30:51 +0000 2016",
    "id": 789896817777311700,
    "geo": null,
    "place": null,
    "coordinates": null
  },
  {
    "text": "RT @TheZoneCast: A new arc is starting: Join #TheZoneCast for a few rounds of … The Suffering Game!\n\nhttps://t.co/Kb0jCfQHIL\n\n(RT, Heroes!)",
    "time": "Thu Oct 20 17:50:02 +0000 2016",
    "id": 789161769285529600,
    "geo": null,
    "place": null,
    "coordinates": null
  },
  {
    "text": "RT @Babylonian: No.\n\nNo no no no no no no.\n\nPLEASE do NOT tell me Rockstar is neglecting to put out a PC version of Red Dead ALL OVER AGAIN…",
    "time": "Thu Oct 20 17:49:14 +0000 2016",
    "id": 789161566562246700,
    "geo": null,
    "place": null,
    "coordinates": null
  },
  {
    "text": "RT @porterrobinson: update: they've reinstated the post! thank you so much to the community for fighting for this video! i love you\n\nhttps:…",
    "time": "Wed Oct 19 12:34:54 +0000 2016",
    "id": 788720076618735600,
    "geo": null,
    "place": null,
    "coordinates": null
  },
  {
    "text": "RT @MikeFalzone: 🎶I really can't stay - \nBaby it's cold outside\nI've got to go away - \nBaby it's cold outside🎶\n\n#Debates2016 https://t.co/T…",
    "time": "Mon Oct 10 13:59:34 +0000 2016",
    "id": 785479890971664400,
    "geo": null,
    "place": null,
    "coordinates": null
  },
  {
    "text": "RT @Babylonian: https://t.co/DbzcSz25v9",
    "time": "Wed Sep 07 20:49:04 +0000 2016",
    "id": 773624145758126100,
    "geo": null,
    "place": null,
    "coordinates": null
  },
  {
    "text": "@SAINTCOURTNEY could be good! May have to stop by and check them out",
    "time": "Fri Aug 26 20:45:07 +0000 2016",
    "id": 769274499749457900,
    "geo": null,
    "place": null,
    "coordinates": null
  },
  {
    "text": "RT @sydneemcelroy: Bringing this vacation home with the original island boy @JustinMcElroy https://t.co/B8UkyYNs2y",
    "time": "Wed Aug 24 12:21:32 +0000 2016",
    "id": 768422990413307900,
    "geo": null,
    "place": null,
    "coordinates": null
  },
  {
    "text": "@coolgamesinc Tom Selleck and Jimmy Buffett: Nude Assassin's",
    "time": "Thu Aug 18 18:33:40 +0000 2016",
    "id": 766342312909692900,
    "geo": null,
    "place": null,
    "coordinates": null
  },
  {
    "text": "@LinusTech @LGUS #WhyUltrawide for... You know... Work. #Gaming",
    "time": "Wed Aug 17 02:10:13 +0000 2016",
    "id": 765732432179896300,
    "geo": null,
    "place": null,
    "coordinates": null
  },
  {
    "text": "RT @romanmars: Everyone should probably listen to ep #316 of @MBMBaM first and then the new @99piorg",
    "time": "Wed Aug 17 02:08:14 +0000 2016",
    "id": 765731933842133000,
    "geo": null,
    "place": null,
    "coordinates": null
  },
  {
    "text": "@SAINTCOURTNEY beep beep, whoop whoop!",
    "time": "Wed Aug 17 00:48:22 +0000 2016",
    "id": 765711836276674600,
    "geo": null,
    "place": null,
    "coordinates": null
  },
  {
    "text": "@PlayStation disappointment",
    "time": "Mon Aug 15 19:11:52 +0000 2016",
    "id": 765264763546808300,
    "geo": null,
    "place": null,
    "coordinates": null
  },
  {
    "text": "@chrisbharrison more Jorge please. #BiP",
    "time": "Thu Aug 11 02:19:01 +0000 2016",
    "id": 763560320505827300,
    "geo": null,
    "place": null,
    "coordinates": null
  },
  {
    "text": "Oh, boy. These crickets better watch out, or they won't have legs to chirp with!",
    "time": "Mon Aug 08 13:12:01 +0000 2016",
    "id": 762637490226204700,
    "geo": null,
    "place": null,
    "coordinates": null
  },
  {
    "text": "Everything that I know about fish tanks, I learned from Deuce Bigalow Male Gigolo",
    "time": "Sun Aug 07 05:04:51 +0000 2016",
    "id": 762152502422753300,
    "geo": null,
    "place": null,
    "coordinates": null
  },
  {
    "text": "#NowPlaying Heroes by Scott Bradlee's Postmodern Jukebox ♫ https://t.co/qLQmQhxWpR",
    "time": "Fri Aug 05 18:35:03 +0000 2016",
    "id": 761631620315033600,
    "geo": null,
    "place": null,
    "coordinates": null
  },
  {
    "text": "RT @griffinmcelroy: Currently seeking funding for my groundbreaking new reality show:\n\n\"20 Single Adults Exhibit Healthy Dating Habits\"",
    "time": "Thu Aug 04 19:41:16 +0000 2016",
    "id": 761285897845248000,
    "geo": null,
    "place": null,
    "coordinates": null
  },
  {
    "text": "@SAINTCOURTNEY  https://t.co/GxsHZjVWgB",
    "time": "Thu Aug 04 19:32:32 +0000 2016",
    "id": 761283698616442900,
    "geo": null,
    "place": null,
    "coordinates": null
  },
  {
    "text": "RT @tweetsauce: \"A Square Poem\" by Lewis Carroll. Can be read as rows or columns. https://t.co/ZGnbYYpJTS",
    "time": "Thu Aug 04 19:30:39 +0000 2016",
    "id": 761283226610520000,
    "geo": null,
    "place": null,
    "coordinates": null
  },
  {
    "text": ".@qikipedia If the Empire State building had a human stride, it would take around 28,300 steps for it to walk across the United States",
    "time": "Tue Aug 02 18:38:52 +0000 2016",
    "id": 760545417016647700,
    "geo": null,
    "place": null,
    "coordinates": null
  },
  {
    "text": "RT @griffinmcelroy: Z-Ring👏Sounds👏Like👏A👏Birth👏Control👏Product\n\nhttps://t.co/mwQ4d6c3dz",
    "time": "Tue Aug 02 13:51:54 +0000 2016",
    "id": 760473200530645000,
    "geo": null,
    "place": null,
    "coordinates": null
  },
  {
    "text": "@SAINTCOURTNEY this shirt is the best! https://t.co/xKxQUK9afT",
    "time": "Thu Jul 28 16:44:53 +0000 2016",
    "id": 758704793325928400,
    "geo": null,
    "place": null,
    "coordinates": null
  },
  {
    "text": "@wilw I must have that shirt!",
    "time": "Thu Jul 28 16:40:44 +0000 2016",
    "id": 758703748793282600,
    "geo": null,
    "place": null,
    "coordinates": null
  },
  {
    "text": "RT @TheZoneCast: New episode’s here! Spend a relaxing, definitely not-apocalyptic hour with #TheZoneCast Ep. 45!\n\nhttps://t.co/WES1ZfjbkR…",
    "time": "Thu Jul 28 16:39:25 +0000 2016",
    "id": 758703419318112300,
    "geo": null,
    "place": null,
    "coordinates": null
  },
  {
    "text": "@SAINTCOURTNEY apparently it might get crazy https://t.co/UdzXGOpHdF",
    "time": "Tue Jul 26 15:14:33 +0000 2016",
    "id": 757957284223856600,
    "geo": null,
    "place": null,
    "coordinates": null
  },
  {
    "text": "RT @travismcelroy: Hello and good morning! May all your Pokemon be Pikachus and all your milkshakes be boozy!",
    "time": "Tue Jul 26 15:09:53 +0000 2016",
    "id": 757956109684449300,
    "geo": null,
    "place": null,
    "coordinates": null
  },
  {
    "text": "RT @qikipedia: The Moon is the only moon that doesn't have its own name.",
    "time": "Mon Jul 25 15:23:59 +0000 2016",
    "id": 757597271659642900,
    "geo": null,
    "place": null,
    "coordinates": null
  },
  {
    "text": "@SAINTCOURTNEY haha it says it under the stars I think",
    "time": "Mon Jul 25 13:23:20 +0000 2016",
    "id": 757566906484219900,
    "geo": null,
    "place": null,
    "coordinates": null
  },
  {
    "text": "@SAINTCOURTNEY It's what you think you'd rate it based on previous things you've watched and rated.",
    "time": "Mon Jul 25 13:02:17 +0000 2016",
    "id": 757561611640909800,
    "geo": null,
    "place": null,
    "coordinates": null
  },
  {
    "text": "@SAINTCOURTNEY We're all just wasting away again in Margaritaville",
    "time": "Sat Jul 23 23:42:34 +0000 2016",
    "id": 756997966309707800,
    "geo": null,
    "place": null,
    "coordinates": null
  },
  {
    "text": "@theslinkyknight HWL",
    "time": "Fri Jul 22 12:18:44 +0000 2016",
    "id": 756463488017375200,
    "geo": null,
    "place": null,
    "coordinates": null
  },
  {
    "text": "RT @bensilverstein: REGISTER TO VOTE\nREGISTER TO VOTE\nREGISTER TO VOTE\nREGISTER TO VOTE\nREGISTER TO VOTE\nREGISTER TO VOTE\nhttps://t.co/cJEM…",
    "time": "Fri Jul 22 03:24:43 +0000 2016",
    "id": 756329099136598000,
    "geo": null,
    "place": null,
    "coordinates": null
  },
  {
    "text": "Horseback riding on the beach https://t.co/DwAnf9XEdb",
    "time": "Fri Jul 22 01:42:25 +0000 2016",
    "id": 756303354138021900,
    "geo": null,
    "place": null,
    "coordinates": null
  },
  {
    "text": "How did the world use CRT TVs for so long? They're heavy, have a constant ring, and, need I mention, no HD!?",
    "time": "Thu Jul 21 14:37:40 +0000 2016",
    "id": 756136064411054100,
    "geo": null,
    "place": null,
    "coordinates": null
  },
  {
    "text": "RT @griffinmcelroy: I’m doing a Pokemon Y Nuzlocke Run! It’s going to be real fun and very dumb!\n\nhttps://t.co/OtZlD2C4on\n\n(Please share w/…",
    "time": "Thu Jul 21 01:44:28 +0000 2016",
    "id": 755941482108891100,
    "geo": null,
    "place": null,
    "coordinates": null
  },
  {
    "text": "@theslinkyknight I don't even own 'ah' #butt! Let alone several #butts that would necessitate a #buttrack",
    "time": "Thu Jul 21 01:35:19 +0000 2016",
    "id": 755939179352105000,
    "geo": null,
    "place": null,
    "coordinates": null
  },
  {
    "text": "@griffinmcelroy hell yeah!",
    "time": "Thu Jul 21 01:30:20 +0000 2016",
    "id": 755937922914713600,
    "geo": null,
    "place": null,
    "coordinates": null
  },
  {
    "text": "The ocean breathes salty. https://t.co/UcfDaczjW4",
    "time": "Wed Jul 20 13:19:34 +0000 2016",
    "id": 755754020124233700,
    "geo": null,
    "place": null,
    "coordinates": null
  },
  {
    "text": "RT @Pokemon: Mimikyu lives its life completely covered by its cloth and is always hidden. #PokemonSunMoon https://t.co/WYCdCgcp8K",
    "time": "Tue Jul 19 17:35:31 +0000 2016",
    "id": 755456046714409000,
    "geo": null,
    "place": null,
    "coordinates": null
  },
  {
    "text": "RT @JoelDongsteen: Your problem may look big, but don’t talk about how big your problem is, talk about how big your dick is.",
    "time": "Tue Jul 19 04:10:44 +0000 2016",
    "id": 755253515312738300,
    "geo": null,
    "place": null,
    "coordinates": null
  },
  {
    "text": "RT @brian_bilston: Here's a poem about the problems caused when a mathematical concept takes over a poem. http://t.co/sd1nalbtUj",
    "time": "Tue Jul 19 04:04:16 +0000 2016",
    "id": 755251887260131300,
    "geo": null,
    "place": null,
    "coordinates": null
  },
  {
    "text": "RT @EricCunningham: \"You can't put saltwater on your food!\"\n\"What if it's brown?\"\n\"Whatever, fine.\"\n- the story of soy sauce",
    "time": "Thu Jul 14 17:05:25 +0000 2016",
    "id": 753636532217536500,
    "geo": null,
    "place": null,
    "coordinates": null
  },
  {
    "text": "RT @luke_lafr: I like shorts, they're comfy and easy to wear!",
    "time": "Mon Jul 11 22:45:30 +0000 2016",
    "id": 752634953779728400,
    "geo": null,
    "place": null,
    "coordinates": null
  },
  {
    "text": "RT @levie: Nintendo's mobile strategy:\n2008: what's an iPhone \n2010: what's an Android \n2012: nope\n2014: still no\n2016: change how society…",
    "time": "Mon Jul 11 22:41:11 +0000 2016",
    "id": 752633865986904000,
    "geo": null,
    "place": null,
    "coordinates": null
  },
  {
    "text": "Everyone, meet Mr. DcLips! He's the newest member of my team! https://t.co/zts7JUQpem",
    "time": "Sat Jul 09 21:38:56 +0000 2016",
    "id": 751893425293627400,
    "geo": null,
    "place": null,
    "coordinates": null
  },
  {
    "text": "@SAINTCOURTNEY 😉",
    "time": "Sat Jul 09 21:34:06 +0000 2016",
    "id": 751892206991003600,
    "geo": null,
    "place": null,
    "coordinates": null
  },
  {
    "text": "Just spent several hours playing Pokémon Go with @SAINTCOURTNEY time well spent if you ask me!",
    "time": "Sat Jul 09 21:29:04 +0000 2016",
    "id": 751890939157712900,
    "geo": null,
    "place": null,
    "coordinates": null
  },
  {
    "text": "@coolgamesinc Pokémon Go, but you have to take your pokemon out to take shits.",
    "time": "Thu Jul 07 20:12:34 +0000 2016",
    "id": 751146913240678400,
    "geo": null,
    "place": null,
    "coordinates": null
  },
  {
    "text": "@travismcelroy Pokémon Go is the answer you're looking for",
    "time": "Thu Jul 07 16:39:16 +0000 2016",
    "id": 751093236152700900,
    "geo": null,
    "place": null,
    "coordinates": null
  },
  {
    "text": "@luke_lafr coke",
    "time": "Thu Jul 07 13:09:24 +0000 2016",
    "id": 751040418230382600,
    "geo": null,
    "place": null,
    "coordinates": null
  },
  {
    "text": "RT @griffinmcelroy: I like to pretend Twitch chat is a conveyer belt moving garbage people up, up and offscreen into an awaiting dumpster",
    "time": "Thu Jul 07 13:04:26 +0000 2016",
    "id": 751039171947401200,
    "geo": null,
    "place": null,
    "coordinates": null
  },
  {
    "text": "@TheZoneCast you've sold me, can't wait to get my hand on it!",
    "time": "Tue Jul 05 23:32:44 +0000 2016",
    "id": 750472511666597900,
    "geo": null,
    "place": null,
    "coordinates": null
  },
  {
    "text": "You been vist by mr. firewonk man. Say \"thank mr. firewonk man\" and you will have long lyfe, and speedy firework. https://t.co/7lJpFQ9zzs",
    "time": "Mon Jul 04 04:26:36 +0000 2016",
    "id": 749821689781903400,
    "geo": null,
    "place": null,
    "coordinates": null
  },
  {
    "text": "RT @Babylonian: last-minute contender for my favorite vine of June 2016 https://t.co/JgJcji8A4z",
    "time": "Sat Jul 02 22:25:08 +0000 2016",
    "id": 749368334995468300,
    "geo": null,
    "place": null,
    "coordinates": null
  },
  {
    "text": "@EmilyThinks_ I'd go with just being rude? \"Jim mansplained something to me, he's a dick.\" \"Man, Jim is rude...and a dick\"",
    "time": "Sat Jul 02 20:58:49 +0000 2016",
    "id": 749346612128866300,
    "geo": null,
    "place": null,
    "coordinates": null
  },
  {
    "text": "@_JordynCox well shoot... :(",
    "time": "Sat Jul 02 15:35:57 +0000 2016",
    "id": 749265361090940900,
    "geo": null,
    "place": null,
    "coordinates": null
  },
  {
    "text": "@_JordynCox I think I'm when Pokémon Sun/Moon come out, you need to stream those! You'd make a pretty great Pokéstreamer",
    "time": "Sat Jul 02 14:56:18 +0000 2016",
    "id": 749255381302407200,
    "geo": null,
    "place": null,
    "coordinates": null
  },
  {
    "text": "@EmilyThinks_ why is it called Mansplaining? Sounds like interrupting to me?",
    "time": "Sat Jul 02 14:50:48 +0000 2016",
    "id": 749253997433790500,
    "geo": null,
    "place": null,
    "coordinates": null
  },
  {
    "text": "Modest Mouse playing at the Modest Mouse/Brand New concert https://t.co/38k9j0G3f9",
    "time": "Sat Jul 02 14:45:25 +0000 2016",
    "id": 749252646192549900,
    "geo": null,
    "place": null,
    "coordinates": null
  },
  {
    "text": "@coolgamesinc Big Boy Jam-y Jam Time: The Reckoning",
    "time": "Thu Jun 30 18:09:51 +0000 2016",
    "id": 748579316078776300,
    "geo": null,
    "place": null,
    "coordinates": null
  },
  {
    "text": "Don't cry for me Argentina, the true is it never was Derek. @griffinmcelroy #TheBachelorette",
    "time": "Wed Jun 29 05:12:45 +0000 2016",
    "id": 748021366083969000,
    "geo": null,
    "place": null,
    "coordinates": null
  },
  {
    "text": "@travismcelroy on my way to a Royals Game",
    "time": "Sun Jun 26 15:32:12 +0000 2016",
    "id": 747090088962592800,
    "geo": null,
    "place": null,
    "coordinates": null
  },
  {
    "text": "RT @chrislhayes: Trump staffers scooping up little red swastika golf balls into Make America Great Again hats is the tableau of the campaig…",
    "time": "Sat Jun 25 00:09:22 +0000 2016",
    "id": 746495466133610500,
    "geo": null,
    "place": null,
    "coordinates": null
  },
  {
    "text": "RT @LizHackett: I'm not an avid reader of food magazines, but if Toast On A Paper Towel Monthly ever comes out, you bet I'd like a subscrip…",
    "time": "Fri Jun 24 20:06:10 +0000 2016",
    "id": 746434259670315000,
    "geo": null,
    "place": null,
    "coordinates": null
  },
  {
    "text": "@coolgamesinc big government boi",
    "time": "Thu Jun 23 20:46:16 +0000 2016",
    "id": 746081966424940500,
    "geo": null,
    "place": null,
    "coordinates": null
  },
  {
    "text": "@griffinmcelroy dammit! You've got me hooked. https://t.co/NfMWqfQJI5",
    "time": "Thu Jun 23 17:53:06 +0000 2016",
    "id": 746038386129920000,
    "geo": null,
    "place": null,
    "coordinates": null
  },
  {
    "text": "@carlyraejepsen I have been hooked on E.MO.TION! Kudos on making a killer album!",
    "time": "Thu Jun 23 17:40:15 +0000 2016",
    "id": 746035151566577700,
    "geo": null,
    "place": null,
    "coordinates": null
  },
  {
    "text": "RT @MKBHD: I’m giving away a @dbrandSkins concrete-skinned @OnePlus 3 to a random follower that RTs this tweet. Good luck! https://t.co/eDN…",
    "time": "Wed Jun 22 19:38:28 +0000 2016",
    "id": 745702514067021800,
    "geo": null,
    "place": null,
    "coordinates": null
  },
  {
    "text": "RT @qikipedia: 80% of ocean fish can glow in the dark",
    "time": "Wed Jun 22 19:14:27 +0000 2016",
    "id": 745696469953306600,
    "geo": null,
    "place": null,
    "coordinates": null
  },
  {
    "text": "RT @travismcelroy: Oh shit, we've been going about this all wrong! We should just raise a bunch of money and then pay Senators to vote how…",
    "time": "Wed Jun 22 19:13:48 +0000 2016",
    "id": 745696307826692100,
    "geo": null,
    "place": null,
    "coordinates": null
  },
  {
    "text": "My love for #TheZoneCast grows exponentially with every episode. We're working with a real club banger this season! @griffinmcelroy",
    "time": "Wed Jun 22 15:41:56 +0000 2016",
    "id": 745642989700034600,
    "geo": null,
    "place": null,
    "coordinates": null
  },
  {
    "text": "RT @Snowden: We've heard that government exploits tragedy to expand its power, but rarely witness it so clearly. https://t.co/TXX0jnNxLk",
    "time": "Wed Jun 22 15:39:01 +0000 2016",
    "id": 745642253889114100,
    "geo": null,
    "place": null,
    "coordinates": null
  },
  {
    "text": "RT @Snowden: Right now: The Senate is only one vote shy of passing this, despite admitting it wouldn't have helped Orlando. https://t.co/xG…",
    "time": "Wed Jun 22 15:38:41 +0000 2016",
    "id": 745642168711163900,
    "geo": null,
    "place": null,
    "coordinates": null
  },
  {
    "text": "@stevezaragoza https://t.co/9HwhivgBz6",
    "time": "Tue Jun 21 16:54:38 +0000 2016",
    "id": 745298896843202600,
    "geo": null,
    "place": null,
    "coordinates": null
  },
  {
    "text": "@stevezaragoza you make solid points, Stee. I say bring 'em on! Waffle robots for everyone! @google",
    "time": "Tue Jun 21 16:43:36 +0000 2016",
    "id": 745296118490136600,
    "geo": null,
    "place": null,
    "coordinates": null
  },
  {
    "text": "RT @wilw: A very happy father's day to my fellow stepdads.",
    "time": "Mon Jun 20 00:59:27 +0000 2016",
    "id": 744696127421722600,
    "geo": null,
    "place": null,
    "coordinates": null
  },
  {
    "text": "@nbrunskill oh, have you not heard? Kansas is hell ;)",
    "time": "Sun Jun 19 21:34:49 +0000 2016",
    "id": 744644628914151400,
    "geo": null,
    "place": null,
    "coordinates": null
  },
  {
    "text": "@nbrunskill amateur hour over there. We've been about 110°F all week!",
    "time": "Sun Jun 19 21:32:07 +0000 2016",
    "id": 744643953119531000,
    "geo": null,
    "place": null,
    "coordinates": null
  },
  {
    "text": "RT @Sips_: make sure you all give your dads a kiss from me",
    "time": "Sun Jun 19 14:59:35 +0000 2016",
    "id": 744545165218459600,
    "geo": null,
    "place": null,
    "coordinates": null
  },
  {
    "text": "@jessthemess__ you could totally make your name : jessthismess #BlessThisMess",
    "time": "Sat Jun 18 01:05:21 +0000 2016",
    "id": 743972838638387200,
    "geo": null,
    "place": null,
    "coordinates": null
  },
  {
    "text": "I'm a believer, I couldn't leave her if I tried. https://t.co/FtRGqq29fU",
    "time": "Fri Jun 17 23:38:57 +0000 2016",
    "id": 743951095647461400,
    "geo": null,
    "place": null,
    "coordinates": null
  },
  {
    "text": "The meteor man begs to differ, judging by the holes in the satellite pictures. https://t.co/RkzkVl9d2g",
    "time": "Fri Jun 17 23:36:52 +0000 2016",
    "id": 743950569031667700,
    "geo": null,
    "place": null,
    "coordinates": null
  },
  {
    "text": "Might as well be walking on the sun. https://t.co/CsdfVi0PsN",
    "time": "Fri Jun 17 23:36:00 +0000 2016",
    "id": 743950353331216400,
    "geo": null,
    "place": null,
    "coordinates": null
  },
  {
    "text": "Hey now, you're an all-star. https://t.co/ZKBhmRpUZg",
    "time": "Fri Jun 17 23:35:39 +0000 2016",
    "id": 743950263371718700,
    "geo": null,
    "place": null,
    "coordinates": null
  },
  {
    "text": "@jessthemess__ @chasebooth welcome to the power of placebos.",
    "time": "Fri Jun 17 23:33:39 +0000 2016",
    "id": 743949762165039100,
    "geo": null,
    "place": null,
    "coordinates": null
  },
  {
    "text": "RT @iamthemythmaker: The goddess Aruru made him out of clay, covered him with hair and cast him into the forests of Babylonia. He was Enkid…",
    "time": "Wed Jun 15 01:47:12 +0000 2016",
    "id": 742896207479988200,
    "geo": null,
    "place": null,
    "coordinates": null
  },
  {
    "text": "RT @griffinmcelroy: .@NintendoAmerica quick q: y'all allowing mouth-on demoes of your delightful new creations that blend both toy and game…",
    "time": "Tue Jun 14 19:51:28 +0000 2016",
    "id": 742806681961144300,
    "geo": null,
    "place": null,
    "coordinates": null
  },
  {
    "text": "RT @garywhitta: In gun deaths. https://t.co/LSWXjMw5wR",
    "time": "Tue Jun 14 19:44:14 +0000 2016",
    "id": 742804862287511600,
    "geo": null,
    "place": null,
    "coordinates": null
  },
  {
    "text": "@jessthemess__ at least you weren't making toast. That could be bad.",
    "time": "Wed May 18 17:13:38 +0000 2016",
    "id": 732982490374135800,
    "geo": null,
    "place": null,
    "coordinates": null
  },
  {
    "text": "Andy brought jungle juice! Happy #GGN for everyone! https://t.co/0cAzaJQ2p0",
    "time": "Sat May 14 23:53:50 +0000 2016",
    "id": 731633651377545200,
    "geo": null,
    "place": null,
    "coordinates": null
  },
  {
    "text": "Go The Fuck To Sleep is a great gift for a baby shower if I may say so myself https://t.co/tPg1tQcZuh",
    "time": "Sat Apr 30 20:48:29 +0000 2016",
    "id": 726513579193565200,
    "geo": null,
    "place": null,
    "coordinates": null
  },
  {
    "text": "Board game night. (Not pictured: Daniel) https://t.co/yJAeZyESWS",
    "time": "Mon Apr 11 13:43:33 +0000 2016",
    "id": 719521270874832900,
    "geo": null,
    "place": null,
    "coordinates": null
  },
  {
    "text": "Had breakfast with moonwarrior66 today. Grand 'ol time! https://t.co/4pxB0RkvqJ",
    "time": "Sun Apr 10 21:45:17 +0000 2016",
    "id": 719280115180376000,
    "geo": null,
    "place": null,
    "coordinates": null
  },
  {
    "text": "Is it lame to take pictures of yourself? I'm assuming so. https://t.co/LjHN2Z0XyT",
    "time": "Tue Mar 29 05:38:13 +0000 2016",
    "id": 714688088950313000,
    "geo": null,
    "place": null,
    "coordinates": null
  },
  {
    "text": "Only way to close out a night https://t.co/msU2pXln8i",
    "time": "Mon Mar 28 03:42:23 +0000 2016",
    "id": 714296553012244500,
    "geo": null,
    "place": null,
    "coordinates": null
  },
  {
    "text": "Cloudy, nah... Just dusty. #ThisWindSucksAss https://t.co/eu856iJgiZ",
    "time": "Wed Mar 23 23:30:46 +0000 2016",
    "id": 712783679911698400,
    "geo": null,
    "place": null,
    "coordinates": null
  },
  {
    "text": "@yozetty how he remembers what you slipped in his glass.",
    "time": "Fri Mar 18 16:48:20 +0000 2016",
    "id": 710870463811952600,
    "geo": null,
    "place": null,
    "coordinates": null
  },
  {
    "text": "RT @notpolice: love not stopping at stop signs. love how we call them stoptionals. which ones do you like not stopping at the most?",
    "time": "Thu Mar 17 21:00:04 +0000 2016",
    "id": 710571427234119700,
    "geo": null,
    "place": null,
    "coordinates": null
  },
  {
    "text": "@griffinmcelroy Ohhh! Mama: Shampoo explosion! #CoolGamesInc",
    "time": "Wed Feb 24 04:10:24 +0000 2016",
    "id": 702344804269592600,
    "geo": null,
    "place": null,
    "coordinates": null
  },
  {
    "text": "@DanRyckert man! I forgot all about the Dan Stamp until I watched your farewell video from GI #GoodTimes #Replay",
    "time": "Sat Feb 20 17:37:40 +0000 2016",
    "id": 701098406039564300,
    "geo": null,
    "place": null,
    "coordinates": null
  },
  {
    "text": "@stevezaragoza finally had the balls to watch the video on David Bowie. It hit me hard, but you did a beautiful job. All of you. Thank you",
    "time": "Thu Jan 14 21:28:04 +0000 2016",
    "id": 687748037335056400,
    "geo": null,
    "place": null,
    "coordinates": null
  },
  {
    "text": "RT @Cmdr_Hadfield: Ashes to ashes, dust to stardust. Your brilliance inspired us all. Goodbye Starman. https://t.co/FbcxlAzces",
    "time": "Thu Jan 14 21:17:35 +0000 2016",
    "id": 687745401168908300,
    "geo": null,
    "place": null,
    "coordinates": null
  },
  {
    "text": "@griffinmcelroy he was a huge influence on my life too, he will be missed.",
    "time": "Mon Jan 11 14:33:30 +0000 2016",
    "id": 686556542821257200,
    "geo": null,
    "place": null,
    "coordinates": null
  },
  {
    "text": "RT @griffinmcelroy: Bowie’s music changed my life, full stop. Heartbroken he’s gone, but I’ll always be so, so grateful for his music.\n\nhtt…",
    "time": "Mon Jan 11 14:32:27 +0000 2016",
    "id": 686556278458421200,
    "geo": null,
    "place": null,
    "coordinates": null
  },
  {
    "text": "@Sips_ https://t.co/SCBpYtG6aX",
    "time": "Thu Jan 07 13:37:51 +0000 2016",
    "id": 685092988406480900,
    "geo": null,
    "place": null,
    "coordinates": null
  },
  {
    "text": "I want to get off Mr. Bones Wild Ride.",
    "time": "Sat Jan 02 19:11:04 +0000 2016",
    "id": 683364906821783600,
    "geo": null,
    "place": null,
    "coordinates": null
  },
  {
    "text": "RT @cinnamontoastk: This gif has been making me laugh for the past 10 min 😂 https://t.co/fOeyMfKyZo",
    "time": "Wed Dec 30 00:36:07 +0000 2015",
    "id": 681997154852814800,
    "geo": null,
    "place": null,
    "coordinates": null
  },
  {
    "text": "@hales_nicole11 what does it get you?",
    "time": "Fri Dec 11 05:34:40 +0000 2015",
    "id": 675186918133469200,
    "geo": null,
    "place": null,
    "coordinates": null
  },
  {
    "text": "RT @griffinmcelroy: Movie Title Idea: \"Magic Dog\"",
    "time": "Fri Dec 11 05:33:22 +0000 2015",
    "id": 675186592890384400,
    "geo": null,
    "place": null,
    "coordinates": null
  },
  {
    "text": "Plane hopping, and jet lagging. https://t.co/bdEKyrt1OI",
    "time": "Tue Dec 08 00:17:31 +0000 2015",
    "id": 674019940370948100,
    "geo": null,
    "place": null,
    "coordinates": null
  },
  {
    "text": "On our way home now. https://t.co/co8ppV8wR7",
    "time": "Mon Dec 07 19:31:28 +0000 2015",
    "id": 673947956723118100,
    "geo": null,
    "place": null,
    "coordinates": null
  },
  {
    "text": "#PSX https://t.co/gH6lDkcjH7",
    "time": "Sun Dec 06 04:33:42 +0000 2015",
    "id": 673359638645964800,
    "geo": null,
    "place": null,
    "coordinates": null
  },
  {
    "text": "RT @GameOverGreggy: #PSX is 🔥🔥🔥!\n@PlayStation https://t.co/YXvXUA4XKD",
    "time": "Sat Dec 05 17:15:26 +0000 2015",
    "id": 673188945274912800,
    "geo": null,
    "place": null,
    "coordinates": null
  },
  {
    "text": "RT @PlayStation: Our friend @GameOverGreggy is amping up the crowd here in San Francisco.",
    "time": "Sat Dec 05 17:12:39 +0000 2015",
    "id": 673188244389957600,
    "geo": null,
    "place": null,
    "coordinates": null
  },
  {
    "text": "Waiting for the #PSX key note! https://t.co/SR4QmtvhJR",
    "time": "Sat Dec 05 16:25:54 +0000 2015",
    "id": 673176478469623800,
    "geo": null,
    "place": null,
    "coordinates": null
  },
  {
    "text": "Made it to Minneapolis https://t.co/lP47xUSGl5",
    "time": "Fri Dec 04 19:13:19 +0000 2015",
    "id": 672856223134322700,
    "geo": null,
    "place": null,
    "coordinates": null
  },
  {
    "text": "And now we play the waiting game! #PSX #sanfransisco https://t.co/srmgx4zTae",
    "time": "Fri Dec 04 15:52:04 +0000 2015",
    "id": 672805576636686300,
    "geo": null,
    "place": null,
    "coordinates": null
  },
  {
    "text": "On my way to the airport to go to San Francisco, and what should come on the radio!? https://t.co/YEcqMstq34",
    "time": "Fri Dec 04 14:29:54 +0000 2015",
    "id": 672784901536542700,
    "geo": null,
    "place": null,
    "coordinates": null
  },
  {
    "text": "The latest episode @TheZoneCast was fantastic! So many feels! Check this shit out, yo. #thezonecast",
    "time": "Tue Nov 24 01:07:09 +0000 2015",
    "id": 668959002793906200,
    "geo": null,
    "place": null,
    "coordinates": null
  },
  {
    "text": "RT @qikipedia: The Sex Pistols' first concert is closer in time to Rachmaninoff's Third Symphony than to us https://t.co/aZDbsSo25Q",
    "time": "Mon Nov 23 21:40:55 +0000 2015",
    "id": 668907100785893400,
    "geo": null,
    "place": null,
    "coordinates": null
  },
  {
    "text": "Playing Rocket League 3v3 live on Twitch with @EvoStarSC, with a possible giveaway! Join up everyone! https://t.co/w2zpx8RjZU #RocketLeague",
    "time": "Sun Nov 08 04:58:21 +0000 2015",
    "id": 663218979935121400,
    "geo": null,
    "place": null,
    "coordinates": null
  },
  {
    "text": "RT @EvoStarSC: Going live in 19 minutes. Possible giveaway! 3v3 ranked with friends! #RocketLeague w/ @Ductileblowfish",
    "time": "Sun Nov 08 04:48:16 +0000 2015",
    "id": 663216444109226000,
    "geo": null,
    "place": null,
    "coordinates": null
  },
  {
    "text": "@nbrunskill Oh, I'm already working on it!",
    "time": "Sat Nov 07 17:21:03 +0000 2015",
    "id": 663043500250783700,
    "geo": null,
    "place": null,
    "coordinates": null
  },
  {
    "text": "Billy Ray Cyrus, and I hopes yall have a boot scootin' boogie-ing day! https://t.co/eGBxufi4As",
    "time": "Sat Nov 07 14:44:56 +0000 2015",
    "id": 663004208719769600,
    "geo": null,
    "place": null,
    "coordinates": null
  },
  {
    "text": "@romanmars me too! I'm very proud of it!",
    "time": "Thu Nov 05 22:53:45 +0000 2015",
    "id": 662402448569450500,
    "geo": null,
    "place": null,
    "coordinates": null
  },
  {
    "text": "@romanmars just listened to your Ted talk, and thought I'd show you my cities flag, the flag of Wichita Kansas https://t.co/UKgI6tR87x",
    "time": "Thu Nov 05 22:33:33 +0000 2015",
    "id": 662397365819600900,
    "geo": null,
    "place": null,
    "coordinates": null
  },
  {
    "text": "RT @Snowden: It's not about something to hide, it's about something to lose.",
    "time": "Wed Nov 04 17:54:54 +0000 2015",
    "id": 661964854006149100,
    "geo": null,
    "place": null,
    "coordinates": null
  },
  {
    "text": "RT @TwopTwips: PRETEND you’ve just been skiing by bleaching around your eyes and banging on and on about skiing. \n(via @Swissss)",
    "time": "Wed Nov 04 13:07:58 +0000 2015",
    "id": 661892643303985200,
    "geo": null,
    "place": null,
    "coordinates": null
  },
  {
    "text": "@EmilyThinks_ it certainly does",
    "time": "Wed Nov 04 02:45:28 +0000 2015",
    "id": 661735989224738800,
    "geo": null,
    "place": null,
    "coordinates": null
  },
  {
    "text": "@EmilyThinks_ a car merged into one of our big trucks during the parade. They're lucky the truck didn't crush them.",
    "time": "Wed Nov 04 01:55:56 +0000 2015",
    "id": 661723522901786600,
    "geo": null,
    "place": null,
    "coordinates": null
  },
  {
    "text": "RT @tweetsauce: NEW VIDEO! It's about young people so here's a pic of a younger me. THE VIDEO: https://t.co/cE1ZmiqBYa https://t.co/FFJYBvC…",
    "time": "Mon Nov 02 02:43:26 +0000 2015",
    "id": 661010698403577900,
    "geo": null,
    "place": null,
    "coordinates": null
  },
  {
    "text": "Still time for a free steam rocket league code! https://t.co/w2zpx8RjZU #DrinkingRocketLeague #RocketLeague #twitch",
    "time": "Sun Nov 01 03:22:15 +0000 2015",
    "id": 660658080279990300,
    "geo": null,
    "place": null,
    "coordinates": null
  },
  {
    "text": "https://t.co/w2zpx8RjZU Rocket League give away for Steam when we hit 25 views, jump on it! #DrinkingRocketLeague #RocketLeague #twitch",
    "time": "Sun Nov 01 01:19:56 +0000 2015",
    "id": 660627299914510300,
    "geo": null,
    "place": null,
    "coordinates": null
  },
  {
    "text": "https://t.co/w2zpx8RjZU to watch my friend brandon and I play Rocket Liquor! #DrinkingRocketLeague #RocketLeague #twitch",
    "time": "Sun Nov 01 00:51:37 +0000 2015",
    "id": 660620172554727400,
    "geo": null,
    "place": null,
    "coordinates": null
  },
  {
    "text": "Have a soopk-tastic Halloween, friends !",
    "time": "Sat Oct 31 12:43:38 +0000 2015",
    "id": 660436967851593700,
    "geo": null,
    "place": null,
    "coordinates": null
  },
  {
    "text": "@Sips_  https://t.co/a4UJA6FAHJ",
    "time": "Fri Oct 30 14:02:33 +0000 2015",
    "id": 660094440678125600,
    "geo": null,
    "place": null,
    "coordinates": null
  },
  {
    "text": "RT @donttrythis: Will @willsmith smith? https://t.co/hpThQsz9ZP",
    "time": "Thu Oct 29 14:50:43 +0000 2015",
    "id": 659744177316491300,
    "geo": null,
    "place": null,
    "coordinates": null
  },
  {
    "text": "@nbrunskill that's awesome!",
    "time": "Wed Oct 28 01:31:37 +0000 2015",
    "id": 659180686423691300,
    "geo": null,
    "place": null,
    "coordinates": null
  },
  {
    "text": "@nbrunskill kids today can! #3dPrinting",
    "time": "Wed Oct 28 00:07:14 +0000 2015",
    "id": 659159451132231700,
    "geo": null,
    "place": null,
    "coordinates": null
  },
  {
    "text": "@Sips_ good luck! We're all excited for you!",
    "time": "Mon Oct 26 13:33:16 +0000 2015",
    "id": 658637520779907100,
    "geo": null,
    "place": null,
    "coordinates": null
  },
  {
    "text": "@wino_b0t it has its benefits for sure",
    "time": "Sat Oct 24 14:11:34 +0000 2015",
    "id": 657922382422609900,
    "geo": null,
    "place": null,
    "coordinates": null
  },
  {
    "text": "@SherriseStarkey Oh, right. Haha I think K I'll do that :P",
    "time": "Sat Oct 24 02:01:01 +0000 2015",
    "id": 657738534976000000,
    "geo": null,
    "place": null,
    "coordinates": null
  },
  {
    "text": "@SherriseStarkey what's that now?",
    "time": "Sat Oct 24 01:14:33 +0000 2015",
    "id": 657726841847873500,
    "geo": null,
    "place": null,
    "coordinates": null
  },
  {
    "text": "RT @griffinmcelroy: oh, the places you’ll go (on the internet, with me, right now) https://t.co/bz8fAN9v0M",
    "time": "Fri Oct 23 12:43:32 +0000 2015",
    "id": 657537839593164800,
    "geo": null,
    "place": null,
    "coordinates": null
  },
  {
    "text": "RT @bonerman_inc: .@GuyFieri help https://t.co/bleYun8LUH",
    "time": "Thu Oct 22 22:52:36 +0000 2015",
    "id": 657328731455750100,
    "geo": null,
    "place": null,
    "coordinates": null
  },
  {
    "text": "If you haven't listened to @TheZoneCast you are seriously missing out! #TheZoneCast",
    "time": "Thu Oct 22 22:46:51 +0000 2015",
    "id": 657327283896643600,
    "geo": null,
    "place": null,
    "coordinates": null
  },
  {
    "text": "@MBMBaM I got invited to go to a \"haunted house\" with some work friends. But I hate them! What can I say to get out of it? Creeped out in ks",
    "time": "Thu Oct 22 21:39:17 +0000 2015",
    "id": 657310278770528300,
    "geo": null,
    "place": null,
    "coordinates": null
  },
  {
    "text": "RT @GameOverGreggy: GODDAMN! #want  https://t.co/V9RgBt6rVN",
    "time": "Thu Oct 22 19:20:09 +0000 2015",
    "id": 657275265207308300,
    "geo": null,
    "place": null,
    "coordinates": null
  },
  {
    "text": "RT @TheZoneCast: Episode 25 of #TheZoneCast is here, and is chock-full of HOT STUNTS. Not for the faint of heart: https://t.co/no7uCXHXVy",
    "time": "Thu Oct 22 15:32:08 +0000 2015",
    "id": 657217882925830100,
    "geo": null,
    "place": null,
    "coordinates": null
  },
  {
    "text": "@_JordynCox ah, nice. #ANTM",
    "time": "Thu Oct 22 15:31:35 +0000 2015",
    "id": 657217746426445800,
    "geo": null,
    "place": null,
    "coordinates": null
  },
  {
    "text": "@TheZoneCast are they wet? I only accept wet stunts now.",
    "time": "Thu Oct 22 15:21:45 +0000 2015",
    "id": 657215271636107300,
    "geo": null,
    "place": null,
    "coordinates": null
  },
  {
    "text": "@_JordynCox didn't it just get cancelled? I heard that somewhere",
    "time": "Thu Oct 22 15:20:41 +0000 2015",
    "id": 657215002818965500,
    "geo": null,
    "place": null,
    "coordinates": null
  },
  {
    "text": "@Sips_ good luck with everything! Hope everything goes smoothly.",
    "time": "Thu Oct 22 12:55:16 +0000 2015",
    "id": 657178405285134300,
    "geo": null,
    "place": null,
    "coordinates": null
  },
  {
    "text": "Just made this new twitter account, and used a yahoo email address #1990",
    "time": "Thu Oct 22 03:34:10 +0000 2015",
    "id": 657037199783780400,
    "geo": null,
    "place": null,
    "coordinates": null
  }
]