{
  "comments": [
    {
      "threadId": "3702987483",
      "post": "\"We also learned that there will be next to no lading screens,\"\n\nWe also learned that there will be next to no loading screens,\n\nAlso large and big does not describe the size, please km2 measure of the game if you can.",
      "time": "2015-04-22T14:55:35",
      "id": "1981350027"
    },
    {
      "threadId": "3682809173",
      "post": "Escape from Butcher Bay was a beast!",
      "time": "2015-04-15T07:01:18",
      "id": "1968275131"
    },
    {
      "threadId": "3525498812",
      "post": "I don't care for new games much... I long for simpler times when games worked when you got them out of the box... and not having to download anywhere from 1gb to 4gb of data to make it run on the first day of release...\n\nI bought Skyrim on day one, patch it on day one, played it very very very late on day one and subsequently left it for 8 months to wait for sh** to get fixed...",
      "time": "2015-02-19T15:27:56",
      "id": "1863863660"
    },
    {
      "threadId": "3522431610",
      "post": "Level 37",
      "time": "2015-02-17T13:50:43",
      "id": "1859800865"
    },
    {
      "threadId": "3440273162",
      "post": "True that they would make epic movies... in a perfect universe! BUT we know all too well that most game to movie transitions are just so horrible, but still we are hopeful and go see it and then it takes months to wash the after taste out of our souls.",
      "time": "2015-01-21T08:05:36",
      "id": "1805672788",
      "parentPost": "Some of the games will make epic movies, because they have such a rich lore behind them, or the games themselves had top quality storylines with epic set pieces (Mass Effect, Uncharted, The Last of Us, Tomb Raider, Metal Gear Solid, Deus Ex, Assassins' Creed, Warcraft). The others: The Sims - really...what is that gonna be, a comedy romance or something; Rollercoaster Tycoon - some rags-to-riches story with a B grade movie actor; Dead Rising - another run-of-the-mill zombie massacre movie; and so we can go on.",
      "parentPostTime": "2015-01-21T06:21:43",
      "parentPostId": "1805598111"
    },
    {
      "threadId": "3422061998",
      "post": "About as excited about this as I have been for any new CoD game over the last 4 years...\n\nNot at all -.-",
      "time": "2015-01-15T14:49:00",
      "id": "1793949820",
      "parentPost": "http://i.imgur.com/TBCwWai.jpg",
      "parentPostTime": "2015-01-15T11:06:45",
      "parentPostId": "1793701315"
    },
    {
      "threadId": "3412842559",
      "post": "Get it on Kalahari and use BOS100 coupon code and get it for R549",
      "time": "2015-01-12T09:00:37",
      "id": "1788104163"
    },
    {
      "threadId": "3335538525",
      "post": "AMD Fenom 8150 (Watercooled), 8Gb DDR3 1600, Geforce 660 ti - will try it in the new machine and see how it plays.",
      "time": "2014-12-20T06:24:51",
      "id": "1751294214",
      "parentPost": "You may want to get a better machine. Besides the inital load time, you don't wait long at all.",
      "parentPostTime": "2014-12-19T19:36:57",
      "parentPostId": "1750631548"
    },
    {
      "threadId": "3164969141",
      "post": "To the PC gamers who are crying about the price... CALM DOWN!\n\n\n\nR649-00 for a PC game, yeah it is hella expensive, BUT, and this is a BIG BUT (and I can not lie) R649-00 for GTA V, seriously? You are crying about 200 - 300+ hours of probably the most fun you can have with your clothes on.\n\n\nI can spend that amount in an evening of drinking with friends. STFU and grow up guys. I'm a PC gamer myself, if you can't afford it NAAAUW, wait for the sale on steam.",
      "time": "2014-10-30T12:08:11",
      "id": "1660942175"
    },
    {
      "threadId": "3168708925",
      "post": "\"Gaming events of November\" fixed it for you  \"Gaming events of Movember\"",
      "time": "2014-10-29T15:43:20",
      "id": "1659363357"
    },
    {
      "threadId": "3136393464",
      "post": "Destiny - Only if it comes to PC.\nESO - Only when pigs fly.\nReaper of Souls - Done and Dusted.\nFIFA <Insert Year> - People still play this recycled crap every year?\nForza 2 - Good driving/racing sim - worth a play.",
      "time": "2014-10-20T13:01:33",
      "id": "1644573158"
    },
    {
      "threadId": "3125996833",
      "post": "Reminds me of the first Postal game.",
      "time": "2014-10-17T09:19:45",
      "id": "1640294851"
    },
    {
      "threadId": "3095640897",
      "post": "Agreed. Never too late to die in Dark Souls, and there will be many deaths.\n\n\nThe game is famous for it's favourite message to you as a player... \n\nYOU DIED!\n\n\nHardcore gameplay at its best with some of the most rewarding experiences you will find in any game to date.\n\n\nPlay it NAAAAUUWWW!!!",
      "time": "2014-10-08T19:45:32",
      "id": "1625834567",
      "parentPost": "Its too late to play Demon Souls because the servers are offline, but it's never too late to die in Dark Souls. Saying one should leave the series alone because it's already two games in is like telling someone to only play Witcher 3 and ignore the other two games. Or telling someone to not buy Borderlands 1&2 after they've finished The Pre-Sequel.",
      "parentPostTime": "2014-10-08T13:26:33",
      "parentPostId": "1625189106"
    },
    {
      "threadId": "3088205129",
      "post": "The reason most people pre-order, I suppose, is because you get a more complete game than those who don't.\n\nAlien: Isolation and the Nostromo Edition.\n\nWould really like to be able to buy a game and then not have to buy the rest of the game as they decide to release it in DLC...\n\nHmmm... DLC... Developers Love Cash...?",
      "time": "2014-10-07T13:49:19",
      "id": "1623457041",
      "parentPost": "yep, sale's is where it is at.",
      "parentPostTime": "2014-10-07T08:32:26",
      "parentPostId": "1623030764"
    },
    {
      "threadId": "3091763986",
      "post": "Same here, but it is not the game I've been waiting for all year.",
      "time": "2014-10-07T13:42:18",
      "id": "1623448128",
      "parentPost": "Might be the first CoD I purhcase in years, looks good.",
      "parentPostTime": "2014-10-07T12:27:50",
      "parentPostId": "1623349963"
    },
    {
      "threadId": "3082187483",
      "post": "I don't care about promises or statements by marketing heads etc. Deliver a WORKING, PLAYABLE GAME, upon release and we can talk about taking my money",
      "time": "2014-10-06T06:36:19",
      "id": "1621399513"
    },
    {
      "threadId": "3071226905",
      "post": "What happened to Windows 9?\n\nBuilt from the ground up? ROFL! So basically what he's saying is that it won't work with any of  their previous releases of Windows?",
      "time": "2014-10-01T06:22:03",
      "id": "1614266010"
    },
    {
      "threadId": "3068503692",
      "post": "A cosplay picnic sounds like epic fun!",
      "time": "2014-09-30T15:31:42",
      "id": "1612823893",
      "parentPost": "You guys can link to the CT Cosplay Picnic event page if you like:\n\nhttps://www.facebook.com/events/1494806374092695/",
      "parentPostTime": "2014-09-30T12:05:39",
      "parentPostId": "1612510510"
    },
    {
      "threadId": "3067536344",
      "post": "This is beautiful.\n\nI love that you added the console piracy lists. Piracy is everywhere, not just PC.\n\nAdd a list for the mobile games piracy as well please.",
      "time": "2014-09-30T08:47:30",
      "id": "1612234145"
    },
    {
      "threadId": "3063952720",
      "post": "I always love how MyGaming constantly reminds me that I'm broke\n\nThanks guys -.-",
      "time": "2014-09-29T15:29:00",
      "id": "1610999577"
    },
    {
      "threadId": "3041529308",
      "post": "So will the Xbox One :P",
      "time": "2014-09-25T15:02:49",
      "id": "1605261587",
      "parentPost": "haha and then breaks after 6months",
      "parentPostTime": "2014-09-22T10:10:38",
      "parentPostId": "1600108533"
    },
    {
      "threadId": "3029500057",
      "post": "\"+ FORZA 5 GOTY\"\n\n\nDo they just tack on Game Of The Year to any game that wants to be game of the year?",
      "time": "2014-09-18T10:39:09",
      "id": "1594367424"
    },
    {
      "threadId": "3022551963",
      "post": "Can't see why people are hating the fact that we have to wait longer. Who cares! As long as I can get my grubby mits on this game on PC I don't care how long I have to wait.\n\n\nAlready been waiting forever and a couple of months extra won't cost us anything. In fact waiting longer hopefully means less bugs and issues on launch!",
      "time": "2014-09-16T08:34:39",
      "id": "1591137285"
    },
    {
      "threadId": "3020062548",
      "post": "Well couldn't really care about Notch leaving as he left a long time ago as he stated.\n\nNot happy about M$ owning Minecraft at all. I can't wait (read -> will rather drink acid and dig out my heart with a spoon) for Live Integration or whatever-will-replace-Games-For-Windows-Live. Super excited -.- at what great crap M$ will throw at us when they eventually force the original Dev Team out of the company. (I might be getting them confused with EA).\n\nThis game I just can't let go, with the amount of mods changing the face of Minecraft every time I play it, the constant updates to keep it fresh. It's just one of those games that keeps drawing you back.\n\nI am currently playing the Crash Landing Mod Pack and it will break you if you play it like you always play Minecraft.\n\nSoulless corporations should not own something I love!",
      "time": "2014-09-15T15:46:39",
      "id": "1589986623"
    },
    {
      "threadId": "3014166085",
      "post": "Bacon!",
      "time": "2014-09-13T17:46:49",
      "id": "1587643367",
      "parentPost": "I wish I was made of bacon. I would eat my own arm.\n\n\nThanks for the correction.",
      "parentPostTime": "2014-09-13T14:25:33",
      "parentPostId": "1587419681"
    },
    {
      "threadId": "3011339698",
      "post": "Yes now we can all show off how we cannot drive in GTA with even more obstacles in our way :P",
      "time": "2014-09-12T14:33:46",
      "id": "1585860851",
      "parentPost": "\"Denser traffic\"! Just what we were all yearning for!",
      "parentPostTime": "2014-09-12T13:01:48",
      "parentPostId": "1585745820"
    },
    {
      "threadId": "3007440355",
      "post": "I really want to play this game, but I am not allowed to play it on my platform of choice.",
      "time": "2014-09-12T05:51:28",
      "id": "1585351213",
      "parentPost": "Haters gonna hate!\nAlso, they have not confirmed nor denied that they will port to PC. They have said that they are focused to supporting the game thus far (ie console).",
      "parentPostTime": "2014-09-11T18:10:19",
      "parentPostId": "1584539481"
    },
    {
      "threadId": "3008184953",
      "post": "Agreed! I play games for FUN.\n\n\nSome people just can't be happy without being unhappy about something.",
      "time": "2014-09-11T13:59:42",
      "id": "1584151590",
      "parentPost": "Da f is all this crap??? Never heard of it sheesh what happened to play a game just to have fun bloody politics... I miss the olden days",
      "parentPostTime": "2014-09-11T13:52:07",
      "parentPostId": "1584141714"
    },
    {
      "threadId": "3007871493",
      "post": "The videos look epic, but so dit Colonial Marines... Will wait until the game is out before I decide what to do.",
      "time": "2014-09-11T10:18:36",
      "id": "1583933422"
    },
    {
      "threadId": "3004184539",
      "post": "Minecraft Basic, Minecraft Home, Minecraft Professional & Minecraft Ultimate versions coming soon! With integrated Bing!\n\nFirst year Xbone Exclusive!",
      "time": "2014-09-10T14:53:42",
      "id": "1582621431"
    },
    {
      "threadId": "2966501402",
      "post": "\"and the handhelds are performing admirably\"\n\n:3",
      "time": "2014-08-28T15:48:12",
      "id": "1563420021"
    },
    {
      "threadId": "2943260807",
      "post": "\"Little Timmy was depressed because his mom made him go outside – and the graphics were terrible\"\n\nROFL",
      "time": "2014-08-20T20:21:44",
      "id": "1551773033"
    },
    {
      "threadId": "2917866727",
      "post": "Do they include a FREE 3D Printer with the Nyth?",
      "time": "2014-08-11T13:19:52",
      "id": "1537309231"
    },
    {
      "threadId": "2899502489",
      "post": "By this logic the studies should only apply to the US and our government officials...",
      "time": "2014-08-04T14:50:49",
      "id": "1526779968",
      "parentPost": "It comes down to if you are mentally weak, pretty much anything in life will affect you heavily.\n\nViolent movies as well as games, and even crappy social influences will negatively affect who you are. These negative influences aren't the cause, they might at best just escalate an underlying problem.\n\nThe rest of us who have / had decent parents and who are intelligent enough to know right from wrong, like yourself, aren't affected at all.\n\nBut you must admit, reading useless research articles like this one, is quite entertaining :)",
      "parentPostTime": "2014-08-04T13:39:29",
      "parentPostId": "1526553176"
    },
    {
      "threadId": "2887418314",
      "post": "Here's video made by my friend CGVega.\n\nhttps://www.youtube.com/watch?v=cF7Qm6vocrg\n\nThought it was fitting to add it to the post as it is related.",
      "time": "2014-07-31T05:42:38",
      "id": "1514638292"
    },
    {
      "threadId": "2866218760",
      "post": "Well I don't mind the delay as long it produces results and we have a great game at the end of it with few bugs.\n\nBut knowing EA, that won't happen and we'll get a broken game at launch in any case -.-",
      "time": "2014-07-23T08:52:02",
      "id": "1499399809"
    },
    {
      "threadId": "2848176252",
      "post": "Battlefield 4... Beta Test for Hardline 8)",
      "time": "2014-07-17T11:39:21",
      "id": "1489647842",
      "parentPost": "Did anyone notice how much  the dragons teeth expansion maps looks similar in design as the hardline beta maps. Check especially the parking lots out, it looks exactly like hardline even the colour of the textures is exactly the same.",
      "parentPostTime": "2014-07-17T08:44:30",
      "parentPostId": "1489438725"
    },
    {
      "threadId": "2847830649",
      "post": "Westwood was eaten by EA -.-\n\nDAMN YOU EA!!!",
      "time": "2014-07-16T12:43:30",
      "id": "1487979382",
      "parentPost": "Westwood Studios is missing from this list",
      "parentPostTime": "2014-07-16T09:08:22",
      "parentPostId": "1487742076"
    },
    {
      "threadId": "2839563840",
      "post": "I was pissed at ME3 because I could only access 2 of the 3 endings as you needed to play online to increase your galactic readiness to beyond 50%, and at the time I didn't have interwebs.\n\nSo I had the wonderful choice of dying or dying -.-\n\nIt was a sad day when the character I spent 3 games on, building nurturing playing the games so many times to ensure all my supporting characters stayed alive, and then at the end of it just killing her off.\n\nI wasn't a happy camper because of that, but I did kinda expect that the series would not have a satisfactory ending.\n\nStill enjoyed the game immensely.\n\nAs for Bioshock Infinite I fully agree with Kainunable, it was an EPIC ending to the game.",
      "time": "2014-07-14T11:52:21",
      "id": "1484157009",
      "parentPost": "Bioshock Infinite? Possibly the most complex, expertly-wrapped ending in game history - you think this was bad? It taxed the grey matter, made you think, but just because something is complex, doesn't make it bad. We aren't all interested in the guy-kills-bad-guy-gets-girl-in-the-end-story. \n\nME3 - same here. Yes, lot of fans went screaming about the ending, but I thought it was pretty clever, even sadistic (think choices, think blue/red options). We were left doubting in the end and I enjoy that in a story.",
      "parentPostTime": "2014-07-14T08:41:41",
      "parentPostId": "1484027468"
    },
    {
      "threadId": "2837108911",
      "post": "How about a bow that shoots unicorns?",
      "time": "2014-07-12T06:26:17",
      "id": "1481615320"
    },
    {
      "threadId": "2666891872",
      "post": "No NFS this year!?\n\n\nThat's like no COD this year! \n\n\nHow will they survive?",
      "time": "2014-05-08T14:12:02",
      "id": "1375065085"
    },
    {
      "threadId": "2664312562",
      "post": "Well here we go again...\n\nMap packs, DLC, weapon unlocks, etc. etc. etc. DLC. DLC. DLC.\n\nWas looking forward to it, until I read Kodick was involved -.-",
      "time": "2014-05-06T09:36:50",
      "id": "1371608105"
    },
    {
      "threadId": "2662167758",
      "post": "LOOOOOOOOOOOOOOOL",
      "time": "2014-05-05T14:25:13",
      "id": "1370358971",
      "parentPost": "Didn't know Denmark had oil",
      "parentPostTime": "2014-05-05T13:19:42",
      "parentPostId": "1370265692"
    },
    {
      "threadId": "2646901779",
      "post": "That was quite awesome!",
      "time": "2014-04-29T08:23:42",
      "id": "1360308918"
    },
    {
      "threadId": "2625298987",
      "post": "Just what gamers always wanted!!!\n\n\nVirtual Reality documentaries...",
      "time": "2014-04-23T13:18:16",
      "id": "1351737446"
    },
    {
      "threadId": "2632291471",
      "post": "With all these major changes no wonder FTB hasn't been updated since 1.4.8 & 1.5.2...\n\n\nCan't wait for the major changes to be done so I can enjoy all the new features with some epic mods.",
      "time": "2014-04-23T10:07:00",
      "id": "1351564475"
    },
    {
      "threadId": "2627415958",
      "post": "Day of the Tentacle!!! Now I want to start wearing my nostalgia pants again!",
      "time": "2014-04-22T08:58:13",
      "id": "1349974510",
      "parentPost": "Day of the Tentacle ? Its probably the best Time Travel game ever made...",
      "parentPostTime": "2014-04-21T17:36:49",
      "parentPostId": "1349032382"
    },
    {
      "threadId": "2618307348",
      "post": "As long as people have a reason to bitch about something -.-",
      "time": "2014-04-17T10:49:30",
      "id": "1342614848"
    },
    {
      "threadId": "2597655329",
      "post": "Buggy & broken games too!",
      "time": "2014-04-09T05:39:15",
      "id": "1325644119",
      "parentPost": "Lies... lag causes aggression",
      "parentPostTime": "2014-04-09T05:17:12",
      "parentPostId": "1325609737"
    },
    {
      "threadId": "2583488202",
      "post": "It is insanely fun, played it for a week non stop then last boss messed me up -.-",
      "time": "2014-04-04T09:30:37",
      "id": "1318114210",
      "parentPost": "Bro Force is one of the most addictive games I have ever played! Saw it @ rAge last year and played it the whole weekend!",
      "parentPostTime": "2014-04-04T06:53:34",
      "parentPostId": "1317927110"
    },
    {
      "threadId": "2541296983",
      "post": "It doesn't matter when a fan film is made, it is a fan made film.\n\n\nThere are still Half-Life 2 fan films being made.",
      "time": "2014-03-31T06:23:59",
      "id": "1311453744",
      "parentPost": "A bit late to the party eh",
      "parentPostTime": "2014-03-29T11:15:51",
      "parentPostId": "1309453875"
    },
    {
      "threadId": "2523550844",
      "post": "New study links gravity to aggressive behaviour",
      "time": "2014-03-28T06:05:46",
      "id": "1307780032"
    },
    {
      "threadId": "2521587854",
      "post": "Dafuq did I just see...?",
      "time": "2014-03-27T07:27:01",
      "id": "1305441285"
    },
    {
      "threadId": "2509667667",
      "post": "Agrees. Occulus is doomed now. \n\n\nVir Vark Steaks Facebook!",
      "time": "2014-03-26T06:31:41",
      "id": "1303206003",
      "parentPost": "Or adverts. EVERYWHERE. Time to develop adblock for Oculus.",
      "parentPostTime": "2014-03-26T05:34:09",
      "parentPostId": "1303176510"
    },
    {
      "threadId": "2509454489",
      "post": "It might just be me, but whatever happened to people just being plain old good fashioned, CRAZY?\n\n\nEverything is blamed on something or it becomes some disorder, because apparently people don't and can't make decisions of their own.",
      "time": "2014-03-26T06:29:57",
      "id": "1303205156"
    },
    {
      "threadId": "2483654334",
      "post": "+1 for the Bear Grylls Simulator",
      "time": "2014-03-25T11:04:35",
      "id": "1301444073",
      "parentPost": "I would much rather have a Bear Grylls simulator.\n\nMany many moons ago I stumbled across a survival game, where you start off with a small shuttle crashing on an alien planet. From there you have to survive. You can hack off your own limbs, preferably after applying a tourniquet. Use what ever you find in the medical kit from the crash site etc. Since I was quite young at the time I cannot for the life of me remember the name of said game. I do remember there was a tiger like creature that I attempted to fight with one arm and one leg after amputating the others for fun :P",
      "parentPostTime": "2014-03-24T09:29:18",
      "parentPostId": "1298795017"
    },
    {
      "threadId": "2460883142",
      "post": "I finihh almost every game I play. Probably about 5% that I haven't finished.",
      "time": "2014-03-20T05:51:26",
      "id": "1292776330"
    },
    {
      "threadId": "2413098027",
      "post": "Viva la resistance!",
      "time": "2014-03-12T10:43:49",
      "id": "1281175137"
    },
    {
      "threadId": "2408595348",
      "post": "Massive fail?\n\n\nSorry I don't see how. They would rather release a quality game than give us a bug infested broken one.\n\n\nWhich one of these will cause the bigger upset, a delay or a broken game?",
      "time": "2014-03-12T07:30:19",
      "id": "1281075772",
      "parentPost": "Well, now they've set themselves up for a massive fail. They've delayed a game by a year, by which time some people won't even be interested anymore. If the final version of this game isn't absolutely fantastic, they might as well close their doors and get it over with.",
      "parentPostTime": "2014-03-11T17:46:23",
      "parentPostId": "1280263157"
    },
    {
      "threadId": "2410360110",
      "post": "The only currency that will be used where he is going will be souls.",
      "time": "2014-03-12T07:28:07",
      "id": "1281074764",
      "parentPost": "You are not going to take all that money to the grave with you buddy...",
      "parentPostTime": "2014-03-12T06:42:47",
      "parentPostId": "1281054067"
    },
    {
      "threadId": "2395010506",
      "post": "Can't comment on any of those EXCEPT, Bioshock Infinite.\n\n\nIt was sublime and fun.",
      "time": "2014-03-10T05:45:28",
      "id": "1278277619"
    },
    {
      "threadId": "2381476021",
      "post": "My pants just got a little tighter...",
      "time": "2014-03-08T08:47:31",
      "id": "1276243682"
    },
    {
      "threadId": "2371589602",
      "post": "\"if it will require Windows 8 or be backwards compatible with older Microsoft OS.\"\n\n\nWindows 8.7 requirement, then they will release Windows 9 which will be a proper OS again, alongside DX12.1",
      "time": "2014-03-07T12:44:25",
      "id": "1274915072"
    },
    {
      "threadId": "2364805078",
      "post": "My pants are tight o.O",
      "time": "2014-03-06T06:22:23",
      "id": "1272439712"
    },
    {
      "threadId": "2363704749",
      "post": "Fox news... Nuff said.",
      "time": "2014-03-06T05:58:58",
      "id": "1272426368"
    },
    {
      "threadId": "2363898459",
      "post": "“Young people are losing interest in high-end games and are focusing on mobile and social titles...\"\n\n\n\nMost seasoned gamers, like myself prefer a good AAA title, as long as were not used for beta testing the game after release like most developers do atm.\n\n\nGames I love most are from independent developers who can take risks and bring us some real epic titles: Minecraft, Limbo, Trine, Torchlight, Don't Starve, etc.\n\n\nThe biggest problem with AAA titles for me atm is that they are too dependent on the the publisher and shareholders who want their cash NAAAU and the gaming community in general who crap all over the interwebs when a game gets delayed.\n\n\nPressure from these groups, imho, is what gives us games laden with bugs.",
      "time": "2014-03-05T11:34:24",
      "id": "1271125041"
    },
    {
      "threadId": "2357481217",
      "post": "That was Legend... wait for it!",
      "time": "2014-03-05T08:15:03",
      "id": "1271015742"
    },
    {
      "threadId": "2350273006",
      "post": "Only 2 games on my have to have list.\n\n\n\nSouth park and Dark Souls 2",
      "time": "2014-03-03T10:08:02",
      "id": "1268264342"
    },
    {
      "threadId": "2237012347",
      "post": "Fully agreed. Screw the house, save my games!",
      "time": "2014-02-10T07:30:01",
      "id": "1237852021",
      "parentPost": "I spent maybe 90% of my life on gaming, hell yeah I would go back. I'll have to do 3 trips though.",
      "parentPostTime": "2014-02-08T11:47:41",
      "parentPostId": "1235742876"
    },
    {
      "threadId": "2232900734",
      "post": "Does anyone really care anymore?",
      "time": "2014-02-07T13:50:13",
      "id": "1234604386"
    },
    {
      "threadId": "2220155985",
      "post": "I giant robot riding a giant robot dinosaur...\n\n\nIt only needs to fart rainbows, shoot laser beams from its nostrils and be able to fly.",
      "time": "2014-02-04T16:10:36",
      "id": "1230558447"
    },
    {
      "threadId": "468890074",
      "post": "Baldurs Gate, most definately",
      "time": "2014-02-03T06:59:40",
      "id": "1228563625",
      "parentPost": "Boldurs Gate, StarCraft and Red Alert all should have made the list in my opinion.",
      "parentPostTime": "2014-02-01T11:14:07",
      "parentPostId": "1226536711"
    },
    {
      "threadId": "2203677996",
      "post": "Is it really hard...? Yes it will make your eyes bleed.\n\nIs it rewarding? You will feel like a god for finally defeating a boss.\n\n\nReally hope it is as good as the first one.",
      "time": "2014-02-03T06:52:51",
      "id": "1228560583"
    },
    {
      "threadId": "2091107220",
      "post": "After playing Bioshock Infinite :P",
      "time": "2014-01-06T08:27:24",
      "id": "1188819269",
      "parentPost": "It exceeded BioShock 1... Which I considered the best story told in a FPS game. So I must say that I was truly blown away.",
      "parentPostTime": "2014-01-06T07:33:33",
      "parentPostId": "1188778485"
    },
    {
      "threadId": "2060411417",
      "post": "We should follow suit and sue companies for creating inferior games, especially all the buggy games as of late.\n\n\nOr at least reimburse or pay us as beta tester or quality assurance testers since the ones they employ are apparently useless...",
      "time": "2013-12-19T10:38:49",
      "id": "1169931640",
      "parentPost": "kak funny. sell a bad product and get sued",
      "parentPostTime": "2013-12-19T10:13:57",
      "parentPostId": "1169916597"
    },
    {
      "threadId": "2053536103",
      "post": "LOL @ picture: \"ready when you are\"\n\nLIES!",
      "time": "2013-12-17T12:14:29",
      "id": "1167317102"
    },
    {
      "threadId": "2055724082",
      "post": "Agreed... Limbo was epic and some areas were devastatingly diffcult.\n\n\nBut epic fun game.",
      "time": "2013-12-17T09:05:47",
      "id": "1167217518",
      "parentPost": "Limbo is amazing, but I've got the fingers and dexterity of an angry dumb giant....the game atmosphere is amazing, I hate that I suck at platformers. Anyone remember Henry's House on the Commodore 64?",
      "parentPostTime": "2013-12-17T08:33:55",
      "parentPostId": "1167202948"
    },
    {
      "threadId": "2043658213",
      "post": "WOuld've expected to see Craptivision there and those money-grubbing-shark-lawyer company called Bethesda...",
      "time": "2013-12-12T06:56:19",
      "id": "1159731393"
    },
    {
      "threadId": "2043331169",
      "post": "This is just sad.\n\n\nPublishers claiming the rights to these videos are horrible. They should treat the Let's Players like a marketing team for their products.\n\n\nBecause essentially that's what they do. Worst of all is that there are random companies not even involved with the games that are claiming the rights to these videos and game content.",
      "time": "2013-12-12T06:30:10",
      "id": "1159718438"
    },
    {
      "threadId": "2044006929",
      "post": "Paying for the privilege of playing a game you already bought... Who still does crap like that?\n\n\nSorry Bethesda, not buying it :(",
      "time": "2013-12-12T06:18:55",
      "id": "1159712828"
    },
    {
      "threadId": "1653770000",
      "post": "Again...?\n\nWhen, oh when, will we gamers learn that playing games makes us psychotic nutjobs that murder innocent people at will.",
      "time": "2013-08-27T11:15:40",
      "id": "1019042901"
    },
    {
      "threadId": "1649688889",
      "post": "The Ranger Mode DLC can be unlocked via a registry tweak.\n\n\nNo need to pay for 'n game mode that should've been in the game in the first place.",
      "time": "2013-08-27T06:39:44",
      "id": "1018893376",
      "parentPost": "I guess its one of those games that just appeals to some and not others. I played it and loved it, still have to get Last Light though. Not so sure I want to pay the extra for the Ranger DLC that should have been included in the first place.",
      "parentPostTime": "2013-08-26T22:13:44",
      "parentPostId": "1018517379"
    },
    {
      "threadId": "1617290690",
      "post": "BSOD predictions anyone?",
      "time": "2013-08-26T14:24:23",
      "id": "1017833899"
    },
    {
      "threadId": "1580488254",
      "post": "Hope they learned some stuff from the Rage fiasco.",
      "time": "2013-08-07T13:55:17",
      "id": "991432088"
    },
    {
      "threadId": "1555108409",
      "post": "I will second that!\n\n\nERMERGERD!!!",
      "time": "2013-08-01T14:48:55",
      "id": "984517272",
      "parentPost": "Ermegerd!!!!",
      "parentPostTime": "2013-08-01T13:02:05",
      "parentPostId": "984325289"
    },
    {
      "threadId": "1506226390",
      "post": "\"gamers who want to tinker and try developer their own mods.\"\n\n\nDafuq did I just read...?\n\n\n:P",
      "time": "2013-07-17T12:16:10",
      "id": "965581103"
    },
    {
      "threadId": "1498589217",
      "post": "IE has always been a mess.\n\n\nI'm a web & graphic designer by trade and speak out of experience.\n\n\nYou sir are not going to change my mind by telling me to read of the theoretical awesomeness of IE, when it never lives up to its promises or features and when it is and always will be an inferior browser.",
      "time": "2013-07-15T12:26:26",
      "id": "962691383",
      "parentPost": "You are sir are uninformed\n\nread more about IE before you claim it a mess",
      "parentPostTime": "2013-07-15T11:09:11",
      "parentPostId": "962645498"
    },
    {
      "threadId": "1497880920",
      "post": "This seems fun",
      "time": "2013-07-15T07:04:00",
      "id": "962533154"
    },
    {
      "threadId": "1492577873",
      "post": "This needs a multiplayer aspect... share the fun of soaking up hapless victims with a sponge or squeegeeing someone's brains of the windows and making those babies shine again!\n\nOr a commande... uhm... cleaning crew leader mode where you can organise your crew in real time and send them to the most devastated or worst hit locations first.\n\nOr a time trial mop and bucket race mode where you not only race on a circuit, but also see who can clean his side of the tracks the most in the shortest amount of time.\n\nI see a bright future for the  lonely-janitor-cleans-the-world-all-by-himself genre.\n\n\nI predict a winner guys!",
      "time": "2013-07-12T14:12:06",
      "id": "959819679",
      "parentPost": "Will this support multiplay :-)",
      "parentPostTime": "2013-07-12T11:14:24",
      "parentPostId": "959642162"
    },
    {
      "threadId": "1485748717",
      "post": "Is that a dragon with a rocket booster attached to its back o.O",
      "time": "2013-07-11T05:56:31",
      "id": "958318547"
    },
    {
      "threadId": "1470655508",
      "post": "Got this yesterday and I have to say it is quite different and fun. Need more people to play with though.",
      "time": "2013-07-06T08:46:38",
      "id": "953525577"
    },
    {
      "threadId": "1467537008",
      "post": "Hopefully if they do port it to PC they optimize it better than GTA 4",
      "time": "2013-07-05T13:16:05",
      "id": "952786418",
      "parentPost": "The PC version will likely be out within a year of the console release, if Rockstar history has taught us anything.",
      "parentPostTime": "2013-07-05T08:08:40",
      "parentPostId": "952629675"
    },
    {
      "threadId": "1468928456",
      "post": "Micro Transactions: Because $2,000,000,000 a year is not enough!",
      "time": "2013-07-05T13:13:28",
      "id": "952784683"
    },
    {
      "threadId": "1458242737",
      "post": "Alex? Half-Life 2? Come on!",
      "time": "2013-07-02T12:13:06",
      "id": "948964096"
    },
    {
      "threadId": "1413328919",
      "post": "Well the Xbone will still lose to the PS4 as it is $100 cheaper.",
      "time": "2013-06-20T10:44:00",
      "id": "936344759"
    },
    {
      "threadId": "1408412399",
      "post": "\"but what if you could correct them before they even happened?\"\n\n\n\nSorry Jeremy bro, but you're stuck in a time paradox right now.\n\n\nIf you actually were able to correct your mistakes by traveling back in time, then you wouldn't have needed to travel back in time since you have already corrected those mistakes by travelling back in time to correct said mistakes that were corrected by travelling back in time, etc etc etc.\n\n\nAs a reference watch 12 Monkeys - one of the best time paradoxes movies available.",
      "time": "2013-06-18T11:05:13",
      "id": "934129999"
    },
    {
      "threadId": "1400792795",
      "post": "It was exactly the same thing with BF3, so why's everyone acting surprised?\n\nI still think they could've gone the Bethesda route and developed the game with mod support and then saved millions on actually supporting the game with patches, etc. like all the Elder Scrolls games - let the community fix the game...",
      "time": "2013-06-14T11:37:25",
      "id": "930533946",
      "parentPost": "Peoples... by them not giving mod support they just ensure their revenue stream. Because they will better be able to control the \"life span\" of the game.\n\n\nAnd as such... you'll just be so happy to get new content when they release BF5",
      "parentPostTime": "2013-06-14T10:10:53",
      "parentPostId": "930491145"
    },
    {
      "threadId": "1392861115",
      "post": "Micro$oft screwing the pooch with the Xbone  \n\n\n-_____________________________________-",
      "time": "2013-06-12T08:51:40",
      "id": "927466056"
    },
    {
      "threadId": "1389260937",
      "post": "ROFL",
      "time": "2013-06-11T11:39:49",
      "id": "926206448"
    },
    {
      "threadId": "1383137787",
      "post": "Can't really be bothered about Xbone.\n\nWith all the restrictions that they list as features I just can't get excited for this platform. Waiting to see how the PSFWOAR will screw us over and then decide on the one, screwing me the least for my money between them.\n\nBesides getting a new PC end of the month so can't really be bothered 8)",
      "time": "2013-06-10T06:31:55",
      "id": "924855923"
    },
    {
      "threadId": "1307940786",
      "post": "So basically we're get a whole lot of TVTVTVTVTVTVTVTV and 1 game CoD with a dog...\n\nCOMPLETELY WORTH IT, JUST FOR THE DOG.",
      "time": "2013-05-31T07:25:59",
      "id": "914671342"
    },
    {
      "threadId": "1310362440",
      "post": "Still no news on a PC edition -_________________-",
      "time": "2013-05-24T08:08:01",
      "id": "906603820"
    },
    {
      "threadId": "1287119699",
      "post": ":3",
      "time": "2013-05-14T10:46:32",
      "id": "896922501"
    },
    {
      "threadId": "1042454266",
      "post": "That was awesome! \n\n\n<3 turrets :3",
      "time": "2013-01-23T18:49:13",
      "id": "775866684"
    },
    {
      "threadId": "1026606334",
      "post": "Woot medium spec gameplay here I come!!!",
      "time": "2013-01-15T15:41:41",
      "id": "768785691"
    },
    {
      "threadId": "1019754559",
      "post": "I personally feel that violence and sexism have no real effect in a virtual simulation or virtual piece of fiction at all.\n\n\nGames that portray women in a negative light haven't made or caused me to behave in an inappropriate way towards women IRL. he same with the violence issue.\n\n\nGames don't make me want to shoot people, games mainly keep me from shooting people IRL :P\n\nBut great trailer! Hope to see more awesome vids and gameplay from this IP.",
      "time": "2013-01-11T20:11:34",
      "id": "764079730",
      "parentPost": "\"Some journalists have found the trailer to be a symptom of “sexploitation”, which is fetishising violence and women.\" Uuugh, just reading that made my IQ drop... The trailer, however, was fantastic! <3 CD Projekt Red.",
      "parentPostTime": "2013-01-11T12:39:59",
      "parentPostId": "763649555"
    },
    {
      "threadId": "972061176",
      "post": "Patients are reminded not to die in the corridors...",
      "time": "2012-12-13T14:03:58",
      "id": "734874688",
      "parentPost": "Patients are reminded to keep their germs to themselves...",
      "parentPostTime": "2012-12-13T14:03:27",
      "parentPostId": "734874387"
    },
    {
      "threadId": "970611460",
      "post": "Balanced PC has just made my bank balance, unbalanced...",
      "time": "2012-12-12T13:10:07",
      "id": "733889770"
    },
    {
      "threadId": "970295606",
      "post": "Like Crysis 2's Advanced options...\n\n\n\nHope we get more than 3 options -.-",
      "time": "2012-12-12T10:03:20",
      "id": "733795345"
    },
    {
      "threadId": "652883491",
      "post": "Peter Molyny3nha54ro9nwe8bnx still striving for mediocrity =D",
      "time": "2012-12-11T14:19:16",
      "id": "733153231"
    },
    {
      "threadId": "968578463",
      "post": "NOOOOOOOOOOOOOOOOOOOOOOOOOOOOOOOOOOOOOOOOOOOOOOO!!!",
      "time": "2012-12-11T09:11:15",
      "id": "732996353"
    },
    {
      "threadId": "955566801",
      "post": "Very high specs and the possibility that I might not even be able to play it... This might actually be a real Crysis game not that crap that was labeled Crysis 2 -_-",
      "time": "2012-12-03T10:35:25",
      "id": "725950190"
    },
    {
      "threadId": "947864437",
      "post": "This was really an epic game, I agree on the short part  but what game is really very long nowadays?\n\nWant to play it through again and again xD",
      "time": "2012-11-28T12:31:03",
      "id": "721406502",
      "parentPost": "awesome game, but WAY too short imo",
      "parentPostTime": "2012-11-28T11:56:34",
      "parentPostId": "721376414"
    },
    {
      "threadId": "927334714",
      "post": "None of us were even supposed to be able to play Crysis 2. You would've needed a time machine to travel to the future to get a rigged out pocket-sized supercomputer and then travel back to be able to just play it at 45fps.\n\nBut I played it on my Intel Core 2 Duo E6550 2.3Ghz, 2Gb DDR2 800Mhz, 256Mb ATI Radeon HD2600 DDR3 o.O in what reality does this make sense...?\n\nI was fully prepared to never be able to play the game.\n\nThe suit pissed me off, no open world pissed me off and the aliens suddenly became red, what happened to the blue ones?\n\nAll in all didn't like the game.",
      "time": "2012-11-22T14:22:34",
      "id": "716789184",
      "parentPost": "Totally agreeing with you there, I never actually finished Crysis 2 due it being numbed down for consoles. Crysis 1 looks better than Crysis 2 on PC even with the DX11 patch for Crysis 2, that is so sad really.\n\nI do play console but FPS I play on PC and hate it that all FPS games are suffering by being made for console. \n\nRelating to the article, yes Bulletstorm is seriously underplayed and unappreciated, I really, loved that game. Enjoyed every second from start to finish!",
      "parentPostTime": "2012-11-14T09:59:37",
      "parentPostId": "709885404"
    },
    {
      "threadId": "937560505",
      "post": "Nazi Dinosaurs flying on top of reapers, farting rainbows, whilst enslaving the galaxy :3",
      "time": "2012-11-22T09:16:36",
      "id": "716628131",
      "parentPost": "It should have Dinosaurs",
      "parentPostTime": "2012-11-21T18:10:54",
      "parentPostId": "716011959"
    },
    {
      "threadId": "938850218",
      "post": "Played for hours perfecting my timing through speed runs xD\n\n\nCan't wait for more.",
      "time": "2012-11-22T09:14:41",
      "id": "716627630"
    },
    {
      "threadId": "934262538",
      "post": "\"Innovative controller\" - they're going to break the Xbox360's awesome controller -.-",
      "time": "2012-11-19T14:37:07",
      "id": "713813155"
    },
    {
      "threadId": "930542149",
      "post": "Hopefully they do a decent job with this movie or don't screw it up...\n\n\n*cough* Max Payne *cough*",
      "time": "2012-11-16T13:48:46",
      "id": "711760061"
    },
    {
      "threadId": "925977734",
      "post": "YAY DX11.1!!!\n\nSo we'll never get to play games that actually support it since every PC game is ported from DX9 Xbox games",
      "time": "2012-11-13T13:15:07",
      "id": "708987635"
    },
    {
      "threadId": "743556693",
      "post": "YAY!!!\n\n28-8-12 = End of my social life!",
      "time": "2012-06-28T16:20:09",
      "id": "570535430"
    },
    {
      "threadId": "735649909",
      "post": "Sorry for posting late, just don't have energy or time for anything lately :(\n\nGood article dude, hope to read some more soon.",
      "time": "2012-06-21T18:11:54",
      "id": "563825146"
    },
    {
      "threadId": "724297269",
      "post": "New Need For Speed...\n\nI'm over it already -.-",
      "time": "2012-06-13T15:41:23",
      "id": "556309071"
    },
    {
      "threadId": "715584222",
      "post": "Well that looks bloody awesome!!!",
      "time": "2012-06-06T16:06:38",
      "id": "548879272"
    },
    {
      "threadId": "708111172",
      "post": "Do we really need another console...?",
      "time": "2012-05-30T10:31:24",
      "id": "541723992"
    },
    {
      "threadId": "708047009",
      "post": "For damn sure!",
      "time": "2012-05-30T09:38:00",
      "id": "541704223",
      "parentPost": "Guybrush Threepwood, that dude has been through it all.",
      "parentPostTime": "2012-05-30T09:30:20",
      "parentPostId": "541701647"
    },
    {
      "threadId": "707005045",
      "post": "Screw my social life! Can't wait for the BWE and the release!\n\nI will lose my life to this game.",
      "time": "2012-05-29T20:14:19",
      "id": "541295255"
    },
    {
      "threadId": "706855218",
      "post": "Kara <3\n\nI hope she is their next project",
      "time": "2012-05-29T08:30:40",
      "id": "540802478"
    },
    {
      "threadId": "706864101",
      "post": "Someone who makes sense!\n\nPaying for on-disc DLC is crap, even more so than paying for DLC...",
      "time": "2012-05-29T08:29:48",
      "id": "540802221"
    },
    {
      "threadId": "706507982",
      "post": "Reality is over-rated :P",
      "time": "2012-05-29T08:27:43",
      "id": "540801560",
      "parentPost": "Maybe they'll mix it up. The first one was pretty secretive with the mutant/things, maybe there's a surprise in store. Looks like they're going for a more 'real' take though.",
      "parentPostTime": "2012-05-29T07:27:25",
      "parentPostId": "540782724"
    },
    {
      "threadId": "705876640",
      "post": "I agree. Gears is epic and needs nothing more!",
      "time": "2012-05-28T14:18:12",
      "id": "540308989",
      "parentPost": "I really dont want a gears movie... the games are more than enough awesome",
      "parentPostTime": "2012-05-28T14:16:58",
      "parentPostId": "540308167"
    },
    {
      "threadId": "705900968",
      "post": "Meh.\n\nCouldn't give a crap about premium. I'll get the DLC if and only if I feel like it, but the way things have been going with BF3, I won't.\n\nSince I don't play it anymore since I lost interest, since my game was borked for more than 2 months and nothing fixed it.",
      "time": "2012-05-28T13:04:24",
      "id": "540265590"
    },
    {
      "threadId": "705973066",
      "post": "New Need for Speed exposed by E3 schedule...\n\nShould've read as follows:\n\nNew Need for Speed exposed by it being a new year\n\nAlso applies to any CoD game.",
      "time": "2012-05-28T13:01:16",
      "id": "540264252"
    },
    {
      "threadId": "705708819",
      "post": "Patiently waiting for the next part...",
      "time": "2012-05-28T11:58:37",
      "id": "540234942"
    },
    {
      "threadId": "703704069",
      "post": "Crysis: 3\n\nMAXIMUM TROLL",
      "time": "2012-05-26T17:48:33",
      "id": "539242053"
    },
    {
      "threadId": "703147448",
      "post": "The game didn't draw me.\n\nI had high hopes for it, but after seeing more videos and playing the demo, I lost  any and all interest in the game.",
      "time": "2012-05-25T12:23:21",
      "id": "538324345"
    },
    {
      "threadId": "703008563",
      "post": "Woohoo! A new Peter Moluyioheriufiuagfuyafaweax company...\n\nSo basically a company that will promise you the most innovative games and experiences, but only deliver the same mediocre crap you'll see from any other company.",
      "time": "2012-05-25T09:43:06",
      "id": "538263943"
    },
    {
      "threadId": "702984953",
      "post": "I want guild halls to be back in the game!\n\nImagine an epic structure that your members can explore from anywhere in the world. With all the conveniences you would expect from a mini city...\n\nMaybe it will be a feature that will come in later. Think that they might even bring back Guild vs Guild and launch Guild Halls for that purpose?",
      "time": "2012-05-25T08:36:01",
      "id": "538233493"
    },
    {
      "threadId": "700914930",
      "post": "Yeah that was one damn creepy list of stuff to bring for the apocalypse...\n\nI'm still having troubling not thinking about what it is Rain Moodly wanted to do with those demons o.O",
      "time": "2012-05-23T14:09:19",
      "id": "536564813"
    },
    {
      "threadId": "700617270",
      "post": "Guild Wars 2 is really just a game that provides us with choices.\n\nThe lack of choice is what is causing MMO's to stagnate. Now a lot of people will say but you get to make thousands of choices in an MMO, I would argue that normal MMO's only provide you with the illusion of choice.\n\nIf I wanted I could create a Warrior, that is full support and grants buffs to allies, de-buffs to enemies, AOE regenration, damage negation, additional armour for allies and armour reduction for enemies.\n\nChoices are what matter and add to this your personal story, multiple races, dynamic events, etc. I see good things in ArenaNet's future and the Guild Wars franchise.\n\nCan't wait xD",
      "time": "2012-05-23T09:07:50",
      "id": "536419941",
      "parentPost": "So now my char can be like 3-in-1 oil? lol I think that not only does this give players more flexibilty but it also makes getting groups together easier and more fun. Imagine a posse of Mesmers \"rampaging\" across Tyria... haha ;)",
      "parentPostTime": "2012-05-23T08:38:16",
      "parentPostId": "536407625"
    },
    {
      "threadId": "699601633",
      "post": "Shouldn't account security be a standard feature of any online game?\n\nPaying for it seems like being ripped off...",
      "time": "2012-05-23T06:30:23",
      "id": "536356527",
      "parentPost": "There is something called a Battle.net authenticator a device you can purchase for R99 or you can just use the mobile app. Simple protect your account.",
      "parentPostTime": "2012-05-22T13:56:58",
      "parentPostId": "535694111"
    },
    {
      "threadId": "699449176",
      "post": "I still remember playing games on my Sega MegaDrive II :D\n\nAll the good old games (TV Games) Contra, Islander, Mario, Golden Axe etc. good times.",
      "time": "2012-05-22T09:45:56",
      "id": "535428891"
    },
    {
      "threadId": "698492860",
      "post": "SQUEE!!!\n\nYay! A release date... Awww! only releases next year...",
      "time": "2012-05-21T14:12:31",
      "id": "534421162"
    },
    {
      "threadId": "693271780",
      "post": "I really enjoyed the Norn Thief.\n\nAlso saying that something that's 2 meters tall can't sneak, meh, who cares she's an awesome thief and I can't wait to play again!",
      "time": "2012-05-17T14:09:10",
      "id": "531158728",
      "parentPost": "Like SouOneCoElevenEctor already knows I also doubt the weird combo :P\n\nBut then again, Im thinking of making an Asura Warrior ;)\n\nNice article dude, glad you enjoyed the character... next time lets just be on the same server!\nI had fun with my Charr Engi ;)\n(Can we transfer servers at the next beta event?, and also I hope they reset that too on launch!)",
      "parentPostTime": "2012-05-17T13:02:44",
      "parentPostId": "531115626"
    },
    {
      "threadId": "691566017",
      "post": "I missed the beta, so I can't really comment.",
      "time": "2012-05-16T14:26:40",
      "id": "530298842"
    },
    {
      "threadId": "691810509",
      "post": "I actually wanted to try some WvW and PvP, but I got lost in my character and just doing everything that was awesome.\n\nI hope to get some WvW and PvP in the next BWE.",
      "time": "2012-05-16T12:32:42",
      "id": "530200472"
    },
    {
      "threadId": "688857336",
      "post": "So there are some women who don't mind doing derogatory things for money, that doesn't mean that all men think women will do derogatory things for money.\n\nSome women have self respect, others don't.\n\nAnd Coco isn't nice to look at at all, she looks like a bulldog.",
      "time": "2012-05-14T13:46:07",
      "id": "528461604",
      "parentPost": "And in today's news, the gaming industry continues to remind gamers that women are just things to be looked at and fucked. ",
      "parentPostTime": "2012-05-14T12:55:17",
      "parentPostId": "528432335"
    },
    {
      "threadId": "681104945",
      "post": "Lucky! I'm still internetless at home, but hopefully it will be sorted tomorrow or the day after.\n\nNow just to find out when will the next BWE be...?",
      "time": "2012-05-09T13:30:27",
      "id": "524367046",
      "parentPost": "I already got myself a scholars outfit looks great !!",
      "parentPostTime": "2012-05-08T16:37:11",
      "parentPostId": "523063593"
    },
    {
      "threadId": "597094168",
      "post": "I'm looking for a Wordpress plugin, preferably something free that will allow me the same functionality as Formidable Pro or Gravity Forms.\n\nIf not could you please refer me to a tutorial on how to create custom fields that users can submit info with and a way for me to show the submitted info on my blog in a table view or something similar.",
      "time": "2012-05-08T09:03:47",
      "id": "522522609"
    },
    {
      "threadId": "679291655",
      "post": "My Prolish friend... As always you have something to say, but fail at the words.\n\nWe should really invest in a Prolish to English dictionary for you :D",
      "time": "2012-05-07T13:58:21",
      "id": "521592394",
      "parentPost": " Iv already casted my first fireball, swang my first sword, defeted my first mob in the world of guild wars. Guild wars 2 is a mere sleeping gaint, wich millions apon millions of poeple are waiting for it's awakening. Shacking the very fundation of role playing games\n\nJust playing guild wars 2 beta weekend made me realise that the games main gole is to bring fun back into the life of online role playing games, not once did i get angry or tip off by other players to be honest I was happy to see my fellow piers joining the battle against a champion.\n\nI stand by for the next beta weekend and hope to share it with my dear friends that still have not exepiernced that epicness of GW2. \n",
      "parentPostTime": "2012-05-07T12:58:03",
      "parentPostId": "521548030"
    },
    {
      "threadId": "659506935",
      "post": "Mobile GFX to overtake PC in a few years, LOL!",
      "time": "2012-04-23T07:20:18",
      "id": "506602928"
    },
    {
      "threadId": "644734707",
      "post": "UNSKIPPABLE CUTSCENES *pukes a little*\n\nQTE *reaches for razor and goes EMO*",
      "time": "2012-04-11T09:57:33",
      "id": "494139509"
    },
    {
      "threadId": "642750759",
      "post": "So we meet again Dr. Jones...",
      "time": "2012-04-10T07:42:20",
      "id": "492965821"
    },
    {
      "threadId": "634952439",
      "post": "Me thinks the legislation writers of Arizona are in for some SERIOUS TROLLING!",
      "time": "2012-04-04T05:35:58",
      "id": "485381376"
    },
    {
      "threadId": "633487288",
      "post": "Pokemon -.-\n\nLAME!",
      "time": "2012-04-03T11:31:34",
      "id": "484429561"
    },
    {
      "threadId": "628702225",
      "post": "Woohoo Buy-2-Win...\n\nEA FAILSAUCE!",
      "time": "2012-03-29T13:44:06",
      "id": "479498338"
    },
    {
      "threadId": "627340965",
      "post": "The nightmare is finally over",
      "time": "2012-03-29T05:41:12",
      "id": "479126822"
    },
    {
      "threadId": "613025126",
      "post": "I used to play Skyrim like you, but then the game...\n\nWas just too broken for me to even care anymore. Some day when it is nice and fixed I might just play it again, but I was disappointed in the game because Oblivion wasn't as borked as this game.\n\nDiablo III, meh not even interested, my hatred for all things Blizzard and Craptivision stop me from supporting them, BUT Guild Wars 2!\n\nCan't wait for that anymore and will be buying the game next month xD",
      "time": "2012-03-16T12:05:31",
      "id": "466858800",
      "parentPost": "Spacing looks good now ;)\n\nI wouldn't put it past my browser though. It has been acting up on certain sites. Gchat especially.\n\nCleared the main quests in Skyrim twice now so I've gotten bored. I'll start again as soon as they drop that DLC they've been promising. That's if i can pull myself away from Diablo III or Guild Wars 2 ;p",
      "parentPostTime": "2012-03-16T11:53:20",
      "parentPostId": "466852309"
    },
    {
      "threadId": "611769351",
      "post": "I dropped CoD long before I even started playing BF again.\n\nIf the subscription model comes into play, my days of shooting people are over...",
      "time": "2012-03-15T09:55:05",
      "id": "465850519",
      "parentPost": "People will drop BF for CoD so quickly that EA will probably shit themselves",
      "parentPostTime": "2012-03-15T09:10:15",
      "parentPostId": "465837776"
    },
    {
      "threadId": "610052248",
      "post": "Go check out Guild Wars 2 that should satisfy your eye candy needs!",
      "time": "2012-03-14T21:19:42",
      "id": "465437770",
      "parentPost": "Why do all the MMOs have such K@K graphics ?? I mean even the new ones released this year ?? I think a lot more ppl would play them if they at least looked this they came out this century.",
      "parentPostTime": "2012-03-13T23:31:22",
      "parentPostId": "464645182"
    },
    {
      "threadId": "609512865",
      "post": "LOL!\n\nCan't wait for the game...\n\nIn completely unrelated news, 28 April is my birthday and the day before is a public holiday 8)",
      "time": "2012-03-14T07:22:29",
      "id": "464917895",
      "parentPost": "we must all get together and play when GW2 launches! i watched a 24minute featurette thing on the world vs world pvp system last night... it caused me to have sexy dreams about this game",
      "parentPostTime": "2012-03-14T07:08:32",
      "parentPostId": "464911721"
    },
    {
      "threadId": "609427861",
      "post": "Did they trademark the verb as well?\n\n\"Scrolls: Move displayed text or graphics in a particular direction on a computer screen in order to view different parts of them.\"\n\nMight yet get sued for scrolling or describing the action of it o.O",
      "time": "2012-03-13T13:49:59",
      "id": "464195150"
    },
    {
      "threadId": "603201008",
      "post": "Holy crap! That was epic! ",
      "time": "2012-03-08T16:19:46",
      "id": "459853618"
    },
    {
      "threadId": "601761282",
      "post": "If they actually spend a bit more time and effort on their porting efforts when porting console to pc, the sales would go up even further.\n\nNo graphical tweaks, hard-coded controls and a console interface don't work on PC's.",
      "time": "2012-03-07T09:14:11",
      "id": "458547114"
    },
    {
      "threadId": "594713540",
      "post": "Yeah those 600 employees are costing them another yacht, unacceptable!",
      "time": "2012-03-02T06:01:59",
      "id": "454254304"
    },
    {
      "threadId": "593572077",
      "post": "Just a note, it should read as follows: \"Just how tweakable is ArenaNet’s new MMO’s engine?\"\n\nArenaNet are the developers of Guild Wars 2, NCSoft are just the publishers, they had no hand in developing the game or the engine, just gave money.",
      "time": "2012-03-01T13:30:05",
      "id": "453350890"
    },
    {
      "threadId": "592068119",
      "post": "\"The Linohead job listing was spotted on the Microsoft careers portal...\"\n\n\"THE LINOHEAD\"\n\nMaybe change it to Lionhead...?",
      "time": "2012-02-28T11:46:20",
      "id": "451127822"
    },
    {
      "threadId": "586582767",
      "post": "I'm quite attached to mine and I'm not a Counter Strike fan.\n\nMainly because I can't shoot for shit in this game. If I get a beta hey though I will give it to my buddy, he'll be happy!",
      "time": "2012-02-24T06:36:18",
      "id": "447648458",
      "parentPost": "Just to be screwy, id give my right nut :D",
      "parentPostTime": "2012-02-24T06:11:29",
      "parentPostId": "447640181"
    },
    {
      "threadId": "583936143",
      "post": "I saw some footage yesterday and it was AMAZING! There were some issues with lag here and there but not something that would break the game. Besides it is still a beta and tweaking is a ongoing process.\n\nOther than that WvWvW looks EPIC and the game itself is beautiful and the response from the sites that had their previews up were all amazed at how great this game is shaping up to be.\n\nCan't wait!",
      "time": "2012-02-21T10:46:16",
      "id": "444656764"
    },
    {
      "threadId": "582958875",
      "post": "FFFFFFFFFFFFUUUUUUUUUUUUUUUUUUUUU! Now I have to stop supporting Coca-Cola too...\n\nDLC packs for your coke available next month...",
      "time": "2012-02-20T14:18:15",
      "id": "444008850"
    },
    {
      "threadId": "582593915",
      "post": "DICE are more concerned with balancing a weapon that one person said \"boo hoo someone killed me too fast, dis game sucks, your weapons are OP!\" than actually fixing the game for the 1,000,000 other people who can't connect to the game because they screwed up their game and punkbuster integration.\n\nLet's hope they can actually fix this and lets see what they break this time.",
      "time": "2012-02-20T06:32:48",
      "id": "443856391"
    },
    {
      "threadId": "578878988",
      "post": "Mars? When there is oil... a country to be made \"democratic\" somewhere on the planet?",
      "time": "2012-02-17T06:29:28",
      "id": "441617472",
      "parentPost": "What happened to going to Mars?",
      "parentPostTime": "2012-02-16T22:13:35",
      "parentPostId": "441318138"
    },
    {
      "threadId": "576832523",
      "post": "Valve are awesome for giving you the choice to buy useless stuff and not forcing you to buy it.\n\nFree to play done right!",
      "time": "2012-02-15T11:56:12",
      "id": "439721197"
    },
    {
      "threadId": "576896709",
      "post": "YAY!\n\nDon't CARE!",
      "time": "2012-02-15T11:53:17",
      "id": "439719909"
    },
    {
      "threadId": "575563996",
      "post": "Yeah and when are they fixing the PunkBuster-won't-let-me-play-my-game-I-paid-good-money-for crash?\n\nI haven't been able to play a single map in almost a month o.O I'm going to go postal soon",
      "time": "2012-02-14T14:56:53",
      "id": "438894463"
    },
    {
      "threadId": "574072718",
      "post": "Okay video games and story shouldn't mix...? Brain dead much?\n\nGreat games with great stories are epic! Some games I really don't mind the story as long as it is fun.",
      "time": "2012-02-13T06:25:24",
      "id": "437343661"
    },
    {
      "threadId": "571213564",
      "post": "WOW! What a douche move!\n\nThey do not own DotA, they own Warcraft III, which is not DotA or am   I wrong in this regard?\n\nHoly crap!\n\nBlizzard Y U NO GET A LIFE?",
      "time": "2012-02-10T13:52:00",
      "id": "435225093"
    },
    {
      "threadId": "571087489",
      "post": "The previous Middle-Earth project got scrapped by the Germans who were attempting it.\n\nSo sad it didn't pan out.\n\nThe world was rumoured to be 300km2.\nWith about 300 main quests and around a 800 side quests.\n\nReally liked what I saw in terms of the scale and design, but in the end it was too ambitious and the project died.\n\nHopefully the Skyrim edition will actually see the light of day, but not holding my breath.",
      "time": "2012-02-10T12:54:53",
      "id": "435190073"
    },
    {
      "threadId": "567470296",
      "post": "The only review that seems legit is G4TV's review, the rest seem to have been paid to give it a decent rating.\n\nAlso the game doesn't have epic graphics, low res textures, low character detail, nothing epic about that.",
      "time": "2012-02-07T13:54:46",
      "id": "431866742"
    },
    {
      "threadId": "562701391",
      "post": "Gaming pwns another n00b.",
      "time": "2012-02-03T08:47:46",
      "id": "428434427"
    },
    {
      "threadId": "560239054",
      "post": "Would love to do the DotA 2 thing, but since I am unable to find or even trade my soul for a beta key...\n\nWon't ever be able to play it...",
      "time": "2012-02-01T13:50:32",
      "id": "426313027"
    },
    {
      "threadId": "545263070",
      "post": "Challenge Accepted...",
      "time": "2012-01-27T13:04:41",
      "id": "422233510"
    },
    {
      "threadId": "549565429",
      "post": "Placed my pre-order a loooooooooooong time ago, still no price...",
      "time": "2012-01-27T12:51:16",
      "id": "422226931",
      "parentPost": "Apparently you can pre-order at BT Games :D\n\nhttp://www.btgames.co.za/bt/infopage.asp?A06883",
      "parentPostTime": "2012-01-24T15:57:39",
      "parentPostId": "419615951"
    },
    {
      "threadId": "551855114",
      "post": "Any console will always be out of date or at least within a few months from launch, that's the way it is. Consoles can't be upgraded because the specs are set and games are developed to work on that specific configuration.\n\nIf however a company actually went and built a console with dual 7970 or 590's with 16Gb DDR3 RAM, 8 Core CPU and 2 TB of storage that all works with wireless electricity and sound and also has a high performance mini LED projector capable of  1920x1200 that would be another story and no PC gamer would bitch about getting one, until 6 months later when there is better stuff available.\n\nEDIT: \nhttp://en.wikipedia.org/wiki/Wireless_energy_transfer\nhttp://en.wikipedia.org/wiki/Resonant_inductive_coupling",
      "time": "2012-01-27T12:44:43",
      "id": "422224124"
    },
    {
      "threadId": "553354619",
      "post": "I really want to play Alan Wake (Awake), been following it since it was first announced, but never go to play it on my 360.\n\nWill need to get this.",
      "time": "2012-01-27T12:33:56",
      "id": "422219896"
    },
    {
      "threadId": "554459563",
      "post": "I like puzzle games, might give it a try.",
      "time": "2012-01-27T12:32:26",
      "id": "422219314"
    },
    {
      "threadId": "554435505",
      "post": "Well I for one can't wait to scream like a little girl every time my motion sensor makes a beep.\n\nThe best damn aliens ever conceived by the mind of man.\n\n*Puts on nostalgia pants and prepares for a night of classic sci-fi horror*",
      "time": "2012-01-27T11:39:09",
      "id": "422198535"
    },
    {
      "threadId": "551986733",
      "post": "Yay! More publishers who's games we'll struggle to patch and download!\n\nThank you EA you are the best!",
      "time": "2012-01-25T11:25:42",
      "id": "420455403"
    },
    {
      "threadId": "550604316",
      "post": "Yeah not installing the patch, will update once its official, but still won't play the game for at least 2 months I think...\n\nBorked games, don't interest me and besides some cool games coming out and Guild Wars 2 is also coming soon-ish, so might not finish Skyrim until next year.",
      "time": "2012-01-24T10:32:27",
      "id": "419441104"
    },
    {
      "threadId": "547801099",
      "post": "Agreed! But dude, FERGIE!",
      "time": "2012-01-22T16:40:04",
      "id": "418086012",
      "parentPost": "Developing a game like this should be a crime.",
      "parentPostTime": "2012-01-22T07:40:44",
      "parentPostId": "417925407"
    },
    {
      "threadId": "545598611",
      "post": "About bloody time they started fixing their borked quests...\n\nThey got too many and spoiled the game experience for me.\n\nHopefully one day when I have gotten past my other game addictions and new games coming out I will install again and try it again with some great mods and some epic HD textures.",
      "time": "2012-01-20T13:36:49",
      "id": "416518876"
    },
    {
      "threadId": "546457553",
      "post": "I haven't played Terarria, but I still think Minecraft is awesome.\n\nGot a great server that I'm playing on and awesome mods and admins that actually help when you need it.\n\nJust want a Buildcraft and Industrialcraft server...",
      "time": "2012-01-20T13:30:21",
      "id": "416515689"
    },
    {
      "threadId": "545356212",
      "post": "That will be epic!\n\nMight go back to Linux if they get this right.",
      "time": "2012-01-20T12:11:28",
      "id": "416472477",
      "parentPost": "http://www.valvesoftware.com/job-SenSoftEngineer.html If you're wondering...",
      "parentPostTime": "2012-01-20T09:52:01",
      "parentPostId": "416294305"
    },
    {
      "threadId": "544505827",
      "post": "Agreed, UNCAPPED FFS!\n\nFreezone will probably be re-instated at a later stage, let them just sort out their \"technical difficulties\" - probably because you guys are constantly downloading shit from their servers that caused technical difficulties.\n\nGo join Mweb if you guys are unhappy and get the worst service of your life and the worst \"un\"capped service of your life.\n\nScrew you Mweb and see you end of the month WA!",
      "time": "2012-01-19T07:27:43",
      "id": "415044046",
      "parentPost": "I really don't understand.  How much do Steam downloads take up of your total monthly downloads?? It really can't be that much, unless you love uninstalling en re-downloading games as a hobby....  It's UNCAPPED FFS....",
      "parentPostTime": "2012-01-19T06:28:33",
      "parentPostId": "415026111"
    },
    {
      "threadId": "542400646",
      "post": "Valve always delivers... Patience is a virtue!",
      "time": "2012-01-18T10:49:38",
      "id": "414217017",
      "parentPost": "Some things are best when you have waited an extremely long time :) ",
      "parentPostTime": "2012-01-17T11:52:15",
      "parentPostId": "413289430"
    },
    {
      "threadId": "543468264",
      "post": "Ubisoft DRM is just horrifying.\n\nMaybe if they had something, I don't know BETTER and not this DRM resembling medieval torture techniques, they actually might get more paying customers and less people who pirate the games.",
      "time": "2012-01-18T06:58:43",
      "id": "414079071"
    },
    {
      "threadId": "543468265",
      "post": "I actually enjoy playing online with other people, the first time I really played online was with DotA and thinking I was the shit because I could beat all 5 bots on insane on my own I went to try online when we still had a guild and had my ass handed to me in a big way.\n\nIf you like competitive games and want to improve your skill, online is the way to play (if you don't mind all the total dicks & douchebags that also infest online gaming or the amount of people who call you n00b or those people that are in a state of perma-nerd-rage)\n\nBack in my COD4 playing days we did some comps and comps put me off multiplayer shooters for about 3 years. Because it is real fun to get spawn raped from across the map because some dick with a sniper rifle knows the exact pixel to shoot at to kill you at your spawn, through 4 buildings. Aimbots and wallhacks are the pinnacle of skill, apparently -.-\n\nSure MMO's aren't for everyone, but Guild Wars fun and sorry you didn't have a good experience with the game.\n\nI have never played TF2, although I own it. It looks fun, but for some reason I have never played it.\n\n",
      "time": "2012-01-18T06:54:39",
      "id": "414077828"
    },
    {
      "threadId": "542323533",
      "post": "I have a tool that I use to recover passwords from Windows when people 'lose' them.\n\nIn fact the tool is insanely powerful as it can recover any password that you are using on your system along with the username.\n\nSo ANY password, steam, your WOW account, etc. There is always a record somewhere and this tool finds it.\n\nAnd NO not giving you the name since hacking is not what I use it for, just assisting people who lost their passwords on Windows mainly.",
      "time": "2012-01-17T10:20:23",
      "id": "413260760"
    },
    {
      "threadId": "538919121",
      "post": "Yeah also waiting for GW2.\n\nAll the other MMOs-where-you-pay-through-your-ears-every-month-for-the-privilege-to-play-a-game-you-already-bought just seems like no fun, even SWTOR just seems like a WOW clone with better narrative.\n\nRift seems like a WOW clone with some dynamic content, but this doesn't insterest me because GW2 will perfect the dynamic content system and will be the benchmark for future MMOs and it has no subs!",
      "time": "2012-01-16T08:21:51",
      "id": "412444844"
    },
    {
      "threadId": "538712419",
      "post": "Sure I don't have nightmares, at all anymore, which I actually kind of miss, but don't attribute my lack of nightmares to being a hardcore gamer.\n\nI have been desensitised by many forms of media, not just the gaming kind. The last time I had a nightmare was probably around standard 3, yes I use standards, not grades... Because I'm old-ish.\n\nAnyhow, back on topic. Movies, music, tv, games, the internet, everyday life has basically desensitised me to the point where I can walk past dismembered bodies whilst eating my lunch and thinking wow my steak roll kinda looks like that guy...\nAlso guys, ANOTHER STUDY? Seriously?\n\nI am hereby calling for an official MyGaming Study-article Intervention!\n\nAll in favour Like or comment.",
      "time": "2012-01-16T07:50:24",
      "id": "412436569"
    },
    {
      "threadId": "537360915",
      "post": "Damn straight! Useless studies getting linked to games to add negative stereotypes (like we need any more).\n\nMaybe they should run the same studies with 'normal' people, drug addicts, wrestlers, business men, rugby players and politicians (or life long criminals), but just focus on what defines these people and then let's look at the results again.\n\nI can pretty much guarantee the results will be the same across the board.",
      "time": "2012-01-13T13:03:58",
      "id": "409736459",
      "parentPost": "So addicts' brains are wired up differently. Who would've guessed?\n\nIf the same applies to folk who ware addicted to gaming, and internet, and substance abuse... Then the problem is more to do with chronic addiction than the medium.",
      "parentPostTime": "2012-01-13T11:33:02",
      "parentPostId": "409691543"
    },
    {
      "threadId": "536123513",
      "post": "It's not that I want to, but as a matter of principle I do not support developers who try to rip me off.",
      "time": "2012-01-12T13:32:35",
      "id": "408600196",
      "parentPost": "Can't believe you wanna miss out on D3",
      "parentPostTime": "2012-01-12T13:27:24",
      "parentPostId": "408596963"
    },
    {
      "threadId": "536054035",
      "post": "I can't really be bothered about the next console news. It only means that there will be more ways to screw us PC gamers out of PC titles and have them ported or broken (consolitis) when they eventually, if at all, make it to PC.",
      "time": "2012-01-12T13:07:23",
      "id": "408586994",
      "parentPost": "with all the tom foolery and back-and-forthedness... its less frustrating just waiting for the actual announcement",
      "parentPostTime": "2012-01-12T12:36:51",
      "parentPostId": "408574371"
    },
    {
      "threadId": "536088865",
      "post": "Damn HaXors! Glad to see they're working on giving us a cheat free experience.\n\nNow if they can just give us a game-crash-free experience I'll be really psyched!",
      "time": "2012-01-12T13:01:07",
      "id": "408584332"
    },
    {
      "threadId": "536065018",
      "post": "This is awesome! Can't wait for Amalur or Mass Effect 3 xD\n\nIf this was Craptivision they would've charged you for the next demo of COD and given you 1$ discount if you played the previous COD and bought all the DLC for it.",
      "time": "2012-01-12T12:56:28",
      "id": "408582374"
    },
    {
      "threadId": "536015197",
      "post": "Hope this actually makes it out to market",
      "time": "2012-01-12T12:47:06",
      "id": "408578488"
    },
    {
      "threadId": "534789905",
      "post": "So we're getting Ghost Recon: Future Soldier for PC! YAY!!!\n\nWill we be able to play it with Ubisofts' Restrictive DRM? NAY!!!\n\nSorry I just can't seem to get excited about anything regarding Ubisoft...",
      "time": "2012-01-11T09:12:39",
      "id": "407705910"
    },
    {
      "threadId": "533685132",
      "post": "Pity, I might still need my kidneys in the future...",
      "time": "2012-01-10T13:43:12",
      "id": "407031306"
    },
    {
      "threadId": "532438812",
      "post": "Well thank you study, I didn't know I was \"stressed, anxious, and depressed\".\n\nI should probably book of work today and tell my boss I can't work because I play an excessive amount of video games.\n\nIn related news:\n\nNew Study Finds Nearly All Studies Are Useless!\n\nFollowing a 3 year study of academic and scientific studies, a group of researchers have found that almost none of those studies are of any merit. Dr. Morris Howard, of Howard, Fine and Howard Research Facility is quoted as saying \"Almost 90.5% of all studies used statistics with no basis in fact. Percentages are often made up simply to give the impression of scientific credibility.\" As if this were not bad enough, conclusions are often drawn that have no veracity whatsoever. Dr. Lawrence Fine explains: \"The trick is, you present a boat load of data, or what appears to be data, and when the reader has become dulled or confused by the sheer volume of the presentation, you toss in a conclusion which you had tucked away long before all the research began. No one will challenge that conclusion because no one will want to admit they didn't actually read all the data that you provided.\"\n\nThey cite many examples from the past that would 'prove' eggs to be alternately harmful or healthful; pornography to be either healthy or a horror; global warming to be either myth or fact, depending on one's point of view. When i asked if some of the problem was the use of generalities, Dr. C. Howard, became irritated with my questions and snorted. \"You reporters are all alike.\" \n\nThe conclusion of their study states that the only true benefit of the studies is lining the pockets of the individuals and institutions who do the studies. When asked what was in the future for Howard, Fine and Howard Research, i was told that they planned on looking for funding in order to study the long term effects of exposure to useless studies.",
      "time": "2012-01-09T11:35:52",
      "id": "406140813"
    },
    {
      "threadId": "532448493",
      "post": "Great now we have to beg developers for games too... My how far PC games have fallen...",
      "time": "2012-01-09T11:33:27",
      "id": "406137547"
    },
    {
      "threadId": "530049378",
      "post": "Who cares, they will be outdated tech when they get released... in yah about 2 years if not more...",
      "time": "2012-01-09T09:25:12",
      "id": "406073566"
    },
    {
      "threadId": "532343794",
      "post": "Space Quest FTW!!!\n\nI loved the old Sierra games, they were the best!",
      "time": "2012-01-09T09:21:59",
      "id": "406072853"
    },
    {
      "threadId": "532282459",
      "post": "Mass Effect 3 xD\nMax Payne 3 xD\n\nKingdoms of Amalur: Reckoning - looks great, just hope it doesn't suffer from consolitis on PC.",
      "time": "2012-01-09T08:22:29",
      "id": "406048573"
    },
    {
      "threadId": "528834981",
      "post": "My comments reflect on games I've played, if the game is not listed in my comments I didn't play it. So don't go \"Why you no talk bout [game title]?\"\n\nBest Game Design\n\nThe Elder Scrolls V: Skyrim (Bethesda Game Studios) - nope sorry, too many bugs!\nDon't get me wrong love the game but it's broken, needs to be fixed before I touch it again. If the game was designed to be buggy it probably does belong in this category, if Bethesda intended for us to have a broken game.\n\nPortal 2 (Valve) - Yes. I love Valve as they really do develop awesome games and rally work hard on giving us quality titles.\n\n\nBest Technology\n\nBattlefield 3 (DICE) - OMG! YES!\n\nCrysis 2 (Crytek Frankfurt/UK) - Nope disagree totally! Was the most beautiful, DirectX9 game for sure, but best technology far from it. Consoles were never ever supposed to even be able to think of running Crysis let alone Crysis 2, without exploding and being sucked into a singularity!\n\nThe Elder Scrolls V: Skyrim (Bethesda Game Studios) - The technology is far from even being considered the best. Sure the only technology that was good was for it to crash to desktop or the reverse flying dragon technology and don't forget the broken quest tech - state of the art.\n\n\nBest Audio\n\nThe Elder Scrolls V: Skyrim (Bethesda Game Studios) - The only real epic audio for me was the original score - EPIC! Truly EPIC! And then the legendary \"I took an arrow to the knee!\" dialogue. Also the Dark Brotherhood, Astrid really stood out for me as well as in the Thieves Guild, Karliah was also very well voiced.\n\nPortal 2 (Valve) -GLADos as always is epic and Wheatley was great, insane but great.\n\n\nBest Narrative\n\nPortal 2 (Valve) - Really epic and deserves to be here.\n\nThe Witcher 2 (CD Projekt RED) - Also a great game, great story and narrative. Really well made.\n\n\nBest Visual Arts\n\nThe Elder Scrolls V: Skyrim (Bethesda Game Studios) - Nope! Far from it. Textures came from Morrowind.\n\nBattlefield 3 (DICE) - Definitely belongs in this category.\n\n\nGame of the Year\n\nThe Elder Scrolls V: Skyrim (Bethesda Game Studios) - It could've been if not for being broken.\n\nPortal 2 (Valve) - Excellent game, really expanded on the first game without breaking it. It has my vote, but not the best.\n\nDeus Ex: Human Revolution (Eidos Montreal) - This was a REAL GAME done really well, except for the stupid boss fights. It actually had a story, impressive technology, great visuals, depth and it was almost on par with Deus Ex, almost. For me the best game of last year.",
      "time": "2012-01-06T13:06:05",
      "id": "402210651"
    },
    {
      "threadId": "528911969",
      "post": "Long time since I heard anything about this mod. Looked awesome back then and it still does. Can't  wait for it to be finalized as this is going to be epic!",
      "time": "2012-01-06T12:34:31",
      "id": "402198075"
    },
    {
      "threadId": "528209624",
      "post": "This looks fun!",
      "time": "2012-01-06T12:10:49",
      "id": "402189648"
    },
    {
      "threadId": "527638646",
      "post": "Yeah for damn sure!",
      "time": "2012-01-06T12:08:36",
      "id": "402188960",
      "parentPost": "i second that :D",
      "parentPostTime": "2012-01-05T13:58:43",
      "parentPostId": "401179595"
    },
    {
      "threadId": "528803829",
      "post": "Hey if scientology can be seen as a valid religion...\n\nAnd besides a file-sharing religion actually makes more sense xD",
      "time": "2012-01-06T11:45:15",
      "id": "402178361"
    },
    {
      "threadId": "528793750",
      "post": "Sorry don't really care... Craptivision Blizzard... ",
      "time": "2012-01-06T10:52:16",
      "id": "402135223"
    },
    {
      "threadId": "526404094",
      "post": "Hey, disabled/disfigured/deformed anime characters need love too.\n\nBesides the girl with the limp can't run away from you...",
      "time": "2012-01-05T12:22:02",
      "id": "401135358"
    },
    {
      "threadId": "527426555",
      "post": "Let's hope we actually get a demo.\n\nBut I hate playing demo's because they only feature the BEST parts of the game and make you think he whole game is going to be like the demo and in the end you're always disappointed.",
      "time": "2012-01-05T12:18:28",
      "id": "401133949",
      "parentPost": "Well so far all we've seen is shooting, running and pre-order \"incentives\". I love mass effect but I can't help feeling underwhelmed by every trailer they've released so far. Their 2nd trailer with the heavy metal music \"Fight for earth\" something reminds me of those joke trailers at the start of Tropic Thunder, embarassingly bad - every other trailer so far hasn't made me feel better either. I'm waiting for the demo but by the looks of things they'll probably delay it till after release day.",
      "parentPostTime": "2012-01-05T09:26:22",
      "parentPostId": "401073252"
    },
    {
      "threadId": "527490760",
      "post": "EA and Sony haven't stop supporting SOPA, they are still part of the ESA and they support SOPA, EA and Sony, only removed their names from the list to give the illusion of not supporting it.\n\nAlso EPIC is still supporting it as they are also members of the ESA as well as Ubisoft, 38 Studios, Microsoft, Nintendo, Nvidia, Take 2, Eidos, SEGA, etc.\n\nGo check out the list of ESA members.\n\nThey all support it, just under the guise of the ESA. Image is everything, but they aren't fooling anyone.\n\nhttp://www.theesa.com/\n\nSOPA is a good thing, done in a extremely bad and moronic way. If this law passes they will quite literally break the internet. What I mean by this is most traffic for the internet is basically routed through the US.\n\nIf this law passes other countries will just go and effectively cut off the US from their internet routes by denying US DNS's access to their content.\n\nAmerica will be effectively cut off from the rest of the world due to SOPA regulations and other countries not affected by US laws, i.e. the rest of the world, that simply deny them access and in effect denying us access to the US.\n\nBut knowing the US they will actually revoke any and all military support to countries who deny them access...\n\nSo will we be screwed over by stupid politicians and law makers? Well that depends on how stupid the American public is when the votes are counted. So my prediction is no we won't, but if we are America has reached a new level of idiocy...\n\nSo lets hope for the best.\n",
      "time": "2012-01-05T11:25:35",
      "id": "401113561"
    },
    {
      "threadId": "526080904",
      "post": "Crysis 2 should be there and Dungeon Siege III... Seriously crap games, Dead Island was fun for me, but I love zombies...",
      "time": "2012-01-04T10:54:03",
      "id": "400284277"
    },
    {
      "threadId": "519294305",
      "post": "Your sense is spot on. I just trolled the guy, hope he gets my mail... Saw that he got 'dropped', so is that the new term for \"being fired for being a complete dick\"?",
      "time": "2011-12-29T07:01:23",
      "id": "396309253"
    },
    {
      "threadId": "518640530",
      "post": "It should have read Battle Call: Field of Duty...",
      "time": "2011-12-28T15:35:54",
      "id": "395752466"
    },
    {
      "threadId": "508131683",
      "post": "I was super hyped for this game when it was announced, back when you could only run it on a 64-bit windows vista ultimate OS with a quad core cpu and 8 gb of ram...\n\nThen it went console only -.-\n\nSo not expecting too much from it now, but I will play it. It is Remedy after all!",
      "time": "2011-12-18T16:34:17",
      "id": "389258131"
    },
    {
      "threadId": "495118204",
      "post": "A bit late posting it. I already posted it in the Skyrim Mods/Tweaks/Tips Thread - http://mygaming.co.za/forum/showthread.php?p=605685#post605685 - this morning.\n\n@Skyrim Fan - It is a different texture. It replaces the standard textures for Skyrim with higher quality textures.\n\nIf you use a console, this won't help you at all.",
      "time": "2011-12-06T14:13:01",
      "id": "380274836"
    },
    {
      "threadId": "492824582",
      "post": "I will also be getting this when it releases 7 Feb next year.\n\nI will actually finish Skyrim, except if there are more bugged quests and of course the Radiant Quests, but they don't count for me, the normal quests that were custom made and not generated will all get done.\n\nI finished Oblivion 7 times, except for 1 bugged quest that never got sorted. The first time start to finish and totally cleared of all quests and dungeons = 246 hours (hours well spent!)\n\nAll in all 101 hours in Skyrim, level 45 and haven't made a dent in the main story... yet.",
      "time": "2011-12-04T20:21:06",
      "id": "379097622"
    },
    {
      "threadId": "490776202",
      "post": "Or you could always get the Sons of Skyrim Metal Cover - http://www.youtube.com/watch?v=gyCFuP3rM2w\n\nYou can mod it into your game by getting these files - http://www.skyrimnexus.com/downloads/file.php?id=1120",
      "time": "2011-12-02T11:22:21",
      "id": "377430281"
    },
    {
      "threadId": "489743220",
      "post": "My dear sir I downloaded 5Gb on my Mweb uncapped account and can't even browse properly, nevermind the lag in games.",
      "time": "2011-12-01T21:48:47",
      "id": "377066458"
    },
    {
      "threadId": "485061188",
      "post": "\"been going ofor 7 years now dont think i will change to anything else.\"\n\nHoly crap dude! 7 years?! I got tired of WoW after 2 months, just too much grind and go kill 10 of X and bring me 10 of Y \"quests\".\n\nWon't even play WoW if it was FREE and had no subs.\n\nGuild Wars 2 will PWN ALL!",
      "time": "2011-11-28T14:08:12",
      "id": "374167131"
    },
    {
      "threadId": "486164356",
      "post": "Guild Wars 2 will PWN ALL!",
      "time": "2011-11-28T13:16:58",
      "id": "374144718"
    },
    {
      "threadId": "483298341",
      "post": "Maybe Ubisoft should stop making crappy games and stop blaming piracy...",
      "time": "2011-11-25T13:34:17",
      "id": "372075761"
    },
    {
      "threadId": "483497805",
      "post": "If developers really want to rake in some serious cash, they should get onto Steam and run their games on Steams' many special weekends, weeks and special offers.\n\nValve is my favourite developer tied and sharing that spot is Arenanet - Guild Wars 2 will pwn all!\n\nEdit: Origin = sucks donkey balls",
      "time": "2011-11-25T13:27:20",
      "id": "372073288"
    },
    {
      "threadId": "481288772",
      "post": "Guess I'll be buying myself Minecraft for Xmas...",
      "time": "2011-11-23T12:39:03",
      "id": "370748733"
    },
    {
      "threadId": "478646722",
      "post": "I love the game, hate the interface.\n\nCan't wait for a mod to change it to a a pc-friendly interface and change that stupid favourites menu.\n\nBut can't stop playing the game and would love to see some High Rez textures for the game soon.",
      "time": "2011-11-21T07:55:03",
      "id": "369207088"
    },
    {
      "threadId": "473650536",
      "post": "WOW! Epic fail!\n\nDo developers even remember what PC's look like?",
      "time": "2011-11-16T09:56:00",
      "id": "364399358"
    },
    {
      "threadId": "472451401",
      "post": "I wonder what they had to say about The Silence of the lambs...\n\n\"Guys we need to prote... Oh, wait he's wearing people on his face. As long as its not an animal fur!\"",
      "time": "2011-11-15T11:45:12",
      "id": "363500330"
    },
    {
      "threadId": "471504653",
      "post": "You can get 20Gb of cloud storage from Micro$oft for free.\n\nThey might just extend that offering to their Xbox clients.",
      "time": "2011-11-15T06:21:36",
      "id": "363367896"
    },
    {
      "threadId": "471136052",
      "post": "No Assassin's Creed for PC?\n\nOn the other hand Anno 2070 - YAY!",
      "time": "2011-11-14T08:58:39",
      "id": "362694703"
    }
  ],
  "profileInfo": {
    "username": "Sou1Co11ector",
    "about": "Graphic & Web Design",
    "name": "Sou1Co11ector",
    "disable3rdPartyTrackers": false,
    "isPowerContributor": false,
    "isAnonymous": false,
    "rep": 1.325264,
    "profileUrl": "https://disqus.com/by/Sou1Co11ector/",
    "url": "http://www.descon.co.za/",
    "reputation": 1.325264,
    "location": "Rustenburg, South Africa",
    "isPrivate": false,
    "signedUrl": "http://disq.us/?url=http%3A%2F%2Fwww.descon.co.za%2F&key=eucKgHPQxZ9GZdFq-CdZug",
    "isPrimary": true,
    "joinedAt": "2008-03-18T18:50:08",
    "id": "15065",
    "avatar": {
      "small": {
        "permalink": "https://disqus.com/api/users/avatars/Sou1Co11ector.jpg",
        "cache": "//a.disquscdn.com/uploads/users/15065/avatar32.jpg?1281549414"
      },
      "isCustom": true,
      "permalink": "https://disqus.com/api/users/avatars/Sou1Co11ector.jpg",
      "cache": "//a.disquscdn.com/uploads/users/15065/avatar92.jpg?1281549414",
      "large": {
        "permalink": "https://disqus.com/api/users/avatars/Sou1Co11ector.jpg",
        "cache": "//a.disquscdn.com/uploads/users/15065/avatar92.jpg?1281549414"
      }
    }
  }
}