{
  "comments": [
    {
      "threadId": "841969797",
      "post": "Seems like the author is a senior, so he's maybe 21 or 22? He'll work out some things as he gets older: Gigs usually run late. Being in your 30s isn't old. Rock and roll can not easily accomodate the need to meet a night bus (regardless of the time it leaves). True fans are fans for life. \n\n\nOne day, he'll be in his 30s (GASP!) and be at a Dan Deacon show (unless he's sold his soul like so many do), and there will be some kid behind him making fun of how he dances. By then, he hopefully won't care at all. ",
      "time": "2012-09-15T05:28:32",
      "id": "651131854"
    },
    {
      "threadId": "826325170",
      "post": "w00t!",
      "time": "2012-09-04T13:20:26",
      "id": "639338666",
      "parentPost": "Thanks, Abby! Two days! :-D ",
      "parentPostTime": "2012-09-04T12:41:08",
      "parentPostId": "639315882"
    },
    {
      "threadId": "313757291",
      "post": "Yawn. This again?!",
      "time": "2011-05-25T20:23:27",
      "id": "211686977"
    },
    {
      "threadId": "274961767",
      "post": "I'm REALLY into this. I have a TON of cassettes that I'd like to convert. Question is, How safe/reliable is it to order from this web site, given that (1) It's in Japanese and a foreign country and (2) that country is where that where was just a massive disaster (and apparently subsequent aftershocks/earthquakes). Thoughts?",
      "time": "2011-04-11T23:44:52",
      "id": "182792023"
    },
    {
      "threadId": "266248315",
      "post": "Addendum: I never go out dressed slutty because it's stupid, and I have good self-esteem. This is the only decent reason I've heard to bother doing so.",
      "time": "2011-03-29T23:15:43",
      "id": "174521722"
    },
    {
      "threadId": "259541871",
      "post": "OK, it's settled. Never a nerd. In moments, can be a dork. Oh, and I guess I am a music geek. ",
      "time": "2011-03-22T02:22:08",
      "id": "169326791"
    },
    {
      "threadId": "255960254",
      "post": "#1's wife is a very close friend, and we're in a band together. Just posted about two shows we're doing next week on my Tumblr. OK, that's enough commenting on your stuff today! But, you know, when I see TMT stuff, I get excited!",
      "time": "2011-03-17T00:25:31",
      "id": "166930652"
    },
    {
      "threadId": "255817057",
      "post": "OK good. I'm a talker!",
      "time": "2011-03-17T00:11:17",
      "id": "166926276",
      "parentPost": "Thank you. And I love your comments!",
      "parentPostTime": "2011-03-16T23:51:14",
      "parentPostId": "166920143"
    },
    {
      "threadId": "255000340",
      "post": "I used to live in Boston. How easy is it to be an Atheist in Massachusetts? Super easy! In North Carolina? Honestly? Super easy. I live in the cool part. :)",
      "time": "2011-03-15T22:33:51",
      "id": "166321788"
    },
    {
      "threadId": "254038492",
      "post": "It's also the chart of how easy breakups get as you get older. There might be a slightly higher y-axis point on the first one, but they aren't ever easy, even for older people. My older clients are still just as miserable as my really young clients. No one likes getting dumped. Boo, breakups!",
      "time": "2011-03-15T02:48:26",
      "id": "165876407"
    },
    {
      "threadId": "253888573",
      "post": "Oh, I'm planning to publish them here, actually - not on Flickr. That's for my photos.",
      "time": "2011-03-14T20:20:02",
      "id": "165703240"
    },
    {
      "threadId": "251480861",
      "post": "Fair point!",
      "time": "2011-03-14T06:04:18",
      "id": "165388953"
    },
    {
      "threadId": "253217052",
      "post": "I tried so hard to get all four, but there was a guy standing in front of the fourth one, and it was taking me forever, so I thought I'd better stop pointing the phone at him!",
      "time": "2011-03-14T00:39:26",
      "id": "165252491"
    },
    {
      "threadId": "250713043",
      "post": "OK this is just getting silly! How about something along the lines of: Total # of co-moderators who have good covers of Creep on YouTube and Total # who don't. ",
      "time": "2011-03-10T20:06:55",
      "id": "163638419"
    },
    {
      "threadId": "250454982",
      "post": "I was totally confused before. Jason is the person who looks like Wilson on House, and he's  the one complaining? SHUT UP! Robert Sean Leonard is hot, and stop knocking 42 year olds! Jason, you ARE the one with the adorable photo. The reason you look like Wilson is what you're wearing. ",
      "time": "2011-03-10T19:38:46",
      "id": "163624052"
    },
    {
      "threadId": "249894589",
      "post": "The first rule of banana club is you do not talk about banana bread!",
      "time": "2011-03-09T23:47:31",
      "id": "163229376"
    },
    {
      "threadId": "248690174",
      "post": "I wanted to comment on your comment, but I wasn't able to before, Now, I can! Thanks for the inspiration! Yes, meta thoughts ARE post-modern and cool!",
      "time": "2011-03-08T19:13:18",
      "id": "162522979"
    },
    {
      "threadId": "231111044",
      "post": "Listen to Jody! He knows what's up!",
      "time": "2011-02-22T22:50:33",
      "id": "154242290"
    },
    {
      "threadId": "234156673",
      "post": "My template didn't support it, but I know HTML, so I rewrote the code. Go me! Thanks, Lady!",
      "time": "2011-02-19T02:32:31",
      "id": "152031179"
    },
    {
      "threadId": "184419586",
      "post": "I will also like this here, because one social network isn't enough.",
      "time": "2010-12-04T00:57:52",
      "id": "106548437"
    },
    {
      "threadId": "193277083",
      "post": "Oh OK. The equipment is located. I posted too fast. Got all excited and started writing before I read carefully. Heard they are still having a fun time there.",
      "time": "2010-10-10T22:40:00",
      "id": "114177781"
    },
    {
      "threadId": "188685240",
      "post": "We were so lucky to have her here at Hopscotch. Brad Cook told us to go see her, so we did, and boy were we glad we did, and by \"we,\" I mean me. But I know there were others. Lots of others. Thanks, Grayson.",
      "time": "2010-10-08T18:28:00",
      "id": "110132351"
    },
    {
      "threadId": "118502272",
      "post": "Hell yeah. Me? Haircut: every 7 weeks. Shower: every third day. Yeah, I said it. ",
      "time": "2010-07-16T02:07:47",
      "id": "62464364"
    },
    {
      "threadId": "111937950",
      "post": "I totally cheated on this one and looked at the results before voting. I just wondered if ANYONE would be drawn in to vote yes, and noone was. That makes me want to vote yes. I'm obstreperous like that!\n\nIt's a dumb thing, but you know, sometimes you'll pick it up and chuckle...\n\nNah, chuck it.",
      "time": "2010-06-30T20:15:20",
      "id": "60039308"
    },
    {
      "threadId": "103435026",
      "post": "But Marge! And also, Kitty!",
      "time": "2010-06-30T20:12:12",
      "id": "60038821"
    },
    {
      "threadId": "104468136",
      "post": "I've always enjoyed Hello Kitty, but of all the foodstuffs in the world, there are very few I hate, and Bubble Tea is one of them. If you are a fellow hater, then why be reminded. Yuck!",
      "time": "2010-06-30T20:11:09",
      "id": "60038657"
    },
    {
      "threadId": "76364396",
      "post": "You are so badass. I would have thought what you thought, but my approach is so different. Your fearlessness and ability to say exactly what your thinking (even if it's an inability to stop yourself from not saying it) is one of my favorite things about you. ",
      "time": "2010-04-11T13:46:37",
      "id": "44319805"
    },
    {
      "threadId": "68504536",
      "post": "I wanna get inspired by you, but you seem so much more focused than me - kind of all the time. I keep waiting for the weather to get warmer, so we can go out on a big adventure day and make some real magics. You have to lead the way, of course. You're the idea person. I just wanna get in on the fun. Can we hook that up, say, first sunny Sunday we're both free?",
      "time": "2010-02-20T04:57:35",
      "id": "35597972"
    },
    {
      "threadId": "67459824",
      "post": "Oh that's not very cool. Boo, Tumblr!",
      "time": "2010-02-16T22:26:12",
      "id": "34785307"
    },
    {
      "threadId": "52525572",
      "post": "One of my favorite pieces ever. I have the version with Dawn Upshaw. I'm such a fan of hers. It had to be her.",
      "time": "2009-12-18T15:55:30",
      "id": "26228309"
    },
    {
      "threadId": "43073356",
      "post": "Did you see Ian's piece on the house on Goodnight Raleigh the other day? It's excellent.",
      "time": "2009-11-02T17:33:25",
      "id": "21683896"
    },
    {
      "threadId": "37382792",
      "post": "My mother just asked me what I wanted for my birthday last week, and this is the one thing I could think of that I REALLY want. I KILL batteries. I'm very ADD, and I have the thing on ALL of the time. I have a close friend who I see out a lot, and the joke is that he sees me and hands over the Mophie Juice pack because he KNOWS I'm going to ask for it eventually. I'm always low on juice, even though I charge the thing all day long. Even with push off, I have this horrible effect on batteries. I must check Facebook and Twitter constantly, see who commented on my latest uploads to Flickr. Lately, I've been updating Gowalla every few steps. Hey, at least I don't do heroin. At least there's that!",
      "time": "2009-10-05T23:12:22",
      "id": "18610474"
    },
    {
      "threadId": "31419582",
      "post": "Shit, EJ. This makes me so sad. Noone should be without health insurance. I just don't care how we pay for it. People should have the right to basic care, no matter what. I'm so sorry you're going through this.",
      "time": "2009-08-27T03:58:02",
      "id": "15452741"
    },
    {
      "threadId": "28334295",
      "post": "Just read this, going backwards from today's date. Ugh. I was just here, a few short weeks ago, only Maggie's quality of life hadn't deteriorated. She was just dying, and we tried to save her with a very expensive operation. Same end result though. I'm so sorry. ",
      "time": "2009-08-19T10:21:09",
      "id": "15050741"
    },
    {
      "threadId": "28367522",
      "post": "How did I miss this?!! Well, I don't think it's unromantic at all. You decided together what was best for the two of your. What's more romantic than that?",
      "time": "2009-08-05T20:40:36",
      "id": "13997630"
    },
    {
      "threadId": "27990573",
      "post": ":(\r\n\r\nI know about this all too well, and I'm so sorry you're dealing with it. NC state vet hospital inRaleigh is amazing. Might be worth a trip. ",
      "time": "2009-08-03T04:51:37",
      "id": "13826491"
    },
    {
      "threadId": "27502644",
      "post": "You know you wanna keep it.",
      "time": "2009-07-30T01:07:34",
      "id": "13582453"
    },
    {
      "threadId": "22216942",
      "post": "That lady sure is funny!",
      "time": "2009-06-19T02:00:24",
      "id": "11211999"
    },
    {
      "threadId": "17367149",
      "post": "Awwwww... I was trying to think of a way to say \"sad\" using brovabulary, but \"Brad\" is one of the Brome, and now I'm just confused.",
      "time": "2009-05-06T00:01:37",
      "id": "9032923"
    },
    {
      "threadId": "15846674",
      "post": "OHAI, Cameron.  I can talk to him endlessly. Is he like the replacement Brome for the day?",
      "time": "2009-04-15T23:37:44",
      "id": "8244688"
    },
    {
      "threadId": "14962292",
      "post": "Oh so very very lovely! I love Dogwoods. In Atlanta, there are about 4 in every yard. I think we had 8. Remind me to go out back next time I'm over. I love the ones with the pink on them.",
      "time": "2009-04-03T01:21:07",
      "id": "7766357"
    },
    {
      "threadId": "13858554",
      "post": "DUDE! Was that random? Srsly. That is fucking insane!",
      "time": "2009-03-17T20:04:19",
      "id": "7297341"
    },
    {
      "threadId": "11837978",
      "post": "Shexy!",
      "time": "2009-02-15T00:08:38",
      "id": "6266439"
    },
    {
      "threadId": "10996090",
      "post": "I HATED that ad. Drove me crazy. Ugh. ",
      "time": "2009-02-02T17:15:44",
      "id": "5777934"
    },
    {
      "threadId": "6759418",
      "post": "Here's the whole conversation:\r\nAbby\r\nNovember 7 at 5:49pm\r\nA friend of a friend has a musical question. I'm sure ONE of us can help them out. Take a look and comment if you know:\r\n\r\nhttp://vmarinelli.tumblr.com/post/58548698/update-1-two-people-have-offered-the-term\r\n\r\nI have no idea, but I know it's fun to be a music geek when you know the answer!\r\n\r\nAbby\r\nmarinelli's miscellany - UPDATE #1: Two people have offered the term...\r\nSource: vmarinelli.tumblr.com\r\nUPDATE #1: Two people have offered the term “tritone” as the word I’m looking for. If that sounds right to you, or if you think it might be a different word, feel free to comment. :)\r\n---\r\nPaul\r\nNovember 7 at 11:31pm\r\nPretty sure it's a tritone there. \r\n!\r\nx\r\np\r\n---\r\nDavid\r\nNovember 7 at 11:51pm\r\nOh thank god for something other than biochemistry! Although how lame is it that my excitement is about music theory on a Friday night? Although I do have a friend coming over who I think is willing to have sexual intercourse with me, so that's pretty cool.\r\n\r\nOk. So, hmm. First two are descending fifths, from the secondary dominant, the second time from the new tonicized key. Third one's just a half step, again applied harmony. Lost track of which key we're in. They're all sung parlando. In a sense, they're all modulations. Any of that pointing at the right word.\r\n ---\r\nPaul\r\nNovember 10 at 9:44pm\r\nOh...I see....\r\nYes...\r\nHmmmm.....\r\nSounds like chromatic harmony... a series of tonicizations...\r\nIt happens in any number of works in the late-19th c...Schubert, Wagner... until the system breaks down. I'm a musicologist with a schenker background...I'd call it a series of tonicizations (not modulations--that's like marriage...takes too long. Tonicization is like an affair--short and sweet. \r\n\r\nI'm sure I'm not helping. \r\nMore clues?\r\n--- \r\nFred\r\nNovember 10 at 10:02pm\r\nOk, you theory jocks, nice work.\r\n\r\nBut I think it's possible that the term she's thinking of is \"blue note.\" \r\n\r\nEven though that term doesn't strictly apply to this musical example, I'd say it applies to her description of \"a note that sort of turns another way, so that it sounds kind of different and foreboding.\"\r\n---\r\nAbby\r\nNovember 10 at 10:16pm\r\nYES! I think Fred wins!\r\n",
      "time": "2008-11-11T12:46:51",
      "id": "3677225",
      "parentPost": "Wow. You know, you throw an obscure, awkwardly- and excessively-worded question out into the universe, expecting people will just scratch their heads at your dorkery, but instead I've received incredibly detailed and awesome feedback, some of which is over my head, but it stills helps a great deal with the conceptualization and descriptive tasks at hand. Thanks so much! ",
      "parentPostTime": "2008-11-11T07:50:50",
      "parentPostId": "3675823"
    },
    {
      "threadId": "6239815",
      "post": "Fingers crossed!",
      "time": "2008-10-25T14:51:40",
      "id": "3298043"
    },
    {
      "threadId": "5510729",
      "post": "Oh shit! I fear closet racists. See: http://proactivebusybody.com/2008/09/29/would-they-rather-watch-hell-freeze-over/",
      "time": "2008-10-08T12:48:02",
      "id": "2934949"
    },
    {
      "threadId": "5494298",
      "post": "I was hoping these were pro-Palin people. Everyone's REALLY on edge. Good grief.",
      "time": "2008-10-08T12:20:43",
      "id": "2934713"
    },
    {
      "threadId": "5273861",
      "post": "HAWT!",
      "time": "2008-10-03T16:42:01",
      "id": "2823604"
    },
    {
      "threadId": "5076774",
      "post": "Doh!",
      "time": "2008-09-27T21:30:48",
      "id": "2664081"
    },
    {
      "threadId": "328131",
      "post": "I never want a place with a yard. I'd rather live near a lovely park. And community gardens are lovely places. I'm all for them. \r\n\r\nI be you have a great tan now!A",
      "time": "2008-03-23T06:06:39",
      "id": "256273"
    }
  ],
  "profileInfo": {
    "username": "abbyladybug",
    "about": "",
    "name": "Abby",
    "disable3rdPartyTrackers": false,
    "isPowerContributor": false,
    "isAnonymous": false,
    "rep": 1.256745,
    "profileUrl": "https://disqus.com/by/abbyladybug/",
    "url": "http://abbyladybug.tumblr.com",
    "reputation": 1.256745,
    "location": "Raleigh, NC",
    "isPrivate": false,
    "signedUrl": "http://disq.us/?url=http%3A%2F%2Fabbyladybug.tumblr.com&key=k1RtlQeW7NyPvZ90sN8-qw",
    "isPrimary": true,
    "joinedAt": "2008-03-02T17:58:06",
    "id": "12831",
    "avatar": {
      "small": {
        "permalink": "https://disqus.com/api/users/avatars/abbyladybug.jpg",
        "cache": "//a.disquscdn.com/uploads/users/12831/avatar32.jpg?1299611499"
      },
      "isCustom": true,
      "permalink": "https://disqus.com/api/users/avatars/abbyladybug.jpg",
      "cache": "//a.disquscdn.com/uploads/users/12831/avatar92.jpg?1299611499",
      "large": {
        "permalink": "https://disqus.com/api/users/avatars/abbyladybug.jpg",
        "cache": "//a.disquscdn.com/uploads/users/12831/avatar92.jpg?1299611499"
      }
    }
  }
}