{
  "comments": [
    {
      "threadId": "1311398929",
      "post": "Oh wow, that sounds like a nightmare! Geez. I really hope you'll be able to get home soon. :-/",
      "time": "2013-06-12T01:32:35",
      "id": "927192294"
    },
    {
      "threadId": "1272597026",
      "post": "I've always wanted to try pottery! It looks so fun. And that is one badass picture of you and your friends in that car. I wish I had an awesome picture like that. D=",
      "time": "2013-05-16T04:51:36",
      "id": "898846053"
    },
    {
      "threadId": "1285194449",
      "post": "Lovely pictures yet again! You look like you're having a blast. ;)",
      "time": "2013-05-16T04:50:47",
      "id": "898845408"
    },
    {
      "threadId": "1264135121",
      "post": "When I was single, I use to go see movies by myself very often, movies including the first Iron Man. It's no biggie.\n\n\nI watched Iron Man 3 and it was definitely fun! I'm glad you enjoyed it as well!",
      "time": "2013-05-07T17:21:17",
      "id": "888331338"
    },
    {
      "threadId": "1264111671",
      "post": "Ahhhh, I'm loving the dinosaurs! How awesome. I can't wait to see more pictures of your trip. :D",
      "time": "2013-05-07T17:13:08",
      "id": "888324559"
    },
    {
      "threadId": "1202425109",
      "post": "Liz is right. And dog also tend to do this too when they know they're going to die. Hope you're ok Gretch!! *HUGS**",
      "time": "2013-04-15T18:15:09",
      "id": "864554265",
      "parentPost": "A cat's average lifespan is 12 to 14 years, although females can often last about one to two years longer. When they reach their end, they like to die in peace and quiet; they don't usually \"go\" when they're around people. It's just... like them to go off and hide. That's the first thing that came to mind when I read your first paragraph. :x I know it's sad, but even if that is what happened, he's not gone forever. Just because people pass doesn't mean they're not still around. Pets are just the same. He'll still always be in your heart.",
      "parentPostTime": "2013-04-15T11:41:30",
      "parentPostId": "864258593"
    },
    {
      "threadId": "1203111555",
      "post": "Giving a name to your blog is really hard. Me, I'm terrible when it comes to it, that's why I named my blog \"Tiff's Bloggy\". It's not great, but it's the best I can do. ><",
      "time": "2013-04-15T18:06:55",
      "id": "864547789"
    },
    {
      "threadId": "1212790137",
      "post": "Omg, you have a lot of great pictures here! I desperately need to go on a trip, and reading your entry makes me think I'm missing out on a lot haha. Taytay Falls looks amazing! And your jumping picture is adorable :P",
      "time": "2013-04-15T18:05:47",
      "id": "864546880"
    },
    {
      "threadId": "1132027795",
      "post": "Omg, that is SO NOT half-assed. Although the image may be incomplete, I can already tell it's quality work. You have talent, girl. :)",
      "time": "2013-04-03T02:09:51",
      "id": "850160384"
    },
    {
      "threadId": "1158371956",
      "post": "Haha omg, that dog does not look real at all. He's extremely adorable though, I can't believe he's real! Ok to answer some of your questions:\n\n-What kind of giveaways are bloggers (you) most likely to join?\nI'm not really into domain or makeup giveways, but I like cute little toys and accessories. And cute bags and purses :D\n\n-What do you think of review posts? Have you ever posted one? Do review posts actually convince you? \nI'm not interested in review posts unless it's something I'm really interested in. I've posted a review before for the glasses I once got online. Review posts aren't convincing to me if they're paid to do it.\n\nI emailed you btw! Btw, your drawings are hella cute. You should charge more than $1.50 (a suggestion). Also, NOOOO DON'T LET UR DOMAIN EXPIRE! =(",
      "time": "2013-04-03T02:07:22",
      "id": "850155448"
    },
    {
      "threadId": "1180393649",
      "post": "Ahhhh, congratulations! The future is no doubt a pretty scary thing to think about because you're not sure where you'll be in a year, five year or even ten! Just know that you're in control of your own future, and well, it's not that scary as you think it might be. :)",
      "time": "2013-04-02T03:25:11",
      "id": "849076988"
    },
    {
      "threadId": "1145528447",
      "post": "Yayyyyy for shopping! Wow, you got all the fancy brand name stuff. I love them all! I haven't been shopping in so long. I wish I had a job that would force me to buy new clothes like your's. :P",
      "time": "2013-03-19T05:37:46",
      "id": "834341100"
    },
    {
      "threadId": "1093950480",
      "post": "Ahah these images sure a funny. I especially like the cheating expert one. I feel bad for the guy in the last picture though. His face is plastered all over the internet, including this blog, with his crotch looking all wet. Poor guy.",
      "time": "2013-02-25T18:06:37",
      "id": "811918603"
    },
    {
      "threadId": "1058308412",
      "post": "Your facial expressions are so damn cute! My favorite is the PSEUDO SEXY BADASS LOOK. Perfect name for it. :D",
      "time": "2013-02-09T08:28:57",
      "id": "793737740"
    },
    {
      "threadId": "1030122786",
      "post": "Yeah, getting tagged when you have nothing to do with said picture is really annoying. One time, I had a cousin who posted a picture of one of her paintings and she tagged almost everybody so there were FORCED to look at it. It's really desperate and and annoying. People shouldn't push so hard to have their pictures being seen.\n\nThe 48 hours reblocking rule doesn't bug me as much because, well, it makes me wonder first, what was the reason for you blocking them, and WHY would you unblock them now? I've never blocked someone on Facebook before, but if I ever do, they'll be blocked for good.",
      "time": "2013-01-17T20:10:39",
      "id": "771177331"
    },
    {
      "threadId": "1007244342",
      "post": "Wow that's a pretty strange coincidence you had with the numbers, but I find it pretty damn cool at the same time.\n\nI'm sorry to hear about getting your heart broken. Looks like a lot of relationships ended in 2012, including mine, so I totally feel ya. \n\nHaha wow, you punched a guy in the face? I really believe physically harming someone should only be acceptable for self-defense. I don't know what happen in your situation, but I hope he deserved it. \n\nI hope this new year will be a lot better for you. Happy new year!",
      "time": "2013-01-05T02:35:24",
      "id": "756290477"
    },
    {
      "threadId": "1002965919",
      "post": "Phew, for a second I thought you were being uber-creepy.\n\nMust be painful to see something you want to get so badly but the only thing that's refraining you from getting is the money. :( Sorry to hear that, hopefully, in the near future, you'll get to finally have him in your arms.",
      "time": "2013-01-03T21:19:59",
      "id": "754898261"
    },
    {
      "threadId": "963224011",
      "post": "Good fucking god, too many hotness in one entry. \n\nOh, and if you like Tom Hardy, I bet you would like Logan Marshall-Green as well. They're practically identical!!",
      "time": "2012-12-29T06:34:19",
      "id": "750305196"
    },
    {
      "threadId": "988883807",
      "post": "Haha, based on those pictures, looks like you had a great time! Was there karaoke involve? I love karaoke >.<",
      "time": "2012-12-29T06:10:27",
      "id": "750289749"
    },
    {
      "threadId": "970132490",
      "post": "Oh my goodness...I don't think I've ever seen so much work and creativity put into those blog awards. Did you illustrate them yourself? If so, they are all so adorable and you did an amazing job because when I looked at the last award, the first thing I thought of was Nyuu and how it looked so much like her. TURNS OUT IT IS HER.\n\nSooo cute...I want to see moar! :P",
      "time": "2012-12-12T09:33:02",
      "id": "733785413"
    },
    {
      "threadId": "967041850",
      "post": "SARAH Y U ALWAYS HAVE FUN ALL THE TIME?\n\n\nI love all of these pictures! Keep on partying hard ;)",
      "time": "2012-12-11T19:17:21",
      "id": "733357356"
    },
    {
      "threadId": "941492795",
      "post": "Those boots/heels are LOVELY and super sexy! Wow, and you even got an amazing deal out of it! \n\nCute silly face you have there. Love the septum piercing! Also, glad you're back to blogging again! Blog more!",
      "time": "2012-12-11T18:52:22",
      "id": "733339200"
    },
    {
      "threadId": "957290761",
      "post": "I love your drive and motivation to stay in good shape. This post should inspire everybody including myself to be a lot more active and healthy. Keep up the good work. You look GREAT! :)",
      "time": "2012-12-05T21:27:29",
      "id": "728682969"
    },
    {
      "threadId": "912960812",
      "post": "Haha oh god >< Perhaps you weren't close to your dad at the time since it seemed like you were taking it pretty easy and you guys end up laughing about it. But had that been me, I think there'd be some emotional and psychological damage, to find out, at such a young age, that my dad has passed away. And then to find out that he's really not, but just separated from my mom. Man, I'd give her so much shit for it. Lol.",
      "time": "2012-11-09T05:36:15",
      "id": "705332474"
    },
    {
      "threadId": "875650956",
      "post": "Nail polish!!!! I'm crazy about those glittery ones (I love glitter nail polish xD)--I'd love to see how they look like on nails.\n\nI'm not sure about the Peach Fuzz though. I don't know if it's just my monitor, but the color matches your skin so it looks like you're not wearing anything at all. I think that color would be more suitable for people with a lighter skin tone.\n\nCute eye shadow colors! My eye shadow collection has been more on the bland side (using \"safe\" colors just as black and brown), so it'd be nice to get something pink and fun.",
      "time": "2012-11-07T18:24:46",
      "id": "703024040"
    },
    {
      "threadId": "863017818",
      "post": "Haha very cute header. It's a robot blowing a bubble right? I dig it.",
      "time": "2012-10-06T02:40:21",
      "id": "672928836"
    },
    {
      "threadId": "865496011",
      "post": "Haha wow, that was intense...I almost thought you were talking about a former lover or something. You got me. :P",
      "time": "2012-10-06T02:39:19",
      "id": "672928373"
    },
    {
      "threadId": "851473999",
      "post": "The Cure is a really great band. Even though their songs have been out for a while, I still haven't grown tired of them yet.",
      "time": "2012-09-20T17:31:47",
      "id": "656820983"
    },
    {
      "threadId": "848568684",
      "post": "What a great makeover! I've been saving and liking Pinterest pictures, but I don't think I've tried any of the DIY yet. I think it's time ><",
      "time": "2012-09-19T15:56:50",
      "id": "655667217"
    },
    {
      "threadId": "788240231",
      "post": "Totally with ya. Adulthood scares the hell out of me. Lucky for you, you're only 20. That's still very young. You still have plenty of time to be a \"kid\". ;)",
      "time": "2012-08-08T04:08:43",
      "id": "613124939"
    },
    {
      "threadId": "780336099",
      "post": "Penguinnnnn!<3 Such a cute name for such an adorable dog!",
      "time": "2012-07-31T20:18:20",
      "id": "605040943"
    },
    {
      "threadId": "756814747",
      "post": "I wish I was that creative to do something like that. I have books, but the only way I know how to arrange them is like how a typical library shelf haha.",
      "time": "2012-07-17T04:27:04",
      "id": "589881160"
    },
    {
      "threadId": "765846510",
      "post": "I don't own any scented lotions simply because they make me sneeze haha. Also, I have pretty tough, dry skin and the ones that seem to work on me the best are the non-scented kinds. I think the scented ones are more for show/smell.",
      "time": "2012-07-17T04:14:39",
      "id": "589875853"
    },
    {
      "threadId": "761356954",
      "post": "This is so sad. I'm so sorry to hear your loss. :(",
      "time": "2012-07-17T03:57:38",
      "id": "589868654"
    },
    {
      "threadId": "746186088",
      "post": "Wow! You look so different with your hair out of the picture, I didn't recognize you there for a second. Those lashes look really awesome on you! They're very fitting and you can pull them off well. :D",
      "time": "2012-07-06T05:03:44",
      "id": "577797935"
    },
    {
      "threadId": "743011730",
      "post": "Hahaha cats are so funny.\n\nShelly is awesome and totally adorable. Looks like she likes attention :P",
      "time": "2012-06-29T07:43:22",
      "id": "571479844"
    },
    {
      "threadId": "741677648",
      "post": "Hell yeah, I would totally rock that necklace! It's beautiful! Dailylook sounds like a pretty cool nifty idea. Thank you for linking! I'm going to check em out :D",
      "time": "2012-06-27T03:03:42",
      "id": "568267928"
    },
    {
      "threadId": "737474717",
      "post": "Everything about you is so adorable, including the lovely dress!\n\n\nAre you nocturnal btw? o.O",
      "time": "2012-06-27T02:30:59",
      "id": "568196920"
    },
    {
      "threadId": "737244938",
      "post": "I'm with Sarah, those shoes are hotttt. ;)",
      "time": "2012-06-23T05:02:39",
      "id": "565145078"
    },
    {
      "threadId": "728376637",
      "post": "Don't get me wrong, I LOVE how eyelashes look on me, I love what they do my eyes...but I haaaaaaate wearing them and applying them. It's just not worth it anymore. I never tried bottom lashes before, I cant imagine how that would feel. But they do look great on you! You should definitely consider wearing it out to public :)",
      "time": "2012-06-16T17:56:53",
      "id": "559912350"
    },
    {
      "threadId": "717232923",
      "post": "DAYUM, you're right, who is that mighty fine security guard? And why is that bratty kid wearing what seems to be a rhinestone encrusted skull mask?",
      "time": "2012-06-09T22:01:25",
      "id": "553454703"
    },
    {
      "threadId": "715517560",
      "post": "You're right, it's important to take breaks. I have two different jobs (one internship), one caters to the customers and patients. And because we're so understaffed, it's extremely hard for me to take a break because of those customers. Sometimes, you're just obligated to tend to them first before taking a break, which is never haha.\n\n\nBut my other job is more \"behind-the-scenes\" and we never have to deal with customers. 'Cause of that, I take a lot of breaks and breathers here and there. It's really nice, both mentally and psychically. :)",
      "time": "2012-06-09T21:59:18",
      "id": "553453836"
    },
    {
      "threadId": "713935323",
      "post": "WHOA BABY. You lived like royalty. Every picture is so beautiful and fancy and amazing and beautiful and beautiful! \n\nOh, did I mention they're beautiful too? I am obsessed with the interior design and the view of the vineyard. Absolutely stunning.",
      "time": "2012-06-09T21:50:38",
      "id": "553449867"
    },
    {
      "threadId": "716310140",
      "post": "Shelly is such a gorgeous looking cat. And her green eyes are so hypnotic O.O\n\nWhat'sup with cats and keyboards? Why do they like sitting on them so much? ><\n\nEither way, I find it both comical and adorable. :D\n\nMore pictures of Shelly plz!",
      "time": "2012-06-09T21:48:50",
      "id": "553449006"
    },
    {
      "threadId": "712987543",
      "post": "I think buying new clothes and things for a new year of school is more exciting when you're younger because usually your parents are the ones who are paying them for you haha.\n\nOmg YOUR WALLET, I WANT IT SO BAD!\n\nAlso, that bag, I want it too. I love your taste girl!",
      "time": "2012-06-09T21:43:23",
      "id": "553446376"
    },
    {
      "threadId": "710180480",
      "post": "I've never thought of freezing grapes. I love grapes, and I'm so willing to give it a shot by putting them in the freezer overnight. It does sound kind of fun ;)\n\nThanks for the awesome idea! :D",
      "time": "2012-06-05T02:15:01",
      "id": "547485597"
    },
    {
      "threadId": "708780007",
      "post": "Thanks for writing such an informative review! I really don't take good care of my skin, but really I should start caring. Your post is a good place to start. ;)",
      "time": "2012-05-31T16:34:33",
      "id": "543950705"
    },
    {
      "threadId": "703579361",
      "post": "Ahahaha, that's really awesome that you got to try Shwarma. The pronunciation of the word, alone, sounds pretty comical as it is. And I've been wanting to try it because of The Avengers. They make it looks so good in the last scene. :(\n\n\nYurp, thanks to you, I am officially craving for macarons. Sadly, I have only tasted bad macarons here in my area, so I'm definitely macaron-deprived :(",
      "time": "2012-05-30T05:34:44",
      "id": "541596100"
    },
    {
      "threadId": "700466608",
      "post": "You and your goddamn awesomefied trips! Take me with you plz? xD",
      "time": "2012-05-30T05:29:33",
      "id": "541594335"
    },
    {
      "threadId": "697704451",
      "post": "Oh my god! This is marvelous. Prada has always made beautiful, unique sunglasses. I'm definitely going to get my hands on these.",
      "time": "2012-05-22T02:41:03",
      "id": "534988862"
    },
    {
      "threadId": "695002132",
      "post": "Haha Sarah, you are SUCH a party animal! I love it. There's no happy medium with you. It's like either you are really deep into your work when you're working, or you're partying it up. What a life!",
      "time": "2012-05-18T17:21:19",
      "id": "532272473"
    },
    {
      "threadId": "692781205",
      "post": "Oh my god, that sounds so terrifying! I really hope you're alright now and I hope that doesn't happen again. You know, I'm really just disappointed in people. I've read an article where a woman was being raped in broad daylight in the middle of a very public area. Nobody did anything. They just walked pass her and continued along. There was a homeless man who was having a heart attack and he called out for help in the middle of a busy street. Nobody did anything either. People are either scared or selfish to stop and help another stranger. It's just really disappointing :(",
      "time": "2012-05-18T17:16:00",
      "id": "532267619"
    },
    {
      "threadId": "692067505",
      "post": "Whoa! All those nail polish colors look quite intriguing. It looks like most of them are more of a soft or flesh tone, and I love that :)\n\nYay it's good to hear that you're almost done with grad school! I'm sure it must be exciting for you!",
      "time": "2012-05-18T16:51:48",
      "id": "532245418"
    },
    {
      "threadId": "681996630",
      "post": "I do the same thing with those kind of dresses too. I have something very similar to your dress but with a black collar, and because I'm really not a fan of the skirt part of the dress, I turn it into top by adding a, coincidentally, brown skirt over it.\n\nAlso, is your hair real or a wig? Either way, it's great and you pull it off well!",
      "time": "2012-05-16T08:10:48",
      "id": "530047656"
    },
    {
      "threadId": "690041164",
      "post": "You're the cutest! That bunny ear is adorable, I'd definitely wear it :D",
      "time": "2012-05-16T08:08:51",
      "id": "530046566"
    },
    {
      "threadId": "683831850",
      "post": "I was never a fan of any of the COD, I really love most of their trailers though, a lot of them are really fun and creative. \n\nBut Skyrim on the other hand looks hecka fun. Been watching a lot of people play it on stream, if my computer had better graphics, I would consider purchasing the game haha.",
      "time": "2012-05-16T07:33:27",
      "id": "530028918"
    },
    {
      "threadId": "672007978",
      "post": "Oh man...this entry really reminds me of the time I bought Gucci sunglasses for my mom for Mother's Day a few years back. She ended up leaving her Gucci in her case at the bus bench on accident. Some extremely lucky person has those Guccis. I'm sad now :(",
      "time": "2012-05-16T07:30:18",
      "id": "530027106"
    },
    {
      "threadId": "663778251",
      "post": "Yeah, Old Navy is pretty good when it comes to quality. I actually didn't know they even sold jewelry! That's pretty new to me. And those jewelry you bought look really, really cute as well :)\n\n\nI'm in love with the pink bracelet! omg.",
      "time": "2012-04-27T07:49:02",
      "id": "511075893"
    },
    {
      "threadId": "664322468",
      "post": "That sounds very exciting and it's really awesome to hear that you'll get to participate in such a fun event. Hope you have fun and good luck!!!",
      "time": "2012-04-27T04:22:06",
      "id": "510715217"
    },
    {
      "threadId": "658178559",
      "post": "I recently read your \"about\" page and it's really awesome and quite impressive that you're working on your masters! May I ask what you are currently studying for?\n\nWhen I use to go to school, every time I try to do my work at home, I always get so easily distracted because I'm in the comfort of my own home! I have a lovely bed, computer, TV, just everything. That's why I try to finish my work at the library, that way, I'd feel more incline to finish so I can get home. :PGood luck with your papers and studying!",
      "time": "2012-04-23T02:17:37",
      "id": "506506203"
    },
    {
      "threadId": "657616736",
      "post": "Growing is definitely a scary thing. I wish someone had told the child-version of me that I should enjoy my life while I'm young, because when you become an adult, it gets a little tougher. ;)",
      "time": "2012-04-21T03:22:52",
      "id": "504935127"
    },
    {
      "threadId": "657680182",
      "post": "Pinterest has been getting so big and I know I should get into it but it's so hard to get into something that's so unfamiliar to me. The first time I visited that website, I thought it was so messy and similar to a Vegas casino...it was just messy! That I left. \n\n\nBut I'm really glad that you posted these links. I'm sure it'll make me think again about the possibility of joining, after all I do have an invite, the hard part is just adapting to new things.",
      "time": "2012-04-21T03:12:12",
      "id": "504921173"
    },
    {
      "threadId": "642774524",
      "post": "I'm definitely more into, well, ALL seasons! Though, I think I'm slightly more into Winter/Autumn because I love wearing scarves and hats. When it's hot, you have to wear less, so it's not as fun I suppose.\n\n\nI love your style! It's so fun and whimsical. :)",
      "time": "2012-04-13T18:32:43",
      "id": "496520845"
    },
    {
      "threadId": "642844556",
      "post": "This is actually a VERY good post idea. If my life was interesting enough, I'd make a post about it hahah.\n\nIt's funny that you have a picture of your trainer. He looks kinda cute!",
      "time": "2012-04-10T15:10:36",
      "id": "493313668"
    },
    {
      "threadId": "643545137",
      "post": "Ughhhhhhhh that simply sucks. I don't know what I'd do if that happened to me, if it continues I would hide a webcam or something behind the bushes. Or, if I had all the time in the world, I'd leave a nice looking packing at my door step, and watch intently behind the curtains.\n\nI would like to catch this son of a bitch first before doing anything else.\n\nI'm getting mixed feelings about leaving a fake package. It would either make the perpetrator stop in complete disgust, or add more fuel to the fire.  If you leave poop in there and the person is crazy enough, they can smear said poop against your door or something. So just be careful and I hope that crazy person stops taking your packages!",
      "time": "2012-04-10T15:06:29",
      "id": "493309783"
    },
    {
      "threadId": "641332134",
      "post": "Awwwwww that was such a sweet post. \n\nAfter I read the pushing away party, it automatically reminded me about me and my boyfriend. He needs his space, so every time I try to cuddle up with him, he pushes me away, saying he needs his space! But I usually come back and he either giggles or just pushes me away again lol.\n\nMen!",
      "time": "2012-04-10T14:59:49",
      "id": "493303365"
    },
    {
      "threadId": "703543530",
      "post": "Nice! I'm loving all your photos in this post, regardless that your awesome camera is on auto-mode. I also upgraded my camera very recently so I know how you feel. I first had a regular point-and-shoot (just like your old one), and now purchased a better camera that has a lot more settings. I also use auto-mode just because I'm still new to this whole photography thing :P\n\n\nAlso, your cat is beautiful!",
      "time": "2012-04-08T01:17:30",
      "id": "490951403"
    },
    {
      "threadId": "635853428",
      "post": "I'm definitely crazy about the first picture. I love the collar on it, the polka dot patterns and the colors. Perfect! ",
      "time": "2012-04-07T17:56:00",
      "id": "490565222"
    },
    {
      "threadId": "634392465",
      "post": "Hahaha WHAT--Best Wordpress glitch ever! Did you ever figure out why and how that kitty popped up? \n\n\nAwww I love butterflies! I love that it's in a jar, makes it look kind of vintage :P\n\nI love that last picture of you! Really digging your sens of style, and DAT HAIR. :D\n\nI'm the same way with my blog. I stopped posting personal entries because it's so easy to google anybody, and I'm sure if anybody from real life wanted to find me on the internet, they can totally find my blog if they simply type my first name in the search engine. Because of that, I've stopped. .And now most of my old private entries are set to PRIVATE. It's sad because those entries are one of the best and/ entertaining entries I've written, but now it's just too personal for public :(",
      "time": "2012-04-04T05:55:17",
      "id": "485402268"
    },
    {
      "threadId": "630430672",
      "post": "That's a very good idea. Thank you for the tip!",
      "time": "2012-03-31T01:25:14",
      "id": "481404372"
    },
    {
      "threadId": "7483848",
      "post": "Hahah...the cat has to be photoshopped right? If it isn't, Ima save this photo!!",
      "time": "2008-11-25T05:17:00",
      "id": "4000688"
    },
    {
      "threadId": "7419197",
      "post": "ummmmm LOL.",
      "time": "2008-11-23T22:48:16",
      "id": "3974230"
    },
    {
      "threadId": "6636500",
      "post": "Haha, I'm so with you there on numbers 4, 7, and 8.\r\n\r\nBtw, Helga showed me the makeover photo you did of me. And I loved it! You did a fantastic job. Thanks =)",
      "time": "2008-11-08T20:21:37",
      "id": "3627034"
    },
    {
      "threadId": "214121",
      "post": "Hey Paul, thanks for the theme! I am loving it!\r\n\r\nHowever, how can I make my comments show on the front page. (ex: 0 comments, 1 comment, etc)?",
      "time": "2008-11-05T18:33:47",
      "id": "3555478"
    },
    {
      "threadId": "6667386",
      "post": "test, test",
      "time": "2008-11-05T18:29:07",
      "id": "3555382"
    }
  ],
  "profileInfo": {
    "username": "tiffanytumblr",
    "about": "",
    "name": "tiff",
    "disable3rdPartyTrackers": false,
    "isPowerContributor": false,
    "isAnonymous": false,
    "rep": 1.2613729999999999,
    "profileUrl": "https://disqus.com/by/tiffanytumblr/",
    "url": "http://tiffsbloggy.com",
    "reputation": 1.2613729999999999,
    "location": "",
    "isPrivate": false,
    "signedUrl": "http://disq.us/?url=http%3A%2F%2Ftiffsbloggy.com&key=G_wBJzeJ414CV8HG3S3eOw",
    "isPrimary": true,
    "joinedAt": "2008-10-28T04:48:32",
    "id": "130292",
    "avatar": {
      "small": {
        "permalink": "https://disqus.com/api/users/avatars/tiffanytumblr.jpg",
        "cache": "//a.disquscdn.com/uploads/users/13/292/avatar32.jpg?1371000756"
      },
      "isCustom": true,
      "permalink": "https://disqus.com/api/users/avatars/tiffanytumblr.jpg",
      "cache": "//a.disquscdn.com/uploads/users/13/292/avatar92.jpg?1371000756",
      "large": {
        "permalink": "https://disqus.com/api/users/avatars/tiffanytumblr.jpg",
        "cache": "//a.disquscdn.com/uploads/users/13/292/avatar92.jpg?1371000756"
      }
    }
  }
}