{
  "comments": [
    {
      "threadId": "3986303882",
      "post": "Ok, no, really, I'm coming back soon.  :)",
      "time": "2015-09-18T23:33:02",
      "id": "2261545041"
    },
    {
      "threadId": "1369302898",
      "post": "Btw, Adrian, when I tried to open one of the patches you make available, I got an error message -- however, I'm assuming it's because I'm using a pretty old version of Reason (4.0, ha!).  Does that sound right?",
      "time": "2014-01-07T04:04:30",
      "id": "1190004907",
      "parentPost": "Hi GarageSpin - thanks for letting us know. We did have an issue with audio on some of our pages. That was fixed yesterday, and the audio is working for me now.",
      "parentPostTime": "2014-01-06T23:03:59",
      "parentPostId": "1189713411"
    },
    {
      "threadId": "219821134",
      "post": "The nods apparently did not produce many Oscars.  Ah well.  At least a Social Network rap resulted from it:\nSocial Network rules.  Have you seen the social network rap?  http://www.garagespin.com/music/zuck-on-facebook/",
      "time": "2011-03-01T03:14:07",
      "id": "158056622"
    },
    {
      "threadId": "241971138",
      "post": "Social Network dropped the ball.  But have you seen the social network rap?  http://www.garagespin.com/music/zuck-on-facebook/",
      "time": "2011-03-01T03:10:47",
      "id": "158055274"
    },
    {
      "threadId": "240930074",
      "post": "Social Network rules.  Have you seen the social network rap?  http://www.garagespin.com/music/zuck-on-facebook/",
      "time": "2011-03-01T03:00:26",
      "id": "158051025"
    },
    {
      "threadId": "206041741",
      "post": "Great resolutions, Taylor.  Inspiring, actually.  I've yet to create any, and was thinking of settling on something as mundane as \"Lose 10 pounds\".  :D  I now need to re-think everything...especially the whole focus on \"doing\".  Thanks for sharing, and best of luck!",
      "time": "2011-01-10T04:03:42",
      "id": "126691867"
    },
    {
      "threadId": "65269305",
      "post": "Thanks, Barb!  It's an honor and a privalege.  :)",
      "time": "2010-02-09T16:14:05",
      "id": "33267431"
    },
    {
      "threadId": "43378466",
      "post": "Great, great post.  All I did for Halloween was paint walls...sadly, no faces...and no zombie patterns...  But really, kudos doing DOING it.  :D  Thanks for sharing!",
      "time": "2009-11-03T21:45:12",
      "id": "21786855"
    },
    {
      "threadId": "37415221",
      "post": "I'm looking forward to hearing about your next venture, as I've really enjoyed the many photos from all your travels.  There are an incredible number of books that could be written just from your last year's worth of experiences.  :)\n\nBtw, \"social captial\" sounds soo much better than \"couch-crashing\".  ;)  Just kidding.",
      "time": "2009-10-05T04:23:06",
      "id": "18538108"
    },
    {
      "threadId": "18037931",
      "post": "This widget look awesome!  Have you considered adding the option of requiring fans to submit email addresses to get free downloads?  (Bandcamp and Reverbnation do this...)\r\n\r\nThanks!\r\n\r\n-Mike",
      "time": "2009-07-12T13:33:52",
      "id": "12538872"
    },
    {
      "threadId": "22123118",
      "post": "Agreed.  This was THE biggest reason I stopped using SoundCloud.  Now, you may very well see sound cloud widgets at http://www.GarageSpin.com/Music in the near future...\r\n\r\nNice work, guys.",
      "time": "2009-07-01T01:53:21",
      "id": "11955709",
      "parentPost": "Droping already uploadet tracks in someones Dropbox was on my wishlist!\r\n\r\nThanks again!",
      "parentPostTime": "2009-06-18T16:12:26",
      "parentPostId": "11103518"
    },
    {
      "threadId": "11927226",
      "post": "Good question.  What's required to turn a simple expressed opinion into an argument?\r\n\r\nA one-punch, one-knockout boxing match would be deemed a \"fight\"; but then, both approaches were premeditated...  \r\n\r\nSome day, I'd like to hear the 'dispute' story.  Perhaps when you're in town, next?  :)",
      "time": "2009-04-07T12:22:25",
      "id": "7935169",
      "parentPost": "An international dispute needn't come to arms.  Oddly, I've come close on this one :)\r\n\r\nDoes a fight require an exchange by definition?",
      "parentPostTime": "2009-04-07T04:08:08",
      "parentPostId": "7929483"
    },
    {
      "threadId": "12022811",
      "post": "I raise my (virtual) glass to that last statement.  May the world be a simpler place, even as it becomes more complex.",
      "time": "2009-04-07T03:51:41",
      "id": "7929226",
      "parentPost": "Luckily, I think we're reaching a bit of a shift in attitude and behavior, looking for simplicity, ease of use and real impact rather than merely a grasping for more, better, etc; we see this as a core reason behind many technologies today: Flip video cameras, iPhone (and Apple in general), netbooks, simple, stream-lined web services, etc.  Bloated products (hardware and software) lead to thin wallets, oversized expectations and overblown value.\r\n\r\nThe interesting question: where is the edge?  Is it striving for \"more\", \"less\", \"more with less\", etc...  I believe there's a frame here that we will see spread from the web echochamber to a broader swath of life...  I hope :)",
      "parentPostTime": "2009-04-06T03:00:51",
      "parentPostId": "7892804"
    },
    {
      "threadId": "14703656",
      "post": "I shudder to imagine the volts of electricity I'd feel coursing through my veins while presenting a power point deck at work.  :)\r\n\r\nLet he who is innocent cast the first stone.",
      "time": "2009-04-03T01:21:31",
      "id": "7766385",
      "parentPost": "At least they're not using the term \"out of the box\" :)\r\n\r\nI'm probably in danger of the same thing myself...",
      "parentPostTime": "2009-04-02T20:12:05",
      "parentPostId": "7756956"
    },
    {
      "threadId": "14387799",
      "post": "Glenn, that's fantastic.  I've been a long time Coolfer reader, and yours was always one of the smartest, bullsh#t-less music blogs in the industry.  Good luck!\r\n\r\n-Mike",
      "time": "2009-03-26T01:36:45",
      "id": "7510899"
    },
    {
      "threadId": "11927256",
      "post": "Pretty interesting, thanks for the tip.  At least they were still married face-to-face...",
      "time": "2009-03-20T17:11:21",
      "id": "7377914",
      "parentPost": "I don't think we're that far off... people have met over Twitter and then gotten married integrating Twitter into a traditional ceremony.  <a href=\"http://twitter.com/gwenbell\">@gwenbell</a>'s wedding is one example: details on the <a href=\"http://www.gwenbell.com/2009/03/07/life-is-but-a-stream-tweetheart/\">use of Twitter during the wedding</a>...",
      "parentPostTime": "2009-03-20T16:12:59",
      "parentPostId": "7375456"
    },
    {
      "threadId": "12022914",
      "post": "No, I still need to see that...  :)",
      "time": "2009-03-20T17:07:49",
      "id": "7377837",
      "parentPost": "Somewhat related.. ever watched the Tao of Steve?",
      "parentPostTime": "2009-03-20T16:14:57",
      "parentPostId": "7375616"
    },
    {
      "threadId": "11927246",
      "post": "Well said.  ",
      "time": "2009-03-20T02:54:33",
      "id": "7364706",
      "parentPost": "At first I was about to say my most unhappy moments, mistakes I've done, really bad memories, things I wish never happened, situations which I would have handled differently...\r\n\r\nBut then I realized I wouldn't want to forget anything, because the memories I don't like made me to the person I am today. ",
      "parentPostTime": "2009-03-11T23:05:57",
      "parentPostId": "7114337"
    },
    {
      "threadId": "12020530",
      "post": "Even the photo makes me very, very afraid...",
      "time": "2009-03-20T02:49:57",
      "id": "7364624",
      "parentPost": "my stomach hated me for a couple days after eating this...",
      "parentPostTime": "2009-03-12T20:37:18",
      "parentPostId": "7151766"
    },
    {
      "threadId": "12022931",
      "post": "Please now explain the \"Million Dollar Home Page\" phenomenon.  :)",
      "time": "2009-03-20T02:48:54",
      "id": "7364614"
    },
    {
      "threadId": "11927183",
      "post": "So, so true.  I constantly feel like I'm falling behind.  Noone can be up-to-date and up-to-speed with every idea, trend, and concept that the collective masses produce every day/hour/minute.  Progress is crowdsourced, and we are individuals.  It's best to be proud to be a part of it all...in that sense, we're never behind, but are indeed contributors to the movement forward.",
      "time": "2009-03-20T02:45:33",
      "id": "7364559",
      "parentPost": "I had a fascinating conversation about this topic the other night; perhaps I should explain that yes, I feel like I am always \"falling behind\".\r\n\r\nBut I don't want to fix that by \"catching up\".  I want to fix that by focusing on the present, ridding myself of the belief that I'm falling behind, convincing myself that I am exactly where I am meant to be.",
      "parentPostTime": "2009-03-12T15:40:43",
      "parentPostId": "7140700"
    },
    {
      "threadId": "11927232",
      "post": "Security, and possibly also familiarity, make up \"home\" for me.  Great question.",
      "time": "2009-03-20T02:28:14",
      "id": "7364304",
      "parentPost": "Expanding on your last sentence, perhaps it's not just comfortable and free, but also secure?",
      "parentPostTime": "2009-03-19T21:48:18",
      "parentPostId": "7358262"
    },
    {
      "threadId": "12022757",
      "post": "Death always scares me.  It always has.  Partly for myself, and partly for the loved ones I'd be leaving behind.  True, \"where\" doesn't matter nearly as much as how or with whom.  I think I'd really just hope to have been able to say \"I love you\" to the people that matter to me most, and make sure they understand how important they were to me.",
      "time": "2009-03-20T02:20:12",
      "id": "7364169"
    },
    {
      "threadId": "12022730",
      "post": "Love the 4th bullet above.  People can so fear what lies behind the Oz curtain.  I count myself among them.  Which is why it's been great to follow your adventures.",
      "time": "2009-03-20T02:16:40",
      "id": "7364118"
    },
    {
      "threadId": "13838394",
      "post": "Enjoy!  I wish I could join.",
      "time": "2009-03-19T02:04:55",
      "id": "7332508"
    },
    {
      "threadId": "13482282",
      "post": "Thanks, Glenn.  TicketMaster never seems to disappoint when it comes to disappointment.  It's pretty disgusting. ",
      "time": "2009-03-12T00:46:24",
      "id": "7116745"
    },
    {
      "threadId": "13384006",
      "post": "Awesome.  I've been excited for this project, and look forward to seeing what you come up with.  :)",
      "time": "2009-03-11T12:37:28",
      "id": "7097849"
    },
    {
      "threadId": "12926827",
      "post": "The images we initially create are impressionist mosaics feeding off what we've heard or seen second hand about that place.  Socially exchanged images are far more accurate than those created by marketing machines.  If you're a tourist that's fallen in love with a tourist location because you've seen it in a tourist mag, chances are you only know an idealistic, heightened version of the spectrum of realities that are actually experience-able in that place.   A friend's description may be more truthful, since it's unbiased, but is again an impression created through someone else's lens, at a particular point in time.\r\n\r\nThat's why I'm all about lowering expectations.  (My wife and I did that for our trip to Antigua, and had an amazing time, despite less-than-ideal circumstances..!)",
      "time": "2009-03-04T03:46:35",
      "id": "6857792"
    },
    {
      "threadId": "11882479",
      "post": "Taylor, please be careful...if this catches on, there may be 1) less friends' homes at which you can stay, because they're all across the county traveling nomadically (sp?), 2) more traffic, for the same reason, and 3) many, many more people sleeping on my couch in the coming months.\r\n\r\nOn the other hand, the widespread automobile usage increase may provide another \"bailout\" of sorts to the ailing auto industry.",
      "time": "2009-02-16T01:23:07",
      "id": "6287605"
    },
    {
      "threadId": "9636783",
      "post": "I hope not much was lost during said week..?",
      "time": "2009-02-09T01:34:47",
      "id": "6104279"
    },
    {
      "threadId": "9769512",
      "post": "(Catching up...)  I like your interpretation.  I feel _much_ better about my lack of having finished anything in two years, musically.  Though at this point, I'm hoping to have less such \"evidence\" of my good taste.  ;)",
      "time": "2009-02-09T01:33:35",
      "id": "6104268"
    },
    {
      "threadId": "11145306",
      "post": "Great post.  I read this right after having spent four hours browsing through a 1/2-lifetime's worth of accumulated \"stuff\" in my parents' basement.  (They're moving, and have politely asked me to remove the college textbooks, transformer, cassette tapes, etc etc.)  My parents too, are now trying to shrink their physical presence in order to fit their house-lives into a new apartment-life.  It's amazing how much you can accumulate...when you have room in which to store things.",
      "time": "2009-02-08T23:50:08",
      "id": "6101730"
    },
    {
      "threadId": "10240327",
      "post": "No doubt, two heads ARE better than one.  Even only with Taylor's head silhouette on my chest, I already smarter.  :)",
      "time": "2009-01-24T04:17:31",
      "id": "5509555"
    },
    {
      "threadId": "7471259",
      "post": "Great to hear, Taylor.  I'm looking forward to seeing what visual and philosophical candy you come up with...",
      "time": "2008-11-25T04:13:27",
      "id": "3999288"
    },
    {
      "threadId": "6033186",
      "post": "Great thoughts above.  Some kind of central platform will always be needed to create a centralized directory of images buyers can access.  A photographer-hosted system would still need a way to feed image content into a central repository for 24/7 browse-ready capability.  At the very least, we're talking about a Bloglines/Google Reader for images that doubles as a searchable online catalog and ecommerce engine.  Perhaps a content directory powered by photographer-submitted RSS feeds is the next evolution in the space.  That would then be independent of the hosted/non-hosted debate, since either could apply.  Patent pending.  :)  (Perhaps it already exists.)  Even then, media management would be an issue.\r\n\r\nWordpress, Movable Type, Blogger, etc, were revolutionary because they enabled web publishing for non-coders, for free.  Wordpress then attracted users in droves because it enabled web design for non-designers in the form of free site templates, and software development for non-developers in the form of plugins, again, for free.  Increasing user scale led to more motivated developers, which has further led to an upwards spiral of usage.  Is the \"obstacle\" in this case painful enough, and is the \"enabling benefit\" strong enough, to drive mass adoption of an open source solution?  Or would most aspiring and/or accomplished \"pro\" photographers be interested in focusing on photography, rather than technology?  I lean towards Allen's comment above in thinking that the volume of photographers \"desiring\" the ability to host, manage, and distribute their own content may not be sufficient to economically support an API model, or an open source community that might develop one.  But then, we all might have said that about open source in general in the 1990s.\r\n\r\nIt's interesting to note that Automattic (the for-profit company managing Wordpress software), in an over-simplified nutshell, leverages the open source community (centered around Wordpress.org) to develop and enhance its core software, but generates revenue through upgrades and premium services offered to users of its free, hosted community at Wordpress.com (which uses its core software).\r\n\r\nI seem to be rambling a bit, and will now stop.",
      "time": "2008-10-22T04:28:51",
      "id": "3222452"
    },
    {
      "threadId": "4902788",
      "post": "Excellent stuff, Taylor.  Reflecting back on my career, I've been most guilty of 2, 22, and 24; interestingly enough, 24 can cause 22, which can cause 2.  Hm, pattern?  :)\r\n\r\nYeesh.  It's all too simple to focus on swerving around a sea of smaller roadblocks and miss and exit to a 4-lane highway.\r\n\r\n",
      "time": "2008-10-01T02:51:48",
      "id": "2771313"
    },
    {
      "threadId": "3654071",
      "post": "Great pics.  Pretty eerie place...sort of peacefully sad.  Do all 11 residents work at the Municipal building?  ",
      "time": "2008-08-24T23:02:05",
      "id": "1804728"
    },
    {
      "threadId": "1893560",
      "post": "Congrats on the NBC coverage!!",
      "time": "2008-07-20T05:24:45",
      "id": "947391"
    }
  ],
  "profileInfo": {
    "username": "garagespin",
    "about": "DIY songwriter, online marketer, media junkie, and dad-to-be.",
    "name": "GarageSpin",
    "disable3rdPartyTrackers": false,
    "isPowerContributor": false,
    "isAnonymous": false,
    "rep": 1.2245679999999999,
    "profileUrl": "https://disqus.com/by/garagespin/",
    "url": "http://www.GarageSpin.com",
    "reputation": 1.2245679999999999,
    "location": "Harrison, NY",
    "isPrivate": false,
    "signedUrl": "http://disq.us/?url=http%3A%2F%2Fwww.GarageSpin.com&key=EOLw1CVIdjQZVfzU83_OGQ",
    "isPrimary": true,
    "joinedAt": "2008-08-09T05:21:01",
    "id": "79404",
    "avatar": {
      "small": {
        "permalink": "https://disqus.com/api/users/avatars/garagespin.jpg",
        "cache": "//a.disquscdn.com/uploads/users/7/9404/avatar32.jpg?1388297680"
      },
      "isCustom": true,
      "permalink": "https://disqus.com/api/users/avatars/garagespin.jpg",
      "cache": "//a.disquscdn.com/uploads/users/7/9404/avatar92.jpg?1388297680",
      "large": {
        "permalink": "https://disqus.com/api/users/avatars/garagespin.jpg",
        "cache": "//a.disquscdn.com/uploads/users/7/9404/avatar92.jpg?1388297680"
      }
    }
  }
}