{
  "comments": [
    {
      "threadId": "632680499",
      "post": "I like Mondo and his aesthetic. If I were ten years younger, I'd wear his clothes. But if he wins All Stars, does anyone else see possible parallels with Richard Blaise from Top Chef and his redemption narrative? (Both were the favorites in their respective seasons, and the competition was theirs to lose, so to speak. And both lost to female contestants.) It just seems rather... predictable. ",
      "time": "2012-03-16T21:41:03",
      "id": "467296193"
    },
    {
      "threadId": "460382092",
      "post": "I've been primarily a music blogger for most of my online life, and people, once they finally meet me in real life, are always shocked that I'm mostly a homebody who listens to folk music.\n\nOn a more serious note, I hide the fact that I'm a slow, deliberate writer who's not all that fluid and spends more time editing and deleting than writing. I totally envy those who can crank out 2000 word screeds in less than an hour. ",
      "time": "2011-11-03T14:36:12",
      "id": "354745601"
    },
    {
      "threadId": "402301764",
      "post": "I have the palate of Homer Simpson, apparently. Not a whole lot grosses me out, but the worst thing I've ever put in my mouth intentionally was probably spoiled soy milk after a four-day power outage. I'd been keeping perishables in a cooler, and naively thought keeping enough ice around it would prevent it from going bad (and also naively thought soymilk doesn't really go bad anyway). One sip and I spit it out, like projectile-style.",
      "time": "2011-09-02T14:29:17",
      "id": "301131921"
    },
    {
      "threadId": "361894278",
      "post": "Keren Ann's <i>101</i> and Patrick Wolf's <i>Lupercalia</i>. The latter <i>feels</i> like it should be a guilty pleasure, the 80s influence is so strong, but I love it nonetheless.",
      "time": "2011-07-19T16:52:27",
      "id": "257400883"
    },
    {
      "threadId": "244929679",
      "post": "I have a big crush on Liza, too, party because she looks a lot like one of my favorite aunts. Same haircut and those big, big eyelashes. <i>Cabaret</I> I've never seen all the way through, but <i>Liza With a Z</i> I've watched a bunch of times. Spellbound aptly describes my reaction, too.",
      "time": "2011-03-04T00:30:55",
      "id": "160106786"
    },
    {
      "threadId": "224682060",
      "post": "The Replacements' <i>Tim</i>. He had me at \"down on all fives...\"",
      "time": "2011-02-08T00:28:32",
      "id": "142256487"
    },
    {
      "threadId": "208106473",
      "post": "Gallimaufry, minutiae, amorphous, mellifluous... I like the way they look on paper. I like to \"collect\" words, though I have to be careful because my prose can go straight from purple to ultraviolet.",
      "time": "2011-01-13T00:27:53",
      "id": "128418196"
    },
    {
      "threadId": "200543272",
      "post": "I'm in St. Louis. Normally I love unexpectedly warm winter days. but this is too much and the wind's really kicking up right now.",
      "time": "2010-12-31T16:47:59",
      "id": "121893323"
    },
    {
      "threadId": "200094510",
      "post": "I'm in St. Louis also, and I definitely felt the one that hit a couple years ago. You live in the midwest, hear your windows rattling and automatically think, \"That's some wind,\" Until you look out the window and realize the trees aren't moving. Glad everyone's okay.",
      "time": "2010-12-30T21:18:40",
      "id": "121245805"
    },
    {
      "threadId": "198694855",
      "post": "I've had three years of French, which I haven't used in twenty years. I know enough to order food or ask for a bathroom (hopefully unrelated) if I ever go to France. \n\nMy dad's family is from Naples. I know a handful of Italian words (some not so nice). I wish I'd learned the language as a child, but I didn't know that side of my family well, and my dad being one of the younger kids didn't hear a lot of Italian growing up. (My older aunts and uncles can speak Italian fluently.) My grandparents stressed that their kids learn English, so by the time my dad was born not much Italian was being spoken, even at home.",
      "time": "2010-12-28T00:33:27",
      "id": "119967981"
    },
    {
      "threadId": "195854383",
      "post": "I like Google Books for those academic tomes that are long out-of-print or unavailable at my local library. (I'm a nerd.) I don't have a kindle and the thought of reading an entire book in my browser screams impending migraine to me. This is really the only thing that's stopping me from buying books in digital form.",
      "time": "2010-12-22T15:24:13",
      "id": "117024162"
    },
    {
      "threadId": "192381256",
      "post": "<i>there is no 100% agreed-upon date range for Gen. X, but in my completely arbitrary way, I define it as those who were young adults in the late 80s/early 90s.</i>\n\nI spent my teens in that weird twilight between the 80s and the 90s. I don't really identify with either generation, though I guess this makes me a young X-er. I feel a little too old for 90s pop culture, but far too young for 80s nostalgia. ",
      "time": "2010-12-16T23:05:31",
      "id": "113262135"
    },
    {
      "threadId": "192262833",
      "post": "The Daulerio takeovers just made me feel very very old and not at all nostalgic for my early web days when I tried too hard to be a \"guy's girl.\" (At least I could only draw ASCII art boobies on Usenet.)",
      "time": "2010-12-16T22:56:37",
      "id": "113260120"
    },
    {
      "threadId": "191077291",
      "post": "Wayne's World 2\n\nGranted this was during the mid 90s when every SNL character had a movie and a sequel, so I probably enjoyed more than I'd like to admit. As far as Mike Myers movie so, my \"guilty pleasure\" favorite is <I>So I Married an Axe Murderer</i>.",
      "time": "2010-12-15T15:00:32",
      "id": "112208079"
    },
    {
      "threadId": "190914800",
      "post": "I still don't call myself a writer. I'm okay with \"I write,\" but not the noun. (I sound like Trya Banks or something: \"She can model, but is she a <i>mo-del</i>?) This works for me because if I ever develop the hubris to call myself a writer, I'm afraid I might stop writ-<i>ing</i>.",
      "time": "2010-12-14T21:23:40",
      "id": "111737802"
    },
    {
      "threadId": "187729163",
      "post": "Full disclosure: I was only a casual fan of this show. As far as angsty, 90s teens go, my favorite TV character was <i>Roseanne's</i> Darlene. Maybe it's because I grew up working-class in a Midwestern town, but she resonated more with me than Angela Chase. Ricky was actually my favorite character to come out of <i>My So-Called Life</i>. ",
      "time": "2010-12-09T15:02:54",
      "id": "109330493"
    },
    {
      "threadId": "187336195",
      "post": "The only two actresses I can think of that I possibly resemble are Nia Vardalos or Kathy Najimy, and I'm cool with either one playing me.",
      "time": "2010-12-09T00:43:07",
      "id": "108881955"
    },
    {
      "threadId": "633753430",
      "post": "Ditto on the Safari problems. Refreshing doesn't work for me, but I haven't updated that browser in a while, so it very well could be compounded by using an out-of-date browser.",
      "time": "2010-12-09T00:40:21",
      "id": "108880309"
    },
    {
      "threadId": "187167525",
      "post": "I was seven when John Lennon died. I don't remember how much I could comprehend at that age, but I knew he was someone famous and hugely influential. I don't know if it's because I was so young, or that my parents weren't Beatles fans (I don't remember their reactions either) that I don't have that \"flashblub\" moment where I can remember where I was, what I was doing... and I always felt a little guilty about it.",
      "time": "2010-12-08T23:06:37",
      "id": "108840866"
    },
    {
      "threadId": "186693064",
      "post": "\"Natasha\" - Rufus Wainwright\r\n\"Alex Chilton\" - The Replacements\r\n\"Suzanne\" - Nina Simone's version\r\n\r\nThese are the ones at the top of my last.fm charts.",
      "time": "2010-12-08T01:26:52",
      "id": "108501993"
    },
    {
      "threadId": "184090311",
      "post": "I like cilantro, and don't get a soapy aftertaste at all. I wonder if the soap/cilantro theory is related to supertasters vs nontasters. (I am, apparently, a nontaster.)\r\n",
      "time": "2010-12-03T15:05:01",
      "id": "106343541",
      "parentPost": "I just learned there is some kind of genetic thingy that makes cilantro taste like soap to some people.  My brother is one of such people.  I never knew this about cilantro!",
      "parentPostTime": "2010-12-03T14:08:15",
      "parentPostId": "106319466"
    },
    {
      "threadId": "183708698",
      "post": "I was almost a little too old for riot grrrl. I wish something like it had existed when I was in high school, or if something did, that it was a little more accessible. \r\n\r\nI always feel like I've failed third-wave feminism by not liking Bikini Kill, Hole, or Liz Phair. I respect their contributions they've made, and I've sort of learned to appreciate them, but to say they affected my life the way they have other women my age would be dishonest. I have a few criticisms of  riot grrrl in general -- mostly its being a largely white, middle-class movement. I know a lot of that comes from mainstream media's perception of it, but being a working-class girl living in a conservative part of the country, I never felt it was \"for me.\" \r\n\r\nI do like old school British punk. Why it makes the grade, I don't know. I think that it's so far my own experience -- and at least a decade removed from me -- it seemed glamorous. Maybe it's because I felt an odd kinship with those working-class British toughs that I didn't with music from my own generation.\r\n\r\nRecs? In the early 90s, Rhino put out these comps of little known or unheralded punk bands from the 70s and 80s. I know CDs have gone the way of the dinosaur, but they're worth digging through the cut-out bins for. I didn't have older siblings to hip me to stuff, so they sort of functioned as surrogate cool kids.",
      "time": "2010-12-02T22:59:17",
      "id": "106162783"
    },
    {
      "threadId": "183109303",
      "post": "I would say reading, which I like to do early in the morning before I really start my day, but my favorite solitary activity is running. I come up with most of my writing ideas running.",
      "time": "2010-12-02T00:22:13",
      "id": "105731289"
    },
    {
      "threadId": "182913027",
      "post": "I love words. I wasn't the best reader in school, but liked to thumb through dictionaries (I still do). I have \"pet\" words that sound good on the tongue, but rarely do I get to use them: gallimaufry (like a hodgepodge or stew), dilettante, diaphanous, sartorial, and syzygy. The last one looks really nice on paper. I mean visually, it looks good on paper. \r\n\r\nMy \"actually\" is \"generally,\" as in I generally dislike made-up words, but I'm not fully committed to my dislike, which is why I threw the word \"generally\" in there. It's really a hard habit to break. (And the real reason I don't like made-up words is I never make up any good ones.)",
      "time": "2010-12-01T21:33:12",
      "id": "105681530"
    },
    {
      "threadId": "182404222",
      "post": "I had those Fashion Plates. I also had a \"sewing\" kit that made doll clothes by gluing the seams together. And the giant Barbie head to put makeup on (but younger cousins worked much better for makeover play). ",
      "time": "2010-11-30T23:12:02",
      "id": "105332713"
    },
    {
      "threadId": "182143636",
      "post": "I convinced <i>myself</i> I was  bad at math for years, despite having decent grades because I assumed girls weren't good at math -- we certainly weren't encouraged. And I had only women math teachers (nuns, to be specific). That's how powerful the message we aren't supposed to be good at math and science is. I only started to enjoy math classes in college. (To my own credit, I am better at theory-heavy work than sheets of problems to be done in an allotted time, so I probably would have done better in college even if I had been encouraged.) \r\n\r\n",
      "time": "2010-11-30T15:38:17",
      "id": "105072442"
    },
    {
      "threadId": "181783537",
      "post": "Late addition ('cause I don't see this one listed yet): \"Hate On Me\" by Jill Scott\r\n\r\nAlso seconding \"You Don't Own Me,\" but my favorite version is Klaus Nomi's.",
      "time": "2010-11-30T14:59:40",
      "id": "105062300"
    },
    {
      "threadId": "179034974",
      "post": "Rufus Wainwright or Jonathan Richman",
      "time": "2010-11-25T16:24:36",
      "id": "102693845"
    },
    {
      "threadId": "178945602",
      "post": "<i>Which really pisses me off, because there are many reasons that a person may not have read the books on this list, including but not limited to: triggering content, lack of availability in their area, lack of time or peaceful reading space, lack of interest.</i>\r\n\r\nA lot of these books are typical of what would be on a high school or college reading list, and not everyone has had the same opportunities or education. I'm always suspicious of lists of books that are supposed to be \"canonical,\" and if you haven't read x-number of books, you're not well read. \r\n",
      "time": "2010-11-24T23:14:04",
      "id": "102167930",
      "parentPost": "Ugh. This list has circulated around my Facebook news feed for a few months now, and I'm a little sore from it because it's always used (by my Facebook acquaintances) to judge a person's intelligence based on how many or few they've read. \n\nWhich really pisses me off, because there are many reasons that a person may not have read the books on this list, including but not limited to: triggering content, lack of availability in their area, lack of time or peaceful reading space, lack of interest. And each person's \"magic number\" seems to be up for judgment in a \"whose is bigger?\" type of implied contest, which makes me feel really self conscious. \n\n/rant over",
      "parentPostTime": "2010-11-24T22:32:26",
      "parentPostId": "102142666"
    },
    {
      "threadId": "178220946",
      "post": "I keep a notebook full of things I've jotted down -- quotes, passages from books, ideas I've gotten running -- that I can fashion into a post or something. It's saved me on more than one occasion. ",
      "time": "2010-11-23T20:07:23",
      "id": "101347294"
    },
    {
      "threadId": "177614863",
      "post": "I was the kind of thirteen-year-old to put Gordon Lightfoot songs on a mixtape, and I don't have kids of my own, but my iPod is chockablock of women making music. Is something pretty far removed from contemporary rock or pop okay? When I was a kid, I listened to a lot of the music of my parents generation -- lot of Aretha, Tina Turner, Patsy Cline, etc. Artists I have right now that I think are pretty kid friendly: Macy Gray, Holly Golightly, Thao with the Get Down Stay Down, Regina Spektor, Jill Scott, Cibo Matto. Some that maybe push the limits a bit -- either lyrically or that I can't really imagine a young teen grooving to them: Missy Elliott (trying to think of a Missy song that's G-rated), Throwing Muses, Patti Smith, Nina Simone, Juana Molina (an Argentinean singer-songwriter I like), The Raincoats...\r\n\r\n(Sorry. I got a little rambly.)",
      "time": "2010-11-22T23:32:21",
      "id": "100945380"
    },
    {
      "threadId": "177416847",
      "post": "I used this shampoo and conditioner back in college. That and the white musk perfume were bathroom staples.",
      "time": "2010-11-22T15:00:29",
      "id": "100631730"
    },
    {
      "threadId": "175276437",
      "post": "I am a non-germaphobe also. I probably border on sort of gross, to be honest. Maybe as a consequence of age, I've become less concerned with cleanliness -- or at least cleanliness of the obsessive variety -- since I've gotten older. The squat thing on a public toilet? I've never been able to do this without my knees giving out.",
      "time": "2010-11-18T23:08:02",
      "id": "99110751"
    },
    {
      "threadId": "173730965",
      "post": "Patti Smith - I love her \"I don't care\" simplicity. (I wish I could rock a man's white shirt and disheveled  hair like she does, but I don't have Mapplethorpe photographing me either.)\r\n\r\nActually, most of my style \"icons\" lean toward the androgynous side of style: Grace Jones, Annie Lennox, Joan Jett -- I'm also a child of the 80s, as if you couldn't tell. Personally, I think I dress like the spawn of Johnny Knoxville and Juno. Messy, grunge androgyny. Or I just really need to go clothes shopping.",
      "time": "2010-11-16T18:57:36",
      "id": "97968327"
    },
    {
      "threadId": "173682127",
      "post": "Mine was Peter Tork, but twenty years after the show debuted on tv. I watched reruns on Nickelodeon, and I guess I was aware that this guy was actually older than my father. That was my first concert, too: A Monkees reunion show. ",
      "time": "2010-11-16T18:45:50",
      "id": "97960091",
      "parentPost": "Davy Jones of the Monkees, but I was five.  My first adolescent celebrity crush was Robby Benson because of the  films, The Death of Ritchie, and Ode to Billie Joe.  Then within a few months Shaun Cassidy the Hardy Boy hit the scene in 1977.  I vowed undying love, covered my walls in his posters, bought every issue of Tiger Beat and Tiger Beat Star for two years.  Was the first in my class to buy his LPs.  My first rock concert was Shaun's. He wore satin red pants and baseball jacket (remember that fad?) and Virgin was the opening act.  Shaun always wore a pinkie signet ring which had his initials. It was inspired by his dad's, Jack, ring.  Yeah I can still recite Shaun trivia.  Was sad when he married his first wife, a former Playboy playmate.",
      "parentPostTime": "2010-11-16T18:01:35",
      "parentPostId": "97913455"
    },
    {
      "threadId": "173234853",
      "post": "$40 worth of expired film. (This really isn't unusual for me, since I still have film cameras.) I've also \"won\" (still had to pay shipping) a bunch of expired film from a photo website devoted to toy cameras for having \"page of the day\" or something.",
      "time": "2010-11-16T11:11:12",
      "id": "97771360"
    },
    {
      "threadId": "172914216",
      "post": "I'm not too concerned about wrinkles, seeing as though my mostly olive-skinned family remained relatively wrinkle-free well into their fifties. I do have really dry skin and drugstore moisturizers work better for me than the high-end stuff. For one thing, I'm more likely to find something uncomplicated and unscented at CVS or Walgreens than I am Macy's.",
      "time": "2010-11-15T16:27:12",
      "id": "97460858"
    },
    {
      "threadId": "172211727",
      "post": "<i>\"The 13th Floor Elevators' version of \"It's All Over Now, Baby Blue\" (which they just retitled \"Baby Blue\").\"</i>\r\n\r\nThe 13th Floor Elevators' is my favorite version, though I really like Them's. I *think* the Them version was featured in the movie <i>Basquiat</i> (or maybe it was just on the soundtrack).",
      "time": "2010-11-14T18:56:31",
      "id": "97099750",
      "parentPost": "I'm curious if you considered The 13th Floor Elevators' version of \"It's All Over Now, Baby Blue\" (which they just retitled \"Baby Blue\"). I like their version quite a bit. I don't think I've ever heard the Them version. \n\nAlso, The Specials did an amazing version of \"Maggie's Farm\". I like it better than the original, actually. I don't know RATM's, though.",
      "parentPostTime": "2010-11-14T16:34:12",
      "parentPostId": "97076442"
    },
    {
      "threadId": "170522867",
      "post": "I'd give bell hooks's <i>Outlaw Culture</i> to my teenaged self. And this book probably existed when I was in high school, but I'd make my close to failing high school seventeen-year-old self a copy of <i>The Teenage Liberation Handbook</i>.",
      "time": "2010-11-11T01:30:36",
      "id": "96087192"
    },
    {
      "threadId": "170478376",
      "post": "1. My mom reads my blog. I <i>asked</i> her to read it. I don't do a ton of personal blogging these days, but I've always followed the rule that if I don't want my mother to see it, it doesn't belong online.\r\n\r\n2. Had this happen to me. Ouch. Not fun.\r\n\r\n3-4. I don't always do this, but I never post pictures of children without permission. \r\n\r\n5. I haven't logged into Facebook in ages. FourSquare I don't use. Period. Maybe it is an age thing, and being able to remember a time when not every aspect of your life was published online, it holds little appeal. \r\n\r\n",
      "time": "2010-11-10T22:36:24",
      "id": "96052181"
    },
    {
      "threadId": "169783710",
      "post": "A big part of the soundtrack to my junior year in high school.",
      "time": "2010-11-09T21:27:56",
      "id": "95592809"
    },
    {
      "threadId": "169699242",
      "post": "For years I thought Shannon Hoon was singing \"I like to keep my <i>sheets</i> dry today,\" not \"I'd like to keep my <i>cheeks</i> dry today,\" in \"No Rain.\" I thought it was his way of telling us he was a bed-wetter.",
      "time": "2010-11-09T18:34:06",
      "id": "95525316"
    },
    {
      "threadId": "169645335",
      "post": "What about Darlene Connor, or for that matter, Rosanne herself? ",
      "time": "2010-11-09T16:38:42",
      "id": "95456078"
    },
    {
      "threadId": "169325473",
      "post": "I wrote an entire post once about letting myself not like Bob Dylan. Among record nerd crowds, that's outright sacrilege. \r\n\r\nIt goes beyond his sometimes misogynistic lyrics: I just really don't like his \"brand,\" if you know what I mean. I can respect his influence as a songwriter on just about everyone I listen to, and I kind of like other people singing his songs, just not Dylan himself.",
      "time": "2010-11-09T00:56:03",
      "id": "95217337"
    },
    {
      "threadId": "167318341",
      "post": "Deerhunter. They sort of sound like a mix of old Guided Bu Voices, Neutral Milk Hotel and My Bloody Valentine.",
      "time": "2010-11-04T23:29:56",
      "id": "94006583"
    },
    {
      "threadId": "166663468",
      "post": "I'm doing NaNoWriMo this year too. I'm right where I should be, at about 5000+ by day three, but it's 5000 words of garbage. I'm thinking scrapping it and starting a new one, too, since mine's really bad. I understand the concept of \"shitty first drafts,\" but at what point does something become completely unusable? \r\n\r\nI commend you for NaNo'ing online. I'm not nearly that brave.",
      "time": "2010-11-03T22:26:48",
      "id": "93528989"
    },
    {
      "threadId": "166075957",
      "post": "Another vote for T Lo. I actually really got in to them, though I've been a casual reader for years, during this year's season of RuPaul's Drag Race. Theirs were one of the few sites blogging it, and it's kind of a guilty pleasure of mine. I also really like foufour for celeb stuff.",
      "time": "2010-11-03T10:03:23",
      "id": "93275205"
    },
    {
      "threadId": "165352094",
      "post": "I come from progressive, vaguely hippy-ish people on both sides. I never had to confront right wing politics until my mom started dating a conservative and practicing catholic. The religious thing is more an issue as I'm openly atheist. I just remind myself that my mom dates this man, not I, and I don't have to have any kind of relationship with him. (My mom gets this, and is okay with it.) ",
      "time": "2010-11-01T18:57:49",
      "id": "92783158"
    },
    {
      "threadId": "631131293",
      "post": "Count me as another one who had many opportunities to speak up and didn't. As someone who was on the bottom rung of the high school popularity ladder, the risk was too great, and many times I was just glad it wasn't me. I take that risk now, but it's easy to say that as a reasonably confident 38-year-old. \r\n\r\nI did actively fat-shame someone. My best friend was bullied by this other girl, and we bullied back calling her pig and making grunting sounds as she walked by. I guess we thought we were justified because \"we were the real victims,\" but no, we were just as bad and at one point she ended up in tears. That was the turning point, I think, when I realized, \"Wow, my actions do have consequences.\"",
      "time": "2010-10-27T22:22:26",
      "id": "90928737"
    },
    {
      "threadId": "161755722",
      "post": "<i>Some body who can’t immerse her self in some thing won’t be able to appreciate it as much as some body who does.</i>\r\n\r\nI'm not sure I entirely agree with this. It almost implies that there's one correct way to appreciate books or music or art, unless you mean that enjoyment <i>is</i> immersion, whether you recognize it or not. ",
      "time": "2010-10-25T17:53:34",
      "id": "89918184"
    },
    {
      "threadId": "159861197",
      "post": "I love the weird juxtapositions in that Amazon playlist: Extreme and REM, the Connells and Marky Mark. The 80s were over, but the 90s hadn't really started yet. MTV knew there was something out there called \"alternative,\" but no one really knew what that was yet, so amid all the \"Gonna Make You Sweats\" you'd hear something really random, like the Sundays or the Lightning Seeds.",
      "time": "2010-10-21T20:07:08",
      "id": "88890411"
    },
    {
      "threadId": "159320698",
      "post": "I'm almost a decade older than you, and I feel like a straddler. Most of the things associated with X-dom don't apply to me, for whatever reason. Especially now with the recent deluge of 90s nostalgia. Some of that, I think, is because I was a few years too old (a huge difference when you're a teen, now, not so much). My teen years were spent in that weird netherworld between the 80s and 90s: the pre-internet, Bush the first years that no one remembers. Most of my friends have always been older than I am, so maybe I'm straddling those years between generation X and whatever it was that came before.",
      "time": "2010-10-20T20:04:42",
      "id": "88602540"
    },
    {
      "threadId": "159189266",
      "post": "I'm still in grubby workout gear, but when I change into my regular clothes, I'm definitely wearing purple. My tumblr got dressed before I did, and she's already in purple. (Well, dusty lavender, really.)",
      "time": "2010-10-20T14:26:15",
      "id": "88516431"
    },
    {
      "threadId": "158713160",
      "post": "The first grown-up novel I read was probably <i>Catcher in the Rye</i> or <i>Of Mice and Men</i>, both required reading when I was in, maybe, 9th grade. I had an adult library card two years before that, but the only thing I remember checking out with any regularity was pattern books for making doll clothes. I was a late bloomer.\r\n\r\nIf I'm being completely honest, the first \"adult\" book I read was probably my grandpa's antiquated copy of the Merck Manual.",
      "time": "2010-10-19T17:55:16",
      "id": "88269642"
    },
    {
      "threadId": "155643039",
      "post": "If I could do it over again, I'd go to an all-girls' school instead of the co-ed neighborhood catholic school I went to where boys routinely harassed girls without being reprimanded. I couldn't afford to. The single-sex schools in my part of the city were noticeably more expensive, so unless I could have gotten a scholarship (and they did give a few out for high school students who couldn't pay, but I wasn't that great of a student), it wasn't an option.",
      "time": "2010-10-13T15:34:19",
      "id": "86576660"
    },
    {
      "threadId": "155330810",
      "post": "Blueberries, raspberries, and blackberries mixed together -- preferably frozen and thawed just enough that they're still a bit icy. With whipped cream.",
      "time": "2010-10-12T23:28:48",
      "id": "86404478"
    },
    {
      "threadId": "155151273",
      "post": "I bought my first computer pretty late in the game -- '99 or so. A lot of those early memes were still going strong then. It's depressing to think that in the course of a decade we've gone from dancing babies and muppet mugshots to kids dying.",
      "time": "2010-10-12T22:22:38",
      "id": "86392093"
    },
    {
      "threadId": "154784926",
      "post": "NaNoWriMo\r\n\r\nI'm doing it again this year, but last time around I failed grandly by trying to actually <i>write</i> something. I've \"won\" before by slopping down 50,000 words, but in no way could I call it a novel. I want to finish this year, but with something I'm proud of.",
      "time": "2010-10-11T23:35:34",
      "id": "86049236"
    },
    {
      "threadId": "152103754",
      "post": "I'm also coming up on my 20th reunion, and bullying has completely changed since I was in high school, for obvious reasons. Sexual harassment was more prevalent in my school than girl-on-girl bullying (I don't think we really had mean girls), and being a conservative, catholic school, most of it was dismissed away with a \"Oh, boys will be boys. Maybe you should try being nicer to them?\" No, the school should have tried punishing them. \r\n\r\nI didn't go to my ten, and a see very few people from high school, so I can't tell you if any of them have mellowed since then, though once in a while, I see people I went to grade school with -- a smaller and closer group to begin with -- and most of them have moved on, to the point that I don't know who were the bullies and who were bullied anymore.",
      "time": "2010-10-06T20:46:14",
      "id": "84692083"
    },
    {
      "threadId": "151237856",
      "post": "I wish I could say autumn, but fall in the midwest is just sort of \"eh.\" Or we don't have one at all and go straight from summer to winter. (Just two weeks ago the high was in the 90s.) I'm probably alone in this, but I like summer when it's already 80 degrees when you wake up and the sun doesn't go down until 9pm.",
      "time": "2010-10-04T23:55:24",
      "id": "84136036"
    },
    {
      "threadId": "151188191",
      "post": "\"And I thought only MY cat liked getting scratched by that spot above the tail.\"\r\n\r\nI know! I thought I discovered the \"secret spot.\" Mine doesn't bob her head around and open her mouth like that when I scratch her, though. Usually she just squints her eyes like, \"Oooh, that feels good,\" until she's had enough, then she tries to bite my hand.",
      "time": "2010-10-04T22:00:40",
      "id": "84096000"
    },
    {
      "threadId": "145997099",
      "post": "My cat likes to sit on the bathroom sink, too. Or in the sink. Mostly she just waits until someone turns the water on for her since she refuses to drink from a bowl. ",
      "time": "2010-09-23T21:55:44",
      "id": "80403280"
    },
    {
      "threadId": "145121378",
      "post": "More a talent than a trait, but I admire people who write really well and connect with people through their words. I never seem to find a groove: my writing is either too dry and pedantic, or I overdo it on the sarcasm. (So I've been told in more than one writing workshop.) ",
      "time": "2010-09-21T23:32:16",
      "id": "79849981"
    },
    {
      "threadId": "135806807",
      "post": "Just popping in to say that seeing Jobriath in my newsreader made my day exponentially better.",
      "time": "2010-08-31T18:50:55",
      "id": "73571162"
    },
    {
      "threadId": "133716827",
      "post": "REM's \"The One I Love.\" I'm still baffled that so many people think this is a love song. And I already mentioned this on the last music-themed thread, but Loudon Wainwright's \"Motel Blues\" is creepy.",
      "time": "2010-08-26T00:30:20",
      "id": "72066183"
    },
    {
      "threadId": "131446007",
      "post": "Nina Simone's cover of Leonard Cohen's \"Suzanne,\" hands down. Cohen covers are hit or miss, but Nina Simone can do no wrong in my book. I also love Big Star's version of \"Motel Blues.\" Loudon Wainwright lll's original is a little... um, predatory. \r\n",
      "time": "2010-08-19T23:35:09",
      "id": "70109487"
    },
    {
      "threadId": "125684421",
      "post": "I also love \"broad.\" It makes me think of all the tough, smart women in my family, who proudly called themselves broads.\r\n\r\nLeast fav? Maybe it's not as harsh as bitch or the aforementioned c-word, but I hate \"chick,\" especially when it's used to describe something made by women for women --  chick lit, chick flick, chick rock, etc. ",
      "time": "2010-08-03T23:36:33",
      "id": "65936608"
    },
    {
      "threadId": "123741554",
      "post": "I listen to a lot of singer-songwriters rather than \"band music.\" (And I somehow only just realized this digging through my last.fm account.) I really like Mary Gauthier, who I think gets little attention. ",
      "time": "2010-07-29T23:50:08",
      "id": "65189127"
    },
    {
      "threadId": "122689564",
      "post": "Is it wrong that I'm totally envying C.C.'s cheekbones right now?",
      "time": "2010-07-27T14:06:23",
      "id": "64628711"
    },
    {
      "threadId": "122472974",
      "post": "Kitchen, not because I'm a traditionalist, but because my living room table is usually crowded with papers or whatever that it makes eating impossible.",
      "time": "2010-07-26T23:48:19",
      "id": "64367159"
    },
    {
      "threadId": "121279045",
      "post": "I've been a regular reader for the past year or so, but have only commented a few times. I've scaled back my blog commenting in general after realizing that listening is sometimes better than speaking (and I just don't have the time to comment on a dozen or so blogs). I think I'm ready to speak more, though.",
      "time": "2010-07-23T15:32:46",
      "id": "63892046"
    },
    {
      "threadId": "119856875",
      "post": "Lately I've been listening to Macy Gray's new one, and I've rediscovered my love for Lucinda Williams's Car Wheels on a Gravel Road.\n\n(It's already been mentioned, but the new Scissor Sisters is pretty great, too.)",
      "time": "2010-07-20T14:00:44",
      "id": "63351070"
    },
    {
      "threadId": "118272010",
      "post": "\"I totally think the algorithm is using content information, not merely style, to render a decision:\"\r\n\r\nI do to. I usually write in a blunt, terse style, but still got David Foster Wallace (who writes in anything but). Everything I've written that I've cared about came up DFW, and things I've written that I'm indifferent to were in the style of Stephen King or Dan Brown, if that means anything. However, most of the things I've written that I'm happy with were rife with pop culture references. (I am a music blogger.) ",
      "time": "2010-07-15T22:26:27",
      "id": "62441260"
    },
    {
      "threadId": "7578953",
      "post": "Same here. Apparently my blog is more of an extrovert than I am.",
      "time": "2008-11-26T11:03:25",
      "id": "4021389"
    },
    {
      "threadId": "6639220",
      "post": "Good luck. I'm doing both NaNoWriMo and NaBloPoMo, too.",
      "time": "2008-11-05T01:50:05",
      "id": "3505525"
    },
    {
      "threadId": "6575517",
      "post": "I can log in, but not ping. I've always pinged (pung) manually. Does the automated pinger work with Blogger, too? \r\n\r\nLove the new commenting system, though.",
      "time": "2008-11-03T15:03:28",
      "id": "3455511"
    }
  ],
  "profileInfo": {
    "username": "kperfetto",
    "about": "",
    "name": "kperfetto",
    "disable3rdPartyTrackers": false,
    "isPowerContributor": false,
    "isAnonymous": false,
    "rep": 1.269236,
    "profileUrl": "https://disqus.com/by/kperfetto/",
    "url": "http://herfiveradio.blogspot.com/",
    "reputation": 1.269236,
    "location": "",
    "isPrivate": false,
    "signedUrl": "http://disq.us/?url=http%3A%2F%2Fherfiveradio.blogspot.com%2F&key=1lNTdInfTk-6sVJAvfsEQA",
    "isPrimary": true,
    "joinedAt": "2008-11-08T22:54:39",
    "id": "139538",
    "avatar": {
      "small": {
        "permalink": "https://disqus.com/api/users/avatars/kperfetto.jpg",
        "cache": "//a.disquscdn.com/uploads/users/13/9538/avatar32.jpg?1278013962"
      },
      "isCustom": true,
      "permalink": "https://disqus.com/api/users/avatars/kperfetto.jpg",
      "cache": "//a.disquscdn.com/uploads/users/13/9538/avatar92.jpg?1278013962",
      "large": {
        "permalink": "https://disqus.com/api/users/avatars/kperfetto.jpg",
        "cache": "//a.disquscdn.com/uploads/users/13/9538/avatar92.jpg?1278013962"
      }
    }
  }
}