{
  "comments": [
    {
      "threadId": "4132491830",
      "post": "Once again, this is so good. Even better than the first post. The story of the mole and Trinidad together are fantastic. \n\n\nI want to throw back a beer with Trinidad.",
      "time": "2015-09-16T00:44:25",
      "id": "2255825739"
    },
    {
      "threadId": "4113982962",
      "post": "This is a great post Tina. I love the lessons you've learned through your observations. \n\n\n\nI was just thinking last night about what my recipe would be for a simple dish I made yesterday for dinner and was thinking about how I would communicate feel. My favorite part of the post, followed closely by you almost getting trapped in the walk in!",
      "time": "2015-09-16T00:32:55",
      "id": "2255812155"
    },
    {
      "threadId": "3728188769",
      "post": "That's interesting. It is the most personal way to measure something, but also highly variable.",
      "time": "2015-05-01T15:04:12",
      "id": "1997780284"
    },
    {
      "threadId": "3657364556",
      "post": "Whoops. I linked it now, also here: http://opinionator.blogs.nytimes.com/2015/03/30/heideggers-philosophy-why-our-presence-matters/?nytmobile=0",
      "time": "2015-04-06T00:02:04",
      "id": "1948242139",
      "parentPost": "Is there a link to the post somewhere?\n\n\nI wonder what Heidegger would have thought about the internet and social media, and how that alters (or doesn't alter) our \"presence\" and \"how we are engaged.\" \n\n\nAs for your question, I think we are evolving to have more RAM.",
      "parentPostTime": "2015-04-05T23:36:45",
      "parentPostId": "1948217539"
    },
    {
      "threadId": "3560646918",
      "post": "This is awesome, and such a great idea to do with cardboard. Something, we always have handy thanks to e-commerce. \n\n\nWould be interesting to see a week long challenge on making the best iPhone stand out of cardboard.",
      "time": "2015-03-02T14:12:34",
      "id": "1883339882"
    },
    {
      "threadId": "3447077356",
      "post": "Thanks Rob. There's some health devices in these areas already, specifically for diabetes but it's the integration with healthcare that's missing. ",
      "time": "2015-01-23T13:05:44",
      "id": "1812800766",
      "parentPost": "Now there's some ideas for wearables that make sense. Nice post, Christian.",
      "parentPostTime": "2015-01-23T02:33:03",
      "parentPostId": "1812252254"
    },
    {
      "threadId": "3398191103",
      "post": "Well put! This is something everyone could improve on, and is a great opportunity for companies that make software to help larger companies with the hiring process. They could make these bug reports easier or even possible at all.",
      "time": "2015-01-07T14:03:27",
      "id": "1776398398"
    },
    {
      "threadId": "3390646518",
      "post": "Would love to see the IFTTT recipes you use.",
      "time": "2015-01-05T02:17:52",
      "id": "1772065501"
    },
    {
      "threadId": "3381033817",
      "post": "No puedo esperar a ver lo que escribes. Animo Luis!",
      "time": "2015-01-02T01:51:33",
      "id": "1767919170"
    },
    {
      "threadId": "3370576757",
      "post": "Luis thanks you for commenting and thank you for reading every day. It's been great having readers like you and has made writing much easier.",
      "time": "2014-12-30T16:31:13",
      "id": "1764688476",
      "parentPost": "I usually don't leave comments but I've been reading your blog since January. Good job mate, you nailed it :)  I'll start mine in 2015",
      "parentPostTime": "2014-12-30T16:12:24",
      "parentPostId": "1764664633"
    },
    {
      "threadId": "3113680037",
      "post": "Mostly tired, but also fairly productive. Like responsibly productive. Not quite an overachiever, but not quite a slacker. Just right.",
      "time": "2014-10-13T21:29:51",
      "id": "1634006250"
    },
    {
      "threadId": "3101736765",
      "post": "Absolutely.",
      "time": "2014-10-10T03:03:36",
      "id": "1628256603",
      "parentPost": "I have come to understand that, that is the job. Watching or listening to people work, and helping them find what they need, and build it.",
      "parentPostTime": "2014-10-10T02:54:23",
      "parentPostId": "1628248429"
    },
    {
      "threadId": "3080280353",
      "post": "Thanks :)",
      "time": "2014-10-05T15:37:22",
      "id": "1620627387",
      "parentPost": "Love it. Agree.",
      "parentPostTime": "2014-10-04T22:09:42",
      "parentPostId": "1619956379"
    },
    {
      "threadId": "3068655303",
      "post": "Thanks Fred! I had a stupid grin on my face the entire day yesterday. It definitely looks like it will be what I want it to and so much more.",
      "time": "2014-10-01T12:28:51",
      "id": "1614517802",
      "parentPost": "this gave me a big smile Christian. i hope it is everything you want it to be.",
      "parentPostTime": "2014-10-01T08:57:02",
      "parentPostId": "1614356879"
    },
    {
      "threadId": "3064811487",
      "post": "Very similar to the advertisements disguised as \"breaking news\" several years ago. My immediate thought is that this type of direct advertising should be regulated, but I also don't agree with that. \n\n\nThen I look at Facebook, Twitter, and Tumblr. When something is advertised there it's distinguished as an advertisement or it seems \"out of place\" because of the medium it's delivered to you in. And if you don't like it or think it's inappropriate you can say so. If Facebook also finds it inappropriate it's gone. \n\n\nWe can say what we want about Facebook, Twitter, and any other platforms that leverage advertising as their source of revenue but I find that they're building a better and more responsible way to advertise.",
      "time": "2014-09-29T11:45:13",
      "id": "1610679869"
    },
    {
      "threadId": "3062088217",
      "post": "Oh I know you work in DUMBO ;-) It's crazy to me to see how many small businesses, companies, etc are there. I also don't know of a good way to look for all companies that are located in DUMBO.",
      "time": "2014-09-28T15:33:39",
      "id": "1609478231",
      "parentPost": "I work with a small development studio in DUMBO. There are TONS of companies in the buildings. It is not just technology companies, I can tell you that.",
      "parentPostTime": "2014-09-28T14:58:42",
      "parentPostId": "1609443622"
    },
    {
      "threadId": "3037243214",
      "post": "You're absolutely right. It is inconvenient in certain scenarios, but I find it it much more convenient in the others. \n\nWaltz is just one way you can use Clef. There will be others and I'm excited to see what those others do. \n\nAlso Waltz is open source. https://github.com/waltzio/waltz",
      "time": "2014-09-22T11:57:07",
      "id": "1600215810",
      "parentPost": "Have you tried/compared this to 1Password / Keeppass / Lastpass / Dashlane / other cross-platform password vaults with browser plug-ins? I'm wondering if you see this as an improvement or if you just came across Waltz first.\n\nWe've used 1Password for years. I love it, and have convinced a number of other people to use it. (I've tested others, including Passwords Plus, Dashlane, and Splash ID, and 1Password is my favorite by far, but there are others that get good reviews too.)\n\nIt looks like Waltz doesn't sync across devices, which isn't particularly helpful if you are the sort of person who uses an iPhone, an iPad, a MacBook, and a Windows laptop -- like either of us. And, if you lose your phone, you have to take additional steps to inactivate everything. If I lose my phone, it's useless without my master password.",
      "parentPostTime": "2014-09-20T21:49:37",
      "parentPostId": "1598241449"
    },
    {
      "threadId": "2999683648",
      "post": "Very great idea. \n\nYou don't even have to limit it to public elections. You could integrate bill voting as well, allowing for people to see how their representatives are voting on specific issues. \n\n\nA similar approach is taken by https://www.countable.us/ although they're just using public information that's available.",
      "time": "2014-09-11T00:38:14",
      "id": "1583485871"
    },
    {
      "threadId": "2862677980",
      "post": "Did you find that other apps interrupted your reading? Or were you just more tempted to distract yourself?",
      "time": "2014-07-22T17:23:12",
      "id": "1498224063",
      "parentPost": "Kindle app mostly on a combination of iPad and iPhone.  I would have a few books downloaded on each at any given time.",
      "parentPostTime": "2014-07-22T17:14:13",
      "parentPostId": "1498209224"
    },
    {
      "threadId": "2823203648",
      "post": "absolutely",
      "time": "2014-07-07T14:07:20",
      "id": "1472062418",
      "parentPost": "seems like an exploration. which is what it was for me when i really got into it and still is at times",
      "parentPostTime": "2014-07-07T12:48:18",
      "parentPostId": "1471976831"
    },
    {
      "threadId": "2752852926",
      "post": "Amazing. Absolutely going to use this.\n\nIf I'm ambitious enough I might fork it and make it use Firebase.",
      "time": "2014-06-10T15:44:11",
      "id": "1428589829"
    },
    {
      "threadId": "1789794910",
      "post": "It's also interesting to see how climate change affects how and where we farm. There's a great article on Modern Farmer that takes a look at what farming on the sea might look like. Here it is: http://modernfarmer.com/2014/03/floating-farms/\n\n\nFarming on the sea could change where our food comes from and could bring mobility to farms. I'm sure there are also some interesting implications for delivering food to developing countries that don't have rich farmland either. \n\n\nIt will be excited to see what Boeing does with OTEC as it might be a prerequisite for farming on the sea at scale.",
      "time": "2014-06-04T15:14:30",
      "id": "1419238651"
    },
    {
      "threadId": "2734311340",
      "post": "Deciding what not to work on is often more important than what you work on.",
      "time": "2014-06-04T02:32:09",
      "id": "1418598169"
    },
    {
      "threadId": "2686139960",
      "post": "Now it's my turn to say thanks. Thanks!\n\n\nYes - what needs to be done still needs to be done regardless of how off of a day you're having. I think managers should invest time into finding out what \"gets them right\". We should also recognize that taking 10, 30, or even 60 minutes out of a day to get ourselves right is worth it if we're able to be better managers. \n\n\nAlso, funny enough I find myself rarely putting on headphones any longer. And if I do I try to make it clear that I can be interrupted physically or virtually.",
      "time": "2014-05-18T13:45:33",
      "id": "1391807306",
      "parentPost": "Nice post Christian, really great to see someone acknowledging that off days exist as a manager!\n\n\nI really agree with the \"being aware you're having an off day\" part. One thing that has been important to me is defining the minimum portion of my job role that I absolutely need to be attentive to, even if I'm benching myself. \n\n\nI've been guilty in the past of sticking headphones on and taking care of more introvert-friendly tasks on an off day, but I really feel like that's not acceptable. I have at least a minimum subset of responsibilities that I need to take care of for my team. Things like being responsive and listening to problems, dealing with conflicts that arise, leading meetings strongly, and unblocking engineers that are working on critical work (I'm a tech lead) are things that I always need to remind myself of that I NEED to do, even if I'm benched and am not taking care of much actual work. \n\n\nThanks for writing this!",
      "parentPostTime": "2014-05-15T03:08:17",
      "parentPostId": "1386401951"
    },
    {
      "threadId": "2478913652",
      "post": "I'm not sure I can say it better than what Nick Denton said in his interview with Playboy. \n\n\"PLAYBOY: What will be the life-changing or society-changing technologies that we're just starting to see now?\n\nDENTON: The internet is it for this century, maybe the next one too. People ask what comes next too quickly. To the extent there is some kind of message in the valuation that the market has given Twitter, it is that communication, information and media are at the heart of this phase, this cycle, and it's a long, long cycle that could last 50 or 100 years. When you have an innovation as profound as the networking of sentient beings.… Those delusional futurists who talked about Gaia, the planetwide intelligence? They were spot-on. It's totally happening, and everything else comes out of that.\"\n\n\n\nThe access of the internet allows anyone and anything to be heard or seen. Because of that it also does an amazing job of having redundancy fail overs. If something gets taken down at a particular site odds are that someone else has already made that content available somewhere else on the internet. The redundancy comes to us thanks to the access that's provided.",
      "time": "2014-03-22T02:32:37",
      "id": "1295946763",
      "parentPost": "",
      "parentPostTime": "2014-03-21T21:02:50",
      "parentPostId": "1295510585"
    },
    {
      "threadId": "2380951830",
      "post": "Thanks! It was a ton of fun. Did a lot of donut eating at Stans Donuts. ",
      "time": "2014-03-11T14:32:00",
      "id": "1280023011",
      "parentPost": "",
      "parentPostTime": "2014-03-09T17:01:40",
      "parentPostId": "1277652097"
    },
    {
      "threadId": "2395424716",
      "post": "I think it's just a matter of exposure. The more we're exposed to contextual design the more familiar it'll feel. ",
      "time": "2014-03-11T14:31:39",
      "id": "1280022621",
      "parentPost": "",
      "parentPostTime": "2014-03-09T16:57:26",
      "parentPostId": "1277648282"
    },
    {
      "threadId": "2327988046",
      "post": "So glad you found this helpful. \n\nThere's always an ongoing struggle between getting it done and thinking about how to get it done. \n\nLately I've been feeling like I've just been getting it done which is why I wrote this. I'm glad you're able to take a step back form what you're doing and reflect on it. Very important. But don't forget to execute ;-) ",
      "time": "2014-03-11T13:29:58",
      "id": "1279952997",
      "parentPost": "Sorry I just know that you've come to our class! I agree, that's why I slow down my execution this week, to cool down myself a bit to rethink about the big picture and how I can go further, what's the ideal product that I want for myself. Nice to read this.",
      "parentPostTime": "2014-03-11T06:01:02",
      "parentPostId": "1279692968"
    },
    {
      "threadId": "2354560635",
      "post": "Thanks for your thoughts! If you happened to have a survey that you've crafted I'd love to take a look.",
      "time": "2014-03-05T12:32:01",
      "id": "1271165408",
      "parentPost": "Especially in larger post-mortems (15+ people, 6 month project) I've had good experience with sending an anonymous survey allowing people to voice their opinions and then creating a discussion guide based on common themes. This way a lot of the standard :) :| :( have already been captured and the real focus can be on brainstorming ideas on how to improve (and in particularly bad cases, help to avoid finger pointing in the meeting). All that said, the most effective post-mortems are ones that don't wait til the end of the project to identify ways to improve and provide actionable feedback to keep the project on track. \n\n\nAlso. Beer is helpful.",
      "parentPostTime": "2014-03-04T01:49:48",
      "parentPostId": "1269339581"
    },
    {
      "threadId": "2322446582",
      "post": "Hah! I admit that not every morning is that easy.",
      "time": "2014-03-01T15:55:39",
      "id": "1265823266",
      "parentPost": "Today I tried to follow your morning schedule but I failed miserably. I think I need more proteins :(",
      "parentPostTime": "2014-02-28T17:20:31",
      "parentPostId": "1264620964"
    },
    {
      "threadId": "2305691658",
      "post": "Yeah, the projects are amazing. I think you'd really like Game of Phones and obviously the standing desk solution that's affordable. ",
      "time": "2014-02-23T04:04:31",
      "id": "1256855287",
      "parentPost": "I just signed up for updates on all of these things. What a cool set of projects, and what a great mentor they all have!",
      "parentPostTime": "2014-02-23T03:10:57",
      "parentPostId": "1256821514"
    },
    {
      "threadId": "2126446186",
      "post": "I obviously agree.",
      "time": "2014-02-06T03:45:07",
      "id": "1232899432",
      "parentPost": "I like the term 'access.' I've been using it quite often lately.\n\nIt carries more weight than \"democratization\" and other such terms.",
      "parentPostTime": "2014-01-18T00:17:38",
      "parentPostId": "1206471618"
    },
    {
      "threadId": "2156630481",
      "post": "Yes, it's a generalization I made to get to a point and I do ultimately think that the margins were designed with customer convenience in mind. \n\nIt can seem to be in a narrow band but you're not taking into account the quality of Apple manufacturing. If you had to replace an iPhone every week then the convenience wouldn't be there. The convenience only exists here because I've had to replace an iPhone twice over the course of seven years. \n\nMy expectations certainly aren't low here. In fact they're high and I'm admiring Apple's efforts to keep me as a loyal customer. \n\nApple does a great job with product market fit. Other companies should learn from them. \n\nI still enjoy a good book even though my iPhone can be replaced in five to ten minutes.",
      "time": "2014-02-06T03:43:46",
      "id": "1232898460",
      "parentPost": "Hmm. OK, I'll take that pitch.\n\n- It's misleading to say that a phone could be replaced 3x before Apple would lose money on the materials and production of the phone, because Apple has many other costs. Someone is paying for the rent in Grand Central, and Tim's salary, and a few patents, and investments in the new OS R&D, and so on.\n\n- Research does seem to show that customers understand that problems will happen from time to time, and that they reward companies more for good recovery strategies than for being perfect in the first place -- and that seems to be your experience here. But I would argue that this happens in a narrow band. What if you'd had to replace four out of four iPhones, but they were really nice about it? Five out of five? Seven out of seven? This didn't just take you 10 minutes. It took you weeks of feeling subtly unhappy with your non-working product, the time to get to and from the store, AND the $99 Applecare fee to grease the skids for them to fix their manufacturing defect.\n\nI like Apple products, and I've bought many of them over the years. I've also bought four iPhones. But, I keep buying them because I concur with the marketing hype that \"they just work.\" I've never paid for Applecare, and I've never had a service call. That's the form of customer convenience I believe in, and I pay the Apple premium to get it. I'm certainly glad that you feel good about the recent transaction, and I'm sure Apple is too. But, I wonder about your low expectations, and how they were able to finesse you into feeling good about that.\n\nMaybe Apple's real coup here is in getting you to pay the $99 oops tax. There are probably a number of other manufacturers who would say, \"hell, for an extra $50, we could easily buy better components and tighten our manufacturing processes to let us go from 2σ (95.5% performance) to 3σ (99.7% performance), but the market won't let us get away with that.\" Somehow, Apple has persuaded you to pay them cover ALL their manufacturing costs for the replacement phones (2 @ $199 teardown cost = 4 @ $99 Applecare) AND made you feel like they were treating you well. For most consumer electronics products, you would probably roll your eyes at the salesperson trying to sell you an extended warranty, and you'd be right to do so (http://bit.ly/1mFiFwg).\n\nThere are many reasons that we Apple users stay in the black turtleneck ecosystem, and those of us who design goods/services for sale would do well to study how they've pulled it off. Product styling, functionality, innovation, compatibility, relative immunity from viruses, resale value, identification with an image, and yes, customer convenience: these are all things that cost money to create, and they add up to more than the sum of their parts. Apple has topped Fortune's most admired companies list (http://cnnmon.ie/1fbpaln) for six years in a row. But perhaps we should all be more critical. The broken part in your phone probably cost $0.01; shouldn't they have bought (or designed) a $0.02 part, so you could spend your lunch hour reading a good book instead?",
      "parentPostTime": "2014-01-22T12:36:40",
      "parentPostId": "1211849208"
    },
    {
      "threadId": "2188518328",
      "post": "Thanks Laurent. Yeah I've had that experience as well. But planning only gets you so far. Executing I think lends its way to much better informed and pragmatic planning. Whereas planning for the sake of planning can lead to analysis paralysis. ",
      "time": "2014-02-06T03:37:53",
      "id": "1232892834",
      "parentPost": "Yay!  I'm loving these... keep it up.  I agree with you.  I don't like planning... unfortunately,  most people view planning as be all and end all of our work.",
      "parentPostTime": "2014-01-29T03:12:20",
      "parentPostId": "1221222420"
    },
    {
      "threadId": "2222340475",
      "post": "What are you trying to learn right now?",
      "time": "2014-02-06T03:36:19",
      "id": "1232890625",
      "parentPost": "I'll learn with ya.",
      "parentPostTime": "2014-02-05T02:00:24",
      "parentPostId": "1231348790"
    },
    {
      "threadId": "2092554183",
      "post": "I definitely agree - and very strongly agree with, \"Worrying too little is potentially just as irresponsible as worrying too much, IMHO.\" I think in the past few year so many of the ideas we've seen establish themselves as successful businesses have been fairly scoped, decreasing their risk substantially since there were familiar services or products available. I think we're on the tail end of this though and will start to see higher risk ideas come to reality.",
      "time": "2014-01-10T04:52:43",
      "id": "1194642798",
      "parentPost": "And for some businesses, that's fine. Selling widgets? No biggie. Manufacturing firearms? Yeah, figuring out how to manage product liability deserves to be part of the business plan.\n\nThis goes to a bigger point about entrepreneurship, I think. One can certainly over-plan, and MBA-types are often deservedly accused of being risk-averse. But, it's important to understand the key risks that a business faces, and to decide the relative cost of mitigating those risks, either in money or time. What if your key customer goes under? Or your lead developer quits? Or you get hit with an injunction preventing you from selling your single viable product? Yes, one can play that game all day long, spinning out fears. But if your lead customer is 120 days in paying you, or your developer is taking increasingly long lunches and you don't have access to her files, or if you've just received a cease-and-desist letter, you'd better start thinking about risks.\n\nWhen thinking through a potential opportunity, then, I think it makes sense to consider what might go wrong relative to (a) how likely it is that it will go wrong and (b) how bad it would be if it did. I think this is part of product management every bit as much as thinking through the user experience. Worrying too little is potentially just as irresponsible as worrying too much, IMHO.",
      "parentPostTime": "2014-01-05T02:07:35",
      "parentPostId": "1187261681"
    },
    {
      "threadId": "2017956117",
      "post": "I've heard that Vice sends drones to teens in third world countries and then visa Skype communications instructions to them on what they'd like to capture and how to operate the drones.",
      "time": "2013-12-08T20:25:03",
      "id": "1155216997"
    },
    {
      "threadId": "496053529",
      "post": "I'm way too curious to not try it out :)",
      "time": "2013-10-16T20:31:08",
      "id": "1084868824",
      "parentPost": "I'd say not very well. I think there's something unappealing about mixing pesto right into eggs. Separate but eaten together, delicious. Mixed into a single entity and cooked frittata style, irksome. Or maybe that's just me.",
      "parentPostTime": "2013-10-16T17:35:01",
      "parentPostId": "1084607341"
    },
    {
      "threadId": "1795675881",
      "post": "Systems like this always make me think about the habits they create or fail to create. \n\n\nI have a pretty good system for a to-do list but I can't seem to create a habit out of it. Products and software have a really tough time creating habits.",
      "time": "2013-09-25T13:10:39",
      "id": "1058495307"
    },
    {
      "threadId": "1159705344",
      "post": "Thanks for letting me know. Fixed my comments now :-)",
      "time": "2013-03-24T14:00:48",
      "id": "840680161"
    },
    {
      "threadId": "1064763238",
      "post": "Raw data with excel manipulation right now. ",
      "time": "2013-03-16T18:44:38",
      "id": "831533811",
      "parentPost": "Great goals, Christian. Unfortunately, I missed the Data Summit this time, but I hope to catch the next one.\n\nI'm at the point where I am really trying to systematically build a culture of tracking & analyzing everything.\n\nSide note - what are you using for cohort analysis? Any type of data visualization or 3rd party services? Home grown solution? Or are you pulling raw data and manipulating in Excel?",
      "parentPostTime": "2013-02-04T16:16:53",
      "parentPostId": "788278969"
    },
    {
      "threadId": "1104607518",
      "post": "The parts are pretty good. Needs a little bit of work on some of the joints.",
      "time": "2013-03-16T18:42:22",
      "id": "831531519",
      "parentPost": "There he is! Looks great in Red! How are the parts?",
      "parentPostTime": "2013-02-25T19:00:30",
      "parentPostId": "811962079"
    },
    {
      "threadId": "1119679275",
      "post": "@doriandargan:disqus isn't it great?",
      "time": "2013-03-16T18:18:39",
      "id": "831506622"
    },
    {
      "threadId": "1123004015",
      "post": "@doriandargan:disqus nope! Live in DUMBO. That's so awesome http://twitter.com/GillianC4 and I are getting married at the Brooklyn Winery. Green Building had almost nothing available for 2013.",
      "time": "2013-03-16T18:18:07",
      "id": "831506055"
    },
    {
      "threadId": "1090909936",
      "post": "While in the game industry one thing I explored with my friends and colleagues was exactly this. My inspiration came from Dr. Bartle in an essay written a few years a go. You can find it here: http://www.mud.co.uk/richard/hcds.htm\n\n\nThe thought being that there are different user segments with unique goals but the system (game) is designed to connect these user segments but also tailor the experience to them. As you tailor these complementary experiences you start to provide users with rewards and validation not from the system itself but from the network of players which is invaluable. \n\n\nOnce you get that sense of validation or need from other players you're hooked and you want to be \"the cool kid\" and you will gladly pay. As @facebook-72602980:disqus pointed out it's the F2P user segmentation model which to this day has not been explored very much. \n\n\nCCP Games does a great job with this and is looking to expand this experience with their new title Dust 514. User segmentation is definitely something that doesn't have to be limited to the gaming industry.",
      "time": "2013-02-24T15:16:38",
      "id": "810717048",
      "parentPost": "The game industry is super interesting. I've been working in it for about a year on the monetization side, and one of the upcoming trends is going to be user segmentation where each user has a different experience. Is the person a whale that spends $1,000 a month? Give them extra special features. Is it someone who doesn't pay? Show them ads and reward them with virtual currency as an enticement to purchase. Is it a male between age of 18-24 that lives in Italy? Target them specifically with a unique in app character. This is just starting to be implemented in gaming with large mobile studios, and I hope it trickles over to apps as well over time. \n\nThere are certain game studios who see the f2p game as a service that will go on for years in developing and adding features (Kiloo - Subway Surfers, Spryfox - Tiny Town, Nimble Bit games) and other developers who will churn out a model and then reproduce it (Imangi Studios - Temple Run). \n\nI recommend reading F2P Design Rules by the guys at gamesbrief just to get a glimpse into the things that are taken into consideration when developing a game. Really opens your eyes.",
      "parentPostTime": "2013-02-18T17:54:59",
      "parentPostId": "803199403"
    },
    {
      "threadId": "970910151",
      "post": "Thanks!",
      "time": "2012-12-14T20:33:12",
      "id": "736376745",
      "parentPost": "Christian, this is spot on. I have been thinking about habit, and actually started writing a post about how powerful it is... \n\nI really like the approach of building a product with this lens - it makes a lot of sense.",
      "parentPostTime": "2012-12-14T05:25:57",
      "parentPostId": "735644099"
    },
    {
      "threadId": "957825744",
      "post": "I have yet to purchase a tablet and there's one main reason. I type a lot. While I don't mind typing on my iPhone typing on an iPad is something that I don't particularly prefer. On a keyboard I can have a look at someone who is having a conversation with me while typing away at my keyboard. \n\nI would hate predictive options. Part of the beauty of typing at a keyboard is not knowing what you're going to write next. By predicting words you're typing via auto-complete you're increasing the cognitive load and potentially distracting someone from what they're trying to write. \n\nBelieve me I'm not saying I'm married to the keyboard but it's damn handy right now. Gestural motions for writing could be effective. It could also potentially have us learn sign language or a form of non-audible communication which could be beneficial.\n\nAn alternative path could also be along the linkes of Microsoft's Kinect - where it only pays attention to very specific speech. Although that would be a much louder world we would live in. \n\nOh, one more thing part of the ergonomics issue for keyboards is corrected by having a standing desk - or at least that's my opinion. ",
      "time": "2012-12-05T03:19:13",
      "id": "727875053"
    },
    {
      "threadId": "946843350",
      "post": "An interesting way could be to introduce this as part of a requirement to become a B Corporation (http://www.bcorporation.net/). \n\nOf course there's always the possibility of a product living on top of a product which would enable this type of learning. Could be a really interesting educational startup. ",
      "time": "2012-11-28T03:24:09",
      "id": "720984680",
      "parentPost": "This is great.  How can we get product makers to buy into this idea?",
      "parentPostTime": "2012-11-27T19:47:28",
      "parentPostId": "720597058"
    },
    {
      "threadId": "945006924",
      "post": "Thanks man. It was one of the best times of my life. Going through that was fun and gave me some great perspective.",
      "time": "2012-11-26T22:07:22",
      "id": "719703129",
      "parentPost": "You did what very, very few people actually do.  You got to work and built something.  I am envious of your execution and in awe of your zeal.  You built something that actually existed in the universe.  You made a dent and came away with a story to tell about it.  Good on you brother.",
      "parentPostTime": "2012-11-26T19:00:23",
      "parentPostId": "719563909"
    },
    {
      "threadId": "944477871",
      "post": "Could gaming be covered with entertainment as a revenue model? I was looking for where film, comedy, and comics would live. They all could be covered in commerce but as suggested film, comedy, comics, etc... feel different.",
      "time": "2012-11-26T14:06:38",
      "id": "719335902"
    },
    {
      "threadId": "799104538",
      "post": "Yes! Get it done Sean. ",
      "time": "2012-08-09T18:01:03",
      "id": "614689061"
    },
    {
      "threadId": "776212332",
      "post": "You're offering your time and experience - validating that others want to put the same amount of effort that you're putting in seems perfectly respectable and mutual. \n\n\nPerhaps the question, \"Aside from contacting me what else have you done or plan to do to help with your problem?\" ",
      "time": "2012-07-23T02:42:06",
      "id": "595047102"
    },
    {
      "threadId": "751264298",
      "post": "The internet is an empowering medium. It makes anyone or anything on it seem omnipotent in a way. ",
      "time": "2012-07-05T00:48:30",
      "id": "576538807"
    },
    {
      "threadId": "691330299",
      "post": "Drop it off! No washer or dryer in the apartment so might as well save some time and drop it off. ",
      "time": "2012-05-18T02:14:27",
      "id": "531702662"
    },
    {
      "threadId": "633806452",
      "post": "It's interesting that you made an analogy to therapy sessions. I completely understand what you mean by that. It's funny how valuable these type of \"non-execution\" sessions can be even more important or even accomplish more than execution sessions. I would love to institute designer therapy sessions at work. ",
      "time": "2012-04-04T04:31:56",
      "id": "485312218"
    },
    {
      "threadId": "616581467",
      "post": "Double post - apologies.",
      "time": "2012-03-19T13:49:39",
      "id": "468955727"
    },
    {
      "threadId": "576392310",
      "post": "Being a mobile game developer I can definitely say that not being in the top charts makes it extremely difficult to acquire players in the iOS marketplace. \n\nWe have found that oversaturation and barrier are the biggest issues we need to face every day. Through talking with other game developer friends of ours most titles that are featured peak and after being out of the featured lists decline over the course of 3 days to a much more conservative number of downloads per day. Additionally - if you are out of the top 400 ranks it can be quite difficult to gain traction. \n\nIf you take a look at the top grossing ranks you can see that they are sometimes quite volatile and are very much based on the amount of media that is bought for those apps to attempt to keep them in the top grossing ranks. \n\nTo deal with these platform concerns we're making sure that our game designs inherently deal with these barriers directly. ",
      "time": "2012-02-15T02:22:57",
      "id": "439434420",
      "parentPost": "I've thought about your specific case (Bump) and really think your app is an outlier where people tend to talk about it verbally because it is such a physically visible app (people bumping).\n\nMy main evidence are games. I play a lot of iOS games and find them on places like TouchArcade. I see very little correlation between great games and the games on the top lists.",
      "parentPostTime": "2012-02-15T01:33:23",
      "parentPostId": "439412004"
    },
    {
      "threadId": "528306584",
      "post": "Southwest also had a great fuel hedging strategy that gave them a great competitive edge. In 2009 though it started to backfire.",
      "time": "2012-01-06T05:24:23",
      "id": "402040265"
    },
    {
      "threadId": "208739466",
      "post": "The semantics of gifting are definitely broken and your post is insightful and definitely taps into some interesting areas of how we can leverage in-game actions to promote game rewards which are driven by social mechanics. \n\nYour level up example is a perfect one. Yes! I leveled up! But what if I had no friends. Would anyone congratulate me? When we achieve something of an amazing stature we promote it and want to share it and be rewarded for it. So let's take out the in-game rewards players receive for achievements (leveling up, collections, etc..) If you have friends you will get congratulated by your friends and receive the benefits of monetary and social status rewards (exclusive items, more money, etc...). If you don't have friends you still receive progress rewards but you don't receive the monetary status rewards. You learn how to perform action X or you unlock building Y but that's it. \n\nA perfect analogy would be to treat gifting as it's treated in a wedding. Don't invite anyone to your wedding you don't get gifts. Invite a ton of people to your wedding you'll be showered with things you don't necessarily need but desperately want (items, money, etc....) And of course just like a real wedding there's a ton of player expense that goes into achieving events such as a level up, just like there's a rather large expense needed for a wedding. ",
      "time": "2011-01-14T16:34:39",
      "id": "129098704"
    },
    {
      "threadId": "206649896",
      "post": "A great example of a Social Network game would be Monster Galaxy. It's ultimately a single player Pokemon title on Facebook and requires 0 social interaction. It's funny you start with this post because I think that even us within the social game space completely understand the distinctions but forget them so often. \n\nQuestions I hear asked plenty of times are, \"But we're forcing the player to do viral!\" Funny, because if I remember correctly we were making a social game where your progress in the game requires other players. ",
      "time": "2011-01-11T04:49:13",
      "id": "127447444"
    },
    {
      "threadId": "83563728",
      "post": "I believe what you're really getting down to is the lack of \"dramatic beats\" within social game design. Almost all sources of visual entertainment: films, video-games, tv shows, and literature (non-visual, I know) have a dramatic beat. To quote Wiktionary and inform fellow readers dramatic beat is, \"the moment at which increasing dramatic tension produces a noticable change in the consciousness of one or more characters.\" Granted, most social games do not have persistent characters (or do they - your friends?) but you do have persistent objects, that you made a point of noting within Sim City, Charles. \n\nWith that said, to cause a dramatic beat you don't need to lose something, cause destruction or malice, you simply need to introduce change. Something which has a consistent pattern of behavior needs to be altered and it needs to be obvious. Take that as you will and apply that as you wish.\n\nP.S. Great point made by Charles.  ",
      "time": "2010-04-11T23:09:04",
      "id": "44369942"
    },
    {
      "threadId": "32085462",
      "post": "Being a huge High Fidelity fan this illustration is - amazing. I would totally buy a print of it. ",
      "time": "2009-09-02T13:50:54",
      "id": "15759236"
    },
    {
      "threadId": "30705264",
      "post": "Simply put yes, interface does greatly change the way a person perceives or experiences a game. In the case of RapeLay I find this to be completely and utterly unacceptable. I wouldn't want to associate myself with someone who would want to play this game in the first place furthermore, one who would do so kinaesthetically. \r\n\r\nYet, now that I think of it sometimes 'artistic expression' isn't meant to leave a desirable or pleasurable 'taste' in our mouth. It's mean to make us aware of something so vial, so morose that even when experienced in a virtual or non-direct fashion we feel in the most simplest of terms wrong. I can only imagine how I would feel if I had to rape - and for the record I feel disgusting already writing this - a character kinaesthetically. Just the act of writing about it makes me want to take a shower and turn myself in to the authorities. It's a dramatic situation with very strong and potent emotions attached to it. \r\n\r\nSo where does that leave us? It leaves us exactly where we were. It is the responsibility of the artist to ensure that their vision is very clearly explained and that the message which they wish to portray cannot be misinterpreted. However, art is open to interpretation. I think we all see where this is going and that is an infinite loop of moral dilemma. ",
      "time": "2009-08-21T22:14:33",
      "id": "15212554"
    },
    {
      "threadId": "28611116",
      "post": "If I may make a personal suggestion. I think this game is one which involves a large amount of feel. There's no way to describe it. My thoughts? Throw up a graphic of controls used so a picture of up, down, left, right, and spacebar and allow the player to explore and discover the controls themselves. Unfortunately I'm tainted now but I'm sure that if I knew that I had to use the space bar my experience would be less 'meaningful' to me. It would lack the revelation which could possibly have made my experience more 'fun' than another player's experience.",
      "time": "2009-08-07T15:47:05",
      "id": "14434975",
      "parentPost": "Yeah, there really is no decent explanation of the actual game controls (especially the use of the space bar).\r\n\r\nWhen I first developed the introduction, it had an actual prominent narrator/voice via small bits of text that faded-in and out. Among these bits of text were a couple tutorial lines (namely movement and the use of the space bar). The whole thing just felt totally off, though. I ended up tossing the controls on the same page as the applet and hoping for the best, which still wasn't the greatest idea, but it seemed better than nothing.",
      "parentPostTime": "2009-08-07T15:42:16",
      "parentPostId": "14434757"
    },
    {
      "threadId": "27215779",
      "post": "@Aaron Yes I suppose it would be important to define - in the gun / syringe scenario - that it wouldn't happen all the time. You could even expand on that by attempting to control your condition by taking pills, such as the malaria. \r\n\r\nAs for the dialog options, I'm not sure about this. I quote this time and time again just because I think it's really well put and an excellent point. \r\n\r\n\"Ueda explained his dislike for conversations between characters, saying the repetition required to get the point across and remind the audience what's going on can hurt the game. Pagliarulo picked up on that point and said it's easy to run into conflicts when you're trying to make dialogue sound normal and natural but are also trying to provide players with all the feedback and guidance they need.\"\r\n\r\nSo I can see the benefit of using dialogue however, I also fear that it might have to be 'overworked' or it won't come across ideally. But your point of having trust/distrust coming and going is a good one and it's something which could be portrayed through character actions. Especially in a title which enforces trust or distrust as a mechanic via gameplay. ",
      "time": "2009-07-29T22:43:27",
      "id": "13575078",
      "parentPost": "Unfortunately, witholding information like NPC permadeath is generally impossible with spoilers about stuff like that spreading across the internet like wildfire. Only the earliest players would be ignorant -- and perhaps not even them, since a game's review might precede its release and contain basic spoilers.\r\n\r\nBut deep and far-reaching revelations can be great if the game is fun to replay. On replay, the player might re-experience many events with a different perspective or knowledge of where it's leading. Or the player's character could retain some knowledge from the ending, so that new dialog options and such are unlocked in replay.\r\n\r\n@Chris: As soon as the player experiences one event that proves his/her character unreliable, then realization is no longer after-the-fact. Your gun-syringe idea is a good example. If you thought you were healing an ally and then realized you shot him, you would doubt your senses from then on. The player's freedom of choice can grow as the player becomes increasingly aware of the unreliability of his character or others. The film A Beautiful Mind is a good example of how awareness of unreliability can empower free will.\r\n\r\nDialog options can reflect impulses like paranoia and lying. The player is then given the option to reject those impulses. The number and variety of choices might increase through the game with the character's own self-awareness. A bonus of this route is that it gives the player the option to choose the poor impulses, despite knowing them as such... similar to choosing the insane Malkavian class in Vampire: The Masquerade - Bloodlines.\r\n\r\nOn the other hand, trust/distrust doesn't have to exist only at the story's end or throughout. It can come and go. If a great amount of time passes between one lie/hallucination and another, that experience might be forgotten and trust regained. One can also be led to blame lies and hallucinations on particular circumstances, to believe the problem will not recur in other circumstances. For example, if someone misled you in a business deal, you might not expect that person to lie to you in casual interaction as well (\"it's just business\").",
      "parentPostTime": "2009-07-28T19:39:27",
      "parentPostId": "13478308"
    },
    {
      "threadId": "25831513",
      "post": "Beautifully put. I agree on all levels of this post.\r\n\r\nIt would seem to me that the IGDA would be one to further the development of our industry, and it is. However, it seems to do so at a crawl, sometimes even at a stand still. I brought this up earlier and I hate to bring it up again or even suggest it but perhaps the founding of a different association or organization is in order. I'm not one for segmenting the population, but I despise lack of forward movement even more. ",
      "time": "2009-07-17T05:44:44",
      "id": "12802184"
    }
  ],
  "profileInfo": {
    "username": "ChristianArca",
    "about": "",
    "name": "Christian Arca",
    "disable3rdPartyTrackers": false,
    "isPowerContributor": false,
    "isAnonymous": false,
    "rep": 1.259904,
    "profileUrl": "https://disqus.com/by/ChristianArca/",
    "url": "http://christianarca.tumblr.com",
    "reputation": 1.259904,
    "location": "",
    "isPrivate": false,
    "signedUrl": "http://disq.us/?url=http%3A%2F%2Fchristianarca.tumblr.com&key=TLmrmHFJD-JYsoGgy7GX3Q",
    "isPrimary": true,
    "joinedAt": "2008-06-26T15:30:54",
    "id": "51519",
    "avatar": {
      "small": {
        "permalink": "https://disqus.com/api/users/avatars/ChristianArca.jpg",
        "cache": "//a.disquscdn.com/uploads/users/5/1519/avatar32.jpg?1412166165"
      },
      "isCustom": true,
      "permalink": "https://disqus.com/api/users/avatars/ChristianArca.jpg",
      "cache": "//a.disquscdn.com/uploads/users/5/1519/avatar92.jpg?1412166165",
      "large": {
        "permalink": "https://disqus.com/api/users/avatars/ChristianArca.jpg",
        "cache": "//a.disquscdn.com/uploads/users/5/1519/avatar92.jpg?1412166165"
      }
    }
  }
}