{
  "comments": [
    {
      "threadId": "122562300",
      "post": "I'm sure another texas QB will dawn a tiger High School Jersey, and you will soon be relevant again.  At least you didn't have to bolt for C-USA, even though it would fit yall big bad tigers very nicely.",
      "time": "2010-08-08T17:37:33",
      "id": "67207959",
      "parentPost": "I will add that also the self proclaimed \"professionals\" from Texas Tech are harmful to the integrity of college football.",
      "parentPostTime": "2010-08-02T03:45:02",
      "parentPostId": "65659758"
    },
    {
      "threadId": "117469575",
      "post": "and yes I mis typed eduaction.  Damnit!!! Left some cannon fodder for Mighty Mo to blow they ex-pirate outta the water.   Yarrrrrrg!!!",
      "time": "2010-07-18T21:42:12",
      "id": "63084516",
      "parentPost": "Now don't have your usual meltdown.  If TTU was the best you could afford then you shouldn't be ashamed.  And don't let the wealthy Dallas suburbinites put you down.\n\nDon't be upset with me, it's your Texas cousins that don't like to be ball and chained to tech problem.",
      "parentPostTime": "2010-07-18T21:15:18",
      "parentPostId": "63082218"
    },
    {
      "threadId": "106137738",
      "post": "I honestly think you still have a good shot at the big 10, I think the big 10 is just holding out till the south makes a move to the PAC 10. I think the big 10 is just seeing if they could possibly land a ND or a Texas. I think yall get an invite just later rather than sooner. ",
      "time": "2010-06-12T03:39:33",
      "id": "56335950",
      "parentPost": "Contrary to rumors and media reports, I am not personally responsible for the demise of the B12.  ",
      "parentPostTime": "2010-06-11T20:57:39",
      "parentPostId": "56241634"
    },
    {
      "threadId": "105882091",
      "post": "Off-topic War eagle but I will be invading your city in about 24 hours. Moving to the ATL and look forward to chatting with you about the area. I won't be by a computer for a while to respond because of the monster drive from west Texas.",
      "time": "2010-06-10T06:12:40",
      "id": "55636165",
      "parentPost": "I think that the mega-conference talk was designed to convince Notre Dame to come in from the cold. And it might just work. ND has to be scared that if the CFB landscape devolves into FOUR major conferences from SIX, they'll never again get a shot at the national championship --based purely on SOS alone. Their sympathy vote is waning big time.",
      "parentPostTime": "2010-06-10T02:37:32",
      "parentPostId": "55615559"
    },
    {
      "threadId": "104751995",
      "post": "Your hate for Texas is blinding you. The problem with you is your all  \r\nabout status and an AAU pedigree, but chief you are severely  \r\nmisguided. Your clone argument has obviously showed that you have no  \r\nidea what you are talking about.  Saying that your big state U is  \r\nbetter acadamically than mine is not true and for sure unfounded.  \r\nESPECIALLY when you are Missouri.  If you are fishing for some false  \r\nepiphany, you are bot gonna get one. Agree to disagree. I do like the  \r\nbanter however, and look forward to more of it during the season.  \r\nShould be interesting to see how it all shakes out.",
      "time": "2010-06-09T05:32:05",
      "id": "55436583",
      "parentPost": "\"A Tech problem\" really summarizes the real situation with your institution.  But you aren't the loan ranger because Baylor, KStae, Ok State, Iowa State are academic clones of TTU.\n\nGet that official tier one status, AAU membership and another hundred years of history and then you might get some limited respect from other institutions.  That pilot fish status is hard to shake, but it would help to stop leaching on the UT aTm sugar daddies.",
      "parentPostTime": "2010-06-09T04:11:32",
      "parentPostId": "55421858"
    },
    {
      "threadId": "82686397",
      "post": "ACT SAT HS Class\r\n(CR–M) % Rank\r\n23 1050–1080 48\r\n22 1010–1040 54\r\n21 970–1000 62\r\n20 930–960 69\r\n19 890–920 78\r\n18 840–880 86\r\n17 800–830 94\r\nYeah buddy you sure are elite, and you sure would qualify to be a great big 10 elite boy!!! The schools you have a sour taste for are the schools you compare yourself too. You are not Texas, and never will be. This is a college football blog, so this is the last time I will be responding to you because you rarely mention college football. You talk about things like academics, basketball, basketball coaches, basketball and the weather. I have also listed the great admission scores of Mizzou above. However I understand that each school has its strength. I think Mizzou has a good journalism school. Texas Tech’s is known for its engineering school, but because you have decided this path, I will lead you down it Elite boy. They look verrryyyyyyyyyyyyyyyyyyyyyyyyyy stringent to me boss. Man I don’t know how all us Texas folk could do some figuring how to get into old Mizzou. Man I’d have to go back in time and study extra hard to make a 3 digit score on an SAT. I am not saying Texas Tech is an elite academic school, but look in the mirror, neither are you. I think you should shoot for Ivey League instead of Big 10, or you could just start calling yourself what you are. Big State U. You don’t have to respond.",
      "time": "2010-04-22T17:26:16",
      "id": "46060028",
      "parentPost": "Those are all valid points Tyler Tech!  Particularly in regards to my Texas slant!  At least MIZZOU has won a B12 Division, not to mention conference titles in all other sports too.  Tech's success is minimal in B12 if counting trophies, but don't worry, they will show up as TTU gets some real history under their belt.  Yes, money is a big reason MIZZOU will leave.  Seems silly for them to sit around in the B12 while Texas (a big shark) rakes in most of the profit share.  B10 has a much more equal money share and MIZZOU stands to gain a ton of cash (good for a pilot fish - like TTU).  So, go ahead and reconstitute the old SW conference and play with your own kind!  We are going to take our ball and play with people like us!  Also, the academic standards in the B10 are superior to  the collective B12.  Only MIZZOU and Texas would qualify academically for B10 membership at this time, so academically this is an excellent move for the bleeding black and gold.  But I'm happy you are standing up for yourself and TTU!  Good job!",
      "parentPostTime": "2010-04-22T12:08:52",
      "parentPostId": "45992087"
    },
    {
      "threadId": "85105876",
      "post": "Not even a thread for the big game against Bama in 2012....pshhhh.  I guess this must have been due to the fact that the world is apparently ending in 2012, duely noted.",
      "time": "2010-04-12T21:07:10",
      "id": "44502059"
    },
    {
      "threadId": "79671890",
      "post": "Word on the street around my parts is that we are scheduling an opener with the tide at cowboys stadium in 2012.",
      "time": "2010-03-31T03:13:52",
      "id": "42385707",
      "parentPost": "i have no problem with any of this. \nUrban was doing his job, and while his rant might have been misguided or ill-advised, he meant well. All he knew was one of his players was being made out to be something he wasn't, and he got upset, and took out his upsetness on the closest reporter he could find. \nhe wasn't in the right, or the wrong. \n\nthe same is true with the reporter. It's his job to quote players and build stories around those quotes. That's all this reporter did. He had no idea that his article would be the biggest subject for talk-show hosts the following day. He was just writing a story for the paper. \n\ntwo guys doing their jobs, and doing them fairly well. ",
      "parentPostTime": "2010-03-28T07:29:08",
      "parentPostId": "41969242"
    },
    {
      "threadId": "78758722",
      "post": "Word on the street is that we are scheduling an opener at Cowboys stadium with your nemises 'Bama.",
      "time": "2010-03-31T03:12:03",
      "id": "42385316",
      "parentPost": "I can say it 'southern style': Vaginal Tech and Tennessee in Atlanter....",
      "parentPostTime": "2010-03-24T05:01:25",
      "parentPostId": "41335106"
    },
    {
      "threadId": "49556173",
      "post": "does anyone else have problems changing their avatar using disqus?",
      "time": "2009-12-04T08:31:27",
      "id": "24768597",
      "parentPost": "Pac 10 version of Championship game: Oregon-40 and OSU-37\n\nSEC: Florida-26 and Alabama-27\n\nACC: Ga Tech-26 and Clemson-20\n\nBig 12: Texas-33 and Nebraska-21\n\nCUSA: Houston-43 and East Carolina-37\n\nMAC: Central Michigan-28 and Ohio-22\n\nBITCHigan Wolverines Bowless?...PRICELESS.",
      "parentPostTime": "2009-12-03T19:23:04",
      "parentPostId": "24707934"
    },
    {
      "threadId": "48884663",
      "post": "Thats's why you're ben prather! Seein' both sides of the ole' coin! ;)",
      "time": "2009-12-02T23:07:45",
      "id": "24638092",
      "parentPost": "Urban never said he would never leave Utah.  He had payouts to Utah in his contract that were waved if Notre Dame, Michigan or Ohio State offered him a job since day one of his contract at Utah.\r\n\r\nUtah was a stepping stone for Meyer and both sides knew this.  I would argue it has worked out well for both parties.",
      "parentPostTime": "2009-12-02T14:39:56",
      "parentPostId": "24594832"
    },
    {
      "threadId": "47295917",
      "post": "Jump around!!! ;)",
      "time": "2009-11-23T04:05:18",
      "id": "23850295",
      "parentPost": "So Oklahoma isn't ranked?! Just because we are 6-5 and lost by 28 to a 7-4 team!\n\nI'm Outraged!!!\n",
      "parentPostTime": "2009-11-23T02:19:22",
      "parentPostId": "23846197"
    },
    {
      "threadId": "45852239",
      "post": "The future is always now at USC.  I know plenty of USC fans that are not happy about what is going on.  It is not the fact that they are losing, it is that they are getting murdered.  Other teams are simply not USC.....",
      "time": "2009-11-16T08:33:23",
      "id": "23176479",
      "parentPost": "Everything comes to an end. Most people want to bash USC and point there finger in joy as they fall to 8-3. This is terrible behaviour in my opinion. Give USC the credit they deserve. They had a great team for many years. Also, lets not forget that USC is in a rebuilding year and they have 3 wins against currently ranked teams, one of which is the BIG10 champ on their turf, and another win against a long time rival @ ND. They also have two possible wins on there schedule and a bowl game coming up. I can name alot of teams that would love to have a season like that!\r\n\r\nThis is a very young team that is going to be very good in the future. You can count on it!",
      "parentPostTime": "2009-11-16T07:46:15",
      "parentPostId": "23175758"
    },
    {
      "threadId": "44350263",
      "post": "Interception called incomplete,  Total BS call.  What is the point of instant replay!?!?!?!?!?!!?!?!? What is the freaking point.................",
      "time": "2009-11-09T02:59:07",
      "id": "22357811",
      "parentPost": "Scott is done for the regular season. He may come back for the Bowl Game. \n\nJefferson could have returned, but it's a sprain. He got taped up & wanted to go back in, but they held him out. Thankfully, its not a sprain of the high ankle variety. \n\nI'm not as bitter as I am disgusted, RT73...\n\nDisgusted that on a 4th & 6, the refs walked off 5 and a half yards. Did you see that after the punt penalty? Or the way that Peterson never touches the receiver, but gets called for DPI? Or the way every angle shows him putting two feet down? \n\nIt's not close, RT73...It's not close, but its in keeping with the script that we've evidently had written in the SEC Offices for a few months now. \n\nAlabama & Florida will face a made-for-TV rematch in the SECCG for a chance to play for the National Championship. \n\nNothing short of some sort've epic blowout victory will be allowed to derail that central plotline of the 2009 SEC Season playing out. \n\nDo you understand what it's like to realize that no matter what your team did on the field, if it came down to close, tense, game-changing plays, there was no way we would be allowed to make them? \n\nIsn't there some sort've tinge inside you that makes you realize that every call went your team's way? \n\nDid you even hear McElroy? \"I guess sometimes, you get a break.\"\n\nYeah, a break like having a replay official that lives in Mobile, AL...\n\nIt's not bitterness. We laid it on the line, and left it all on the field. You saw Chuck Scott TRUCK McClain & put him on his @ss along the sidelines. You saw LSU put together what would've easily been an individual rushing performance of 100+ yards, and a 65% completion %, defensive scores, multiple turnovers. You saw a complete effort from a complete team.\n\nWhat you also saw was a team that is simply unable to beat both Alabama & the referees.",
      "parentPostTime": "2009-11-09T02:12:18",
      "parentPostId": "22306016"
    },
    {
      "threadId": "42988028",
      "post": "I had a thread with him earlier in the year stating he was going to have a tough time winning out, and they were going to miss Sarkesian more than they thought.  Oh how the mighty men of troy have been knocked back down to reality.  I hope a Big 12 team putts a whoopin' on them in the holiday bowl.",
      "time": "2009-11-04T16:31:00",
      "id": "21865451",
      "parentPost": "Well I was about half serious anyway....from some of Tommies past posts, I know he bets on games....that and the fact he said something like it didn't make any difference that S Cal lost to Washington, SC would win out and still be in the NCG......I think he figured SC would waltz right thru Oregon and didn't have any idea that they would forget the steps.....now the dance lessons start all over again...",
      "parentPostTime": "2009-11-03T03:44:50",
      "parentPostId": "21728152"
    },
    {
      "threadId": "42989553",
      "post": "\"Only anti-Gator propaganda will ever show up.\"\r\nYeah the media is clearly against the Florida Gators and Tim Tebow show. LOL!! Not saying this doesn't happen alot, but there is no reason to defend this dirty thuggish act from a so called team leader.  If I am not mistaken the Florida Gators were calling the Sooners dirty players during the National Championship last year.  Seems like the pot calling the kettle black to me.\r\n",
      "time": "2009-11-02T03:27:34",
      "id": "21585073",
      "parentPost": "Completely uncalled for from Spikes but also understandable. Georgia pulled some low blows on Spikes and other Gators yesterday. These are pulling Spikes hair, ripping his helmet off poking his eyes. The Dawgs didn't stop there as they then went after Tebow. This included poking him in the eyes and choking him. None-the-less, none of this ever shows up. Only anti-Gator propaganda will ever show up.\n\nI in now way condone these actions but anyone who has played football, knows its part of the game. Most just don't show up on TV so clearly.",
      "parentPostTime": "2009-11-02T01:05:12",
      "parentPostId": "21561349"
    },
    {
      "threadId": "40281420",
      "post": "You're right it is not a big deal.......but, the rule clearly states the act is illegal.  The rules are the rules.  Whether is creates a competitive advantage is debateable.",
      "time": "2009-10-22T03:58:22",
      "id": "20763804",
      "parentPost": "Oh, for the love of football gods.\r\n\r\nIf, as Spurrier says, \"[i'm] sure they've been doing it all year\"...why is this the first time ANYONE has seen it?\r\n\r\nI'm not saying that they haven't done this; I'm not saying they have. I honestly haven't noticed it this year, but I've been up in the stands for each game. All I'm saying, is if this has been happening, how come no one - other coaches, other players, tv announcers, tv viewers - has mentioned anything about it??\r\n\r\nWhatever the matter, this is just going to be another one of those things that gets blown waaay out of proportion because the words \"Alabama\" and \"cheating\" are in the same sentence. \r\n\r\nRoll Tide.",
      "parentPostTime": "2009-10-21T03:00:45",
      "parentPostId": "20675574"
    },
    {
      "threadId": "40296617",
      "post": "If Texas loses a game, they are def out.  No doubt in my mind Cinci would jump them if they run the table. SOS is going to kill Texas if they drop a game.",
      "time": "2009-10-18T22:10:36",
      "id": "20356154",
      "parentPost": "I'm sorry, but I don't think an undefeated gets in before a one-loss  \r\nTexas, Alabama, or Florida team.",
      "parentPostTime": "2009-10-18T21:32:32",
      "parentPostId": "20354092"
    },
    {
      "threadId": "39115167",
      "post": "I would be very surprised if Texas makes it to the big dance this season.  I see them dropping 1 if not 2.  Unless something surprising happens, The SEC championship game will represent the national championship game if bama and florida make it our of their schedules 12-0.",
      "time": "2009-10-15T02:44:08",
      "id": "20092459",
      "parentPost": "haha, the Texas DNA only applies to QBs. \r\ni still think Colt McCoy is great, but I also think OU has a great shot at the upset this weekend.\r\n\r\nBUT\r\n\r\ni must say i'll be pulling for Texas, because i really don't wanna see VT in the national championship this season.",
      "parentPostTime": "2009-10-14T22:50:07",
      "parentPostId": "20077718"
    },
    {
      "threadId": "39470695",
      "post": "Money line that game and whatever game is in Dallas this week....;)",
      "time": "2009-10-14T15:36:15",
      "id": "20048177",
      "parentPost": "I agree, that's a tough one....the pigs can score points, just not sure if they can handle any part of your defense..\r\n\r\nI think my lock of the week will be the Nebraska/TTech game...",
      "parentPostTime": "2009-10-14T15:31:27",
      "parentPostId": "20047931"
    },
    {
      "threadId": "38422789",
      "post": "Does anyone else see this Boise Sate vs. \"X\", for the NC, playing out like I do........",
      "time": "2009-10-09T15:17:28",
      "id": "19676138"
    },
    {
      "threadId": "36634283",
      "post": "You guys really impressed me against CAL.  I do not think anyone saw that kind of dominance coming out.....except for maybe you guys.",
      "time": "2009-09-30T15:32:40",
      "id": "17850514",
      "parentPost": "Oregon's Walter Turmond III is out for the season with 3 torn knee ligaments.  Twisted his knee on the opening kickoff Saturday.  What a bummer...",
      "parentPostTime": "2009-09-29T23:31:49",
      "parentPostId": "17808069"
    },
    {
      "threadId": "36821768",
      "post": "All this fun banter just makes me bitter...:(\r\nThe old pirate died by his own sword in this one.",
      "time": "2009-09-30T15:21:45",
      "id": "17849858",
      "parentPost": " Check Craigslist-WEA\r\n na they are probably still in H-town some dorm of frathouse",
      "parentPostTime": "2009-09-30T01:20:45",
      "parentPostId": "17813641"
    },
    {
      "threadId": "36037029",
      "post": "Poor coaching on that Houston game.  I think everyone could see that.  The mad pirate DEFINITELY died by the sword this time.",
      "time": "2009-09-27T06:12:19",
      "id": "17561350"
    },
    {
      "threadId": "35239963",
      "post": "Little early to say you will finish 12-1, don't ya think.  Cal and Oregon could be slip up games.....\r\nDon't get me wrong your team is absolutely stacked, but the QB is still a big question mark.",
      "time": "2009-09-22T03:24:44",
      "id": "17078502",
      "parentPost": "BC:\r\n\r\nThat's because Southern Cal will still finish 12-1 and ranked 2nd in the country - while your beloved Tide get smashed by both Florida and who ever they play in the The Capitol One game. Not having Matt Barkley, Taylor Mays and Ronald Johnson may have had something to do with it. It's just too bad there aren't enough good teams in the SEC to ever pull an upset. Teams like Vanderbilt, Mississippi State and whomever resides in the bottom six - could never beat an upper tier team. But, Utah can sure pound the crap outta Alabama! Can't seem to handle them quacks though. Tell me about that.\r\n\r\nWe got Arizona State and Georgia coming up. I'll take the Devils and those points all dayum day. Let's see if another shocker might be in the works. And, I wouldn't be babbling too much about Tennessee either. Coach Meyer expressed that that was the best defensive unit he's seen in awhile. That includes yours.\r\n\r\nIf you played teams that could beat you - you might lose one once in awhile. It's pretty sad to be babbling about great wins over teams like North Texas. How can you even try and perpetrate that? Why would you even mention it? I don't recall ever saying one single word about our win over Idaho last year. Who would even care?",
      "parentPostTime": "2009-09-22T03:10:59",
      "parentPostId": "17077150"
    },
    {
      "threadId": "33495618",
      "post": "Notice I used the word severe in front of beating.",
      "time": "2009-09-11T00:39:00",
      "id": "16396845",
      "parentPost": "\"If things don't look better against rice we could be in for a severe beating in Austin.\"\r\n\r\nAh, forgive me, Tyler.  But, after last year, even if things do improve, I think Tech's in for a severe beating in Austin...likely akin to that at OK last year.",
      "parentPostTime": "2009-09-10T22:47:03",
      "parentPostId": "16392039"
    },
    {
      "threadId": "33343008",
      "post": "I get really tired of espn guys like Herbster saying that one player does not make up a team.  If they are going to approach situations like that why even hand out individual awards.  If Bradford was in that game y'all win.  Not like the guy won the Heisman or anything........................\r\nTough break, maybe they will bounce back, Gresham is a really tough break.",
      "time": "2009-09-10T19:42:35",
      "id": "16320753",
      "parentPost": "TC, if you're talking about Bradford, thats a possibility...if you're talking about Gresham...he's out for the season...",
      "parentPostTime": "2009-09-10T02:21:01",
      "parentPostId": "16285293"
    },
    {
      "threadId": "32686504",
      "post": "Oregon will be allright, but I think they need to open up the quarterback job.  Oregon did not run their offense like they have in the past.  They tried to be a pocket passing team, and that is not who they are.  To quote Captain Leach \" You are, who you are\".  They should have continued to run the option and trust their system.  Chip pannicked way too early, Example: going for two on their first score of the game??  Oregon could have won this game, but any team is gonna have a hard time winning with that many turnovers.  I will be really dissapointed if Boise runs the table, because I am tired of hearing this banter from the pundits.  Their biggest game left is.....Fresno State.  Gimme a break.....",
      "time": "2009-09-04T15:13:13",
      "id": "15975765"
    },
    {
      "threadId": "32611515",
      "post": "I expect Boise and Oregon to come out slugish in this one.  If you play the ponies take the under...;)",
      "time": "2009-09-03T21:17:54",
      "id": "15901652"
    },
    {
      "threadId": "27434851",
      "post": "haha very nice",
      "time": "2009-08-14T01:46:08",
      "id": "14816531",
      "parentPost": "I guess you shoud have played them sooner.",
      "parentPostTime": "2009-08-07T03:25:04",
      "parentPostId": "14413714"
    },
    {
      "threadId": "28928594",
      "post": "My weight fluctuates about 15 lbs during football season, no joke.  Dark Beer and red meat....nothing better.",
      "time": "2009-08-14T01:38:47",
      "id": "14816246",
      "parentPost": " Fajitas,Brisket, sausage & Shiner beer",
      "parentPostTime": "2009-08-13T21:15:07",
      "parentPostId": "14805520"
    },
    {
      "threadId": "25445701",
      "post": "I just read this thread and am now dizzy.",
      "time": "2009-08-06T22:02:27",
      "id": "14396124"
    },
    {
      "threadId": "23934960",
      "post": "Nebraska vs. V-Tech will tell us a lot about the strength of the ACC this year. If the huskers beat em in Blackburg with that black box on the sideline, I will expect more of the same ol' same ol' from the ACC this year.",
      "time": "2009-07-02T22:44:30",
      "id": "12051346"
    },
    {
      "threadId": "22472618",
      "post": "meant to say top 20. ooops.  I really don't have a problem with our ranking, other than the fact with other undeserving teams being scattered throughout.",
      "time": "2009-06-23T22:05:46",
      "id": "11647804",
      "parentPost": "I believe Texas Tech is #25...",
      "parentPostTime": "2009-06-23T21:16:06",
      "parentPostId": "11643433"
    },
    {
      "threadId": "21309296",
      "post": "TEXAS TECH 2005 COTTON BOWL CHAMPIONS!!!!!!!!",
      "time": "2009-06-16T21:58:05",
      "id": "11014558"
    },
    {
      "threadId": "17675255",
      "post": "GARBAGE!!!!.......Ole miss should be 4 or 5 based on what they got coming back.......",
      "time": "2009-05-10T03:28:18",
      "id": "9172535",
      "parentPost": "Why in the world is LSU and VT above Ole Miss? And why is Texas Tech so low? They were #7 before we beat them. Granted they did lose Harrell and Crabtree.",
      "parentPostTime": "2009-05-09T04:18:51",
      "parentPostId": "9149171"
    },
    {
      "threadId": "17489718",
      "post": "\"A time to Kill\" comes to mind.",
      "time": "2009-05-07T06:57:51",
      "id": "9086325",
      "parentPost": " I agree- horrible criminal behavior\r\n this aint no minor mistake, but a serious violent crime- they even urinated on her and claimed it was koolaid-sick\r\n This boy ought to be thankful he is lucky to be alive\r\n The fathers that I know would probably take action outside the court system\r\n no football for kidnappers & rapist",
      "parentPostTime": "2009-05-07T01:05:27",
      "parentPostId": "9077474"
    },
    {
      "threadId": "17419428",
      "post": "Cosby should have gotten drafted.  Steve Smith is a short guy too.  I think Cosby will get a chance.  The whole Leach thing got misunderstood.  His comments were a little off color but they were not of mal-intent towards any individual IMO.  Harrel has the accuracy to play in the NFL but not the arm strength.",
      "time": "2009-05-07T06:56:03",
      "id": "9085892",
      "parentPost": " Have yall heard about all the B/S going back & forth between Mike Leach, the press and Mike Sherman- Sounds like Leach was a little disappointed that the NCAA's record setting QB Graham Harrel was not drafted and A&M's Stephen McGee was.\r\n McGee was a great player, but was injured last season-I saw his replacement throw 4 picks in the Baylor game. BTW McGee's receiver in High School was a guy named Shipley.\r\n Quan Cosby wasn't drafted, probably because of his height 5' 9 \", but that guy has alot talent and can catch just about anything- He signed with the Bengals\r\n James Casey   TE/RB/QB/FB and return man from Rice got picked up by the Texans, he never left Houston.\r\n Big XII has 7 guys picked in the first round.\r\n congrats to BU's Jason Smith picked by St Louis at #2 ",
      "parentPostTime": "2009-05-06T02:26:20",
      "parentPostId": "9036104"
    },
    {
      "threadId": "16775483",
      "post": "It could be slightly more complex like a Da Vinci painting, or her other hand could be wandering and she is trying to tell us something.....",
      "time": "2009-04-28T16:12:20",
      "id": "8778268",
      "parentPost": "Look closely........\r\n\r\nWhat do you think the OU chick is suggesting with that hand gesture????\r\n\r\nIt looks like Auburn has come up \"short\" yet again..................\r\n",
      "parentPostTime": "2009-04-28T12:27:47",
      "parentPostId": "8770920"
    },
    {
      "threadId": "16789045",
      "post": "No I respect old logos. I just automatically think it looks like a  \r\nhigh school logo. I'm a little biased because my high school used the  \r\nexact same logo except yellow. All in all IMO I don't like it.",
      "time": "2009-04-28T05:33:14",
      "id": "8766344",
      "parentPost": "Logo change??? They have one of the best ones out there...\r\n\r\nI bet you like all the new striped/ swooshed/ tacky-as-hell uniforms???\r\n\r\n????? \r\n\r\nI own a Wyoming Cowboy t-shirt...\r\n\r\n",
      "parentPostTime": "2009-04-28T04:48:03",
      "parentPostId": "8765621"
    },
    {
      "threadId": "16308587",
      "post": "Ok Ok you got us there....;)",
      "time": "2009-04-28T04:36:19",
      "id": "8765421",
      "parentPost": "They should have urinated in the endzone, since their D can't keep anyone out.",
      "parentPostTime": "2009-04-22T05:11:27",
      "parentPostId": "8562412"
    },
    {
      "threadId": "15319809",
      "post": "But we did get ours against OU last year. You won't ever hear me  \r\ncomplaining about running up the score or any excuses about \" we are  \r\njust running our offense\". I am fairly certain every playbook has a  \r\nhalf back dive. LOL.",
      "time": "2009-04-14T18:23:04",
      "id": "8202968",
      "parentPost": "Yes.  And that is where my hatred for him began.\r\n\r\n2002 Tangerine Bowl: TXT is up 30-2 at halftime; CLEM managed a safety to get on the board.  Four touchdowns, the game is already beyond ugly.\r\n\r\nSideline reporter comes up to Leach and asks him what his thoughts are on the game, and the ^&%$&@#$ starts ripping into the job his offense had done; that they hadn't scored more points, that they weren't executing, etc.\r\n\r\nThe four TD's were not defensive TD's.  His offense had scored 30 points.  A Bowl game...the Tangerine...that meant absolutely nothing.  \r\n\r\nThen he kept starting QB Kliff Kingsbury in all the way through the 4th Quarter even when the score sat at 55-15.\r\n\r\nSure, CLEM could have played better...we've all had those days watching our team get pummelled.\r\n\r\nBut never have I heard a coach ticked off at his offense because they were only up four touchdowns at the half, like he expected to score 50 first half points against my team.\r\n\r\nMike Leach is the kind of guy they created parking lots for.  Not even Spurrier in his days at FLA was that much of a ^&%$&@#$.\r\n\r\n",
      "parentPostTime": "2009-04-14T07:54:38",
      "parentPostId": "8178742"
    },
    {
      "threadId": "15313458",
      "post": "Let us not forget Graham played the entire second half fo the baylor game with nine seperate fractures in his hand and Crabtree did not play.Graham later had 17 pins and two plates inserted in his hand......",
      "time": "2009-04-10T03:47:43",
      "id": "8027494",
      "parentPost": " If you want to pay your coaches bonuses-Okay go ahead\r\n If you want to call it B-12 conf champ bonuses- go ahead\r\n Every season is different and 08 was no exception\r\n Its really cool that two teams Texas & Oklahoma are usually in the top ten nationally.Its pretty cool that they face each other every year in a neutral stadium the the crowd split 50/50- the XII champ game is not as big as the RRS game-its not.  .012 % difference between the two teams\r\n  Whats really funny is that folks from the outside looking in can't understand.\r\n A 3 way tie is a 3 way tie\r\n The B-12 south has been a lot tougher than the B-12 north the last several years- not to take anything away from TTech- hey they beat Texas\r\n Aint nobody whining\r\n I saw the Texas Tech vs A&M game- did yall ?   A&M sucked last year and led TTech at the half- I know close dont count, but it showed me that they could be beat \r\n I listened to the TTech vs BU  game- wow what a close one BU led until the final minutes was driving the ball- two incompletetions- turned over on downs- TTech wins another real close one- had BU won would Texas have been in the CCG game- probably\r\n I saw the TTech @ OU game and OU whipped TTech\r\n I picked Ole Miss over TTech and I picked UF over OU\r\n Whats really hard for other folks{ fans of the other 118 Div 1-A teams} to understand is that the MNC game was of no importance to us Texas fans.\r\n Cant pull for OU, arch rivals that we dont like- we dont have that pull for them because they are in your conference mentality that the SEC fans have.\r\n\r\n  Hookem Horns- you cant understand its a Texas thing",
      "parentPostTime": "2009-04-09T14:33:58",
      "parentPostId": "8005604"
    },
    {
      "threadId": "15219827",
      "post": "Shipley is now officially a professional college athlete.  Can't say I blame him though, I would be living it up to. :)",
      "time": "2009-04-08T00:31:43",
      "id": "7957922",
      "parentPost": " NML Sooner enjoyed reading post=The RRS game is the biggest IMO and was a very evenly matched hard fought game. Shipley is a pretty fast return man and he will be back next season.\r\nHookem-Horns",
      "parentPostTime": "2009-04-07T21:36:05",
      "parentPostId": "7954244"
    },
    {
      "threadId": "10504289",
      "post": "I give USC props. They really will play anyone, anywhere, anytime. Their only problem is finding teams to play them in OOC.  We have had a few problems scheduling a home and home a few years ago against LSU. I know that we would not have problems scheduling USC if it was in the best interest of both schools. I'll just put it this way if we wanted to play USC at home, they would not decline.....",
      "time": "2009-01-29T02:39:18",
      "id": "5635304"
    },
    {
      "threadId": "9644037",
      "post": "Here are some games I would really like to see:\r\n\r\nUSC vs. UF\r\nUtah vs. UT\r\nTexas Tech vs. TCU\r\nBest part of the college football season:\r\n\r\nBesides the obvious crab grab, the downfall of Chase Daniels and the tigers.  My cousin played baseball with him at southlake in High school and the guy is the opposite of Tim Tebow when it comes to being a team player.",
      "time": "2009-01-10T00:42:08",
      "id": "5025787"
    },
    {
      "threadId": "9303120",
      "post": "I cannot believe the season is over.......\r\nI look forward to next season. I will try to keep posting and keep in touch with all you guys. Happy new year.",
      "time": "2009-01-04T05:55:46",
      "id": "4875619",
      "parentPost": " Tyler Tech   8-4 thats what they say every year, the Horns are usually underestimated and the Sooners overestimated- Granted we know the Sooners have one of the best O-lines in CFB and I wish yall luck against them next year, yall gotem at home. Sounds like yall went to the game, never been there they tell me its nice, no more Cotton Bowl @ the Cotton bowl, money & greed has taked over at least Texas Tech got to play in the last one at the historic venue.\r\n BTW I wasnt joking about BU next season.",
      "parentPostTime": "2009-01-04T03:30:23",
      "parentPostId": "4874153"
    },
    {
      "threadId": "8520010",
      "post": "Guys, Guys, You need not debate!!\r\nTexas Tech>Ole Miss\r\nThere that settles it.",
      "time": "2008-12-23T19:37:21",
      "id": "4594280"
    },
    {
      "threadId": "8344813",
      "post": "Maybe they should try and sign CC Sabathia for their head coach!!",
      "time": "2008-12-16T20:03:29",
      "id": "4434232",
      "parentPost": "$5.1 million buy out of Tubs.\r\nOver 1 million guaranteed to former assistants.\r\n$200,000 guaranteed to Tony Franklin\r\n$2 million a year for 5 years to Mean Gene\r\n$750,000 buyout of Genes contract.\r\n\r\nI guess Auburn hasn't heard about the recession yet.",
      "parentPostTime": "2008-12-14T15:55:31",
      "parentPostId": "4397547"
    },
    {
      "threadId": "8402721",
      "post": "I think you guys are going to have the gators running ragged, but I disagree. Murray is a huge playmaker and everyone is going to be needed.",
      "time": "2008-12-16T19:49:32",
      "id": "4433979",
      "parentPost": "Madu will replace Murray just fine, I just feel bad for Murray, this is the second Bowl game he will miss because of injuries....",
      "parentPostTime": "2008-12-16T18:48:31",
      "parentPostId": "4432826"
    },
    {
      "threadId": "8424032",
      "post": "Boise state woulda sold all their tickets.........",
      "time": "2008-12-16T00:41:18",
      "id": "4419072"
    },
    {
      "threadId": "8252595",
      "post": "He probably won't be invited even if they go 12-0. They are not a\r\ntraditional power house................",
      "time": "2008-12-14T17:50:10",
      "id": "4399114",
      "parentPost": " Yall had a remarkable season and good luck in the Cotton\r\n BTW  They coulda gave out 6 or 7 Heismans this year, they were all deserving\r\n Next year watch for Griffin to make that NY trip",
      "parentPostTime": "2008-12-14T05:30:14",
      "parentPostId": "4394533"
    },
    {
      "threadId": "8305237",
      "post": "I do not think I could ever fully kick the habbit. Even if there were no games played every year, I would probably find some way to talk about some recruit that is supposed to be a world beater. Perhaps I would just hit the gym.....",
      "time": "2008-12-12T22:27:45",
      "id": "4376643"
    },
    {
      "threadId": "8286324",
      "post": "Coach in waiting is a hilarious title. LOL.",
      "time": "2008-12-12T17:33:19",
      "id": "4368970"
    },
    {
      "threadId": "8208458",
      "post": "Thanks. I wish Texas and Rice luck as well. Rice and Baylor are 2 programs\r\nthat have come a long way. I hope Ohio State is dismantled so bad that they\r\nnever get an at large BCS bid again.",
      "time": "2008-12-11T20:50:20",
      "id": "4334836",
      "parentPost": " Yes Tyler Tech    Chase Clement has done a lot for his team\r\n Did you know that Heisman used to coach at Rice.\r\n BTW  I saw the Texas Tech vs Rice game in 2007  first time we got to see the Crabman in action-awesome player- good luck in yalls bowl",
      "parentPostTime": "2008-12-11T19:40:59",
      "parentPostId": "4332408"
    },
    {
      "threadId": "8121786",
      "post": "Letting conference champions from all 11 conferces in would be a huge mistake. You would have huge controversy, with teams bearly ranked inside the top 40 getting into the playoffs, and teams ranked inside the top 10 not getting in IMO.",
      "time": "2008-12-10T20:16:15",
      "id": "4314761",
      "parentPost": "No it wouldn't. Rivals posted and excellent playoff format that would have the first round of the 16 teams played at the field of the highest seeded team. every game after that at bowls.  The tournament would include ALL 11 conference champions and then 5 at large bids probably from the BCS.  This set up would even allow most the bowls to keep their tie ins as the loser of the first round would be out early enough to still go play in one of the lower bowls.  It is probably the best set up i have seen for a play off and the first one that i've ever supported.  By having the first round at the higher seeded teams field it would allow less travel on the fans parts. Unless you're a low seed team but chances are they arn't going to travel as well to the first game anyway. ",
      "parentPostTime": "2008-12-09T21:19:16",
      "parentPostId": "4295619"
    },
    {
      "threadId": "8145603",
      "post": "You are being pretty naive IMO. Recruiting in the SEC is pretty cut throat. College kids are pampered beyond belief and this can contribute to producing some pretty bad apples. Besides it being a poor reflection on a University, i really could care less of what a college athletes personal beliefs or true character off the field is. Once the players step on the field, all of that is pretty much throw out the window. ",
      "time": "2008-12-10T05:11:01",
      "id": "4304084",
      "parentPost": "Judge not.......Houston Nutts is a man of honor and works with young men for the right reasons.  Of all the negative comments on here,  what are you doing for your community and society.   Are you giving back?   Children, young men and woman,  they need the adults of this world for guidance and support.  I am ashamed of what our society has become with very little empathy, care , or value for one another.  Thank you Houston Nutts for being the southern gentleman that can see a reason to put extra time in with someone who needs you.   You are doing like many wonderful coaches before you.  Look at the Bear with Joe Naymith,  he saved this young man.   Alabama, Mississippi, and GA  the true southern states that care for our people,  Nutts  I am glad your a part of us.  ",
      "parentPostTime": "2008-12-09T20:51:47",
      "parentPostId": "4295104"
    },
    {
      "threadId": "8142826",
      "post": "I am very dissapointed to hear that...... ;)",
      "time": "2008-12-10T02:42:14",
      "id": "4302831",
      "parentPost": "I think he'll be there at least one more year...",
      "parentPostTime": "2008-12-10T03:27:23",
      "parentPostId": "4302611"
    },
    {
      "threadId": "8102249",
      "post": "I agree with the matt ryan angle but i believe Matt ryan was a better college QB than stafford. That comeback vs VT was great!!! I guess we will have to wait and see.",
      "time": "2008-12-09T06:43:18",
      "id": "4284340",
      "parentPost": "Stafford's guided that team with a rebuilt, wreck of an offensive line, and only one shaky, inconsistent wideout in Massoquai for two years before AJ Green got there this year...\r\n\r\nHe's guided that team to a point where they will look to finish with double digit wins two years in a row...\r\n\r\nI watched him personally destroy our defense in Tiger Stadium. The checks at the line and the level of recognition he showed in checkdowns on blitzes (albeit half-ass, meely-mouthed, non-disguised, sorry-ass blitzes) was impressive. \r\n\r\nWe have great seats to watch quarterbacks as they go through progressions and read the defense from our vantage point in the South End Zone of Tiger Stadium...\r\n\r\nTaking that into consideration,  I have watched Tim Tebow & Matthew Stafford go against two VERY different LSU defenses...Tebow's offense with Mullen is very simplistic and relies on the offense itself to create the spaces for athletes to make plays. Tebow isn't throwing timing patterns, or anything resembling a complicated passing offense. The Spread Option ain't complicated through the air. \r\n\r\nHowever, Matthew Stafford runs a sophisticated offense, checking liberally at the line, and reads defenses and puts the ball into windows Tebow can't dream of. \r\n\r\nHe's far more polished and has done far more with far less than Tebow.\r\n\r\nHaving said that, I would take Tim Tebow 100 times out of 100 if I wanted to start a team in college...\r\n\r\nIn the pros, Tebow has the potential to be a good quarterback, but Matthew Stafford reminds me of a Matt Ryan, towhereas Tim Tebow-because of the more simplistic passing offense Tebow runs-is far less polished...",
      "parentPostTime": "2008-12-09T05:27:06",
      "parentPostId": "4281721"
    },
    {
      "threadId": "8066578",
      "post": "HAHA you remember the insight bowl a couple years back. We came back from 35 points! We are very entertaining to say the least in bowl games.",
      "time": "2008-12-09T04:35:24",
      "id": "4281127",
      "parentPost": "One of my bottom ones is FSU vs. Wisconson.  I don't want to watch Badgers anything, of all the teams in the big 10 this one comes right before Minnisota for teams I could care less to watch.  I think I'll consider another close bowl not involving my team.  Chick-fil-a maybe (easy daytrip)... Maybe Gator (closest)  I think that will be a good game with Nebraska and Clemson at similar levels at the momment, I think Clemson will win though.",
      "parentPostTime": "2008-12-08T17:59:38",
      "parentPostId": "4252933"
    },
    {
      "threadId": "8018335",
      "post": "Tim tebow is not fat. The specimen has a hard time bending his elbow to throw the ball because of all the muscle is a more viable theory to his mechanics......lol.",
      "time": "2008-12-08T04:51:14",
      "id": "4242826",
      "parentPost": "FSU BEN, It's apparent that you don't like Tebow. (Fat Fullback) come on now. Post one of your photos on here with your shirt off,,,,get my point. What great QB in the NFL, that did not have a great recievers, SHOW ME.",
      "parentPostTime": "2008-12-08T03:46:44",
      "parentPostId": "4242181"
    },
    {
      "threadId": "8057208",
      "post": "AUBURN is open.....",
      "time": "2008-12-08T04:16:49",
      "id": "4242489",
      "parentPost": "Yeah... it does seem fishey.  Perhaps Holtz is using Syracuse to bag a better offer from some other school?  What is still open that is decent... Just Washington right?  I would want Syracuse for available jobs but Washington is a real close second (If I was a football coach).",
      "parentPostTime": "2008-12-08T03:06:43",
      "parentPostId": "4241716"
    },
    {
      "threadId": "7994578",
      "post": "I see.......",
      "time": "2008-12-06T02:46:52",
      "id": "4217816",
      "parentPost": "*IF* this happens:\r\n\r\nBCS Automatic Qualifiers: \r\nTexas, Oklahoma, Florida, Cincinnati, Penn State, USC(or Oregon State if UCLA beats USC this weekend), Utah and the winner of Boston College vs Virginia Tech.\r\n\r\nThat is 8 teams, with 10 BCS spots, leaving room for 2 at large teams.  The at large pool would be (in order of likelihood of selection):\r\nAlabama, Ohio State, Boise State, USC(if they lose to UCLA), TCU and Ball State(if they win).\r\nAlabama would be in and Boise State's stakes go way up.\r\n\r\nUtah would get 4.5 million, half of the MWC's 9 million.\r\nBoise State would get 2.25 million, half of the WAC's 4.5 million.\r\n\r\nWAC rules stipulate that a team must give 1 years notice and forfeit all shared revenue (including Bowl money) if they leave the conference.  For Boise State's 2.25 million, the WAC might allow Boise State to leave early.",
      "parentPostTime": "2008-12-06T02:33:06",
      "parentPostId": "4217669"
    },
    {
      "threadId": "7938969",
      "post": "HERE IS OUR OFFER.......\r\n\r\nhttp://collegesportsblog.dallasnews.com/\r\n\r\nI think we got him......\r\nunless the tiger pirate booty is huge.....\r\n",
      "time": "2008-12-06T00:14:08",
      "id": "4216126",
      "parentPost": "<b>If you guys want my rundown on Auburn coaching rumors</b> <a href=\"http://www.trackemtigers.com/2008/12/5/682842/coaching-rumors-report-and\"> check it out right here.</a>",
      "parentPostTime": "2008-12-05T23:41:00",
      "parentPostId": "4215646"
    },
    {
      "threadId": "7934796",
      "post": "IMO I really do not think Saban has an effect on the SEC besides he is a great winning coach. It is not exactly like he came out of no where. LSU....\r\nI kind of agree with the lost it's dang mind theory.  Sure every team wants to be great every year, but there are 119 teams and only one can prevail(and sometimes alot of others get shafted, you know about that first hand). I am kind of on the fence with where AU is at right now. You have to really love a program that is proactive and won't accept anyting but championships. I really cannot stand people keeping losing coaches around because he was a \"nice guy\". Example, Spike Dikes at Texas Tech. (Coach before Leach) On the other hand you wonder if some decision making is a little bit too hasty.",
      "time": "2008-12-05T03:54:51",
      "id": "4197621",
      "parentPost": "Tuberville came into Auburn and had his team in the SEC CG in the 2nd year, too. \r\n\r\nSaban's 2008 chapter hasn't been written yet, so let's reserve judgement, but I would agree that <i>so far, so good</i>.\r\n\r\nBut saying that all of Tubs' troubles are because of Saban is way too convenient. This stuff goes back much further than that. It certainly doesn't help, though...",
      "parentPostTime": "2008-12-05T03:29:39",
      "parentPostId": "4197328"
    },
    {
      "threadId": "7886315",
      "post": "I think it means he stays at Tech unless Auburn throws stupid money at him, making Leach a top 5 payed coach.",
      "time": "2008-12-05T03:46:49",
      "id": "4197523",
      "parentPost": "Breaking News: <a href=\"http://sports.espn.go.com/ncf/news/story?id=3745354\"> Leach withdrawls name from consideration for the Washington job.</a>\r\n\r\nInfer whatever you want from that...\r\n\r\nSorry for the double post, but I thought it was relevant on two threads...",
      "parentPostTime": "2008-12-04T23:18:55",
      "parentPostId": "4176553"
    },
    {
      "threadId": "7831410",
      "post": "wow.....haha",
      "time": "2008-12-04T18:17:32",
      "id": "4168447",
      "parentPost": "Tyler Tech,\r\n\r\nNow I know why 2 of my HS girl friends left me to go to UW...as you stated:\r\n\r\n\"I am really not sure the Huskies will offer him that much. I am not saying that they cannot (I know they are a really well endowed school\"",
      "parentPostTime": "2008-12-04T06:48:14",
      "parentPostId": "4162231"
    },
    {
      "threadId": "7787021",
      "post": "LMFAO!!!!",
      "time": "2008-12-03T03:23:01",
      "id": "4139417",
      "parentPost": "Good point...\r\n\r\nSo, what happens if Lane and daddy disagree?  \r\n\r\n\"...but Daaaaaadd, that's not how we do things here....\"\r\n\r\n\"...STFU son, or I'm gonna' have to tan your hide, boy....\"\r\n\r\n\r\nGO GATORS!!",
      "parentPostTime": "2008-12-02T20:29:37",
      "parentPostId": "4133283"
    },
    {
      "threadId": "7747709",
      "post": "Well after all.........HE IS A PIRATE!!!!",
      "time": "2008-12-03T02:18:41",
      "id": "4138664",
      "parentPost": "Mike Leach is a bad person.  He bites off the heads of kittens and roasts puppies over an open fire.  He also wants to ban Christmas and outlaw Ice Cream.\r\n\r\nYou remember how much \"ESPN hates your team\"? (http://www.fanblogs.com/fanblogs/007700.php).  \r\n\r\nThat's because ESPN is pure evil.  And ESPN likes Mike Leach.\r\n\r\nDo you know:\r\nWhy referees screw up so bad EVERYONE hates them?  Mike Leach.\r\nWhy it always rains on July 4th when you buy lots of fireworks?  Mike Leach.\r\nWhy people feel inclined to drive slow in the fast lane?  Mike Leach.\r\n\r\nDo you know why bad things happen to good people every single day?  \r\nTwo words: Mike Leach.\r\n\r\nNFL teams should schedule Texas Tech and put up 80 points a game, since he is so fond of doing that to FCS teams.\r\n\r\nPS: Thanks for the site, I'll check it out...:)",
      "parentPostTime": "2008-12-01T21:58:54",
      "parentPostId": "4092505"
    },
    {
      "threadId": "7814305",
      "post": "I thought they wore white at home sometimes during night games for their themed \"white out\"\r\nSpeaking of blue:\r\nI always thought it was a huge advantage for Boise State to where their BLUE jerseys on their home field BLUE turf. It lloks like they would blend in. I have never actually played on the field against the smurfs, so I cannot say for sure.",
      "time": "2008-12-02T22:58:26",
      "id": "4135954",
      "parentPost": "If I'm not mistaken, Penn State wears dark blue jerseys at home and all white on the road.",
      "parentPostTime": "2008-12-02T16:14:44",
      "parentPostId": "4128226"
    },
    {
      "threadId": "7783078",
      "post": "I believe the term is delete, because that is what I meant to do. Thanks you for keeping the thread \"spick and span\"!!!",
      "time": "2008-12-02T22:45:23",
      "id": "4135767",
      "parentPost": "I believe the term is \"h\"",
      "parentPostTime": "2008-12-02T22:35:39",
      "parentPostId": "4135634"
    },
    {
      "threadId": "7741466",
      "post": "delete",
      "time": "2008-12-02T01:10:52",
      "id": "4112292"
    },
    {
      "threadId": "7666139",
      "post": "You make a good point. I really cannot argue against that. That is a good\r\nperspective on the situation.",
      "time": "2008-12-01T00:18:45",
      "id": "4077152",
      "parentPost": "Clear me up on one thing...if Stoops was trying to kill the clock, why didn't he have Bradford take a knee each time? \r\n\r\nEasy: because he didn't want to kill the clock. He wanted to score as much as possible without it looking too obvious by running the ball. If he passes, then its blatant running up the score. Instead, he runs (granted, they didn't stop ole boy) and tacks on 7 more, thus achieving both of his goals.\r\n\r\nTake a knee = not running up the score\r\nCalling plays = running up the score\r\n\r\nJMO",
      "parentPostTime": "2008-11-30T23:19:02",
      "parentPostId": "4076678"
    },
    {
      "threadId": "7719323",
      "post": "Do they deserve to be in the BCS???? Yes. Will they get a chance to prove they are for real???? NO.",
      "time": "2008-11-30T06:41:09",
      "id": "4067379"
    },
    {
      "threadId": "7645937",
      "post": "I am just gladI still get to post here with you......lol",
      "time": "2008-11-30T06:32:17",
      "id": "4067349",
      "parentPost": "  Hey Tyler Tech I'm not laughing, you dont have to go anywhere, yall got them in Lubbock and afterall it is the Bears. They have a great QB and will score some points, Raiders do real well at home and probably ought to win.I'll be pulling for the Bears who whuped A&M real bad at Waco and lost a close one with Missu.",
      "parentPostTime": "2008-11-29T18:58:04",
      "parentPostId": "4062933"
    },
    {
      "threadId": "7568730",
      "post": "Haha when I was a little kid my dad brought me back a T-shirt from Dothan when he was on Business that said \"Dothan, Alabama: The peanut Capital of the World\" Sorry to say Bama fans I only wore it as a night shirt. :)",
      "time": "2008-11-29T03:24:57",
      "id": "4057235",
      "parentPost": "Dothan? As in Dothan, Alabama?\r\n\r\nGod bless you.\r\n\r\nHopefully Bama fans there aren't giving you too hard of a time ... ;)",
      "parentPostTime": "2008-11-27T02:05:16",
      "parentPostId": "4033406"
    },
    {
      "threadId": "7617656",
      "post": "You are right the TTU win was not a fluke.......",
      "time": "2008-11-27T20:46:02",
      "id": "4042726",
      "parentPost": "UT lost to TTU by a touchdown. Not sure if I'd agree TTU win was a  fluke as they had been throttling UT until the 90+ bomb (fluke?). I don't remember the stats EXACTLY but I recall 1st downs 2:1 (TTU:UT) and total yds 500+ vs 300+ (or there about). \r\n\r\nI give UT credit for not losing hope during the game and breaking out of the intimidated funk they were in but I'd also say that TTU took their foot off their throats as well. I think TTU was probably in their own kind of shock that it had been so easy up until then. \r\n\r\nBTW, I am a U of AZ grad not TTU, OU, or Big-12 anything. Just trying to bring an unbiased perspective (sense) from someone who has NO motives (READ: no skin in the NC). \r\n\r\nThank you for your coutesy.",
      "parentPostTime": "2008-11-27T18:43:36",
      "parentPostId": "4041331"
    },
    {
      "threadId": "7440228",
      "post": "I think the best way to settle this 3 way tie is if OU beats OSU on the road. When OU,Tech,Texas, and OSU have played each other the home team has won every time. If OU wins against OSU on the road that is good enough for me to send them to the big XII championship game.",
      "time": "2008-11-26T18:49:26",
      "id": "4027603",
      "parentPost": "BB, did tech leave the team texas played at home and brought a complete new team to Norman,,,,,,,you sound like a pretty nice young man, but that statement didn't make any sense....",
      "parentPostTime": "2008-11-26T04:08:35",
      "parentPostId": "4018508"
    },
    {
      "threadId": "7519692",
      "post": "I would take all of those scenarios. I usually root for the mountain west and Big 12. But I secretly love to keep the big 10 and pac 10 down. Muahahahahahaha.",
      "time": "2008-11-25T23:21:27",
      "id": "4014304",
      "parentPost": "It might be good for college football to see JoePa get his teeth knocked in by the Beavers though...\r\n\r\nThen to see Texas stick it to USC...\r\n\r\nThen to see Utah get a fluke play to upset Alabama in the last second...\r\n\r\nOklahoma Florida would be great either way...\r\n\r\nAnd one other, but who cares...",
      "parentPostTime": "2008-11-25T22:49:00",
      "parentPostId": "4013852"
    },
    {
      "threadId": "7499913",
      "post": "I Agree with you TT, I really do not think it is fair that USC is not even considered because of the way the rankings work, even though they can compete with pretty much anyone year in and year out. You have your playoff right there minus Boise State I believe.",
      "time": "2008-11-25T21:03:49",
      "id": "4012024",
      "parentPost": "We're definately gonna have an SEC vs Big 12 National Championship game. Florida does stand the most to gain with games against Florida State and Alabama. The SOS for Florida will take a jump. I see Oklahoma having the same kinda good fortune with wins over Oklahoma State and Missouri. Should Oklahoma faulter - then Texas would probably move into that # 2 spot. Again, should Alabama beat Florida - then they're in. I don't think that USC can get enough of a \"bump\" to pass Texas.\r\n\r\nWe could end up with these unbeaten teams:\r\n\r\nUtah and Boise State\r\n\r\nAnd all these one-loss teams:\r\n\r\nFlorida, Alabama, Penn State, USC, Oklahoma, Texas and Texas Tech\r\n\r\nHas there ever been more need for a playoff of some kind? I don't think it has ever been quite this disturbing. I'm not even going to bother to fight for my team this time. There are just way too many good arguments for everybody. The only argument that I can make, is the same old disturbing trend, of scheduling very weak OOC competition is making for too many unbeaten and one-loss teams. There definately has to be a new system. There are several deserving teams that will not get to play for the National Championship this year.",
      "parentPostTime": "2008-11-25T07:11:00",
      "parentPostId": "4001581"
    },
    {
      "threadId": "7367005",
      "post": "No offence taken Regan. The whole \"then stop our offense, if you do not like us scoring\" is a two way street. We got exactly what we deserved in this game. Our team was way too cocky showing off that big #2 by their name and it bit them in the behind. I credit OU and their coaching staff though. I even saw a bradford option with murray. They provided plenty of wrinkles in their offense and defense to shut us COMPLETELY down. We relied on the let's just do what we do. I think Leach may have found out, this strategy does not always work, but it did not help either that our whole team forgot how to hit somebody. Especially against a dang good football team on the road.",
      "time": "2008-11-24T20:26:00",
      "id": "3992874",
      "parentPost": "Fagedaboudit. Gidanxexyeahsteamready.",
      "parentPostTime": "2008-11-24T02:00:19",
      "parentPostId": "3976604"
    },
    {
      "threadId": "7441433",
      "post": "That team that played Saturday night blows OK state out of the water, and everyone else in the country including Florida, and I have not given up on the BCS, just the NC.",
      "time": "2008-11-24T20:11:11",
      "id": "3992520",
      "parentPost": "TT, I'm pretty sure nothing like that could happen, but don't give up on your team, we still have to play Okie State, and as you know, anything can happen....",
      "parentPostTime": "2008-11-24T18:43:05",
      "parentPostId": "3988672"
    },
    {
      "threadId": "7147483",
      "post": "Haily mary???? I expect better from you tomcat. We could have kicked a field\r\ngolad to win FYI. Come one your better than this garbage post.",
      "time": "2008-11-21T02:48:08",
      "id": "3926715",
      "parentPost": " Yall havent played Oklahoma,Missu,Ark,Rice,Baylor,Colo,FAU,UTEP\r\n Yall played E. Wash,Nev,SMU,UMass,K St,Neb\r\n The only mutual opponents so far are KU & OK st   Texas beat them too\r\n I saw yalls A&M game, it was close A&M was actually leading at the half-thats A&M a team that got destroyed by Baylor\r\n  The game I saw at Lubbock was a last second hail Mary in which a true Fresh missed a tackle or Texas would be undefeated- Yall aint beat OU or BU yet- we have and the Horns are fixing to whup A&M in a convincing victory at Home\r\n Hookem-Horns",
      "parentPostTime": "2008-11-20T18:18:09",
      "parentPostId": "3917116"
    },
    {
      "threadId": "7237035",
      "post": "I think it is a pretty smart move. It has to be great to have a young, exhuberant coach on the inside, and groom him to be the next head coach. Brilliant move if you asked me. The only thing I do not like about it is that it narrows the coaching search for the Tenn. opening. Stay with me leach! Sniffle.",
      "time": "2008-11-19T02:12:53",
      "id": "3888599",
      "parentPost": " Thanks WEA   for a Texas thread- this is truley good news for America's pemiere program in college football. Muschamp is a very enthusiastic and energetic individual who leads by example and inspires his players to acheive their goals as a unit. The hard work and dedication exhibited by this defensive coordinater has him labeled as a players coach and its totally obvious with the entire team and not just the defensive unit.\r\n In last weeks game they held a team averaging 35 points per game to only 7 points and are leading the B-12 in rushing defense and scoring defense, they currently rank 25th nationally in these two catergories, in which the numbers can be very misleading.So far during the 08 season the Longhorns have faced some of the most high powered offensive units in the country which includes 6 teams who were ranked top ten at one point. They are currently tied for 2nd in the country in sacks averaging 4 per game and held 6 of their opponents to 14 points or less.\r\n Deloss Dodds AD for Texas has done an outstanding job in every aspect of Texas sports programs, not just football, but in baseball, basketball,swimming, track & feild, womens basketball, softball and soccer. The hire of Mack Brown was a perfect fit for the football program and this move on keeping Muschamp was a very wise thing to do given the success of the program. For many years the program has not been as consistant with retention of the assistant coaches, who have gone on to be HC's at other schools and UT is doing the right thing for everyone with this decision and Muschamp is the perfect guy at the right time.\r\n For more   http://www.mackbrown-texasfootball.com/  \r\n    Hookem-Horns",
      "parentPostTime": "2008-11-19T01:17:30",
      "parentPostId": "3887940"
    },
    {
      "threadId": "7240010",
      "post": "I think Rich does not appreciate the tradition of Michigan football. I have friends who live in Michigan and attend the University. All the fans of Michigan football want is a coach who loves Michigan, and hates Ohio State. I guess he did not get the memo. Fans are going to be furious over this one. \"Get a life\" wow. He has alot of nerve. He posts the worst record in the history of the school in one of the most historic football programs in the country. What he should be doing is hyping up this game vs. Ohio State, and treating it for what it is. The biggest game every year for this program. Personally I would get away from this chump as quick as possible. Michigan always has great recruiting classes, they will be back as always. They need to hire a coach who doesn't have a huge ego and has been affiliated with the university for a long time. Fans need to get a life!?!?!?!?!? Now that is rich RICH!",
      "time": "2008-11-19T01:23:10",
      "id": "3888005"
    },
    {
      "threadId": "7128340",
      "post": "haha, AGREED. I suppose going undefeated is not enough for USC fans. Apparently to be worthy to be ranked in the top 5 you have to play in the pac-10 and have a loss to oregon state. Wait lemme check real quick. Uh nope we do not apply. I thought you might respect teams from the big 12 a little more after your little run in with Texas in 05.",
      "time": "2008-11-18T19:47:01",
      "id": "3882236",
      "parentPost": "Tyler,\r\nApparently beating top 10 teams isn't  \"Big Boy Ball\". I guess you'll have to beat a number 1 team to be in that Big Boy league. \r\n\r\n...Oh wait. Tech did that. \r\n\r\nI guess Tommy thinks you gotta beat the almighty Trojans to be in that league he speaks of.\r\n \r\n..Big Boy Beavers!",
      "parentPostTime": "2008-11-18T19:26:30",
      "parentPostId": "3881872"
    },
    {
      "threadId": "6880850",
      "post": "Gonna look pretty funny too when we go into Norman and shut everyone up.",
      "time": "2008-11-13T22:14:21",
      "id": "3761202",
      "parentPost": "It gonna look kind of funny for Texas Tech to be playing FL in the BCS NC game after they lose to Okla in the regular season.  Just remember they don't get to play at home all the time.\r\n",
      "parentPostTime": "2008-11-13T19:52:14",
      "parentPostId": "3757702"
    },
    {
      "threadId": "6942851",
      "post": "i am going to be in a sea of crimson! I cannot wait for that game! I have never been to Norman. I hope it is the most silent town in the U.S. after the game. :)",
      "time": "2008-11-13T21:16:50",
      "id": "3760262",
      "parentPost": "You aint seeeeen nothin yet, wait until a week from Saturday ;-)",
      "parentPostTime": "2008-11-13T18:56:42",
      "parentPostId": "3746652"
    },
    {
      "threadId": "6994906",
      "post": "Yes hire anyone and everyone, just stay away from my coach......",
      "time": "2008-11-13T18:47:39",
      "id": "3746060"
    },
    {
      "threadId": "6953116",
      "post": ".....and get beat once again.",
      "time": "2008-11-13T03:40:25",
      "id": "3727202",
      "parentPost": "VT will be going to the Orange Bowl once again",
      "parentPostTime": "2008-11-12T23:36:30",
      "parentPostId": "3724079"
    },
    {
      "threadId": "6876525",
      "post": "Yes I remember it well. That is pretty much the only game I care about this\r\nweekend. I want reesing to return to his old ways and have a field\r\nday.......",
      "time": "2008-11-12T03:47:49",
      "id": "3696962",
      "parentPost": "Tyler, do you remember this game...Texas vs Kansas.....Mangino knows...\r\n\r\nhttp://www.youtube.com/watch?v=TuCqE8tMfEs",
      "parentPostTime": "2008-11-11T19:50:50",
      "parentPostId": "3683412"
    },
    {
      "threadId": "6841934",
      "post": "No not really into Sci-Fi, just pirates I suppose. YARRRRRRRRRRRRR!!!",
      "time": "2008-11-11T07:24:28",
      "id": "3675660",
      "parentPost": "By chance, are you into Sci-Fi?  There's been a lot of Pirate Mania going on there.  One guy's even pulling off a Pirate Fest in New London, CT.  So, in the spirit of the moment, ARRRRRRRRRG!!!",
      "parentPostTime": "2008-11-11T03:30:41",
      "parentPostId": "3672970"
    },
    {
      "threadId": "6582940",
      "post": "It would take him alot longer than 2 to 3 years. Trust me...... and do not think for one second that your boosters or alum are going to want him to be the coach.",
      "time": "2008-11-11T02:11:29",
      "id": "3672051",
      "parentPost": "Leach is my choice.  It won't take him 2/3 years to implement his offense and be effective... at least it didn't take that long at UK, OU or TTU and he is starting out with some decent skill position guys if he can settle on a QB.  ",
      "parentPostTime": "2008-11-11T01:20:48",
      "parentPostId": "3671527"
    },
    {
      "threadId": "6827229",
      "post": "I know I have nothing agaisnt OU fans either. I was not speaking literally , just saying we may disagree on predictions and such.",
      "time": "2008-11-10T05:37:13",
      "id": "3657068",
      "parentPost": "I don't know why. I have not a thing against Texas Tech or the fans. I been saying for the last 4 years if Texas Tech gets a running game and a defense that they would compete with Oklahoma and Texas. Do you know a minister that can drive the demons out of Mayday13? Maybe he can exocise those demons to Cleveland or New York?",
      "parentPostTime": "2008-11-10T05:34:16",
      "parentPostId": "3657039"
    },
    {
      "threadId": "6745391",
      "post": "Big 12 Edition:\r\nThere once was a big 12 south,\r\nwhose teams were tough and stout.\r\n3 teams in the top five, should be a heck of a ride.\r\nSo in 2 weeks the raiders cross the great plains,\r\nto decide the fate of all things.\r\nWith a win we will be raising our banner to challenge an SEC pretender. (sorry couldn't resist :) )\r\nIf by chance we fall,dissapoint, and run out of luck.\r\nThe BCS will turn into a huge cluster F***\r\nThe sooners took a break from critisizing that Texas coach, Mack,\r\nand as the raiders rolled in they screamed \"this year bradford is back\"\r\nBoasting stats such as \"we've only lost 2 in our field\",\r\nbut the raiders just yelled back \"This year we won't yield\"\r\nAll year long they all said we would fold,\r\nbut to quote an old western this texas tech team \"broke the mold\"\r\n\r\n\r\nNot as good as yours TE. Could have been alot more creative, but too much to put in there and no one would care haha. Nice response BC and congrats on the win. I doubted your team and I admit I was wrong. Please no one continue the conversation that Alabama did not kill them blah blah blah. I challenge anyone to win in Death Valley. ",
      "time": "2008-11-10T03:14:55",
      "id": "3655906"
    },
    {
      "threadId": "6805750",
      "post": "what are you talking about mayday?????? Those rankings were obviously not correct because you lost to OHIO STATE WHO GOT KILLED BY FLORIDA. Please think before you post mayday.",
      "time": "2008-11-10T01:10:40",
      "id": "3653260",
      "parentPost": "<i>\"i thought it was a beautiful game.\"</i>\n\nI agree.  It was definitely a game in which, no matter who won, will be a classic and will be talked about for a long, long time.",
      "parentPostTime": "2008-11-09T21:48:39",
      "parentPostId": "3648286"
    },
    {
      "threadId": "6741801",
      "post": "Man if yall want to check out a great show. Watch Ohio state vs. Michigan The rivalry. One of the best sports shows I have ever seen. You can check it out on HBO. Definitely need to DVR it. Gave me chill bumps a few times, and all teams can relate it to their rivalry game.",
      "time": "2008-11-07T19:47:32",
      "id": "3597142"
    },
    {
      "threadId": "6688250",
      "post": "I will be tuning in good luck Ben.",
      "time": "2008-11-06T18:53:43",
      "id": "3573197",
      "parentPost": "Ok, I will summarize for you...\r\n\r\nIts gonna be a really good game.\r\n\r\nTonight, 8 Eastern on CBS College sports, formerly CSTV, and Dish Network 152 and Direct TV 613.",
      "parentPostTime": "2008-11-06T18:45:55",
      "parentPostId": "3573052"
    },
    {
      "threadId": "6558035",
      "post": "Nice stat find. I thought they were undefeated with the way they talk.........\r\n",
      "time": "2008-11-06T18:52:21",
      "id": "3573169",
      "parentPost": "Don't both with BC. Maybe he is or maybe he is not aware that Bama has a losing record against the Big 12 conference. 14-16-2...\r\n\r\nBOOMER! Wreck'Em (at least this weekend)",
      "parentPostTime": "2008-11-06T16:16:00",
      "parentPostId": "3570129"
    },
    {
      "threadId": "6677981",
      "post": "Who would have thought that KU would be the best football program in Kansas 10 years ago..........",
      "time": "2008-11-06T04:53:53",
      "id": "3564704"
    },
    {
      "threadId": "6631293",
      "post": "I only like starting gator CBs to get into trouble.lol.",
      "time": "2008-11-04T21:53:01",
      "id": "3494309"
    },
    {
      "threadId": "6534210",
      "post": "SON,\r\nWere you there? Maybe you should come some time and pick up a few tips on how to make it hard on the opposing team to play in your stadium. So you could maybe lets say beat an Ole Miss at home? Trust me I try to avoid steamy places with other grown men.",
      "time": "2008-11-04T06:04:22",
      "id": "3468722",
      "parentPost": "LMAO...\r\n\r\nSon, that crowd ain't rowdy...\r\n\r\nYou wanna see rowdy head to Baton Rouge on a steamy Saturday night in the fall...\r\n\r\n<B>THAT</b> is <b>ROWDY!</b>",
      "parentPostTime": "2008-11-04T03:13:25",
      "parentPostId": "3466878"
    },
    {
      "threadId": "6474843",
      "post": "I would like a formal apology from bleed crimson. That comment that  we should not even be in the top 10 is pretty stupid, your  giving the \"SEC fan\" a bad name. Myabe you just had too many beverages when you posted that, or maybe you should lay low from posting crazy predictions for a while. Do not cry when Auburn waxes you like always!",
      "time": "2008-11-02T16:54:54",
      "id": "3443587"
    },
    {
      "threadId": "6387053",
      "post": "TO ALL RUMORS CONCERNING COACH LEACH:\r\n\r\nIf it comes down to money, he will not leave. Our athletic director will pay him whatever he wants.\r\nIf it comes down to a better opportunity, it is a toss up. I really do no believe a job at clemson is a better opportunity. We are pretty much a one sport school at the moment at Tech, and well lets put it this way. If leach ran for mayor, he would win in a landslide. I think the reason Leach will never leave is that other teams have a problem putting this man as the face of their program. Down here, we simply do not care. He can do whatever he wants in good ole' WEST TEXAS.\r\n",
      "time": "2008-10-29T21:14:44",
      "id": "3380003"
    },
    {
      "threadId": "6292776",
      "post": "On another note, I really think that TCU is higher than they should be. They beat no one of importance in non conference, the only team they have beaten is  BYU, which is still in the mountain west. I do not believe teams should jump that high in the polls for beating teams in non bcs conference that happen to be ranked.",
      "time": "2008-10-28T04:16:17",
      "id": "3337060"
    },
    {
      "threadId": "6198386",
      "post": "You have yourself a deal TT. Although by the small chance we do win out, we could play yall. I am not too soon to forget the cotton bowl back in the day where keyshawn johnson made our cornerback look like a pee wee player. As you pointed out earlier Vegas rates your team the number one team in the country, and I respect that. ANYBODY BUT OHIO STATE AND OU IN THE TITLE IS FINE BY ME. Good luck TT i hope you win out.\r\nMaybe the last time you hear this everyone!\r\nWreck em Tech, GO TROJANS!!!!\r\n",
      "time": "2008-10-25T04:27:51",
      "id": "3289302"
    },
    {
      "threadId": "6054103",
      "post": "second and last.......new topic!!!",
      "time": "2008-10-21T14:49:14",
      "id": "3202249"
    },
    {
      "threadId": "6006005",
      "post": "I think a playoff system is really not the best idea. The reason you see such good bowl games is that teams have weeks to prepare and get all of their starters 100%. Having a playoff is really not the best solution because of injuries and the fact that every team cannot play against top competition week in and week out and show their best effort. Take the SEC for example. If the schedule was not so brutal you would not have UF losing to an ole miss, but unfortunately that is the way it is. Maybe a one game playoff would not be so bad, only in the instance that there are more than 2 undefeated teams in BCS conferences. Until then though the BCS provides alot of entertainment and makes each week in college football that much more important. \r\nWreck em'",
      "time": "2008-10-20T16:55:58",
      "id": "3170889"
    },
    {
      "threadId": "5857574",
      "post": "I think tearing down your own goal posts. Then, trying to pierce rival fans with the prongs, which induces a brawl where the rival fans begin punching eachother should be on the list. ..................HAHAHA",
      "time": "2008-10-17T18:08:53",
      "id": "3132906"
    },
    {
      "threadId": "5738466",
      "post": "Trojans dont deserve to play in the  nat champ after losing that game.....thats just the way it is. Not that your team is not talented, they just dont deserve it.",
      "time": "2008-10-14T01:14:45",
      "id": "3032383"
    },
    {
      "threadId": "5691865",
      "post": "your right rick.......NOT! sounds like your just twisting alot of facts, and saying things to get your own personal opinion across. We all have our teams, but your blinded by bias and probably making a case for your CONFERENCE because your team has allready been defeated. ",
      "time": "2008-10-13T20:51:38",
      "id": "3028716"
    },
    {
      "threadId": "5670155",
      "post": "Tommy i agree with you that we should not move up in the polls. But come on man, we all know you are still a bit sore, your thigh got  knawed on by a beaver and were dissapointed that your QB threw 3 picks today. Bottom line is,(like I posted earlier), we won and we will move on to next week. Tech is historically inconsistent, but we played awfull today, completley changing the identity of our offense(threw the ball only 25 times) and still came out with a win. Mark us to lose three games if you wish, and you will join the rest at the end of the season. Sorry for the malicious talk but I had a few iced beverages today and am tired of all the SC talk. Hope your boys expect to be handed more wins while someone like UCLA shoves it down your throat to ruin your season. Peace.",
      "time": "2008-10-12T07:37:54",
      "id": "3006127"
    },
    {
      "threadId": "5621700",
      "post": "by the way...... great post GA boy.",
      "time": "2008-10-11T06:57:50",
      "id": "2995866"
    },
    {
      "threadId": "5536915",
      "post": "Man I am so tired of hearing about how percy harvin is hurt, he is one of the fastest recievers in the nation, this has def plagued the gators by not having a game changing reciever late in the game. However, the gators are stil one of the toughest opponents in the country. Inconsistency is the problem for this team obviously. I would beware of this team in the SEC, I think they will defeat LSU this week. I would never want to play in the swamp. Good luck to both teams should be a great match up.\r\nWreck em'!",
      "time": "2008-10-09T04:46:02",
      "id": "2957069"
    },
    {
      "threadId": "5443608",
      "post": "First!\r\nIf your in the big 12 or SEC, win, move on, and you will get to play for the prize.\r\nWreck em'!",
      "time": "2008-10-06T22:46:12",
      "id": "2900860"
    },
    {
      "threadId": "5304916",
      "post": "Can't wait for the red river showdown next week! Should be a heck of a game. Good games big 12 south, accept A&M.\r\n:( hahahahahah\r\nWreck'em!",
      "time": "2008-10-05T03:47:42",
      "id": "2875805"
    },
    {
      "threadId": "5200862",
      "post": "JB-Maybe you should also consider beating programs like texas and OU before you start talking so fast. Thanks for the drive by posting.\r\nWreck em'!",
      "time": "2008-10-02T19:20:46",
      "id": "2806314"
    },
    {
      "threadId": "5112523",
      "post": "These drive by postings make me nauseous.....\r\nWreck em'!",
      "time": "2008-09-29T18:07:36",
      "id": "2734860"
    }
  ],
  "profileInfo": {
    "username": "Tyler_Tech",
    "about": "I like to golf, hunt, lift weights., and of course watch college football. Heck if you can't play D-1 might as well analyze the crap out of it! ",
    "name": "Tyler_Tech",
    "disable3rdPartyTrackers": false,
    "isPowerContributor": false,
    "isAnonymous": false,
    "rep": 1.3706369999999999,
    "profileUrl": "https://disqus.com/by/Tyler_Tech/",
    "url": "http://www.raiderpower.com",
    "reputation": 1.3706369999999999,
    "location": "",
    "isPrivate": false,
    "signedUrl": "http://disq.us/?url=http%3A%2F%2Fwww.raiderpower.com&key=jlWYzU4vU6FZjQVn7u-yjw",
    "isPrimary": true,
    "joinedAt": "2008-09-29T13:30:42",
    "id": "110380",
    "avatar": {
      "small": {
        "permalink": "https://disqus.com/api/users/avatars/Tyler_Tech.jpg",
        "cache": "//a.disquscdn.com/uploads/users/11/380/avatar32.jpg?1281288843"
      },
      "isCustom": true,
      "permalink": "https://disqus.com/api/users/avatars/Tyler_Tech.jpg",
      "cache": "//a.disquscdn.com/uploads/users/11/380/avatar92.jpg?1281288843",
      "large": {
        "permalink": "https://disqus.com/api/users/avatars/Tyler_Tech.jpg",
        "cache": "//a.disquscdn.com/uploads/users/11/380/avatar92.jpg?1281288843"
      }
    }
  }
}