{
  "comments": [
    {
      "threadId": "4913403232",
      "post": "The game is free, the wristband/hardware is $35.",
      "time": "2016-06-15T21:58:39",
      "id": "2732996748",
      "parentPost": "$34.99? No thanks",
      "parentPostTime": "2016-06-15T21:51:08",
      "parentPostId": "2732985230"
    },
    {
      "threadId": "4651941072",
      "post": "It was my first Android phone. I'm actually shocked I continued to buy Android phones following that one. It was pretty good for the first few months, but once the first update hit it was all downhill.",
      "time": "2016-03-11T04:52:39",
      "id": "2563306750"
    },
    {
      "threadId": "4542424615",
      "post": "I love the color changing feature and that it mimics the Google Keyboard styling",
      "time": "2016-02-02T00:00:38",
      "id": "2490476805"
    },
    {
      "threadId": "3977392342",
      "post": "Viacom? The Tonight Show is owned by Universal Television and airs on NBC.",
      "time": "2015-07-29T05:04:18",
      "id": "2162648815"
    },
    {
      "threadId": "3580692991",
      "post": "Really? I see Google ads on TV during primetime all the time.",
      "time": "2015-03-09T16:34:26",
      "id": "1896989627",
      "parentPost": "Winner winner chicken dinner.",
      "parentPostTime": "2015-03-09T16:33:02",
      "parentPostId": "1896981930"
    },
    {
      "threadId": "3287857855",
      "post": "... Which is essentially what I said. I typically drink a 16oz cup of coffee, which is a medium size at most cafes. A strong 10oz is great, but not the typical amount of coffee for what I would say most people drink. But if you're buying a permanent filter for the Keurig, what's the point? You can only make a small cup and you're about $100 out, when you can buy a decent programmable drip coffee maker for about $25 and not spend tons of money on K-Cups (which, AGAIN, are not recyclable) AND make better coffee.",
      "time": "2014-12-04T17:03:49",
      "id": "1725658910",
      "parentPost": "the k-cups are bad for the environment, not the machine. i say this because you can buy permanent filters for the keurig. you also have no clue on strengths. there are plenty of k-cup brands out there that make a strong 10oz cup of coffee.",
      "parentPostTime": "2014-12-04T16:56:24",
      "parentPostId": "1725643890"
    },
    {
      "threadId": "2810438770",
      "post": "I mean, don't get me wrong, I listen to my local radio stations, but both iHeart and Songza have stations tuned to a particular activity and genre, which Songza does way better. Google Music doesn't have that at all and I'd love to see Songza's radio baked into Google Music.",
      "time": "2014-07-02T04:50:50",
      "id": "1464514446",
      "parentPost": "Because local radio sucks /sarcasm ",
      "parentPostTime": "2014-07-02T02:41:02",
      "parentPostId": "1464405776"
    },
    {
      "threadId": "2761412353",
      "post": "I mean, the main takeaway that I get from this is that when you wear Google Glass you look like an asshole.\n\n\nAnd it's pretty true.",
      "time": "2014-06-13T15:48:38",
      "id": "1433832381"
    },
    {
      "threadId": "2584251093",
      "post": "Oddly enough, I've been in the UK the last couple of months and have gotten UK specific questions and surveys with US currency rewards the entire time I've been here.",
      "time": "2014-04-05T11:44:06",
      "id": "1319987291"
    },
    {
      "threadId": "2027979999",
      "post": "Stick in my Verizon SIM card and color myself pleased.",
      "time": "2013-12-05T20:58:32",
      "id": "1152085411"
    },
    {
      "threadId": "1864521843",
      "post": "Buy some movies or something...",
      "time": "2013-10-16T20:43:15",
      "id": "1084888102"
    },
    {
      "threadId": "1843873870",
      "post": "HBO Go, of course!",
      "time": "2013-10-10T22:30:06",
      "id": "1078183084"
    },
    {
      "threadId": "1793451590",
      "post": "I LOVE the new FHD screen. Always beautiful.",
      "time": "2013-09-25T01:08:15",
      "id": "1057828852"
    },
    {
      "threadId": "1589016689",
      "post": "Google Books only has one of my books this semester, and it's significantly cheaper to buy the hard copy on Amazon. Sorry Google, close but not cigar.",
      "time": "2013-08-09T15:33:26",
      "id": "994576614"
    },
    {
      "threadId": "1548231700",
      "post": "I need a new Nexus 7 for work* reasons.\n\n*work meaning playing games at work",
      "time": "2013-07-30T17:31:20",
      "id": "981587356"
    },
    {
      "threadId": "1459483520",
      "post": "The update also comes with a free monthlong trial courtesy of Ford! Sweet!",
      "time": "2013-07-02T19:10:59",
      "id": "949523361"
    },
    {
      "threadId": "1442610557",
      "post": "Been covered since the TBolt! Couldn't imagine a world without LTE.",
      "time": "2013-06-27T20:48:46",
      "id": "944584333"
    },
    {
      "threadId": "1344291516",
      "post": "I'm going abroad, I need something I can use when I'm in England!",
      "time": "2013-05-31T20:10:47",
      "id": "915367394"
    },
    {
      "threadId": "1165029660",
      "post": "I'd like to see a zip-up hoodie. They have some available in the one in Times Square, but I'd like to be able to buy it in my local store.",
      "time": "2013-03-29T18:28:47",
      "id": "846338696"
    },
    {
      "threadId": "1106535386",
      "post": "I would LOVE one right now, fuh rull.",
      "time": "2013-02-26T23:52:46",
      "id": "813476227"
    },
    {
      "threadId": "1026040865",
      "post": "Still waiting for a Fandango/Movie Ticket card!",
      "time": "2013-01-15T00:53:18",
      "id": "767988535"
    },
    {
      "threadId": "997526241",
      "post": "My New Year's Resolution? Focus on my work instead of focusing on getting into a relationship. Try and get an internship or acting apprenticeship for the summer...\n\nThis is depressing.",
      "time": "2012-12-28T23:55:28",
      "id": "750017867"
    },
    {
      "threadId": "979398313",
      "post": "Definitely Super Mario Bros. 3 for the NES.",
      "time": "2012-12-17T20:42:47",
      "id": "741067778"
    },
    {
      "threadId": "967507088",
      "post": "I have no money\nI'm a broke college student\nSurrender the tab",
      "time": "2012-12-10T17:53:53",
      "id": "732474697"
    },
    {
      "threadId": "961481757",
      "post": "I'm Jewish...",
      "time": "2012-12-06T18:38:13",
      "id": "729430710"
    },
    {
      "threadId": "958103387",
      "post": "Les Miserables!",
      "time": "2012-12-04T18:33:34",
      "id": "727412851"
    },
    {
      "threadId": "956227556",
      "post": "Probably haxSync and some movies.",
      "time": "2012-12-03T17:30:35",
      "id": "726197595"
    },
    {
      "threadId": "934724533",
      "post": "So I wouldn't be able to take an Gnex abroad? Bummer. How about the RAZR Maxx?",
      "time": "2012-11-19T16:55:42",
      "id": "713930813",
      "parentPost": "no, the galaxy nexus isn't unlockable (in the GSM-world) sense. Might want to take a look at SG3 if that's important to you. Unless you mean an unlocked bootloader.",
      "parentPostTime": "2012-11-19T16:38:14",
      "parentPostId": "713913964"
    },
    {
      "threadId": "908697410",
      "post": "I'm dressing up as someone who can't do anything because Sandy shut the power down around my school's campus.",
      "time": "2012-10-31T18:19:51",
      "id": "697216675"
    },
    {
      "threadId": "907551018",
      "post": "Without a doubt, my favorite is The Wall by Pink Floyd.",
      "time": "2012-10-31T00:38:44",
      "id": "696613269"
    },
    {
      "threadId": "861799141",
      "post": "Burger, duh. No explanation needed, guys.",
      "time": "2012-09-27T17:38:05",
      "id": "664835998"
    },
    {
      "threadId": "853610138",
      "post": "I can't tell you how much I want one of these.",
      "time": "2012-09-24T15:03:44",
      "id": "660982412"
    },
    {
      "threadId": "849772822",
      "post": "Five Guys burger. Period. Juicy, delicious, handcrafted. Just the best burger.",
      "time": "2012-09-19T03:59:56",
      "id": "655216731"
    },
    {
      "threadId": "824527058",
      "post": "I love gaming on a mobile device because it allows me to ignore the smell of the guy next to me on the train.",
      "time": "2012-08-30T17:27:23",
      "id": "634540644"
    },
    {
      "threadId": "822159577",
      "post": "I can't even tell you how much I really want a Nexus 7.",
      "time": "2012-08-30T17:21:11",
      "id": "634534181"
    },
    {
      "threadId": "820515321",
      "post": "Timbuk2 is the best. Period.",
      "time": "2012-08-27T17:17:38",
      "id": "630990421"
    },
    {
      "threadId": "817346292",
      "post": "Meow.",
      "time": "2012-08-27T17:17:07",
      "id": "630989931"
    },
    {
      "threadId": "814633520",
      "post": "That Thunderbolt MyBook... holy crap.",
      "time": "2012-08-22T21:08:58",
      "id": "626045090"
    },
    {
      "threadId": "813622781",
      "post": "Seriously? I can get my stock battery, unrooted Thunderbolt last for 10-12 hours with medium usage. It gets me though the day.",
      "time": "2012-08-22T21:06:17",
      "id": "626043179",
      "parentPost": "That's golden compared to a Thunderbolt! 4 hours maximum, light usage.",
      "parentPostTime": "2012-08-21T21:58:29",
      "parentPostId": "625231740"
    },
    {
      "threadId": "813561093",
      "post": "Ouch.",
      "time": "2012-08-21T19:21:19",
      "id": "625099949"
    },
    {
      "threadId": "809236260",
      "post": "Hello no. My girlfriend has Sprint, and their service is god-awful. Verizon may be gouging me, but compared to the competition I'm STILL getting my money's worth.",
      "time": "2012-08-17T19:06:46",
      "id": "622177853"
    },
    {
      "threadId": "809124935",
      "post": "I'm loving Flipboard, the only way I check my news now.",
      "time": "2012-08-17T17:15:33",
      "id": "622077083"
    },
    {
      "threadId": "802389502",
      "post": "I can't even tell you how much I want one.",
      "time": "2012-08-13T15:04:33",
      "id": "618078971"
    },
    {
      "threadId": "800243620",
      "post": "Seriously, Apple is smoking Samsung according to these numbers. They've sold four times more iPhones than Samsung has sold all phones combined!",
      "time": "2012-08-10T15:28:39",
      "id": "615659700",
      "parentPost": "Damn, samsung must REALLY be hurting Apple's sales numbers. How can Apple even argue that they do?",
      "parentPostTime": "2012-08-10T15:21:24",
      "parentPostId": "615653177"
    },
    {
      "threadId": "787091774",
      "post": "I'd take an MBA....",
      "time": "2012-08-09T18:17:05",
      "id": "614705278"
    },
    {
      "threadId": "791652574",
      "post": "Still gotta be the Nexus 7... the Nook and the Kindle don't even come close.",
      "time": "2012-08-09T18:16:37",
      "id": "614704813"
    },
    {
      "threadId": "799122039",
      "post": "Welcome to the future.",
      "time": "2012-08-09T18:11:19",
      "id": "614699509"
    },
    {
      "threadId": "779664299",
      "post": "Definitely waiting for a new Nexus...",
      "time": "2012-08-07T19:55:53",
      "id": "612783542"
    },
    {
      "threadId": "778561369",
      "post": "That's pretty boss.",
      "time": "2012-08-07T19:55:19",
      "id": "612782782"
    },
    {
      "threadId": "780952979",
      "post": "The Nexus 7 is actually perfect. Why don't I own?",
      "time": "2012-08-07T19:54:39",
      "id": "612781970"
    },
    {
      "threadId": "782889221",
      "post": "No, according to HTC themselves, the Desire HD has 1.5GB storage (I don't know how much of that is use accessible) and the Sensation 4G (not the original Sensation, which has NOT been updated to ICS) has 4GB storage with 1GB user accessible. The Thunderbolt has 8GB with 3.5GB user accessible.",
      "time": "2012-07-28T06:47:33",
      "id": "600512626",
      "parentPost": "Actually 1.5gb is user accessible on the dhd. It has 4gb before all the partitioning",
      "parentPostTime": "2012-07-28T06:27:01",
      "parentPostId": "600501010"
    },
    {
      "threadId": "769316199",
      "post": "Source please? Sorry, not buying it, Stanton's denying it and neither Disney nor Pixar has announced it. Hardly sounds like confirmed to me, sounds more like shoddy reporting.",
      "time": "2012-07-24T23:34:21",
      "id": "596856511"
    },
    {
      "threadId": "777364156",
      "post": "Dislike: I don't own one yet.",
      "time": "2012-07-23T23:21:55",
      "id": "595816921"
    },
    {
      "threadId": "769455982",
      "post": "Andrew Stanton tweeted about an hour ago: ‏@andrewstanton\nDidn't you all learn from Chicken Little? Everyone calm down. Don't believe everything you read. Nothing to see here now.‪#skyisnotfalling‬",
      "time": "2012-07-18T01:02:14",
      "id": "590661693"
    },
    {
      "threadId": "766688692",
      "post": "Well damn. You yell loud enough and eventually someone will hear you.",
      "time": "2012-07-15T21:52:53",
      "id": "588811686"
    },
    {
      "threadId": "759665923",
      "post": "People just want to have their cake and eat it too. \"Give us unlockable bootloaders!!\" \"Okay, here's a phone with an unlockable bootloader, but you're going to have to pay extra because it's not subsidized.\" \"THAT'S RIDICULOUS! We made you do something and now you're making us pay extra?\"",
      "time": "2012-07-11T03:40:59",
      "id": "583687205",
      "parentPost": "Completely agree, I don't see what the outrage is.  \n\nSince I'm stuck with VZW and the only way for me to upgrade my Rezound will be to purchase one unsubsidized.  The Galaxy Nexus is $649 and this is $600.  \n\nI think the important thing is <b>at least there is an option</b>.  There important thing is 1) Will developers still work with this phone (VZW CDMA Version) or have they already run away and 2) Will this phone be slightly different and force ROMs to be different.  ",
      "parentPostTime": "2012-07-11T01:42:01",
      "parentPostId": "583607421"
    },
    {
      "threadId": "759012757",
      "post": "I'm with you, LiterofCola. It makes the phone look like a toy, the RAZR is much sleeker. That said, this is impressive for $99.",
      "time": "2012-07-10T16:03:41",
      "id": "583211014",
      "parentPost": "Actually I feel the opposite, but meh it's a slight difference",
      "parentPostTime": "2012-07-10T15:36:07",
      "parentPostId": "583189174"
    },
    {
      "threadId": "758239466",
      "post": "I feel like if you want an unlock-able bootloader you buy a phone with an unlock-able bootloader instead of pissing and moaning about phones you either don't own, or you purchased under a false pretense (that you had no proof that the bootloader was going to be unlock-able anyway). If you really want an unlock-able bootloader buy an HTC phone or a Nexus, but don't just \"expect\" that all phones should come this way. The manufacturer and the carrier have the right to do what they want with the phones they carry/manufacture.",
      "time": "2012-07-10T03:47:49",
      "id": "582798540"
    },
    {
      "threadId": "756080835",
      "post": "Totally agree, Rob. I got a Timbuk2 for college and I honestly can't imagine ever getting a different back. High quality stuff, man.",
      "time": "2012-07-08T18:01:18",
      "id": "580710026",
      "parentPost": "This one is probably considerably pricier on account of the batteries, and the certification and engineering costs surrounding it.\n\nSo for a long time, I used to use L.L. Bean bags.  Lots of folks I knew swore by them.  However, after 2 years, the L.L. Bean bags were, quite literally, falling apart.  Actual holes in them, and I think a failing seam in one case.\n\nThen I switched to Timbuk2 about a decade ago.  I think I paid around $100.  In 10 years I've had the strap replaced free of charge, because there was a crack inside one of the carabiners that caused it to fail after a few years.  Save for that, the bag is still in tremendously good shape with minimum fraying (there are some serious wear spots at some points), and no holes.  I'd rather pay $100 once, than $50 several times.  It looks like the similar bag nowadays is the \"Swig\" and seems to be $90-110, which is reasonable considering how well it holds up.",
      "parentPostTime": "2012-07-08T17:05:43",
      "parentPostId": "580671114"
    },
    {
      "threadId": "748622043",
      "post": "It's about time. End the litigation once and for all and promote a fair and competitive smartphone market! Neither iOS nor Android could survive without the other and it's time that Google and Samsung prove that to Apple!",
      "time": "2012-07-02T19:12:28",
      "id": "574544303"
    },
    {
      "threadId": "748478764",
      "post": "I really want to hear more about this! Does it only work on certain devices? Could any device with JB potentially utilize this? I want to see more Android docks a la iHome!",
      "time": "2012-07-02T18:10:07",
      "id": "574473393",
      "parentPost": "One of the most interesting things I heard from I/O was that Jelly Bean will now support USB Audio Out. This means that any application can now stream their audio out via USB. With ICS and before, if you connected to a phone to a car stereo or doc via USB, it would be able to see and play and MP3 files you had on your device, but they could not play anything from Pandora or even notification sounds. With USB Audio out, this changes. This could give kind of a \"universal\" audio/charge connection to all our phones. \n\n\nWas there any discussion or sessions on this at I/O? This seems like a great feature that they didn't, well, feature!\n\n\n--Bill",
      "parentPostTime": "2012-07-02T17:47:24",
      "parentPostId": "574454195"
    },
    {
      "threadId": "748312508",
      "post": "I'm more or less certain that this video will be the one looping on the phones in store.",
      "time": "2012-07-02T15:59:24",
      "id": "574323178",
      "parentPost": "Oh man, just watched the commercial............. is anyone trying anymore?!",
      "parentPostTime": "2012-07-02T15:13:00",
      "parentPostId": "574289773"
    },
    {
      "threadId": "747471622",
      "post": "Say what you will about whoever stealing whoever's features, this whole issue is essentially bad for the market and bad for innovation. iOS and Android both have their strengths and weaknesses but BOTH use each other's ideas and build on them. It's not right to patent simple things like a \"slide-to-unlock\" gesture or the ability to parse links in certain ways because it cripples innovation. Innovation is just a tiny step away from imitation. In this case the patent system IS flawed and supports Apple's desire to monopolize the smartphone market, something that will eventually bite them in the ass.",
      "time": "2012-07-01T23:27:03",
      "id": "573858760"
    },
    {
      "threadId": "745126896",
      "post": "I'm glad I'm not the only one who noticed this during the keynote. I thought this was one of the most important announcements made. I'm not sure if it will actually speed up development, but theoretically it should.",
      "time": "2012-06-29T18:37:24",
      "id": "571998941"
    },
    {
      "threadId": "742446647",
      "post": "But then if I watch literally anything that isn't a movie I will have these comically large black bars on the sides of the image instead of the top and the bottom.",
      "time": "2012-06-27T20:39:19",
      "id": "569235299"
    },
    {
      "threadId": "742498571",
      "post": "One of my professors actively encouraged us to use Wikipedia as a jumping point. As long as you trace your information back to the source, Wikipedia is concise way to start looking for a lot of information.",
      "time": "2012-06-27T17:51:48",
      "id": "569100739",
      "parentPost": "Get the information from wikipedia because it's easy... cite the real source for obstinate people like professors. Easy peasey",
      "parentPostTime": "2012-06-27T17:36:37",
      "parentPostId": "569090026"
    },
    {
      "threadId": "722705775",
      "post": "You know, if Verizon dropped the price per device to $20 for smartphones and $10 for dumbphones this actually wouldn't be too bad. Most families would save a lot of money on that.",
      "time": "2012-06-12T17:27:53",
      "id": "555346943"
    },
    {
      "threadId": "721529844",
      "post": "Yet another reason why I'm NOT getting the SIII. Here's hoping for a device on VZ more comprable to the One X!",
      "time": "2012-06-11T18:19:51",
      "id": "554554207"
    },
    {
      "threadId": "708727018",
      "post": "Sounds like a pretty great deal! I'd love it!",
      "time": "2012-06-02T03:54:12",
      "id": "545499236"
    },
    {
      "threadId": "709587356",
      "post": "That's not the point of social networking, Droidzilla. Why share anything on Google+ when none of my actual real-life friends use it? I have no interest on making plans with complete strangers.",
      "time": "2012-05-31T15:54:33",
      "id": "543911525",
      "parentPost": "Try expanding yourself beyond what and who you already know.",
      "parentPostTime": "2012-05-31T15:35:24",
      "parentPostId": "543883983"
    },
    {
      "threadId": "401321102",
      "post": "Just a couple things:\n-Apps as dials\n-\"Other Devices\" support",
      "time": "2012-05-26T21:56:17",
      "id": "539388305"
    },
    {
      "threadId": "702327648",
      "post": "Keeping it simple with casual games!",
      "time": "2012-05-24T19:23:34",
      "id": "537805500"
    },
    {
      "threadId": "693721714",
      "post": "Sadly enough, it's keeping my calendar together.",
      "time": "2012-05-17T21:32:41",
      "id": "531507507"
    },
    {
      "threadId": "688956419",
      "post": "Pleeeaaase I want one bad!",
      "time": "2012-05-15T04:48:15",
      "id": "529062702"
    },
    {
      "threadId": "685420735",
      "post": "I need this TV, really.",
      "time": "2012-05-13T18:07:14",
      "id": "527973576"
    },
    {
      "threadId": "682858450",
      "post": "I adore Temple Run, no doubt.",
      "time": "2012-05-11T00:23:40",
      "id": "525914047"
    },
    {
      "threadId": "665031774",
      "post": "Xbox - I loveeee Rock Band, no shame.",
      "time": "2012-04-26T16:07:06",
      "id": "509836819"
    },
    {
      "threadId": "630181371",
      "post": "I use it for the free app of the day (when it's, you know, even good) and to update old apps I've downloaded from the store, but it doesn't even give me a changelog! What's up with that?",
      "time": "2012-03-30T15:47:24",
      "id": "480877351"
    },
    {
      "threadId": "621113783",
      "post": "There's a reason SEPTA is telling people not to use their smartphones on the Broad St. Line!",
      "time": "2012-03-23T17:30:39",
      "id": "474638265",
      "parentPost": "Living in Philly I'm sure most of these 'loses' are more like stolen, hahaha.",
      "parentPostTime": "2012-03-22T23:00:53",
      "parentPostId": "474040203"
    },
    {
      "threadId": "613308992",
      "post": "Because I'm a poor college student who needs more stuff to keep me organized!",
      "time": "2012-03-17T01:06:48",
      "id": "467420105"
    },
    {
      "threadId": "612484026",
      "post": "I would kill for one of these. Honestly, just tell point me to who I need to kill. I will.",
      "time": "2012-03-16T23:02:43",
      "id": "467343949"
    },
    {
      "threadId": "510813635",
      "post": "Christmas (Baby Please Come Home) by U2",
      "time": "2011-12-20T19:48:50",
      "id": "390877973"
    },
    {
      "threadId": "479526459",
      "post": "I am most thankful for my Thunderbolt, for without, I would be a mess.",
      "time": "2011-11-22T15:43:26",
      "id": "370118500"
    },
    {
      "threadId": "472846921",
      "post": "Something that will actually motivate me to study in school. Partying takes precedent sometimes. God, I love college.",
      "time": "2011-11-16T15:08:53",
      "id": "364667821"
    },
    {
      "threadId": "471910819",
      "post": "Without a doubt:\n1. Legend of Zelda: Ocarina of Time\n2. Rock Band 3\n3. Super Smash Bros. Brawl",
      "time": "2011-11-15T18:36:19",
      "id": "363870176"
    },
    {
      "threadId": "464373957",
      "post": "I would probably just be much less productive during class. Playing Angry Birds may not be the best idea during my Honors Seminar next semester.",
      "time": "2011-11-07T19:13:30",
      "id": "357691613"
    },
    {
      "threadId": "458911478",
      "post": "Gotta love Plants vs. Zombies!",
      "time": "2011-11-01T17:57:43",
      "id": "352962948"
    },
    {
      "threadId": "260335291",
      "post": "Thank god I got my Thunderbolt today in the mail. I would've been pissed if it came tomorrow and I couldn't take advantage of free Angry Birds!",
      "time": "2011-03-22T19:55:14",
      "id": "169761161"
    },
    {
      "threadId": "257525278",
      "post": "You're not paying any more for unlimited 4G than you are for unlimited 3G. It's the same exact plan. So just get the phone, it's fantastic with or without 4G.",
      "time": "2011-03-18T20:32:36",
      "id": "167850221",
      "parentPost": "I ordered directly from Verizon.  I have the origional Droid and would love the Tbolt and what it has to offer but really don't want to pay for the 4G when I won't be able to use it.  What are your thoughts....",
      "parentPostTime": "2011-03-18T20:21:20",
      "parentPostId": "167842356"
    },
    {
      "threadId": "255930140",
      "post": "I mean, if you look all over the site, the Thunderbolt is there. I'm gonna say that Verizon doesn't want to get caught advertising something that wasn't ready again *COUGH COUGH*. That said, I do believe that Skype will make it to the Thunderbolt sooner rather than later, just not right away.",
      "time": "2011-03-17T04:41:24",
      "id": "167013202",
      "parentPost": "shiiiz thats true. maybe they havent axed it. ",
      "parentPostTime": "2011-03-17T03:44:26",
      "parentPostId": "166997271"
    },
    {
      "threadId": "227409885",
      "post": "Well, I know at least ONE person who won is buying a Thunderbolt... because that person is me!!",
      "time": "2011-02-11T23:59:17",
      "id": "145017983"
    },
    {
      "threadId": "92714615",
      "post": "Absolutely serious. Mike_Sees_Me_Everywhere is right on point with the exact reason why.",
      "time": "2010-05-05T23:10:01",
      "id": "48581641",
      "parentPost": "Whoa, are you serious, dude, or just fucking with us ...? I figured they just didn't bother to add in the straps yet!",
      "parentPostTime": "2010-05-05T22:46:28",
      "parentPostId": "48579326"
    },
    {
      "threadId": "63029715",
      "post": "EJN wasn't nominated for anything because the single release was AFTER the cutoff for Grammy nominations. It is still eligible for next year.",
      "time": "2010-02-01T03:43:36",
      "id": "32257306",
      "parentPost": "Yes, I know.  But I think that if it had a better video and it was marketed better it would have charted very well and could have been nominated for record of the year.  It's a great song.  They have been putting too much attention to this musical when they should have been putting it into their album.  So sad.  :(     I really wanted Green Day to win.",
      "parentPostTime": "2010-02-01T01:10:19",
      "parentPostId": "32243676"
    },
    {
      "threadId": "12342993",
      "post": "Christ! That thing is a monster!",
      "time": "2009-02-24T00:09:23",
      "id": "6534645",
      "parentPost": "http://www.h3.dion.ne.jp/~kuboken/famicom/sc.html",
      "parentPostTime": "2009-02-24T00:01:07",
      "parentPostId": "6534501"
    },
    {
      "threadId": "12425373",
      "post": "I feel like, with every shirt I see from Threadless, I have to buy it. Unfortunately, I have not purchased one shirt from them.",
      "time": "2009-02-23T23:47:59",
      "id": "6534258"
    },
    {
      "threadId": "4368191",
      "post": "I. NEED. R4.\r\n\r\n\r\nNOW.",
      "time": "2008-09-10T03:45:44",
      "id": "2255808"
    },
    {
      "threadId": "4326282",
      "post": "Groovin' indeed.",
      "time": "2008-09-10T03:44:34",
      "id": "2255799"
    },
    {
      "threadId": "4315563",
      "post": "How will I ever find out what games are real and what aren't!?",
      "time": "2008-09-08T20:32:50",
      "id": "2235906"
    },
    {
      "threadId": "4317803",
      "post": "So you'll just... give me a free game??",
      "time": "2008-09-08T20:31:00",
      "id": "2235841"
    }
  ],
  "profileInfo": {
    "username": "NotAnotherSN",
    "about": "",
    "name": "Jordan Friedman",
    "disable3rdPartyTrackers": false,
    "isPowerContributor": false,
    "isAnonymous": false,
    "rep": 1.2846009999999999,
    "profileUrl": "https://disqus.com/by/NotAnotherSN/",
    "url": "http://notanothertr.tumblr.com/",
    "reputation": 1.2846009999999999,
    "location": "Cherry Hill, NJ",
    "isPrivate": false,
    "signedUrl": "http://disq.us/?url=http%3A%2F%2Fnotanothertr.tumblr.com%2F&key=_t89emZk7GgAsDCZkYqXTg",
    "isPrimary": true,
    "joinedAt": "2008-09-08T20:31:00",
    "id": "97489",
    "avatar": {
      "small": {
        "permalink": "https://disqus.com/api/users/avatars/NotAnotherSN.jpg",
        "cache": "//a.disquscdn.com/uploads/users/9/7489/avatar32.jpg?1466027920"
      },
      "isCustom": true,
      "permalink": "https://disqus.com/api/users/avatars/NotAnotherSN.jpg",
      "cache": "//a.disquscdn.com/uploads/users/9/7489/avatar92.jpg?1466027920",
      "large": {
        "permalink": "https://disqus.com/api/users/avatars/NotAnotherSN.jpg",
        "cache": "//a.disquscdn.com/uploads/users/9/7489/avatar92.jpg?1466027920"
      }
    }
  }
}