{
  "comments": [
    {
      "threadId": "4672070915",
      "post": "Nectar",
      "time": "2016-03-23T18:34:52",
      "id": "2585387561"
    },
    {
      "threadId": "3199130302",
      "post": "Adam Curry, Patrick. ITM, amen, fist bump.",
      "time": "2016-02-05T16:55:06",
      "id": "2497860129",
      "parentPost": "Why no No Agenda Podcast with your own John C Dvorak and the \"father of podcasting\" Adam Currie???",
      "parentPostTime": "2016-02-05T01:07:10",
      "parentPostId": "2496805362"
    },
    {
      "threadId": "4292636215",
      "post": "It's nice to see a family picture during the holidays... looking forward to seeing it.",
      "time": "2015-11-06T14:55:16",
      "id": "2345857229"
    },
    {
      "threadId": "3416927270",
      "post": "Hatched offside, launched with no research or marketing, run by two part-timers... Dilbert the publisher?",
      "time": "2015-01-14T02:19:57",
      "id": "1791473024"
    },
    {
      "threadId": "3144245574",
      "post": "Not revealing the owner of the property?",
      "time": "2014-10-22T21:17:50",
      "id": "1648944746"
    },
    {
      "threadId": "3094406143",
      "post": "Taxpayers should demand that city's Cadillac plan be more realistic compared to private sector.",
      "time": "2014-10-08T22:31:56",
      "id": "1626098186"
    },
    {
      "threadId": "2854403732",
      "post": "Of course, it really comes down to \"how much money would it take for you to leave your current job?\" which is a question that might get a different result.",
      "time": "2014-07-21T13:08:05",
      "id": "1495422129"
    },
    {
      "threadId": "2837747744",
      "post": "Ankle bracelet!",
      "time": "2014-07-16T15:19:47",
      "id": "1488196576"
    },
    {
      "threadId": "2752450425",
      "post": "Sitting in an Indy restaurant with friends planning our first trip to Paris. On our second trip a year later, the Iraq invasion started.",
      "time": "2014-06-11T14:54:41",
      "id": "1430355936"
    },
    {
      "threadId": "2631214284",
      "post": "Name the sinkhole... here are some ideas to get you started: http://goinglikesixty.com/2014/06/national-corvette-museum-needs-name-new-sinkhole-attraction/",
      "time": "2014-06-02T14:49:51",
      "id": "1416072591"
    },
    {
      "threadId": "2726570585",
      "post": "FCC needs to start by debunking the lies http://www.connectednation.org/ is peddling to states and cities. PC should investigate and expose them.",
      "time": "2014-05-31T23:56:55",
      "id": "1414097685"
    },
    {
      "threadId": "2690052052",
      "post": "Great managers don't equate to great leaders. Usually they are at odds. You might have included that option, \"great\"\nmanager, leader or journalist?",
      "time": "2014-05-16T15:14:40",
      "id": "1388911050"
    },
    {
      "threadId": "2672247808",
      "post": "\"... which dictates that newspapers should cut costs by 6 percent each year, while also adding 6 percent to their revenues.\"\nYup it's just that simple... NOT. \nThis makes the assumption that shareholders didn't always demand highest possible return on investment. There never was a time when a newspaper company said \"no, we made too much money last year, we'd better lower rates or raise wages/benefits.\"  Newspaper operators were always under the gun to raise rates and lower expenses.\nOne example: when newspaper profit margins were high, newspapers began reducing web width because those savings flowed right to the bottom line.",
      "time": "2014-05-12T22:37:34",
      "id": "1381985738"
    },
    {
      "threadId": "2116898910",
      "post": "There is an old saying in the US: \"if your mother says she loves you - trust, but verify.\"",
      "time": "2014-01-13T16:09:05",
      "id": "1198520264"
    },
    {
      "threadId": "2085056371",
      "post": "dogswithcones.tumblr.com",
      "time": "2014-01-04T16:44:04",
      "id": "1186756317"
    },
    {
      "threadId": "2066809634",
      "post": "So, you copy and paste and delete comments that bust you at stealing content? Keep it up and I will contact your host for a DCMA takedown.\n\nYou are a Prepper: \"self reliant\" --- how does this apply to a post and images you took from another blog?",
      "time": "2013-12-25T15:06:39",
      "id": "1176558643"
    },
    {
      "threadId": "1799429398",
      "post": "Where's Ron Burgandy when we need him?",
      "time": "2013-12-03T18:30:42",
      "id": "1149037232"
    },
    {
      "threadId": "1923112432",
      "post": "Hi, here via BoomSpeak.com.\nYour area of MX was on our list to retire abroad, but for a number of reasons, we ended up in Costa Rica. \nYour aside regarding the forum hit home. We used to depend on a Yahoo Group (Costa Rica Living) that is moderated. This keeps the riff-raff at bay... somewhat. Facebook is kind of taking over because it can be much more localized and when real names are used... well you know...\nWe are coming to the end of our rainy season... looking forward to 90 days of no rain.  Downside is: the country turns beige.\nEnjoy.",
      "time": "2013-11-05T17:00:01",
      "id": "1109844186"
    },
    {
      "threadId": "1833385889",
      "post": "Kahn Academy has it right. Watch videos of the subject at home and do problem solving in the classroom with the guidance of the teacher.",
      "time": "2013-10-07T18:39:33",
      "id": "1073934161"
    },
    {
      "threadId": "1802403691",
      "post": "I know you news types think point of sale is unimportant... whether it be a vending machine or rack inside a store or home delivery.  Conventional wisdom is that outstanding journalism will sell the newspaper no matter how crappy the point of sale is - a rusty machine, or a bad location in a store, or an inconsistent or imperfect home delivery.\nBut somebody should lose their job for allowing that piece of crap machine to deface any location. \nIf for no other reason that it allows NeimanLab.org to grab a photo to illustrate this otherwise positive story.\n\nSomebody in that newspaper that has the time to scrap the rust off and spray paint the machine. If not, then there is  some auto body shop that would love to have this type of work to fill downtime. \n\nOverlooking the \"small\" things like the crappy vending machine blight on the streets IS a symptom. Management myopia.",
      "time": "2013-09-30T14:52:12",
      "id": "1064542757"
    },
    {
      "threadId": "1702142283",
      "post": "yay on her. hope she can keep it off. Can you reverse a gif?",
      "time": "2013-09-03T17:49:56",
      "id": "1028594221"
    },
    {
      "threadId": "1621304668",
      "post": "What's the harm? Sports isn't news anyway. Benefit of quantity vs quality outweighs risk. If this had been done 25 years ago readers might not have left for suburbans.",
      "time": "2013-08-21T15:52:34",
      "id": "1010631730"
    },
    {
      "threadId": "1608545286",
      "post": "I live in Costa Rica. Even so, my dark night is influenced by \"security\" lights and road lights. Escaping those means I still can see the glow of San Jose on the horizon. But at least I have an option of getting to a darker spot. Sad that many kids don't have that opportunity. I remember the dark Michigan summer nights with the same nostalgia as Tom and callers... http://goinglikesixty.com/2013/08/i-remember-the-milky-way/",
      "time": "2013-08-17T17:14:28",
      "id": "1004845858"
    },
    {
      "threadId": "1531761373",
      "post": "You might want to update this story: the Netflix deal is cancelled.",
      "time": "2013-07-27T17:02:09",
      "id": "978442319"
    },
    {
      "threadId": "1531453277",
      "post": "Netflix has already pulled their offer? Count me out. For a few bux difference between what I would pay anyway for Netflix, I figured it was worth it. Now? No.",
      "time": "2013-07-27T16:42:45",
      "id": "978428873"
    },
    {
      "threadId": "1510182075",
      "post": "Will you please say \"Putin\" over and over, and over? fastly, slowly, regularly? Please?",
      "time": "2013-07-19T15:45:01",
      "id": "969106348"
    },
    {
      "threadId": "1406451167",
      "post": "I agree with her completely and would like to meet with her to discuss her ideas.",
      "time": "2013-06-17T16:32:26",
      "id": "933233318"
    },
    {
      "threadId": "1330847669",
      "post": "\"played 8 million times...\" no way to measure how many people will be chatting or checking phones while commercial is playing. And it will be one in a long line of commercial clutter before the multi million dollar feature film wipe out the impact the commercial might have. NOBODY shops for vacation travel in a movie theater.",
      "time": "2013-05-28T16:17:52",
      "id": "911256102"
    },
    {
      "threadId": "1273629095",
      "post": "It's gonna be huuuuuuuuuuuge.\n\nhttp://www.youtube.com/watch?v=DXRaboSo70A",
      "time": "2013-05-12T18:34:22",
      "id": "894864222"
    },
    {
      "threadId": "1223028780",
      "post": "Odd that so many people choose to comment on EW and not a journalism site.  I just hope that eventually somebody will chronicle all the truly dumb things that were said: Lester Holt said \"shots fired in anger sound differently\"",
      "time": "2013-04-20T14:35:26",
      "id": "869771411"
    },
    {
      "threadId": "1203281982",
      "post": "removed because YouTube doesn't like mothers.",
      "time": "2013-04-11T17:10:29",
      "id": "859850570"
    },
    {
      "threadId": "1198374477",
      "post": "BCR website does not like Google Chrome browser. It causes error messages and some pages won't load. Use Firefox.",
      "time": "2013-04-09T18:31:52",
      "id": "857823870"
    },
    {
      "threadId": "1164710586",
      "post": "Quick somebody fix this so she is raising the junk on the two guys behind her.",
      "time": "2013-03-26T15:46:08",
      "id": "843004621"
    },
    {
      "threadId": "1055328275",
      "post": "So you are going to donate the equivalent value of goods and services you get to charity? Didn't read that in the article. Big diff.",
      "time": "2013-01-31T20:08:52",
      "id": "784900169",
      "parentPost": "Haha. Well, the end game is that everything acquired through this is going to several different charities and non-profits. Also going to be sponsoring children throughout the year. But in order for it to have legs, I have to commit 100% to it. :)",
      "parentPostTime": "2013-01-30T17:59:41",
      "parentPostId": "783475978"
    },
    {
      "threadId": "986575367",
      "post": "Watched :30 and not funny. I guess you had to be there?",
      "time": "2012-12-26T16:36:23",
      "id": "747819257"
    },
    {
      "threadId": "986563609",
      "post": "Yeah, what the MotherFromKY says... Yeah, getting that little girl to say Kicks Ass is just so creative!\n\nand I guess Ashley Judd was a non starter because she will be running against Mitch? Nobody mentioned the greatest sports car made in America is built in Bowling Green?Were the flags at half staff? And leaving the tag on your ball cap is sooooo cool. They were \"tasked\"? Buzzword alert! Ernie Brown Jr IS Kentucky? http://www.tumblr.com/tagged/turtle-man?before=1346113374Neil James? Really?What a fantastic logo design: text over an outline of the state?Wow.Everything about this video screams the stereotypes!Good lord, I can't wait until this gets parodied and memed. Pathetic. Just Pathetic.",
      "time": "2012-12-21T22:08:27",
      "id": "745189367"
    },
    {
      "threadId": "982404189",
      "post": "Tobacco is the only legal substance sold that when used as directed will kill you.",
      "time": "2012-12-20T15:58:54",
      "id": "743785548"
    },
    {
      "threadId": "942544952",
      "post": "i culled my blogroll last night, but you made the cut. Glad to have you back! Can't wait to hear the story about returning to \"a man.\"",
      "time": "2012-11-24T22:51:34",
      "id": "718373801"
    },
    {
      "threadId": "776759398",
      "post": "Most entertaining program on the telly. Stars in Cars. Nice combo.",
      "time": "2012-07-23T15:44:51",
      "id": "595406873"
    },
    {
      "threadId": "752560193",
      "post": "You're an asshole. All that because she took some fruit?",
      "time": "2012-07-05T17:45:52",
      "id": "577116883"
    },
    {
      "threadId": "752264541",
      "post": "You are one prepared camper. I am impressed and envious.",
      "time": "2012-07-05T17:19:57",
      "id": "577077133"
    },
    {
      "threadId": "740063532",
      "post": "Yeah! And how about that body mod where her temple is caved in. What's up with that? And did she have an ear replacement too? hmmm?",
      "time": "2012-06-25T21:20:18",
      "id": "567020479"
    },
    {
      "threadId": "1482259501",
      "post": "Where is the outrage over the \"beautiful\" qualification Bahbah cited?",
      "time": "2012-06-05T22:44:03",
      "id": "548266075"
    },
    {
      "threadId": "686716223",
      "post": "Not new. Way back in the day of floppies and mini disk, I remember a program that would convert bowling scores and basketball scores into a very readable story. ",
      "time": "2012-05-16T00:50:08",
      "id": "529801887"
    },
    {
      "threadId": "684199663",
      "post": "His NPR commentaries are always entertaining and relevant and eloquent. ",
      "time": "2012-05-11T01:55:23",
      "id": "525964539"
    },
    {
      "threadId": "670504948",
      "post": "Picking nits...hate the term \"paywalled\" -- how about \"fee\" instead? More objective, no?",
      "time": "2012-04-30T19:54:39",
      "id": "514401039"
    },
    {
      "threadId": "828020815",
      "post": "re: Guthrie: Oh puke.",
      "time": "2012-04-25T22:49:26",
      "id": "509180583"
    },
    {
      "threadId": "663469429",
      "post": "Stop giving cheaper rates to junk mailers -- AND newspapers. (yes those weekly newspaper owners who are Fox News Republicans gladly lobby for and accept the subsidy.)",
      "time": "2012-04-25T15:38:30",
      "id": "508831296"
    },
    {
      "threadId": "662865460",
      "post": "Jesus? No, Steve.\nReally, though, writer couldn't come up with a better exclamation?\nHoly $hit.\n",
      "time": "2012-04-25T15:30:28",
      "id": "508824712"
    },
    {
      "threadId": "662590887",
      "post": "How about a story from Kasia on living with that name! :-/",
      "time": "2012-04-25T01:37:29",
      "id": "508360965"
    },
    {
      "threadId": "661147456",
      "post": "I hope there was no heart rendering involved in the making of this video... heartrending?",
      "time": "2012-04-23T18:45:05",
      "id": "507083845"
    },
    {
      "threadId": "599106458",
      "post": "Miss Kitty's",
      "time": "2012-04-22T18:30:23",
      "id": "506246253"
    },
    {
      "threadId": "645126554",
      "post": "It's a damn shame that nurses work such horrific hours dealing with one crisis after another while sleep deprived.",
      "time": "2012-04-12T01:28:59",
      "id": "494990801"
    },
    {
      "threadId": "643665613",
      "post": "Advertisers don't care who the owners are. Unless the new owners cut ad rates and take no profits. Maybe ... But probably no.",
      "time": "2012-04-10T23:50:18",
      "id": "493755575"
    },
    {
      "threadId": "644021485",
      "post": "Nope. Stupid move by Facebook. A BILLON? Stoopid.",
      "time": "2012-04-10T23:46:20",
      "id": "493753051"
    },
    {
      "threadId": "626078590",
      "post": "No, he is setting his sights lower in taking on cable news. But what do I know? I just am following the conventional wisdom that HuffingtonPost.com has more reach than the cablers. Is this wrong?",
      "time": "2012-03-27T22:17:55",
      "id": "477838977"
    },
    {
      "threadId": "625841758",
      "post": "I miss the days when writers could make up stuff with relative ease and not suffer long- lasting impact when exposed. ",
      "time": "2012-03-27T15:31:06",
      "id": "477486901"
    },
    {
      "threadId": "625778488",
      "post": "Wow. Way to go Jeb. Now beer sellers can raise prices by making smaller containers. How about doing the same for liquor and cigs? #pandering",
      "time": "2012-03-27T15:22:29",
      "id": "477480063"
    },
    {
      "threadId": "606569714",
      "post": "I have three instances of flash and browser isn't crashing. \nI looked just out of curiosity but didn't change anything. (ain't broke!)Two seem to be enabled v11,1,102,63) and one isn't (v11.1.31.203)Very confused. Glad I\"m not crashing.Gotta think there is more to this otherwise Chrome users would be screaming!",
      "time": "2012-03-11T17:49:00",
      "id": "462791573"
    },
    {
      "threadId": "603687726",
      "post": "Tip was actually $333 since 18% was included. Very generous that Peyton Manning. Van Urine however is a d bag.",
      "time": "2012-03-09T01:03:53",
      "id": "460214555"
    },
    {
      "threadId": "588102527",
      "post": "Unless JCP changes Ellen's wardrobe, they have changed nothing. \"Wait til you see how we've changed.\"  Won't work until Ellen shows up in a something gauzy and feminine.",
      "time": "2012-02-24T21:36:12",
      "id": "448209897"
    },
    {
      "threadId": "579516864",
      "post": "Hi,\n\nYou commented at my blog about Very Serious partially hunted. So I'm guessing this has something to do with ducks.\nNow go out and make more daylight. Ducks prefer daylight.",
      "time": "2012-02-17T15:03:43",
      "id": "441924212"
    },
    {
      "threadId": "407458150",
      "post": "\"How would you have handled the situation?\"\nbwahahahaha... That's what I'm calling mine from now on... \"The Situation.\"  \n\nImagine the possibilities.",
      "time": "2011-09-07T23:53:40",
      "id": "304615397"
    },
    {
      "threadId": "358897201",
      "post": "\"every single ounce of your being?...\" :-) Yes, perhaps you DO need a real (different) job.",
      "time": "2011-07-15T15:32:06",
      "id": "252794606"
    },
    {
      "threadId": "336018569",
      "post": "BFD. Punkasses like this shouldn't be allowed to fly. No really.",
      "time": "2011-06-19T17:33:54",
      "id": "229917792"
    },
    {
      "threadId": "331902125",
      "post": "OMG, how booooooring. \"overly taxing?\" bwahahahaha. \nNice approach. \nAlways take the easy way when trying to generate a new source of revenue. \nGrow an audience? Next up: Fargo: All the Women are Strong, All the Men are Good Looking and the Children are Above Average.\"Sheesh. ",
      "time": "2011-06-14T20:32:51",
      "id": "225916135"
    },
    {
      "threadId": "327359492",
      "post": "Obligation? Probably none. But as an old gringo that struggles, I sure would welcome your offer. Especially since you apparently know the old gringo has a good heart and is trying. Unless you think it was an crisis, you have no \"obligation\" (and might be a good reason *not* to intervene) but if you want to be a \"Good Jose\" to take a minute and offer \"can I help?\" would be nice IMHO.\nMaybe. :-)",
      "time": "2011-06-10T13:54:22",
      "id": "223144220"
    },
    {
      "threadId": "319784584",
      "post": "Doncha love it when our spouses think we look hot in skivvies? BTW: avoid wearing these undies around cold water. ",
      "time": "2011-06-01T20:27:27",
      "id": "215755266"
    },
    {
      "threadId": "315947402",
      "post": "I'm not a biz blogger but I still crave traffic. I had a feeling that the Hot Wheels Fearless at the 500 sponsored deal at the Indy 500 would be popular when I wrote about it back in April.\nhttp://goinglikesixty.com/2011/04/fearless-at-the-500-stunt-will-mark-100th-anniversary-of-indianapolis-500/\nIt just sat there for a couple weeks until the ABC promos started. A Google search puts my itty-bitty blog at #1 in results. \nCool!",
      "time": "2011-05-29T17:06:17",
      "id": "213845081"
    },
    {
      "threadId": "314465907",
      "post": "Why does Kmart need ANY agency to run print/tv that says \"buy-shit-cheap-but-don't-expect-any-customer-service?\"",
      "time": "2011-05-26T15:29:47",
      "id": "212221280"
    },
    {
      "threadId": "313326939",
      "post": "Soap Box derby cars for youth drivers are tightly regulated. They allow for no ingenuity of design - except for graphics. Adults on the other hand are free to have some real fun.\nAdults cheated, kids now have assemble approved kids, and adults get to have all the fun.",
      "time": "2011-05-25T16:00:58",
      "id": "211545331"
    },
    {
      "threadId": "309895469",
      "post": "Bah! Missed the first part because you were early? Hope you will post the archive link. ",
      "time": "2011-05-21T19:24:15",
      "id": "209081521"
    },
    {
      "threadId": "306270539",
      "post": " I don't like fiddle music. I do love the fact that Paris PAYS musicians to perform in Metro system. Artists must audition thereby insuring their quality. ",
      "time": "2011-05-19T14:47:59",
      "id": "207153227"
    },
    {
      "threadId": "307041813",
      "post": " Morgan Freeman covered in little tiny ants made me smile.\nhttp://goinglikesixty.com/2011/05/geeky-animated-gif-monday-84/Hyperboleandahalf.com has a forum where people draw dinosaurs. I drew this one:http://forum.verysrs.com/viewtopic.php?f=34&t=23591&p=271387&hilit=goinglikesixty#p269527",
      "time": "2011-05-18T15:26:59",
      "id": "206162892"
    },
    {
      "threadId": "302010714",
      "post": " Of course Top Gear did this road years ago... but nobody watches reruns, right?",
      "time": "2011-05-12T15:00:25",
      "id": "202079929"
    },
    {
      "threadId": "301608343",
      "post": "Next up on Survivor: The Cowboys! (and other teams from Amazing Race.)",
      "time": "2011-05-12T13:12:53",
      "id": "202032635"
    },
    {
      "threadId": "301335928",
      "post": " Pig bitch slut. Not nauseated. Pissed.",
      "time": "2011-05-11T21:06:46",
      "id": "201682461"
    },
    {
      "threadId": "291494901",
      "post": "\"hired\" as in $$$? Seems like that would be the first question you should have asked. ",
      "time": "2011-04-29T20:15:56",
      "id": "194341602"
    },
    {
      "threadId": "285410129",
      "post": "Ok, I admit it. I crush on women who will ride in the back of a janky truck and don't know how to pop a clutch. The pj bottoms are just a bonus.",
      "time": "2011-04-21T21:20:25",
      "id": "189162091"
    },
    {
      "threadId": "272900769",
      "post": "Shut the eff up you punk a$$. This isn't news. My generation has been the first adopters of every goddamned technology that was thunk up. Radio, Television, Computers. You idiots! Boomers invented the internet.",
      "time": "2011-04-06T21:44:34",
      "id": "179539225"
    },
    {
      "threadId": "271779334",
      "post": "\"Remember: most companies aren't going to ask for sensitive information via email.\"  Which of course, assumes that most companies are not total dumbasses when it comes to web security.\n\nExaminer.com just sent me a w-9 by email from an address I had never seen before. I checked it out and it was legit... But W9 by email? Whuck?",
      "time": "2011-04-05T19:55:45",
      "id": "178682306"
    },
    {
      "threadId": "270858581",
      "post": "Nope. I only get two comments and one of those usually is spam. Since I just blog for fun, it used to bother me. No more. I even added a plug-in to get rid of the no-follow tag. If spammers want to deep link to my blog, what's the harm? \nNo truly, what is the harm in leaving crappy comments active?",
      "time": "2011-04-04T17:47:27",
      "id": "178030199"
    },
    {
      "threadId": "265157772",
      "post": "Hi,\n\nAdvice: try not to read about how to write better a better blog.  (edit: Always proof-read) When you put links in your post, make sure the servers can handle all the traffic you send their way.",
      "time": "2011-03-28T18:19:34",
      "id": "173440642"
    },
    {
      "threadId": "260015815",
      "post": "Let's see, since 1968, have we ever had a non-fight?\n*ahem* only. every. friggin. month. \nmaybe. prolly  not.\nWe handle it by just keep on keepin' on. Eventually overwhelming excitement of our daily lives takes over, usually in the form of \"did you give the dogs their pills?\" and somehow it just goes away.\nI will learn from you.  I promise I will try to make her happier. \n\n",
      "time": "2011-03-22T16:43:34",
      "id": "169661623"
    },
    {
      "threadId": "257568549",
      "post": "Hey You - you gravy sucking pig. :-) Read what I wrote: Web Surfing should go away. As you so astutely point out, we surf. We don't web surf. Gawd man! (jk)",
      "time": "2011-03-20T16:19:28",
      "id": "168595643",
      "parentPost": "I say \"go online\" -> web surfing\nand \"net\" -> World Wide Web\n\nBut if my connection drops, I'll say \"I can't surf\"/\"connection dropped\" or ask someone else \"can you surf?\"\n\nMaybe I'm just stubborn in my net slang :/\n\nAlso, though I never use the term and it does seem dated now, I kind of have a soft spot for \"cyber space\". Brings that good old cyberpunk/virtual world stuff to mind.",
      "parentPostTime": "2011-03-18T22:55:38",
      "parentPostId": "167960692"
    },
    {
      "threadId": "255373665",
      "post": "Groupon terms state the merchant must give you face value of the groupon if the deal is over. You can't get the deal, but at least you don't lose money. OR Groupon will give you credit toward the purchase of another deal. OR, if lawsuits are successful, Groupon will not be saddling us with expirations.\nAnother reason Groupon will fail http://goinglikesixty.com/2011/03/why-groupon-will-fail/",
      "time": "2011-03-16T14:30:18",
      "id": "166609586"
    },
    {
      "threadId": "250778162",
      "post": "Only 200 US jobs? Is that all? As a percentage this has to be a tiny number, No? ",
      "time": "2011-03-10T22:32:32",
      "id": "163759860"
    },
    {
      "threadId": "250635431",
      "post": "If (as the story says) this was on the way to a newspaper, it is not \"printer ink.\" It is printing ink. The \"cartridges\" are actually large totes that hold hundreds of pounds of ink.  (The picture shows a guy standing next to the tote.)",
      "time": "2011-03-10T21:55:31",
      "id": "163725437"
    },
    {
      "threadId": "245476403",
      "post": "Hello? Because there is NO MONEY to be made giving you such specific (and hard to collect) information. How will the hunter/gatherers be compensated? \nYou gonna pay? No. \nNational advertisers gonna pay? No. \nLocal advertisers gonna pay? No.\nThe best hyperlocals are newspaper websites. But how uncool is that?\n\n",
      "time": "2011-03-04T16:29:56",
      "id": "160537620"
    },
    {
      "threadId": "222803040",
      "post": "Why do you ignore the former hottie Elizabeth Vargas when writing about this? She and BG have about the same visibility level currently - or did BG die and I missed it?",
      "time": "2011-02-04T22:05:58",
      "id": "140858406"
    },
    {
      "threadId": "222847568",
      "post": "I guess JWT is just having some fun, because they sure don't have any eBay experience.\n Book: signed by whom? Shirts don't even have a size.\n And they could have just trotted the crap to Goodwill and let them post it on Shopgoodwill.com. Oh those clever ad folk.",
      "time": "2011-02-03T20:13:10",
      "id": "139790023"
    },
    {
      "threadId": "220439958",
      "post": "I'm more offended by the Bing product placement on Hawaii 5-0. \"Bing it.\" Yeah, I hear that ALL the time.",
      "time": "2011-02-01T22:17:17",
      "id": "138441277"
    },
    {
      "threadId": "220457007",
      "post": "Leave the gun, take the cannoli's. Because you can't eat a gun.",
      "time": "2011-02-01T22:01:46",
      "id": "138431290"
    },
    {
      "threadId": "220245138",
      "post": "Yes.",
      "time": "2011-02-01T14:57:18",
      "id": "138165240",
      "parentPost": "i never could sub net IPv4 without a calculator and that killed me on certification tests. I can't begin to imagine trying to sub net IPv6 without a calculator.  I wonder if they will lift that restriction.",
      "parentPostTime": "2011-02-01T14:21:45",
      "parentPostId": "138147397"
    },
    {
      "threadId": "211649875",
      "post": "Well this particular contest - and the same goes for video entries - is a loser because one of the requirements is to write 250 characters on how, why, when, and where I will be using their car. I could just cut and paste bunch of crapola I guess, but I just clicked away. What was the brand again?",
      "time": "2011-01-18T19:45:57",
      "id": "130747457"
    },
    {
      "threadId": "211666000",
      "post": "You loon. a 3% drop on news is not MASSIVE. Sheesh. Plunge? Powering back? Lordy, get thee to CNBC, stat.",
      "time": "2011-01-18T19:32:55",
      "id": "130739535"
    },
    {
      "threadId": "208519915",
      "post": "*VMA*",
      "time": "2011-01-13T16:09:27",
      "id": "128656758"
    },
    {
      "threadId": "207260024",
      "post": "Giffords' cut short his 15 minutes. He's doomed.",
      "time": "2011-01-11T18:35:22",
      "id": "127694561"
    },
    {
      "threadId": "206402062",
      "post": "Please rewrite the headline... as it stands it says Giffords Murdered Zimmerman. A little too desperate SEO...",
      "time": "2011-01-10T19:41:22",
      "id": "126934459"
    },
    {
      "threadId": "204193004",
      "post": "I don't like being edited to suit Quora.",
      "time": "2011-01-06T20:51:28",
      "id": "125182422"
    },
    {
      "threadId": "202617895",
      "post": "Nope, until they find the end - the longest cave is Mammoth Cave in Kentucky. Which they have not found the end of yet either! Maybe they are connected!",
      "time": "2011-01-04T16:38:33",
      "id": "123924421"
    },
    {
      "threadId": "199644872",
      "post": "So you're the NookSchnook?",
      "time": "2010-12-29T22:39:21",
      "id": "120875612",
      "parentPost": "I was just about to say the same thing.",
      "parentPostTime": "2010-12-29T21:41:20",
      "parentPostId": "120855250"
    },
    {
      "threadId": "199058160",
      "post": "Yep. Gas prices are too low. But to jump 66% in 12-24 months would be catastrophic for the U.S. How many electric or hybrid trucks are on the road? Imagine the cost of jet fuel!  If you're ready to go back to the 30s, then I agree, this would not be catastrophic. You are not in touch with the real world.",
      "time": "2010-12-28T17:52:57",
      "id": "120163194",
      "parentPost": "Only drivers would call a hike to $5 \"catastrophic\". Well, not all drivers. The ones with hybrid or electric cars probably won't say so. Its time to get our heads around the fact that gas prices have been kept artificially low with subsidies to oil companies. Higher prices - I mean really higher, like $8/gallon - are what's needed to snap the US out of its oil stupor and start us thinking about getting off the oil habit.",
      "parentPostTime": "2010-12-28T17:37:20",
      "parentPostId": "120158269"
    },
    {
      "threadId": "196944872",
      "post": "Yeah, take a beautiful face and do all kinds of gimmicky stuff to obscure the beautiful face. Nice. #whyprintshouldneverdie",
      "time": "2010-12-22T16:14:46",
      "id": "117066619"
    },
    {
      "threadId": "193538787",
      "post": "Yes! Nook should have been the defacto default name for the new colorized Nook. And the original version should have been Nook Classic! Or Nook Retro.\n@TJList: The Nova story is a hoax. Check Snopes.com...\nWith that said, when Nookcolor (yes I know I didn't cap it right, just like ebook, email, etc.) has a browser, will BN.com (hello stupid URL) have a new name NOOKweb?",
      "time": "2010-12-18T21:28:09",
      "id": "114495534"
    },
    {
      "threadId": "191032874",
      "post": "Seems stupid and a giant waste of money. (insert clever obscure reference here) would be a better alternative.",
      "time": "2010-12-14T22:50:17",
      "id": "111806391"
    },
    {
      "threadId": "190336613",
      "post": "The same Latina magazine that removed all Spanish language content?\nYeah.",
      "time": "2010-12-13T17:24:05",
      "id": "111136478"
    },
    {
      "threadId": "152256130",
      "post": "Wow, where did you get those rose colored glasses, Ron? \n\nNice job on sucking up to a former (and potential future) employer. (gag)\n\nAs with most towns there is a town/gown resentment undercurrent that is easy to miss if one is a WKU grad or employee.\n\nYou \"forgot\" to mention that the great majority of funding to build and operate the Corvette Museum comes from outside Bowling Green - mainly through members and member clubs. ALL of the initiatives - including the proposed Motor Sports Park came from the museum.\n\nAs a resident, I am continually struck by the disconnect between the Corvette plant and the UAW from the local community. Despite the many special events the museum offers to appeal to the local community they are marginally attended. The UAW is involved with a limited number of charities. (Nothing wrong with that, but hardly a major player in the communities well being.)\n\nThis post is chock full of unsubstantiated baloney.  \n\nNational Corvette Homecoming is a privately owned and operated business that has no affiliation with the plant or museum. Equating the Hot Rods with Corvettes is just ignorant. Corvette? Hot Rod? Hardly. Partnership? Never. The public voted to call the team the Cave Shrimp - it was the ball club that chose Hot Rods.\n\nChamber building a crucial part of downtown redevelopment? *chortle* The public doesn't visit the Chamber - it is located three blocks from the downtown - the architecture resembles the bank buildings of the 90s. Excessive. \n\nThe conclusion that the Corvette will not - can not - leave Bowling Green is naive. They left St. Louis with no problem. Can GM afford a single-car assembly facility that is building 8 cars an hour? Hardly makes good business sense does it.\n\nDespite the grinding of my teeth while reading your rosy post, I agree with your conclusion. Let's hope Corvette never leaves Bowling Green.",
      "time": "2010-10-31T15:21:50",
      "id": "92089866"
    },
    {
      "threadId": "105522125",
      "post": "Suggestions:\n\n1) Can you bump up the font size in the submission fields? Would make editing easier. Just try to get a |  (cursor) between ii in the current small font!\n\n2) How about a Gold Star program to reward Newsers who reach significant milestones. X # of post gets a star, then a star is added for every X submissions. Any stories promoted to front page earn a Gold Star. Or a certificate suitable for framing ;-)\n\n",
      "time": "2010-10-08T20:07:28",
      "id": "85301368"
    },
    {
      "threadId": "153243706",
      "post": "Cage match:  Miss Kentucky Latina vs. Miss Teen South Carolina. Battle of the Biblebelt Bitches. Get r done.",
      "time": "2010-10-08T18:37:31",
      "id": "85278052"
    },
    {
      "threadId": "148315559",
      "post": "Bah, sour grapes, wet blanket. None of the problems you mention can be solved with some ingenuity. \nSweat? venilation. \nDestination? Meant to replace buses/subway.\nStaff? How many people does it take to keep a bus/subway system running?\nBreakdown? Small electric emergency motor.\n\nNow about people taking shots at passing pods? Hmmmmmmm.\n",
      "time": "2010-09-30T13:46:18",
      "id": "82367524"
    },
    {
      "threadId": "141169142",
      "post": "$350? What a deal. I'm paying $200 for 50 mbps down from local utility. You never can have too much speed. Never.",
      "time": "2010-09-13T17:02:46",
      "id": "77289595"
    },
    {
      "threadId": "139419974",
      "post": "Who visits <a href=\"http://Google.com\" rel=\"nofollow\">Google.com</a> for search anymore? Unless this was a really simple project to execute - or it will lead to something more grand, this is a pretty lame exercise.\n\n\n(edit) AND... for those of us on a company network which can bog down sometimes as slow as 5 down, and deal with hangs all. day. long. what is a few milliseconds saved?",
      "time": "2010-09-09T15:27:18",
      "id": "76368640"
    },
    {
      "threadId": "137042564",
      "post": "To prove to son-in-law that good, sometimes great video doesn't have to be shot on jillion dollar equipment (he's a chief photog for TV)",
      "time": "2010-09-03T21:34:55",
      "id": "74917650"
    },
    {
      "threadId": "136598883",
      "post": "I don't like it... it's just a glorified phoner. For local/regional coverage, sure, but for networks? Cheap. However, instead of sending anchors to cover disaster aftermath, a Skype would be nice. ",
      "time": "2010-09-02T14:54:22",
      "id": "74265877"
    },
    {
      "threadId": "136193992",
      "post": "\n4 million dogs are killed every year in THE U.S. because of overcrowding in shelters. Care about  that? http://www.dogsindanger.com/aboutus.jsp",
      "time": "2010-09-01T14:04:40",
      "id": "73911960"
    },
    {
      "threadId": "135585246",
      "post": "4 million dogs are killed every year because of overcrowding in shelters. No video, no outrage? Yeah, that's about right.",
      "time": "2010-08-31T13:10:34",
      "id": "73494624"
    },
    {
      "threadId": "129971378",
      "post": "Good stuff. I've written thousands of posts and found a couple new sources for inspiration here. Nice job, thanks.",
      "time": "2010-08-16T01:35:26",
      "id": "69055527"
    },
    {
      "threadId": "128995620",
      "post": "Now how about a GIMP version for us po folks... and don't give me the \"same as PS\" song.",
      "time": "2010-08-12T19:03:45",
      "id": "68234885"
    },
    {
      "threadId": "128184631",
      "post": "Toad ja.",
      "time": "2010-08-11T16:52:07",
      "id": "67940116"
    },
    {
      "threadId": "126347006",
      "post": "So nice that you started blogging in the midst of Facebook. I hope you can keep going for another year.\n",
      "time": "2010-08-05T16:25:17",
      "id": "66238903"
    },
    {
      "threadId": "119758909",
      "post": "If it didn't have a \"natural\" sound: oil volcano is good. Stopped for now, but may erupt again.",
      "time": "2010-07-19T18:23:47",
      "id": "63227015"
    },
    {
      "threadId": "116308792",
      "post": "A kayaker!  Me too.<br>You are the Princess of Paddling, Prose, and Passing time.<br>I'm envious.<br>Nice post.",
      "time": "2010-07-11T22:03:35",
      "id": "61629624"
    },
    {
      "threadId": "104372043",
      "post": "I'm afraid. Very afraid. Thank goodness the ratings indicate Fox News watchers are few and far between. I always wonder if people like \"mom\" include BO'R and others when they think ''news.\"  Has there been research on this?",
      "time": "2010-06-04T19:51:03",
      "id": "54764062"
    },
    {
      "threadId": "104185813",
      "post": "Nice one - great trivia, and commenters about props are revealing also. Over the years, if this was newsprint, it would have disintegrated and yellowed terribly.",
      "time": "2010-06-04T18:34:10",
      "id": "54730280"
    },
    {
      "threadId": "103201103",
      "post": "In order to get hired, he had to sign a non-disclosure agreement and an ethics agreement. But knowing how skittish the gummit is prosecuting the \"little guy\" he probably will get away with it.",
      "time": "2010-06-01T17:59:05",
      "id": "53400261"
    },
    {
      "threadId": "223422460",
      "post": "Good move by Direct TV. They are doing it for the right reason: TWC has moved away from their core competency and \"mission.\" + by crossing NBC/TWC lines with talent, they lost their brand.",
      "time": "2010-05-21T02:25:33",
      "id": "51314324"
    },
    {
      "threadId": "96874094",
      "post": "If Yahoo was serious, they would have set up their own shop, like *gasp* Aol did. I find Associated Content material to be routine and boring. ",
      "time": "2010-05-18T21:23:23",
      "id": "50960246"
    },
    {
      "threadId": "94840464",
      "post": "Pretty damn rare! 20 years of marriage. This is a big deal. Best wishes for another 20 more - if that's what you really really want. :)",
      "time": "2010-05-12T20:35:15",
      "id": "49964445"
    },
    {
      "threadId": "92818243",
      "post": "Paranoid.\nNo explanation of what the alternative is: but assuming it will be a UC run operation, there is no way they will be more secure. No. way. ",
      "time": "2010-05-06T21:09:24",
      "id": "48736909"
    },
    {
      "threadId": "89234982",
      "post": "Very cool. Thanks. Simple install!\nDoes deselecting actually remove the \"like?\" Seems that one needs to be logged in to FB for it to \"like?\" ",
      "time": "2010-05-04T18:09:53",
      "id": "48377570"
    },
    {
      "threadId": "92055363",
      "post": "Here via ShotgunConcepts.com...\nThe Nashville flood was not a national story. It was a local story. Floods happen often - they just don't have the same national impact as a oil volcano or a terrorist attack in Manhattan.\n",
      "time": "2010-05-04T16:08:09",
      "id": "48358836"
    },
    {
      "threadId": "92085116",
      "post": "Too easy.\nDramatic video, some minor edits, music overlay.\nSimple.",
      "time": "2010-05-03T21:41:06",
      "id": "48231082"
    },
    {
      "threadId": "89129450",
      "post": "If it's done by old media it's a flop: 3 of the places are pizza places, not \"pubs.\" Only 8 spots to see in Louisville? One being the newspaper which doesn't have tours? \nMistake for the CJ to be involved... this is more suited for their alt weekly. Velocity.",
      "time": "2010-04-23T21:21:51",
      "id": "46308934"
    },
    {
      "threadId": "88278724",
      "post": "Answer: http://www.youtube.com/watch?v=wJ8RyGxrxVM\nYou're welcome (and Happy Birthday - how does 41 feel?)",
      "time": "2010-04-21T14:48:40",
      "id": "45820818"
    },
    {
      "threadId": "79352092",
      "post": "Oh, thanks, now I have the ear-worm 588-2300 EMMMMMpire! ",
      "time": "2010-03-25T21:43:04",
      "id": "41584557"
    },
    {
      "threadId": "77074981",
      "post": "I would have been Dario Franchetti and married to Ashley Judd. Except back in the day I would have been A.J. Foyt.\nSo now I limit my raciness to the streets and interstate.\n",
      "time": "2010-03-18T16:34:19",
      "id": "40328265"
    },
    {
      "threadId": "58253750",
      "post": "The same Sarah Palin that now reveals she went to CA for health care as a kid and now has a grandkid on gov't dole for healthcare? \nCould it be? \nYes.",
      "time": "2010-03-09T16:24:00",
      "id": "38693194"
    },
    {
      "threadId": "74067984",
      "post": "Sedona, Oliver, Sofi, and Derby get to go to Lowe's with me - and sometimes Dairy Queen. ",
      "time": "2010-03-09T16:19:06",
      "id": "38692613"
    },
    {
      "threadId": "72571567",
      "post": "dup'd",
      "time": "2010-03-04T18:54:16",
      "id": "38005738"
    },
    {
      "threadId": "69806999",
      "post": "It really is silly - the whole black bar deal. \nDidja know the average woman's nipple is 3/8\" when erect? \n(Your \"I-read-it-on-the-internet fact for the day\")\nhttp://www.onlineschools.org/blog/15-breasts/",
      "time": "2010-02-24T17:53:04",
      "id": "36311184"
    },
    {
      "threadId": "69058973",
      "post": "It's not idiot proof. I installed it and doesn't seem to work. WP 2.9.2 may be the issue. ",
      "time": "2010-02-22T15:43:35",
      "id": "35857468"
    },
    {
      "threadId": "67133199",
      "post": "Voyeuristically? Is that even a word? What's your prob. Afraid I'm going to do a mash-up (pun intended)",
      "time": "2010-02-15T21:07:20",
      "id": "34348936",
      "parentPost": "I find it interesting that the morality of the people infecting others' computers with malware is being brought into question, but not the people voyeuristically looking for video of this man's death. ",
      "parentPostTime": "2010-02-15T20:16:04",
      "parentPostId": "34330684"
    },
    {
      "threadId": "66190850",
      "post": "Mind.\nBlown.",
      "time": "2010-02-11T22:15:40",
      "id": "33945179"
    },
    {
      "threadId": "66120189",
      "post": "AHa! thanks for explaining. Yes, the built-in GPS seems to be far less reliable than after-market.\nThanks and happy travels. I am so damn jealous of this blog and your activities I could spit.\n\nBut I will try to be nice. :) ",
      "time": "2010-02-11T21:42:44",
      "id": "33941842",
      "parentPost": "Actually, our GPS has been a wonderful peacekeeper while we travel.  However, we recently bought a new vehicle, and well, the GPS is not up to par with our hand-held Garmin GPS.  We left the Garmin home thinking we would simply use the built-in GPS in our vehicle.  I won't do that again.\n\nAlso, from now on,we will also come prepared with back-up Google maps.  Live and learn!",
      "parentPostTime": "2010-02-11T17:41:00",
      "parentPostId": "33890107"
    },
    {
      "threadId": "66195419",
      "post": "Yeah, I got a problem with the TSA as a whole. So I hate that I give up my right to privacy.\n\n Since 9/11 has TSA stopped or slowed down a terrorist? No. It's a giant boondoggle that is wasting tax dollars. However: if the TSA was allowed to detain and search based on a profile of the terrorist, they MIGHT do some good. But I doubt it.\n",
      "time": "2010-02-11T21:40:45",
      "id": "33941637"
    },
    {
      "threadId": "63412867",
      "post": "I love Pandora! It's always on when I'm surfing. These sound (pun intended) great.",
      "time": "2010-02-05T01:35:47",
      "id": "32681009"
    },
    {
      "threadId": "64135361",
      "post": "You're old Katie. Sexy isn't in the equation any more.",
      "time": "2010-02-04T16:33:54",
      "id": "32609031"
    },
    {
      "threadId": "63905689",
      "post": "AP reported \"more than 100\" complaints about the Prius brakes. Toyota is in deep sh** if Woz is right and this is a wide-spread problem too.",
      "time": "2010-02-03T21:18:32",
      "id": "32529949"
    },
    {
      "threadId": "63792631",
      "post": "Gruber is right: it IS egotistical to write something and think that it is the final word on any subject. A blog without comments is a lecture without Q&A.\nNobody likes lectures.\nModerating comments is part of blogging, learn to deal with it. \nEngadget? You offer snark in posts, you get snark in comments, reap what you sow.",
      "time": "2010-02-03T14:40:49",
      "id": "32486728"
    },
    {
      "threadId": "62576851",
      "post": "He didn't talk like a negro. Now that's offensive",
      "time": "2010-01-30T16:58:13",
      "id": "32152793"
    },
    {
      "threadId": "49289273",
      "post": "Update: $129 million +",
      "time": "2010-01-28T16:21:13",
      "id": "31814497"
    },
    {
      "threadId": "60696498",
      "post": "Congratulations from up the road... Bowling Green... read about your failcock on Mashable. (Great hashtag too.)",
      "time": "2010-01-22T20:18:35",
      "id": "30903693"
    },
    {
      "threadId": "59551035",
      "post": "PS: the owner of the cam is monitoring comments to weed out people like me who know that this is just a marketing scheme - that involves a living thing that may end up dead because of neglect.\n\nI have no stomach for these people.\n\nMashable should be ashamed.",
      "time": "2010-01-18T21:50:02",
      "id": "30268877"
    },
    {
      "threadId": "58215571",
      "post": "Robin Meade said in email blast this morning...\r\n\"On a personal note, I just returned from the island of\r\nhispaniola, which haiti shares with the dominican republic.\r\nI was vacationing in punta cana DR. So the sheer proximity has\r\nme thinking of all the people who felt this earthquake and\r\nspent the night with fear in their hearts. \"",
      "time": "2010-01-13T14:42:32",
      "id": "29628711"
    },
    {
      "threadId": "56207641",
      "post": "Twitter spammer!",
      "time": "2010-01-13T01:45:05",
      "id": "29562025",
      "parentPost": "As a publisher I offer rss only as a service to my older readers. Most of my readers follow me on twitter. I foresee this to be the case more and more in the future. ",
      "parentPostTime": "2010-01-07T02:16:41",
      "parentPostId": "28736306"
    },
    {
      "threadId": "57973432",
      "post": "Of course this is complete and utter horse hockey.",
      "time": "2010-01-12T20:58:17",
      "id": "29539481"
    },
    {
      "threadId": "57089491",
      "post": "It's the new business model: Google never has offered tech support, Twitter doesn't either. ",
      "time": "2010-01-09T21:30:06",
      "id": "29097230"
    },
    {
      "threadId": "55187059",
      "post": "Detailed budgets are a waste of time. \nOnly required because the money-people think they have meaning. This gives the budget disproportionate importance.\nIf the budget is done (or re-done) monthly, it might have some value because it reflects real world circumstances.\n",
      "time": "2010-01-05T17:19:13",
      "id": "28406420"
    },
    {
      "threadId": "53769495",
      "post": "B.S. \r\nNo, Katie, you can't call \"scoop\" unless you actually did it. So with no cam handy, you still didn't ask these questions and follow-up? \r\n#Fail.",
      "time": "2009-12-24T16:28:12",
      "id": "27204951"
    },
    {
      "threadId": "53237286",
      "post": "Thanks for pointing out my bad grammer and spelling errers. You are vastly superior to me obviously.\n\nYou expanded CFO's and HR types to ALL C-level execs. CFO's and HR are the most time-sucking, meeting-causing, value-detracting bunch in any company. Even if  they worked for free, they would not be worth the hassle.\n\nOutsource your financial needs to a good CPA firm. Forget about HR. Take the risk and trust the people you hire to do the right think. (We're talking start-ups here!)",
      "time": "2009-12-23T21:30:38",
      "id": "27109007",
      "parentPost": "With regard to your comment about how \"CFO's,,, have way to [sic] much influence in ALL companies,\" I couldn't disagree more.\n\nI once thought that C-Level decision makers were way overpaid, that anyone could read a financial statement, that bringing a product to market was mostly about getting the heck out of the way of engineers, letting them work their creative magic. I couldn't have been more wrong. \n\nOnce I started to work my way up into decision-making, I realized that what the market (i.e. customers) want rarely jives with the creative vision of engineers. The challenge of managing engineers is gently coaxing them into pivoting from their vision and create something that customers actually want. Not to mention the severe challenge of actually figuring out what the market wants. \n\nCFO's and decision-makers are not overpaid. Without them, engineers would run company after company into the ground, coding crazy projects that don't sell. ",
      "parentPostTime": "2009-12-22T20:18:21",
      "parentPostId": "27013618"
    },
    {
      "threadId": "52743143",
      "post": "Typing tests are pretty meaningless. There is no thinking involved. It's just a test of manual dexterity.\nI can do 70 wpm with 2-3 errors when re-typing text.\nMy wife, who hasn't been paid to work on a keyboard in a decade still can do 70 wpm when writing an email or blog post.\nOn a typing test, she'll do 100 wpm with no errors and not break a sweat.\nI'm happy for the girl and all the accolades, but as a life skill, it's not much.",
      "time": "2009-12-20T02:33:16",
      "id": "26715758"
    },
    {
      "threadId": "48241424",
      "post": "BW: always the reporter, notices oddity and doesn't tip somebody, or god forbid, engage them? Did he think he was invited because of his personality and not where he works? \r\nWTF BW, you can't say \"I knew it\" afterwards with any credibility.",
      "time": "2009-11-27T14:19:04",
      "id": "24175677"
    },
    {
      "threadId": "44645119",
      "post": "Loser concept: It's Archie Bunker redux",
      "time": "2009-11-10T14:27:59",
      "id": "22536874"
    },
    {
      "threadId": "43580330",
      "post": "Californication Reveals New Cast",
      "time": "2009-11-05T00:09:30",
      "id": "21899188"
    },
    {
      "threadId": "43177908",
      "post": "It's just football as usual. He's just stupid for being on top of the pile when he did it.",
      "time": "2009-11-03T15:11:09",
      "id": "21761254"
    },
    {
      "threadId": "37869950",
      "post": "Aw right! I'm starting up a car, diamond and fine living blog right now. How does TrendyLiving.com sound?",
      "time": "2009-10-06T16:22:04",
      "id": "19188633",
      "parentPost": "No. The FTC is a U.S. government agency so would only cover blogs published in the U.S. Although I guess that is sometimes difficult to determine. Maybe I should move my car, diamond & watch review site to the Cayman Islands.",
      "parentPostTime": "2009-10-05T16:01:07",
      "parentPostId": "18569508"
    },
    {
      "threadId": "37753776",
      "post": "Twitter value is OP $ (other people's money) \nHow they continue to convince investors to pump in cash with absolutely no profit just boggles.",
      "time": "2009-10-05T00:44:10",
      "id": "18528327"
    },
    {
      "threadId": "36598005",
      "post": "The CFL's I have installed (GE mostly) have not had a long life... maybe a year. Still installing them, and writing date of installation on bulb base to check life.  Anyplace that brands are tested to see if there is a brand variance?",
      "time": "2009-09-28T19:28:55",
      "id": "17736048"
    },
    {
      "threadId": "34946421",
      "post": "Similar to the amazing awesome Apple?\nhttp://www.youtube.com/watch?v=Nx7v815bYUw",
      "time": "2009-09-18T18:17:06",
      "id": "16886776"
    },
    {
      "threadId": "34373692",
      "post": "A butt hickey from playing Sex Casino: http://idothings.info/i-played-sex-casino-so-you-dont-have-to/",
      "time": "2009-09-15T20:47:08",
      "id": "16659778"
    },
    {
      "threadId": "33562541",
      "post": "No, because newspapers don't trust Google. Google is too smart for the room",
      "time": "2009-09-10T21:31:41",
      "id": "16388332"
    },
    {
      "threadId": "29468279",
      "post": "Men with Pens",
      "time": "2009-08-13T15:01:50",
      "id": "14783149"
    },
    {
      "threadId": "25870824",
      "post": "Ya know what's really good? and probably looks the same?\r\nBourbon and Aunt Jemima.",
      "time": "2009-07-17T17:24:02",
      "id": "12822483"
    },
    {
      "threadId": "23739180",
      "post": "Bah. This is the answer to teen-pregnancy.\r\n\r\n\r\n Should be embraced with tongue.",
      "time": "2009-07-01T16:20:10",
      "id": "11982948"
    },
    {
      "threadId": "22901629",
      "post": "The question you should have been asked (an probably were) is: \"do you have any disabilities that prevent you from doing this job?\"\r\n\r\nIn her case, no.\r\n\r\nOnly $40K? Pay her AF, quick.",
      "time": "2009-06-24T21:08:38",
      "id": "11700124"
    },
    {
      "threadId": "22340114",
      "post": "She could be the next Robin Meade!",
      "time": "2009-06-19T21:13:40",
      "id": "11483157"
    },
    {
      "threadId": "163059911",
      "post": "Verklempt",
      "time": "2009-06-04T19:19:16",
      "id": "10494043"
    },
    {
      "threadId": "17324525",
      "post": "Congratulations on your retirement.\r\n\r\nWe just commented yesterday how cute Westies are, but my impression was that they are super energetic and require lots of room to run.  is that true? We're not looking... just curious.",
      "time": "2009-05-04T21:23:38",
      "id": "8992753"
    },
    {
      "threadId": "17310629",
      "post": "No, she's stupid. To use the word \"bomb\" in an airport is stupid.\r\n\r\nOn that basis, she will probably be awarded a large settlement.",
      "time": "2009-05-04T16:43:23",
      "id": "8984914"
    },
    {
      "threadId": "15799178",
      "post": "Yes! Very funny, very creative! Loved it.",
      "time": "2009-04-15T13:57:32",
      "id": "8226272"
    },
    {
      "threadId": "14532797",
      "post": "Excellent analysis.  I liked the spot because I liked the actress. When I buy, I am most motivated by my wallet. \r\n\r\nWould I love a Mac? Yes. Am I usually sorry when I buy a PC? Yes.\r\nPC = cheap\r\nMac = value",
      "time": "2009-03-27T18:33:04",
      "id": "7565386"
    },
    {
      "threadId": "13497703",
      "post": "Since benefits typically add 30%, deduct that and get $70,000 in wages for a skilled laborer.  Remember: one foot on a block of ice, one foot in hell, on the average you are comfortable. This is a meaningless byte of info.",
      "time": "2009-03-12T02:11:42",
      "id": "7118407"
    },
    {
      "threadId": "13238949",
      "post": "Isn't it just incredible that they got this so wrong? Ask any Russian in the street or in the kitchen or the elevator!!! Such incompetence.\r\n\r\nI have a feeling Hill took a few people down a notch or three.",
      "time": "2009-03-08T16:43:50",
      "id": "6994265"
    },
    {
      "threadId": "13171549",
      "post": "Williams is an idiot. As OP said, they are in every single newspaper and on every single local fake-news tv . It was a lame off handed comment. ",
      "time": "2009-03-06T22:42:21",
      "id": "6965403"
    },
    {
      "threadId": "12849327",
      "post": "Yeah, I hate it, but I have turned into a skimmer.  The last time I  REALLY read was on an airplane and that was because I forgot to take the portable dvd player.  I still get a few magazines, but they are not heavy reading and only encourage skimming.\r\n\r\nHowever, because of access to some much more info via the web, I think have a greater breadth of knowledge. At my (our) age I think that is more important than depth.\r\n\r\nGood post.",
      "time": "2009-03-01T22:40:29",
      "id": "6751550"
    },
    {
      "threadId": "12594783",
      "post": "Thanks for trying to dispel the myth.\n\nIt is to be expected, over time it was probably said, \"They will never use... (insert technology here)\nphonograph, telephone, television, cell phone, mp3,dvr, GPS.\n\nPS: hated your illustration. By itself it suggests that Boomers are all members of the Red Hat Society. (Do you even know who they are?) And those women are far out of the boomer demo (oldest Boomer is 61.)\n\n(From a Kentucky Boomer, but I can't argue with Jacob's (commenter) point! )",
      "time": "2009-02-26T14:38:42",
      "id": "6655073"
    },
    {
      "threadId": "149211250",
      "post": "Wow, that is just hilarious! The penthouse... the trophy wife... God Bless... some really, really awesome material.",
      "time": "2009-02-25T22:53:03",
      "id": "6624988"
    },
    {
      "threadId": "12561300",
      "post": "I agree that niche blog are wha's happenin'  We inheirited a koi pond when we bought our house, but gave them away because I didn't know anything about them.  Grapes? seems nichey enough: but how about growing grapes in your region? \r\nGetting search engines requires lots of inbound links, those are tougher and tougher to get!\r\nI think it can be done... it just takes perseverance.  \r\nGood luck!\r\nDogsWithCones.com\r\nBBQandBourbon.com\r\nAsianWomenHoldingThings.com\r\n\r\n:)",
      "time": "2009-02-25T17:11:38",
      "id": "6615270"
    },
    {
      "threadId": "12158621",
      "post": "Might be a total company campaign - including newsers to attack:  How about four minutes on how bad the newspaper biz is.\r\n\r\nhttp://www.fox17.com/newsroom/top_stories/wztv_vid_5236.shtml",
      "time": "2009-02-20T02:56:41",
      "id": "6422015"
    },
    {
      "threadId": "148889584",
      "post": "Ann Curry went to Texas and California and Florida. OMG the pain, the suffering, the agony. I sure hope she got hazard pay. Tweets are perfect for the sound byte reporters. ",
      "time": "2009-02-18T02:47:06",
      "id": "6360694"
    },
    {
      "threadId": "11775735",
      "post": "Hi Swampy!\r\nLOL that you put me in the same sentence with the ProBloggers.  You are dead on: it has to be a labor of love first. Because when that 1099 from Google comes and you pay those taxes??? Ewwww.",
      "time": "2009-02-13T21:18:07",
      "id": "6247900"
    },
    {
      "threadId": "155750428",
      "post": "Your links are all  screwed up. First one links to Trader Joes, second links to Pop Up launching site. No link to PDF.",
      "time": "2009-02-10T19:27:51",
      "id": "6144707"
    },
    {
      "threadId": "9856624",
      "post": "Update on the Zap factory in Kentucky: Built only if taxpayers will pay for it.\r\n\r\n\"The future of the proposed ZAP vehicle plant in Franklin now hinges on getting a federal loan.\r\n\r\nPlant officials are applying for a $200 million loan from the Department of Energy, which has set aside $25 billion to fund fuel-efficient vehicles. ZAP construction costs will equal about $175 million.\"\r\n\r\n\r\nhttp://bgdailynews.com/articles/2008/12/29/news/news2.txt",
      "time": "2009-01-14T18:36:09",
      "id": "5116571"
    },
    {
      "threadId": "153630345",
      "post": "Worst. Idea. Today.\r\n\r\nBetter: get a 22 Mommy bloggers together. But as you said... no star power to CMO's",
      "time": "2009-01-12T18:29:08",
      "id": "5075259"
    },
    {
      "threadId": "192356382",
      "post": "Billion with a B?\r\n\r\nWTF? In a trillion dollar economy, you think we viewers/readers think anything (outside of exec comp) in the millions gets air time?\r\n\r\nWill you on air pros, please stop popping B's? We get it. We get it. ",
      "time": "2008-12-31T04:13:19",
      "id": "4791858"
    },
    {
      "threadId": "8455477",
      "post": "I'm just Joe Plumber, and it has always hacked me off that Nielsen had so much power. \r\nHope you're rant gets traction.",
      "time": "2008-12-18T03:50:03",
      "id": "4474127"
    },
    {
      "threadId": "8052587",
      "post": "http://goinglikesixty.com/2008/12/07/tim-russert-still-dead-david-gregory-is-annointed-by-cardinal-brokaw-to-take-the-mantle/\r\n\r\nis my official response.",
      "time": "2008-12-07T20:29:14",
      "id": "4238098"
    },
    {
      "threadId": "7929647",
      "post": "Malls? Who shops at malls anymore?   So they are ignoring the big box retailers and discounters? Another example of nets not thinking.",
      "time": "2008-12-04T23:39:35",
      "id": "4176884"
    },
    {
      "threadId": "7749768",
      "post": "Hi,\nI'm not in education, but I know somebody who is and will forward this to them.  Don't you love BarCamps? I went to my first (and so far only) BarCamp in Nashville. Blew the Xer's minds when a Geezer strolled in! \n\nBTW: be careful if you decide to visit JuicyCampus.com - I got the Antivirus 2009 trojan from the site. Just Google search for stories about the site. Talk about destroying the university brand!",
      "time": "2008-12-03T00:19:55",
      "id": "4137281"
    },
    {
      "threadId": "7564617",
      "post": "This kind of 60 year old man.  Read my blog and you'll see I'm harmless, but interested.\nMy mantra is suitably old but mysteriously advanced.\n\nDoes age disqualify me? \n\nHow is it that I'm trolling? I read about your site in some RSS feed http://buzzfeed.com/peggy/im-just-sayin/  and checked you out.  That's how it works.\nSorry I upset you. I apologize for using imbeciles- I was struggling for the last i-lliteration.\n\nBut I stick with that you sounded ignorant and illiterate - in THIS vlog.\n\nNow go stuff yourself (with bird!) and check out my other blogs.\n\nhttp://goinglikesixty.com\nhttp://dogswithcones.com\nhttp://asianwomenholdingthings.com\nhttp://officeofcommonsense.tumblr.com\nhttp://www.trendhunter.com/GoingLikeSixty\n\n\n",
      "time": "2008-11-26T16:55:39",
      "id": "4025737",
      "parentPost": "I'm trying to figure out what kind of sixty year old man trolls around the Internet making inflammatory remarks to girls a third his age? Grow up.ps- very nice use of aliteration though... Well done!",
      "parentPostTime": "2008-11-26T16:36:57",
      "parentPostId": "4025430"
    },
    {
      "threadId": "146075602",
      "post": "Even the alternative toll free number was unavailable!",
      "time": "2008-11-24T20:35:58",
      "id": "3993220"
    },
    {
      "threadId": "174571885",
      "post": "Dan Abrams/Steve Carrell... separated at birth.",
      "time": "2008-11-19T17:22:52",
      "id": "3896966"
    },
    {
      "threadId": "6664793",
      "post": "Ha.\r\nPay me a katrillion dollars and I'll tell ya.\r\nOr I'll reduce it to a bazillion dollars and tell you why the consultant is wrong.\r\n\r\n",
      "time": "2008-11-07T01:46:30",
      "id": "3580073"
    },
    {
      "threadId": "5146932",
      "post": "I love this guy! \r\n\r\nAnybody that ends an interview with \"ova\" is my kind of guy. Not a sound-byte belcher. I don't know about his results with Katrina, but I hope CNN doesn't beat the \"ova\" out of him too quickly.",
      "time": "2008-09-29T21:10:48",
      "id": "2740253"
    },
    {
      "threadId": "4748295",
      "post": "Deadly juxtaposition on your RSS. This item was followed by:\r\n\r\nNew Career Opportunities Daily: The best jobs in media",
      "time": "2008-09-18T21:17:35",
      "id": "2432909"
    },
    {
      "threadId": "4470474",
      "post": "And this attitude is different how? \r\n\r\n Take any demographic group and there are dopes that have jumped to an unsupported conclusion about the demo. \r\n\r\nIt IS interesting that you even tried to explain about boomers. ",
      "time": "2008-09-12T16:33:31",
      "id": "2303201"
    },
    {
      "threadId": "2253886",
      "post": "Meh. \r\nFirst, think HR knew about the cancer kid?\r\nSecond, \r\nWhat difference would it make? When would YOU fire the guy? The week after? When his kid dies? When his kid is cured?\r\nIt's just business Sonny, it's not personal.",
      "time": "2008-07-29T00:22:32",
      "id": "1025579"
    },
    {
      "threadId": "1553157",
      "post": "Please help spread the word that the FCC has new definitions of the speed at which data is delivered.\r\nBroadband was/is a totally meaningless term and tech blogs should be leading the way to get the word out.\r\n    *   Digital Subscriber Line (DSL)\r\n    * Cable Modem\r\n    * Fiber\r\n    * Wireless\r\n    * Satellite\r\n    * Broadband over Powerlines (BPL)\r\nhttp://www.fcc.gov/cgb/broadband.html",
      "time": "2008-07-05T00:49:13",
      "id": "816257"
    },
    {
      "threadId": "1469255",
      "post": "Gates is FUNDING charitable work. I FUND charitable work. Most U.S. citizens FUND charitable work.\r\nMany U.S. citizens DO charitable work.\r\nBig distinction.\r\nWhen I see Bill Gates get his hands dirty, then I'll be impressed. \r\n\r\nInsignficant aside: Steve Jobs made computers easy for the rest of us. ",
      "time": "2008-06-28T15:19:36",
      "id": "769711"
    },
    {
      "threadId": "1222928",
      "post": "@Fishy Fred: It's overboard, but you would do the same? I don't understand your comment.\n Cathartic?  Since when do we turn over the public airwaves to provide catharsis for a network? \nUpdate: During the U.S. Open golf tournament broadcast, they took time to give more tribute to Russert.\nI'll bet ya a nickel, the Today show is what I predicted.\n@Claudivia: thanks for weighing in on this in my support. So far, I'm the Lone Ranger on this topic.",
      "time": "2008-06-15T21:10:11",
      "id": "680529"
    }
  ],
  "profileInfo": {
    "username": "GoingLikeSixty",
    "about": "Boomer retired and living in Costa Rica writing stuff mostly of interest to other boomers and about life in Costa Rica. No politics, few rants, attempted humor.Suitably old, but mysteriously advanced.",
    "name": "GoingLikeSixty",
    "disable3rdPartyTrackers": false,
    "isPowerContributor": false,
    "isAnonymous": false,
    "rep": 1.2251079999999999,
    "profileUrl": "https://disqus.com/by/GoingLikeSixty/",
    "url": "http://goinglikesixty.com/",
    "reputation": 1.2251079999999999,
    "location": "Atenas, Costa Rica",
    "isPrivate": false,
    "signedUrl": "http://disq.us/?url=http%3A%2F%2Fgoinglikesixty.com%2F&key=DXlHs81X8zT2l8tl7kiqqg",
    "isPrimary": true,
    "joinedAt": "2008-06-15T16:09:52",
    "id": "46047",
    "avatar": {
      "small": {
        "permalink": "https://disqus.com/api/users/avatars/GoingLikeSixty.jpg",
        "cache": "//a.disquscdn.com/uploads/users/4/6047/avatar32.jpg?1458758093"
      },
      "isCustom": true,
      "permalink": "https://disqus.com/api/users/avatars/GoingLikeSixty.jpg",
      "cache": "//a.disquscdn.com/uploads/users/4/6047/avatar92.jpg?1458758093",
      "large": {
        "permalink": "https://disqus.com/api/users/avatars/GoingLikeSixty.jpg",
        "cache": "//a.disquscdn.com/uploads/users/4/6047/avatar92.jpg?1458758093"
      }
    }
  }
}