{
  "comments": [
    {
      "threadId": "4881762409",
      "post": "Okay, ordering now. Amazing!",
      "time": "2016-06-06T13:55:15",
      "id": "2714621348"
    },
    {
      "threadId": "4886788635",
      "post": "Oh wow, I love the black or grey necklace!! So gorgeous. (Also following on instagram!) xx",
      "time": "2016-06-06T12:58:36",
      "id": "2714545099"
    },
    {
      "threadId": "4835327908",
      "post": "I have been desperately awaiting a re-stock of the Perfecting Skin Tint so it's wonderful to know that you care so much about the quality of the product you sell! I adore the coconut balm, moon mask and just recently bought the milky jelly so I know it'll be worth the wait. Plus this gives me time to try and use up the foundation I already have so I feel less guilty buying a new one. Keep up the wonderful work! :) xx",
      "time": "2016-05-18T14:16:11",
      "id": "2682132008"
    },
    {
      "threadId": "4796431033",
      "post": "Claire Danes was best dressed of the night in terms of nailing the theme, I also loved Emma Watson's subtle nod to technology by wearing a dress made of recycled bottles. I was very underwhelmed by anyone wearing Balmain or LV there was just so so much of it that it felt extremely over saturated - nearly every other guest wore one of those designers (some of it being not very exciting or good). I was incredibly surprised that there weren't more looks from Gucci or Alexander McQueen. Kate Hudson's Versace gown was wonderful. Was anyone else bored with Gigi's look? Zayn definitely stole her thunder that night.",
      "time": "2016-05-04T13:20:54",
      "id": "2657714639"
    },
    {
      "threadId": "4607910741",
      "post": "Alessandro never lets me down, another amazing Gucci show in the books! x",
      "time": "2016-02-24T21:10:06",
      "id": "2533392285"
    },
    {
      "threadId": "4578288855",
      "post": "I thought it was interesting how Alexander held his last collection with Balenciaga at (I believe) a church, quickly to be followed by this collection at yet another church. Not sure if deliberate, but just an interesting connection. I also felt that the collection was slightly trying too hard, however there were bits I quite liked. I enjoyed that he injected a bit of humor into the collection. Most notably the pink corduroys with strippers on them that brings back memories of preppy girls and guys wearing similar pairs but with anchors and whales. While some items felt a bit novelty, looks 17 and 18 I thought were great. The outerwear was a winner for me as well. Now that he has all his time to focus on his own brand I'm excited to see what more is to come.",
      "time": "2016-02-16T21:07:23",
      "id": "2517497099"
    },
    {
      "threadId": "4573667691",
      "post": "Yes! Yes! This 100%. I was reading an article on I believe Business of Fashion about how Kayne is ushering in a new way to present fashion and all I could think was: based on what I've seen of the presentation was how the do you see the clothes? How do you discern if it is a successful collection if you have to view it through a jumbotron? As an artist who wants to be taken so seriously for his work in fashion he made it darn near impossible to take any lasting impressions from the designs based on the way it was presented. It also leaves a bitter taste in my mouth that he refuses to go through the CFDA. I feel like you don't make many friends in the fashion world by forcing other designers to re-arrange their schedules for someone who isn't playing fair.",
      "time": "2016-02-16T19:08:51",
      "id": "2517117153"
    },
    {
      "threadId": "4580571414",
      "post": "Ugh every time I see anyone post about this product a part of me dies that I have yet to get my hands on it! You look gorg! x",
      "time": "2016-02-15T21:04:35",
      "id": "2515333120"
    },
    {
      "threadId": "4569675645",
      "post": "The Clinique Moisture Surge Balm is a lifesaver. Every year my skin turns into a desert come winter, cracking, peeling the worse! This stuff has been an absolute dream at keeping my skin hydrated.",
      "time": "2016-02-12T18:33:56",
      "id": "2510317999"
    },
    {
      "threadId": "4570611068",
      "post": "I love Hedi, I know he has his detractors that his work is a product of good styling not necessarily good design but season after season I have yet to find a collection that I didn't love. I'm mostly curious if part 2 will be a continuation of part 1 or if he'll throw a curve ball with a slew of different looks. Either way, this little teaser definitely has me waiting on pins and needles for PFW.",
      "time": "2016-02-12T13:56:42",
      "id": "2509847481"
    },
    {
      "threadId": "4512874736",
      "post": "Eep! So excited you went to Jack's Wife Freda! That's one of my favorite spots in NYC. I hope you swiped some of their adorable sugar packets. I always sneak a few in my purse before I leave. xx",
      "time": "2016-01-22T13:57:54",
      "id": "2471771134"
    },
    {
      "threadId": "4509997619",
      "post": "I've been on the hunt for a new long lasting, liquid liner for yonks now. Tons of people recommended Kat Von D to me but I was always wary. My favorite liner is the Seventeen Tattoo Me Liquid Liner because it's so inexpensive and really holds up amazingly on my oily eyelids but I can't get it stateside! That being said I'm glad to read your review of the Kat Von D liner, as I'll probably pass on it this time. Any recs for a good eyeliner that I can possibly get my hands on in the USA?  x",
      "time": "2016-01-21T16:55:50",
      "id": "2470227857"
    },
    {
      "threadId": "4488819648",
      "post": "I was about to mention this as well! I love the NYX concealer typically I dab it under eyes instead of smoothing it which I find helps a bit with creasing. Best drugstore concealer by far for the price.",
      "time": "2016-01-14T16:56:55",
      "id": "2457884666",
      "parentPost": "NYX Full Coverage Concealer is surprisingly good for zit coverage. Though I will say it creases horribly under the eyes. This being said, for $5 it's a pretty solid buy.",
      "parentPostTime": "2016-01-14T15:21:45",
      "parentPostId": "2457540901"
    },
    {
      "threadId": "4424489268",
      "post": "I absolutely don't know how I lived before using Revlon's SkinLights. It's a game changer for sure. Have you ever tried the other shades? I've always been a Bare Light loyalist but I've been tempted a few times to try the Peach. x",
      "time": "2015-12-22T20:32:53",
      "id": "2422045785"
    },
    {
      "threadId": "4407197133",
      "post": "Essie's Butler Please has been a favorite blue of mine for eons, it looks like a pretty good drugstore dupe for that YSL one for us ballers on a budget. x",
      "time": "2015-12-16T14:04:28",
      "id": "2412481091"
    },
    {
      "threadId": "4388373481",
      "post": "I've been loving the dewy look for winter. I'm not sure if it's available in the UK but I've found that the Hard Candy Face & Body Glow All The Way in Doll Face is a pretty good dupe for NARS's. And at $8 (about £6) for 2.7 oz of product it's a steal. It really makes your skin glow without being over the top. If you can get your hands on it I definitely recommend it! x",
      "time": "2015-12-15T20:39:09",
      "id": "2411431895"
    },
    {
      "threadId": "4335705516",
      "post": "Completely agree, I'm a bit tired of the 70s looks that have over saturated the markets. The stand out to me was the Floral Jacquard as well. Once I saw that look I was excited to see similar ones following it just to be disappointed. Look 19 and 21 are my other favorites being sharp and clean (possibly because of the straight leg trousers instead of the bell bottoms that dominated most of the collection) but the coats were forgettable.",
      "time": "2015-11-24T17:24:47",
      "id": "2376585968",
      "parentPost": "For years Burberry might have been taken as a British reflection of Gucci, so I couldn't be more delighted Bailey decided not to hop on the overcrowded Saint Laurent/Valentino/Gucci bus this time around. However there must be more alternatives than other regrettable versions of the 70s. Bell bottoms were cartoon clothes then, right out of Popeye or The Yellow Submarine, and sorry folks, age hasn't helped them. Did you see Lucy Liu in last week's Elementary? That said, there are loads of beautiful coats though the presentation was so somber you might not have noticed. #14 for example deserved a lighter color garment underneath to better show it off, and I would have loved more designs like the stunning floral jacquard lame destined to be the editors' pick of the season.",
      "parentPostTime": "2015-11-20T17:52:20",
      "parentPostId": "2370365417"
    },
    {
      "threadId": "4249151711",
      "post": "Oh I must get my hands on that eyeliner. I've been searching for a new liner that doesn't budge and have yet to find one. The price of this one sounds too good to be true! x",
      "time": "2015-11-12T13:28:28",
      "id": "2355118724"
    },
    {
      "threadId": "4311674246",
      "post": "One of these days I'll get my hands on some Diptyque candles! Perhaps a NYC trip to Henri Bendel is in the cards.... x",
      "time": "2015-11-12T13:26:34",
      "id": "2355116477"
    },
    {
      "threadId": "4237686488",
      "post": "Yes, but have you seen that the bulk of the coveted items ended up on eBay for significantly more than what they were at H&M?  I recently read an article on how re-sellers approach these sort of collabs and there is usually a calculated movement to buy the most expensive, coveted items to turn a profit (you don't see as many of the \nlower priced items popping up). It makes you wonder if the people that purchase them and contributed to it selling out so quickly genuinely wanted the items are just taking advantage of buyers. Which in turn makes me question if you can claim a collection was successful (successful in terms of allowing fashion fans to obtain a piece of affordable designer wear) based on the the speed of which it sells out when it all ends up on eBay.\n\nIt also creates an interesting dilemma as previously mentioned by Neil in regards of who was buying the collection. With the insane markups on eBay/etc if you're able to afford it you're better off buying \"real\" Balmain and those that had saved up and wanted it now have missed their opportunity because it's entirely out of reach. I'm more interested to see how after the hype has died down what the re-seller's prices will look like - if they will still be 200%-300% more than retail or if they will back down and price it more reasonably.",
      "time": "2015-11-09T18:04:23",
      "id": "2350429698",
      "parentPost": "you may think the prices are high, but everything sold out in a couple of hours. so maybe not so much!",
      "parentPostTime": "2015-11-08T08:09:17",
      "parentPostId": "2348421200"
    },
    {
      "threadId": "4270195931",
      "post": "Oh I love shampoo bars! Big is my go to shampoo but I bought Jason & The Argan Oil for a trip and fell in love - it leaves my hair oh so soft and Rose Jam is my favorite scent ever. I love love the scent of Honey I Washed The Kids but I've been deterred from buying the soap again since in the past for some reason it really dried out my skin! I've been wanting to try the shampoo bar but I'm a little worried it'll have the same effect on my hair. xx",
      "time": "2015-10-29T16:28:10",
      "id": "2333278029"
    },
    {
      "threadId": "4226519828",
      "post": "I've been hunting around for a new foundation and have been leaning towards getting the Magic Foundation because I have heard nothing but good things when it comes to Charlotte Tilbury. However being in the US it is impossible to find this stateside! Sigh, it just wasn't meant to be. x",
      "time": "2015-10-29T16:20:02",
      "id": "2333263939"
    },
    {
      "threadId": "4226664531",
      "post": "Ah I must get my hands on SOMETHING from Charlotte Tilbury. I have heard such amazing things about the brand. I'm just trying to be a bit better with buying things and waiting until I run out of something before I buy something else.... my bronzer is almost out so perhaps I'll scoop up Bronze & Go. Swoon. x",
      "time": "2015-10-15T18:12:53",
      "id": "2309130596"
    },
    {
      "threadId": "4203290511",
      "post": "Oh I've been dying to try some of the Kiss the Moon products! And I believe I've been following your blog for perhaps about a year or so? That sounds about right! xx",
      "time": "2015-10-07T19:32:03",
      "id": "2295212286"
    },
    {
      "threadId": "4201810213",
      "post": "I love Vegas Volt! I must admit I bought it after watching Kate Nash's music video for Do-Wah-Doo where she wears it and fell in love. I love Flat Out Fabulous, may have to grab that next xx",
      "time": "2015-10-07T12:40:45",
      "id": "2294504069"
    },
    {
      "threadId": "4080206691",
      "post": "Gorgeous snaps as always! I love love Etsy, such a wonderful community! x",
      "time": "2015-08-31T12:49:15",
      "id": "2227637440"
    },
    {
      "threadId": "4074583342",
      "post": "I love the Patina. It's the perfect every day lip. I wear it to work all the time and it's still there by the end of the day. Fantastic! xx",
      "time": "2015-08-28T16:21:25",
      "id": "2223235195"
    },
    {
      "threadId": "4060393124",
      "post": "This is wonderful! Fashion is more so of a hobby for myself but I do love learning more and BOF has been a great resource. I'm very excited to see what more is to come under the Education tab! x",
      "time": "2015-08-24T15:26:30",
      "id": "2211729434"
    },
    {
      "threadId": "4001850886",
      "post": "Love this red! Am devastated it's a Limited Edition shade. Thinking about buying another tube so I can make it last a little long haha. x",
      "time": "2015-08-20T12:37:14",
      "id": "2204752109"
    },
    {
      "threadId": "4026598250",
      "post": "I've been hunting for a new table lamp and I love the whimsical printed one with a nature theme. So cute! xx",
      "time": "2015-08-17T18:36:13",
      "id": "2198860820"
    },
    {
      "threadId": "4003024494",
      "post": "Smith's is made in my hometown. If you're ever in need of a new batch I'd be more then happy to send you some, much cheaper than what's it's sold for at Sephora! xx",
      "time": "2015-08-11T12:28:43",
      "id": "2186303278"
    },
    {
      "threadId": "3849580794",
      "post": "Oh you are lucky that Covergirl The Supersizer Mascara worked for you! I got it and was extremely excited to try it but found it just made a horrible mess on my eyelashes. Perhaps I'm not used to twirling the wand as a go. I'll just be sticking with my Boots mascara for now! x",
      "time": "2015-06-15T14:16:58",
      "id": "2080003661"
    },
    {
      "threadId": "3799999212",
      "post": "I actually prefer the Nivea Sun-Kissed Radiance Gradual Tanner & Body Lotion over the Jergens. I feel that it has a better scent and doesn't get so streaky on me as Jergens. x",
      "time": "2015-06-01T20:41:35",
      "id": "2056890570"
    },
    {
      "threadId": "3792947248",
      "post": "The problem with celebrity designers is that they often are designing only for their fans not for a fashion conscious public. Sophia mentioned just taking another person's design and putting their name on it which I'm sure happens more than not. In the case of The Row and Victoria Beckham their collections actually create unique fashion forward looks each season opposed to other celebrity brands simply riding on the tide of current trends which often have little to no significant impact on the fashion world. Yes they may rake in money a la Jessica Simpson but are they \"breaking new ground\" as Pam stated? Highly unlikely. x",
      "time": "2015-05-27T05:10:38",
      "id": "2047316779"
    },
    {
      "threadId": "3784808823",
      "post": "Yet another blow to NYFW's already wounded ego. I wonder if Mercedes decision to drop out has anything to do with the rather lackluster performance of many collections this past season. I recall an article on WWD referencing a lukewarm NYFW A/W 2015. I'm interested to see how this will play out for the S/S 2016 season in September especially with Lincoln Center being out of the picture as well. Has NYFW become uncool? x",
      "time": "2015-05-27T04:59:03",
      "id": "2047308336"
    },
    {
      "threadId": "3782958270",
      "post": "I've always been curious on the personal shopping aspect of stores. Extremely interesting article and I can definitely see the benefits in personal shopping from both the consumer and the seller. As a consumer it allows for a personal one on one approach that is stress free and easy. It's obvious on how that alone would cause someone to spend more. Not to mention having a non-bias consultation allows for shoppers to purchase things that fit them properly and actually suit them. Lastly it eliminates unnecessary impulse buying outside of what you're looking for in particular but encourages you to purchase a whole outfit. As a seller - good customer service, positive experience, and getting what you wanted brings consumers back again and again (and have them spending more and more). Sounds like a win-win. x",
      "time": "2015-05-23T19:43:49",
      "id": "2041834196"
    },
    {
      "threadId": "3780996736",
      "post": "Loved this Top Shelf! Tom Ford is perfection. x",
      "time": "2015-05-22T16:13:35",
      "id": "2039663454"
    },
    {
      "threadId": "3770803514",
      "post": "I love the Hourglass Ambient Lighting Powder! I definitely want to pick up a couple other shades, perhaps just taking the plunge and getting the palette! x",
      "time": "2015-05-20T18:56:23",
      "id": "2036190679"
    },
    {
      "threadId": "3749250932",
      "post": "Oh I just went to NYC a few weeks ago! Already planning another trip \nbut here are some of my recs! Food/Drink: Jacks Wife Freda is a favorite\n of mine for tasty food and yummy cocktails. Penelope is another good \none (they have fantastic brunch specials). The Mermaid Inn has great seafood\n (and Harry Styles once had a dinner date there, ooh la la). A little pricy but if you can take a peak in The Campbell Apt located inside Grand Central Station very instagram worthy and their Prohibition Punch is wonderful. Shopping: No trip to NYC is complete without popping into Kate Spade's flagship store on Madison. I love to wander Henri Bendel and Bergdorf Goodman while pretending I am Blair Waldorf a la Gossip Girl. Catbird has gorgeous bits and bobbles. If you like to read definitely pop into Strand bookstore, miles and miles of books. Other: The Met just opened their newest exhibition on Chinese art & fashion (not only are there traditional garbs but also work from Dior, YSL, and Alexander McQueen). FIT usually has wonderful exhibitions. I always like to stop in The Plaza for tea in their palm court and to see Eloise. The High Line is an wonderful way to stroll through the city, above the city. If you can track it down there is an Sprinkles Cupcake ATM hiding in the city. Lastly, be sure to see NYC's own castle in Central Park. Enjoy! xx",
      "time": "2015-05-11T00:03:24",
      "id": "2017477538"
    },
    {
      "threadId": "3682085866",
      "post": "Is Boots considered drugstore? Haha I've found that Boots No7 Exceptional Definition & Boots No7 Extreme Length are amazing. It's been my go to for almost a year now. x",
      "time": "2015-04-15T17:40:10",
      "id": "1969116060"
    },
    {
      "threadId": "3682023463",
      "post": "This Tom Ford collection looks so luxe! Must pick something up that bronzer is so dreamy. xx",
      "time": "2015-04-15T13:35:40",
      "id": "1968654021"
    },
    {
      "threadId": "3611387336",
      "post": "Oh I love the Topshop Glow Pots. I use Gleam which seems to be no longer available. Topshop, you're breaking my heart. ):",
      "time": "2015-03-20T14:52:05",
      "id": "1918163768"
    },
    {
      "threadId": "3599355846",
      "post": "Gorgeous layout!! Love how clean and easy to read it is without too many distractions A++ xx",
      "time": "2015-03-16T14:33:54",
      "id": "1909850157"
    },
    {
      "threadId": "3568865060",
      "post": "Have you tried Brilliantine from Bumble & Bumble? I was always wondering how it compared to Texture Hair (Un) Dressing. I know Brilliantine provides more shine than (Un) Dressing but texture wise is there a difference?",
      "time": "2015-03-06T14:49:45",
      "id": "1891674412"
    },
    {
      "threadId": "3565920202",
      "post": "My favorite Lush shower gel of all time is Rose Jam, it's seasonal only so you'll have to wait till near holidays but when it is available I stock up! Scent is heavenly and leaves your skin oh so soft. Smells similar to the Ro's Argan Body Conditioner but a bit more sweet and tart. x",
      "time": "2015-03-04T19:41:52",
      "id": "1887466584"
    },
    {
      "threadId": "3565985493",
      "post": "I love the shade Ethereal, it's a really pretty lilac/grey. I'm not sure if it's still being sold or not though. I bought it on a trip to London a year ago and every time I pop into Topshop in NYC I can never find it!",
      "time": "2015-03-04T18:50:54",
      "id": "1887369325"
    },
    {
      "threadId": "3440588820",
      "post": "I've been using honey as a mask for yonks now! I love putting on a thin layer while I soak in the tub for about 10 or so minutes. When I wash it off my face feels softer than ever and plump. I've gotta try it as a face wash though, I've never even thought of that. xx",
      "time": "2015-01-21T17:25:32",
      "id": "1806959922"
    },
    {
      "threadId": "3253191784",
      "post": "Oh I absolutely LOVE Velvet Orchid, I just got it recently as a early Christmas gift and can't get enough. Definitely my new signature scent. x",
      "time": "2014-12-17T15:36:25",
      "id": "1746813945"
    },
    {
      "threadId": "3154099770",
      "post": "The night cream is so so nice, I just wish I could use the Vitamin E line. ): The wheat germ ingredient in it made me break out like crazy so I had to stop. But oh... the texture of that night cream is heavenly.",
      "time": "2014-10-27T13:38:25",
      "id": "1655743927"
    },
    {
      "threadId": "3160922709",
      "post": "Oh I can't wait to hear about your thoughts on Charlotte Tilbury! I've been itching to buy something from her line of products! While I am greedy and would like 5 consecutive days I'm not opposed to every other day either! xx",
      "time": "2014-10-27T13:36:30",
      "id": "1655741514"
    },
    {
      "threadId": "3102376845",
      "post": "Rose Jam is seriously my favorite thing in the world! I plan on stocking up once it hits stateside! xx",
      "time": "2014-10-10T20:27:41",
      "id": "1629730912"
    },
    {
      "threadId": "2977403714",
      "post": "Definitely invest in a top coat! At my job I use my hands a lot but I can squeeze at least 5 days of wear of of Essie polishes. I like Sally Hensen, Sephora, or OPI's top coats. Makes a world of difference!!  xx",
      "time": "2014-09-01T12:35:46",
      "id": "1568721885"
    },
    {
      "threadId": "2920252869",
      "post": "My brother and I are actually going to NY Couture Week! So excited. x \n",
      "time": "2014-08-12T15:58:37",
      "id": "1539188701"
    },
    {
      "threadId": "2850879601",
      "post": "I've always loved the word Saudade. What a gorgeous shirt! Cheers! I tend to have saudade for London. Whenever I leave to come back home to the US my heart breaks. xx",
      "time": "2014-07-17T12:19:51",
      "id": "1489686076"
    },
    {
      "threadId": "2755684438",
      "post": "Isn't it dreamy?! It has skyrocketed to my must have list once I switch over to the iPhone 5. (:",
      "time": "2014-06-11T18:54:15",
      "id": "1430752818",
      "parentPost": "oh my. these are all so gorgeous! i especially love the floral phone case!! so pretty.",
      "parentPostTime": "2014-06-11T14:58:57",
      "parentPostId": "1430362318"
    },
    {
      "threadId": "2748851056",
      "post": "I just bought the Honey Bronze Dry Oil, I love it! I had something similar (I use similar loosely) from Victoria's Secret and it was sticky, streaky and just made me wary of trying other products like. This one though is a winner.  I definitely want to try out some other things in the range. xx",
      "time": "2014-06-09T13:25:58",
      "id": "1426787133"
    },
    {
      "threadId": "2643327088",
      "post": "It is far to easy for me to fall in love with Kate Spade everything! I am swooning over it all! xx",
      "time": "2014-04-29T16:57:01",
      "id": "1361041219",
      "parentPost": "I love everything Kate Spade right now, especially the stationery! <3 xo",
      "parentPostTime": "2014-04-28T21:59:56",
      "parentPostId": "1359740223"
    },
    {
      "threadId": "2619304040",
      "post": "Mira, you're definitely right, but I've gone through so many different conditioners trying to find the 'right one' that I've nearly given up! I have pretty thick wavy hair so I only wash it twice a week otherwise it dries out and gets frizzy. I've found that leave in conditioner works best for me as I can just use a very little bit on my ends - which need the most moisture. The BB Creme has been awesome though! Definitely keeps my hair smooth without the extra weight. I look forward to seeing changes to my hair (if any) but either way it's a winner for me! xx",
      "time": "2014-04-18T15:21:13",
      "id": "1344870589",
      "parentPost": "Your hair is weighed down may probably because you're using a hair conditioner that is not suitable for you. I find it really hard to find the right products too. But Pantene BB crème for hair sounds good and I'll definitely give it a try!",
      "parentPostTime": "2014-04-17T16:47:51",
      "parentPostId": "1343073830"
    },
    {
      "threadId": "2597918690",
      "post": "I suffer from the same dreaded dry lips as you! I like to prep my lips with E.L.F.'s studio lip exfoliator - seriously such a steal and actually works like a dream. Then I use some balm (usually Vaseline) to moisturize prior to applying the lipstick. In terms of staying power M.A.C.'s Ruby Woo reigns supreme through eating, kissing, etc (but since it's a retro matte can be EXTREMELY drying if your lips aren't prepped). However I adore Rimmel Kate Moss's Reds. \n\n\n\nAnother great product I find that helps my lips out is BITE's Agave Lip Mask. I apply it before bed and in the morning my lips are baby soft. It's super potent so a small amount is all you need and my lips have never been better. Good luck! xx",
      "time": "2014-04-09T17:00:37",
      "id": "1326728712"
    },
    {
      "threadId": "1863434291",
      "post": "I have dark brown hair and I've been dying to go blonde these past couple weeks (no pun intended). I've dyed my hair in the past though so I'm sure mine would take good while to achieve the color I want.... unfortunately ): \n\nBut I love your blonde locks! Gorgeous! xx",
      "time": "2013-10-16T12:32:48",
      "id": "1084282353"
    },
    {
      "threadId": "1488974069",
      "post": "I'm adoring the O.M.G. in espresso! So beautiful! xx",
      "time": "2013-07-17T01:35:11",
      "id": "965188338"
    },
    {
      "threadId": "1251474035",
      "post": "Have you ever tried Too Faced Primed & Poreless Skin Smoothing Face Primer? It was my first experience with a primer and I absolutely love it, though Laura Mercier's comes in with a close second! x",
      "time": "2013-05-02T01:55:13",
      "id": "881822865"
    },
    {
      "threadId": "1205723883",
      "post": "I love the Audrey Flat in the red patterned print. So cute! xx",
      "time": "2013-04-16T01:55:07",
      "id": "864827115"
    }
  ],
  "profileInfo": {
    "username": "natalieaja",
    "about": "mama, i'm satan",
    "name": "natalieaja",
    "disable3rdPartyTrackers": false,
    "isPowerContributor": false,
    "isAnonymous": false,
    "rep": 1.203107,
    "profileUrl": "https://disqus.com/by/natalieaja/",
    "url": "http://www.thesartorialedit.com",
    "reputation": 1.203107,
    "location": "Maryland",
    "isPrivate": false,
    "signedUrl": "http://disq.us/?url=http%3A%2F%2Fwww.thesartorialedit.com&key=fa9IqpPWD2_9NZcicseHPw",
    "isPrimary": true,
    "joinedAt": "2008-06-20T22:17:49",
    "id": "48898",
    "avatar": {
      "small": {
        "permalink": "https://disqus.com/api/users/avatars/natalieaja.jpg",
        "cache": "//a.disquscdn.com/uploads/users/4/8898/avatar32.jpg?1455285171"
      },
      "isCustom": true,
      "permalink": "https://disqus.com/api/users/avatars/natalieaja.jpg",
      "cache": "//a.disquscdn.com/uploads/users/4/8898/avatar92.jpg?1455285171",
      "large": {
        "permalink": "https://disqus.com/api/users/avatars/natalieaja.jpg",
        "cache": "//a.disquscdn.com/uploads/users/4/8898/avatar92.jpg?1455285171"
      }
    }
  }
}