{
  "comments": [
    {
      "threadId": "2923585393",
      "post": "Great feature. Thanks, Josh.",
      "time": "2014-08-13T17:52:48",
      "id": "1541075584"
    },
    {
      "threadId": "1615788745",
      "post": "Great point. We should be thinking like an offline version of meetup.com.",
      "time": "2013-08-19T19:01:19",
      "id": "1006871220",
      "parentPost": "What this should mean, if you reverse engineer the thinking, is that the people you need to reach out to more than coders are the community managers of these communities. They are the sysadmins of the new marketing, the new enterprise and the new business model in a collaborative economy. They are right now in the ghetto of most marketing departments, but these are the new leaders of sales, marketing and modeling. I wish you luck. Check out Microsoft BizSpark if you want to team up on anything.",
      "parentPostTime": "2013-08-19T01:19:52",
      "parentPostId": "1006029104"
    },
    {
      "threadId": "1237966566",
      "post": "Select your blog in Blogger -> Settings -> Other -> Set \"Allow Blog Feed\" = \"Full\".",
      "time": "2013-05-01T05:49:55",
      "id": "881055602",
      "parentPost": "I can't find this setting on the Blogger pages. Any hints/instructions? Thanks.",
      "parentPostTime": "2013-04-30T11:39:14",
      "parentPostId": "880321275"
    },
    {
      "threadId": "730358101",
      "post": "For a 55 year old user who still uses Windows XP, I thought he managed to find his way around pretty quickly. And that's without going through a tutorial. But the interviewer is clearly biased against Windows 8 and trying really hard to impose his view. ",
      "time": "2012-06-18T00:59:23",
      "id": "560682785"
    },
    {
      "threadId": "621159707",
      "post": "Mariane, you can delete old blogs. Right now the \"delete blog\" link is available on the blog profile page. We'll make it available on the dashboard as well in a couple of days. ",
      "time": "2012-03-28T18:08:48",
      "id": "478608941",
      "parentPost": "I have been visiting today and I must say I am happy for the features.. was easier for me to manouvre - One thing I would like  is that I have a few blog and while transfere from one to another it would be nice if I could delete the old ones and restart a new?  ",
      "parentPostTime": "2012-03-27T11:36:23",
      "parentPostId": "477337974"
    },
    {
      "threadId": "618417250",
      "post": "The challenge with the forum is that some users don't search before posting their questions, so we end up with a lot of threads asking questions that were answered 20 times already. Unfortunately, those duplicate threads make it harder to find the threads that have the right answers. We do our best to answer as much as we can, and we offer priority support for paying customers. ",
      "time": "2012-03-22T16:59:06",
      "id": "473750293",
      "parentPost": "OK So why are you guys not solving the problems in the forums, I was contemplating signing up for one of your pay schemes, but as you can solve the problems of a majority of the users, it seems the platform is not stable enough... there are hundreds of people with the same issues.... blog not posting to FB pages. So I suggest someone goes and reads these posts and helps fix the problems, whether it is your fault or facebooks fault, at least give us an answer. Thanks",
      "parentPostTime": "2012-03-21T22:34:40",
      "parentPostId": "472868615"
    },
    {
      "threadId": "612409352",
      "post": "Good point. We can't increase the size of the picture with this layout, but we can probably use a different publishing format. What if we upload the main image of each post to Facebook like a regular picture. It will look just like pictures that you upload to Facebook manually. When your friends click on the picture, it'll open in an overlay inside Facebook and will not direct to your blog. But we can put a link to your blog posts in the picture description, so users who want more details can click and visit the blog. \n\nThat option will make your pictures look bigger and your friends/fans can view them quicker without leaving Facebook. You'll get more visibility, but maybe less visits to your blog. Would that be a good option? Would you be interested in joining a beta group to test it?",
      "time": "2012-03-15T20:41:39",
      "id": "466311935",
      "parentPost": "I would like to see larger pictures when my posts are published. My blog is an art blog so the picture is more important than the writing, but the pictures publish so small that sometimes it's hard for people to see what I've posted. Maybe there could be a toggle option for the picture or the writing to be featured larger than the other?",
      "parentPostTime": "2012-03-15T20:30:33",
      "parentPostId": "466303894"
    },
    {
      "threadId": "591534055",
      "post": "I'm afraid we don't have a way to block that. Think of it this way, though: since the posts on Facebook don't have the full article, and one needs to click and go to your blog to read them, then the person who's sharing your links to their wall is actually promoting you and sending you traffic. We've had many users ask us how to help them encourage others to share their links.",
      "time": "2012-02-29T20:00:51",
      "id": "452614637",
      "parentPost": "Is there any way we can prevent someone from pulling in our feed to their FB page so that al they have on their page are the blogs and work of others?\n\nThank you!",
      "parentPostTime": "2012-02-29T12:09:25",
      "parentPostId": "452235703"
    },
    {
      "threadId": "538114240",
      "post": "The blog management menu is available to the author of the blog, and also to the person who has claimed the blog and waiting to be confirmed as author. It doesn't require any payment.",
      "time": "2012-01-14T01:11:05",
      "id": "410265355",
      "parentPost": "This Blog Management section is only available for those who have paid, right?",
      "parentPostTime": "2012-01-14T00:49:44",
      "parentPostId": "410256094"
    },
    {
      "threadId": "525456499",
      "post": "I can't see the post you linked to. Maybe your privacy settings are not public. Please open a ticket in our help section and include a screenshot, and I'll look into it.",
      "time": "2012-01-09T19:11:57",
      "id": "406454669",
      "parentPost": "Hello, \nAs you can see in https://www.facebook.com/asperezas/posts/277914035597140 the source of the post is missing. \nWhat you tell in the post above, happened to me too.\nBut I need the link/source of the post, of course. More than anything else. \nThank you.",
      "parentPostTime": "2012-01-09T17:20:29",
      "parentPostId": "406377999"
    },
    {
      "threadId": "502526332",
      "post": "It's live already. It should be on the blog profile page.",
      "time": "2011-12-13T19:46:29",
      "id": "385836163",
      "parentPost": "When will it be up and running.  Cant find it.",
      "parentPostTime": "2011-12-13T13:07:34",
      "parentPostId": "385542739"
    },
    {
      "threadId": "448301413",
      "post": "Visit your profile page on NetworkedBlogs and click on \"delete my account\" (bottom left of the screen). ",
      "time": "2011-10-24T05:26:11",
      "id": "342281912",
      "parentPost": "I do not want my personal facebook profile data showing up in google searches because, once, I signed into the Networkedblogs app. I have tried everything to eliminate this data, even blocking the app, but it is all still there in google. I want my profile data OUT of Networkedblogs and OUT of google.",
      "parentPostTime": "2011-10-20T18:45:38",
      "parentPostId": "340069589"
    },
    {
      "threadId": "415983140",
      "post": "We didn't remove the manual pull option! It's still there. The links used to point to the Website version of the blog profile (which don't have the pull option) rather than the Facebook version. We fixed that now.",
      "time": "2011-09-17T20:50:35",
      "id": "313981090",
      "parentPost": "It's absolutely horrible. You've also removed the manuel pull of the feed. I'm NOT getting, why you wanted to change this at all. It was wonderful before. Like said SO often before. If not broken don't fix it!!!! Stop it now! And get the manuel pulling of the feed back!!!",
      "parentPostTime": "2011-09-16T21:34:24",
      "parentPostId": "313462105"
    },
    {
      "threadId": "374658159",
      "post": "The way Facebook groups the posts together is very annoying to us as well. The bad news is that it's something we have no control over. The good news is that it only happens to some users not all (those who get a lot of posts from NetworkedBlogs in their stream). \n\nWe're planning to experiment with a new method of publishing which may or may not work around this (won't know until we try it) and we're looking for beta testers. If you're interested in being in the front lines for a new feature, please open a ticket and give me your blog link here: http://help.networkedblogs.com/",
      "time": "2011-08-03T22:34:22",
      "id": "276437901",
      "parentPost": "I am sorry to put this into comments, but I cannot find anywhere else to communicate with you guys.  I am considering stopping the use of this app because of the way fb lumps blog posts together, \"see 19 more posts from Networked Blogs.\"  My numbers via facebook are down significantly and it's not worth the convenience to loose the readers.  Part of the issue as well is that of the posts \"lumped\" into the update, many can be days old.  I think this discourages readers from expanding the posts.  This may not be your issue, and more fb's issue, but it may make me leave behind a pretty handy app.",
      "parentPostTime": "2011-08-03T14:13:50",
      "parentPostId": "276079951"
    },
    {
      "threadId": "323241167",
      "post": "Thank you, Nick. Can you please explain this statement? Does it mean that apps that handle a lot of long requests don't get scaled?\n\n\"App Engine - at least until the new pricing model comes into effect - will only auto-scale your app if its average wallclock response time is below 1000 ms.\"",
      "time": "2011-06-06T08:01:55",
      "id": "218940737"
    },
    {
      "threadId": "279379773",
      "post": "Waleed from Ninua here. Thanks for the write up and feedback. Yes, we have a lot of work ahead of us. What most people don't realize, though, is that we're constrained by the features that Facebook makes available to us. Specifically around the news feed because only facebook controls what goes there and we're working within the limited options we have. \n\nI totally agree with you regarding the user experience. We made a major leap on that end with our Android app, and we're going to propagate that improvement back to the Facebook application and Web site. ",
      "time": "2011-04-15T07:06:48",
      "id": "184908200"
    },
    {
      "threadId": "273400544",
      "post": "Grant, what phone & android version are you using? It worked on the 20+ phones we tested with!!",
      "time": "2011-04-08T09:02:08",
      "id": "180644684",
      "parentPost": "Cant get pass the facebook login.  Cant even use app. Rated 1 star in android market until fixed ",
      "parentPostTime": "2011-04-08T08:09:31",
      "parentPostId": "180636228"
    },
    {
      "threadId": "219295652",
      "post": "Not related. Please contact us at our support site for assistance. Most of the time when images are missing it's a change on your side in the feed ( http://help.networkedblogs.com )",
      "time": "2011-02-06T20:24:27",
      "id": "141666212",
      "parentPost": "I don't know what you did but now my blog entries are not showing the photo of my latest post?  Only the headed is visible.",
      "parentPostTime": "2011-02-06T19:53:55",
      "parentPostId": "141658450"
    },
    {
      "threadId": "218766157",
      "post": "Mark, sorry for the trouble. Please do post the issue to our help site mentioned in this post because we can track and answer issues there. If you can post a screen shot there, that would greatly help.",
      "time": "2011-02-03T20:47:35",
      "id": "139831436",
      "parentPost": "I am trying to set up my blog account to work w facebood networked blogs feature. When I go to The syndication , it wil not allow me to select my syndication profile. When I try to select it , I get a mesasge \n\"Opps, an error happened. Please try again.code: error, message: \"and connot move forward from there.\nWhat do I do? Thank you.\nMark Edwards\n",
      "parentPostTime": "2011-02-03T19:22:57",
      "parentPostId": "139755046"
    },
    {
      "threadId": "199808122",
      "post": "No, you shouldn't need to change any settings. Please post more details at the forum link in the post and we'll help you out.",
      "time": "2010-12-31T21:27:03",
      "id": "122073366",
      "parentPost": "I just had a post with a video but on my page it shows blank not the thumbnail of the video. Am i supposed to change the setting?",
      "parentPostTime": "2010-12-31T14:44:49",
      "parentPostId": "121793841"
    },
    {
      "threadId": "195480818",
      "post": "No. It will replace this page: \nhttp://apps.facebook.com/blognetworks/syndication.php",
      "time": "2010-12-22T19:39:59",
      "id": "117199237",
      "parentPost": "Is this going to replace this type of page: http://apps.facebook.com/blognetworks/blog/mma_ratings/\n\nAnd if so, where is the option to manually republish?",
      "parentPostTime": "2010-12-22T18:34:20",
      "parentPostId": "117154650"
    },
    {
      "threadId": "156564787",
      "post": "Mira, as I mentioned in the post. Please submit a request on our support forum so we can help. It's too hard to answer technical questions in here because it's not designed for it.",
      "time": "2010-10-17T03:37:31",
      "id": "87522131",
      "parentPost": "There's nothing wrong with my feed: http://sl.rumahinspirasi.com/feed and I've checked the auto-publish checkbox, but still dont feed anything. Ican't even pull any post in Networkedblogs.. .. please help :(\n\nhttp://apps.facebook.com/blognetworks/blog/my_journey_in_secondlife/",
      "parentPostTime": "2010-10-17T01:48:15",
      "parentPostId": "87510354"
    },
    {
      "threadId": "132702997",
      "post": "Thanks Sheila, I do my best to answer questions related to the post. But the comments area here is not suitable to answer other technical questions. Please post the question to our support forum and include your blog url so we can check it. Also, we have a section in the \"help\" menu specifically about feed issues, including images.\n\nhttp://support.networkedblogs.com/",
      "time": "2010-08-29T19:15:03",
      "id": "72997372",
      "parentPost": "Thanks for this blog, it's nice to get an answer to our questions.  :o)\nI have 2 blogs that are both networked and have a fan page.  I set one up a while ago and it's a manual enter for posts.  The other I just recently set up and it's grabbing that blogs feeds.  \n\nFor the life of me I cannot get the second blog to bring pics over into the auto post.  Only text comes over.  What the heck did I do wrong?  ",
      "parentPostTime": "2010-08-29T14:39:04",
      "parentPostId": "72967424"
    },
    {
      "threadId": "134595689",
      "post": "Oh, you're right. Sorry for the wrong information. We're using the standard Facebook publishing dialog so I assumed it should work the same as it does in the status box, but apparently it's not. This is, unfortunately, not something we can fix on our side. Facebook will have to enable that feature on their end.",
      "time": "2010-08-29T06:30:57",
      "id": "72934967",
      "parentPost": "hmm, i tried it earlier today and again now; no luck :( the @tag option doesn't come up--no friends list or anything.",
      "parentPostTime": "2010-08-29T04:48:24",
      "parentPostId": "72919760"
    },
    {
      "threadId": "133723692",
      "post": "Stay, see my reply to Jasbjm above.",
      "time": "2010-08-26T06:18:04",
      "id": "72308413",
      "parentPost": "Same here - how do we proceed?",
      "parentPostTime": "2010-08-26T03:16:15",
      "parentPostId": "72230468"
    },
    {
      "threadId": "71513088",
      "post": "You mention an interesting point about the \"self\" link. Did I understand correctly that you subscribe to the self link rather than the feed URL? For example, blogpost blogs tend to have a self link that is different from the feed link. And, LiveJournal feeds don't even have a self link the last time I checked. How do you handle those cases? ",
      "time": "2010-03-01T23:44:50",
      "id": "37523746"
    },
    {
      "threadId": "64149149",
      "post": "It doesn't have to be one or the other. NetworkedBlogs allows you to push your feed to your fan page. And it does it in a way to links back to your blog so you don't lose traffic.",
      "time": "2010-02-05T02:37:22",
      "id": "32687844"
    },
    {
      "threadId": "27054663",
      "post": "I don't think increasing page views is their goal. In fact, I've noticed many recent changes that reduce pages views dramatically. For example, earlier it was that if you click on the picture of someone who's not a friend, you're directed to their public profile page, but now they just open a popup that has no ads. The same if you click to see the friends of someone, now it's in a popup rather than a new page view. Same when you want to see event attendees. They also changed the wall on groups and events to update in place with AJAX rather than refreshing the page. \r\nI think they have way too many page views, and reducing them only increases the overall CPM.  ",
      "time": "2009-07-27T09:09:19",
      "id": "13378426"
    },
    {
      "threadId": "11882013",
      "post": "I prefer if they don't raise the limit. The current threshold puts a cap on friend-request-spam and makes adding friends less of a competition. It keeps Facebook personal and keeps the social graph real. Another option, which I think makes more sense, is to add a one-way follow option so Scoble can have his 50K followers, while only adding real friends as \"friends\". ",
      "time": "2009-02-16T01:54:18",
      "id": "6288139"
    },
    {
      "threadId": "11292280",
      "post": "The new APIs provide an interesting addition, but unlike tweets, Facebook status messages are subject to user-customizable privacy settings. These settings are a good thing, but at the same time, it means that  messages are not public and that app developers are not allowed to pull them and make them available to non-friends. So one-way following is not possible at this point.  To illustrate what can be done now, I built a simple test page that uses the new APIs. You can see it here:\n\nhttp://networkedblogs.com/test_status.php\n\nAn obvious missing feature is the one-way following, which I couldn't implement due to Facebook's privacy settings.",
      "time": "2009-02-08T10:38:46",
      "id": "6089679"
    }
  ],
  "profileInfo": {
    "username": "wal",
    "about": "CEO, Ninua",
    "name": "Waleed",
    "disable3rdPartyTrackers": false,
    "isPowerContributor": false,
    "isAnonymous": false,
    "rep": 1.261746,
    "profileUrl": "https://disqus.com/by/wal/",
    "url": "http://www.symphonytools.com",
    "reputation": 1.261746,
    "location": "Mountain View, CA",
    "isPrivate": false,
    "signedUrl": "http://disq.us/?url=http%3A%2F%2Fwww.symphonytools.com&key=3aVoR8uZz6Bil5h-EBL_MA",
    "isPrimary": true,
    "joinedAt": "2007-11-27T23:31:33",
    "id": "3077",
    "avatar": {
      "small": {
        "permalink": "https://disqus.com/api/users/avatars/wal.jpg",
        "cache": "//a.disquscdn.com/uploads/users/3077/avatar32.jpg?1267487184"
      },
      "isCustom": true,
      "permalink": "https://disqus.com/api/users/avatars/wal.jpg",
      "cache": "//a.disquscdn.com/uploads/users/3077/avatar92.jpg?1267487184",
      "large": {
        "permalink": "https://disqus.com/api/users/avatars/wal.jpg",
        "cache": "//a.disquscdn.com/uploads/users/3077/avatar92.jpg?1267487184"
      }
    }
  }
}