{
  "comments": [
    {
      "threadId": "29771732",
      "post": "Hahah no problems in helping\n\nHere's the code:\n\np.s highlight the code, then go on your browser (firefox I'm using) edit > copy the code.\n\n<script language=JavaScript>\n<!--\n\n\nvar message=\"Insert message here\";\n\n///////////////////////////////////\nfunction clickIE4(){\nif (event.button==2){\nalert(message);\nreturn false;\n}\n}\n\nfunction clickNS4(e){\nif (document.layers||document.getElementById&&!document.all){\nif (e.which==2||e.which==3){\nalert(message);\nreturn false;\n}\n}\n}\n\nif (document.layers){\ndocument.captureEvents(Event.MOUSEDOWN);\ndocument.onmousedown=clickNS4;\n}\nelse if (document.all&&!document.getElementById){\ndocument.onmousedown=clickIE4;\n}\n\ndocument.oncontextmenu=new Function(\"alert(message);return false\")\n\n// --> \n</script>\n\n",
      "time": "2009-08-16T07:02:13",
      "id": "14900846",
      "parentPost": "Hi. I love your blog and have a question that I'm hoping you'll help me with. I've been trying to figure this out. How do you disable the right-click option? Your help will be greatly appreciated!!!",
      "parentPostTime": "2009-08-15T15:46:39",
      "parentPostId": "14878257"
    },
    {
      "threadId": "29648488",
      "post": "Thank you, I am happy that you like it. :)\r\n",
      "time": "2009-08-16T07:00:45",
      "id": "14900828",
      "parentPost": "esabel\r\nyour taste in iconography and pop wisdom is astonishing\r\nlove this blog\r\ni visit often\r\n\r\nno kidding\r\ngreat\r\n\r\n",
      "parentPostTime": "2009-08-15T17:22:58",
      "parentPostId": "14881983"
    },
    {
      "threadId": "27505716",
      "post": "I haven't been around tumblr much for the past month, I was on a vacation, so sorry for the late reply. I would love to help you, it really would boost my non existence skills ;P lol anyway you can email me at bitchville@hotmail.com and ask me there if you want. As for my theme, I really just 'pimped' the default one, which was plain as lol, added a background image and the icons used to redirect people to my other sites I am at is from online, which I am happy to link you the sites",
      "time": "2009-07-31T07:27:06",
      "id": "13734300",
      "parentPost": "i didnt have any other way to get to you\r\ni just thought id say\r\ni love your blog lay out\r\nits supper\r\nand your blog is rather entertaining\r\n\r\ncheck mine out\r\nscarsandsexstories.tumblr.com\r\n\r\nbut anyways question for you\r\n\r\nhow did you make your page like that on tumblr\r\nim kinda restarted when it comes to shit like that\r\n\r\nmind if you kinda help me?\r\n\r\ni understand if you dont want to.\r\ni mean...this is a random message\r\n\r\n-Shyun Atown",
      "parentPostTime": "2009-07-30T22:12:14",
      "parentPostId": "13695077"
    },
    {
      "threadId": "23343302",
      "post": "We live in different time zones ;D lol",
      "time": "2009-06-28T09:47:51",
      "id": "11848921",
      "parentPost": "just when i start to tryyy and go to bed you start posting :) ha ha.\r\n\r\nthank you.",
      "parentPostTime": "2009-06-28T09:01:52",
      "parentPostId": "11848679"
    },
    {
      "threadId": "22693647",
      "post": "Aww thank you, p.s i was drunk when i wrote that ;) lol",
      "time": "2009-06-27T05:40:44",
      "id": "11821423",
      "parentPost": "You speak the truth ! Beautifully said Bitchville.\r\n\r\n:)",
      "parentPostTime": "2009-06-26T20:24:59",
      "parentPostId": "11799426"
    },
    {
      "threadId": "23083199",
      "post": "Hey that's me, I feel special again for once in a while, lol ;D",
      "time": "2009-06-26T06:54:52",
      "id": "11766071"
    },
    {
      "threadId": "22596647",
      "post": "of course.. the only song with the lines..\r\n\r\nGo, go, go, go\r\nGo, go, go shawty\r\nIt's your birthday\r\nWe gon' party like it's yo birthday\r\nWe gon' sip Bacardi like it's your birthday\r\nAnd you know we don't give a fuck\r\nIt's not your birthday! \r\n\r\nthat made me laugh ;D",
      "time": "2009-06-22T15:58:13",
      "id": "11560537",
      "parentPost": "bahahahahaa!  you just HAD to, didn't you?",
      "parentPostTime": "2009-06-22T15:15:56",
      "parentPostId": "11559307"
    },
    {
      "threadId": "22220003",
      "post": "if you're going to lecture me on spelling and grammar online you should find some other bitch to play with online, now fuck off loser.",
      "time": "2009-06-20T07:27:19",
      "id": "11495463",
      "parentPost": "\"Not as worse...\" Nice grammar, bitch...ville.",
      "parentPostTime": "2009-06-20T03:26:59",
      "parentPostId": "11492271"
    },
    {
      "threadId": "19197597",
      "post": "Have you been to a place where its similar to this but while you're waiting for your order or while you're eating the desserts, you get to play board games of your choice? that place is cool, its at the city as well, forgot the name but I'm sure you would know too! lol",
      "time": "2009-06-14T06:22:36",
      "id": "10879682",
      "parentPost": "Indeed it was! We came across it whilst walking about. It was pretty intense! It is expensive, but the \"dessert for one\" could definitely feed 4 people. We'll have to ask others to join us next time we return for some sweet-tooth-satisfaction. Thanks for following :) ",
      "parentPostTime": "2009-05-26T01:23:27",
      "parentPostId": "9940270"
    },
    {
      "threadId": "21373182",
      "post": "I can help you! but you have to tell me what you want with your theme and etc... \r\n\r\nor try these as wells\r\n\r\nhttp://customthemes.tumblr.com/\r\n\r\nhttp://tumblrthemes.com/",
      "time": "2009-06-14T06:21:08",
      "id": "10879669",
      "parentPost": "Damn you got a cool ass page! Wanna help me out with mine?",
      "parentPostTime": "2009-06-12T11:47:14",
      "parentPostId": "10792682"
    },
    {
      "threadId": "21502900",
      "post": "Well without sweat means dry and with sweat can mean B.O .. maybe after shower body? LMAO ;D\r\n",
      "time": "2009-06-14T06:20:59",
      "id": "10879666",
      "parentPost": "You dirty girl...\r\nWant a body with or without sweat? lol\r\nHave a great week-end.. xo",
      "parentPostTime": "2009-06-13T14:36:58",
      "parentPostId": "10838398"
    },
    {
      "threadId": "17010715",
      "post": "Wait, I thought I did? ;D",
      "time": "2009-05-04T06:26:54",
      "id": "8972043",
      "parentPost": "I haven't even proposed yet!",
      "parentPostTime": "2009-05-03T07:50:26",
      "parentPostId": "8949282"
    },
    {
      "threadId": "16391670",
      "post": "Yeah I am pretty excited with a brand new laptop and laptop skin ^_^",
      "time": "2009-04-22T15:11:54",
      "id": "8571441",
      "parentPost": "is it just me or don't you look cute here? i'm not trying to hit on you or anything, but look how round your eyes are!\r\n\r\nit's like a kid who was given a wii for christmas haha.",
      "parentPostTime": "2009-04-22T12:39:39",
      "parentPostId": "8567355"
    },
    {
      "threadId": "16358181",
      "post": "I dont get it? are you the photo creator?",
      "time": "2009-04-22T15:10:49",
      "id": "8571404",
      "parentPost": "hi someone liked my photo.. and it was actually your photo but i do not know how to link it so you get the like\r\n\r\nso i thought i'd tell you, keep you informed you know.. would be terrible me taking all the credit but the photo is genius by the way!",
      "parentPostTime": "2009-04-22T03:08:37",
      "parentPostId": "8560241"
    },
    {
      "threadId": "16163406",
      "post": "lmaoo see ;D",
      "time": "2009-04-20T05:18:54",
      "id": "8364535",
      "parentPost": "it works on any page i just did on here and shit started floating",
      "parentPostTime": "2009-04-20T03:17:35",
      "parentPostId": "8362773"
    },
    {
      "threadId": "15906026",
      "post": "Aww thanks, i think i usually get more of \"I'm glad I'm never going to be like you\" thrown at me throughout my life LOL.\r\n\r\nHmm you want to pimp your theme, well I actually used a already made theme and pimped it a bit to suit my taste but then again I have a habit of changing styles lol \r\n\r\nBut anyway if you want any help, email me other than that here's some tumblr theme sites that you should check, hopefully there's a theme you'll like, if you need to customise it, email me :)\r\n\r\nhttp://tumblrthemes.com/\r\nhttp://customthemes.tumblr.com/",
      "time": "2009-04-17T14:30:44",
      "id": "8294704",
      "parentPost": "Bitchville, when I grow up I wanna be just like you =). But no seriously, your page is the shit, I want a kick ass header for mine, but my designs either a: suck or b: damn html wont work, can you help a girl out? ",
      "parentPostTime": "2009-04-16T14:30:28",
      "parentPostId": "8260598"
    },
    {
      "threadId": "15724995",
      "post": "Thank you :)",
      "time": "2009-04-15T02:17:34",
      "id": "8217164",
      "parentPost": "The rangefinder-function in the D60s aperture/shutter-modes is awesome. Easy getting good focus on older cheaper lenses without autofocus.\r\n\r\nSounds like you'll have an excellent birthday.",
      "parentPostTime": "2009-04-14T13:01:15",
      "parentPostId": "8191274"
    },
    {
      "threadId": "12077281",
      "post": "Aww thank you.\r\nI hate my accent, it's so generic here... maybe because I have a Australian accent, I should foreign myself somewhere around the world and come back with a different accent ;D",
      "time": "2009-04-14T09:51:11",
      "id": "8179624",
      "parentPost": "Im in love with ur accent :D \r\nWoah hope that didnt sound kinda \r\nweirdish stalkerish . Lol yeah but you\r\nshould definitely post more of ur voice [: ",
      "parentPostTime": "2009-04-02T02:23:03",
      "parentPostId": "7733247"
    },
    {
      "threadId": "15726773",
      "post": "Is it $500 in US dollars? If so it would be around $800 in Australian dollars lol",
      "time": "2009-04-14T08:50:51",
      "id": "8179177"
    },
    {
      "threadId": "15543387",
      "post": "I'll turn on the fountain if its switched off ;D",
      "time": "2009-04-12T08:24:02",
      "id": "8093125",
      "parentPost": "you couls swing by merlion park - tho the pretty fountain will be off :( walk around the raffles hotel - hmmm, not really sure whatelse at that time of night, sorry. \r\nbut i bet you will have SO much fun in thailand. i LOVE thailand!! where are you going?",
      "parentPostTime": "2009-04-11T20:38:11",
      "parentPostId": "8083783"
    },
    {
      "threadId": "15543430",
      "post": "do you think 8 hours i could find any? hell no ;D",
      "time": "2009-04-11T08:49:26",
      "id": "8075501"
    },
    {
      "threadId": "15495240",
      "post": "Oh yeah I should of said part 4 lol lazy me ;D",
      "time": "2009-04-10T15:00:18",
      "id": "8054696"
    },
    {
      "threadId": "15483632",
      "post": "whoa what the hell? LMAO",
      "time": "2009-04-10T10:39:29",
      "id": "8050908"
    },
    {
      "threadId": "14909322",
      "post": "yay !",
      "time": "2009-04-02T08:35:51",
      "id": "7738002"
    },
    {
      "threadId": "14835807",
      "post": "nah not edited, just cropped, the place where i was which was a bar/bowling/laser shooting had all their room out with blue lights and i took it out looking at the harbour :)\r\n& thanks for the compliment ;D",
      "time": "2009-04-01T07:02:53",
      "id": "7708687"
    },
    {
      "threadId": "14507746",
      "post": "How do I configure to wireless or search for wireless on my laptop? ",
      "time": "2009-03-27T10:37:39",
      "id": "7554214",
      "parentPost": "All you need to do is look for an open (not password protected) wireless connection that is close enough to you. ",
      "parentPostTime": "2009-03-27T10:12:40",
      "parentPostId": "7554053"
    },
    {
      "threadId": "14098994",
      "post": "Oh thank you for the 3 kisses from Europe :P\r\nYeah you know what, we learn from my mistakes, I have learned from it too..\r\n\r\nFuck no way that how much it's going to cost you to get your laptop fixed? How come its broken? And omg you could buy a non-apple laptop (2 to be exact) with similar processor and all that.. why the Mac? whyy?? lol",
      "time": "2009-03-22T09:00:02",
      "id": "7411654",
      "parentPost": "ok you get 3 kisses since I am living in Europe..lol\r\nJust want to give my support to let you know that you are not alone and that not everyone will be out to hurt you ( i swear).. I know that is easier said than done.. Stupid life has to teach us lessons but in the end it will be ok, that is a promise...\r\n\r\nStay sweet, as I know that you are *wink* wishing you a wonderful week-end.. xo\r\n\r\np.s if it makes you feel better my laptop is also broke and I am fighting with Apple as we speak.. If they don't give me what I want I will have to spend 2800,00 euros on a new laptop .. I am not impressed.. They want 1400,00 for a repair when it is only 14 mnths old.. It is really brand new, as I never took it anywhere.. grr oh well, I hope that made you feel better to know that I am sort of stuck like you.. heheh xo",
      "parentPostTime": "2009-03-21T05:14:12",
      "parentPostId": "7390779"
    },
    {
      "threadId": "14034080",
      "post": "Not just that, I'll also have to file a police report over this. Nobody fucks with my money like that.",
      "time": "2009-03-20T03:21:58",
      "id": "7365235",
      "parentPost": "oh no. i think you should tell your parents about it. ",
      "parentPostTime": "2009-03-20T03:17:25",
      "parentPostId": "7365147"
    },
    {
      "threadId": "13909868",
      "post": "Leon/The Professional.\r\nThey banned it here, well not technically but more with not distributing the sale of the movie, which sucks. I just downloaded it off from torrent, easier... lol.",
      "time": "2009-03-19T07:48:26",
      "id": "7337182",
      "parentPost": "I absolutely loved this movie. \r\nI want to buy it but I can't remember the name. \r\nThe...something. The Professional?",
      "parentPostTime": "2009-03-18T13:08:06",
      "parentPostId": "7313241"
    },
    {
      "threadId": "13833528",
      "post": "Nah you're not a snob, no way, your house should be your privacy, yeah I'm like that.. I have a selected few, actually probably 1-3 now, I could never tell them where I live or invite them, because after that... more often I get unexpected visits lol it happened in the past with past friends and i did not like it one bit. Hey its normal to crash into their house, lol have all the fun at their house instead",
      "time": "2009-03-17T13:08:24",
      "id": "7284432",
      "parentPost": "haha, I am like this too, I don't  like having friends over but I like hanging out at their house. They find it weird, but only a select group of people can come to my house, I don't want any suprise visit, I made it clear that I have an invitation only policy. Not that I am a snob but my home is my sanctuary.",
      "parentPostTime": "2009-03-17T10:44:45",
      "parentPostId": "7283003"
    },
    {
      "threadId": "13837522",
      "post": "Lmao run to grab the bra... omg that's exactly like my situation I had with friends, they say they're coming but you would find out that they're 'on their way' coming. The best thing to do is when they call you or come over to your place, make it as if you're not home or out far away, lol that will teach them heheh ;) You can do what you want and have no one disturbing you.",
      "time": "2009-03-17T12:17:27",
      "id": "7283816"
    },
    {
      "threadId": "13762365",
      "post": "I need to stalk your flickr for saying that, because its truly amazing",
      "time": "2009-03-17T00:47:54",
      "id": "7272890",
      "parentPost": "Haha! This is exactly what I did for my new set on Flickr. I just laid on the cement ground. So funny.\r\n\r\nGreat photo.",
      "parentPostTime": "2009-03-16T05:50:50",
      "parentPostId": "7249518"
    },
    {
      "threadId": "13613305",
      "post": "I agree with you on everything but noooo don't take your blog down :( never ever - there's no humour on my dashboard if you're not on it.",
      "time": "2009-03-16T02:43:54",
      "id": "7247361"
    },
    {
      "threadId": "13593008",
      "post": "aww thanks, and it's only posted once a week :D lol",
      "time": "2009-03-13T12:53:23",
      "id": "7166353",
      "parentPost": "Esabel...I swear you take the dopest pics of all-time! =)",
      "parentPostTime": "2009-03-13T12:29:14",
      "parentPostId": "7166020"
    },
    {
      "threadId": "13450579",
      "post": "lol i am that too, but people think i need help :P",
      "time": "2009-03-12T04:42:17",
      "id": "7126440",
      "parentPost": "Who cares about being crazy online, be crazy in life ^^",
      "parentPostTime": "2009-03-11T12:59:27",
      "parentPostId": "7098174"
    },
    {
      "threadId": "13302697",
      "post": "thank you for the compliment Peety :D",
      "time": "2009-03-10T05:32:35",
      "id": "7053717",
      "parentPost": "Sick banner... Mad <3 and props for the graphics..  +)",
      "parentPostTime": "2009-03-09T09:44:00",
      "parentPostId": "7010469"
    },
    {
      "threadId": "13303756",
      "post": "I take a photo for smile friday and then use it for Myspace... \r\nmy Myspace :D http://www.myspace.com/417110067 ",
      "time": "2009-03-09T09:43:31",
      "id": "7010464"
    },
    {
      "threadId": "13303077",
      "post": "Thank you appreciate the compliment :)",
      "time": "2009-03-09T09:29:05",
      "id": "7010380",
      "parentPost": "I love your new banner as well! and your overall tumblr theme :-)\r\n\r\nFlavia",
      "parentPostTime": "2009-03-09T09:21:28",
      "parentPostId": "7010343"
    },
    {
      "threadId": "13244666",
      "post": "Aww thank you <3\r\nBut I have to admit, I look more sane than now ^_^",
      "time": "2009-03-09T00:06:29",
      "id": "7001489",
      "parentPost": "You were so adorable and still are.. Beautiful smile.. Look like you had not one single care in the world =) ",
      "parentPostTime": "2009-03-08T15:02:43",
      "parentPostId": "6993069"
    },
    {
      "threadId": "13282725",
      "post": "Oh that's true hehehe or wikipedia ^_^",
      "time": "2009-03-09T00:05:57",
      "id": "7001486",
      "parentPost": "No, actually, there's a couple encyclopedia's filed away on it.",
      "parentPostTime": "2009-03-08T23:43:57",
      "parentPostId": "7001201"
    },
    {
      "threadId": "13217990",
      "post": "There I go :D",
      "time": "2009-03-08T09:37:31",
      "id": "6989037",
      "parentPost": "AGH! THE BEST!",
      "parentPostTime": "2009-03-07T19:03:58",
      "parentPostId": "6980472"
    },
    {
      "threadId": "13241996",
      "post": "I'm Australian, I spell it differently lol. (as to humor and humour) ",
      "time": "2009-03-08T09:37:09",
      "id": "6989036",
      "parentPost": "your spelling of the word 'humour' and this song, i love. thanks for sharing.",
      "parentPostTime": "2009-03-08T04:59:26",
      "parentPostId": "6987205"
    },
    {
      "threadId": "13075350",
      "post": "What? are you offended by this? I just post what I want, if you're religious person, you should let it all loose. ",
      "time": "2009-03-06T06:51:49",
      "id": "6938454",
      "parentPost": "what do u mean by this. Its like taking God to be some kind of a watch dog",
      "parentPostTime": "2009-03-05T20:06:58",
      "parentPostId": "6920569"
    },
    {
      "threadId": "12874592",
      "post": "Yeah I had tried it before, and my stomach turned for some reason, maybe because it came out of the can (my digestive system is pretty much silly at times)",
      "time": "2009-03-03T08:40:59",
      "id": "6834388",
      "parentPost": "Have you ever eaten this?? After so many  years of hatred towards this type of food by people it  makes me curious for a lick",
      "parentPostTime": "2009-03-02T14:00:38",
      "parentPostId": "6782193"
    },
    {
      "threadId": "12927045",
      "post": "I hope you had fun when you saw then ^_^",
      "time": "2009-03-03T08:39:40",
      "id": "6834377",
      "parentPost": "oooh have fun! i saw them last may when they toured with kanye, rihanna, and lupe fiasco on the glow in the dark tour. so fun!",
      "parentPostTime": "2009-03-03T03:43:23",
      "parentPostId": "6813159"
    },
    {
      "threadId": "12876197",
      "post": "Hahahahah told you so!! Man I can smell Vegemite a million miles away, its that awful, I'm sorry you have to go through that experience in Australia, lol",
      "time": "2009-03-02T13:59:41",
      "id": "6782176"
    },
    {
      "threadId": "12815461",
      "post": "People like seeing me drunk on Tumblr ^_^ thanks btw :)",
      "time": "2009-03-01T12:25:06",
      "id": "6741707",
      "parentPost": "holy fuck, you have 1,000 followers?? crazy. congrats? yes. keep it up.",
      "parentPostTime": "2009-03-01T07:14:34",
      "parentPostId": "6739932"
    },
    {
      "threadId": "12757660",
      "post": "Praise!! ",
      "time": "2009-02-28T05:55:02",
      "id": "6719611"
    },
    {
      "threadId": "12319367",
      "post": "<3 braces rules",
      "time": "2009-02-27T15:55:31",
      "id": "6701969"
    },
    {
      "threadId": "12708304",
      "post": "Would it work on a Xbox?",
      "time": "2009-02-27T15:37:05",
      "id": "6701520"
    },
    {
      "threadId": "12375347",
      "post": "make it GROWW!!!!! (as in not shaved... for a while.. then shave) :)",
      "time": "2009-02-23T13:57:52",
      "id": "6496546"
    },
    {
      "threadId": "12376100",
      "post": "Lol, it happens.. but I actually know who unfollows me, I use greasemonkey (firefox addon) and install Reciprocatr (which tells who unfollows you and who is following you but you're not following them). \r\nYou can get the script here http://userscripts.org/scripts/show/38543\r\n\r\n\r\nEnjoy this script (evil laughs) ^_^\r\n",
      "time": "2009-02-23T09:34:17",
      "id": "6494278"
    },
    {
      "threadId": "12375975",
      "post": "That sucks, but at the same time if I was in your situation, I would quit as well... actually I would just run off, that's what I once did to one of  my jobs before (which was on a contract) and I had to give a 2 week notice but I didn't i look at my work hours and pay rate and I was like oh fuck i just signed this?... lol,\r\n\r\nAnyway at the same time, you're right, you have morals, if you don't feel its right, you have every right to be against it. I'm sure you will find a better job soon, good luck :)",
      "time": "2009-02-23T09:31:23",
      "id": "6494266"
    },
    {
      "threadId": "12371016",
      "post": "thank you for the compliment :)",
      "time": "2009-02-23T09:27:35",
      "id": "6494244",
      "parentPost": "This is AMAZING!",
      "parentPostTime": "2009-02-23T06:44:34",
      "parentPostId": "6492974"
    },
    {
      "threadId": "10215581",
      "post": "shhh i am like that too ^_^",
      "time": "2009-02-22T19:02:34",
      "id": "6483374",
      "parentPost": "Ah, well, I think it's cool.\r\nI feel bad, I didn't respond to this comment you made a month ago.\r\nI have a bad habit of checking my\r\nemail. \r\n\r\nLOL.",
      "parentPostTime": "2009-02-22T00:27:48",
      "parentPostId": "6473005"
    },
    {
      "threadId": "12323977",
      "post": "what has that got to do with me? I just posted a quote by a poet. ",
      "time": "2009-02-22T19:01:35",
      "id": "6483359",
      "parentPost": "i'd rather be silent than talkative.",
      "parentPostTime": "2009-02-22T09:49:26",
      "parentPostId": "6478111"
    },
    {
      "threadId": "12309729",
      "post": "thank you :D",
      "time": "2009-02-22T03:08:12",
      "id": "6474651",
      "parentPost": "I like it. \r\nIt has a not sepia but \"agfa\" tone to it.\r\nReally, pretty this is. ",
      "parentPostTime": "2009-02-22T02:16:50",
      "parentPostId": "6474139"
    },
    {
      "threadId": "12308867",
      "post": "yes you can, and fly too :D",
      "time": "2009-02-22T02:58:50",
      "id": "6474562",
      "parentPost": "Can I ride a bike or motorcycle?\r\n:P",
      "parentPostTime": "2009-02-22T01:47:29",
      "parentPostId": "6473845"
    },
    {
      "threadId": "12284661",
      "post": "You sooo do have spice girls, admit it!! I don't believe you, you need more people!! :D lol",
      "time": "2009-02-21T15:55:49",
      "id": "6466453"
    },
    {
      "threadId": "12216127",
      "post": "but I am nerdy!! lol..most would just opt for a already built pc or a brand name.. *cough* mac lol\r\n\r\ndw my old one (which i am using now while I'm still fixing my pc) is dusty as hell ^_^",
      "time": "2009-02-20T15:48:26",
      "id": "6431841",
      "parentPost": "Haha, finally, a not nerdy girl who can just build a computer! I can't understand why someone would NOT be able to do that.\r\n\r\nYou have a wire and there's only one place it fits! Duh!\r\n\r\nNice colours :)\r\nMine is all dusty now. And there's lots of junk in it, hard drives everywhere and WIRES... ",
      "parentPostTime": "2009-02-20T15:14:07",
      "parentPostId": "6431029"
    },
    {
      "threadId": "12142018",
      "post": "I would too but i dont like getting emails from artists off from deviantart.com or flickr or some persons own site telling me that i had permission to post but why are there people reblogging and removing the name lol...",
      "time": "2009-02-20T14:02:00",
      "id": "6429715",
      "parentPost": "Why make such a big deal out of it? I'm just sayin'... Haha.\r\nJust, screw those who erase the credit. Whatever.",
      "parentPostTime": "2009-02-19T12:13:04",
      "parentPostId": "6399570"
    },
    {
      "threadId": "12083881",
      "post": "oh why thank you :D oh and i usually say 'ahs' or 'ass' but mostly ass lol",
      "time": "2009-02-19T08:57:09",
      "id": "6398069",
      "parentPost": "i like how you said \"ass\" instead of \"ahs\". haha. haven't heard an aussie accent (from a real person, not movies/tv) in a while. :) ",
      "parentPostTime": "2009-02-18T21:18:38",
      "parentPostId": "6382948"
    },
    {
      "threadId": "12077500",
      "post": "I have no idea lol, its a US number, i'm outside the US so yeah international call rate would cost.. i use prepaid so yeah i'm cheap :D",
      "time": "2009-02-18T12:44:14",
      "id": "6372071",
      "parentPost": "stupid question, but does it cost anything?\r\ni might need to reload my cell! :S haha.",
      "parentPostTime": "2009-02-18T12:11:15",
      "parentPostId": "6371608"
    },
    {
      "threadId": "12057371",
      "post": "You will get through with this, I'm with Licky and LiveSophia.. stay strong.",
      "time": "2009-02-18T11:21:32",
      "id": "6371135"
    },
    {
      "threadId": "11985217",
      "post": "lol don't be sorry, we all have our bad experiences!! and you don't need to apologise for the rant as well, I wrote a similar toilet rant before as well, but it was more to do with the noise in public restrooms lol, and yes the infection, had to do blood test, take medication and etc it was soo painful at first i thought it was my appendix :'( but i have learned my lesson, don't sit on the seat in public toilets when i pee!! lol",
      "time": "2009-02-18T10:47:55",
      "id": "6370837",
      "parentPost": "SERIOUSLY! It's horrifying having to use the public restroom!\r\n\r\nOh, my god. No bloody way! That's horrible! I'm sorry, love.\r\nSee, people of Tumblr!? NEVER USE THE PUBLIC RESTROOM!",
      "parentPostTime": "2009-02-17T07:17:08",
      "parentPostId": "6325341"
    },
    {
      "threadId": "12064943",
      "post": "you want to join this force with me? its gonna be bigger than starwars lmao!!",
      "time": "2009-02-18T09:55:52",
      "id": "6370399",
      "parentPost": "I love this war you're having with the dark side of Tumblr! We should give you some kind of title... \"Bitchville - anti-cunt enforcer\"?",
      "parentPostTime": "2009-02-18T06:20:13",
      "parentPostId": "6368686"
    },
    {
      "threadId": "11930906",
      "post": " Wow, you've spent your time arguing something that I didn't even made my point on, and tell me where does it say I like having people come up to me in the street and thank me for posting online? If you're gonna make up some silly argument you should backup your point than assume gibberish, especially from a immature one like you.\n\nYou should go through tumblr policy and reading copyright infringement then you get my point and think twice before you say something, it's nothing to do with me, it's unfair for people's work being posted without credit, fucking hell I'm sticking it up for those who are artists, not myself - think for a second fuck sakes you're just plain being silly.\n\nOh and please read the reason why I wrote that:\nhttp://bitchville.tumblr.com/post/78993381/in-regards-to-this-the-reason-why-i-wrote-that\n\nAnd no, Tumblr doesn't revolve my life as well, wtf are you on about? This hasn't to do with me, it has to do with people stealing artwork from other sites and posting on Tumblr, fuck at least give credit to the artwork you're taking from? huh.\n\nDo me a favour and read this: http://www.rider.edu/~suler/psycyber/disinhibit.html This applies to you, because once I log out, 'wankers' like you don't exist in my real life, tell me how am I taking kids like you seriously? I can say whatever I want and it doesn't affect me in real life, but I'm not sure why you're complaining about that on me and assume everything lmao and putting this what i wrote in 'about me' with your argument, a baseless one too, either you don't get the point of what i wrote or you're just starting something you can't finish, You're just assuming me of what I do 'online' remember a online persona is not necessary a 'real one', you're just arguing nonsense from what I had posted without getting the point, do you need a tissue?",
      "time": "2009-02-18T09:19:44",
      "id": "6370142",
      "parentPost": "Why do people care seriously? I don’t get it, I generally just put that last person I got it off or the original source. Why do people want all this credit for finding quotes and pictures and stuff. If you took the picture then fair enough but you want credit for finding it why? Why does it matter? Does your life revolve around Tumblr? Is someone going to come upto you in the street and go “Oh hey! You found that picture and put it on tumblr! Go you! Keep up the good work!” (I highly doubt it). Why do you need credit? I’m sorry but if someone doesn’t put brackets via and my tumblr link when they get a picture of quote etc from my site I actually couldn’t care less. It has absolutely no impact on my life what so ever. Get over it and don’t call people cunts because they don’t put a big long stream of names below their picture. It isn’t a nice word and it just makes me think that you’re wanker for calling someone who’s done something so very minor to you a cunt. It isn’t pathetic either. Justify in what possible way it could be constituted as pathetic? I'd love to hear your reason and if you want to slag me off or have it out with me or whatever I really don't care. Whatever you think of me won't make me lose sleep. All that stuff you've put about 'crazy mind' and 'offending people' whatever it cuts no ice with me, if you were really so 'hard ass' you wouldn't have to say it everywhere. So there you go my e-mail tumblr and everythinbg and feel free to call me a cunt all you like :)",
      "parentPostTime": "2009-02-17T15:45:13",
      "parentPostId": "6331238"
    },
    {
      "threadId": "11902249",
      "post": "lol I am using google analytics ^_^",
      "time": "2009-02-17T04:33:08",
      "id": "6322927",
      "parentPost": "Dude, Google.\r\nhttp://www.tumblrstats.com",
      "parentPostTime": "2009-02-16T09:40:17",
      "parentPostId": "6300729"
    },
    {
      "threadId": "11862385",
      "post": "Care to learn what sarcasm is?",
      "time": "2009-02-16T03:04:09",
      "id": "6292574",
      "parentPost": "Care to argue and tell me how Flickr or Delicious became like Yahoo! Answers?",
      "parentPostTime": "2009-02-15T13:44:17",
      "parentPostId": "6273965"
    },
    {
      "threadId": "11863696",
      "post": "Really? I find it crazy, I'm glad you like reading some of my crazyness i write here ^_^",
      "time": "2009-02-15T16:24:39",
      "id": "6275896",
      "parentPost": "Just to let you know. I laughed very very hard at this.",
      "parentPostTime": "2009-02-15T14:28:42",
      "parentPostId": "6274300"
    },
    {
      "threadId": "11577662",
      "post": "Oh I didnt know you was a animal? lol.\r\nNo.. I do have AIM and MSN... but i cant go on because my PC's power supply keeps freezing my computer once every hour :(",
      "time": "2009-02-15T11:41:28",
      "id": "6273207",
      "parentPost": "You wouldn't eat from any animals mouth? Hmmm I am an animal, you said you liked my lips. lol\r\n\r\nHmm so no AIM.... msn perhaps? let's have some cyberrrrrrrshiznit\r\nlol\r\n",
      "parentPostTime": "2009-02-13T10:21:17",
      "parentPostId": "6235302"
    },
    {
      "threadId": "11854075",
      "post": "lol same to me as well",
      "time": "2009-02-15T11:39:18",
      "id": "6273197",
      "parentPost": "i think mine jumped off a cliff or something.",
      "parentPostTime": "2009-02-15T08:22:22",
      "parentPostId": "6272206"
    },
    {
      "threadId": "11723469",
      "post": "hahaahahha yeah true that, i honestly have never seen or saw her in pants! shocking! :O",
      "time": "2009-02-15T11:39:03",
      "id": "6273193",
      "parentPost": "Yeah, prancing around in her panty like a tranny gaga.",
      "parentPostTime": "2009-02-14T08:27:03",
      "parentPostId": "6256668"
    },
    {
      "threadId": "11656289",
      "post": "Hahahaha I know huh? they have everything covered, my eyes, mouth, my hair back, a net to cover my hair, so no dirt would fly past me lol",
      "time": "2009-02-12T09:44:33",
      "id": "6203004",
      "parentPost": "I could swear it's a GUY on that quad....",
      "parentPostTime": "2009-02-12T09:19:20",
      "parentPostId": "6202840"
    },
    {
      "threadId": "11486279",
      "post": "Thank you so much Peety, I'm not sure when I will get one, but soon I'll keep you updated :) and email you when I'm close to getting ready to buy one :D",
      "time": "2009-02-11T07:42:45",
      "id": "6171971",
      "parentPost": "Esabel, when you are ready for a new PC , please let me know.. Quad core is the better way to go. Since the new OS systems are such graphic intense and you want it as a media pc. If you have any questions please email me through my site: http://g33klite.com/index.php/authors/12-authors/1-peety and I shall return your email asap. (i don't give out my email on websites because of spam spiders) lol Have a great day and know you have HELP if and when you need it!\r\n\r\nPeety xxx",
      "parentPostTime": "2009-02-10T07:15:27",
      "parentPostId": "6133588"
    },
    {
      "threadId": "11557691",
      "post": "Just the helmet would be fine, or the sword. :D",
      "time": "2009-02-11T07:36:35",
      "id": "6171909",
      "parentPost": "dude, you know that if one of you is wearing metal armour that might not be a comfortable night for either of you... lol ",
      "parentPostTime": "2009-02-11T04:49:57",
      "parentPostId": "6169196"
    },
    {
      "threadId": "11556905",
      "post": "You're crazy!!!!!!!!! OMG whatever you're posting cancer related horoscope I can relate so badly, I am a cancer too.. its like you're ripping a part of my real life personality hahah.",
      "time": "2009-02-11T04:35:36",
      "id": "6168952"
    },
    {
      "threadId": "11488246",
      "post": "my lips, my eyebrows and my yellow skin colour :D",
      "time": "2009-02-10T08:28:48",
      "id": "6134130"
    },
    {
      "threadId": "11419677",
      "post": "I googled it and she had from what looks to be a herpes cold sore or whatever you call it;\r\nhttp://allieiswired.com/archives/2009/01/rihanna-herpes-flair-up/",
      "time": "2009-02-09T12:51:48",
      "id": "6112245"
    },
    {
      "threadId": "11315263",
      "post": "oh hey you've got nice lips :)",
      "time": "2009-02-09T11:56:41",
      "id": "6111773"
    },
    {
      "threadId": "11422415",
      "post": "Good luck dude :D",
      "time": "2009-02-09T11:24:09",
      "id": "6111514"
    },
    {
      "threadId": "11413900",
      "post": "I agree, i honestly have never seen a musician that sung horribly as her, I'm not a hater just a critic lol.",
      "time": "2009-02-09T09:42:45",
      "id": "6110834",
      "parentPost": "her range is pathetic. she can barely hit the notes in the bridge!!!",
      "parentPostTime": "2009-02-09T04:33:25",
      "parentPostId": "6106668"
    },
    {
      "threadId": "11413418",
      "post": "You know well the one on the left is better lol",
      "time": "2009-02-09T09:42:01",
      "id": "6110804",
      "parentPost": "I was just thinking about this.",
      "parentPostTime": "2009-02-09T04:24:13",
      "parentPostId": "6106496"
    },
    {
      "threadId": "11358065",
      "post": "aww thanks.\r\n\r\nHmm a site dedicated to rubber duckies.. i'll bookmark that :) maybe i should sniff around for rubber duckies, if they do have them here lol :)",
      "time": "2009-02-09T09:40:47",
      "id": "6110803",
      "parentPost": "Feel better Esabel!",
      "parentPostTime": "2009-02-08T13:10:15",
      "parentPostId": "6091570"
    },
    {
      "threadId": "11368731",
      "post": "Lol, i know we don't need drugs for dreams, lol. Oh thanks for the compliment too, you're funky too ^_^",
      "time": "2009-02-09T09:37:26",
      "id": "6110779",
      "parentPost": "Dude, I have the coolest dreams - who needs drugs?\r\n\r\nBitchville - you're a funky ass kid, no doubt about that!",
      "parentPostTime": "2009-02-08T12:27:03",
      "parentPostId": "6091197"
    },
    {
      "threadId": "11358201",
      "post": "is that how you picture me saying it? LOL i should record it lol hahah",
      "time": "2009-02-09T09:36:54",
      "id": "6110772",
      "parentPost": "i can't imagine you saying this in an Australian accent. random i know.",
      "parentPostTime": "2009-02-08T08:38:16",
      "parentPostId": "6089070"
    },
    {
      "threadId": "11374624",
      "post": "LOL I should before thats why today  i have problems staying up :/",
      "time": "2009-02-09T09:36:09",
      "id": "6110767",
      "parentPost": "Aren't you supposed to be in bed? Kehehehe..\r\nHm I should stop commenting that much!\r\nMore bitchin'!",
      "parentPostTime": "2009-02-08T14:51:44",
      "parentPostId": "6092617"
    },
    {
      "threadId": "11256894",
      "post": "Btw thanks for the compliment (trust me I get the wrong idea when it comes to many things i say) and btw I think your Tumblr is cool, rubber duck is cute ^_^ Ima follow you :)",
      "time": "2009-02-08T03:43:20",
      "id": "6077764",
      "parentPost": "Haha, that was me trying to speak old English, saying you are not ugly. I the heck mean that you're pretty.",
      "parentPostTime": "2009-02-07T08:56:28",
      "parentPostId": "6065126"
    },
    {
      "threadId": "11229558",
      "post": "oh why thank you :)",
      "time": "2009-02-07T03:12:33",
      "id": "6060849",
      "parentPost": "LOL!! Its his sideburns!! lol",
      "parentPostTime": "2009-02-06T07:00:29",
      "parentPostId": "5886673"
    },
    {
      "threadId": "11230314",
      "post": "Not sure yet, will tell by Sunday (I think its close to being Humid heat)",
      "time": "2009-02-06T06:58:39",
      "id": "5886653",
      "parentPost": "Is it a dry heat or humid???",
      "parentPostTime": "2009-02-06T06:34:11",
      "parentPostId": "5886122"
    },
    {
      "threadId": "11229301",
      "post": "I want to squeeze your cheeks, you have nice sideburns ^_^",
      "time": "2009-02-06T06:04:59",
      "id": "5885804"
    },
    {
      "threadId": "11220332",
      "post": "Gosh I hate that as well, people judge you from where you're from and not your character instead, lmao. I get that too, so now when people ask me where I'm from I'd be like I'm from here or Antarctica, lol.",
      "time": "2009-02-06T02:39:34",
      "id": "5882062"
    },
    {
      "threadId": "11216126",
      "post": "You want a girl to make you happy, don't be ashamed to be yourself, a girl should love you for who you are, and what you are not otherwise, not what you want to be, but be yourself. That what makes a girl happy, if it doesn't, it's nothing wrong with you, but there is something wrong with her. \r\n\r\n:)",
      "time": "2009-02-06T02:36:30",
      "id": "5882016"
    },
    {
      "threadId": "11166717",
      "post": "you come to me chaz ^_^ *hugs*",
      "time": "2009-02-05T16:50:31",
      "id": "5868996"
    },
    {
      "threadId": "11112657",
      "post": "I can thank my contact lenses for that ^_^",
      "time": "2009-02-05T10:51:37",
      "id": "5862223",
      "parentPost": "nice eyes!",
      "parentPostTime": "2009-02-04T14:22:32",
      "parentPostId": "5834684"
    },
    {
      "threadId": "11108658",
      "post": "I think its photoshopped, but once i saw a glimpse i closed the tab!!! lol",
      "time": "2009-02-05T10:50:15",
      "id": "5862219",
      "parentPost": "How the <I>fuck</I> did that happen?\r\nPlease excuse my bad french.",
      "parentPostTime": "2009-02-04T19:14:57",
      "parentPostId": "5841803"
    },
    {
      "threadId": "11171091",
      "post": "Aww thanks man ahahhaah ^_^ I think if I post random silly jokes about masturbating, sex, life, whatever they unfollow me lol. hahah :)",
      "time": "2009-02-05T10:45:08",
      "id": "5862187",
      "parentPost": "Joke 'em if they can't take a fuck... (your tumblr is fantastic!)",
      "parentPostTime": "2009-02-05T10:05:05",
      "parentPostId": "5861505"
    },
    {
      "threadId": "11045420",
      "post": "If it was for Halloween, she can take a pass, but that was taken not on Halloween!!! Lmaooo",
      "time": "2009-02-04T13:03:05",
      "id": "5833625",
      "parentPost": "good god, what is wrong with this lady.  also, please don't speak.  ever.  you ruin that dancing show.",
      "parentPostTime": "2009-02-03T09:28:23",
      "parentPostId": "5804408"
    },
    {
      "threadId": "11041361",
      "post": "Try it on somewhere where it doesn't involve a plane, maybe in a train or bus.. someone who is sitting next to you and is annoying as hell, just do it!! we only live once lol :)",
      "time": "2009-02-04T12:59:11",
      "id": "5833567",
      "parentPost": "Yes, that's hilarious. \r\nMay I should try it some day.\r\nThen they'd nail my ass for attempted terrorist act.\r\nOr something. \r\nYea..",
      "parentPostTime": "2009-02-04T03:07:40",
      "parentPostId": "5826095"
    },
    {
      "threadId": "11100572",
      "post": "NOWWW!!! and tomorrow :)\r\n\r\ndouble Chazness.",
      "time": "2009-02-04T06:05:25",
      "id": "5829570"
    },
    {
      "threadId": "11097315",
      "post": "I agree with Kevin Anthony, this is your blog, you have no one to please, be yourself, if people don't like it, then they shouldn't follow you in the first place. We're all ourselves, we express ourselves the way we want it, and if people like it, then that's good, if people don't like it - they can just go away. :)",
      "time": "2009-02-04T04:56:00",
      "id": "5828424"
    },
    {
      "threadId": "11091135",
      "post": "Chaz you rock ..you cool nerd ^_^",
      "time": "2009-02-04T02:32:29",
      "id": "5825491"
    },
    {
      "threadId": "10916805",
      "post": "But on the good side, you'll get 8 days of proper sleep lol.\r\n",
      "time": "2009-02-01T06:40:22",
      "id": "5741674"
    },
    {
      "threadId": "10803398",
      "post": "Aww thank you, but my eyes are blah, just brown eyes lol even though i was wearing hazel contact lenses in the other pictures =P",
      "time": "2009-01-31T01:10:43",
      "id": "5717736",
      "parentPost": "You're beautiful.\r\n\r\nI love your eyebrows, I'm jealous.",
      "parentPostTime": "2009-01-31T01:00:58",
      "parentPostId": "5717533"
    },
    {
      "threadId": "10818857",
      "post": "I ordered clear contact lenses since i have destroyed the other pairs, and I'm stuck with hazel coloured contact lenses, i look like a demon, hahah =P",
      "time": "2009-01-31T01:09:38",
      "id": "5717717",
      "parentPost": "whoa that is awesome eyecolor!",
      "parentPostTime": "2009-01-30T17:04:51",
      "parentPostId": "5701983"
    },
    {
      "threadId": "10828144",
      "post": "aww how sweet Ima reblog after ^_^",
      "time": "2009-01-31T00:42:03",
      "id": "5717199"
    },
    {
      "threadId": "10800317",
      "post": "Do i get things right every time? I swear I always think I'm always wrong... all the time lmao, but thanks for the compliment =)",
      "time": "2009-01-30T12:37:25",
      "id": "5684720"
    },
    {
      "threadId": "10724026",
      "post": "Omg \n\n*faints*",
      "time": "2009-01-30T08:43:23",
      "id": "5682846"
    },
    {
      "threadId": "10703278",
      "post": "fap fap fap!",
      "time": "2009-01-29T01:08:33",
      "id": "5631825"
    },
    {
      "threadId": "10666112",
      "post": "lol\r\n\r\nit's also like;\r\nThat chick is giving the finger to all the icons on your desktop, including me. =O",
      "time": "2009-01-28T14:08:45",
      "id": "5615936",
      "parentPost": "lol that was before i posted that pic of you ",
      "parentPostTime": "2009-01-28T08:36:58",
      "parentPostId": "5613524"
    },
    {
      "threadId": "10670681",
      "post": "Umm I didn't post that, I just reblog from http://rentedsurroundings.tumblr.com/ you should be thanking him. =)",
      "time": "2009-01-28T14:07:50",
      "id": "5615925",
      "parentPost": "Thank you for being someone open enough to have a site like this. Most people are too caught on themselves that others become fleeting and seem transparent. Thank you for the opening...",
      "parentPostTime": "2009-01-28T12:00:18",
      "parentPostId": "5615023"
    },
    {
      "threadId": "10657973",
      "post": "Aww no problems :)",
      "time": "2009-01-28T04:46:40",
      "id": "5610508"
    },
    {
      "threadId": "10658047",
      "post": "Very true or likely they're on crrrrrrrracckkkkkkkkk!!!!!!!\r\n\r\nlol",
      "time": "2009-01-28T04:46:06",
      "id": "5610544"
    },
    {
      "threadId": "10605803",
      "post": "That's so true, we all want to explore the world but the only thing that's stopping us is money, money can be an ass. I honestly think you should do what you feel the best, My only suggestion is since you're a young person, travelling last forever, young or old. I think you should concentrate on school and work during those time start saving up - save as much as you can, and plan your travelling when you have a time that you can take a break. \r\n\r\nP.S I travel overseas when I am on a school holiday break & save money by working a bit here and there (and it would be very short period but worth it), but I don't go to expensive places where the exchange rate for my country is lower than the country I am visiting, I don't want to be broke when first arriving there lol.  ",
      "time": "2009-01-27T13:42:53",
      "id": "5575092"
    },
    {
      "threadId": "10445050",
      "post": "Boo you suck.",
      "time": "2009-01-24T05:11:59",
      "id": "5510443"
    },
    {
      "threadId": "10340197",
      "post": "Totally agree, and she still is. She's much more prettier and better in acting than Nicole Kidman or any female Australian actresses, she just need to get a lot more movie roles but i don't think so nowadays, she's got a baby or something.",
      "time": "2009-01-22T15:19:13",
      "id": "5462891",
      "parentPost": "During her Home & Away days when I was in high school, Isla was the 'it' girl and I think she still is. Its just a bonus that she's Aussie. ",
      "parentPostTime": "2009-01-22T07:52:48",
      "parentPostId": "5458247"
    },
    {
      "threadId": "10287205",
      "post": "Yeah those were the good times, I remember dancing to other songs like backstreet boys, aqua, and heaps other pop singers/ bands during those times, oh its bringing me back childhood memories hahah =P",
      "time": "2009-01-22T05:26:23",
      "id": "5456516",
      "parentPost": "Who didn't?! I remember \"playing Spice Girls\" in the 2nd grade at recess time. Good times man, good times.",
      "parentPostTime": "2009-01-21T13:24:35",
      "parentPostId": "5427068"
    },
    {
      "threadId": "10292575",
      "post": "You are so correct!\r\nYou couldn't compare it to the original show.\r\nThe UK office is perfection and pure comedy.",
      "time": "2009-01-21T15:42:46",
      "id": "5428834"
    },
    {
      "threadId": "10290442",
      "post": "I'm not sure I have this fear in me sometimes lol, maybe it's the silly voices or something. I'd probably do it for smile Friday =) cuz from the sounds of it, you're egging me on to do it =P\r\n\r\nLmao yeah we're pretty much friendly enough to crack jokes, I love jokes, especially satire and sometimes I laugh at inappropriate things too :P lol",
      "time": "2009-01-21T15:00:32",
      "id": "5428167",
      "parentPost": "yeah wear it down - imagine the relief you'll have when you realise you'll always look retarded, up or down. JOOOOOOKKKKKKKKKEEEEEEEEESSSSSSSSSSS (are we friendly enough to crack such jokes)? just wear it down - im sure you'll look gorge.",
      "parentPostTime": "2009-01-21T14:56:14",
      "parentPostId": "5428115"
    },
    {
      "threadId": "10288411",
      "post": "Hey, thanks for the reblog.\r\nCan I ask you something?\r\nWhat's the difference between the summit and landmark?\r\nI was only told about landmark lol.\r\nwould love to get a insight from someone who actually had experience doing it.\r\ntake care =)",
      "time": "2009-01-21T13:56:09",
      "id": "5427434"
    },
    {
      "threadId": "10216166",
      "post": "noooo....10 hi 5's for C's in English! lol ^_^",
      "time": "2009-01-20T13:56:35",
      "id": "5392027",
      "parentPost": "High 5! for C's in English!",
      "parentPostTime": "2009-01-20T04:30:16",
      "parentPostId": "5382192"
    },
    {
      "threadId": "9294187",
      "post": "Sadly I only have 3 games, GTAIV, Saint Row 1 & 2. Most of the games I want i.e Bladestorm is out of stock, and usually I would have to wait a while =(",
      "time": "2009-01-19T01:12:01",
      "id": "5273244",
      "parentPost": "The only way to play is with the used games we can get here in the States at places like GameStop and Electronics Boutique.  Yeah, I'm cheap too, but why pay $60 for a game when it's gonna be $25 (or less) on the used shelf in 6- to 8-weeks.  \r\n\r\n(And, btw, which are the 3 360 games you have?  Just curious....)",
      "parentPostTime": "2009-01-03T09:55:54",
      "parentPostId": "4864635"
    },
    {
      "threadId": "9391833",
      "post": "Omg thank you :D",
      "time": "2009-01-19T01:10:54",
      "id": "5273225",
      "parentPost": "You really need to join SCA\r\nhttp://www.sca.org/\r\nFind your local chapter! go on doooo eeiiittttt",
      "parentPostTime": "2009-01-05T09:12:15",
      "parentPostId": "4890186"
    },
    {
      "threadId": "10115470",
      "post": "Yay no problems :D It's 1am here so yeah Happy Birthday to you as well :D\r\nGot to use the Dutch :-) \r\nHope you have fun on your birthday, party hard :D",
      "time": "2009-01-18T14:53:04",
      "id": "5265903"
    },
    {
      "threadId": "10106036",
      "post": "Hope you have fun & enjoy the big day out...\r\n\r\nI...\r\nnever been to the Big Day Out. How embarrassing....\r\nFuck, the tickets get sold out straight away, I can never get hold of it.\r\nI fail at making an effort to try harder XD",
      "time": "2009-01-18T09:25:59",
      "id": "5258772"
    },
    {
      "threadId": "10095844",
      "post": "Aww i don't think no one wants to fall off the cliff lmao :D",
      "time": "2009-01-18T04:54:00",
      "id": "5255382"
    },
    {
      "threadId": "9974703",
      "post": "Yeah that's true, but I'm fine now lol... junkfood is keeping me at bay :)",
      "time": "2009-01-17T16:34:37",
      "id": "5238813",
      "parentPost": "Its hard to have a relationship when it's one sided. I know what's its like to not have your feelings reciprocated to the same extent. Eventually your feelings just work against you make you numb to the whole thing. \r\n\r\nEither way, you deserve better. You're waaay too awesome for this.\r\n",
      "parentPostTime": "2009-01-16T05:54:25",
      "parentPostId": "5160025"
    },
    {
      "threadId": "10066265",
      "post": "Aww damn, I want to challenge you on GTAIV!! Im pretty good (i don't use cheats lmao ;) )",
      "time": "2009-01-17T16:22:06",
      "id": "5238669",
      "parentPost": "Add me!\r\n\r\nkapi80\r\n\r\nBut I have GTA4 for my PS3. I play CoD4 on the 360",
      "parentPostTime": "2009-01-17T15:37:16",
      "parentPostId": "5238249"
    },
    {
      "threadId": "9997852",
      "post": "I played via 2 players, never tried 4 players lol",
      "time": "2009-01-17T06:35:17",
      "id": "5231962",
      "parentPost": "Taste the pain baby, classic, that had 4 player if I remember correctly (highly unlikely)",
      "parentPostTime": "2009-01-16T15:20:23",
      "parentPostId": "5164166"
    },
    {
      "threadId": "9931700",
      "post": "Sade",
      "time": "2009-01-15T08:37:41",
      "id": "5136299"
    },
    {
      "threadId": "9921665",
      "post": "Looks like you didn't get enough sleep lmao",
      "time": "2009-01-15T03:39:07",
      "id": "5132922"
    },
    {
      "threadId": "9920068",
      "post": "omg yes I agree your eyes is fap fap fap worthy! lol",
      "time": "2009-01-15T03:37:16",
      "id": "5132894"
    },
    {
      "threadId": "9893342",
      "post": "Number 2 just wow :'( we've all been through that part of our life. ",
      "time": "2009-01-14T17:46:51",
      "id": "5115644"
    },
    {
      "threadId": "9867457",
      "post": "Hey they love you that's why! lol, it was the same with me, people started to reblog my stuff and i get followers as well, so yeah works both ways, plus i still can't believe our music taste on last FM is super lmao, and like i said, i can't believe i didn't follow you before, because i love following people who are crazy into hip hop like damn i reblog anything that's hip hop on my dashboard :D ",
      "time": "2009-01-14T14:09:46",
      "id": "5112400",
      "parentPost": "Lol yeah I assumed that. I gained followers off of you too lol. A great amount. So uhm . . . thank you guess  lol. ",
      "parentPostTime": "2009-01-14T13:31:46",
      "parentPostId": "5112117"
    },
    {
      "threadId": "9875231",
      "post": "LOL! I do drink but its only for special occasions i don't want to be left out and a loner when in a friends party if alcohol is served. But when it comes to my time, I'd prefer to drink coca - cola :)",
      "time": "2009-01-14T13:25:54",
      "id": "5112081",
      "parentPost": "i didnt realise a lot of these e.g. you dont smoke or drink. you should, its fun :)",
      "parentPostTime": "2009-01-14T11:48:49",
      "parentPostId": "5111568"
    },
    {
      "threadId": "9883373",
      "post": "wait.. I thought you were from the states? \r\nAww I feel you, it sucks being somewhere you don't want to be. That's the same for me, I don't feel like staying here, alone\r\nand every of my relatives live overseas. It's expensive here and it doesn't feel like the place to be forever for me. :-/",
      "time": "2009-01-14T12:52:56",
      "id": "5111907"
    },
    {
      "threadId": "9826584",
      "post": "Serious? hahaha I think my classes are 3-4 times a week in Feb as well.\r\n\r\n3 is a lucky number.\r\nTumblr the rest.\r\nLOL",
      "time": "2009-01-14T10:07:29",
      "id": "5109684",
      "parentPost": "lol no i only go 2 school 3 days out of the week",
      "parentPostTime": "2009-01-13T22:43:24",
      "parentPostId": "5100362"
    },
    {
      "threadId": "9866093",
      "post": "oh why thank you very much :)",
      "time": "2009-01-14T04:29:25",
      "id": "5106293",
      "parentPost": "i love your blog theme<3",
      "parentPostTime": "2009-01-14T04:08:41",
      "parentPostId": "5106056"
    },
    {
      "threadId": "9839108",
      "post": "Did you remember to feed those little birds? lol XD",
      "time": "2009-01-13T17:58:33",
      "id": "5095104"
    },
    {
      "threadId": "9514970",
      "post": "No problems, btw It is a great song and one of the best =)",
      "time": "2009-01-13T17:51:10",
      "id": "5094938",
      "parentPost": "I gather you like this song. It's one of my all-time favorites! Thank you for posting it.",
      "parentPostTime": "2009-01-13T04:16:02",
      "parentPostId": "5086583"
    },
    {
      "threadId": "9825196",
      "post": "Thanks man, appreciate the compliment :D",
      "time": "2009-01-13T09:58:35",
      "id": "5089632"
    },
    {
      "threadId": "9737921",
      "post": "Lmao I also hate that as well, I like goats if I had them as pets but not to drink their milk or eat them, ewww. Plus you can do no wrong with beef or chicken...they taste too good mmm :D",
      "time": "2009-01-12T15:12:13",
      "id": "5072397",
      "parentPost": "Same. I also can't stand the smell of goat or goats milk either. I lose out on a lot of Mediterranean dishes but that's okay - I'll just make it at home with beef :)",
      "parentPostTime": "2009-01-11T15:56:24",
      "parentPostId": "5056910"
    },
    {
      "threadId": "9780431",
      "post": "Are you making fun of the way I cook? Cuz thats how you cook marshmallows, have them crispy then melted inside =D",
      "time": "2009-01-12T14:56:35",
      "id": "5072247",
      "parentPost": "lol you do burn things ",
      "parentPostTime": "2009-01-12T13:20:44",
      "parentPostId": "5071449"
    },
    {
      "threadId": "9774720",
      "post": "Education is important :)",
      "time": "2009-01-12T08:51:10",
      "id": "5070027"
    },
    {
      "threadId": "9258355",
      "post": "I know, tell me about it, the knight is hot!",
      "time": "2009-01-12T06:56:22",
      "id": "5069288",
      "parentPost": "somebodys hot and i think it s her lol",
      "parentPostTime": "2009-01-12T06:54:36",
      "parentPostId": "5069271"
    },
    {
      "threadId": "9771211",
      "post": "Yay, except you pasted quite a lot lmao.\r\n0 Comments\r\n0 Comments\r\n0 Comments\r\n0 Comments\r\n0 Comments\r\n",
      "time": "2009-01-12T06:41:53",
      "id": "5069164"
    },
    {
      "threadId": "9675185",
      "post": "lol thanks :D even though i always think myself as evil looking sometimes lol",
      "time": "2009-01-12T05:22:29",
      "id": "5068422",
      "parentPost": "You're gorgeous.",
      "parentPostTime": "2009-01-10T04:04:31",
      "parentPostId": "5032454"
    },
    {
      "threadId": "9682368",
      "post": "ok cool =D i love chatting with Tumblrs, everyone seem so cool.",
      "time": "2009-01-12T05:20:52",
      "id": "5068402",
      "parentPost": "I remember when I first started following you I was looking for you aim name because you seemed cool. I'm glad you have one now! I'm going to have to aim you sometime.",
      "parentPostTime": "2009-01-10T08:17:18",
      "parentPostId": "5034791"
    },
    {
      "threadId": "9684178",
      "post": "Wow, you're like my other half of me, lol no joke. What you like is basically what I love doing. You know it's really hard finding chicks who love video games too, it's just more are into the poshy lifestyle and yeah you know the rest lol. It's so true what other things you've said, that's why I think you rock \\M/ =D",
      "time": "2009-01-12T05:17:19",
      "id": "5068372",
      "parentPost": "I can totally can relate to this. I don't have a lot of girl friends either and get along better with guys. They seem to understand me more and are generally less drama filled. That's not say I have anything against have girl friends, it's just so hard to find some that share my common interest like video games, going to concerts, traveling, reading and talking about books. I'm not in clubs either, and I don't like talking about celebrity gossip all the day either.\r\n\r\nDon't even get me started on high school. I'll just say I'm glad that phase of my life is over. I do find it funny too that I get along more with people I didn't converse with while I was in high school. It's funny how that works out.\r\n\r\n\r\n\r\n",
      "parentPostTime": "2009-01-10T09:36:34",
      "parentPostId": "5035233"
    },
    {
      "threadId": "9690585",
      "post": "Aww, thank you so much :) ",
      "time": "2009-01-12T05:09:16",
      "id": "5068004",
      "parentPost": "effin hell bitchville you almost made me cry - chuffed to bits with what you said about meeeeeeeeeeeeee. happy days. *i just showed my boyf your page and he was like \"and she likes rap, fuck yeah\" so thumbs up from me. and him. :)",
      "parentPostTime": "2009-01-10T18:37:39",
      "parentPostId": "5045929"
    },
    {
      "threadId": "9729701",
      "post": "really? i like the picture because it brings back memories... JT hairstyle woo :P",
      "time": "2009-01-12T05:08:20",
      "id": "5067758",
      "parentPost": "Oh my god.  I totes had that issue.",
      "parentPostTime": "2009-01-11T09:55:35",
      "parentPostId": "5054213"
    },
    {
      "threadId": "9727837",
      "post": "nah, i like it too, shows he's tense lol.",
      "time": "2009-01-12T05:05:44",
      "id": "5067145",
      "parentPost": "is that weird that I love those veins popping out?",
      "parentPostTime": "2009-01-11T18:03:26",
      "parentPostId": "5058964"
    },
    {
      "threadId": "9724881",
      "post": "Damn, I wrote something about this on Tumblr not long ago, that now people who I don't like could easily find me and try to enter my life again and that Facebook has become a place where they could find me and I have no privacy lol. Also that is why I never set my relationship status, as to nothing, I mean it's your personal life and no one should know, hell even if i was married or w/e I wouldn't put it up, it's just stupid. And yeah whatever you write it seems people watch you and what you do there. I only really log onto FB for Mafia Wars lol.",
      "time": "2009-01-11T13:26:49",
      "id": "5055956"
    },
    {
      "threadId": "9293729",
      "post": "Aww that sucks, I hope they do here but I guess Australia sucks, as usual lol.\r\nYeah i'll take you on, I'm not afraid!! :P there's always cheats if I lose lmao",
      "time": "2009-01-10T15:27:55",
      "id": "5044181",
      "parentPost": "I want to get a PS3, but yeah, way too expensive right now. And we could totally beat the guys, lol!\r\n\r\nI'll totally take you up on your challenge for a round of GTA IV when I get a 360. :)\r\n\r\nHmm, I don't know if they ship internationally. I just re-looked the site and I didn't see anything about it. That's a major bummer if they don't. ",
      "parentPostTime": "2009-01-04T04:59:09",
      "parentPostId": "4875008"
    },
    {
      "threadId": "9631334",
      "post": "What's your speciality? You into more of the management department or practical? I want to get my hands onto System Administration, you think a girl can kick her way into that part of the IT career? lol",
      "time": "2009-01-10T15:24:40",
      "id": "5044170",
      "parentPost": "Yeah, IT implies a level of geekiness, but it also depeneds where you work. Some places have a more geeky culture than others...\r\n",
      "parentPostTime": "2009-01-10T01:41:01",
      "parentPostId": "5026488"
    },
    {
      "threadId": "9607860",
      "post": "Not illegal lol",
      "time": "2009-01-10T12:57:59",
      "id": "5036556"
    },
    {
      "threadId": "9567700",
      "post": "So it's not Babyface version? \r\n\r\n:O\r\n\r\nBut I could only blame it myself, I only listened it for 10 seconds and not the whole track, lol my bad I'm on dialup speed until Friday, lol.",
      "time": "2009-01-08T09:16:50",
      "id": "4984655"
    },
    {
      "threadId": "9383765",
      "post": "Yay, I am mentioned, I shall reblog this once my dial up internet speed is gone and Im back to cable broaband speed. zing!!!!!!!",
      "time": "2009-01-07T05:21:47",
      "id": "4948172"
    },
    {
      "threadId": "9399572",
      "post": "Dude you're making me want to go to Thailand again after I was there back in June last year, lol. Btw you take very good photos and good with the lighting, angles, directions etc. I shall add you on my Flickr friends list but since I'm on Dialup Speed & Flickr will take over 10 minutes just to load the homepage, I'll do it on Friday. =)\r\n",
      "time": "2009-01-05T14:07:16",
      "id": "4892285"
    },
    {
      "threadId": "9248346",
      "post": "Lmao could of said the same thing",
      "time": "2009-01-02T11:15:15",
      "id": "4828625"
    }
  ],
  "profileInfo": {
    "username": "bitchville",
    "about": "",
    "name": "bitchville",
    "disable3rdPartyTrackers": false,
    "isPowerContributor": false,
    "isAnonymous": false,
    "rep": 1.317717,
    "profileUrl": "https://disqus.com/by/bitchville/",
    "url": "http://bitchville.tumblr.com/",
    "reputation": 1.317717,
    "location": "",
    "isPrivate": false,
    "signedUrl": "http://disq.us/?url=http%3A%2F%2Fbitchville.tumblr.com%2F&key=48nET35L_9ACF5d8E5UEBw",
    "isPrimary": true,
    "joinedAt": "2008-10-25T11:57:02",
    "id": "128528",
    "avatar": {
      "small": {
        "permalink": "https://disqus.com/api/users/avatars/bitchville.jpg",
        "cache": "//a.disquscdn.com/uploads/users/12/8528/avatar32.jpg?1281549414"
      },
      "isCustom": true,
      "permalink": "https://disqus.com/api/users/avatars/bitchville.jpg",
      "cache": "//a.disquscdn.com/uploads/users/12/8528/avatar92.jpg?1281549414",
      "large": {
        "permalink": "https://disqus.com/api/users/avatars/bitchville.jpg",
        "cache": "//a.disquscdn.com/uploads/users/12/8528/avatar92.jpg?1281549414"
      }
    }
  }
}