{
  "comments": [
    {
      "threadId": "4733489890",
      "post": "Open the aperture all the way. Focus the lens to the rear element is all the way back. Then use a flashlight into the front element. Look all the way in around the base of the barrel. ",
      "time": "2016-04-10T04:45:19",
      "id": "2615577528",
      "parentPost": "how do you check for the scratches? I'm not sure where to look.",
      "parentPostTime": "2016-04-10T03:20:49",
      "parentPostId": "2615513220"
    },
    {
      "threadId": "3993479019",
      "post": "Thanks for the comments. Please come back often. We have amazing videos and more each week!",
      "time": "2015-08-08T13:02:53",
      "id": "2181200915",
      "parentPost": "This was very interesting and very true. I would have liked to dwell more on the relationship between social media (online) and offline - the role of still relying on offline events to further social engagement even more. \n\nThe connection between offline and online has been underestimated for a long time and still today the majority of brands do not prioritize offline events as being an essential component of digital strategy. It was back in 2010-2011 when I was collecting data for my dissertation on the mobilization of citizens due to social media that as a researcher I drew the conclusion that advocates were recruited both online and offline. Meaning that having offline events actually brought new members online, thus relationship building. The same was true for getting people from social media to act offline. It would be interesting to discuss more this dichotomy. (maybe you have done it before. Sorry I just came across this site today and have not had a chance to scan through all your content).  Thank you again for posting this video. Gin",
      "parentPostTime": "2015-08-07T19:22:05",
      "parentPostId": "2180030605"
    },
    {
      "threadId": "3076502872",
      "post": "I nominate David Bray, current CIO of the FCC. He would be innovative and awesome. One of the most literate and customer-facing CIOs in the world.",
      "time": "2014-10-02T19:24:32",
      "id": "1616928980"
    },
    {
      "threadId": "2918404584",
      "post": "Kim is amazing and if she is doing a panel it will be fantastic!",
      "time": "2014-08-29T12:28:31",
      "id": "1564686796"
    },
    {
      "threadId": "2613326148",
      "post": "Congrats to have Guy on board. We look forward to having him as a guest on CxOTalk once again this fall. I have great respect for Guy.",
      "time": "2014-04-23T12:23:36",
      "id": "1351678453"
    },
    {
      "threadId": "2472872648",
      "post": "Question from R Harkawat (Rh_mayo@yahoo.com):\n\n With a larger fund are you expanding geography focus as well areas for investment. Additionally can you articulate and share an investment thesis that the fund and you are interested in?",
      "time": "2014-03-29T20:19:53",
      "id": "1310007615"
    },
    {
      "threadId": "1950829377",
      "post": "This camera and lens are a new experiment for Nikon. They have not yet learned to balance innovation and customer value against the risks of either cannibalization or losing mkt share due to lack of innovation. Not good.",
      "time": "2013-11-09T15:24:12",
      "id": "1115481432"
    },
    {
      "threadId": "1774206145",
      "post": "Best of luck, Jeremiah. Excited to watch as it unfolds!",
      "time": "2013-09-19T13:11:47",
      "id": "1051407312"
    },
    {
      "threadId": "1617804933",
      "post": "As the moderator, I can assure you this panel will be great. The panelists are all C-level executives will real experience in the trenches. Please come and enjoy an engaging and informative session.",
      "time": "2013-08-23T00:12:48",
      "id": "1014206070"
    },
    {
      "threadId": "1269217937",
      "post": "This really does read like an Adobe press release. Objectivity and neutrality will go a long way toward preserving your reputation.\n\n\nThe bottom line is this approach is actually cloud-based licensing to increase consumer costs and control piracy. The software is not cloud, only the license verification is, plus the ability to download new versions if you are under a subscription.\n\n\nCosts will go up for buyers, which is the bottom line.",
      "time": "2013-05-11T02:23:02",
      "id": "892776080"
    },
    {
      "threadId": "758410314",
      "post": "Jevon, Congratulations, this is wonderful news for both GoInstant and Salesforce",
      "time": "2012-07-09T20:17:30",
      "id": "582444187"
    },
    {
      "threadId": "748578505",
      "post": "Congrats -- wishing you great success!!",
      "time": "2012-07-02T20:20:51",
      "id": "574610867"
    },
    {
      "threadId": "363620654",
      "post": "Great post. I got a Xoom today so appreciate the advice about 3.2. It did a quick update, so that was was good. Now, I need to find an app to replace Goodreader from the iPad. Any ideas?\n\nBy the way, on my desktop this comments box did not show up, in both IE and FF. Works on the xoom though.",
      "time": "2011-07-21T01:15:11",
      "id": "259305418"
    },
    {
      "threadId": "332699835",
      "post": "Congratulations, it's well deserved!",
      "time": "2011-06-15T07:53:35",
      "id": "226271944"
    },
    {
      "threadId": "301926175",
      "post": "This happens to me as well. The problem has been there since the original firmware that shipped on the iPad2 and continues to this day. Pain in the ass. ",
      "time": "2011-05-13T22:38:05",
      "id": "203314826"
    },
    {
      "threadId": "298620137",
      "post": "Based on your post there are two options: either be an outsider and fully honest or an insider and compromised. But, what about those pesky, but real, shades of gray?",
      "time": "2011-05-08T22:23:16",
      "id": "199887324"
    },
    {
      "threadId": "294111361",
      "post": "Great quote from Marcel: \"Get the voice of the customer to every part of the business.\" Well done interview.",
      "time": "2011-05-03T12:00:55",
      "id": "196232465"
    },
    {
      "threadId": "290652163",
      "post": "Brilliant!\n\nBut then, what's a lil ethical lapse among friends?",
      "time": "2011-04-28T20:19:46",
      "id": "193642364"
    },
    {
      "threadId": "226767997",
      "post": "We can end this discussion here but, frankly, your comments seem disingenuous and misleading, at best.",
      "time": "2011-02-20T17:51:07",
      "id": "153067467",
      "parentPost": "Like I said you can either email or do a bit of Googlging, this isn't an SEO blog or an SEO discussion thread.  I didn't compare myself to fortune 500 companies, I simply stated that I used to work for them.  There are plenty of much smaller sites such as this one that have their own way of doing SEO.",
      "parentPostTime": "2011-02-20T17:33:30",
      "parentPostId": "153061206"
    },
    {
      "threadId": "231790662",
      "post": "Wow, simply fantastic wisdom. Thanks so much for sharing!",
      "time": "2011-02-19T19:51:40",
      "id": "152646944"
    },
    {
      "threadId": "234177973",
      "post": "You have taken this post without asking or permission. At least have the decency to put in a link back to the source.",
      "time": "2011-02-19T17:44:37",
      "id": "152579676"
    },
    {
      "threadId": "219075778",
      "post": "Congrats to all these folks -- great list indeed",
      "time": "2011-01-31T17:39:32",
      "id": "137689514"
    },
    {
      "threadId": "218864038",
      "post": "Digg redux -- if that's the case, it becomes a waste of time.",
      "time": "2011-01-31T04:19:11",
      "id": "137509925",
      "parentPost": "Reminds one of Digg, in some ways, doesn't it?",
      "parentPostTime": "2011-01-30T09:34:45",
      "parentPostId": "137146346"
    },
    {
      "threadId": "201614728",
      "post": "Nice introductory piece to the cloud, aimed at people for whom this is all new.",
      "time": "2011-01-05T14:22:18",
      "id": "124340971"
    },
    {
      "threadId": "202508374",
      "post": "Nice post, but a bit too early to predict that Quora will take over the planet, solve world hunger, and bring peace with everlasting prosperity to all mankind.\n\nSure, it could all happen, but it's a huge leap from initial excitement to reaching the scale of  Twitter.",
      "time": "2011-01-05T13:28:54",
      "id": "124321700"
    },
    {
      "threadId": "202182466",
      "post": "Given the level of attention Quora is receiving, I suspect that 25K daily visitors estimate is extremely low. After a relatively low learning curve, the site is easy to use and impressive. Competition is surely around the corner, but, for now, they have momentum.",
      "time": "2011-01-03T23:02:17",
      "id": "123639339"
    },
    {
      "threadId": "161612266",
      "post": "Ed, With all due respect, I am not convinced that gaining a seat at the table, as we often hear it called, will \"just happen.\" Gaining true partnership with the business at a senior level requires strategy, planning, preparation, and execution as with any other long-term goal one is trying to achieve.",
      "time": "2010-10-31T15:23:29",
      "id": "92090177",
      "parentPost": "As CIO you probably have access to a more complete view of your business than any other role. You probably also have one of the higest IQ, most analytical teams in your business.\r\n\r\nAre you using this to best effect? \r\nHave you developed the people skills and thirst for knowledge about your business in your team?\r\n\r\nDon't worry about the top table. It will just happen!",
      "parentPostTime": "2010-10-28T09:55:29",
      "parentPostId": "91075047"
    },
    {
      "threadId": "164597629",
      "post": "If Brian's interpretation is correct, I have rarely seen such instances of attempted brand control by an organization toward external users.<br><br>Organizations typically promulgate style guides toward paid employees and contractors to ensure consistent use of language, terminology, etc. For example, newspapers ask reporters to follow a style guide -- think A/P Style Guide as one well-known example.<br><br>If Brian's implications are correct, then it appears Twitter wants to enforce language usage among unrelated third-parties? While the benefits to Twitter are obvious, in practice it's invasive, impractical, and borders on the offensive.<br><br>Update: Brian your post is confusing. Twitter seems to be proposing guidelines for using their trademark, which is within their right. The page to which you linked is not a style guide, in any traditional sense. Are you therefore proposing an actual style guide? I'm confused here.",
      "time": "2010-10-31T15:12:51",
      "id": "92085957"
    },
    {
      "threadId": "61187878",
      "post": "\"Create or curate\" is really not the issue: you are actually asking little more than \"attend in person or not.\" Your plans include equal original content creation whether or not you attend in person. <br><br>In my view, attendance buys you the opportunity to mingle in-person with others. Aside from that, there will be no meaningful difference whether you attend or not, since all the information will be on the Web within minutes anyway.<br><br>My advice: stay home, focus on the event, and write (or record) great content without all the elbow-jostling of the live venue.",
      "time": "2010-01-25T20:32:20",
      "id": "31289353"
    },
    {
      "threadId": "48398932",
      "post": "Would you mind sharing why used the Canon DSLR as opposed to the Zi8 to shoot this? Thanks!",
      "time": "2009-11-28T22:27:06",
      "id": "24250771"
    },
    {
      "threadId": "47321678",
      "post": "Social CRM refers to integrating data from outside the organization, such as support or marketing. Enterprise 2.0 suggests inward-facing collaboration.\n\nLarge enterprises are interested in both. After all, folks inside an organization need to work together and collaborate, and social networks facilitate those activities. There's no reason to limit thinking to one or the other.",
      "time": "2009-11-23T12:40:17",
      "id": "23871972",
      "parentPost": "Large enterprises will be only interested in business process related data outside of the enterprise. For example, data that support sales, marketing, support,etc... and they will most definitely incorporate real-time information access to these type of data. And also integration of the data/analysis with backend business processes.  Social networking as social will still be managed by Twitter-like services... Major impact of the Salesforce announcement will be felt by micro-blogging service providers who are targeting enterprises.",
      "parentPostTime": "2009-11-23T02:39:26",
      "parentPostId": "23846856"
    },
    {
      "threadId": "44745543",
      "post": "Interesting question, for sure. I think the answer depends on your view of social media. If it is a technical function primarily, then the CIO is the rightful owner. If it's primarily marketing, then maybe the PR department should own it.\n\nOn the other hand, if social media is about improving business efficiency, then why would either the CIO or marketing own it? My own view is that ideally social media is a business function like any other. The LOB should own it (not marketing or PR) and work in partnership with the CIO to implement.",
      "time": "2009-11-10T22:08:44",
      "id": "22637037"
    },
    {
      "threadId": "15609276",
      "post": "Gregorylent: With all due respect, that perspective is far too jaded and fatalistic for my taste.\n\nHow can you compare a large public corporation with a tiny startup? Google has girth, inertia, and the anonymity of size and bureaucracy. By comparison, Twitter is a bunch of guys in a garage.\n\nHey, I find Twitter extraordinarily useful (I'm @mkrigsman), but let's deal in reality here.",
      "time": "2009-04-12T17:13:24",
      "id": "8097863",
      "parentPost": "i think of twiiter as i do of google, not at all transparent, and not likely to be",
      "parentPostTime": "2009-04-12T17:08:56",
      "parentPostId": "8097786"
    },
    {
      "threadId": "14657425",
      "post": "Thanks for pointing that the taboo against talking about IT failure is so harmful. In my opinion, it's one of the key reasons failure persists. Unfortunately, many organizations are doomed to repeat the same mistakes over and over because they are unable to confront real issues that truly do exist. As a CIO, your thoughts on this topic carry substantial weight.",
      "time": "2009-03-29T20:07:43",
      "id": "7615502"
    },
    {
      "threadId": "11975998",
      "post": "Thanks for the thoughtful post. I completely agree with your overall assessment of the relationship between tool and user.",
      "time": "2009-02-17T05:06:36",
      "id": "6323513"
    },
    {
      "threadId": "11462627",
      "post": "Hey Jake, Enjoy those rounded corners:)",
      "time": "2009-02-10T03:04:12",
      "id": "6129669"
    },
    {
      "threadId": "9228238",
      "post": "Robert, The three (or four) goals you mentioned certainly reflect your actions.\n\nBut, remaining top of mind gets you followers. It's naive to think your access and position is independent of these followers, and you don't strike me as a naive person. Of course, your sponsors are also not unaware of that legion of followers.",
      "time": "2009-01-02T02:47:02",
      "id": "4823041",
      "parentPost": "That's actually not one of my goals. My goals with friendfeed are:\r\n1. Have interesting conversations with interesting people. This is where you can see those: http://friendfeed.com/scobleizer/comments\r\n2. Share the best items in the real time web with others so both the best voices and new voices get exposed. This is where you can see those: http://friendfeed.com/scobleizer/likes\r\n3. Listen to what people are saying so that I am more informed about the online world, which makes my interviews at http://www.fastcompany.tv and http://www.kyte.tv/scobleizer better.\r\n4. Bug Dave Winer. :-)",
      "parentPostTime": "2009-01-01T23:08:43",
      "parentPostId": "4820459"
    },
    {
      "threadId": "8920554",
      "post": "VIP customer service is available to any Sprint customer. Simply phone their main number and ask to speak to the president of the company. You'll be transferred there.\r\n\r\n(I realize that's not the point of the post, but it's an interesting factoid.)",
      "time": "2008-12-27T17:01:47",
      "id": "4666677"
    },
    {
      "threadId": "1441826",
      "post": "In orchestrating a public character assassination for little more than kicks, giggles, and page views, an innocent person has been hurt. Would someone please explain what this has achieved? \r\n\r\nMatthew, I generally enjoy and respect your work. However, Loren has become the new Jerry Springer and you've now perpetuated the least common denominator by trivializing this issue into a high school soap opera.",
      "time": "2008-06-28T15:37:50",
      "id": "769809"
    },
    {
      "threadId": "4923286",
      "post": "Sure, David has a point that Twitter needs a business model. But, that's not what it needs today. With $20M in funding, Twitter has all the funding it requires for the foreseeable short-term future. Right now the company needs to manage it's infrastructure with the goal of utility-level reliability. If they don't accomplish this, Twitter will die. \r\n\r\nNote to David: Dead companies don't need a business model.\r\n\r\nMichael Krigsman\r\nhttp://twitter.com/mkrigsman",
      "time": "2008-06-08T13:07:41",
      "id": "617062",
      "parentPost": "A lot of people send and receive tweets via SMS, so I wonder if they could get some share of the revenue from that and with some tight integration into the mobile provider phonesvand services they could accelerate adoption too.  In the UK where local phone calls are not free, many dial up ISP would offer a free service andmake money taking a share of the phone revenue. \r\n\r\nIf anyone at Twitter reads this and haven't thought of it yet thought of it - contact me to work out how much you're going to pay me for the idea.\r\n\r\n",
      "parentPostTime": "2008-06-08T03:47:08",
      "parentPostId": "616257"
    },
    {
      "threadId": "50966",
      "post": "In making the decision, how did you balance the self-interest aspect against \"public good\" aspect?\r\n\r\nMichael Krigsman\r\nhttp://blogs.zdnet.com/projectfailures",
      "time": "2007-12-02T04:55:30",
      "id": "24322"
    }
  ],
  "profileInfo": {
    "username": "mkrigsman",
    "about": "",
    "name": "mkrigsman",
    "disable3rdPartyTrackers": false,
    "isPowerContributor": false,
    "isAnonymous": false,
    "rep": 1.303887,
    "profileUrl": "https://disqus.com/by/mkrigsman/",
    "url": "http://mkrigsman.com/",
    "reputation": 1.303887,
    "location": "Brookline, MA",
    "isPrivate": false,
    "signedUrl": "http://disq.us/?url=http%3A%2F%2Fmkrigsman.com%2F&key=E8HAD1yjrKGfaurRHkYp4w",
    "isPrimary": true,
    "joinedAt": "2008-06-28T15:37:49",
    "id": "52528",
    "avatar": {
      "small": {
        "permalink": "https://disqus.com/api/users/avatars/mkrigsman.jpg",
        "cache": "//a.disquscdn.com/uploads/users/5/2528/avatar32.jpg?1398255838"
      },
      "isCustom": true,
      "permalink": "https://disqus.com/api/users/avatars/mkrigsman.jpg",
      "cache": "//a.disquscdn.com/uploads/users/5/2528/avatar92.jpg?1398255838",
      "large": {
        "permalink": "https://disqus.com/api/users/avatars/mkrigsman.jpg",
        "cache": "//a.disquscdn.com/uploads/users/5/2528/avatar92.jpg?1398255838"
      }
    }
  }
}