{
  "comments": [
    {
      "threadId": "4602669035",
      "post": "I'm so glad you were able to access safe and compassionate care! It's unlikely that you caused the anencephaly even though you were partying.",
      "time": "2016-02-23T19:15:22",
      "id": "2531203046"
    },
    {
      "threadId": "3728125248",
      "post": "Thanks to those who have engaged respectfully in the comments. The content of the open letter is a collaboration between the signing organizations, and we are in full support of it. The comments on this post are now closed.",
      "time": "2015-05-02T01:57:53",
      "id": "1998821831"
    },
    {
      "threadId": "2888638453",
      "post": "But what was the grade on that essay?!",
      "time": "2014-07-31T15:27:57",
      "id": "1515972506"
    },
    {
      "threadId": "2700139547",
      "post": "I recommend lots of other great fat activism sites!\nhttp://itgetsfatter.tumblr.com/\nhttp://fatnutritionist.com/\nhttp://fiercefatties.com/\nOur Health at Every Size feature: http://shamelessmag.com/blog/entry/health-every-size\nand lots more!",
      "time": "2014-05-20T20:37:06",
      "id": "1396222804"
    },
    {
      "threadId": "2635540207",
      "post": "Thank you for sharing this.",
      "time": "2014-04-24T14:06:59",
      "id": "1353505423"
    },
    {
      "threadId": "2593287433",
      "post": "I am SUPER excited to try this!",
      "time": "2014-04-07T13:51:46",
      "id": "1322366479"
    },
    {
      "threadId": "2364877812",
      "post": "I'm so so so proud of us!",
      "time": "2014-03-07T13:53:01",
      "id": "1274987190"
    },
    {
      "threadId": "1915044347",
      "post": "We're aiming for two weeks from now - thanks!",
      "time": "2013-12-03T20:49:43",
      "id": "1149335026",
      "parentPost": "I appreciated this. When can we expect part 2?",
      "parentPostTime": "2013-12-01T05:26:28",
      "parentPostId": "1145921787"
    },
    {
      "threadId": "1941544974",
      "post": "Also, This Cake is for the Party (Sarah Selecky), same year.",
      "time": "2013-11-07T20:19:05",
      "id": "1112986922",
      "parentPost": "Wasn't Alexander MacLeod's short story collection (Light Lifting) shortlisted in 2010, post-Lam?",
      "parentPostTime": "2013-11-06T14:19:37",
      "parentPostId": "1111066669"
    },
    {
      "threadId": "1821896466",
      "post": "Thank you for this comment! This is important.",
      "time": "2013-10-17T19:08:40",
      "id": "1086172799",
      "parentPost": "Other than that little teeny tiny thing tho your article is awesome.",
      "parentPostTime": "2013-10-17T19:07:48",
      "parentPostId": "1086171732"
    },
    {
      "threadId": "1802838221",
      "post": "I feel so lucky to be part of this amazing team!",
      "time": "2013-09-27T18:06:27",
      "id": "1061533622"
    },
    {
      "threadId": "1745492614",
      "post": "I'm sorry to report that the organizers have said the building is not accessible. They want me to pass on their apologies. I'm going to put a note in this blog post as well.",
      "time": "2013-09-24T15:07:09",
      "id": "1057171737",
      "parentPost": "is this venue handicapped accessible?",
      "parentPostTime": "2013-09-24T02:26:59",
      "parentPostId": "1056640483"
    },
    {
      "threadId": "1709869032",
      "post": "Regarding \"Same Love\" as a positive example of challenging oppression rather than reinforcing it: yes, but Macklemore's positions of privilege (straight, white dude) temper that somewhat for me. He risks a lot less by speaking out than others do.",
      "time": "2013-09-04T15:28:42",
      "id": "1029655249"
    },
    {
      "threadId": "1454817370",
      "post": "You're being disingenuous. Oppression is only possible when someone is marginalized. It isn't possible for Western society to be oppressed or appropriated.",
      "time": "2013-08-12T15:37:31",
      "id": "997561908",
      "parentPost": "Though I respect you opinions on feelings on this subject. I hope you are not wearing a t-shirt and jeans because then you would be wearing \"Western\" type clothes . Since they are a symbol of  Western society and you wearing such a thing would greatly insult me. Because as you stated \"The wrongful attitude that believes that it is all fair and okay to wear parts of people’s cultures\".... Lets build walls instead of bridges huh???? You are a great star of reason and logic.",
      "parentPostTime": "2013-08-12T15:35:33",
      "parentPostId": "997560026"
    },
    {
      "threadId": "1530639544",
      "post": "The Employments Standards Act is an Ontario act. Each province has different regulations, but most of this article is referencing Ontario law.",
      "time": "2013-07-25T17:24:03",
      "id": "976100897",
      "parentPost": "Any chance you know if laws are similar in Canada before I start digging around?",
      "parentPostTime": "2013-07-25T17:18:59",
      "parentPostId": "976091411"
    },
    {
      "threadId": "1467162026",
      "post": "I had my first truly negative experience in a yoga class about a month ago. I wasn't doing a particular pose to its full extent because it was hurting; the instructor came over to assist me and I told her that I had a history of piriformis issues and that it was acting up. She looked at me incredulously and then said \"here, I'll help you\" and lifted my leg higher. It hurt a lot and I asked to get out of the pose and she took her time taking me down, then said \"see, I knew you could get into that pose!\" \nShe also said some things I found really oppressive and problematic during the final meditation, which didn't help my opinion of her.\nThis was an instructor I'd never had before. I think she sized me up as a fat woman who was probably new to yoga (I'm not) and who had a confidence problem (hardly) and was making excuses for my body (um, hello, diagnosed piriformis syndrome!).\nI've attended a couple of classes since that incident but haven't been able to get \"into\" it as much as usual, and I think I'm still feeling residual fear/trauma from that class.",
      "time": "2013-07-09T12:20:09",
      "id": "956229153"
    },
    {
      "threadId": "1407513328",
      "post": "Thank you very much for pointing this out.",
      "time": "2013-06-24T22:56:00",
      "id": "940837625",
      "parentPost": "'and in 2006 David sent Hans to law school at Saint Augustine University of Tanzania in Mwanza.' I stopped reading the article here... did Hans not do anything to get there? This smacks of Western saviourism and therefore loses all credibility. I think this point could have been reworded to support David's good intentions while also recognizing what an accomplishment it was for Hans. The little nuances matter too...",
      "parentPostTime": "2013-06-24T22:54:26",
      "parentPostId": "940836474"
    },
    {
      "threadId": "1016881766",
      "post": "Thanks for the correction!",
      "time": "2013-04-07T20:00:03",
      "id": "855483589",
      "parentPost": "Hi, in the December 10th cell of the Timeline there is an error. The name of the Labrador city is not \"Goose Bay-Happy Valley\", But Happy Valley-Goose Bay. Feel free to delete this comment once it's fixed. Cheers!",
      "parentPostTime": "2013-04-06T21:44:15",
      "parentPostId": "854622761"
    },
    {
      "threadId": "1117794649",
      "post": "Thank you! It's been fixed.",
      "time": "2013-03-04T23:19:24",
      "id": "819341326",
      "parentPost": "I appreciate this story and the resources you provide. Just fyi, your first link is broken.",
      "parentPostTime": "2013-03-04T23:17:16",
      "parentPostId": "819339117"
    },
    {
      "threadId": "1053500696",
      "post": "Hello John, the number on the post is for the Forced Marriage Project, not Shameless Magazine. If you are interested in contacting them and are unable to reach them by phone, you may wish to try the email on the post. Shameless Magazine is not associated with this organization. You now have all the information you need and subsequent comments from you will be screened. Best wishes.",
      "time": "2013-01-31T22:27:06",
      "id": "785051585",
      "parentPost": "Hi Julia,I've been trying to call the number on your post @4162926912 and its not going,please can I have your correct phone number to reac you.I really want to work with your organisation to rise against violence against women.Check all my profiles this is really what I have been doing all my life.",
      "parentPostTime": "2013-01-31T22:23:31",
      "parentPostId": "785048272"
    },
    {
      "threadId": "1051586346",
      "post": "Really, really interesting and important. Thank you.",
      "time": "2013-01-29T20:25:00",
      "id": "782342428",
      "parentPost": "I read this article recently by Eve Tuck and K. Wayne Yang in which they argue (I think) that the concept of decolonization has a clear meaning which gets muddled and can become problematic when we use it metaphorically. To decolonize means to give the land back to Indigenous people. But sometimes we also try to use the word in other more metaphorical ways, and sometimes this can be a distraction from the base meaning. This is from the abstract:\n\n<blockquote>The easy adoption of decolonizing discourse by educational advocacy and scholarship, evidenced by the increasing number of calls to “decolonize our schools,” or use “decolonizing methods,” or, “decolonize student thinking”, turns decolonization into a metaphor...The metaphorization of decolonization makes possible a set of evasions, or “settler moves to innocence”, that problematically attempt to reconcile settler guilt and complicity, and rescue settler futurity.</blockquote>\n\n It's a very powerful read. You can find the whole article here: http://decolonization.org/index.php/des/article/view/18630",
      "parentPostTime": "2013-01-29T20:11:28",
      "parentPostId": "782332405"
    },
    {
      "threadId": "946510036",
      "post": "This is the first warning to commenters on this thread. Please keep your comments of a reasonable length -- if you'd like to write your own blog post, go ahead and do so anywhere you like. Please remember this blog has an anti-oppression and feminist mandate.",
      "time": "2012-11-27T20:11:55",
      "id": "720620179",
      "parentPost": "There is a very real and important difference between being passionate and being “rapey”. Most women are highly intuitively sensitive to the difference, even if many men—unfortunately—are not.\n \nWomen DO want to be pursued and wooed by a man, BUT they do NOT want to be pursued by just any man, and certainly not by a man who repulses them (your neighborhood rapist) rather than excites and intrigues them. Women want to be pursued passionately by a high-quality man whom they already find attractive, intriguing and yes, sometimes, maybe even a little intimidating (in a “he’s so talented/smart/witty/tall/handsome/powerful” kind of way, not in a “looks like a rapist” kind of way). \n \nThis is the reality of romantic passion that has got both men and women off for thousands of years, inspired the greatest literature and art that human civilization has produced, and will continue to viscerally drive human sexual interaction for a long time still, with or without feminist hand-wringing. \n \nIt depends on who the guy is and whether the woman finds him intriguing and attractive, because the woman ultimately wants to have the choice as to whether the man she gives herself to is a man whom she considers to be worthy of her. When a man thinks the woman feels this way about him but she doesn’t, and he pursues her, he is at best presumptuous and at worst a rapist. When a man thinks the woman feels this way about him and she does, and he pursues her, he is “passionate”, and his passionate persistence is rewarded. The problem is that it is sometimes difficult for a man to know which, and most men are too obtuse to take a hint (being as they are less skilled than women at reading body language, facial micro-expressions and social dynamics-- the actual skill-set behind so-called “women’s intuition” and the reason that women think they are being clear in signaling their intentions to men, while men have no idea and can’t understand why women think they’re supposed to be ‘mindreaders’). \n \nIt is all fine and well to write an armchair feminist critique about the fact that men often go out on a limb and act on presumption (which sometimes turns out to be misguided), but what in the real world could possibly serve as a realistic and practical alternative to this? Consider flirting.\n \nFlirting is essentially “consensual sexual harassment”; for both men AND women who presume to flirt, the thrill is in the risk that you might not be reciprocated and that you might overstep a line when\nyou have no idea where the other person’s lines are drawn. When a woman flirts with a man and a man flirts with a woman for the first time and both enjoy it, they are both taking the risk of INFERRING and hoping and believing that the other person is enjoying it as much as they are, but that is nonetheless an act of presumption on both their parts. Each is, strictly speaking, “denying the other’s agency” by presuming that the other wants to be teased and have their psychological, physical and interpersonal boundaries slightly but repeatedly “violated”. The other person might enjoy it when you cross a certain line with a mischievous grin or a sexy laugh, but who knows where the other person draws their line? In those first twenty minutes of flirting with a complete stranger, who knows if they are really enjoying it or if you are making them feel slightly uncomfortable? If men (and women too) didn’t take that risk, we wouldn’t be human, there would be no joy or magic in life, and there would only be about 7 lonely miserable people on the planet instead of 7 billion (only most of whom are lonely and miserable—so that’s a debatable improvement ;-). \n \nMoreover, it is important to realize (without discounting the role of conscious choice within all behavoiurs) that the underlying tendencies are not arbitrary. They are not randomly artificially\nconstructed-- although they may be encouraged and amplified in certain societal contexts—but rather they have their origins at least partly in our species’ evolutionary context. \n \nRational self-defeating thoughts are a worse evolutionary-reproductive handicap for a man than irrational self-confidence. The man who says to himself “She didn’t invite me up for coffee, she must not like me”, and then goes home alone and never talks to her again, dies alone and childless, his passive self-defeating DNA dying with him. The man who says to himself “She didn’t invite me up for coffee. Maybe she needs a second date to get to know me better and feel more comfortable with me. Let’s give it a few more trys before calling it quits”, thanks her for a lovely night, kisses her\non the cheek, goes home alone, calls her the next day and asks her out for a second date the next week. If she says ‘no’ that’s a small risk and little is lost (maybe his self-esteem is slightly bruised); if she says ‘yes’, he has likely won a reproductive opportunity he otherwise would not. \n \nThe courteous-courageous DNA lives for another generation and the persistent-but-respectful reproductive strategy wins again (when employed by a male who is already at least acceptably attractive enough). We are the descendants of men who pursued that second date. The men who went home and never talked to her again (because pursuing someone apparently uninterested would be “rape culture”) did not last very long in the gene pool.",
      "parentPostTime": "2012-11-27T19:51:55",
      "parentPostId": "720600109"
    },
    {
      "threadId": "886591391",
      "post": "You're deliberately misreading. The issue is having meaningful representation, not tokenization.",
      "time": "2012-11-27T01:09:50",
      "id": "719817413",
      "parentPost": "This is why we can't have people of color as characters, because a character having a Chinese name is racist, an Asian character being intelligent is racist, so people of color can't be flawed enough to be main characters or villains, it's objectification if they're the love interest, even breifly, and then if they're included to help along the plot, I guess they're a magical negro and that's incredibly racist, even in a show that has many black characters. Also, Star Trek the next generation literally has black face in it, and Whoppi Goldberg's immortal bartender is the racist bit? ",
      "parentPostTime": "2012-11-26T22:48:44",
      "parentPostId": "719735718"
    },
    {
      "threadId": "916221955",
      "post": "I think the word you're looking for is \"drivel.\" And this comment thread is now closed.",
      "time": "2012-11-21T02:35:15",
      "id": "715457635",
      "parentPost": "It's dribble like this that makes women seem frivolous and pathetic.",
      "parentPostTime": "2012-11-21T02:28:07",
      "parentPostId": "715453830"
    },
    {
      "threadId": "875072405",
      "post": "Please keep comments away from speculation about the writer's personal life.",
      "time": "2012-10-12T21:18:06",
      "id": "680207062",
      "parentPost": "Your stream-of-consciousness writing (or shall we say repressed thoughts from the show) was interesting in some ways, but also flawed in others.\n \n1) You make a distinction between pervasive ideologies that are conflated, but acknowledge that there is an overlapping feature of feminism, capitalism and colonialism (“My feminism is about deconstructing patriarchy… rests on broader structures, like colonialism, imperialism and capitalism”). Yet despite your nuanced thoughts, you still look upon capitalism and colonialism through the same Marxist lens (“power,” “patriarchy,” “rape doesn’t have anything to do with attraction…every bit to do with power”). \n \nHow much have you educated yourself about Eastern perspectives on the role of women? Are women in Hijabs subjugated? What about arranged marriages? How have you acknowledged the cultural expectations of women pre-Victorian era? \n \n2) You make an insightful remark that people “debate politics in very comfortable ways that still support dominant paradigms and violent and racist ideologies (i.e. talk about issues within a broken system without challenging the system itself),” but how much have you examined yourself (look upon previous paragraph)? \n \nI find the “survivor of sexual violence” very saddening, but interesting where there is a continuous pattern of self-involvement and cult of victimization by women, masked in academic and esoteric jargon. I’ve noticed this for many left-leaning women in their 20s who have been unfortunate victims of assault.\n \n3) May be a controversial point, but I’m going to say it.\n \nYou utter, “Many feminists of colour (who are also intelligent readers) have found these works personally irrelevant, because they don’t speak to our unique experiences of colonization and violence, and our unique experiences of sexuality and exoticism.”\n \nInteresting, but I would like to see how this impacts your view of interracial relationships? Like yourself, I know far too many radical, left-wing (former) graduate students who love debating these ideas in the Ivory Tower yet compartmentalize it when it comes to decision-making and their own behaviours of “Othering” (and yes, it happens all the time). I find it extremely fascinating that so many graduate students abhor the idea of Orientalism and Postcolonialism, yet articulate this narrow “multicultural” belief when it comes to dating and marriage selection – just don’t see too many women of colour Marxists in Grad School marrying ex-high school drop outs and now construction workers.\n \n4) “without the Is this Feminist? quiz-show segment at the end)”\n \nThis point just aggravated me. What is it with so many ‘feminists’ are condescending, cold-hearted responses (just like that airhead Sarah Nicole) when it comes to people, and particularly men, attempting to understand what women go through.\n \nIs Steve Paikin attempting to pigeonhole you? Perhaps. But at least he is trying to understand this concept, and convey it in the public sphere to his audience, rather than a overly abstract idea that the common person cannot understand.",
      "parentPostTime": "2012-10-12T21:06:33",
      "parentPostId": "680196795"
    },
    {
      "threadId": "861950932",
      "post": "Hi! They haven't produced copies, but they are happy to print and send copies to anyone interested. Please email outreach@metrac.org!",
      "time": "2012-10-03T15:11:52",
      "id": "669631354",
      "parentPost": "Do you know where the first of the series can be located?",
      "parentPostTime": "2012-10-03T03:31:49",
      "parentPostId": "669311096"
    },
    {
      "threadId": "851918677",
      "post": "This is so interesting to me. On the one hand – heck yeah, I read YA books (ravenously), wear sparkly nail polish and love bubblegum-pop music. (I just bought the new Carly Rae Jepsen album, for goodness' sake.) On the other hand, I don't much like the word \"girl\" applied to grown women, particularly in contexts where it seems to minimize the intelligence and maturity of women – so I understanding objecting to calling women girls. It would be great if we could get rid of the infantilizing way we talk about women who enjoy \"girly\" things!",
      "time": "2012-09-20T14:06:03",
      "id": "656643242"
    },
    {
      "threadId": "776693178",
      "post": "I'm a spinner – that's indoor cycling – and I am currently in the process of becoming certified to teach it. I'm also fat, and am by far the fattest person in my teacher training course, and one of the fattest at the spin studio. And it's all good! It's a wonderful environment, and while of course there are people there who have weight-loss goals, it's not assumed or expected, and I've only had one comment made about my body (it was a \"you've lost a ton of weight! Good job!\" when I absolutely had not, and it was awkward but definitely not ill-intentioned). Anyway, all that to say: I adore spinning, I love feeling myself getting stronger when I cycle more often, I LOVE how my hunger cues are enhanced when I spin more often (food tastes SO good when I'm really hungry for it!), and I love being part of a supportive fitness community.",
      "time": "2012-07-23T17:10:36",
      "id": "595497310"
    },
    {
      "threadId": "773166732",
      "post": "He's too young to be a Columbine survivor. I'm 28 and I was in 9th grade when that happened.",
      "time": "2012-07-20T13:38:16",
      "id": "593175963",
      "parentPost": "My first, immediate, thought when I heard where this took place was to wonder if he was a survivor of the Columbine shooting. I have no doubt whatsoever that even if he wasn't even living in the area at the time, that'll be dragged into this and waved around like a flag. ",
      "parentPostTime": "2012-07-20T13:26:28",
      "parentPostId": "593164789"
    },
    {
      "threadId": "770487852",
      "post": "1. Super Mario World\n2. Super Mario Bros 3\n3. Super Marios Bros 2\n4. Super Mario Kart\n5. Claymates",
      "time": "2012-07-18T17:56:05",
      "id": "591233002"
    },
    {
      "threadId": "762192924",
      "post": "Comments for this post are now closed. Examples of rape jokes, whether or not they're meant to show how other comedians are equally guilty of doing what Tosh has done, are inappropriate here.",
      "time": "2012-07-13T12:15:52",
      "id": "586821822"
    },
    {
      "threadId": "708569476",
      "post": "Hi!\n\nI wrote to the address to inquire and got a nice reply back that suggests you might want to try again. It is working just fine. Good luck!",
      "time": "2012-07-05T12:27:49",
      "id": "576808166",
      "parentPost": "the email writenowhalifax@gmail.com does not work.  please advise",
      "parentPostTime": "2012-07-05T00:01:18",
      "parentPostId": "576521721"
    },
    {
      "threadId": "740357816",
      "post": "Black pepper! :)",
      "time": "2012-06-26T19:41:25",
      "id": "567844180"
    },
    {
      "threadId": "734708795",
      "post": "I LOVE this dress, and I LOVE you in it!! Amazing job!",
      "time": "2012-06-21T01:11:56",
      "id": "563263320"
    },
    {
      "threadId": "710734998",
      "post": "I'd like to add my name to this statement in solidarity with striking students.\n\nJulia Horel",
      "time": "2012-06-01T14:20:05",
      "id": "544976175"
    },
    {
      "threadId": "703330177",
      "post": "Summer sale - til the end of summer or while supplies last! Clearance sale!",
      "time": "2012-05-26T00:41:49",
      "id": "538774254",
      "parentPost": "AWESOME! How long will this sale last?",
      "parentPostTime": "2012-05-25T21:22:42",
      "parentPostId": "538692048"
    },
    {
      "threadId": "700961279",
      "post": "Diva Cup 4ever.\nBefore that (it's been five years!), I was an OB girl. I never got the hang of applicator tampons and would actually remove them from the applicator if forced to use a different brand.",
      "time": "2012-05-23T16:29:35",
      "id": "536665670"
    },
    {
      "threadId": "651804031",
      "post": "This was my parents' wedding song. :)",
      "time": "2012-04-16T19:00:50",
      "id": "499116219"
    },
    {
      "threadId": "593704690",
      "post": "I'm sorry, I've had no response yet. I will let you know if I do get one.",
      "time": "2012-03-17T01:11:41",
      "id": "467422970",
      "parentPost": "Is real time captioning (CART) provided for people with hearing loss?  The majority of us do not use sign language as primary communication.  ",
      "parentPostTime": "2012-03-16T19:42:58",
      "parentPostId": "467211297"
    },
    {
      "threadId": "609870163",
      "post": "Thank you so much for letting us know. We had incorrect information given to us by the venue and we sincerely apologize for not having confirmed it. We're working on updating the poster ASAP and are changing the text of this post and of our Facebook event right now.",
      "time": "2012-03-16T15:49:42",
      "id": "467013352",
      "parentPost": "Your launch is a worthy thing, however - if a building has no accessible washrooms, then it is NOT an accessible event and should be noted as such.  Or at the very least be honest about the lack of bathrooms.  This omission is very hurtful to those of us who are disabled.  As a disabled woman, I would like to be able to take the word of event organizers, when they say their event is accessible. Put yourselves in the shoes of someone in a chair/using a mobility device who discovers part way through an event (especially one they pay for) that they have to go home or leave the event when they need the bathroom.  Please update your poster.",
      "parentPostTime": "2012-03-16T14:30:05",
      "parentPostId": "466946087"
    },
    {
      "threadId": "600882468",
      "post": "If the post were criticizing the photographer or her project, I would agree with calls to add clarification at the beginning of the post. Since it is not, but is being persistently read that way, we're going to close comments here.",
      "time": "2012-03-15T14:50:29",
      "id": "466026439"
    },
    {
      "threadId": "586798836",
      "post": "Excellent, thank you! Change made.",
      "time": "2012-02-29T15:05:59",
      "id": "452378570",
      "parentPost": "Hi! The top link can now be updated to:\nhttp://cassa.on.ca/racismfreeontario/projects/racism-free-ontario-forum/  from events. ",
      "parentPostTime": "2012-02-28T03:35:49",
      "parentPostId": "450516306"
    },
    {
      "threadId": "592459272",
      "post": "Thank you so much for this. My head is bursting with everything you have pointed out that I didn't realize before.",
      "time": "2012-02-29T02:32:12",
      "id": "451835862"
    },
    {
      "threadId": "590001916",
      "post": "That's the one that gets me! Every time!",
      "time": "2012-02-28T19:16:59",
      "id": "451490841",
      "parentPost": "",
      "parentPostTime": "2012-02-28T04:07:54",
      "parentPostId": "450537280"
    },
    {
      "threadId": "587877228",
      "post": "Great idea! Added, thanks!",
      "time": "2012-02-27T18:50:30",
      "id": "450105664",
      "parentPost": "Hey! It'd be great if there was link to Shadeism/Shit White People say videos in this blog post ",
      "parentPostTime": "2012-02-27T18:46:30",
      "parentPostId": "450102367"
    },
    {
      "threadId": "587845798",
      "post": "I know Peggy! (She has since moved to my city.) One degree of separation!",
      "time": "2012-02-25T05:20:51",
      "id": "448454360"
    },
    {
      "threadId": "584604335",
      "post": "You look so gorgeous and happy in the sweaty photo with your husband!",
      "time": "2012-02-22T18:42:07",
      "id": "446107625"
    },
    {
      "threadId": "577232844",
      "post": "Thanks, Amna. You can always send corrections to me and I will fix them in the text. The change has been made.",
      "time": "2012-02-16T20:39:57",
      "id": "441228039",
      "parentPost": "Just to be specific, the representative said that \"sex\" has been marked with negative connotations due to colonization. To my understanding, there is debate as to whether sex-work, as we know it today, existed in native cultures.",
      "parentPostTime": "2012-02-16T20:30:52",
      "parentPostId": "441217935"
    },
    {
      "threadId": "505764285",
      "post": "Thanks so much to everyone for the great discussion on this piece. Please remember that our comment policy disallows personal attacks. The comments are now closed.",
      "time": "2012-02-07T20:39:22",
      "id": "432264244"
    },
    {
      "threadId": "532867445",
      "post": "Oh, UGH, Todd Bertuzzi. I'm a Red Wings fan, and it pained/pains me that we picked him up as a player when he was allowed back into the league.",
      "time": "2012-01-20T04:25:55",
      "id": "415962474",
      "parentPost": "",
      "parentPostTime": "2012-01-20T04:13:19",
      "parentPostId": "415951807"
    },
    {
      "threadId": "536722357",
      "post": "IHTM, too, but I was in high school. We joked about me \"turning him\" and being his \"last-ditch effort,\" but I still don't find it funny.",
      "time": "2012-01-19T15:00:02",
      "id": "415351192"
    },
    {
      "threadId": "544298451",
      "post": "2! 2! Definitely 2!",
      "time": "2012-01-18T20:10:12",
      "id": "414650210"
    },
    {
      "threadId": "543138517",
      "post": "\"When I was larger, something \"fitting\" meant that it zipped or closed.\"\n\nCome on, Emily. Those of us who wear plus-sized clothing are allowed to have higher standards than that when deciding what looks good on our bodies.",
      "time": "2012-01-18T16:38:52",
      "id": "414466577"
    },
    {
      "threadId": "542963184",
      "post": "I'm with you til the Superbowl, where, as a Pats fan, I must cheer against you.\n\n(I totally understand the emotion and elation and all of it! For me it's usually related to international hockey - Canadian - or Olympic sports, but THIS football game was one for the ages.)",
      "time": "2012-01-18T16:25:13",
      "id": "414457111"
    },
    {
      "threadId": "535442898",
      "post": "It's 57% sure that the feminist blog for teens I manage is written by a man. Heh.",
      "time": "2012-01-12T02:29:53",
      "id": "408314003"
    },
    {
      "threadId": "533089291",
      "post": "Me too. I was a total piece of shit in middle school.",
      "time": "2012-01-10T17:06:00",
      "id": "407218666",
      "parentPost": "I was pretty awful in HS, but so much worse in middle school. I was so mean and heartless and really had no understanding that you could not treat people like that or what it felt like to them. Once I got to HS I got a taste of my own medicine (from cruel teenage boys) and luckily mellowed out and never treated people like that again.",
      "parentPostTime": "2012-01-10T16:48:55",
      "parentPostId": "407207293"
    },
    {
      "threadId": "528320873",
      "post": "Chunky Greek salad with pita and tzatziki. :)",
      "time": "2012-01-06T00:42:30",
      "id": "401870193"
    },
    {
      "threadId": "513324763",
      "post": "Totally. I used Demosthenes as an online alias for a short while, then found there were others, so I switched to Virlomi and used it for a number of years. (semi-spoiler-hint alert) I was so disappointed in Virlomi's actions in the later Shadow books.",
      "time": "2011-12-23T03:21:12",
      "id": "392770073",
      "parentPost": "Ramona Quimby.  I wanted that name SO badly as a kid.\n\nI also like Quara and Valentine, both from the Ender series.  Orson Scott Card is an ass in lots of ways, but the names he chooses are appealing to me.",
      "parentPostTime": "2011-12-23T02:41:21",
      "parentPostId": "392753742"
    },
    {
      "threadId": "512209682",
      "post": "Montreal-style bagel (the dense, chewy kind) topped with interesting cheeses (my favourites are spiced gouda, extra-old white cheddar, and anything with jalapeno in it), and earl grey tea.",
      "time": "2011-12-22T02:30:43",
      "id": "391940684"
    },
    {
      "threadId": "511947519",
      "post": "So awesome!",
      "time": "2011-12-22T01:50:35",
      "id": "391923056",
      "parentPost": "i made this one year! i think it should still be available for download: http://monologuesduvagin.tumblr.com/post/423588804/mix-i-made-for-the-vagina-monologues-before-and",
      "parentPostTime": "2011-12-21T20:53:40",
      "parentPostId": "391729682"
    },
    {
      "threadId": "510691819",
      "post": "\"Don't be insecure if your heart is pure!\"\n<3",
      "time": "2011-12-20T19:20:54",
      "id": "390858840",
      "parentPost": "\n\nMusic in 2011: I’ll say it – I love Lady Gaga’s “Born this\nWay” album. There is a lot of debate about what kind of feminist, anti-racist\nor queer ally she/this album is or isn’t. But I find a lot of things\ninteresting and compelling about this album, and personally identify with a lot\nof the emotions, themes and unapologetic fierceness that I hear/feel. \n\n\n \n\n\nI had the song ‘Bad Kids’ on repeat this morning. This is\ntotally my ‘youth anthem.’ She takes so many words and images that are often used\nto shame and disempower young people and throws them back in your face. And I\nwish I heard this phrase a lot more when I was growing up: “You’re still good\nto me if you’re a bad kid baby”\n\n\n \n\n\nhttp://www.youtube.com/watch?v=lxhjHz9FYQE&ob=av2e  \n\n\n",
      "parentPostTime": "2011-12-20T19:18:38",
      "parentPostId": "390857314"
    },
    {
      "threadId": "506926515",
      "post": "I've had a brutal week: worked at home for half of it due to a terrible cold (I feel very grateful that I am able to work from home when needed, but also annoyed that there was so much work to do that I HAD to work rather than rest), plus a bad work situation (not directly involving me, but involving a colleague's personal life) that has has had everyone upset. Tonight I'm making cookies for the Hanukkah party I'm hosting tomorrow, and having a drink. Or two. Or a few.\n\nI'll start with a vodka and cranberry, please.",
      "time": "2011-12-17T01:18:51",
      "id": "388394309"
    },
    {
      "threadId": "486364946",
      "post": "Do you have something to add to the discussion?",
      "time": "2011-12-13T23:52:21",
      "id": "385994962",
      "parentPost": "settle down\n",
      "parentPostTime": "2011-12-13T23:46:02",
      "parentPostId": "385990904"
    },
    {
      "threadId": "499077858",
      "post": "I read this to my husband and he asked \"did she make the team?\"",
      "time": "2011-12-12T17:37:42",
      "id": "384982649",
      "parentPost": "I was judging cheerleading tryouts when a girl did a high kick and her tampon fell out onto the floor!",
      "parentPostTime": "2011-12-10T05:05:19",
      "parentPostId": "383300318"
    },
    {
      "threadId": "494206197",
      "post": "I relate to this!! I'm in Toronto and I had the window open last night in 1C weather, but only because I was home alone. My husband starts shivering and huddling under blankets when I get the temperature right in our apartment. :P",
      "time": "2011-12-07T16:31:25",
      "id": "381295364",
      "parentPost": "I love cold weather...LOVE. I am ready to move to the coldest part in Canada and stay there year round. I can't stand the heat, if it gets above 10 degrees I start flipping out. \n\nWhen I was younger I would wear flip flops well into December but now I have to look put together and flip flops do not always achieve that. \n\nI do not sweat a lot but I over heat all the time. Here in Montreal the buses, and metros have no air conditioning and I swear some keep the heat on year round. In the summer I hardly ever take public transit because of the stank and the heat. \n\nRight now it's 1 Celsius and the balcony door is WIDE open...until the husband gets home :P ",
      "parentPostTime": "2011-12-06T21:59:12",
      "parentPostId": "380611766"
    },
    {
      "threadId": "495445089",
      "post": "From rabble.ca last year: First Mourn, then Organize. http://rabble.ca/blogs/bloggers/judes/2010/12/first-mourn-then-organize-21-years-montreal-massacre",
      "time": "2011-12-06T20:02:45",
      "id": "380530126"
    },
    {
      "threadId": "479453382",
      "post": "Okay, we're done here.",
      "time": "2011-11-29T19:12:42",
      "id": "375186796",
      "parentPost": "I do not think there is racism in this video nor was it in anyway Florences intention. It is just the portrayal of dark against light, evil against good. I truly doubt the underlying message is \"black people are evil, white are good, white power\". Darkness happens to be dark therefore if you want to represent it by a person, they ought to be in dark colours, here it was his skin. People should truly stop hanging on to details, its like we cant say anything any more. Ba ba black sheep is also apparently racist. The sheep is black. end of. and rainbow sheep just sounds plain stupid. This is ridiculous. Florence Welch is not a racist. Nor is her video. pffff. Btw, Im black. ",
      "parentPostTime": "2011-11-29T19:10:56",
      "parentPostId": "375185772"
    },
    {
      "threadId": "485536074",
      "post": "I can't get enough of Jessie J's \"Domino\" lately. :)",
      "time": "2011-11-27T20:17:36",
      "id": "373761989"
    },
    {
      "threadId": "633238079",
      "post": "I was definitely thinking cheese!",
      "time": "2011-11-23T00:13:47",
      "id": "370449232",
      "parentPost": "Cheese. And no, I don't mean Easy Cheese, I mean like actual cheese! I'd love a spray can of Parmesan I could keep in the fridge to spritz on my spaghetti.",
      "parentPostTime": "2011-11-23T00:11:50",
      "parentPostId": "370448344"
    },
    {
      "threadId": "479462698",
      "post": "At the Shameless blog: Florence + the Machine's new video is really, really racist. http://shamelessmag.com/blog/2011/11/pop-culture-wake-up-call-you-can-call-it-art-but-/",
      "time": "2011-11-21T17:41:23",
      "id": "369481334"
    },
    {
      "threadId": "474451430",
      "post": "Salads! All kinds of salads!",
      "time": "2011-11-17T03:58:39",
      "id": "365714375"
    },
    {
      "threadId": "465735403",
      "post": "My friend's cat is named Peter Mansbridge. Canadians who watch CBC News will get the reference.",
      "time": "2011-11-09T14:00:39",
      "id": "359141187"
    },
    {
      "threadId": "454859001",
      "post": "That I like my body and I weigh 100 lbs more than the \"maximum weight\" I set for myself in my dieting days. Not that I like my body in spite of that. That I like my body, full stop, and I'm also fat. :)",
      "time": "2011-10-28T13:25:20",
      "id": "348196105"
    },
    {
      "threadId": "447209673",
      "post": "The Handmaid's Tale by Margaret Atwood, which is also my favourite novel, full-stop.",
      "time": "2011-10-19T04:46:54",
      "id": "338891328"
    },
    {
      "threadId": "441473562",
      "post": "I had a two-year long-distance relationship with a guy I met at summer camp when I was 14 and he was 15. We spent every second of the summers together and talked on the phone for a couple of hours every Sunday during the year. He always called me because his parents had free long-distance calling. Suddenly he just stopped calling ... I gave it a couple of months because I was convinced he would call soon, before buying a calling card and calling him. He awkwardly told me he hadn't talked to anyone from camp in a while and was really busy ... poor 16-year-old me.",
      "time": "2011-10-13T17:29:13",
      "id": "333731150"
    },
    {
      "threadId": "438868858",
      "post": "Sorry!!",
      "time": "2011-10-10T16:30:13",
      "id": "331010425",
      "parentPost": "this was a reply to AnnaBlake, but apparently firefox hates xojane. or the other way around.\n\nyou missed a big point. incidence of cervical cancer is more likely to be related to not getting annual screenings (and therefore not catching cervical cancer while it is treatable and easy) rather than being related to being a big fattie fatfat. \n\nhe was shaming in that he IGNORED history of ED. he shamed in not letting jess answer the damn questions he posed.",
      "parentPostTime": "2011-10-10T16:09:09",
      "parentPostId": "330998528"
    },
    {
      "threadId": "433316822",
      "post": "A loaf of crusty bread and some nice cheese. And some olives if I have enough money left over. :)",
      "time": "2011-10-04T01:14:37",
      "id": "326004306"
    },
    {
      "threadId": "430409844",
      "post": "Has anyone come across commentary on the appropriation/erasure of using the term \"occupy\" in terms of Indigenous Sovereignty (as it's known in Canada, I'm not sure if terminology is similar in the USA)? I've only heard this from personal friends who identify as Aboriginal/Native activists, but I think the point deserves to be heard. The argument is that North America is already occupied Indigenous land and that using the language of occupation erases that.",
      "time": "2011-09-30T15:56:09",
      "id": "323870297"
    },
    {
      "threadId": "429907904",
      "post": "Mr. HOB has pointed out that I stick my tongue out when I'm concentrating hard on something. Apparently it's cute. :)",
      "time": "2011-09-30T00:32:32",
      "id": "323348379"
    },
    {
      "threadId": "421980932",
      "post": "That I love and am loved.",
      "time": "2011-09-22T00:54:04",
      "id": "317062134"
    },
    {
      "threadId": "420787587",
      "post": "Definitely chlorine. I was a competitive swimmer for 12 years, and my skin always smelled like it.",
      "time": "2011-09-21T17:30:54",
      "id": "316790081"
    },
    {
      "threadId": "419685271",
      "post": "I had two swim coaches who were willing to work with me and push me to be my best, even though I was not a talented swimmer and would never compete at a high level. They didn't ignore me for more talented athletes, because I was willing to work hard, and they helped me to contribute spirit and leadership to my teams. I really credit a lot of the positivity of my high school and university experiences to them.\n\nI currently take spinning and yoga classes at a local studio, and one instructor in particular inspires me, is always happy to see me, and respects my efforts and improvements, all while completely ignoring (as I do) the fact that I'm one of the fattest clients there and have not lost any weight in the year since I've been training there. I love her. :)",
      "time": "2011-09-20T00:42:39",
      "id": "315329981"
    },
    {
      "threadId": "398306699",
      "post": "This is a great song! Thanks for the selection!",
      "time": "2011-08-28T22:31:43",
      "id": "297364068"
    },
    {
      "threadId": "393956160",
      "post": "The chalk memorial at Toronto City Hall had expanded by 8:45am this morning to cover a huge portion of the pavement. I wanted to bike over there and spend my lunch hour there, but now it's raining and a lot of the messages are washing away.\n\nThe sky is crying ...\n\n(Here's a photo of the chalk memorial this morning.) http://twitpic.com/6aljmj",
      "time": "2011-08-24T15:08:00",
      "id": "294425669"
    },
    {
      "threadId": "392943600",
      "post": "I was at the commemoration at City Hall. I tweeted a few pictures and some live-happenings  @julialikesbooks:twitter  . ",
      "time": "2011-08-22T23:23:13",
      "id": "293324980"
    },
    {
      "threadId": "387014046",
      "post": "Posing proudly in my new swimsuit on the beach (purchased from a great new plus-size boutique in Toronto :)).",
      "time": "2011-08-16T01:13:19",
      "id": "287613288"
    },
    {
      "threadId": "633278185",
      "post": "<a href=\"http://maemartin.ca/\">Mae Martin</a>! She's based in Canada and the UK, and she's hilarious. Her comedy is self-deprecating and speaks to shared experiences.",
      "time": "2011-08-08T23:49:01",
      "id": "280826512"
    },
    {
      "threadId": "370208140",
      "post": "Thanks! Fixed!",
      "time": "2011-07-29T01:34:17",
      "id": "268200967",
      "parentPost": "August 7 is Sunday. (JPG poster is okay, article text is contradictory)\n\nI hope I can drop by.",
      "parentPostTime": "2011-07-29T01:32:54",
      "parentPostId": "268200157"
    },
    {
      "threadId": "370074784",
      "post": "Obvious trolls obviously deleted. :)",
      "time": "2011-07-28T18:59:44",
      "id": "267931505"
    },
    {
      "threadId": "370118818",
      "post": "I wrote about how progressives should know better than to mix fat jokes into their critiques of Toronto mayor Rob Ford. http://shamelessmag.com/blog/2011/07/fatness-and-rob-ford/",
      "time": "2011-07-28T00:30:35",
      "id": "267037636"
    },
    {
      "threadId": "362715399",
      "post": "Sorry, the YWLT asked us not to allow comments on their letter. But we'll be posting Shameless thoughts and experiences after a debrief this weekend and will totally welcome questions and discussion.",
      "time": "2011-07-21T21:01:45",
      "id": "259936997",
      "parentPost": "I wish comments were open on the other post about Women's Worlds. I didn't get to go and didn't even know about it, and considering I'm a pretty privileged, connected, young feminist, I still didn't know. Is it that these big international feministy things are just off my radar. that being said, when i heard so many people i know from the young feministy world I was sad i couldn't be there, but after looking at their website it was so apparent that this was going be another one of those captial F feminist things. Nice to hear the criticisms (like with rebelles 2008), wonder if young feminists who participated felt inspired or fueled by the movement or anything like that. XO",
      "parentPostTime": "2011-07-21T20:51:48",
      "parentPostId": "259930998"
    },
    {
      "threadId": "361894278",
      "post": "I have Heavy Metal Lover on repeat repeat repeat constantly!",
      "time": "2011-07-18T23:51:11",
      "id": "256650613",
      "parentPost": "I'm totally stuck on Lady Gaga's <i>Born This Way</i> too. There's plenty of real gems on there that haven't been released as singles yet -- like Government Hooker (with samples of Obama and Kennedy!), Scheiße (some pretty explicit feminist messages there), Hair, You and I, Heavy Metal Lover, and Bloody Mary. The whole CD is really awesome darkish dance pop, the likes of which I haven't heard in a very long time.\n\nI also love Florence + the Machine's <i>Lungs</i>, even if the messages in the lyrics aren't as progressive and feminist as Lady Gaga's. It's still a really solid album.",
      "parentPostTime": "2011-07-18T23:45:09",
      "parentPostId": "256642250"
    },
    {
      "threadId": "355349128",
      "post": "It's the \"personal wellness\" part that gets me. I wasn't aware that ANY trimming, shaving or shaping at all was required for wellness!",
      "time": "2011-07-12T17:25:30",
      "id": "249463966",
      "parentPost": "huh! i hadn't heard of this anywhere else. if you go to the website it actually uses the phrase \"Women will spend the month of July exercising creativity and personal wellness by choosing a style for their hair down there  . . \" oh god, please tell me we're not back to the days of Down There! ps. i LIKE my bush, i don't see what's so '70's' about it. ",
      "parentPostTime": "2011-07-12T07:41:09",
      "parentPostId": "248743170"
    },
    {
      "threadId": "355540676",
      "post": "I'm @julialikesbooks:twitter . I mostly tweet about the Canadian book industry, feminism and fat acceptance. I also tweet for @ShamelessMag:twitter , a volunteer-run feminist magazine (and blog) for teen girls and trans youth. :)",
      "time": "2011-07-11T20:09:31",
      "id": "247917505"
    },
    {
      "threadId": "351128225",
      "post": "Openly disablist and offensive comments will be deleted. Obviously.",
      "time": "2011-07-06T17:42:25",
      "id": "244243682"
    },
    {
      "threadId": "343461833",
      "post": "Hi, Samantha! Thanks so much for your comment! While we completely agree\r\nthat \"lazy\" is a derogatory term, we want to be cautious about equating it\r\nwith other derogatory terms like racial slurs, which are truly systemic.\r\nRather, being called \"lazy\" is often in conjunction with other forms of\r\noppression, as Shaunta notes in her post.",
      "time": "2011-06-28T16:39:30",
      "id": "237014185",
      "parentPost": "I really agree with this article. \"Lazy\" is just a stereotypical term and we need to stop using it.  People may not think that this would be the equivalent of a racial slur, but it is.  Words hurt.  We all need to stop stereotyping and focus on being the best \"me\".",
      "parentPostTime": "2011-06-28T16:31:43",
      "parentPostId": "237010062"
    },
    {
      "threadId": "330703254",
      "post": "We will check into that asap! Thanks!",
      "time": "2011-06-14T13:07:30",
      "id": "225667293",
      "parentPost": "I tried to watch this video but discovered that it apparently has no captioning. I am deaf and cannot watch sound-based videos without captions.  Is there a captioned version of this somewhere? Or at least a transcript? Thanks.",
      "parentPostTime": "2011-06-14T13:04:44",
      "parentPostId": "225666304"
    },
    {
      "threadId": "330707826",
      "post": "Congratulations!!",
      "time": "2011-06-13T15:25:45",
      "id": "224804515"
    },
    {
      "threadId": "306057588",
      "post": " Thanks, KC! The post has been updated.",
      "time": "2011-05-17T15:32:46",
      "id": "205077947"
    },
    {
      "threadId": "258321379",
      "post": "Gah, more comment weirdness! Sorry, Shameless readers. Our webmaster is on the case. Again, please ignore comments obviously not intended for this post.",
      "time": "2011-04-21T14:41:49",
      "id": "188856441"
    },
    {
      "threadId": "633987542",
      "post": "Lifehouse - No Name Face (still my favourite album) and Linkin Park's Hybrid Theory.",
      "time": "2011-04-14T01:59:03",
      "id": "184136439"
    },
    {
      "threadId": "267112020",
      "post": "In activist spaces and at events. :)",
      "time": "2011-03-31T14:16:31",
      "id": "175523026"
    },
    {
      "threadId": "258393315",
      "post": "We've put the image under a cut. Thanks!",
      "time": "2011-03-29T20:06:49",
      "id": "174314956"
    },
    {
      "threadId": "263120555",
      "post": "Canada has only had 40 different Parliaments, so 6 non-confidence votes is actually quite a lot, I think!\n\nMy fear is that after all of this, we'll end up with yet ANOTHER Conservative minority government. Let's mobilize! Vote! Get the Conservatives out!\n\n(edited: I originally said 41 different Parliaments, but that was the 40th and this new one will be 41st after the election.)",
      "time": "2011-03-25T19:40:53",
      "id": "171874795"
    },
    {
      "threadId": "259533624",
      "post": "Maggie's, a Toronto-based organization by and for sex workers, has released a <a href=\"http://maggiestoronto.ca/press_releases\">statement</a> on Freeland's death and its coverage in the media.",
      "time": "2011-03-24T11:50:21",
      "id": "170840691"
    },
    {
      "threadId": "260680369",
      "post": "Oh, and Willy Wonka and the Chocolate Factory - the version with Gene Wilder, of course!",
      "time": "2011-03-23T01:00:09",
      "id": "169886758"
    },
    {
      "threadId": "260406565",
      "post": "And none of the other contestants ate dinner last night, \"naturally.\"",
      "time": "2011-03-22T17:11:55",
      "id": "169678135",
      "parentPost": "Thin people never celebrate personal successes by going out for a nice meal. This is a Fact, and also Science.",
      "parentPostTime": "2011-03-22T16:59:18",
      "parentPostId": "169670888"
    },
    {
      "threadId": "259586681",
      "post": "[TW for misogyny toward sex workers] Emma at <a href=\"http://shamelessmag.com/blog/2011/03/its-misogyny-monday/\">Shameless</a> on a couple of fails in the Canadian media today.",
      "time": "2011-03-21T17:25:51",
      "id": "169078896"
    },
    {
      "threadId": "257404850",
      "post": "Me too! I comment very occasionally, but my partner is a regular reader and had never commented, to my knowledge.",
      "time": "2011-03-18T17:07:24",
      "id": "167709887",
      "parentPost": "OK, I'm not a lurker but I live with one... does that count? ;-)",
      "parentPostTime": "2011-03-18T16:06:28",
      "parentPostId": "167676867"
    },
    {
      "threadId": "632072209",
      "post": "I would buy an album from Paul or Haley RIGHT NOW. Neither of them wowed the judges last night, but I love them.",
      "time": "2011-03-17T16:49:44",
      "id": "167205352"
    },
    {
      "threadId": "254039667",
      "post": "I like the song, too, despite myself!",
      "time": "2011-03-15T00:57:48",
      "id": "165841411",
      "parentPost": "I actually like the song but the lyrics are so corny and the metaphors are just stretched too thin.  A lot of Katy Perry's songs have very strange lyrics, but I still like about half of them.",
      "parentPostTime": "2011-03-15T00:50:08",
      "parentPostId": "165838812"
    },
    {
      "threadId": "250917462",
      "post": "At my childhood summer camp, specifically walking the grounds at night on my own or on the porch of a particular building that overlooks the lake.\n\nAlso: Toronto in general. I have lived here for almost three years now and I have never had a city/town I've lived in (I've lived in 8) feel like home the way this city does.",
      "time": "2011-03-11T01:28:32",
      "id": "163831296"
    },
    {
      "threadId": "244952396",
      "post": "DIETS.",
      "time": "2011-03-04T01:42:14",
      "id": "160130663"
    },
    {
      "threadId": "243232927",
      "post": "Countertop rotisserie!",
      "time": "2011-03-02T15:16:49",
      "id": "158995473"
    },
    {
      "threadId": "212509932",
      "post": "Swimming! There are other people at the pool, but I'm not swimming with them.",
      "time": "2011-01-20T17:22:01",
      "id": "131875677"
    },
    {
      "threadId": "211100886",
      "post": "I hate <i>Moby Dick.</i> Hundreds of pages of \"this is what life is like on a whaling boat\" and three chapters of plot.",
      "time": "2011-01-18T02:08:46",
      "id": "130289220"
    },
    {
      "threadId": "209308613",
      "post": "*head explodes*",
      "time": "2011-01-14T20:35:45",
      "id": "129179490"
    },
    {
      "threadId": "200225294",
      "post": "I resolve to record all the books I read this year so I can finally know how many I read, and be able to look back and pick a favourite book of 2011. ",
      "time": "2010-12-31T04:34:06",
      "id": "121390494"
    },
    {
      "threadId": "195421222",
      "post": "I came home after a swim to find the husband had cooked spaghetti and meat sauce and left me lots of leftovers. YAY! I made a quick chunky Greek salad to go with it and ate it all in about 5 seconds.",
      "time": "2010-12-22T03:00:42",
      "id": "116605807"
    },
    {
      "threadId": "192171141",
      "post": "I can't get away with finding diet talk triggering, because I didn't have a \"real\" eating disorder, just years of disordered eating and body dysmorphia. ",
      "time": "2010-12-16T16:57:05",
      "id": "112948775"
    },
    {
      "threadId": "191632808",
      "post": "I can't get away with occasionally saying \"screw dinner\" and eating a bag of Cheetos instead. Except that I sometimes do. But no one except my husband knows it, because I could never do it in front of anyone else.",
      "time": "2010-12-15T20:52:38",
      "id": "112414997"
    },
    {
      "threadId": "186693064",
      "post": "Mr Jones by the Counting Crows. \nFollowed by Alejandro by Lady Gaga and Breakfast at Tiffany's by Deep Blue Something.",
      "time": "2010-12-08T03:05:18",
      "id": "108520974"
    },
    {
      "threadId": "186043373",
      "post": "Why Do You Love Me? by Garbage\nand\nWhat's Up? by 4 Non Blondes",
      "time": "2010-12-07T02:14:20",
      "id": "108124280"
    },
    {
      "threadId": "177886326",
      "post": "I just had a peppermint white hot chocolate. It was TEH SEX.\n:D",
      "time": "2010-11-23T20:18:02",
      "id": "101354560",
      "parentPost": "Mm, yes, I've been doing the creme drinks at the 'bucks and they make me quite happy.\n\nAnd Bailey's in hot chocolate?? YOU GENIUS!",
      "parentPostTime": "2010-11-23T14:43:44",
      "parentPostId": "101161078"
    },
    {
      "threadId": "177733325",
      "post": "Emma Donoghue's <i>Room</i>.",
      "time": "2010-11-23T00:51:44",
      "id": "100982303"
    },
    {
      "threadId": "177734201",
      "post": "I'm very sorry for your loss.",
      "time": "2010-11-23T00:26:58",
      "id": "100967642"
    },
    {
      "threadId": "175736886",
      "post": "I think it's amazing. She's NINE. And she co-wrote it, I think. ",
      "time": "2010-11-19T16:37:27",
      "id": "99520963"
    },
    {
      "threadId": "175661906",
      "post": "Oh, Rainbow Valley is my favourite of the series!",
      "time": "2010-11-19T15:34:13",
      "id": "99473192",
      "parentPost": "unless it's something from one of the last two books (Rainbow Valley & Rilla of Ingleside), then it's not an Anne quote. i've read the first 4 until the covers came off, and the 5th at least 3 times. i couldn't get through Rainbow Valley and never started Rilla. sorry. but it does sound very anne-ish. L.M. Montgomery wrote a couple of other series. could it be one of those?",
      "parentPostTime": "2010-11-19T14:55:00",
      "parentPostId": "99457331"
    },
    {
      "threadId": "175363583",
      "post": "I just came back from a run! I'm just starting out trying to run a bit, and tonight was my first cold-weather outdoor run. ZOMG I love it! I was only out for half an hour and probably walked as much as I ran, but I feel wonderful.",
      "time": "2010-11-19T02:12:44",
      "id": "99210470"
    },
    {
      "threadId": "163412430",
      "post": "I wore my size 16 bikini all summer at our apartment pool. :)",
      "time": "2010-10-28T16:50:37",
      "id": "91189851"
    },
    {
      "threadId": "631131293",
      "post": "There was a woman on my varsity swim team who was fatter than the rest of us (today, I wouldn't call her fat, but I had a different perspective then). After she finished a race at a competition, she had trouble lifting herself out of the pool (maybe because, y'know, she'd just swum her heart out?) and we all laughed at her. Including me. I'll never quite forgive myself.",
      "time": "2010-10-27T15:14:38",
      "id": "90760122"
    },
    {
      "threadId": "159189266",
      "post": "Wearing it, tweeted and Facebooked it, and told my colleagues why I'm wearing it!",
      "time": "2010-10-20T15:03:33",
      "id": "88525324"
    },
    {
      "threadId": "149918373",
      "post": "Hi Shakers! Longtime reader, very occasional commenter. The husband has just left for the weekend for the first time in our (one-year) marriage, and it's weird being home alone - fun, though. I'm currently watching trashy TV and deciding whether I have the energy to go out in search of some candy.",
      "time": "2010-10-02T00:26:33",
      "id": "83231176"
    },
    {
      "threadId": "632837355",
      "post": "Antonia Zerbisias is awesome! She writes really great pro-choice stuff, too. :)",
      "time": "2010-09-28T00:54:17",
      "id": "81469839"
    },
    {
      "threadId": "146407768",
      "post": "We don't have any particular discomfort with menstruation during sex, but I'm scared of staining things. :) So we have sex in the shower!",
      "time": "2010-09-24T14:29:21",
      "id": "80553099",
      "parentPost": "Perla: I don't think it is weird at all.  I haven't read the masturbation thread but from my own experience and from working at a sex ed center, many people enjoy rubbing up against objects or others. Pillows and bedding can make excellent sex toys.\n\nI was wondering how other people have dealt with sex and menstruation.  I like to have sex when I'm menstruating but am not sure how to broach the subject with my partner.  My partner is a cis male and I get the feeling that he is not entirely comfortable with menstruation generally.  So I guess my question is two-fold.  How do people work with menstruation and sex and how do people help partners (or themselves) become comfortable with menstruation?  \n\n",
      "parentPostTime": "2010-09-24T14:23:46",
      "parentPostId": "80548825"
    },
    {
      "threadId": "141384462",
      "post": "Trix, but you can't get them in Canada anymore. :(\n\nBanana nut Muslix!",
      "time": "2010-09-14T16:03:38",
      "id": "77542913"
    },
    {
      "threadId": "134149911",
      "post": "I'm pretty interested in <a href=\"http://www.fluevog.com/code/?w[0]=gender:women&w[1]=attribute:Shoe&p=16&pp=1&view=detail&colourID=2734>these</a>. Oh! And <a href=\"http://www.zappos.com/me-too-stellina-royal-blue-satin\">these!</a>\nI love shoes and could easily buy dozens of pairs I'd love if I had the money. :)",
      "time": "2010-08-26T23:21:19",
      "id": "72493432"
    },
    {
      "threadId": "132791764",
      "post": "Yitzhak Rabin. I remember watching the news with my mom - it was the first current event I'd paid attention to. And it still resonates.",
      "time": "2010-08-24T15:50:16",
      "id": "70974895"
    },
    {
      "threadId": "128688494",
      "post": "CHEESE.\n\nOr anything crunchy and salty. Cheese flavour optional but appreciated.",
      "time": "2010-08-12T16:29:52",
      "id": "68207949"
    },
    {
      "threadId": "120641952",
      "post": "Dieting. Off and on for seven years. And the body hate that came with it.",
      "time": "2010-07-22T16:22:18",
      "id": "63735336"
    },
    {
      "threadId": "110714550",
      "post": "I am a good friend of Jessica Yee's and can't say enough things about how amazing she is. As an activist, as a person. I'm looking forward to your recaps! I didn't make it to the summit, although I did attend the Rally for Reproductive Justice that day. :)",
      "time": "2010-06-24T01:20:34",
      "id": "58343121"
    },
    {
      "threadId": "632968272",
      "post": "Peach! Specifically from Tim Horton's, though the bottled kind is not as good as the old fountain kind (Canadians may know what I'm talking about).",
      "time": "2010-06-24T01:17:54",
      "id": "58342795"
    },
    {
      "threadId": "110668496",
      "post": "My building in downtown Toronto was totally shaking! It was really cool.",
      "time": "2010-06-23T20:19:18",
      "id": "58304956"
    },
    {
      "threadId": "97650359",
      "post": "The first cassette tape I had (given as a gift) was Ace of Base's The Sign. The first CDs I bought for myself was Hootie and the Blowfish's Cracked Rear View and Grammy Nominees 1996!",
      "time": "2010-05-21T01:18:55",
      "id": "51309165"
    },
    {
      "threadId": "89980895",
      "post": "Similar to sunflwrmoonbeam: hardcore yo-yo dieter for years before deciding to give it up and love myself, work on HAES and openly advocate for fat acceptance.",
      "time": "2010-04-27T01:38:42",
      "id": "46845954"
    },
    {
      "threadId": "85906348",
      "post": "From my dad: \"Nice guys [people, of course] don't finish last.\"",
      "time": "2010-04-14T01:16:53",
      "id": "44676468"
    },
    {
      "threadId": "632920604",
      "post": "Thank you for your fabulous moderating in this thread, Melissa and CaitieCat.",
      "time": "2010-04-08T18:35:24",
      "id": "43900150"
    },
    {
      "threadId": "83568265",
      "post": "Carleigh, I think I love you.",
      "time": "2010-04-07T23:40:09",
      "id": "43754271"
    },
    {
      "threadId": "83203074",
      "post": "July 1, 2004, when my husband and I, then just starting to date, said \"I love you\" to one another for the first time. :)",
      "time": "2010-04-06T23:49:16",
      "id": "43559875"
    },
    {
      "threadId": "77924810",
      "post": "Just nommed a yummy pita pizza, and now just enjoying hearing the birds chirping through the open window.",
      "time": "2010-03-21T16:43:16",
      "id": "40774819"
    },
    {
      "threadId": "76140499",
      "post": "My given name is Julia, but I went by Julie all my life until I was 18 and decided I preferred Julia. Family and old friends still call me Julie. I really love Julia, and I hate when new people call me Julie – it's fine for people who have known me since childhood, but no one else.",
      "time": "2010-03-17T01:29:34",
      "id": "40126617"
    },
    {
      "threadId": "73354248",
      "post": "Blub! <3",
      "time": "2010-03-07T14:57:55",
      "id": "38426097"
    },
    {
      "threadId": "70429182",
      "post": "I smile whenever I see the monthly charge on my credit card. :)\r\nThank you so much for this space, community and classroom you maintain, Liss.",
      "time": "2010-02-27T02:22:22",
      "id": "37114705"
    },
    {
      "threadId": "70237626",
      "post": "I shook off the fat-is-bad mentality and gave up diets forever in October 2008. It's still not easy. I make a statement every day by being unwilling to apologize for my size.",
      "time": "2010-02-26T01:12:03",
      "id": "36738174"
    },
    {
      "threadId": "632321218",
      "post": "Rana, you're my hero. Your comment is PERFECT.",
      "time": "2010-02-10T02:30:23",
      "id": "33345082"
    },
    {
      "threadId": "59886471",
      "post": "Best: current job, my first job in my field: general manager for a literary publishing distribution collective.\r\n\r\nWorst: working in a chicken hatchery for a summer. I stood at a conveyor belt and divided newly-hatched chicks into male and female groups. And I started at 5am.",
      "time": "2010-01-20T02:30:34",
      "id": "30436104"
    },
    {
      "threadId": "58049202",
      "post": "Yitzhak Rabin's assassination. I was nine, and I remember watching the news on TV with my mother.",
      "time": "2010-01-13T02:41:57",
      "id": "29584319"
    },
    {
      "threadId": "53278963",
      "post": "Bekitty, I actually did get \"Help, I'm trapped in a fortune cookie factory!\" I was about ten. I was a little traumatized.",
      "time": "2009-12-22T01:28:47",
      "id": "26910028"
    },
    {
      "threadId": "52568700",
      "post": "Girlicious.",
      "time": "2009-12-18T03:39:05",
      "id": "26194742"
    },
    {
      "threadId": "52108726",
      "post": "Chunky Greek salad: grape tomatoes, chunks of cucumber, feta, and kalamata olives. Toss in garlic, olive oil, red wine vinegar, lots of organo and pepper. NOM.\r\nThen some alphabet-shaped pretzels, because I love them.",
      "time": "2009-12-16T03:12:16",
      "id": "25917874"
    },
    {
      "threadId": "50789582",
      "post": "((napalmnacey)), if you want them.",
      "time": "2009-12-10T01:11:55",
      "id": "25353148"
    },
    {
      "threadId": "50149659",
      "post": "Je me souviens. Merci.",
      "time": "2009-12-07T02:54:56",
      "id": "24976431"
    },
    {
      "threadId": "49863273",
      "post": "<i>(R-Elentlesslydouchy)</i>\r\n\r\nLOL!",
      "time": "2009-12-04T23:36:35",
      "id": "24843903"
    },
    {
      "threadId": "46744185",
      "post": "Bagel and cream cheese!",
      "time": "2009-11-20T02:09:41",
      "id": "23584490"
    },
    {
      "threadId": "45621383",
      "post": "Melissa, please don't apologize for not being present here 100% of the time. You're amazing, and thank you.",
      "time": "2009-11-15T03:09:32",
      "id": "23104087"
    },
    {
      "threadId": "632163585",
      "post": "Another hyphenator here, recently married. I'm happy with my decision so far.\r\nAs for kids, I think I'd like to give them my maiden name as an extra middle name.",
      "time": "2009-11-14T04:23:27",
      "id": "22967410"
    },
    {
      "threadId": "45159953",
      "post": "I'm blogging on size acceptance for a progressive Canadian magazine aimed at teenage girls.",
      "time": "2009-11-13T03:08:17",
      "id": "22873533"
    },
    {
      "threadId": "38281379",
      "post": "<i>TREIF!</i>\r\n\r\nPhira, that made me laugh a lot. :)",
      "time": "2009-10-08T01:37:49",
      "id": "19470099"
    },
    {
      "threadId": "37771322",
      "post": "Congrats! I saw the news coverage, and was amazed at how huge the crowd was in Toronto.",
      "time": "2009-10-05T01:08:32",
      "id": "18530209"
    },
    {
      "threadId": "37708840",
      "post": "That's a good idea. :) Abra, you can email me at shakerjules@gmail.com if you like!",
      "time": "2009-10-04T15:32:51",
      "id": "18476929"
    },
    {
      "threadId": "37065444",
      "post": "I never would have started a six-year cycle of yo-yo dieting.",
      "time": "2009-10-01T00:59:11",
      "id": "17901551"
    },
    {
      "threadId": "35638271",
      "post": "I hope I've made you proud.",
      "time": "2009-09-23T01:16:32",
      "id": "17155342"
    },
    {
      "threadId": "35449469",
      "post": "\"My Pet Monster.\" :D",
      "time": "2009-09-22T00:48:20",
      "id": "17071342"
    },
    {
      "threadId": "22335296",
      "post": "(((Carleigh)))\r\n\r\n[P.S. We still need to hang out sometime!]",
      "time": "2009-06-19T22:27:25",
      "id": "11485601"
    },
    {
      "threadId": "21448323",
      "post": "Already congratulated you on LJ, SugarLeigh, but another congrats!",
      "time": "2009-06-13T00:10:02",
      "id": "10821736"
    },
    {
      "threadId": "21412741",
      "post": "So much blub. Thank you for sharing this.",
      "time": "2009-06-12T20:16:41",
      "id": "10813494"
    },
    {
      "threadId": "21395585",
      "post": "I read an Advance Reader's Copy (ARC) of \"Lunch Lady and the Cyborg Substitute\" yesterday at work! (Maude bless my job at an independent bookstore.) It's very, very cool. She uses lunchroom implements (chicken nuggets, chili, spatulas) to fight crime. :D The illustrations are really cute, too.",
      "time": "2009-06-12T20:00:02",
      "id": "10812919"
    },
    {
      "threadId": "634009329",
      "post": "I blubbed.",
      "time": "2009-06-12T19:58:01",
      "id": "10812845"
    },
    {
      "threadId": "631276822",
      "post": "Over the past year as a mostly-lurker, Shakesville has taught and inspired me to be All In in my daily life. Thank you all so much.\r\n\r\nAll in.",
      "time": "2009-06-10T00:01:02",
      "id": "10674501"
    },
    {
      "threadId": "17060296",
      "post": "Captain Planet – YES!",
      "time": "2009-05-01T01:00:04",
      "id": "8882500"
    },
    {
      "threadId": "16952644",
      "post": "Major blub! Thanks so much for sharing.",
      "time": "2009-04-29T23:35:22",
      "id": "8836706"
    },
    {
      "threadId": "16606440",
      "post": "@rebeccad: ah! That's how you spell daiquiri!",
      "time": "2009-04-24T22:51:29",
      "id": "8669453"
    },
    {
      "threadId": "15988068",
      "post": "(((Liss))) for continuing to have to deal with this shit. And further hugs for the incredibly valuable work you do for all of us here.",
      "time": "2009-04-18T16:56:12",
      "id": "8332682"
    },
    {
      "threadId": "15947968",
      "post": "Passover ended tonight!! I ate a sub sandwich! BREADDDDDDDD! :D",
      "time": "2009-04-17T01:56:13",
      "id": "8280651"
    },
    {
      "threadId": "14478739",
      "post": "To accept my body the way it is, rather than trying to lose weight for the umpteenth time.",
      "time": "2009-03-27T02:26:50",
      "id": "7547648"
    },
    {
      "threadId": "14088086",
      "post": "Esme, so say we both over here too. And I full-out cried at one particular part (not going to post spoilers in case anyone is saving it to watch later), but you can probably guess the part. ",
      "time": "2009-03-21T03:33:32",
      "id": "7389801"
    },
    {
      "threadId": "10813677",
      "post": "Not much makes me happier than a yummy steak, and I'm a woman. Am I then a lesbian, or does this standard only apply to men?\r\n\r\nGreat post, bgk!",
      "time": "2009-01-30T17:12:59",
      "id": "5702472"
    },
    {
      "threadId": "632065336",
      "post": "All in. Wearing my new teaspoon earrings (thanks, Faith!) and All Fucking In, to the best of my ability.",
      "time": "2009-01-14T04:30:46",
      "id": "5106313"
    },
    {
      "threadId": "9061467",
      "post": "MamaDeb: exactly.",
      "time": "2008-12-29T18:16:08",
      "id": "4728213"
    },
    {
      "threadId": "7617919",
      "post": "I know it's totally pretentious (but hey, I have an English degree), but I kind of like Gertrude Stein. And I love Coleridge. :)",
      "time": "2008-11-27T01:07:58",
      "id": "4032835"
    },
    {
      "threadId": "7594615",
      "post": "Just READING \"final five\" spoiled me. I'm still catching up desperately, only at season 3. :(",
      "time": "2008-11-26T15:06:36",
      "id": "4024063"
    },
    {
      "threadId": "7592714",
      "post": "I've never seen the first or third intro before! I am very familiar with the second. :)",
      "time": "2008-11-26T15:00:57",
      "id": "4023985"
    },
    {
      "threadId": "7517550",
      "post": "Incertus: me too! Wii is killing my thesis.",
      "time": "2008-11-25T17:53:27",
      "id": "4008208"
    },
    {
      "threadId": "7361432",
      "post": "The guy in the background is totally not focusing on the slaughtering at hand. lol!",
      "time": "2008-11-21T16:46:01",
      "id": "3934799"
    },
    {
      "threadId": "7063353",
      "post": "Esme: has your pizza arrived yet? Was it worth the wait?",
      "time": "2008-11-15T04:41:27",
      "id": "3785719"
    },
    {
      "threadId": "634390622",
      "post": "Checked out the change to \"Palin as President\" site and full-out blubbed.\r\nYES.",
      "time": "2008-11-05T16:51:59",
      "id": "3553338"
    },
    {
      "threadId": "631146763",
      "post": "I'm loling my fat at this one. :)",
      "time": "2008-09-17T23:26:30",
      "id": "2409522"
    },
    {
      "threadId": "631003463",
      "post": "Deeky: touche! Love it.",
      "time": "2008-07-24T17:06:51",
      "id": "990270"
    },
    {
      "threadId": "1444536",
      "post": "I grind my teeth, and not just at night – I find myself tapping or gently grinding them together to some rhythm only I can hear, many times a day.",
      "time": "2008-06-27T00:59:01",
      "id": "758713"
    },
    {
      "threadId": "1425091",
      "post": "Blaqk Audio's <i>CexCells</i>, last summer.",
      "time": "2008-06-25T23:50:45",
      "id": "749961"
    },
    {
      "threadId": "1287116",
      "post": "Another vote for Firefly!",
      "time": "2008-06-19T00:21:52",
      "id": "703546"
    },
    {
      "threadId": "1127252",
      "post": "34 as a wife, 101 as a husband. Hmmm ...",
      "time": "2008-06-09T23:05:13",
      "id": "625651"
    },
    {
      "threadId": "632963267",
      "post": "Oh! <i>Chicago.</i> and <i>Sister Act II.</i>",
      "time": "2008-06-05T01:35:06",
      "id": "595494"
    },
    {
      "threadId": "1019657",
      "post": "All those millions of Facebook applications ... \"How hot are you?\" \"What do you really think of me?\"\r\nI'm only 23 and love Facebook, but I hate scrolling past all that crap to leave a message on my 16-year-old cousin's wall.",
      "time": "2008-06-05T01:33:46",
      "id": "595485"
    },
    {
      "threadId": "844286",
      "post": "I know lots of lefty, staunchly pro-choice women who are really into the midwife and doula thing, though. It's about celebrating motherhood and a woman's choices about how to handle her pregnancy and labour.",
      "time": "2008-05-28T02:03:26",
      "id": "539340"
    },
    {
      "threadId": "835768",
      "post": "I went to work at my dream internship that is still dream-like in its third week, came home to lasagna that the fiance had made for dinner, and am currently watching my Detroit Red Wings win a final-round playoff hockey game. Ahhhhh, good day.",
      "time": "2008-05-27T02:27:19",
      "id": "533107"
    }
  ],
  "profileInfo": {
    "username": "juliahob",
    "about": "",
    "name": "Julia H",
    "disable3rdPartyTrackers": false,
    "isPowerContributor": false,
    "isAnonymous": false,
    "rep": 1.346406,
    "profileUrl": "https://disqus.com/by/juliahob/",
    "url": "http://shamelessmag.com",
    "reputation": 1.346406,
    "location": "Toronto, ON, Canada",
    "isPrivate": false,
    "signedUrl": "http://disq.us/?url=http%3A%2F%2Fshamelessmag.com&key=G1u_IG4EQVX1GY1VMzWZmw",
    "isPrimary": true,
    "joinedAt": "2008-05-27T02:27:19",
    "id": "37739",
    "avatar": {
      "small": {
        "permalink": "https://disqus.com/api/users/avatars/juliahob.jpg",
        "cache": "//a.disquscdn.com/uploads/users/3/7739/avatar32.jpg?1326812905"
      },
      "isCustom": true,
      "permalink": "https://disqus.com/api/users/avatars/juliahob.jpg",
      "cache": "//a.disquscdn.com/uploads/users/3/7739/avatar92.jpg?1326812905",
      "large": {
        "permalink": "https://disqus.com/api/users/avatars/juliahob.jpg",
        "cache": "//a.disquscdn.com/uploads/users/3/7739/avatar92.jpg?1326812905"
      }
    }
  }
}