{
  "comments": [
    {
      "threadId": "4727981242",
      "post": "Congrats to another great group of experts! Thank you all for your great effort!",
      "time": "2016-04-07T19:44:37",
      "id": "2611756278"
    },
    {
      "threadId": "4411360521",
      "post": "FANTASTC!",
      "time": "2015-12-17T23:47:29",
      "id": "2415045788"
    },
    {
      "threadId": "4406612856",
      "post": "Congratulations!!!",
      "time": "2015-12-15T23:53:09",
      "id": "2411711840"
    },
    {
      "threadId": "4387395789",
      "post": "We are getting this fixed. Sorry about that Adam! Killing it on three sites, we missed one.",
      "time": "2015-12-10T17:41:40",
      "id": "2403431909",
      "parentPost": "I think I might have been missed when putting the list together for November. Still, it's a great accomplishment and congrats to all those who made the club this month!",
      "parentPostTime": "2015-12-09T21:14:20",
      "parentPostId": "2402060439"
    },
    {
      "threadId": "4373448421",
      "post": "Great job Adam!",
      "time": "2015-12-09T02:36:29",
      "id": "2400669661",
      "parentPost": "Thank you so much for recognizing The Viking Age. Dan and I have been working hard to keep The Viking Age relevant despite much of our team moving on from the site. It's been a struggle at time, but I'm so proud to be recognized this month. Thank you, everyone.",
      "parentPostTime": "2015-12-03T22:22:56",
      "parentPostId": "2391901470"
    },
    {
      "threadId": "4384218773",
      "post": "Big thanks to all those participating and I encourage the others to give it a shot. You will be happy with the results! Thanks",
      "time": "2015-12-08T18:16:09",
      "id": "2399940116"
    },
    {
      "threadId": "4220799970",
      "post": "Hey Milt, can you forward your issue to techsupport@fansided.com? Thanks!",
      "time": "2015-10-23T18:51:01",
      "id": "2323380498",
      "parentPost": "How Long Is This Going To Be Posted?  We Are All Tired Of Seeing It.",
      "parentPostTime": "2015-10-21T20:25:14",
      "parentPostId": "2319733194"
    },
    {
      "threadId": "4152489610",
      "post": "Yes it is available, we are still trying to find out the details of how to get it setup for non-us though, as it seems the form in the system is for US only.",
      "time": "2015-09-30T16:09:12",
      "id": "2282168483",
      "parentPost": "I come asking this, too. Canadian banks don't use ACH numbers, rendering some of the options moot.",
      "parentPostTime": "2015-09-25T14:53:43",
      "parentPostId": "2273704522"
    },
    {
      "threadId": "4109943282",
      "post": "Congrats to all the Experts this month!",
      "time": "2015-09-08T16:06:30",
      "id": "2242633915"
    },
    {
      "threadId": "4003098966",
      "post": "Kid is going to be something special. He has IT. #EMAW",
      "time": "2015-08-05T04:38:21",
      "id": "2175085703"
    },
    {
      "threadId": "3846856750",
      "post": "What a fight. Cain had a long lay off and Werdum gained some valuable experience fighting in Mexico City before. Strikeforce to UFC Champ.",
      "time": "2015-06-14T05:50:03",
      "id": "2078153860"
    },
    {
      "threadId": "3795147071",
      "post": "Congrats and thanks to everyone that made this happen!",
      "time": "2015-05-26T17:45:40",
      "id": "2046299411"
    },
    {
      "threadId": "3782445166",
      "post": "Thinking about you B! Love you and thanks for sharing this story about your mom.",
      "time": "2015-05-22T04:20:08",
      "id": "2038817870"
    },
    {
      "threadId": "3659113428",
      "post": "He will resign with the Thunder ( at least I hope). I think Washington not playing well in a weak East might help, so we will need to see how the Wizards do next year. I'm not sure I see any viable team to get him unless somehow the Lakers can convince him to come out West.",
      "time": "2015-04-06T22:22:41",
      "id": "1949796030"
    },
    {
      "threadId": "3656304817",
      "post": "Goes right along with my infographic: http://fansided.com/2014/05/17/oklahoma-city-thunder-suffering-curse-seattle-sonics-infographic/",
      "time": "2015-04-05T13:40:55",
      "id": "1947328881"
    },
    {
      "threadId": "3593378410",
      "post": "Great job Castillo! Love it",
      "time": "2015-03-13T22:56:06",
      "id": "1906089383"
    },
    {
      "threadId": "3586183333",
      "post": "Arrowhead Stadium is pretty crazy every Sunday. As a Chiefs fan, we are also crazy that we keep showing up as much as we do without having a playoff win in 21 years.",
      "time": "2015-03-11T20:32:03",
      "id": "1901982137"
    },
    {
      "threadId": "3551877239",
      "post": "Team white and gold be crazy!",
      "time": "2015-02-27T03:16:30",
      "id": "1877981673",
      "parentPost": "White and Gold. Ya'll are crazy.",
      "parentPostTime": "2015-02-27T01:42:10",
      "parentPostId": "1877865239"
    },
    {
      "threadId": "3527113470",
      "post": "Yes it should, just send us the link when this happens, so that we can take a look at it.",
      "time": "2015-02-19T17:24:11",
      "id": "1864086471",
      "parentPost": "Is there a way for the automatic loader to know which sport our site is for? Example, Nolan Writin' is about the Texas Rangers, but the loader has linked the New York Rangers hockey team.",
      "parentPostTime": "2015-02-18T17:51:37",
      "parentPostId": "1862111554"
    },
    {
      "threadId": "3518890389",
      "post": "Yeah, for now, your best bet is to download the FanSided app and subscribe to The Walking Dead: https://play.google.com/store/apps/details?id=com.noticesoftware.FanSided&hl=en",
      "time": "2015-02-16T01:06:46",
      "id": "1857370629",
      "parentPost": "Need to get the app for Android devices as well.",
      "parentPostTime": "2015-02-15T22:58:47",
      "parentPostId": "1857227764"
    },
    {
      "threadId": "3454988998",
      "post": "Gotta love the NFL",
      "time": "2015-01-25T23:02:19",
      "id": "1816773890"
    },
    {
      "threadId": "3454937079",
      "post": "Congrats to a Legend!",
      "time": "2015-01-25T22:52:44",
      "id": "1816761478"
    },
    {
      "threadId": "3435240928",
      "post": "Congrats to everyone and to the entire FanSided roster. 2014 was a great year! THANK YOU!",
      "time": "2015-01-19T17:32:05",
      "id": "1802632937"
    },
    {
      "threadId": "3433658370",
      "post": "Probably a good stoppage...",
      "time": "2015-01-19T06:56:30",
      "id": "1800758844"
    },
    {
      "threadId": "3433085845",
      "post": "Crazy win!",
      "time": "2015-01-19T00:05:40",
      "id": "1800384148"
    },
    {
      "threadId": "3393982190",
      "post": "Terrible. Why do they keep paying this guy? Hopefully that was the last time.",
      "time": "2015-01-11T01:57:27",
      "id": "1786356310",
      "parentPost": "Marquardt should pay me for having to watch his terrible showing",
      "parentPostTime": "2015-01-06T05:13:30",
      "parentPostId": "1774138314"
    },
    {
      "threadId": "3399787150",
      "post": "Yeah he got a little extra help. I first thought it was video edited because it looks like he gets an extra boost from something, then I noticed the defenders arm/chest helped this look even more filthy!",
      "time": "2015-01-07T23:48:48",
      "id": "1777447721"
    },
    {
      "threadId": "3380959123",
      "post": "Ouch!",
      "time": "2015-01-01T21:58:10",
      "id": "1767715854"
    },
    {
      "threadId": "3377409981",
      "post": "Happy New Years!!!!",
      "time": "2014-12-31T23:28:32",
      "id": "1766669556"
    },
    {
      "threadId": "3370088999",
      "post": "Congrats Nicholas!",
      "time": "2014-12-31T23:27:40",
      "id": "1766668809"
    },
    {
      "threadId": "3378062807",
      "post": "Thanks Maura these are great updates, thanks Tech Team!!! ",
      "time": "2014-12-31T23:23:38",
      "id": "1766665354"
    },
    {
      "threadId": "3349486047",
      "post": "Congrats Maggie, great to get to know you better and keep up the great work!",
      "time": "2014-12-23T17:52:31",
      "id": "1756399545"
    },
    {
      "threadId": "3336743085",
      "post": "Pretty happy that I'm the one wearing the Tambi Hali jersey instead of the Larry Johnson jersey :)  Happy Birthday Bro!",
      "time": "2014-12-18T16:37:54",
      "id": "1748725121"
    },
    {
      "threadId": "3181484966",
      "post": "#EMAW",
      "time": "2014-11-02T00:14:34",
      "id": "1666431919"
    },
    {
      "threadId": "3155373754",
      "post": "Another great stop by the defense. Lets chew some clock and get a TD",
      "time": "2014-10-25T17:04:31",
      "id": "1653448709"
    },
    {
      "threadId": "3117572667",
      "post": "Yes that is credible source. Good question",
      "time": "2014-10-15T03:18:37",
      "id": "1636214111",
      "parentPost": "Now if a source gets on a says they have an anonymous source on Twitter. Like the Schefter tweet, can we still use that as a source?\n\n\nFor instance, according to Adam Schefter, Jerod Mayo suffered a season ending injury per his source.\n\n\nOr if it's not Adam, say it's Arrowhead Pride, that Jamaal Charles was injured in practice according to their sources. \n\n\nIs that credible enough?\n\n\nIs it that iffy or is it simply, don't say: according to my inside sources, Rashad Jennings will play against the Cowboys (just an example).\n\n\nThanks PA.",
      "parentPostTime": "2014-10-15T02:41:21",
      "parentPostId": "1636183686"
    },
    {
      "threadId": "3090212079",
      "post": "and we wonder why LA hasn't gotten a team yet.",
      "time": "2014-10-07T00:36:04",
      "id": "1622592772"
    },
    {
      "threadId": "3024362186",
      "post": "I did too! hahaha :)",
      "time": "2014-09-17T21:58:46",
      "id": "1593755163",
      "parentPost": "Hey it was good Zach. I remember thinking that your designs were awesome.... back then :)",
      "parentPostTime": "2014-09-17T16:09:30",
      "parentPostId": "1593214528"
    },
    {
      "threadId": "2982438260",
      "post": "@Seth, I'm giving you a virtual hug. Thank you!",
      "time": "2014-09-02T23:04:23",
      "id": "1571133348"
    },
    {
      "threadId": "2901050205",
      "post": "Just looking at this picture of him, I wonder why he didn't get cut years ago!",
      "time": "2014-08-05T00:22:15",
      "id": "1527668519"
    },
    {
      "threadId": "2901073945",
      "post": "Good news for Wiz fans, their time will come. Unless you don't want them playing!",
      "time": "2014-08-05T00:21:12",
      "id": "1527664133"
    },
    {
      "threadId": "2893716269",
      "post": "Which do you think was worse? PG or Silva?",
      "time": "2014-08-03T21:30:12",
      "id": "1524880673",
      "parentPost": "We weren't there to take the blame for this one, but Adam is definitely cursed.",
      "parentPostTime": "2014-08-03T21:18:54",
      "parentPostId": "1524863080"
    },
    {
      "threadId": "2897262672",
      "post": "As a Chiefs fan, Tim Brown deserves to be in the HoF.",
      "time": "2014-08-03T20:43:02",
      "id": "1524806752"
    },
    {
      "threadId": "2897371646",
      "post": "MC Is the man!",
      "time": "2014-08-03T20:38:09",
      "id": "1524798926",
      "parentPost": "Proud of you, MC. You've grown up in our ranks and are now one of the cornerstones of our team. You've also done an unbelievable job creating a unique and unified look for the FanSided universe. Glad to see this. Nobody will think our sites/logos/app just look amazing magically any longer. Credit where credit is overdue.",
      "parentPostTime": "2014-08-03T17:25:09",
      "parentPostId": "1524536915"
    },
    {
      "threadId": "2886360310",
      "post": "Hey guys, we are working on cleaning up some funky stuff since the move. Hang in there!",
      "time": "2014-08-01T16:58:39",
      "id": "1519809454",
      "parentPost": "Exactly. I'm visiting this site less and less with this crap new layout.",
      "parentPostTime": "2014-07-31T18:55:33",
      "parentPostId": "1516476190"
    },
    {
      "threadId": "2890994124",
      "post": "Yeah it is definitely a bug that we are working on and should have resolved shortly.",
      "time": "2014-08-01T16:36:37",
      "id": "1519753838",
      "parentPost": "There seems to be a bug with the comment indicators, and we're working to get them to show the correct counts. Thanks for bringing it to our attention.",
      "parentPostTime": "2014-08-01T15:28:48",
      "parentPostId": "1519569946"
    },
    {
      "threadId": "2880115936",
      "post": "I haven't said this in a long time, \"Herm Edwards is right!\"",
      "time": "2014-07-29T14:25:23",
      "id": "1510001217"
    },
    {
      "threadId": "2880252170",
      "post": "Big 10 must not be that good if they get 3 of the 5 trap games :)",
      "time": "2014-07-28T18:31:41",
      "id": "1508554109"
    },
    {
      "threadId": "2872097014",
      "post": "I love Steven Adams, but he will never be a top 15 player in the league and you could argue that Harden already is in the top 15 (if he would ever play defense)",
      "time": "2014-07-27T19:54:42",
      "id": "1506962891",
      "parentPost": "If Adams developed into the guy he looks like he will be, then that trade was a no brained, lamb and mcgary are just bonuses",
      "parentPostTime": "2014-07-27T02:34:08",
      "parentPostId": "1506128104"
    },
    {
      "threadId": "2876080315",
      "post": "I was embarrassed for him and couldn't imagine having a judge score one of my fights 30-24.",
      "time": "2014-07-27T00:14:42",
      "id": "1506012861"
    },
    {
      "threadId": "2861293995",
      "post": "Just make threes and play defense!",
      "time": "2014-07-26T18:01:25",
      "id": "1505464096"
    },
    {
      "threadId": "2873053979",
      "post": "I just wish she would've knocked Stephen A out, because we all know she could!",
      "time": "2014-07-25T18:56:05",
      "id": "1503690339"
    },
    {
      "threadId": "2870478133",
      "post": "I don't disagree with that, but if a woman spits on you it doesn't give you the right to knock her out cold. Unfortunately, relationships that have this kind of violence typically don't end up well. I think the point is that NFL players have been suspended worse for less.",
      "time": "2014-07-25T18:49:54",
      "id": "1503666524",
      "parentPost": "Didn't she spit on him first? I AM NOT saying what he did was right but you spit on someone their reaction can be unpredictable. And I think they just got married so apparently she was ok with it. If I had punched / knocked my wife out a few month before our wedding I can assure you I would be single and on probation. ",
      "parentPostTime": "2014-07-25T04:35:21",
      "parentPostId": "1502761770"
    },
    {
      "threadId": "2868139303",
      "post": "Stupid how Chael gets two years for being honest and Vitor gets a hand slap. Just by watching the two fighters transform over the past few years, you can clearly see who benefited from using something.",
      "time": "2014-07-24T00:16:14",
      "id": "1500718415"
    },
    {
      "threadId": "2867359307",
      "post": "Great to have you on the squad, welcome to the family!!!",
      "time": "2014-07-23T22:15:54",
      "id": "1500564975"
    },
    {
      "threadId": "2841194822",
      "post": "Sounds like someone is broke.",
      "time": "2014-07-14T02:27:55",
      "id": "1483787507"
    },
    {
      "threadId": "2839947283",
      "post": "Durant is going to be in OKC for a long time.",
      "time": "2014-07-13T15:35:44",
      "id": "1483112153"
    },
    {
      "threadId": "2792131150",
      "post": "He should be done for the World Cup. No question",
      "time": "2014-06-24T18:42:00",
      "id": "1452194805"
    },
    {
      "threadId": "2789238380",
      "post": "Chicago",
      "time": "2014-06-23T19:32:36",
      "id": "1450311765"
    },
    {
      "threadId": "2789103337",
      "post": "You and Melo might be headed to Chicago",
      "time": "2014-06-23T17:43:59",
      "id": "1450153485",
      "parentPost": "Kanye has to be there too and must fall asleep in the front row and then leave early. \n\n\nCould be heading to Chicago, which is where my wife's side of the family is from.",
      "parentPostTime": "2014-06-23T17:37:38",
      "parentPostId": "1450144320"
    },
    {
      "threadId": "2755908233",
      "post": "USA, USA, USA!",
      "time": "2014-06-23T15:44:49",
      "id": "1449982604"
    },
    {
      "threadId": "2780861322",
      "post": "Also if you could help out our Winter is Coming one too, https://play.google.com/store/newsstand/news/Winter_is_Coming?id=CAowzKvNAQ",
      "time": "2014-06-21T18:36:51",
      "id": "1447925826"
    },
    {
      "threadId": "2778004720",
      "post": "No worries! Thanks for letting us know",
      "time": "2014-06-20T21:27:35",
      "id": "1446177304",
      "parentPost": "I don't do Instagram.",
      "parentPostTime": "2014-06-20T00:17:37",
      "parentPostId": "1444872032"
    },
    {
      "threadId": "2780535057",
      "post": "\"Hunt and head coach Hank Stram initially planned on retaining the Texans name, but a fan contest determined the new \"Chiefs\" name in honor of Mayor Bartle's nickname that he acquired in his professional role as Scout Executive of the St. Joseph and Kansas City Boy Scout Councils and founder of the Scouting Society\"",
      "time": "2014-06-20T20:18:56",
      "id": "1446047810",
      "parentPost": "I believe the team name was actually chosen because of the mayor at the time of the move to Kansas City was refered to as \"Chief\" so in honor of him we became the Chiefs. We have an arrowhead as a logo which in no way discriminates. This shouldn't be an issue",
      "parentPostTime": "2014-06-20T14:43:52",
      "parentPostId": "1445572386"
    },
    {
      "threadId": "2687269139",
      "post": "As a fellow Kstate, I couldn't agree more. NCAA really needs to implement this rule when a coach leaves.\n\n\nBTW, welcome to the network Max!",
      "time": "2014-05-21T21:55:21",
      "id": "1398476799"
    },
    {
      "threadId": "2693698266",
      "post": "Lucky he was about 3x bigger than Shlemenko.",
      "time": "2014-05-18T03:26:05",
      "id": "1391469474"
    },
    {
      "threadId": "2693571606",
      "post": "Kenny will always be remembered as FanSided Family member. Our thoughts go out to his family.",
      "time": "2014-05-18T02:33:05",
      "id": "1391434368"
    },
    {
      "threadId": "2692429517",
      "post": "OKC can still do this!",
      "time": "2014-05-17T16:23:32",
      "id": "1390828767"
    },
    {
      "threadId": "2683014248",
      "post": "Major props to our tech and design team! Nice work guys.",
      "time": "2014-05-13T22:05:33",
      "id": "1383627452"
    },
    {
      "threadId": "2680357791",
      "post": "Email it to us at support@fansided.com and we'll reformat it for you...",
      "time": "2014-05-13T20:58:40",
      "id": "1383535242",
      "parentPost": "Only problem I am running into is the picture. The one I have currently on the site is too small for Google+, and when I take a new one with my computer, the file is not supported by Google.",
      "parentPostTime": "2014-05-13T03:52:48",
      "parentPostId": "1382329630"
    },
    {
      "threadId": "2677706740",
      "post": "I believe this is the second time Ibaka has hit Blake in the nuts",
      "time": "2014-05-11T21:12:38",
      "id": "1380236170"
    },
    {
      "threadId": "2665692195",
      "post": "Love me some Sriracha",
      "time": "2014-05-06T21:22:32",
      "id": "1372620013"
    },
    {
      "threadId": "2660000807",
      "post": "Awesome!",
      "time": "2014-05-04T14:44:41",
      "id": "1369126494"
    },
    {
      "threadId": "2656156989",
      "post": "Congrats and welcome to the FanSided family!!!",
      "time": "2014-05-02T22:13:49",
      "id": "1367136839"
    },
    {
      "threadId": "2653456627",
      "post": "Both are doing great and hope you are doing well too!",
      "time": "2014-05-02T02:01:55",
      "id": "1365506336",
      "parentPost": "Zach! Always good to see a post from you. I hope you and Adam are doing well!",
      "parentPostTime": "2014-05-01T23:57:13",
      "parentPostId": "1365117668"
    },
    {
      "threadId": "2626224802",
      "post": "This is why you have to love a guy like Popovich. Class Act!",
      "time": "2014-04-20T21:49:28",
      "id": "1347773486"
    },
    {
      "threadId": "2624709811",
      "post": "Cerrone is unstoppable right now. He was taking some big shots. Then seemed like he decided he wanted to end, threw a jab, jumped on RNC, and got the win. My concern with him in this division is his speed, but Barboza is one of the quickest.",
      "time": "2014-04-20T01:13:35",
      "id": "1346814277"
    },
    {
      "threadId": "2624726636",
      "post": "Roy Hibbert should be more upset with Roy Hibbert.",
      "time": "2014-04-20T01:10:56",
      "id": "1346812561"
    },
    {
      "threadId": "2613563419",
      "post": "Love it! I use to live in Port Townsend, WA",
      "time": "2014-04-18T23:05:51",
      "id": "1345627251",
      "parentPost": "I lived in Seattle for 5 years, it's an amazing place. Want to move back someday.",
      "parentPostTime": "2014-04-16T02:12:25",
      "parentPostId": "1339889319"
    },
    {
      "threadId": "2611184085",
      "post": "Welcome to FanSided!",
      "time": "2014-04-14T23:32:27",
      "id": "1336809950"
    },
    {
      "threadId": "2594307583",
      "post": "Always sad to see someone like Kim leave the network, but she is a Hall of Famer and will always have a home at FanSided. Thank you for everything Kim!",
      "time": "2014-04-09T20:51:34",
      "id": "1327236396"
    },
    {
      "threadId": "2584386150",
      "post": "I really don't care who they pick because I watch Stewart, Colbert, and Fallon already. Who watches Letterman?",
      "time": "2014-04-04T00:11:06",
      "id": "1317575264"
    },
    {
      "threadId": "2581139029",
      "post": "Feel free to follow me and I will follow you back , @zacharybest",
      "time": "2014-04-03T00:33:29",
      "id": "1316093397"
    },
    {
      "threadId": "2548361542",
      "post": "That was quick!",
      "time": "2014-03-30T05:02:01",
      "id": "1310381867"
    },
    {
      "threadId": "2543038165",
      "post": "I agree. I just meant they both would compliment each other. As a Chiefs fan, I don't really care who is the #1 I just want a passing game!",
      "time": "2014-03-29T19:55:35",
      "id": "1309984903",
      "parentPost": "Thanks for dropping by, Zach.\n\n\nI think a move by the Chiefs to sign Jackson makes too much sense, and Bowe would be the complement to Jackson in this case. Bowe is a good wideout for sure, but he's more of a top WR2 than a true WR1. With him moving the chains for Smith in the short and intermediate games and Jackson stretching the field and using his explosiveness after the catch, the Chiefs could have a deadly combo of two talented WRs with different playing styles. Bowe needs some help, and a weapon like Jackson could help other notice just how good Smith really is. Plus, a healthy Travis Kelce wouldn't hurt either, as the Chiefs were expecting big things out of him last year when he came out of Cincinnati as a rookie.",
      "parentPostTime": "2014-03-29T15:22:35",
      "parentPostId": "1309635370"
    },
    {
      "threadId": "2544810426",
      "post": "Why is Kenny doing this event?",
      "time": "2014-03-29T19:54:04",
      "id": "1309983449"
    },
    {
      "threadId": "2543073207",
      "post": "They can't wait on a draft pick and pay Kobe the money they are paying him. If they can get a deal done, I think they have to make this move.",
      "time": "2014-03-29T15:06:27",
      "id": "1309621918"
    },
    {
      "threadId": "2494726335",
      "post": "Our HS head boys basketball coach worked with him at Missouri State and he just won his second straight state championship in Missouri.",
      "time": "2014-03-29T15:04:28",
      "id": "1309620256",
      "parentPost": "Vol fans are finally appreciating him now.",
      "parentPostTime": "2014-03-24T01:27:32",
      "parentPostId": "1298139860"
    },
    {
      "threadId": "2494719316",
      "post": "Great win for the Clones, congrats",
      "time": "2014-03-24T00:45:42",
      "id": "1298083145"
    },
    {
      "threadId": "2479977353",
      "post": "Ref shouldn't be allowed to work anymore. I can't remember a worse late stoppage.",
      "time": "2014-03-22T01:10:19",
      "id": "1295852154"
    },
    {
      "threadId": "2464201591",
      "post": "Welcome to the FanSided Family!",
      "time": "2014-03-19T21:43:06",
      "id": "1292216168"
    },
    {
      "threadId": "2457189613",
      "post": "Love it!",
      "time": "2014-03-18T23:46:26",
      "id": "1290638517"
    },
    {
      "threadId": "2403153061",
      "post": "Bring in Darren Sproles and I won't care :)",
      "time": "2014-03-11T03:02:49",
      "id": "1279583502"
    },
    {
      "threadId": "2396885153",
      "post": "Albert has always lived on his potential and has never stayed on the field to deserve this big of a deal. Good riddance and at least we will get a compensatory pick for him.",
      "time": "2014-03-11T03:02:32",
      "id": "1279583232"
    },
    {
      "threadId": "2404432477",
      "post": "This makes me sick.",
      "time": "2014-03-11T03:00:38",
      "id": "1279581694"
    },
    {
      "threadId": "2336031708",
      "post": "Another great celebration for AA!!! Congrats Jason",
      "time": "2014-02-28T23:18:10",
      "id": "1265102665"
    },
    {
      "threadId": "2293752626",
      "post": "Congrats!",
      "time": "2014-02-20T21:09:04",
      "id": "1253836761"
    },
    {
      "threadId": "2266750117",
      "post": "Great idea Les.",
      "time": "2014-02-17T17:54:30",
      "id": "1248258203",
      "parentPost": "I try not to read competitor posts until after I have written mine. This way their stuff doesn't make it into my posts. I get my quotes and a lot of data from the horse's mouth ie..PGATour.com, and NascarMedia. Those sites want you to use their stuff as it promotes their sport, and if I use anything, I always use as a quote with link.",
      "parentPostTime": "2014-02-15T16:48:39",
      "parentPostId": "1245840726"
    },
    {
      "threadId": "2258031115",
      "post": "Welcome aboard, Leigh",
      "time": "2014-02-12T21:52:23",
      "id": "1241830684"
    },
    {
      "threadId": "2253760288",
      "post": "I think my price point would be around $300 for the year for all ppv, which is around 50%. It would be hard to do much more than the NFL Sunday ticket.",
      "time": "2014-02-12T01:12:03",
      "id": "1240504336"
    },
    {
      "threadId": "2234778364",
      "post": "Shannon Sharpe better be looking for a new job. Tony Gonzalez is a better TE, I think would be better, and can also draw in the ladies crowd. Not to mention it would get Sharpe off of TV (hopefully).",
      "time": "2014-02-08T21:06:49",
      "id": "1236226086",
      "parentPost": "That's an angle I didn't think of but wouldn't doubt it. Tony is a hard worker why would he want to sit down and do nothing for a while. I bet he would be better than Ladanian Tom. Sheesh that guy needs a friend to tell him to hang up the microphone and go be a running back coach somewhere.",
      "parentPostTime": "2014-02-08T07:15:19",
      "parentPostId": "1235628604"
    },
    {
      "threadId": "2211301683",
      "post": "Stupid and a waste of money.",
      "time": "2014-02-02T22:20:17",
      "id": "1228158099"
    },
    {
      "threadId": "2207233210",
      "post": "Rather boring first round.",
      "time": "2014-02-02T02:17:22",
      "id": "1227297864",
      "parentPost": "CARIASO VS MARTINEZ THREAD",
      "parentPostTime": "2014-02-02T02:17:10",
      "parentPostId": "1227297731"
    },
    {
      "threadId": "2201227350",
      "post": "Go Seahawks!",
      "time": "2014-02-01T03:10:14",
      "id": "1226271953"
    },
    {
      "threadId": "2127996531",
      "post": "Looked great! Maybe if Belfort was TRT free it would've been a different outcome.",
      "time": "2014-01-16T02:53:19",
      "id": "1203276833"
    },
    {
      "threadId": "2114489824",
      "post": "Congrats to the Colts on a great year, even though I am a Chiefs fan and I should really hate the Colts.",
      "time": "2014-01-13T00:31:15",
      "id": "1197861108"
    },
    {
      "threadId": "2098488075",
      "post": "I would also assume that cutting Dunta Robinson is probably the most likely big name cut.",
      "time": "2014-01-07T20:31:55",
      "id": "1191034064"
    },
    {
      "threadId": "2092037091",
      "post": "Stream worked great for me too. I do agree that there needs to be more original content like; more Q&As from live events, shows archived, etc. I wish they would do a package for $35 (or more) month that included the fightpass and all ppv.",
      "time": "2014-01-05T15:13:06",
      "id": "1187939977"
    },
    {
      "threadId": "2088164347",
      "post": "Would love another shot at the Broncos.",
      "time": "2014-01-03T18:04:59",
      "id": "1185656074"
    },
    {
      "threadId": "2074518978",
      "post": "I can't wait to see this live!",
      "time": "2013-12-26T21:51:04",
      "id": "1177623667"
    },
    {
      "threadId": "2036712425",
      "post": "We really need to get a bowl win!",
      "time": "2013-12-09T19:02:47",
      "id": "1156267489"
    },
    {
      "threadId": "2036407896",
      "post": "Finally getting settled in and making some plays for the Vikings",
      "time": "2013-12-08T23:51:43",
      "id": "1155386011"
    },
    {
      "threadId": "2013971761",
      "post": "Nate Diaz looked legit! Might be most impressive win to date.",
      "time": "2013-12-01T05:59:44",
      "id": "1145937098"
    },
    {
      "threadId": "2013735232",
      "post": "Very sad news",
      "time": "2013-12-01T05:07:59",
      "id": "1145912506"
    },
    {
      "threadId": "2013695226",
      "post": "Very sad news",
      "time": "2013-12-01T02:48:41",
      "id": "1145819176"
    },
    {
      "threadId": "2004448064",
      "post": "Can't wait! Welcome to FanSided",
      "time": "2013-11-29T18:14:15",
      "id": "1144360740"
    },
    {
      "threadId": "2009074968",
      "post": "Terrible!",
      "time": "2013-11-29T07:05:29",
      "id": "1143776507"
    },
    {
      "threadId": "2006496300",
      "post": "Christmas Vacation and Plains, Trains, and Automobiles will be playing at some point today!",
      "time": "2013-11-28T16:14:33",
      "id": "1143093358"
    },
    {
      "threadId": "1930940284",
      "post": "@JackJ14CFB:disqus, what is your prediction?",
      "time": "2013-11-03T00:21:13",
      "id": "1106726075"
    },
    {
      "threadId": "1778112115",
      "post": "Completley understand that Ben. Has this cleared this up for you? Thanks!",
      "time": "2013-09-19T18:08:53",
      "id": "1051855812",
      "parentPost": "Ok, cool. Thanks for clearing things up.\n\nI just didn't want to come into anything specifically new without thoroughly understanding the requirements.\n\n\nThanks.",
      "parentPostTime": "2013-09-19T18:04:02",
      "parentPostId": "1051846488"
    },
    {
      "threadId": "1669464654",
      "post": "Marqise Lee needs to show up!",
      "time": "2013-08-30T03:35:38",
      "id": "1022870601"
    },
    {
      "threadId": "1614222114",
      "post": "I wonder who is going to get the additional bonuses?",
      "time": "2013-08-18T04:00:19",
      "id": "1005263539"
    },
    {
      "threadId": "1606778315",
      "post": "Yes that concerns me too because I get one to two pop-ups per week and they are just promoting our mobile app or newsletter so you shouldn't see other \"pop-ups\"",
      "time": "2013-08-16T03:25:36",
      "id": "1003137125",
      "parentPost": "Just a note, if you're using ad-blocking software, you're killing off part of your rev share. But really, we hate the ads too. We wish it was more streamlined, but we have to pay bills, unfortunately. \n\n\nPersonally, the only ads that are annoying is the bank of thumbnail links below the posts and above the comments. That's also one of the best paying, so it's kind of something we just have to deal with. I rarely get pop-ups, and if you're getting excessive pop-ups or talking ads, don't be afraid to shoot us an email.",
      "parentPostTime": "2013-08-15T20:54:16",
      "parentPostId": "1002807568"
    },
    {
      "threadId": "1606785974",
      "post": "Checkout the wayback machine to see all the changes over the years to Arrowhead Addict, http://web.archive.org/web/20070419194942/http://www.arrowheadaddict.com/?  , It does make me feel really old though!",
      "time": "2013-08-15T04:46:42",
      "id": "1001855709"
    },
    {
      "threadId": "1589402375",
      "post": "I love Paddy like a brother and could never thank him enough for taking over our baby! He has done a better job then I ever could and glad that he has become a major person in FanSided so he can help other sites become other AA's. I know our new editor is really good and has the stamp of approval from Adam & Patrick so I know the site is in great hands.",
      "time": "2013-08-10T20:15:11",
      "id": "995810062"
    },
    {
      "threadId": "1551121359",
      "post": "Sorry Chris and AP. We know how good you have been to us over the years. Thanks again for understanding.",
      "time": "2013-07-31T20:22:08",
      "id": "983007361",
      "parentPost": "Sorry again. Feel awful about that.",
      "parentPostTime": "2013-07-31T13:34:23",
      "parentPostId": "982533748"
    },
    {
      "threadId": "1485102340",
      "post": "Just fixed this issue. Please try again.",
      "time": "2013-07-11T19:36:01",
      "id": "959012668",
      "parentPost": "I am interested in applying, but for some reason, the application will not appear on my iPad or computer. It looks like a bunch of computer characters, but it is not there for me to fill-in. Is there any way you could e-mail it to me or anything of the likes? Thanks. It looks like this:\n\n\n[contact-form][contact-field label='Name' type='name' required='1'/][contact-field label='Email' type='email' required='1'/][contact-field label='Website' type='url'/][contact-field label='How long have you been involved with FanSided? Tell us about your time here. ' type='textarea' required='1'/][contact-field label='Which Conference Manager spot are you interested in?' e day to day of managing your division?' type='text' required='1'/][contact-field",
      "parentPostTime": "2013-07-11T19:32:50",
      "parentPostId": "959008522"
    },
    {
      "threadId": "1481766833",
      "post": "For me, Ibaka has to prove a ton more that he was worth keeping over James Harden.",
      "time": "2013-07-10T05:15:13",
      "id": "957093627"
    },
    {
      "threadId": "1478034717",
      "post": "Funny how Jay-Z didn't show up and the event was in NY, sounds like he had a little more inside info than Kanye had.",
      "time": "2013-07-08T21:26:49",
      "id": "955681934",
      "parentPost": "I think it is interesting that Kanye might have been there to escort him to Chicago if he picked the Bulls. He probably woke up and was like, \"what, he picked Miami? I'm out.\"",
      "parentPostTime": "2013-07-08T16:20:14",
      "parentPostId": "955382558"
    },
    {
      "threadId": "1475477197",
      "post": "If more movie theaters would be like the Alamo Drafthouse. These locations offer an experience where as your normal theater offers same crappy service, seats, prices, etc. I don't mind paying more for a great meal, service, atmosphere, etc.",
      "time": "2013-07-07T20:04:24",
      "id": "954703300"
    },
    {
      "threadId": "1442031167",
      "post": "I loved throwing to Paige in Super Tecmo Bowl",
      "time": "2013-06-29T16:17:05",
      "id": "946354191"
    },
    {
      "threadId": "1443377633",
      "post": "No they could have kept him and completed a sign & trade this year for any pick/s in the draft. Or even better get a top pick in next years (2014) draft when that class is loaded.",
      "time": "2013-06-29T15:49:14",
      "id": "946335504",
      "parentPost": "u serious ? okc got the best out of it , james harden wouldve walked by the end of his contract ur an idiot he sold his soul he was after the money $$$$$$$$$$$$$$$$$$$$$$$$$$$$$$$$$$$$",
      "parentPostTime": "2013-06-28T23:05:47",
      "parentPostId": "945843932"
    },
    {
      "threadId": "1443809676",
      "post": "Thanks for adding our video!",
      "time": "2013-06-29T15:39:44",
      "id": "946328458"
    },
    {
      "threadId": "1441907640",
      "post": "Instead we draft 4 guys that won't play a lick in the NBA next year....",
      "time": "2013-06-28T16:16:05",
      "id": "945435390",
      "parentPost": "I could really see Deshaun fitting in nicely. Can create some off the dribble too and should be ready to play soon.",
      "parentPostTime": "2013-06-27T20:27:48",
      "parentPostId": "944558707"
    },
    {
      "threadId": "1439693570",
      "post": "Here is an example of something that just went up today: http://blackandteal.com/2013/06/27/2013-jaguars-outlook-highest-and-lowest-priced-home-games/",
      "time": "2013-06-27T19:34:22",
      "id": "944495215"
    },
    {
      "threadId": "1442096831",
      "post": "I am always stunned by these kids that just piss it all away.",
      "time": "2013-06-27T15:37:15",
      "id": "944208001"
    },
    {
      "threadId": "1437808360",
      "post": "I would LOVE to trade Perkins!",
      "time": "2013-06-27T14:29:19",
      "id": "944129211"
    },
    {
      "threadId": "1441596119",
      "post": "We need talent that can play right now.",
      "time": "2013-06-27T14:28:45",
      "id": "944128635"
    },
    {
      "threadId": "1404800144",
      "post": "Why does he refuse to train someone elses way?",
      "time": "2013-06-17T05:23:58",
      "id": "932822226",
      "parentPost": "He needs to hire Mike Dolce and get down to 205-pounds. If he can't be knocked out at heavyweight, it'd be amazing to see what he could do at light heavy.",
      "parentPostTime": "2013-06-17T02:33:47",
      "parentPostId": "932748232"
    },
    {
      "threadId": "1402041319",
      "post": "I think its going to be a big hit. Still think these characters, story might be their best.",
      "time": "2013-06-16T00:38:10",
      "id": "931959722"
    },
    {
      "threadId": "1378483293",
      "post": "Might go down as one of the worst trades in NBA history",
      "time": "2013-06-12T00:37:51",
      "id": "927156996",
      "parentPost": "Along with every other OKC fan! Still is a business though unfortunately.",
      "parentPostTime": "2013-06-09T04:20:23",
      "parentPostId": "923987440"
    },
    {
      "threadId": "1378562988",
      "post": "I understand they want to get better and might be tired of picking at the top, but I don't see how this is a good trade for the Wizards.",
      "time": "2013-06-08T15:12:58",
      "id": "923328776"
    },
    {
      "threadId": "1376822712",
      "post": "This is big for this agencies credibility, they might takeover the game",
      "time": "2013-06-08T03:28:56",
      "id": "923025784"
    },
    {
      "threadId": "1372176119",
      "post": "All three coaches have big challenges next year with some of the talent they are losing. I really believe that Snyder not only has made football huge, he has helped every other sport and the university grow to unimaginable level. When I moved to Manhattan in 2001, you could tell that the football team had a huge impact on the growth of the city and the community passion for the university. Then when I go back today I amazed by the growth that has happened at the university and the city. I wish someone would do one of those aerial shots of Manhattan city that would show pre-Snyder and post-Snyder as I am sure there has been a ton of change that has transformed the town.",
      "time": "2013-06-07T17:42:37",
      "id": "922438678"
    },
    {
      "threadId": "1370332067",
      "post": "Tim Roth is the man",
      "time": "2013-06-06T20:21:09",
      "id": "921415240"
    },
    {
      "threadId": "1366508417",
      "post": "I guess big gulps and MMA are now in the same boat for NYC. I can't wait till we finally get a MMA event at MSG.",
      "time": "2013-06-06T01:28:04",
      "id": "920516965"
    },
    {
      "threadId": "1364463310",
      "post": "I wasn't sure that he flopped that much and now watching that video he is flopping when he doesn't even get touched and he is the one initiating the contact.",
      "time": "2013-06-06T01:26:15",
      "id": "920515881"
    },
    {
      "threadId": "1366733025",
      "post": "I agree 100%. What would happen to the UFC if someone eventually did die in the ring and his opponent was a TRT user?",
      "time": "2013-06-06T01:15:42",
      "id": "920508967"
    },
    {
      "threadId": "1361952496",
      "post": "Great to hear Ben from KCKingdom representing on FanSided Tonite!",
      "time": "2013-06-05T04:21:38",
      "id": "919375400"
    },
    {
      "threadId": "1359942438",
      "post": "I wonder how much money he has lost gambling.",
      "time": "2013-06-04T16:50:45",
      "id": "918773322"
    },
    {
      "threadId": "1351425928",
      "post": "Would the NFL and Raiders be better off moving back to LA?",
      "time": "2013-06-02T16:41:34",
      "id": "916777187"
    },
    {
      "threadId": "1351304786",
      "post": "If they suspend him, I am done with the NBA. Fine him as much as you want for his poor decisions off the court.",
      "time": "2013-06-02T15:58:37",
      "id": "916751022"
    },
    {
      "threadId": "1351109084",
      "post": "Almost a decade ago after the brawl and no championship, I thought the Pacers would never get back there and now they look like they might remain there for a long time. I am happy for Pacer fans and hopefully they can beat the Heat tomorrow.",
      "time": "2013-06-02T15:46:26",
      "id": "916743757"
    },
    {
      "threadId": "1351095455",
      "post": "I think he slipped. Roy has usually shows lots of class and I think the Pacers still feel they don't get the credit they deserve. Instead the media is focused on Bosh and Wade not doing anything to help LeBron.",
      "time": "2013-06-02T15:43:21",
      "id": "916741975"
    },
    {
      "threadId": "1349659832",
      "post": "The new iOS app is a ton better and droid is in the testing stages right now!",
      "time": "2013-06-01T23:49:33",
      "id": "916337889"
    },
    {
      "threadId": "1338178999",
      "post": "I love Dan Henderson's Lunatic Fringe and BJ Penn's for some reason I would love to come out. Such a calming song that just seems to make him go nuts.",
      "time": "2013-05-31T00:13:05",
      "id": "914382829"
    },
    {
      "threadId": "1317811182",
      "post": "Congrats on the promotion!",
      "time": "2013-05-26T17:16:56",
      "id": "909174109",
      "parentPost": "My Victory of the Week is being named co-editor of Rays Colored Glasses. Hopefully, between Robbie and I, we can build the site up to the next level of growth.",
      "parentPostTime": "2013-05-25T15:01:47",
      "parentPostId": "908079462"
    },
    {
      "threadId": "1311213987",
      "post": "Thanks Ben",
      "time": "2013-05-26T17:15:15",
      "id": "909173234",
      "parentPost": "Wrote a review, shared the TV give away on my personal page and my Ranger Report Facebook page, which all of you should like by the way. Thanks!",
      "parentPostTime": "2013-05-24T02:18:33",
      "parentPostId": "906426324"
    },
    {
      "threadId": "1320308085",
      "post": "Can't wait!",
      "time": "2013-05-26T06:37:33",
      "id": "908867623"
    },
    {
      "threadId": "1294999597",
      "post": "http://climbingtalshill.com/polls/",
      "time": "2013-05-18T21:19:44",
      "id": "901465670",
      "parentPost": "Yes Zach. That would work for me.",
      "parentPostTime": "2013-05-18T20:37:24",
      "parentPostId": "901440106"
    },
    {
      "threadId": "1269402137",
      "post": "Of course after I post that they get embarrassed the next three games.",
      "time": "2013-05-14T22:37:15",
      "id": "897583221"
    },
    {
      "threadId": "1270808427",
      "post": "Just NASTY!",
      "time": "2013-05-08T00:12:28",
      "id": "888678638"
    },
    {
      "threadId": "1254802918",
      "post": "Great question. Like I said before this is something that we have really never dealt with or thought of, so I wouldn't have a ton of examples because we have always believed that we are a family company. \n\nOne instance I can think of is that someone leaves the network and uses the FanSided (or site name) has their own entity or misuses the SI/FanSided name. Again that would be a general example.\n\nThe main reason we are having this agreement is to protect everyone. Even smaller networks have these type of agreements to protect the company but also protect you as a contractor. We wouldn't want one bad person to ruin this for everyone. This is something we should have done long ago but it is good for all of us to hash this out.",
      "time": "2013-05-03T19:40:59",
      "id": "883616146",
      "parentPost": "What would an example be of when you would need to do so?",
      "parentPostTime": "2013-05-03T17:07:38",
      "parentPostId": "883496128"
    },
    {
      "threadId": "1200832624",
      "post": "Not good for the Big 12",
      "time": "2013-05-02T00:33:29",
      "id": "881757677"
    },
    {
      "threadId": "1191617022",
      "post": "This was just nasty! I still think he can contend and just needs more experience.",
      "time": "2013-04-06T20:04:36",
      "id": "854571306"
    },
    {
      "threadId": "1191540655",
      "post": "This dude is for REAL",
      "time": "2013-04-06T19:29:55",
      "id": "854552531"
    },
    {
      "threadId": "1105238434",
      "post": "If you can encourage everyone to download and give a good rating (5)",
      "time": "2013-03-06T23:09:08",
      "id": "821436153"
    },
    {
      "threadId": "1121582812",
      "post": "PLEASE PLEASE download and rate the app. If we can get about 50 more great reviews this app will explode on Itunes. Thanks everyone.",
      "time": "2013-03-06T22:21:02",
      "id": "821404279"
    },
    {
      "threadId": "1115062453",
      "post": "Damn tough kid. At first I was like what the hell, now I know he was messed up",
      "time": "2013-03-03T17:09:52",
      "id": "818218343"
    },
    {
      "threadId": "1115560971",
      "post": "We need a good TE!",
      "time": "2013-03-03T17:09:00",
      "id": "818217588"
    },
    {
      "threadId": "1115617109",
      "post": "Boom! Loved this and we owed them for football",
      "time": "2013-03-03T17:07:10",
      "id": "818215899"
    },
    {
      "threadId": "1115703264",
      "post": "Give me Durant anyday",
      "time": "2013-03-03T17:06:12",
      "id": "818214814"
    },
    {
      "threadId": "1115778981",
      "post": "EMAW!",
      "time": "2013-03-03T17:05:41",
      "id": "818214201"
    },
    {
      "threadId": "1115790544",
      "post": "Excited about his development.",
      "time": "2013-03-03T17:05:26",
      "id": "818214034"
    },
    {
      "threadId": "1115010689",
      "post": "Well then was the correct decision then.",
      "time": "2013-03-03T06:16:20",
      "id": "817892444"
    },
    {
      "threadId": "1108718702",
      "post": "I don't think the salary cap number is scary to any team as elite NFL QBs are making 15-20 mil per season. My real concern would be that he will be a free agent after this season, so I would have to believe the Chiefs have already talked extension with him before making this deal.\n\n\nEveryone agrees that the Raiders overpaid, but you would rather trade the picks we did than ONE first round pick.",
      "time": "2013-03-01T00:20:15",
      "id": "815945084",
      "parentPost": "Very true, but you also should factor in the salary-cap number.  Alex Smith's 8.5 number for next season is why many of us felt that the Niners' trade leverage was lessened.  The Raiders badly overpaid for Palmer, also.",
      "parentPostTime": "2013-02-28T09:21:36",
      "parentPostId": "815098884"
    },
    {
      "threadId": "1109036026",
      "post": "Actually his best year, star wise, was 2010 with the Chiefs. ",
      "time": "2013-02-27T22:15:58",
      "id": "814598679"
    },
    {
      "threadId": "1105435124",
      "post": "Problem is LSU offered him last summer, so Saban wasn't the first. Not saying either is ok, but wanted to let you know that LSU was first.",
      "time": "2013-02-26T12:40:35",
      "id": "812785546",
      "parentPost": "What a joke ... Its Statutory Rape Saban Style ... The Dude has size but whats he going to do when the others catch up and knock him on his ass? ( See Danny Almando ,)",
      "parentPostTime": "2013-02-26T04:54:10",
      "parentPostId": "812440582"
    },
    {
      "threadId": "1101484528",
      "post": "Your wish is my command, http://fansided.spreadshirt.com/fansided-everest-hockey-hoodie-A12120830/customize/color/17",
      "time": "2013-02-26T00:40:52",
      "id": "812237599",
      "parentPost": "I can wait for a Causeway Crowd T-shirt, other than that only thing I see that is missing is a FanSided Hockey hoodie. Unless I missed it. Pretty sweet though, can't wait to keep seeing this store and network grow.",
      "parentPostTime": "2013-02-25T00:50:40",
      "parentPostId": "811170199"
    },
    {
      "threadId": "1104959988",
      "post": "This would be the deal breaker for me to stay a KC Chiefs fan. Dealing with Grbac, Huard, Croyle, Thigpen, Cassel, Etc. this guy is worse than any of those. ",
      "time": "2013-02-25T23:18:12",
      "id": "812165410"
    },
    {
      "threadId": "1100791648",
      "post": "I wasn't very impressed with him running his 40, luckily that doesn't need to be his best skill.",
      "time": "2013-02-23T16:25:34",
      "id": "809734813"
    },
    {
      "threadId": "1099425503",
      "post": "I launched the FanSided store, http://fansided.spreadshirt.com",
      "time": "2013-02-23T05:51:17",
      "id": "809236826"
    },
    {
      "threadId": "1083230620",
      "post": "For sure, I think he would excel with a good QB and coach.",
      "time": "2013-02-22T17:06:00",
      "id": "808622586",
      "parentPost": "That was my concern, and I think that sounds right, but if Bowe wants too much and is unsigned in April or even May, the 49ers could definitely get him, and that's what I see happening.",
      "parentPostTime": "2013-02-21T01:37:04",
      "parentPostId": "806352889"
    },
    {
      "threadId": "1097189903",
      "post": "Shocking that someone actually wants Dexter Pittman :)",
      "time": "2013-02-21T18:56:34",
      "id": "807321414"
    },
    {
      "threadId": "1094543179",
      "post": "Great stuff Ray and love having you in the FanSided family!",
      "time": "2013-02-20T16:13:55",
      "id": "805792149"
    },
    {
      "threadId": "1083965651",
      "post": "Is it because there is players with two logos? What if we reduced some of the parts of the content strategy?\n\n\nThese perform very well for promoting the network and the analytics has shown strong results. We can understand the concerns and only reserve this for big events or big promotions. Other Sports Blog Networks, ESPN, SI, and other big companies run these placements and most users are use to this type of promotion. \n\nI would love to see one for the Final Four and we have UNC on there :) We did this for our 49ers and Ravens sites during the Super Bowl and it helped their sites tremendously, so we will use these whenever we can help grow our sites. Hope that makes sense and we really appreciate the feedback.",
      "time": "2013-02-16T19:27:14",
      "id": "801709641",
      "parentPost": "okay the NBA-All Star Weekend ad that's on both sides of the sites and takes up the whole page.  It's too dominate if you ask me.  It's intimidating IMO and takes away from the individual sites.  The feedback I hear over and over again from readers is that we have too much going on and it's a lot to take in.",
      "parentPostTime": "2013-02-16T17:38:01",
      "parentPostId": "801593865"
    },
    {
      "threadId": "1072834030",
      "post": "I wanted a centralized location for our social media links, then Matt takes it to a whole new level by making it easy on all of us to like a page or follow someone on twitter (make sure you do both!): \n\nhttp://huddle.fansided.com/social-media/",
      "time": "2013-02-09T16:46:05",
      "id": "793954727"
    },
    {
      "threadId": "1071542518",
      "post": "I can't deny that the last few Bellator cards might be as exciting as the UFC ones, sans the Silva KO of Overeem",
      "time": "2013-02-08T04:42:39",
      "id": "792600047"
    },
    {
      "threadId": "1070448445",
      "post": "Nice suggestion!",
      "time": "2013-02-08T00:48:20",
      "id": "792469381",
      "parentPost": "This looks really handy. Is there any way to add a sorting function so that a user can see just football events, or hockey events, etc.?",
      "parentPostTime": "2013-02-07T21:00:38",
      "parentPostId": "792272611"
    },
    {
      "threadId": "1069038037",
      "post": "@bryantdouglass:disqus check my response above.",
      "time": "2013-02-08T00:47:36",
      "id": "792468710",
      "parentPost": "^ I agree. Many sites have branded columns, but we don't have graphics talent to get those graphics done. Nor do Michael and Tony have the time to truly tackle on requests. I've been asking for a FB cover for months and it seems that request has been lost in the pile of work these gents have to get done. I think we should find a way to get graphics work done for our site, even if its a request and not just a logo for our sites.",
      "parentPostTime": "2013-02-07T05:51:13",
      "parentPostId": "791494218"
    },
    {
      "threadId": "1067480433",
      "post": "Might also want to add to this post on what Mock Draft Databases you should email this to after posting on their site.",
      "time": "2013-02-06T05:30:36",
      "id": "790219592"
    },
    {
      "threadId": "1063040936",
      "post": "This is why I wish the game was on Saturday or the world would just shutdown on Monday after.",
      "time": "2013-02-03T17:33:31",
      "id": "787431573",
      "parentPost": "Well I can tell I am going to have a hard time getting up for work tomorrow.",
      "parentPostTime": "2013-02-03T17:30:11",
      "parentPostId": "787429838"
    },
    {
      "threadId": "1061866157",
      "post": "It's good to see other guys stepping up while Mcgruder has had a rough go the past two.",
      "time": "2013-02-03T16:26:22",
      "id": "787390154"
    },
    {
      "threadId": "1062072328",
      "post": "Ouch!",
      "time": "2013-02-03T04:45:35",
      "id": "787105044"
    },
    {
      "threadId": "1061258715",
      "post": "Can't wait for this card. Hopefully its an exciting card!",
      "time": "2013-02-02T18:47:57",
      "id": "786838753"
    },
    {
      "threadId": "1060859343",
      "post": "Carter, Parells, Shields would be three of my votes. Some might not agree with Shields but he was a multi-year pro bowler that paved the way for many record setting running backs while being one of the best people in the NFL with charities, etc. I know that charity work doesn't mean you are a hall of famer, but I do believe it should represent something for the people we enshrine into immortality.",
      "time": "2013-02-02T18:31:09",
      "id": "786820969"
    },
    {
      "threadId": "1059637041",
      "post": "Not a big fan of the current one. Can they release early so I don't have to play the current one anymore.",
      "time": "2013-02-02T18:00:27",
      "id": "786788745"
    },
    {
      "threadId": "1053174191",
      "post": "Nice work STEVE! Steve has been with FanSided a long time and have always admired his work. \n\nAlso Steve is one of the few writers I have actually got to meet in person and I can attest he is also a great guy. During a Blogs with Balls conference, he got to witness a transvestite trying to dance on me in the Chicago L Train... Yeah that's a true story.",
      "time": "2013-01-29T23:40:37",
      "id": "782546797"
    },
    {
      "threadId": "1047173397",
      "post": "Tough loss, but still in the top 25.",
      "time": "2013-01-29T02:26:34",
      "id": "781400356"
    },
    {
      "threadId": "1049949874",
      "post": "Congrats E!",
      "time": "2013-01-28T05:57:15",
      "id": "780362824"
    },
    {
      "threadId": "1042753742",
      "post": "Love this,\"Being a staff writer really helps me identify with my staff.\"",
      "time": "2013-01-24T02:24:04",
      "id": "776220077",
      "parentPost": "I started as a staff writer under Sean O'Connor in June 2011. I was the 3rd writer on staff with Sean and Kyle Bright. We were heading into the NBA lockout so there wasn't much to write about at the time. During that time, I had to really get creative in order to help Sean keep the site running (Kyle didn't post very often). I did a lot of mini series as well as posting updates on the lockout. This served me well. The NBA season finally kicked off and I started a weekly series, Red, White, and Blue Power Rankings. This also served me well. \n\n\nI mention these things because when Sean had to step down from the site in April 2012, he put me up as his replacement. One of the things he told me was that my consistent writing was what he liked best about me. It was good content too but he was sure that the blog wouldn't just die off. When Sean first took over, the blog was a wasteland and he did a GREAT job of putting it on the map. He didn't want to see his work go to waste by the blog going down again. Plus, I really loved writing for this blog and whether it was as an editor or staff writer didn't change how I felt. Same great passion.\n\n\nSo, I took over and so far it's been great. Being a staff writer really helps me identify with my staff. I have 10 staff writers so you can imagine how it is to keep them all in the loop. I've done many things to keep them involve. I forward them messages too because I want them to have the same feeling of belonging as I did. I set up a page just for them so that they could showcase their accomplishments \"Staff Spotlight\". I organize a posting schedule each month so that everyone has a fair chance to get posts up (they are not limited to this schedule but it's a way to keep them active). I really do value and appreciate my staff and hopefully, if and probably when I step down, I will have more than one option to look at for my replacement.",
      "parentPostTime": "2013-01-23T18:38:49",
      "parentPostId": "775858587"
    },
    {
      "threadId": "1041281043",
      "post": "I love seeing our staff writers take on a role as an editor and then crush it like Matt has. Keep doing what you're doing!",
      "time": "2013-01-24T02:16:34",
      "id": "776216376"
    },
    {
      "threadId": "1038575046",
      "post": "Oh I am sure some people were scared away, but look at the community on AA today.\n\n\nTell your staff writers, friends, family, etc. to start talking to you about the team on your site rather than in a call, text, twitter, etc.",
      "time": "2013-01-22T00:05:15",
      "id": "774357684",
      "parentPost": "Thanks Zach! I remember reading a story about you guys commenting on each other's posts on AA to help get things started, but I never knew it was to that extent. I'll send my staff this advice ASAP and get the ball rolling on this.",
      "parentPostTime": "2013-01-22T00:01:15",
      "parentPostId": "774355600"
    },
    {
      "threadId": "1029394859",
      "post": "We are now over 7,000 and well on way to our next goal of 10,000. Help us get there!",
      "time": "2013-01-21T00:03:51",
      "id": "773460117",
      "parentPost": "6,736!",
      "parentPostTime": "2013-01-20T04:16:28",
      "parentPostId": "772949349"
    },
    {
      "threadId": "1035897498",
      "post": "I'm ready for the 2013 season! QB is going to an interesting competition...",
      "time": "2013-01-20T22:53:44",
      "id": "773424460",
      "parentPost": "He certainly has the track record of coaching guys up. Najvar is a guy to really watch cause he could turn into a road grader in the run game. I have little doubt they will put him in a position to success and do what he does best.",
      "parentPostTime": "2013-01-20T18:03:26",
      "parentPostId": "773258297"
    },
    {
      "threadId": "1035584784",
      "post": "Cats are on fire! Big game coming up",
      "time": "2013-01-20T17:13:40",
      "id": "773231870"
    },
    {
      "threadId": "1036520641",
      "post": "I'm cheering for Tony G and hope he gets to at least play in the Super Bowl.",
      "time": "2013-01-20T17:11:15",
      "id": "773230670"
    },
    {
      "threadId": "1029213596",
      "post": "Really enjoy having you in the network! Keep up the great content you are consistently delivering over on Oil On Whyte.",
      "time": "2013-01-19T20:16:30",
      "id": "772732993",
      "parentPost": "The lockout sucked.  Things now are good.\n\nThanks, everyone.",
      "parentPostTime": "2013-01-16T17:13:48",
      "parentPostId": "770158956"
    },
    {
      "threadId": "1020210216",
      "post": "It just came to me one afternoon in my apartment while worry about grad school. I convinced Adam it was the right name for us :) but we went back and forth for days trying to find the right name. The original name was, Just the Fans",
      "time": "2013-01-15T18:27:53",
      "id": "768955460",
      "parentPost": "I didn't know you named FanSided. It is such a terrific name. Incredibly appropriate.",
      "parentPostTime": "2013-01-14T22:52:36",
      "parentPostId": "767873196"
    },
    {
      "threadId": "1027256902",
      "post": "Adam and I would actually just comment back and forth to each other until we got more people commenting. It actually worked, so try this with your staff members!",
      "time": "2013-01-15T18:26:24",
      "id": "768953750",
      "parentPost": "For the first year of Arrowhead Addict I would reply to every single comment that was left on the site. Every single one. I'd ask a question in bold at the bottom of most posts to encourage community involvement. I dubbed our site's readers Addicts early on, a nickname that gave the community an identity. These were just some of the tricks I used, but often my content itself would be designed to spark conversation. That doesn't mean I'd just Skip Bayless it and try to provoke knee-jerk reactions, but instead that I'd think outside the box and never sit on the fence. I'd also think about what would get the party started, and often playing armchair GM is a good way to get folks chatting. Sports fans always think they can do a better job than the crusty folks in the front office.",
      "parentPostTime": "2013-01-15T16:59:11",
      "parentPostId": "768865137"
    },
    {
      "threadId": "1010089026",
      "post": "\"Come on ya'll\"",
      "time": "2013-01-06T02:42:02",
      "id": "757381688",
      "parentPost": "Classic.",
      "parentPostTime": "2013-01-05T21:42:17",
      "parentPostId": "757122984"
    },
    {
      "threadId": "1008489445",
      "post": "He has to get a GREAT Defensive Coordinator, \nhttp://en.wikipedia.org/wiki/Jim_Johnson_(American_football)",
      "time": "2013-01-04T23:19:28",
      "id": "756135577"
    },
    {
      "threadId": "1006515035",
      "post": "I'm more curious about his staff since the Chiefs made a huge mistake with Dabbol. Lets hope he doesn't hire an OL coach to run the defense like he did in Philly",
      "time": "2013-01-03T19:52:53",
      "id": "754802805",
      "parentPost": "Now, can't wait to see what his staff looks like and to learn of Pioli's fate. \nIf the gameday live-threads weren't exciting, at least the kickoff to the offseason is!",
      "parentPostTime": "2013-01-03T19:15:34",
      "parentPostId": "754765044"
    },
    {
      "threadId": "1005578674",
      "post": "Nino Williams! KSU needed this win before Big 12 play starts soon. Now lets hope the Football Cats can take care of business tonight.",
      "time": "2013-01-03T16:53:50",
      "id": "754626083"
    },
    {
      "threadId": "1004863606",
      "post": "\"There you go, it gone\"",
      "time": "2013-01-03T01:10:36",
      "id": "753859826"
    },
    {
      "threadId": "1004644449",
      "post": "Might as well hire Childress as the OC and call it good",
      "time": "2013-01-02T17:34:01",
      "id": "753430462"
    },
    {
      "threadId": "1003669338",
      "post": "Man I wish this was for the National Championship",
      "time": "2013-01-02T17:20:06",
      "id": "753416527"
    },
    {
      "threadId": "1003966423",
      "post": "I've always believed that the Chiefs have always tried to get a financial discount on free agents which is never going to work in free agency. Also the general manager has always turned off potential free agents from Peterson to Pioli. I think its about time that Clark got involved with this team and started playing good cop sometimes to help land desirable coaches and free agents",
      "time": "2013-01-02T17:19:15",
      "id": "753415679"
    },
    {
      "threadId": "1003185024",
      "post": "Ouch!",
      "time": "2013-01-01T19:29:04",
      "id": "752819801"
    },
    {
      "threadId": "1001586439",
      "post": "CHIEFS!!!",
      "time": "2012-12-31T16:54:16",
      "id": "752071228"
    },
    {
      "threadId": "1001526942",
      "post": "This is exactly the case",
      "time": "2012-12-31T16:42:02",
      "id": "752059121",
      "parentPost": "My take:\n\nHunt wants a big name alpha dog coach who will call the shots.  If that coach is willing to have Pioli work FOR him then Pioli can stay in a role similar to what he did in NE with Bellichick.  If not, Pioli is gone.",
      "parentPostTime": "2012-12-31T16:27:45",
      "parentPostId": "752045290"
    },
    {
      "threadId": "1000542486",
      "post": "I think I would only keep players on that list if they are willing to take a lot less money. Albert I would let go due to his health issues, I would bring back Bowe just because Baldwin & Breaston are terrible, and would probably just franchise Colquitt if they have to.",
      "time": "2012-12-31T00:55:20",
      "id": "751727990"
    },
    {
      "threadId": "1000316265",
      "post": "I would at least like for us to possible try and develop other talent today rather than get Charles hurt again",
      "time": "2012-12-30T21:40:40",
      "id": "751633287",
      "parentPost": "I love our run game. F the pass running the ball is more exciting anyways",
      "parentPostTime": "2012-12-30T21:40:02",
      "parentPostId": "751633011"
    },
    {
      "threadId": "999413165",
      "post": "Does JDS get an immediate rematch?",
      "time": "2012-12-30T06:19:42",
      "id": "751252519"
    },
    {
      "threadId": "998487497",
      "post": "If they got him and rid of Perkins this team could run at all times",
      "time": "2012-12-30T00:39:48",
      "id": "751056811"
    },
    {
      "threadId": "998646033",
      "post": "But the Chiefs are DESPERATE for a QB!",
      "time": "2012-12-30T00:38:09",
      "id": "751056282",
      "parentPost": "I think it's best for him to return. The way he grew in just a season was unbelievable and another year of that kind of progress would make him a no-brainer top five pick.",
      "parentPostTime": "2012-12-29T21:29:45",
      "parentPostId": "750924551"
    },
    {
      "threadId": "999012140",
      "post": "Idiots",
      "time": "2012-12-30T00:21:45",
      "id": "751045849"
    },
    {
      "threadId": "998583896",
      "post": "I am fine with this. Let some young guys get experience and show what they can do. Plus it helps guarantee the number one pick even more ;)",
      "time": "2012-12-29T17:25:13",
      "id": "750723472"
    },
    {
      "threadId": "997323064",
      "post": "Great win for Baylor and the Big 12!",
      "time": "2012-12-29T04:28:08",
      "id": "750218754"
    },
    {
      "threadId": "996557935",
      "post": "I just voted for KD! I would also vote your sites new logo #1 too.",
      "time": "2012-12-29T02:21:28",
      "id": "750126690"
    },
    {
      "threadId": "975707447",
      "post": "His body has just been rough on him. Lets get a deal done before it gets any worse.",
      "time": "2012-12-29T02:20:21",
      "id": "750125832",
      "parentPost": "I mean, I think he wants to help so bad and plays so hard but the talent just isn't there and I truly think they'd be way better off without him.",
      "parentPostTime": "2012-12-17T19:48:39",
      "parentPostId": "741028054"
    },
    {
      "threadId": "993871602",
      "post": "I like Romeo as a role model for young men and a defensive coordinator, but not as a head football coach. He has to go...",
      "time": "2012-12-29T02:19:35",
      "id": "750125228"
    },
    {
      "threadId": "997575049",
      "post": "KC will trade you the #1 pick and future firsts for Payton and Brees.",
      "time": "2012-12-29T02:18:11",
      "id": "750124152"
    },
    {
      "threadId": "977488883",
      "post": "Brought the pain!",
      "time": "2012-12-16T16:52:35",
      "id": "739039724"
    },
    {
      "threadId": "976428433",
      "post": "Straight nasty last night",
      "time": "2012-12-16T04:02:41",
      "id": "738149506"
    },
    {
      "threadId": "967638690",
      "post": "Of course the Chiefs would get the number one pick in the year there are no great QBs coming out.",
      "time": "2012-12-15T22:26:41",
      "id": "737844697"
    },
    {
      "threadId": "975446598",
      "post": "Hector Lombard looked unreal tonight and glad to see we finally got to see that again. Who do you think is next for him?",
      "time": "2012-12-15T17:24:00",
      "id": "737538682"
    },
    {
      "threadId": "975498674",
      "post": "Anytime you quote Major League, I will +1 the article! \"Give em the heater Ricky\"",
      "time": "2012-12-15T17:21:00",
      "id": "737535433"
    },
    {
      "threadId": "975817472",
      "post": "If the Chiefs take Geno Smith with the number one pick, I might be looking for a new team!",
      "time": "2012-12-15T17:19:49",
      "id": "737534145"
    },
    {
      "threadId": "973038706",
      "post": "Great point about TCU compared to WVU. I flew to Texas from Missouri to watch the TCU game. Unfortunately we got in a car wreck and had to eat the tickets.\n\n\nHow much will the new additions to the stadium increase seating at BSFS?",
      "time": "2012-12-15T17:19:08",
      "id": "737533401"
    },
    {
      "threadId": "975258674",
      "post": "Great point. The new salary structures allow teams to take more of a chance on QBs that might not pan out. They only have to guarantee about 20-25mil instead of 50-75+ mil",
      "time": "2012-12-15T17:17:17",
      "id": "737531437",
      "parentPost": "With the new CBA, you can expect the trend to continue for a lot of QBs to be taken early, because the financial risk is not nearly as bad anymore.  And the value of the position certainly isn't going down anytime soon.\n\n\nIn short, yeah it's idiotic to predict one QB being taken in the first round.  I figure there will be at least two taken in the top 10, maybe three.",
      "parentPostTime": "2012-12-15T16:37:23",
      "parentPostId": "737488842"
    },
    {
      "threadId": "928685678",
      "post": "Go Cats!",
      "time": "2012-11-15T16:11:34",
      "id": "711020139"
    },
    {
      "threadId": "914360438",
      "post": "Giving up 51 points? I still think K-State should be ranked higher than Oregon. Sure they can score, but do they even play defense",
      "time": "2012-11-05T17:13:54",
      "id": "700971745"
    },
    {
      "threadId": "914275718",
      "post": "KSTATE - BAMA!",
      "time": "2012-11-05T17:12:14",
      "id": "700970541"
    },
    {
      "threadId": "864926547",
      "post": "Can't wait to see how far the WIldcats can go this year!",
      "time": "2012-09-30T23:19:28",
      "id": "667074321"
    },
    {
      "threadId": "851960929",
      "post": "and the Count wins. Tough call and the middleweight division still hasn't changed that much.",
      "time": "2012-09-23T03:19:18",
      "id": "659533842",
      "parentPost": "Reluctantly rooting for the Count, who is probably the most underrated fighter in the UFC (and should have beat Chael on FOX). The Stann schtick has been shoved down our throats a bit much, and I want to see a big Bisping-Silva fight.",
      "parentPostTime": "2012-09-21T20:45:31",
      "parentPostId": "658240612"
    },
    {
      "threadId": "855237184",
      "post": "BIG WIN!",
      "time": "2012-09-23T03:17:24",
      "id": "659532709"
    },
    {
      "threadId": "855264268",
      "post": "GO CATS! Klein for Heisman!",
      "time": "2012-09-23T03:17:14",
      "id": "659532588"
    },
    {
      "threadId": "852358555",
      "post": "Great to have a fellow Wildcat on board and Arrowhead Addict writer. Welcome to the network!",
      "time": "2012-09-21T17:26:29",
      "id": "658034863"
    },
    {
      "threadId": "846470752",
      "post": "Kansas State should be in the top 10 :)",
      "time": "2012-09-17T01:27:37",
      "id": "652742775"
    },
    {
      "threadId": "846651111",
      "post": "Big game this week! Go Cats, should be fun. #EMAW",
      "time": "2012-09-17T01:26:37",
      "id": "652742079"
    },
    {
      "threadId": "845748222",
      "post": "Big win for the Tigers, but they almost gave this one away.",
      "time": "2012-09-17T01:22:29",
      "id": "652738728"
    },
    {
      "threadId": "846899273",
      "post": "Could Romeo get fired this year? Pioli?",
      "time": "2012-09-17T01:21:20",
      "id": "652737827"
    },
    {
      "threadId": "843129445",
      "post": "Tiger Town, Shot at LSU/Auburn?",
      "time": "2012-09-14T01:06:01",
      "id": "649763825"
    },
    {
      "threadId": "840314021",
      "post": "Who even listens to Skip anymore, doesn't everyone know he is an idiot",
      "time": "2012-09-12T16:51:51",
      "id": "647971802"
    },
    {
      "threadId": "825113660",
      "post": "Wow!",
      "time": "2012-09-01T20:37:23",
      "id": "637230891"
    },
    {
      "threadId": "819807259",
      "post": "Nothing surprising here, the next ones will be more interesting...",
      "time": "2012-08-27T04:08:42",
      "id": "630514187"
    },
    {
      "threadId": "810349601",
      "post": "Welcome to FanSided!!!",
      "time": "2012-08-18T23:34:27",
      "id": "623031933"
    },
    {
      "threadId": "801965213",
      "post": "Tough decision, who did you have winning?",
      "time": "2012-08-12T05:02:17",
      "id": "617070961"
    },
    {
      "threadId": "801296893",
      "post": "I would even do Bowe and a 1st ",
      "time": "2012-08-12T00:24:33",
      "id": "616890289",
      "parentPost": "Larry is, by all accounts, a terrific guy. He is also an excellent receiver. I'd swap out Bowe for him in a heartbeat. ",
      "parentPostTime": "2012-08-11T15:34:24",
      "parentPostId": "616483131"
    },
    {
      "threadId": "800308532",
      "post": "Sierra Nevada Pale Ale,  mmmmmmmmmmmmmm.....",
      "time": "2012-08-11T01:55:55",
      "id": "616098071"
    },
    {
      "threadId": "752212124",
      "post": "@facebook-100000482976261:disqus \n\nhit me up on email sometime",
      "time": "2012-08-11T01:45:12",
      "id": "616093497",
      "parentPost": "I agree with this too Zach.  This was a great article and I enjoyed it.  I am waiting to here if anyone has the answer to your question because it is a really good one.",
      "parentPostTime": "2012-07-06T02:01:14",
      "parentPostId": "577639223"
    },
    {
      "threadId": "800345180",
      "post": "Why do teams even deal with the Lakers? They should know by now they will never lose out on a trade. Congrats LA, the west should be even more fun now.",
      "time": "2012-08-11T01:43:07",
      "id": "616092648"
    },
    {
      "threadId": "793907959",
      "post": "Just wish NBC would let me watch live on my TV, rather than a slow/choppy NBC stream online.",
      "time": "2012-08-06T00:19:36",
      "id": "610649701"
    },
    {
      "threadId": "765600717",
      "post": "Hope we have at least one US soccer team win in the Olympics. I still can't believe the men's team didn't even make it.",
      "time": "2012-07-15T01:45:15",
      "id": "588194539"
    },
    {
      "threadId": "765428877",
      "post": "Can't wait for the games to begin!",
      "time": "2012-07-14T22:08:02",
      "id": "588054258"
    },
    {
      "threadId": "764184328",
      "post": "Not sure why the Saints waited so long as they knew they needed to pay the man for everything he has done on and off the field for New Orleans.",
      "time": "2012-07-14T17:10:12",
      "id": "587876822"
    },
    {
      "threadId": "761374768",
      "post": "Amazing win for Weidman tonight. Not sure he is ready for Silva, but a dominating performance.",
      "time": "2012-07-12T03:35:39",
      "id": "584966692"
    },
    {
      "threadId": "759893788",
      "post": "This still will be a talented team, but still not on the Miami Heat level. Lopez is going to have to get a lot better and Joe Johnson is going to have to show up in games that matter most.",
      "time": "2012-07-11T22:13:41",
      "id": "584579673"
    },
    {
      "threadId": "760546279",
      "post": "Love this team, but they are missing too much. You look at the '92 team and everyone on that team is a HOF besides Christian Laettner. Who might be the one of the best college bball players of all-time.The International superstars in the league now, so its a bit harder to get a team of that talented again.  I don't see everyone on the current team being as talented as that the '92 team. This team would need Rose, Howard, and Wade to be very close.",
      "time": "2012-07-11T20:03:31",
      "id": "584487445"
    },
    {
      "threadId": "759308622",
      "post": "No way for a 3rd-5th round, I would for a 6th or 7th.",
      "time": "2012-07-10T18:19:54",
      "id": "583319856"
    },
    {
      "threadId": "755846809",
      "post": "Sonnen easily has enough stamina to go more than one round. When Sonnen whiffed and ending up on his ass, that wasn't a tiny bit embarassing? Then proceeded to get his ass kicked?\n",
      "time": "2012-07-09T13:00:42",
      "id": "582111703",
      "parentPost": "I don't know if he embarrassed him. Sonnen was awesome in the first round but got so gassed from being ticked off in the first round and expending a ton of energy to stay aggressive. If Sonnen had infinite stamina, he would've won.",
      "parentPostTime": "2012-07-08T08:23:04",
      "parentPostId": "580452584"
    },
    {
      "threadId": "756469882",
      "post": "Yep, and his posse yelling at the person taping.",
      "time": "2012-07-09T12:59:22",
      "id": "582110570",
      "parentPost": "Video is pretty much worthless. Doesn't show anything other than him getting cuffed. ",
      "parentPostTime": "2012-07-08T23:25:28",
      "parentPostId": "580958908"
    },
    {
      "threadId": "757574879",
      "post": "Evans would be the best fight on this list, unless by some miracle they could get Anderson and Jones in the octagon. I think Jones is more likely to fight JDS than Silva.",
      "time": "2012-07-09T12:58:51",
      "id": "582110167"
    },
    {
      "threadId": "756466578",
      "post": "Will a Brit ever win again?",
      "time": "2012-07-08T21:16:23",
      "id": "580851589"
    },
    {
      "threadId": "756414830",
      "post": "Durant is already unstoppable so I can't imagine him better in the game, same with LeBron.\n\n\nI think Nash will help Kobe's FG% and lower his turnovers this year. Kobe will have to develop as a better catch and shoot type player, like Jordan did late in his career.",
      "time": "2012-07-08T21:11:35",
      "id": "580849344"
    },
    {
      "threadId": "755441453",
      "post": "They also tried to save us all from Brett Favre.",
      "time": "2012-07-08T00:36:29",
      "id": "580184621",
      "parentPost": "The story missed the part where Sean Payton anticipated this event over two years ago and tried to put a bounty on Peterson's head to prevent it. What a saint, that Sean Payton.",
      "parentPostTime": "2012-07-07T22:16:16",
      "parentPostId": "580090795"
    },
    {
      "threadId": "754366409",
      "post": "If it wasn't Silva, Dana would be throwing a shit fit.",
      "time": "2012-07-07T15:59:38",
      "id": "579796418",
      "parentPost": "Pretty sure they have to fine Silva for that. You can't strike an opponent at the weigh-ins. ",
      "parentPostTime": "2012-07-07T02:02:46",
      "parentPostId": "579220433"
    },
    {
      "threadId": "755213219",
      "post": "Someone has their swagger back. She will definitely be one of the best of all-time.",
      "time": "2012-07-07T15:58:53",
      "id": "579795737"
    },
    {
      "threadId": "755159585",
      "post": "If you already have a ring, why do this? He must really dislike Rondo, but the Celtics almost forced his hand when they brought in Jason Terry.",
      "time": "2012-07-07T15:53:05",
      "id": "579790687"
    },
    {
      "threadId": "751598811",
      "post": "Really really poor management ",
      "time": "2012-07-05T17:00:38",
      "id": "577046260",
      "parentPost": "They botched this thing two years ago. Imagine the type of deal they could have pulled off if they traded Nash at the right time when his ROI could have been huge. Instead they sit on Nash for no reason, thankfully getting draft picks that they probably will trade, but better than nothing. Between Amare and Nash, the Suns could have re-tooled with 1 or 2 down years. Just sad. ",
      "parentPostTime": "2012-07-05T16:18:48",
      "parentPostId": "576976830"
    },
    {
      "threadId": "751807494",
      "post": "Huge marketing loss for New York. It's crazy to think that Lin basically made $30 million off one months work.",
      "time": "2012-07-05T16:20:42",
      "id": "576979814"
    },
    {
      "threadId": "750246575",
      "post": "It's going to happen. Magic will get three firsts and Lopez with some other contracts.",
      "time": "2012-07-04T19:12:43",
      "id": "576333567",
      "parentPost": "Willing to bet it is only a matter of time before the Howard trade goes through. I don't see how he Magic have any other choice. ",
      "parentPostTime": "2012-07-03T23:59:04",
      "parentPostId": "575704001"
    },
    {
      "threadId": "750006838",
      "post": "I can't wait!",
      "time": "2012-07-04T02:30:40",
      "id": "575793331",
      "parentPost": "If you aren't excited for this fight, chances are your heart is not beating. ",
      "parentPostTime": "2012-07-03T22:27:18",
      "parentPostId": "575643324"
    },
    {
      "threadId": "746988474",
      "post": "Was Mo Cheeks contract up?",
      "time": "2012-07-02T20:08:53",
      "id": "574596968",
      "parentPost": "It was just a matter of time. There should be a press conference tomorrow for this.",
      "parentPostTime": "2012-07-01T21:50:53",
      "parentPostId": "573815637"
    },
    {
      "threadId": "748388037",
      "post": "This is actually worse for the Magic because they can only trade him to one team. Has the NBA let too much power go to the players? or is the sport different because less players play than in other major sports?",
      "time": "2012-07-02T20:08:09",
      "id": "574596198"
    },
    {
      "threadId": "745246517",
      "post": "Brooks would be crazy to leave this talent.",
      "time": "2012-06-30T05:04:37",
      "id": "572803391"
    },
    {
      "threadId": "744365474",
      "post": "Did Donnie Walsh let Isiah call in a pick?",
      "time": "2012-06-30T05:03:48",
      "id": "572803172",
      "parentPost": "Really just made me laugh out loud when that pick was made.",
      "parentPostTime": "2012-06-29T17:43:19",
      "parentPostId": "571943382"
    },
    {
      "threadId": "745175409",
      "post": "He is somehow making it popular (at least for himself), so one would have to say yes.",
      "time": "2012-06-30T04:51:07",
      "id": "572796627",
      "parentPost": "Does a unibrow count as facial hair?",
      "parentPostTime": "2012-06-30T04:47:33",
      "parentPostId": "572795477"
    },
    {
      "threadId": "744218821",
      "post": "Wasn't a hard pick to make. Most drafts team trade late picks for cash, so it was a HUGE steal for OKC. Hopefully he can produce. The good news is that he is going to be learning from a winning/hungry team.",
      "time": "2012-06-29T14:53:53",
      "id": "571810749"
    },
    {
      "threadId": "737981510",
      "post": "I think in 13-14 makes sense. We still need the guy for Bynum and Howard. Ibaka will need to step up his game this off-season so he can be on the court for the entire finals. Not worth a big deal if you can't be on the court when it matters most.",
      "time": "2012-06-25T14:42:52",
      "id": "566717423",
      "parentPost": "Well some would like to see them amnesty him this summer. I doubt that will happen. Having him around will make it tougher to keep Harden and Ibaka and I think they are committed to keep both of them over anything. That might mean Perkins will be gone somehow by 2013-14.",
      "parentPostTime": "2012-06-24T19:06:24",
      "parentPostId": "566122146"
    },
    {
      "threadId": "739836219",
      "post": "Peyton Manning, do you really want this man coming for you?",
      "time": "2012-06-25T14:41:12",
      "id": "566716249"
    },
    {
      "threadId": "738927334",
      "post": "This was a wasted pick, but that's what happens with some of these foreign guys. This draft is VERY deep so we should find someone late in the first that could give some minutes next year.",
      "time": "2012-06-25T14:22:01",
      "id": "566703558"
    },
    {
      "threadId": "739815247",
      "post": "As long as the Thunder can get a discount and don't have to max him out, I am all for this. He had one bad series as a 22 year-old, he will be back.",
      "time": "2012-06-25T14:20:11",
      "id": "566702407"
    },
    {
      "threadId": "733006368",
      "post": "When David Stern is your example, this is how your players act. ",
      "time": "2012-06-19T20:56:04",
      "id": "562200017"
    },
    {
      "threadId": "732365687",
      "post": "I hate to say it, but LeBron is guarding Durant better than Durant is guarding him. We don't need to give James anymore motivation, dude is determined as anything right now. Hopefully this motivates Durant too.",
      "time": "2012-06-19T18:29:03",
      "id": "562089441"
    },
    {
      "threadId": "732571284",
      "post": "Gotta win this one, Thunder Up! I don't care if LeBron goes off, they just can't let DWade have a great game and Bosh to go nuts on the boards. If Durant gets in foul trouble Brooks will need to just let him play tonight. ",
      "time": "2012-06-19T18:23:53",
      "id": "562085885"
    },
    {
      "threadId": "731208820",
      "post": "Can't foul three point shooters, have to make free-throws, Fisher chucking up a three with 18 on shot clock, him trying to drive and getting swatted, Thabo not getting an and1 after the steal on Wade, and BS calls on Durant to put him foul trouble. \n\n\nI agree I have no clue what Brooks was thinking there taking both out with the Miami stars in there. We also can't let Bosh hit the boards like he did.",
      "time": "2012-06-18T17:47:48",
      "id": "561168246"
    },
    {
      "threadId": "727703700",
      "post": "Now its a must win in game 4",
      "time": "2012-06-18T17:44:24",
      "id": "561165995",
      "parentPost": "Yeah it would have been nice to see them get a few more calls because they were home but they have some things to really work on if they're going to win this series.",
      "parentPostTime": "2012-06-17T04:02:19",
      "parentPostId": "560190742"
    },
    {
      "threadId": "729453924",
      "post": "Great to have you in the network and welcome to the FanSided family!",
      "time": "2012-06-18T17:42:02",
      "id": "561164485"
    },
    {
      "threadId": "731352043",
      "post": "I like all three suggestions, but I still think players might not compete. I can see someone blowing out an ACL or hammy that would make less guys compete in pro bowl skills challenges. But it can't be any worse than it already is.\n\n\nLove #1 and #2, but unfortunately I don't think either will happen.",
      "time": "2012-06-18T17:33:16",
      "id": "561158215"
    },
    {
      "threadId": "727422027",
      "post": "Exactly!\n",
      "time": "2012-06-16T19:18:55",
      "id": "559972587",
      "parentPost": "Yeah they creamed us on the ground. Jerome Harrison/Daboll.",
      "parentPostTime": "2012-06-16T14:36:54",
      "parentPostId": "559754234"
    },
    {
      "threadId": "727579513",
      "post": "I believe this is just through NFL.com. Not 100% sure",
      "time": "2012-06-16T05:34:56",
      "id": "559306853",
      "parentPost": "Where do you purchase it from? Is the through the NFL network and do you get to watch any live games or is it all basically replays? I also do Directv Sunday Ticket but if it allows you to watch every game live, that would be quite a savings, even though Directv has lowered their Sunday ticket price to $199.",
      "parentPostTime": "2012-06-16T03:32:33",
      "parentPostId": "559103632"
    },
    {
      "threadId": "727161514",
      "post": "Thanks to everyone for making the move from LF to Disqus, but we feel that this will be a better platform for everyone!",
      "time": "2012-06-15T14:42:56",
      "id": "558558042"
    },
    {
      "threadId": "726694975",
      "post": "Terrible call late. Thunder dug themselves out of a big hole, but like you said need to stop having to do that every game.",
      "time": "2012-06-15T04:16:59",
      "id": "557971587"
    },
    {
      "threadId": "726566258",
      "post": "Welcome to the FanSided family! Excited to see this sites continued growth.",
      "time": "2012-06-15T01:46:00",
      "id": "557779534"
    },
    {
      "threadId": "723480213",
      "post": "Husky Nation is only going to get stronger!",
      "time": "2012-06-14T21:09:25",
      "id": "557544906",
      "parentPost": "Thanks, Zach! We're really excited to get started.",
      "parentPostTime": "2012-06-13T01:07:09",
      "parentPostId": "555707261"
    },
    {
      "threadId": "347603659",
      "post": "Welcome to the network Marty! ",
      "time": "2011-07-02T22:28:08",
      "id": "240747214"
    },
    {
      "threadId": "347277663",
      "post": "Great to have you on the team John!  ",
      "time": "2011-07-01T17:27:36",
      "id": "240121934"
    },
    {
      "threadId": "343529153",
      "post": "Thanks for AA for being one of our sites that test this new system out. Again please leave feedback so we know what everyone thinks",
      "time": "2011-06-27T18:11:15",
      "id": "236089390"
    },
    {
      "threadId": "342905262",
      "post": "Should be able to login with Facebook, Twitter, Google, Yahoo, OpenID, and Disqus instead of a guest. Try it out and let us know. ",
      "time": "2011-06-27T00:35:53",
      "id": "235469229",
      "parentPost": "Also, will you have to put your name and email in every time?",
      "parentPostTime": "2011-06-27T00:32:30",
      "parentPostId": "235467263"
    },
    {
      "threadId": "193241901",
      "post": "Great article, I especially like what you had to say in the last paragraph.",
      "time": "2010-04-04T05:15:00",
      "id": "114126923"
    },
    {
      "threadId": "54856390",
      "post": "Brick is a great movie...",
      "time": "2010-01-01T21:07:05",
      "id": "27778944",
      "parentPost": "Fantastic article. Although I do not know some of your personal favourites, I think you have a keen eye for a good film and you have added about 5 fims to my must see list, starting with Brick!",
      "parentPostTime": "2010-01-01T14:36:55",
      "parentPostId": "27738796"
    }
  ],
  "profileInfo": {
    "username": "fansided",
    "about": "",
    "name": "Zach",
    "disable3rdPartyTrackers": false,
    "isPowerContributor": false,
    "isAnonymous": false,
    "rep": 1.5186089999999999,
    "profileUrl": "https://disqus.com/by/fansided/",
    "url": "http://fansided.com",
    "reputation": 1.5186089999999999,
    "location": "",
    "isPrivate": false,
    "signedUrl": "http://disq.us/?url=http%3A%2F%2Ffansided.com&key=BLA0K_Ars2tTg4RWkmFe-w",
    "isPrimary": true,
    "joinedAt": "2008-03-24T06:34:55",
    "id": "17130",
    "avatar": {
      "small": {
        "permalink": "https://disqus.com/api/users/avatars/fansided.jpg",
        "cache": "//a.disquscdn.com/uploads/users/17130/avatar32.jpg?1419357227"
      },
      "isCustom": true,
      "permalink": "https://disqus.com/api/users/avatars/fansided.jpg",
      "cache": "//a.disquscdn.com/uploads/users/17130/avatar92.jpg?1419357227",
      "large": {
        "permalink": "https://disqus.com/api/users/avatars/fansided.jpg",
        "cache": "//a.disquscdn.com/uploads/users/17130/avatar92.jpg?1419357227"
      }
    }
  }
}