{
  "comments": [
    {
      "threadId": "4796969665",
      "post": "The Clam is currently just under $215 on Amazon. Incredible deal!",
      "time": "2016-07-07T06:48:19",
      "id": "2769647766"
    },
    {
      "threadId": "4858172691",
      "post": "Ugh, two and a half minutes of slo-mo",
      "time": "2016-06-13T14:51:35",
      "id": "2728203573"
    },
    {
      "threadId": "2373769533",
      "post": "Any chance this is coming anytime soon? Last update was in 2015...",
      "time": "2016-05-06T00:35:21",
      "id": "2660953525",
      "parentPost": "Very possible!",
      "parentPostTime": "2015-10-12T22:40:17",
      "parentPostId": "2303933250"
    },
    {
      "threadId": "2332120056",
      "post": "I just got one and it's awesome!",
      "time": "2016-04-29T19:12:16",
      "id": "2649691839",
      "parentPost": "Hi Joe. I just peaked at the reviews for the Sky and it's very likely it wasn't a #1 top pick on Amazon when we were researching & or even updating this piece. In fact, it might not have become an Amazon top pick until 2015.\n\nThere is a good chance we could look at it though! I found some reviews that were obviously boosters (1 or 2 word reviews from people that have only ever bought the Sky and nothing else ever) but nothing really stands out as phony. Thanks for the feedback!",
      "parentPostTime": "2016-04-19T22:14:35",
      "parentPostId": "2632473836"
    },
    {
      "threadId": "4728217565",
      "post": "Do they make a pitcher? If so, link to it. I only see jugs.",
      "time": "2016-04-26T13:43:48",
      "id": "2643529781",
      "parentPost": "Thanks for the thorough review. Definitely agreed on the Soma and will be checking out the Pur. Any thoughts on the Berkey Black based filtration systems? I find them appealing in concept but have yet to see any reliable tests.",
      "parentPostTime": "2016-04-18T16:41:06",
      "parentPostId": "2630021341"
    },
    {
      "threadId": "1188964947",
      "post": "Do you have any issues with URL handlers disappearing when you quit/restart the fluid app?",
      "time": "2016-04-21T00:12:23",
      "id": "2634521206"
    },
    {
      "threadId": "4190639483",
      "post": "When will 3.0.2 be available?",
      "time": "2016-04-06T21:13:44",
      "id": "2610071069"
    },
    {
      "threadId": "4686643079",
      "post": "Thought this was finally going to be an article about how helmets should be worn in heavy waves and the pros should lead the way. It feels like surfing may never truly embrace safety over heroism, but maybe there is hope - PFDs did catch on in big wave surfing.",
      "time": "2016-03-26T06:48:57",
      "id": "2589900430"
    },
    {
      "threadId": "2249654938",
      "post": "What benchmarks? I think it's pretty well established that nfs is faster, it's just that shared folders are the default.",
      "time": "2016-03-25T14:05:27",
      "id": "2588599322",
      "parentPost": "We have a rails app that before changing shared folder type to 'nfs' took about 50sec for refresh.Now it takes only about 1-2 secs at development mode. The problem is that all benchmarks at internet show that virtual box shared folder is faster than nfs.",
      "parentPostTime": "2016-03-18T20:43:00",
      "parentPostId": "2577306900"
    },
    {
      "threadId": "4680546234",
      "post": "👏👏",
      "time": "2016-03-21T13:21:42",
      "id": "2581184471"
    },
    {
      "threadId": "4655929977",
      "post": "These photos are so overprocessed",
      "time": "2016-03-13T01:28:53",
      "id": "2566580865"
    },
    {
      "threadId": "2231987592",
      "post": "We actually shut Cult down, so I can't speak to current behavior, but I don't recall having any extended spike like that post-deploy. Do they support Puma yet? If so I'd definitely switch from Unicorn if I was doing it now.",
      "time": "2016-03-11T13:56:29",
      "id": "2563776206",
      "parentPost": "We did something similar and it has worked really well for us. However, when we deploy we see a somewhat large spike in request times (100ms - 300ms above our average), which lasts for roughly 5 minutes. Wondering if you are experiencing something similar, or if it's just an artifact of our setup.",
      "parentPostTime": "2016-03-11T02:09:49",
      "parentPostId": "2563113159"
    },
    {
      "threadId": "4645612423",
      "post": "Rincon, which has a rivermouth right in the middle of the break? Unfortunately, most of the good spots in Southern California are where water flows out.",
      "time": "2016-03-10T15:16:05",
      "id": "2561807920",
      "parentPost": "There's no proof the guy in Point Loma, who had heart surgery a year before he died and had continued underlying health issue died from a staph infection that he contracted in the water.  The huge majority of surfers don't get sick after surfing in the rain.  And nobody cares about the shit flowing into the water of Malibu during winter storms because Malibu's a summer spot and anyone worth their salt is surfing Oxnard or Rincon when it's raining. \n\nSewage is a legit concern, but why not try handling it without the scare tactics?",
      "parentPostTime": "2016-03-09T04:45:16",
      "parentPostId": "2559258052"
    },
    {
      "threadId": "1284179652",
      "post": "I have the same problem with the Edge. It's bizarre, and sporadic, and frustrating as hell.",
      "time": "2016-02-29T20:12:24",
      "id": "2543959020",
      "parentPost": "I'm curious if anyone (or the author) has experienced the following symptoms. \n\nI have a Voyager Legend that I've used regularly since mid 2013. It has always worked flawlessly for my needs, even when the sensors started going a bit haywire. I simply deactivated that feature since I wasn't relying on it that much and (for my) wasn't a huge value-add. \n\nHowever, in the last 6-12 months or so, I've been told that call quality has declined to the point where it is unusable. I can hear the person I'm talking to perfectly fine, but to them, I come in extremely faintly, garbled, or both. After investigating, I've seen numerous threads all over the Internet (including Plantronics' support forum) reporting the same thing. I've followed all the troubleshooting steps, including updating to the latest firmware, all to no avail. Call performance is equally poor (\"we can barely hear you!\") whether I'm calling on my cell or on a Skype call on my work machine using the BT dongle that came with my unit. \n\nI'd initially thought that this was a signal to make the jump to the newest flagship Plantronics headset, the Edge, but the forums are filled with similar problems with that model as well. It's almost as if the native software running their devices just doesn't work as well across their entire product line as it once did. I'm hoping Wirecutter is able to find any answers, because I'm now looking for the best headset that ISN'T a Plantronics (not something I'm happy about, since I absolutely loved my Legend when it was working). I'd rather stay with Plantronics, but not with this widespread uncertainty over its current quality. ",
      "parentPostTime": "2016-02-24T21:35:09",
      "parentPostId": "2533436788"
    },
    {
      "threadId": "4584481556",
      "post": "I'm a big fan of <a href=\"https://github.com/chadrem/market_bot\">Envied</a> but it seems to have been abandoned. Glad to see a potential replacement being developed.",
      "time": "2016-02-20T00:13:49",
      "id": "2524269632"
    },
    {
      "threadId": "3239301210",
      "post": "Thank you!",
      "time": "2016-02-03T16:07:10",
      "id": "2493950559"
    },
    {
      "threadId": "4508775509",
      "post": "It'd be great if you mentioned that the _v in grep_v stands for inverse. That wasn't obvious to me.",
      "time": "2016-01-27T15:30:45",
      "id": "2480910915"
    },
    {
      "threadId": "4387963010",
      "post": "Adam lives!\n\nThanks for the amazing work, Solspot team. You guys are awesome!",
      "time": "2015-12-10T14:39:16",
      "id": "2403129521",
      "parentPost": "Yes we are planning on bringing it back...it is just a bit of overload for the team right now, particularly with other stuff we all have going on. \n\n\nFor the time being we will continue to update all of the long-range forecasts on the same schedule as before, and will have the automated 5-day forecasts, both at the region and the spot levels, updating all of the time.\n\n\nWe know this is a bit of a let down but we are hoping to get it all back up and running in 2016 (and have some other cool stuff for everyone to use as well). ~ Adam",
      "parentPostTime": "2015-12-09T18:48:15",
      "parentPostId": "2401793454"
    },
    {
      "threadId": "4364028987",
      "post": "Thanks for bringing good news, Austin!",
      "time": "2015-12-01T16:27:59",
      "id": "2387255013"
    },
    {
      "threadId": "4350304608",
      "post": "See my comment :)",
      "time": "2015-11-25T18:24:13",
      "id": "2378524671",
      "parentPost": "The update is for the G7 (not the GX7), GX8 (not G8) and FZ300. Please correct the article and the picture.",
      "parentPostTime": "2015-11-25T18:05:06",
      "parentPostId": "2378491976"
    },
    {
      "threadId": "4347859270",
      "post": "Thank you for beating me to this. I'm so tired of reporters getting this wrong.",
      "time": "2015-11-25T17:41:29",
      "id": "2378449111",
      "parentPost": "It's Chip&Sig in USA markets...At least for now/most cases.",
      "parentPostTime": "2015-11-25T14:48:07",
      "parentPostId": "2378147603"
    },
    {
      "threadId": "4313818556",
      "post": "One shutterstock image and no video? What is this, 1995?",
      "time": "2015-11-23T16:24:09",
      "id": "2374758407"
    },
    {
      "threadId": "4325481884",
      "post": "Link to the new buoy?",
      "time": "2015-11-17T03:33:41",
      "id": "2363800675"
    },
    {
      "threadId": "4314084484",
      "post": "Haha, a shoutout to ME? Wish it could've been under better circumstances...",
      "time": "2015-11-13T01:35:01",
      "id": "2357085480"
    },
    {
      "threadId": "4304902249",
      "post": "Wow, this is one of the most depressing forecasts I've seen in a while...",
      "time": "2015-11-10T18:13:33",
      "id": "2352147678"
    },
    {
      "threadId": "3748383365",
      "post": "N2 but I'm also curious about whether N2O would work",
      "time": "2015-10-25T22:07:29",
      "id": "2326516037",
      "parentPost": "I am confused a bit... When serving Nitro Coffee what is it actually infused with? ... Nitrogen or N2O ( Whip cream cartridge) . What would be the result for both?\n\n\n\n\n\n\n\n",
      "parentPostTime": "2015-10-19T07:18:25",
      "parentPostId": "2314574339"
    },
    {
      "threadId": "4230106714",
      "post": "Any feedback on using these with a surround system? How would one go about matching a center, rear & subwoofers?",
      "time": "2015-10-21T00:03:33",
      "id": "2318188562"
    },
    {
      "threadId": "1666723977",
      "post": "It's worth noting that they don't seem to offer wire management grommets on the Jarvis Bamboo",
      "time": "2015-10-08T23:58:23",
      "id": "2297494442",
      "parentPost": "The Jarvis bamboo is our new top pick. We have not tested the EvoDesk bamboo yet.",
      "parentPostTime": "2015-10-07T22:19:26",
      "parentPostId": "2295476480"
    },
    {
      "threadId": "4037425868",
      "post": "Please, it's HAN Solo, not Hans ",
      "time": "2015-08-16T22:42:23",
      "id": "2197555363"
    },
    {
      "threadId": "3666875139",
      "post": "Have you managed to get SSL working for a custom tumblr domain?",
      "time": "2015-07-30T06:11:38",
      "id": "2164645964"
    },
    {
      "threadId": "3520910893",
      "post": "Did you look into QNAP NAS devices? Anyone have opinions on them?",
      "time": "2015-07-28T16:05:43",
      "id": "2161421995"
    },
    {
      "threadId": "3922028630",
      "post": "\"Suppose that there was just 50 inches (1.27 m) of snow that covered an area that was 1 square mile. If you take all of this snow and move it to a football field, it would stack 600 meters high (almost 2,000 feet). So you can see the problem with the massive amounts of Boston snow.\"\n\nUmm, no, now I'm just completely confused. When will journalists stop comparing everything to football fields? ",
      "time": "2015-07-10T23:25:58",
      "id": "2129480983"
    },
    {
      "threadId": "3748259818",
      "post": "World of Outdoors at the velocity mall. Good luck, and glad you like our blog!",
      "time": "2015-06-26T13:11:38",
      "id": "2101300247",
      "parentPost": "Welcome to Singapore! I'm glad you had fun here. It's a little too urban; we don't have too much of a natural scenery around here.\n\nAnd then... this is going to sound weird but I chanced upon your site while googling for \"Keen Targhee II Singapore,\" hoping to find a shop that sells this brand here. If you guys got your pair here, do you mind letting me know where you bought them (if you guys can still remember)? Hehe.\nAnd so I ended up reading more and more posts on this site. Haha. Am trying to curb my wanderlust whilst reading and looking at your posts. Good stuff! Safe travels and have fun! :D",
      "parentPostTime": "2015-06-26T09:25:42",
      "parentPostId": "2101065720"
    },
    {
      "threadId": "3547744166",
      "post": "YOU ARE MY HERO!!!!!!!!!",
      "time": "2015-04-27T15:00:02",
      "id": "1989945699"
    },
    {
      "threadId": "2404815204",
      "post": "Thanks! I updated the URL in the post.",
      "time": "2015-03-13T14:36:39",
      "id": "1905268457",
      "parentPost": "Thanks so much for this, I thought I was a doomed to something much more complicated when I saw that Kango was windows only.\n\nMinor edit - the ievms url has changed. It's now githubusercontent.com (https://raw.githubusercontent.com/xdissent/ievms/master/ievms.sh)",
      "parentPostTime": "2015-02-27T20:41:12",
      "parentPostId": "1879285418"
    },
    {
      "threadId": "3384864632",
      "post": "Sounds awesome! Weather is great in Australia as well!",
      "time": "2015-01-05T01:10:10",
      "id": "1772007690",
      "parentPost": "You make it all look good but I know those hikes aren't easy!  Miss you, SoCal is back to normal temps here, with 80's expected this week in Fallbrook!  Not too shabby;))",
      "parentPostTime": "2015-01-05T00:55:44",
      "parentPostId": "1771994920"
    },
    {
      "threadId": "3378828639",
      "post": "No tomatoes beck! Actually don't know why they called it pomodoro but it had zucchini and beets. Yum!",
      "time": "2015-01-02T20:52:06",
      "id": "1769018318",
      "parentPost": "is raw pomodoro pizza raw tomatoes?  is that grass on top of the pizza?",
      "parentPostTime": "2015-01-02T20:34:14",
      "parentPostId": "1768991850"
    },
    {
      "threadId": "3150348945",
      "post": "Yeah, I tried as well and I see what you mean. I guess that's the double-edged sword of getting the preloading benefit of Spring. Simplecov has to be loaded before your code is auto/eager-loaded or your coverage will be wrong, and there doesn't seem to be an effective way to turn it off once it's been loaded (at least not that I've found). Restarting Spring is the only solution. I just run my coverage every time I run rspec. I figure more info is better than less.",
      "time": "2014-12-12T19:38:30",
      "id": "1739271872",
      "parentPost": "Sorry about that man. \n\nI already have the env setup like the attached, however, once the spring server is started by running RAILS_ENV=test bundle exec ./bin/rspec it will run the coverage block every single time.  I literally have to stop spring, and then run it without the ENV var.",
      "parentPostTime": "2014-12-12T19:08:33",
      "parentPostId": "1739228866"
    },
    {
      "threadId": "3133337404",
      "post": "Thank you! I can now use my Dell P2815Q 4K display in HiDPI mode again!",
      "time": "2014-11-01T23:00:52",
      "id": "1666038314"
    },
    {
      "threadId": "728761863",
      "post": "\"If you see a big red blog\" ... should be \"blob\" right?",
      "time": "2014-08-02T20:00:36",
      "id": "1522703131"
    },
    {
      "threadId": "2700663613",
      "post": "No, I happen to be a customer and know the store isn't normally open then...",
      "time": "2014-05-21T01:55:01",
      "id": "1396613535",
      "parentPost": "What business is that of yours? Do you want all the sidewalks rolled up at midnight & a curfew imposed?",
      "parentPostTime": "2014-05-21T01:32:02",
      "parentPostId": "1396588511"
    },
    {
      "threadId": "728761371",
      "post": "Some great recent video of Cloudbreak working: https://www.youtube.com/watch?v=473wzDrOKow",
      "time": "2014-03-19T02:20:20",
      "id": "1290787566"
    },
    {
      "threadId": "728761868",
      "post": "Some crappy video of it breaking: https://www.youtube.com/watch?v=EHhu0Ys2hhE",
      "time": "2014-03-19T01:50:25",
      "id": "1290760231"
    },
    {
      "threadId": "733986898",
      "post": "Adam, you are seriously the man. FAST service, with a smile!",
      "time": "2014-03-19T01:03:41",
      "id": "1290716578",
      "parentPost": "thanks Stefan...not sure when those got lost...but they have been updated. Thanks for the heads up!",
      "parentPostTime": "2014-03-19T01:01:41",
      "parentPostId": "1290714433"
    },
    {
      "threadId": "2285696933",
      "post": "I highly recommend getting a set of motion-powered lights. I have these on my bike and never have to worry about dead batteries anymore: http://amzn.com/B008ZSBPWG\n\n\nYes they're expensive, but your life is worth it!",
      "time": "2014-02-19T01:23:12",
      "id": "1250861979"
    },
    {
      "threadId": "1994250924",
      "post": "Good question. I've edited the article to clarify, but essentially rvm is an extremely heavyweight tool, with ~20,000 lines of shell script, whereas chruby + ruby-install being ~500 lines.",
      "time": "2014-02-08T16:46:50",
      "id": "1235970671",
      "parentPost": "Why did you decided to go with a whole different set of tools? \nWhy not just delete all gemsets and let rvm take care of ruby? \n\n\nI'm not saying you should have done the latter. \nI'm just curious about the thought process.",
      "parentPostTime": "2014-02-08T05:57:08",
      "parentPostId": "1235591297"
    },
    {
      "threadId": "2048756836",
      "post": "Brave and informative post. Thanks for the kick in the butt ... it's about time I manned up.",
      "time": "2014-02-07T19:37:39",
      "id": "1235031760"
    },
    {
      "threadId": "2183038689",
      "post": "It's the dashboard built-in to Split: https://github.com/andrew/split",
      "time": "2014-01-29T21:06:10",
      "id": "1222396863",
      "parentPost": "Thanks for the post -- just curious if that screenshot of the experiments you're tracking is a 3rd-party tool or homegrown.  (We use trello.)",
      "parentPostTime": "2014-01-29T21:05:02",
      "parentPostId": "1222393596"
    },
    {
      "threadId": "1183391654",
      "post": "Great writeup, I've been living in S3/CloudFront hell and had heard of Fastly, but never looked into it",
      "time": "2014-01-28T00:14:42",
      "id": "1219471740"
    },
    {
      "threadId": "1948034818",
      "post": "You, sir, just solved my problem! Hats off to you.",
      "time": "2013-11-15T00:07:38",
      "id": "1123640521"
    },
    {
      "threadId": "1837119181",
      "post": "Disappointed that this post doesn't have any info on how to remap the menu or back buttons. The title is misleading.",
      "time": "2013-11-10T01:50:05",
      "id": "1116058324"
    },
    {
      "threadId": "1935213126",
      "post": "RSS feed plz!",
      "time": "2013-11-04T18:56:26",
      "id": "1108618380"
    },
    {
      "threadId": "1655599233",
      "post": "You guys are the best. I aspire to have a dev team blog as amazing as yours someday. That is all.\n\nWell, maybe not all - can't wait for the writeup on the transition, we're preparing to do the same Heroku > Opsworks move at CultCosmetics.com\n\nUpdate: decided to write this up myself: stefanwrobel.com/heroku-to-opsworks",
      "time": "2013-10-29T06:15:39",
      "id": "1100478038"
    },
    {
      "threadId": "1830176924",
      "post": "Why should we need to set flags to get the best JRuby performance?",
      "time": "2013-10-10T04:37:33",
      "id": "1077211872",
      "parentPost": "I need to point out that the way RBS runs these benchmarks causes most of them to never compile in JRuby.\n\n\nMany of these benchmarks run at top-level of a script and do not involve enough method calls to actually JIT under JRuby. As a result, probably half of them are mostly testing JRuby's interpreted performance, which is many times slower than its jitted performance.\n\n\nIf you run the numbers but set JRUBY_OPTS=-X+C you will see better numbers in general.\n\nEdit: I should also note that most of the benchmarks are absurdly short; in many cases neither JRuby nor Rubinius will JIT anything, and in JRuby's case the JVM barely gets a chance to start running. Longer runs in the same VM would provide much better indication of performance.",
      "parentPostTime": "2013-10-06T19:16:33",
      "parentPostId": "1072740256"
    },
    {
      "threadId": "1769942328",
      "post": "You missed DeskSMS by Koush (of ClockworkMod fame)\n\nhttps://desksms.appspot.com/",
      "time": "2013-09-26T16:25:52",
      "id": "1059967751"
    },
    {
      "threadId": "807759344",
      "post": "Glad to help! Thanks for the original inspiration.",
      "time": "2013-09-25T03:10:55",
      "id": "1057936641",
      "parentPost": "Always great to see another LA entrepreneur around here! Appreciate the contribution Stefan, I'll update the post shortly and give you a shout out.",
      "parentPostTime": "2013-09-25T02:52:01",
      "parentPostId": "1057923634"
    },
    {
      "threadId": "1608420778",
      "post": "If you guys truly believe in the 12-Factor App principles, then you'd release a vagrant image and keep it updated to match the 1x and 2x dynos. \n\nFor anyone looking to do dev on a cedar-like environment, here's a project that attempts to reverse engineer it, but I'd rather see something from Heroku themselves: https://github.com/ejholmes/vagrant-heroku",
      "time": "2013-08-25T17:24:05",
      "id": "1017017562"
    },
    {
      "threadId": "1552837402",
      "post": "Yeah, well they're growing stuff on city property, so it seems pretty clear-cut to me... ",
      "time": "2013-08-01T00:55:23",
      "id": "983244910"
    },
    {
      "threadId": "1432484203",
      "post": "\"Lyft just got a $60 million boost from venture firm Andreessen Horowitz \n(which, incidentally, is also where national security leaker Edward \nSnowden worked).\"\n\nUhh, where'd you get this misinformation? Snowden never worked at Andreesen...",
      "time": "2013-06-25T17:30:52",
      "id": "941822471"
    },
    {
      "threadId": "1016696486",
      "post": "Any color on what these config settings do?\nset BROWSER open\nset -g -x PATH /usr/local/bin $PATH\nset -g -x PATH $HOME/.local/bin $PATH",
      "time": "2013-05-24T00:20:19",
      "id": "906358727"
    },
    {
      "threadId": "1280264536",
      "post": "Wow, great stuff! I was always firmly anti-digital-zoom but I have to say I haven't re-evaluated in years. Thanks for doing the work for me :)",
      "time": "2013-05-16T20:22:36",
      "id": "899660683"
    },
    {
      "threadId": "1286173202",
      "post": "What does this post even mean? Give some context!",
      "time": "2013-05-13T23:38:26",
      "id": "896511444"
    },
    {
      "threadId": "1248959535",
      "post": "Wow, Crunchbase is still a living, breathing product?",
      "time": "2013-04-30T23:29:16",
      "id": "880868731"
    },
    {
      "threadId": "1149325491",
      "post": "Weird to get Jason's criticism of his own site in daily email digests...",
      "time": "2013-03-19T18:39:47",
      "id": "834904945"
    },
    {
      "threadId": "1135543491",
      "post": "Wow, it's been a month and this is the best you've got? Disappointing...",
      "time": "2013-03-14T16:08:09",
      "id": "829248518"
    },
    {
      "threadId": "859229747",
      "post": "\"Will not sync your data across datacenters, this will be the topic of another blog post\"\n\n\nAny word on that post?",
      "time": "2013-03-05T02:51:53",
      "id": "819553880"
    },
    {
      "threadId": "914227428",
      "post": "Or use s3cmd and do it with one magicks command! s3cmd cp -r --acl-public <from_bucket> <to_bucket> although your S3 key has to have access to both buckets (which I believe is possible using IAM roles, although I've never tested copying between accounts)",
      "time": "2013-02-23T00:30:42",
      "id": "808982140"
    },
    {
      "threadId": "1087281084",
      "post": "Yeah, but the problem you and other Heroku defenders out there seem to be overlooking is that Heroku misrepresented the fact that they do intelligent routing when it is in fact random. I always looked at that as a major benefit to using Heroku ... now they're just the same as everyone else.",
      "time": "2013-02-21T04:36:05",
      "id": "806503593"
    },
    {
      "threadId": "925762556",
      "post": "Any feedback on performance?",
      "time": "2013-02-20T21:32:49",
      "id": "806106062"
    },
    {
      "threadId": "1094416890",
      "post": "Just confirmed on one of my cedar apps that there are 4 cores by checking cat /proc/cpuinfo",
      "time": "2013-02-20T01:55:28",
      "id": "805037976",
      "parentPost": "Thanks for the update. I think it's important to clarify one thing though. You say:\n\n> Rails, in fact, does not yet reliably support concurrent request handling.\n\nI am not sure what you mean by this. Rails is documented to support concurrent request handling with the `config.threadsafe!` directive, which is also slated to be on by default in Rails 4. \n\nAre you saying you have reason to believe this setting does not in fact lead to reliable behavior? (I could believe that, but I'm not sure if that's what you're saying). Or were you unaware of config.threadsafe! ?\n\nOr, it is true that in addition to config.threadsafe!, one needs a web/app server stack that can handle concurrent request handling, rather than handling requests only one-by-one serially.  Heroku's documented suggested example deployment stacks probably do not do this.  Puma or even thin with multi-threaded handling turned on theoretically do -- but are you saying that you have reason to believe this app server stacks are not yet reliable?\n\nIt's also often said that under MRI, multiple threads can't actually use multiple CPU's concurrently. But this shouldn't be an issue for the heroku use case, since a single dyno only has access to one cpu core, I think?\n\nNow even if you have an app stack that supports multi-threaded concurrent request handling with Rails config.threadsafe!, it's not entirely clear that the Heroku routing algorithms you describe would work even still.  Some people are suggesting on the net that even with concurrent Rails request handling, they've done simulations that show that an effectively 'random' routing algorithm would still run into the same problems -- just at a higher level of traffic. \n\nIt's really hard for the non-expert to figure this stuff out. I suggest that Heroku should figure this stuff out, and document it for your users.  Figure out what method of concurrent rails request handling, if any, at the moment IS reliable (Puma with config.threadsafe!) by doing your own research/tests. Figure out how well configuration performs under Heroku's current routing -- if you get Rails doing concurrent request handling, IS that enough to make Heroku's current cedar routing perform and scale properly?  Figure this all out and let us all know, rather than leave less expert customers to fend for themselves each individually trying to figure out this admittedly very confusing topic. \n\nAnd stop repeating vague things like \"Rails, in fact, does not yet reliably support concurrent request handling,\" which just sounds like FUD, or passing the buck, when stated without context or explanation here. Rails _says_ it's supports concurrent request handling, you have to explain why you are saying it doesn't.",
      "parentPostTime": "2013-02-18T23:02:34",
      "parentPostId": "803511567"
    },
    {
      "threadId": "1061931107",
      "post": "Thanks Adam! ",
      "time": "2013-02-03T22:22:42",
      "id": "787605853",
      "parentPost": "Stefan this swell is still filling in and will be bigger it later today and tomorrow.\n\nI already saw a few pictures from the extreme long-period spots and they were looking pretty good, the south bay however was the exception. It may need a little better angle, or slightly different swell period to turn on...or the sandbars could be screwed for the season (for your sake I hope not).\n\nAgain realize there is more life to this swell and that it will be filling in more later tonight, and so there may be more opportunities for you surf the South Bay as a swell progresses. ",
      "parentPostTime": "2013-02-03T22:10:36",
      "parentPostId": "787598928"
    },
    {
      "threadId": "895575010",
      "post": "Good point forgot about sale although you could handle the transaction on x.herokuapp.com and the store itself could be insecure and on a custom domain",
      "time": "2013-02-03T21:46:19",
      "id": "787578251",
      "parentPost": "Simple: SSL. The payment provider (as well as several Dutch regulations for webshops) require the payment process to go over SSL. Spree itself kindof \"requires\" it too, thought that can be hacked out. SSL on Heroku costs $20/mo. For that price I have three+ accounts on Site5.\nIn addition: Site5 has servers in Amsterdam, which makes hosting for Dutch-only clients faster too.\n\n\nThat said, the recent RoR security-upgrades proved rather impossible in Spree on Site5 due to older gem-binaries and ruby versions. This has forced me to move the bespoken Rails app onto one of the Linode Servers I already had running for Ruby apps. I have an updated blogpost about that planned, but want to wait until I and the very helpful and friendly folks at Site5 have moved over everything and closed this dossier.",
      "parentPostTime": "2013-01-27T15:38:04",
      "parentPostId": "779781009"
    },
    {
      "threadId": "143518358",
      "post": "Any progress on this?",
      "time": "2013-01-21T01:19:32",
      "id": "773491378",
      "parentPost": "thanks for the feedback!",
      "parentPostTime": "2011-04-17T18:21:56",
      "parentPostId": "186307600"
    },
    {
      "threadId": "1006782513",
      "post": "Thanks, Adam, I was wondering this exact same thing!",
      "time": "2013-01-05T17:59:38",
      "id": "756938288"
    },
    {
      "threadId": "739804949",
      "post": "Don't you mean gem 'spree', '1.1.2.rc1'?",
      "time": "2012-06-28T00:19:47",
      "id": "569447571"
    },
    {
      "threadId": "730452096",
      "post": "Thanks for the explanation. I'm getting used to the new layout and generally like it. One thing I can't find now is the tide charts. Your site used to have the best tide charts for each spot (in fact, a lot of charts for each individual spot) but I don't see those anywhere anymore.",
      "time": "2012-06-21T14:38:48",
      "id": "563667525",
      "parentPost": "Trudis...sorry it was a bit tricky to find the written forecasts...they are definitely still there but we shifted around our format a bit try and clean up the site a bit.\n\n\nTo find the written forecasts you start on 5-day forecast page...the 5-day is going to be were you find the specific details for that sub-region and all the wave heights, weather, tides, swell conditions for that particular area...but if you want to see the Socal overview...start on a five day page (like North Orange County) \n\n\nhttp://solspot.com/north-orange-county-5-day-surf-forecast/ \n\n\n\nand then you will see a series of buttons just under the Page Title. Click on the \"overview button\" and that will take you to the written daily content.\n\n\nhttp://solspot.com/north-orange-county-daily-surf-forecast/ \n\n\n\nOr if you want the latest long-range forecast...\n\n\nhttp://solspot.com/north-orange-county-long-range-surf-forecast/ \n\n\n\n",
      "parentPostTime": "2012-06-18T22:46:53",
      "parentPostId": "561375036"
    },
    {
      "threadId": "702208529",
      "post": "We use personal forks for consultants, but give our employees access to the main repo. Trust is key.",
      "time": "2012-06-19T18:27:34",
      "id": "562088428",
      "parentPost": "Thanks for the link to hub! Looks like a helpful tool. \n\n\nThe main benefit that personal forks give is access control. Repositories that are owned by the organization have a different ACL than the forks. It also keeps the 'main' repo from having a lot of branches in it, so it's a bit cleaner.\n\nBut, I do agree with your sentiment than personal forks might not be that valuable. Originally, the role of merge master was important, and the ability to control commit access to the main repo was considered relevant. Imagine a scenario where you have an external contractor working on your code: give them read access to your organization's repo, let them make a personal fork, do their work and submit a pull request, then someone at the company reviews/approves/merges back into the product. This workflow has some distinct advantages vs just giving the contractor full access to the repository. \n\nIncreasingly, we're loosening that process though, sharing the merge responsibilities. This is all part of our gradual evolution towards a fully automated continuous delivery pipeline. We're trying to remove the blocking elements of our workflow. Currently, all the devs have commit access to the main repos anyway.. So the benefits aren't as tangible as they once were.",
      "parentPostTime": "2012-05-24T18:46:24",
      "parentPostId": "537773840"
    },
    {
      "threadId": "724190617",
      "post": "Congrats! Did you relocate to DC?",
      "time": "2012-06-14T17:52:11",
      "id": "557398918"
    },
    {
      "threadId": "716553103",
      "post": "Great post, Ernie! Can you explain why local variables work, though? Seems like they'd be problematic since their names can possibly conflict with column names, ex:  \n@article = Article.where{id == id}.first",
      "time": "2012-06-07T16:32:07",
      "id": "549983007"
    },
    {
      "threadId": "664598878",
      "post": "This is AWESOME ",
      "time": "2012-05-06T21:05:04",
      "id": "521161972"
    },
    {
      "threadId": "631249888",
      "post": "Check out this script which will attempt to parse the news/history/changelog files in each outdated gem and give you a summary of what's new. Feel free to iterate on it:\n\nhttps://gist.github.com/2166005 ",
      "time": "2012-03-31T20:17:10",
      "id": "482164514"
    },
    {
      "threadId": "611863672",
      "post": "Great post, Mike! Any recommendations for apps for taking handwritten notes with a stylus on an iPad? ",
      "time": "2012-03-16T17:30:56",
      "id": "467102467"
    },
    {
      "threadId": "260702251",
      "post": "If you don't mind dealing with the most apathetic employees of all time, then sure, it's pretty good. Want to find out more about the coffee, or even when it was roasted? No chance.",
      "time": "2011-03-23T22:08:22",
      "id": "170471430",
      "parentPost": "Groundwork? ",
      "parentPostTime": "2011-03-23T16:46:52",
      "parentPostId": "170185240"
    },
    {
      "threadId": "234017644",
      "post": "Any apps that are using this yet?",
      "time": "2011-02-18T21:06:15",
      "id": "151743773"
    },
    {
      "threadId": "231042291",
      "post": "Anybody know what weather/clock widget that is on the main OS homescreen?",
      "time": "2011-02-16T00:57:44",
      "id": "147994579"
    },
    {
      "threadId": "145112840",
      "post": "Just FYI, this headline doesn't come across as nearly as exciting as the content is when you see it in an RSS reader...",
      "time": "2010-09-21T23:31:26",
      "id": "79849845"
    },
    {
      "threadId": "193183527",
      "post": "I ate the souffle under the described conditions ... and it was still nasty as hell. AVOID!",
      "time": "2010-06-25T17:12:00",
      "id": "114045887"
    },
    {
      "threadId": "67728758",
      "post": "Thanks for the correction, I'm working on my private now and I've never heard that, but I guess I'm a newbie to the aviation world.",
      "time": "2010-02-17T19:44:44",
      "id": "34898524",
      "parentPost": "Actually if you work in the aviation field, you call it a launch. I am a commercial pilot and when we have to fly a trip for the boss, we call the linemen to get the plane ready. They always ask for the launch time. That's a very common way that the ground crew refer to getting the plane ready to go. Pretty much everything leading up to myself getting in the plane and taxiing out.",
      "parentPostTime": "2010-02-17T19:39:38",
      "parentPostId": "34897922"
    },
    {
      "threadId": "60216527",
      "post": "If they call it the iPad it's going to sound indistinguishable from the iPod in the midwest...",
      "time": "2010-01-21T16:51:35",
      "id": "30702807"
    },
    {
      "threadId": "45441610",
      "post": "I'm so confused ... was that supposed to be awesome or something?  It looked like a dunk to me alright.",
      "time": "2009-11-13T23:45:49",
      "id": "22957449",
      "parentPost": "It's really not THAT impressive. I don't know why it's on Mashable. ",
      "parentPostTime": "2009-11-13T21:37:58",
      "parentPostId": "22950070"
    },
    {
      "threadId": "45447305",
      "post": "YES!  I thought I was the only one!  I just don't get GReader...",
      "time": "2009-11-13T23:43:24",
      "id": "22957353",
      "parentPost": "Klipfolio.",
      "parentPostTime": "2009-11-13T21:49:42",
      "parentPostId": "22950767"
    },
    {
      "threadId": "22869140",
      "post": "For some reason they reverted to the old keyboard with the screwy shift key location.  Dealbreaker!",
      "time": "2009-06-24T17:00:14",
      "id": "11688230"
    },
    {
      "threadId": "506250",
      "post": "Office Live Workspaces, while a great concept, has a very alpha feel to it.  It's just extremely unpolished at this point, and after using it for almost 2 months, I've seen nothing change.  Use it at your own risk...",
      "time": "2008-04-22T00:31:52",
      "id": "362831"
    }
  ],
  "profileInfo": {
    "username": "swrobel",
    "about": "Startup guy",
    "name": "Stefan Wrobel",
    "disable3rdPartyTrackers": false,
    "isPowerContributor": false,
    "isAnonymous": false,
    "rep": 1.308765,
    "profileUrl": "https://disqus.com/by/swrobel/",
    "url": "http://stefanwrobel.com/",
    "reputation": 1.308765,
    "location": "Venice, CA",
    "isPrivate": false,
    "signedUrl": "http://disq.us/?url=http%3A%2F%2Fstefanwrobel.com%2F&key=LWbg-jvHjFaMahkhMx-jzg",
    "isPrimary": true,
    "joinedAt": "2008-04-22T00:31:52",
    "id": "24880",
    "avatar": {
      "small": {
        "permalink": "https://disqus.com/api/users/avatars/swrobel.jpg",
        "cache": "//a.disquscdn.com/uploads/users/24880/avatar32.jpg?1467874100"
      },
      "isCustom": true,
      "permalink": "https://disqus.com/api/users/avatars/swrobel.jpg",
      "cache": "//a.disquscdn.com/uploads/users/24880/avatar92.jpg?1467874100",
      "large": {
        "permalink": "https://disqus.com/api/users/avatars/swrobel.jpg",
        "cache": "//a.disquscdn.com/uploads/users/24880/avatar92.jpg?1467874100"
      }
    }
  }
}