{
  "comments": [
    {
      "threadId": "3933306308",
      "post": "What would be your estimated minimum tire size for this route?",
      "time": "2016-06-10T04:02:52",
      "id": "2722782545"
    },
    {
      "threadId": "4511406567",
      "post": "Denatured alcohol – here's a helpful link on what that is exactly:\nhttp://thru-hiker.com/articles/fuel_alcohol_choices.php",
      "time": "2016-01-27T03:38:14",
      "id": "2480094647",
      "parentPost": "Christophe, I've been so interested in an alcohol stove for years. This is going to sound so newbie regarding them, but what types of alcohol do you burn? Can you buy any \"type\" off the shelf and use it for fuel? I love my JetBoils and they aren't broke and don't need fixing but...... this is a tiny bit smaller for the bike packing rig.",
      "parentPostTime": "2016-01-25T20:59:08",
      "parentPostId": "2477673949"
    },
    {
      "threadId": "4281341918",
      "post": "looks like Paul's Thumbies - http://paulcomp.com/shop/components/thumbies/",
      "time": "2015-11-03T06:54:38",
      "id": "2340176342",
      "parentPost": "What shifters are these? Been looking for those kind for my new bike and can´t fing them in Europe,... yet!",
      "parentPostTime": "2015-11-03T05:56:12",
      "parentPostId": "2340132112"
    },
    {
      "threadId": "4199559404",
      "post": "I'm a big Exped fan myself. I have never slept on more comfortable mats and for winter trips the high R value models are impossible to beat.",
      "time": "2015-10-06T19:08:12",
      "id": "2293398287",
      "parentPost": "Great review, shame there's no mention of any of Exped's mats. Their SynMat Winterlite, for example has one of the highest R value to weight ratios available http://www.exped.com/international/en/product-category/mats/synmat-winterlite-m",
      "parentPostTime": "2015-10-06T18:56:35",
      "parentPostId": "2293377883"
    },
    {
      "threadId": "4160966221",
      "post": "The Design field encompasses much more than just graphic design. The demand for designers who can code exists because the web is full of websites that are more than a small business website with a blog and contact form.\n\nIf you want to take on a different kind of project you can always team up with a developer and work on some projects where you take the lead on design and they take lead on development. \n\nIt will only be so long until the average customer who doesn't want bells and whistles realizes they too can cut out \"the middle man\" and create great looking website without a knowledge in design or coding.",
      "time": "2015-09-24T23:17:56",
      "id": "2272775432"
    },
    {
      "threadId": "4128632937",
      "post": "Checked em out at MEC when they first came out. Seemed too stiff for hike-a-bike and I was surprised at how heavy they were. Nice looking shoe and I have had great luck with other 510s.",
      "time": "2015-09-15T05:11:39",
      "id": "2254205952"
    },
    {
      "threadId": "3912185487",
      "post": "I prefer a strap with a more positive locking mechanism than the ladders on the Salsa Anything straps personally\n\n\nGreat photo in the Voile strap article :)",
      "time": "2015-07-09T02:27:14",
      "id": "2125767844",
      "parentPost": "Nice, thanks. I did a little piece about Voile straps here a couple of weeks ago: http://www.pedalingnowhere.com/gear/bikepacking-hacks/ Also, note Salsa Anything straps listed above... I've had pretty good luck with those over the last couple of years...",
      "parentPostTime": "2015-07-09T00:45:48",
      "parentPostId": "2125645308"
    },
    {
      "threadId": "3257979718",
      "post": "Dedicate a soft bottle (platypus or similar) as your whiskey flask. Much lighter and becomes smaller as it empties. Just be ready for it to never taste like anything other than whiskey again. My partner and I label ours the \"whiskeypus\" so we don't accidentally fill with water later.",
      "time": "2014-12-11T04:59:14",
      "id": "1736287466",
      "parentPost": "Thanks Chris. I am definitely a coffee person (required every morning). I usually carry a simple MSR filter or a couple of packets of Starbucks Via. Not the best for flavour, but they are both light and do the trick.\n\n\nThe metal flask isn't too bad for weight. They are made by Stanley. \n\n\nI love the name, Assos!! Awesome. Cheers, Logan",
      "parentPostTime": "2014-12-04T15:33:21",
      "parentPostId": "1725502407"
    },
    {
      "threadId": "3234105333",
      "post": "A good bear hang should see your food hanging 6-10 feet from the branch as well as 10 feet above the ground  ;)\n\nLots of good tips though. Using the Hex as a pot stand with an alcohol stove is a great idea!",
      "time": "2014-11-18T05:33:44",
      "id": "1698645436"
    },
    {
      "threadId": "3165624659",
      "post": "I really like the Outdoor Research Airpurge bags. Have had two for a few years and used them for hiking, touring, bikepacking and paddling trips without any leakage.\n\nIf you live in Canada MEC has some basic good value non-compression dry bags. The 5 litre just fits in an anything cage. http://www.mec.ca/product/4011-624/mec-weigh-lite-dry-bag/",
      "time": "2014-10-31T04:55:15",
      "id": "1662518938"
    },
    {
      "threadId": "1628763418",
      "post": "You want 99% if possible - the 9% water content would slow things down for sure.",
      "time": "2014-09-30T19:49:46",
      "id": "1613602018",
      "parentPost": "Logan, I made a penny stove for a recent backpacking trip and found it took wayyy too long to heat water. I was using 91% alcohol antiseptic (9% water). Do you think the fuel was the issue?",
      "parentPostTime": "2014-09-26T20:20:35",
      "parentPostId": "1607466121"
    },
    {
      "threadId": "979587105",
      "post": "Here's a nice little vid from a local messenger:\n\nhttps://www.youtube.com/watch?v=GIQl1IoYrBU\n\nThe truck driver was actually fired after this video hit the news. STREET JUSTICE",
      "time": "2012-12-18T06:38:10",
      "id": "741425464"
    },
    {
      "threadId": "780997101",
      "post": "I agree - trying to rent the theatre has been a pain - lots of people are openly offering their business regardless of a digital system.",
      "time": "2012-07-31T21:03:39",
      "id": "605088932",
      "parentPost": "I believe that Mike Brar is looking for an excuse to close the theatre. If Mike would just embrace the local film community instead of trying to be a mainstream second run house he would not need to make the switch over. With him as manager there is no point to saving the theatre, since he has done very little to help the community and in fact has caused several festivals, including my midnight film series, to either move to other venues or end altogether. Several people have attempted to work with Mike to overcome issues with the theatre and he simply is not interested in doing anything more than the minimal effort. I believe any money donated should be used to fund a group to have the theatre designated a landmark and try to force him into handing the theatre over to someone who actually cares about the local film, live theatre, music and other arts community.",
      "parentPostTime": "2012-07-31T21:01:19",
      "parentPostId": "605086466"
    },
    {
      "threadId": "782323221",
      "post": "I doubt I would use the secure lock ups (though I know others would) but I would love to see a shower facility/coffee shop/bike tune up area. Near SAIT/ACAD would be an excellent space.",
      "time": "2012-07-31T16:50:13",
      "id": "604816641"
    },
    {
      "threadId": "767812321",
      "post": "I think there are many reasons though the biggest is that it's simply the same thing every single year. I think many aspects of the stampede are also diminished by other yearly events that have grown to be much better - take music for example. If you love music you're looking forward to Folk Fest, Sled Island or more similar to Stampede style Virgin Fest and  X-Fest. No one looks forward to the Coke stage - it's a horribly programmed, over crowded stage with the absolute worse sound in town.\n\n",
      "time": "2012-07-17T16:36:07",
      "id": "590297512"
    },
    {
      "threadId": "743931023",
      "post": "The usability of this new service is pathetic, especially in comparison to an existing tool like google maps. Launching without a mobile version is no longer acceptable, being able to find a route while you aren't at home on your computer is probably the #1 user case for a service like this.",
      "time": "2012-06-29T20:20:48",
      "id": "572096851"
    },
    {
      "threadId": "700081030",
      "post": "This seems lazy. We have some of the best drinking water in the world, there is no need to purchase bottled water en masse like this.",
      "time": "2012-05-22T20:43:16",
      "id": "536023379"
    },
    {
      "threadId": "689000848",
      "post": "This could be the case but that's a pretty lame reason. That's like defending \"blowing through stop signs\" by stating that I was unaware stop signs applied to bicycles. There is painted lanes and on street signage to communicate this.\n\nThe main reason this happens is because in a about two blocks the bike lane ends and becomes a right turning lane for access onto 14th street. Drivers turn the bike lane into a right turn lane as a shortcut.\n\n",
      "time": "2012-05-15T21:29:40",
      "id": "529646667",
      "parentPost": "Thanks for the photos, Cawlin. Perhaps a case of cars thinking they can do what the bikes are doing? Or that there are so many people driving in the lane all the time that the cycling symbols are obscured?",
      "parentPostTime": "2012-05-15T20:02:59",
      "parentPostId": "529575632"
    },
    {
      "threadId": "683079261",
      "post": "What genres are being mashed up in this one?",
      "time": "2012-05-09T23:18:31",
      "id": "524866487"
    },
    {
      "threadId": "601539456",
      "post": "Hopefully not but find me a patio without construction within a block in Calgary and I'll be impressed . I'm sure it will be filled regardless :-)",
      "time": "2012-05-09T20:54:45",
      "id": "524771159",
      "parentPost": "Just a thought: hopefully Sunnyside C-Train station construction isn't too loud in that part of the neighbourhood.",
      "parentPostTime": "2012-05-09T20:44:05",
      "parentPostId": "524762705"
    },
    {
      "threadId": "674597788",
      "post": "I'm not a fan of how intimidating the new design is.",
      "time": "2012-05-04T01:34:22",
      "id": "518164618"
    },
    {
      "threadId": "646060965",
      "post": "Hundreds of these containers pass through calgary on trains every day, no? Are \"Sea Cans\" different?\n\nThese containers are used for general storage quite commonly. Within blocks of the triangle building the hilhurst Community centre has one for storage. In the north east corner of the SAIT parking lot there are a few (I assume storing construction equipment). ",
      "time": "2012-04-16T19:29:20",
      "id": "499137928"
    },
    {
      "threadId": "643790153",
      "post": "\"There's one more ingredient that just might shift the argument in favour of a new(ish) bridge\"\n\nShift what argument? Nenshi wants to be convinced that it is necessary to build - that's understandable and I expect it to be a conversation, not an argument.\n\nWalking along the pathway/park is really nice until you have to walk back to the busy road, cross a bridge then walk back towards the park. This makes lots of sense and provides a much nicer route to the east village by foot as well.",
      "time": "2012-04-10T19:21:49",
      "id": "493521616"
    },
    {
      "threadId": "580052174",
      "post": "I will for sure be uploading photos I have taken in the last few months.",
      "time": "2012-02-17T20:27:00",
      "id": "442275846"
    },
    {
      "threadId": "566743785",
      "post": "I suspect the lack of interest from the surrounding community is precisely because of this. ",
      "time": "2012-02-07T20:37:13",
      "id": "432262074",
      "parentPost": "As much as I support that learning environment, I still would have a tough time agreeing to send my kids to a Christen school. Perhaps remove that aspect and other families would be more willing to enroll? ",
      "parentPostTime": "2012-02-07T17:50:45",
      "parentPostId": "432077919"
    },
    {
      "threadId": "535406606",
      "post": "I think it's great! This building is a big waste of space.",
      "time": "2012-01-13T22:49:51",
      "id": "410186328"
    },
    {
      "threadId": "509785395",
      "post": "I think overall the communication of what this bridge is, where the funding came from and why it's going to be great has been poor. Even before all the delays there was a lot of else information floating around.\n\nI wish the city would have done a bit more to defend the reasoning behind the bridge but we've got it now so all is well.",
      "time": "2011-12-20T18:16:40",
      "id": "390808871",
      "parentPost": "I can't help thinking that part of the reason so many people complained about the bridge is because it's so hard to comprehending spending $25 million on a bridge (however awesome and useful it is) when plenty of individuals would benefit hugely from an extra $10,000 in the bank. \n\nThank being said, it's not the city's job to hand out cash, and the bridge is pretty lovely. Hopefully it grows on people, because it's quite impressive.",
      "parentPostTime": "2011-12-20T16:40:34",
      "parentPostId": "390742230"
    },
    {
      "threadId": "459514021",
      "post": "I watch breaking bad - it does't make it funny IMO. Also...this comment stream has magically transferred to a different article.",
      "time": "2011-11-02T18:15:19",
      "id": "354068100",
      "parentPost": "I'm told part of the humour comes from the actor's role on Breaking Bad, but that doesn't seem like a good thing to hinge the success of a video campaign on.",
      "parentPostTime": "2011-11-02T18:01:14",
      "parentPostId": "354058125"
    },
    {
      "threadId": "335117591",
      "post": "Woop!",
      "time": "2011-06-17T19:58:36",
      "id": "228510584"
    },
    {
      "threadId": "316997689",
      "post": "The study was sponsored by Clorox disinfecting wipes. The sample is very small as well. They tested either 85 carts per state or possibly only 85 carts total, I can't tell because of the tricky wording.\n\nEither way colour me suspicious.",
      "time": "2011-05-30T05:44:28",
      "id": "214122333"
    },
    {
      "threadId": "315645148",
      "post": "this photo is superb!",
      "time": "2011-05-27T21:24:58",
      "id": "212985329"
    },
    {
      "threadId": "217491949",
      "post": "Keep writing about this shit I love reading it",
      "time": "2011-03-09T21:32:46",
      "id": "163174623"
    },
    {
      "threadId": "223344859",
      "post": "Nice post. We're using an almost identical set of mixins on all projects",
      "time": "2011-02-08T00:06:59",
      "id": "142242925"
    },
    {
      "threadId": "224516686",
      "post": "Yes please!",
      "time": "2011-02-07T19:28:55",
      "id": "142018025"
    },
    {
      "threadId": "199134149",
      "post": "\"Everything we have today that’s cool comes from someone wanting more of something they loved in the past.\"\n\nThat's just not true. Also you still have to wait month to month for comics to come out. This writing is poor.",
      "time": "2010-12-28T21:10:13",
      "id": "120281530"
    },
    {
      "threadId": "165568258",
      "post": "Sweet I'm totally going to listen to this for one of my days",
      "time": "2010-11-02T04:15:16",
      "id": "92897508"
    },
    {
      "threadId": "37866093",
      "post": "I am a little curious about the twitter stats, did this negate spam bots? I only ask because I am followed by a few \"hot chicks\" every couple days.",
      "time": "2009-10-06T16:51:43",
      "id": "19211481"
    },
    {
      "threadId": "34185918",
      "post": "I have to say I could barely get through this novel and I can't imagine how a movie could be spun out of it without being overly abstract. Guess we'll see how it goes...",
      "time": "2009-09-14T21:13:28",
      "id": "16595033"
    },
    {
      "threadId": "33662103",
      "post": "Luckily I'll be catching this flick at a local film festival in the next couple weeks. Looks like a good time",
      "time": "2009-09-11T23:07:43",
      "id": "16453366"
    },
    {
      "threadId": "25395034",
      "post": "Sounds like the right project for BSS. Will be interested to see the final results.\n\nIt's not surprising that Emily Haines is involved as she has toured with BSS and lent her voice on more than a few songs.",
      "time": "2009-07-14T15:12:20",
      "id": "12637358"
    },
    {
      "threadId": "24787823",
      "post": "I found the overly crisp video and abundance of handheld shots extremely distracting. The scene in the woods became impossible to follow and the few shots in movie theaters and other dark areas you could see the noise because of the lack of light. That drove me absolutely crazy.  ",
      "time": "2009-07-09T15:24:06",
      "id": "12383521"
    },
    {
      "threadId": "22623451",
      "post": "The fact that Shia compares Sam to Yorick proves that he is a one trick pony. If he can't see the differences he will never learn to play another character anyways.",
      "time": "2009-06-22T18:56:19",
      "id": "11575918"
    },
    {
      "threadId": "10075571",
      "post": "nor in safari.",
      "time": "2009-01-19T05:43:51",
      "id": "5323101",
      "parentPost": "the controls dont sit in the write place in ie 7 in the demo",
      "parentPostTime": "2009-01-18T22:18:32",
      "parentPostId": "5270458"
    },
    {
      "threadId": "5646589",
      "post": "\"take your site and add Geocities to it.\"\n\nThis is the best description of web 2.0 ever!",
      "time": "2008-10-12T21:39:48",
      "id": "3013231"
    },
    {
      "threadId": "2372059",
      "post": "Interesting that this works...",
      "time": "2008-08-01T21:25:08",
      "id": "1075559",
      "parentPost": "From me :)",
      "parentPostTime": "2008-08-01T21:22:06",
      "parentPostId": "1075529"
    },
    {
      "threadId": "2372260",
      "post": "CHeck it out",
      "time": "2008-08-01T17:05:01",
      "id": "1073037"
    }
  ],
  "profileInfo": {
    "username": "cawlin",
    "about": "I enjoy music, tea, riding my bike, good stories and the outdoors.",
    "name": "Colin",
    "disable3rdPartyTrackers": false,
    "isPowerContributor": false,
    "isAnonymous": false,
    "rep": 1.25128,
    "profileUrl": "https://disqus.com/by/cawlin/",
    "url": "http://cawlin.com/",
    "reputation": 1.25128,
    "location": "Calgary",
    "isPrivate": false,
    "signedUrl": "http://disq.us/?url=http%3A%2F%2Fcawlin.com%2F&key=xd93AhrtLWBdjNzVyYtLwg",
    "isPrimary": true,
    "joinedAt": "2008-08-01T16:36:42",
    "id": "74649",
    "avatar": {
      "small": {
        "permalink": "https://disqus.com/api/users/avatars/cawlin.jpg",
        "cache": "//a.disquscdn.com/uploads/users/7/4649/avatar32.jpg?1442294242"
      },
      "isCustom": true,
      "permalink": "https://disqus.com/api/users/avatars/cawlin.jpg",
      "cache": "//a.disquscdn.com/uploads/users/7/4649/avatar92.jpg?1442294242",
      "large": {
        "permalink": "https://disqus.com/api/users/avatars/cawlin.jpg",
        "cache": "//a.disquscdn.com/uploads/users/7/4649/avatar92.jpg?1442294242"
      }
    }
  }
}