{
  "comments": [
    {
      "threadId": "40113048",
      "post": "Unfortunately, jabber transport doesn't support video chat.  There is an open source msn client out there, http://www.amsn-project.net/  \r\n\r\nI haven't used it, so if you give it a try - let me know how it works out.",
      "time": "2009-10-18T01:53:59",
      "id": "20286139",
      "parentPost": "Thanks! I followed the instructions from the site using the jabber you suggested and it worked like a charm. One question: will I be able to have video chats with my MSN account?",
      "parentPostTime": "2009-10-17T14:23:08",
      "parentPostId": "20263045"
    },
    {
      "threadId": "31853003",
      "post": "Really? Did you use any third party software to get it to work?",
      "time": "2009-09-10T10:09:01",
      "id": "16296875",
      "parentPost": "My Logitech Quickcam Pro 9000 works perfect with Leopard... have been using it for over a year now.",
      "parentPostTime": "2009-09-10T08:29:19",
      "parentPostId": "16295517"
    },
    {
      "threadId": "10491863",
      "post": "Thank you!",
      "time": "2009-01-25T06:13:14",
      "id": "5527725",
      "parentPost": "Congratulations!  ",
      "parentPostTime": "2009-01-25T06:11:29",
      "parentPostId": "5527714"
    },
    {
      "threadId": "7108951",
      "post": "I understand what you're saying.  It's either too strict or too flexible depending on the situation.  You end of spending a lot of time thinking, planning, contexting & filing -- instead of doing.  I am not sure if that's entirely my fault or the nature of the work that I do.  \r\n\r\nI don't have a problem so much with the calendar (lots of meetings), but the context based system seems too cumbersome for me.  Being a project based guy, I like to do a, b, c, d - rather than doing all the a's at once, then all the b's and so on.  \r\n\r\nI've tried to stick with it and have fallen off the bandwagon numerous times only to pick it back up.  It's a good system for being able to start again and pound through a couple of days of uber productivity and then drop it again.  Probably not the best strategy, but it's the one I have been using.\r\n\r\nIf it isn't GTD, then what?  Do we need a new system?  What does that look like?  Keep thinking and keep writing and I'll keep reading.\r\n\r\nOh and by the way, do you have a good recipe for Snickerdoodle?",
      "time": "2008-11-16T09:13:57",
      "id": "3798507"
    },
    {
      "threadId": "6965126",
      "post": "A little more depth: http://www.junyor.net/2008/11/12/carrying-two-phones/",
      "time": "2008-11-13T04:13:22",
      "id": "3727572",
      "parentPost": "Are you carrying two or more phones now?   How's that working out if you are?\r\n\r\nThanks for the reviews.\r\n\r\nSuzan",
      "parentPostTime": "2008-11-13T03:02:25",
      "parentPostId": "3726796"
    },
    {
      "threadId": "6333607",
      "post": "Nice, you've introduced me to a new term.",
      "time": "2008-10-28T01:55:04",
      "id": "3335515",
      "parentPost": "I think I just had a joy-gasm.",
      "parentPostTime": "2008-10-28T01:24:46",
      "parentPostId": "3335084"
    },
    {
      "threadId": "5941485",
      "post": "I bought it from Tigerdirect.com for $499. http://tinyurl.com/4hglk7",
      "time": "2008-10-20T20:29:33",
      "id": "3174292",
      "parentPost": "Thanks for the review.  Can you give us the price you paid for the base model and upgrades?  I've heard about this laptop on Leo Laporte's podcast.",
      "parentPostTime": "2008-10-19T02:53:22",
      "parentPostId": "3152641"
    },
    {
      "threadId": "4036070",
      "post": "Thanks Brad for the reply, I'm ordering the fine points based on your recommendation.  I will let you know how I fair with the stylus model.  Since Fisher has \"a 100% guarantee\" policy, I figured it was worth a test drive.",
      "time": "2008-09-02T21:00:02",
      "id": "2018076",
      "parentPost": "I agree I didn't like the default cartridge that came with the pen.  It did seem scratchy and skipped a lot.  But I bought a blue fine cartridge and it writes very smooth.  I think you'll have better luck with your refill.\r\n\r\nAlso, I've heard some complaints with the stylus models.  The stylus part can break off easily.",
      "parentPostTime": "2008-09-02T13:56:32",
      "parentPostId": "2004056"
    },
    {
      "threadId": "1544435",
      "post": "From lifehacker: **Updated 5/21** If this trick doesn't work for you, go into about:config and make sure that network.protocol-handler.external.mailto is set to its default value true.",
      "time": "2008-07-03T13:25:55",
      "id": "806319",
      "parentPost": "Odd, I can't get this to work.  I paste in the javascript snippet but no dialog box when I hit enter.",
      "parentPostTime": "2008-07-03T03:42:56",
      "parentPostId": "804355"
    },
    {
      "threadId": "1528729",
      "post": "I think you might be right.  I love Twitter, but they if they can't keep it together I am going to have to give up.  They've also messed with the API rate limit, now Twhirl updates less often, if I don't get rate limit exceeded. ",
      "time": "2008-07-01T23:01:58",
      "id": "793886"
    },
    {
      "threadId": "1292591",
      "post": "Thanks for the nice comment, I appreciate it!",
      "time": "2008-06-20T05:07:59",
      "id": "712587"
    },
    {
      "threadId": "1284738",
      "post": "Yeah, it's a little fall festival like, but I still like it.  Agree with you on the background -- not my style, so I immediately changed it to a picture of my dog.",
      "time": "2008-06-19T01:29:43",
      "id": "703940",
      "parentPost": "Feels a little Halloweeny to me.  But in a good way.  Don't really care for the desktop background but that can be changed.  If I can find something to fit 1440x900 resolution...",
      "parentPostTime": "2008-06-19T01:26:51",
      "parentPostId": "703927"
    },
    {
      "threadId": "1284308",
      "post": "Totally agree.  I hate asking for and giving directions.",
      "time": "2008-06-18T20:53:55",
      "id": "702294"
    }
  ],
  "profileInfo": {
    "username": "junyor",
    "about": "Old economy marketing guy and tech geek.",
    "name": "Brian Junyor",
    "disable3rdPartyTrackers": false,
    "isPowerContributor": false,
    "isAnonymous": false,
    "rep": 1.3454199999999998,
    "profileUrl": "https://disqus.com/by/junyor/",
    "url": "http://junyor.net",
    "reputation": 1.3454199999999998,
    "location": "Dallas, Texas",
    "isPrivate": false,
    "signedUrl": "http://disq.us/?url=http%3A%2F%2Fjunyor.net&key=F-fsCED5iJoEkMASyWLcsg",
    "isPrimary": true,
    "joinedAt": "2008-04-27T23:38:32",
    "id": "26677",
    "avatar": {
      "small": {
        "permalink": "https://disqus.com/api/users/avatars/junyor.jpg",
        "cache": "//a.disquscdn.com/uploads/users/26677/avatar32.jpg?1281549414"
      },
      "isCustom": true,
      "permalink": "https://disqus.com/api/users/avatars/junyor.jpg",
      "cache": "//a.disquscdn.com/uploads/users/26677/avatar92.jpg?1281549414",
      "large": {
        "permalink": "https://disqus.com/api/users/avatars/junyor.jpg",
        "cache": "//a.disquscdn.com/uploads/users/26677/avatar92.jpg?1281549414"
      }
    }
  }
}