{
  "comments": [
    {
      "threadId": "1552128391",
      "post": "可能是 github 被墙所以……",
      "time": "2015-02-04T09:47:01",
      "id": "1834086447",
      "parentPost": "ㄟ( ▔, ▔ )ㄏ又可以了，速度有点慢，Thanks！",
      "parentPostTime": "2015-02-04T09:42:42",
      "parentPostId": "1834082454"
    },
    {
      "threadId": "1004030030",
      "post": "记得之前是从 hexo 的主题里改的，太久完全忘了，为了墙内可见还用了别的黑科技……",
      "time": "2014-11-19T02:05:20",
      "id": "1700718695",
      "parentPost": "好吧，我仔细研究了您博客的源代码，似乎用了 php，看来仅靠 GitHub page 的我是无解了。",
      "parentPostTime": "2014-11-19T01:17:57",
      "parentPostId": "1700657184"
    },
    {
      "threadId": "1146122007",
      "post": "The api which this workflow depends on is shutdown. You can try other workflow like https://github.com/Sheraff/piratebay-alfred-workflow",
      "time": "2014-10-30T09:24:25",
      "id": "1660764680",
      "parentPost": "This great workflow stopped working. Any advice on how to fix it?",
      "parentPostTime": "2014-10-12T14:09:29",
      "parentPostId": "1631868299"
    },
    {
      "threadId": "2650788585",
      "post": "谢谢分享，很赞的 workflow！能获取剧集就更好了～",
      "time": "2014-05-10T01:17:49",
      "id": "1377598592",
      "parentPost": "cool！已经用你的 subtitle 一两个月了，真的很方便哟。XD。因为我写了个获取电影种子的 workflow 虽然很高清但是没字幕。https://github.com/vitoziv/movies-torrents-workflow",
      "parentPostTime": "2014-05-09T09:00:08",
      "parentPostId": "1376334170"
    },
    {
      "threadId": "1154783078",
      "post": "是他们网站上的实时搜索所用的 API，我和他们联系后取得了许可",
      "time": "2013-12-24T04:32:59",
      "id": "1175415831",
      "parentPost": "那你是通过他们的 widget 然后监控流量获取到的 API? 看了一圈就他们家的数据感觉靠谱些",
      "parentPostTime": "2013-12-24T03:32:10",
      "parentPostId": "1175377153"
    },
    {
      "threadId": "761774313",
      "post": "markdown 只是标记语言，要改行距什么的用 CSS",
      "time": "2013-12-12T06:29:20",
      "id": "1159718022",
      "parentPost": "为什么我写的 markdown都是黑色啊 而且 行距 真是悲剧 -_-# http://blog.furao.me/post/69669650831/markdown-markdown",
      "parentPostTime": "2013-12-11T06:44:24",
      "parentPostId": "1158361652"
    },
    {
      "threadId": "1950850052",
      "post": "Hi Brett,\n\nThe md - Footnotes - Convert Inline Format workflow returned \"The action “Run Shell Script” encountered an error.\" \n\nAnd in automator the result returned 'scan' invalid byte sequence in us-ascii (argumenterror) ruby script. I guess it's related to the encoding thing since I wrote in Chinese.",
      "time": "2013-12-01T03:02:18",
      "id": "1145828437"
    },
    {
      "threadId": "1038571851",
      "post": "我这里能看到啊 ( ・◇・)？",
      "time": "2013-10-02T09:51:42",
      "id": "1067106402",
      "parentPost": "在 Sublime-Text 3 嘗試安裝時，發現並沒有這插件誒。",
      "parentPostTime": "2013-10-02T08:52:40",
      "parentPostId": "1067069393"
    },
    {
      "threadId": "601957640",
      "post": "菜单中的 Preferences -> Package Settings -> Gist -> Settings - User",
      "time": "2013-09-06T15:10:45",
      "id": "1032275670",
      "parentPost": "第三步找不到在哪里",
      "parentPostTime": "2013-09-06T14:03:44",
      "parentPostId": "1032197471"
    },
    {
      "threadId": "479127298",
      "post": "http://www.w3.org/TR/html401/struct/links.html#h-12.2.3",
      "time": "2013-08-30T14:59:54",
      "id": "1023321553",
      "parentPost": "求如何打造  老大",
      "parentPostTime": "2013-08-30T13:50:21",
      "parentPostId": "1023250102"
    },
    {
      "threadId": "1354601372",
      "post": "可接受吧，国外线路都不能保证不抽的，你可以 ping 一下我这个站",
      "time": "2013-08-27T14:47:30",
      "id": "1019223771",
      "parentPost": "速度怎么样啊？从国内访问？稳定不。",
      "parentPostTime": "2013-08-27T14:27:37",
      "parentPostId": "1019200433"
    },
    {
      "threadId": "1008110451",
      "post": "看这里 http://pilotmoon.com/popclip/guide/#change-search",
      "time": "2013-08-25T13:53:06",
      "id": "1016845368",
      "parentPost": "你好，我尝试更改过更改Popclip自带的搜索到百度（不是安装插件），记得当时是选中了了一段网址Popclip就自动弹出来问我是否设为其默认搜索引擎，我现在想改回到Google，当时那教程找不着了，有什么办法。谢谢解答！",
      "parentPostTime": "2013-08-25T07:19:50",
      "parentPostId": "1016672502"
    },
    {
      "threadId": "1579259615",
      "post": "可以给我邮件，我尽量解答",
      "time": "2013-08-09T05:19:47",
      "id": "993993510",
      "parentPost": "我打算用博主推的五刀vps\n之前没建过站，只用了github\n可以稍作指导么？\n当然我先查资料，只是问不懂的",
      "parentPostTime": "2013-08-09T04:24:24",
      "parentPostId": "993955569"
    },
    {
      "threadId": "1445599007",
      "post": "应该是针对 Sublime Text 3 的版本是放在这个分支",
      "time": "2013-07-28T12:01:11",
      "id": "979067249",
      "parentPost": "请问“git checkout python3”这句是做什么用的呢，是切换到python3分支？还是什么",
      "parentPostTime": "2013-07-28T09:03:29",
      "parentPostId": "978993310"
    },
    {
      "threadId": "1470080886",
      "post": "The Mac version of Chrome doesn't support creating application yet. There're scripts could do so for Mac, however, I found entering full screen mode caused Feedly icon disappeared from the task list, which make it imposible to switch between Feedly app and Chrome with CMD+Tab.",
      "time": "2013-07-05T18:23:01",
      "id": "953053227",
      "parentPost": "Just curious... Why pay for Fluid when Google Chrome lets you create an app shortcut for free?",
      "parentPostTime": "2013-07-05T18:10:13",
      "parentPostId": "953042767"
    },
    {
      "threadId": "1386020300",
      "post": "不是一家",
      "time": "2013-07-04T15:38:40",
      "id": "951793331",
      "parentPost": "这个UX风格和Mailbox如出一辙啊。是一家的吗？",
      "parentPostTime": "2013-07-04T15:13:11",
      "parentPostId": "951769556"
    },
    {
      "threadId": "1437585964",
      "post": "呵呵",
      "time": "2013-06-26T13:05:10",
      "id": "942848117",
      "parentPost": "话说这软件真的有这么好么",
      "parentPostTime": "2013-06-26T12:13:52",
      "parentPostId": "942802294"
    },
    {
      "threadId": "1384110218",
      "post": "刷新下页面试试",
      "time": "2013-06-10T09:33:57",
      "id": "924938038",
      "parentPost": "看不到圖",
      "parentPostTime": "2013-06-10T09:32:15",
      "parentPostId": "924937409"
    },
    {
      "threadId": "1360245098",
      "post": "我是觉得像闹钟这种应该是很方便的，比如工作中午累了想打个盹什么的，这个也要同步真的蛋疼",
      "time": "2013-06-05T13:50:08",
      "id": "919753545",
      "parentPost": "这个设置已经很无障碍了，而且一般闹钟设置不是很频繁。Flex的确是抓的服务器设置，每次蛋疼的走一次网络请求。",
      "parentPostTime": "2013-06-05T13:47:28",
      "parentPostId": "919750444"
    },
    {
      "threadId": "1325745890",
      "post": "一样一只，一手一个 ^_^",
      "time": "2013-06-04T02:15:27",
      "id": "918254557",
      "parentPost": "好纠结，我也计划买一个，一直定夺不下",
      "parentPostTime": "2013-06-04T02:14:01",
      "parentPostId": "918253743"
    },
    {
      "threadId": "1297260893",
      "post": "拜托您读一下正文",
      "time": "2013-05-19T00:59:22",
      "id": "901569926",
      "parentPost": "请问下载Omnifocus-modernize-theme怎么安装？如果按照以前方法安装主题有的是无法替换",
      "parentPostTime": "2013-05-19T00:53:42",
      "parentPostId": "901567678"
    },
    {
      "threadId": "1205493669",
      "post": "作者改了目录结构，新的激活代码：\n\n{\n\"theme\": \"Flatland Dark.sublime-theme\",\n\"color_scheme\": \"Packages/Theme - Flatland/Flatland Dark.tmTheme\"\n}",
      "time": "2013-05-01T09:41:14",
      "id": "881136121",
      "parentPost": "激活主题的时候报错怎么办？",
      "parentPostTime": "2013-05-01T09:30:14",
      "parentPostId": "881132350"
    },
    {
      "threadId": "1244120797",
      "post": "Ctrl D 也不是“单独的按键”吧，你们太认真鸟",
      "time": "2013-04-30T01:48:49",
      "id": "880076581",
      "parentPost": "Control D 也是 delete... 楼主到底用不用 Mac 啊... = =",
      "parentPostTime": "2013-04-30T01:29:29",
      "parentPostId": "880065986"
    },
    {
      "threadId": "1238866134",
      "post": "meta 里包含：\n---\nlayout: link\nlink: http://example.com\n\n---",
      "time": "2013-04-28T13:33:31",
      "id": "878425315",
      "parentPost": "想问问，你现在这个主题的 Link Post 是怎么实现的，换成 hexo 以后就不知道咋弄了。",
      "parentPostTime": "2013-04-28T12:59:01",
      "parentPostId": "878409177"
    },
    {
      "threadId": "1196041382",
      "post": "Don't let us get sick by Warren Zevon",
      "time": "2013-04-17T16:53:19",
      "id": "866160143",
      "parentPost": "I too would like the name of the song in the closing scenes of Episode 10.  Anyone out there know it???",
      "parentPostTime": "2013-04-14T02:07:42",
      "parentPostId": "862659817"
    },
    {
      "threadId": "1155860684",
      "post": "是最近添加的功能",
      "time": "2013-04-15T12:32:16",
      "id": "864305898",
      "parentPost": "网站上是这么说的\n\n\nIf you want URI.LV to use your customized hostname in your feed, you must be a Premium member.",
      "parentPostTime": "2013-04-14T19:56:40",
      "parentPostId": "863509610"
    },
    {
      "threadId": "511317176",
      "post": "两者还是不一样的",
      "time": "2013-03-27T14:42:57",
      "id": "843951051",
      "parentPost": "请问Hexo也可以参照这篇文章搭建吗？",
      "parentPostTime": "2013-03-27T13:34:14",
      "parentPostId": "843895544"
    },
    {
      "threadId": "811079474",
      "post": "如果你装的是 v2 那么 1 代的插件并不能兼容，插件什么的只要在 Alfred 运行的时候双击就能安装了",
      "time": "2013-03-26T14:30:30",
      "id": "842933957",
      "parentPost": "找了半天 不知道这个下载的插件和主题怎么安装... 能告知下吗",
      "parentPostTime": "2013-03-26T14:28:27",
      "parentPostId": "842932297"
    },
    {
      "threadId": "1138054766",
      "post": "我用的就是 Minimal 啊",
      "time": "2013-03-22T06:06:56",
      "id": "838098895",
      "parentPost": "额，又看了看，还是觉得不太一样，继续求分享……",
      "parentPostTime": "2013-03-17T22:54:04",
      "parentPostId": "832938364"
    },
    {
      "threadId": "1135843996",
      "post": "不需要登录这个啊。",
      "time": "2013-03-14T15:45:43",
      "id": "829229951",
      "parentPost": "douban.lucifr.com 登陆不上哇",
      "parentPostTime": "2013-03-14T15:43:19",
      "parentPostId": "829227926"
    },
    {
      "threadId": "1119649345",
      "post": "嗯，我延续了之前的主题，而且 hexo 本身就像是个 nodejs 版的 Octopress，不过和 ruby 比起来 nodejs 就太快了，hexo 生成一下才不到20秒",
      "time": "2013-03-14T14:31:20",
      "id": "829171622",
      "parentPost": "哦，这样啊，我试下~不过你的博客看着还是像Octopress哈...",
      "parentPostTime": "2013-03-14T14:28:05",
      "parentPostId": "829169185"
    },
    {
      "threadId": "1106547642",
      "post": "数据和图片都是要占空间的 https://account.app.net/settings/content/",
      "time": "2013-02-27T15:36:06",
      "id": "814241378",
      "parentPost": "500 MB 的文件存储空间指的是什么？存什么文件呢？",
      "parentPostTime": "2013-02-27T07:37:30",
      "parentPostId": "813878910"
    },
    {
      "threadId": "1088999899",
      "post": "按的时候别按得太死就行了，Reeder 的设定是按住 Option 启动重置账户",
      "time": "2013-02-27T12:56:45",
      "id": "814114855",
      "parentPost": "噢，您是设计师吧，估计是ps的快捷键。\n\n另外问个问题，reeder默认有个设置是如果按住option键启动，则需要重新登录。用你这个方法每次启动reeder都得重新登录啊，貌似也没找到改这个设置的地方，你是怎么处理的呢？",
      "parentPostTime": "2013-02-27T12:54:42",
      "parentPostId": "814112563"
    },
    {
      "threadId": "1090915260",
      "post": "恶习难改啊",
      "time": "2013-02-19T11:50:14",
      "id": "804156240",
      "parentPost": "不能这么惯，要纠正，lol",
      "parentPostTime": "2013-02-18T17:14:39",
      "parentPostId": "803163293"
    },
    {
      "threadId": "848678377",
      "post": "好像比较麻烦： http://superuser.com/questions/178316/how-to-set-an-icon-for-a-file-type-on-mac",
      "time": "2013-02-18T01:36:44",
      "id": "802627668",
      "parentPost": "同问 这个icon要怎么替换？...折腾了半天还是不行",
      "parentPostTime": "2013-02-05T07:41:19",
      "parentPostId": "788999381"
    },
    {
      "threadId": "490535243",
      "post": "我已经换到 Hexo 啦。\n\nOctopress 的官方文档里有吧：http://octopress.org/docs/plugins/gist-tag/",
      "time": "2013-01-23T14:07:39",
      "id": "775641347",
      "parentPost": "请问一下，Octopress中如何插入Gist才能令其显示？格式应该怎么写？",
      "parentPostTime": "2013-01-21T22:10:04",
      "parentPostId": "774291226"
    },
    {
      "threadId": "1021086566",
      "post": "没有，用一个叫 CarrierEditor 的工具可以替换运营商图标，请自行 Google",
      "time": "2013-01-17T02:34:57",
      "id": "770608033",
      "parentPost": "这截图是越狱了么？",
      "parentPostTime": "2013-01-17T02:28:53",
      "parentPostId": "770604930"
    },
    {
      "threadId": "1013077650",
      "post": "如果只是一般用户的话，Pow 和 Privoxy 都可以不用装。\n\n沙盒问题可以用本地的 Apache 解决，ML 以下打开 Web Sharing 就可以，ML 可以参考：http://lucifr.com/2012/07/28/apache-and-web-sharing-on-osx-10_8-mountain-lion/ 然后 pac 放到 ~/Sites 里，地址写 http://localhost/~Username/pac.pac\n\nsocks/socks5 不兼容问题，可以两个都写上用分号隔开：\"SOCKS 127.0.0.1:1080; SOCKS5 127.0.0.1:1080\" 或者用 php 脚本动态解决 https://gist.github.com/4473819 当然用 pow 目前默认是不支持 php 的，可以把 apache 的端口写到 80 以外的比如 8080 然后用 http://localhost:8080/~Username/pac.pac",
      "time": "2013-01-09T03:30:22",
      "id": "760764076"
    },
    {
      "threadId": "1010425476",
      "post": "已经更新了，现在应该是以处于活动状态的浏览器为准了",
      "time": "2013-01-06T15:18:15",
      "id": "757800171",
      "parentPost": "试了，不错。「支持 Safari 和 Google Chrome，当两个浏览器同时运行时，默认 Safari 为优先。」这个要是能自动匹配就好了。",
      "parentPostTime": "2013-01-06T09:37:14",
      "parentPostId": "757651252"
    },
    {
      "threadId": "479126797",
      "post": "你好。现在我用的是 hexo 这个程序，可以看看我最新的<a href=\"http://lucifr.com/2013/01/02/from-octopress-to-hexo/\">一篇文章</a>。评论部分用的是 Disqus 这个服务。如果对这些程序之类的不是很熟悉建议先利用 google 之类的搜索学习一下。",
      "time": "2013-01-05T12:14:27",
      "id": "756673275",
      "parentPost": "lucifr大大你好。想请教下你的 bolg搭建 都使用了些什么东西？\n（比如这个<section#comments>是怎么弄的）\n可以分享一下吗？",
      "parentPostTime": "2013-01-05T11:47:53",
      "parentPostId": "756655286"
    },
    {
      "threadId": "814751304",
      "post": "放进去是为了方便发布",
      "time": "2013-01-02T09:31:59",
      "id": "753161989",
      "parentPost": "非常强大，回头试试，另外Authenticate.app也不需要拷贝过去，只用写完整路径即可。",
      "parentPostTime": "2013-01-02T08:32:21",
      "parentPostId": "753132999"
    },
    {
      "threadId": "1006446491",
      "post": "Wow, nice redesign. ",
      "time": "2013-01-02T09:17:23",
      "id": "753158473"
    },
    {
      "threadId": "908672506",
      "post": "抱歉啊，换博客程序造成的",
      "time": "2013-01-02T05:39:30",
      "id": "753090765",
      "parentPost": "今天GR里突然被爆出很多你的文章,我都读过了,又推到我的GR里,bug?",
      "parentPostTime": "2013-01-02T05:31:29",
      "parentPostId": "753088774"
    },
    {
      "threadId": "907211013",
      "post": "Glad u like it!",
      "time": "2012-11-25T05:56:34",
      "id": "718505042",
      "parentPost": "没想到能在这看到Lucifr，目前在用你的GR美化脚本:)",
      "parentPostTime": "2012-11-22T13:12:11",
      "parentPostId": "716738022"
    },
    {
      "threadId": "907979230",
      "post": "哈哈，这么说我又重复造轮子了",
      "time": "2012-11-20T10:29:05",
      "id": "714745153",
      "parentPost": "这是一个系统自带功能……\n在系统设置-键盘快捷键里\n左边选“服务”，右边往下拉就能看到全半角转换",
      "parentPostTime": "2012-11-20T09:08:32",
      "parentPostId": "714720124"
    },
    {
      "threadId": "889833216",
      "post": "这个就是 Safari 插件啊，能截个图么？左边的导航栏本身就是自动隐藏的，右栏虽然设置了最小宽度，但1280的宽度应该不会出现滚动条。",
      "time": "2012-10-23T16:17:13",
      "id": "690180687",
      "parentPost": "求插件版，js貌似有点问题。\n在公司下，1080p显示器完美显示，笔记本就1280*800，左半边空出来了，而且还出现了横向滚动条~~什么原因？",
      "parentPostTime": "2012-10-23T15:17:51",
      "parentPostId": "690122376"
    },
    {
      "threadId": "891014124",
      "post": "嗯，图标就是个蛋蛋……",
      "time": "2012-10-19T08:18:05",
      "id": "686897661",
      "parentPost": "Eggy是否可以翻译为\"蛋蛋\"?",
      "parentPostTime": "2012-10-19T08:01:46",
      "parentPostId": "686893003"
    },
    {
      "threadId": "851479960",
      "post": "Preview 就能做到",
      "time": "2012-09-27T16:49:56",
      "id": "664786569",
      "parentPost": "如果截图需要加注解的话你会用什么工具呢（画个圈或加点文字什么的）",
      "parentPostTime": "2012-09-22T17:17:42",
      "parentPostId": "659122343"
    },
    {
      "threadId": "848536766",
      "post": "好滴",
      "time": "2012-09-19T05:30:51",
      "id": "655253855",
      "parentPost": "已经把CDN关了，一会帮我再试试吧，多谢了",
      "parentPostTime": "2012-09-19T05:26:54",
      "parentPostId": "655252326"
    },
    {
      "threadId": "833501980",
      "post": "不是代理的问题，可能是 Google 的链接 rule 改了，我重新打包了一个 Google translate 插件，你试一下： http://cl.ly/JW5L",
      "time": "2012-09-18T06:04:26",
      "id": "654087558",
      "parentPost": "你也是SSH+PAC吧，我测试结果是挂VPN和不挂VPN的时候是正常的。这情况和我用的一个translate Safari Extensions 情况一样，我把http://translate.google.com 从pac中不使用代理解决了，这个问题用这方法肯定也能解决。",
      "parentPostTime": "2012-09-18T06:00:24",
      "parentPostId": "654081965"
    },
    {
      "threadId": "847398711",
      "post": "URL 好像没写对",
      "time": "2012-09-17T12:43:11",
      "id": "653056533"
    },
    {
      "threadId": "815894039",
      "post": "太久不用 Windows 了，win 下不是也有 flush dns 的命令么？不起作用么？",
      "time": "2012-09-09T02:00:38",
      "id": "644767864",
      "parentPost": "我在 Windows 下写过类似的 MFC 程序。你有否研究过更新 hosts 的这类脚本，不需要重启浏览器就可以直接生效。windows 下 ie 好办。但 firefox 和 chrome 的 DNS 缓存位置我还没找到。",
      "parentPostTime": "2012-09-09T01:55:05",
      "parentPostId": "644765891"
    },
    {
      "threadId": "826072252",
      "post": "Thanks for this tip. I used to creat two atom.xml in the source folder one with link-post support for RSS readers and another for ifttt. Now with your solution I can save some space :)",
      "time": "2012-09-03T03:51:41",
      "id": "638291203"
    },
    {
      "threadId": "801967276",
      "post": "Vitamin-R 支持柱图吧？",
      "time": "2012-08-12T14:18:01",
      "id": "617340864",
      "parentPost": "我一直在寻找好用的番茄工作法App，可是找到的归档功能太弱，连图形化统计功能都没有（Sigh",
      "parentPostTime": "2012-08-12T14:14:23",
      "parentPostId": "617339128"
    },
    {
      "threadId": "783248900",
      "post": "是自己的 VPS，当然托在 Github 也是可以的，不过为了做方便一些 rewrite rules，还是放在了 VPS 上",
      "time": "2012-08-10T15:53:04",
      "id": "615680463",
      "parentPost": "Hi, Lucifr， 很喜欢你的博客风格，请问你的Octopress是托管在什么地方，是Github吗？",
      "parentPostTime": "2012-08-10T15:45:25",
      "parentPostId": "615674414"
    },
    {
      "threadId": "559105486",
      "post": "你能喜欢我的主题我很高兴，但我并没有说我的主题是开源的啊，请你尊重我的劳动！",
      "time": "2012-03-09T12:53:22",
      "id": "460547916",
      "parentPost": "好喜欢，狠狠的给移植到wordpress上了。 ",
      "parentPostTime": "2012-03-09T08:49:07",
      "parentPostId": "460449644"
    },
    {
      "threadId": "568285999",
      "post": "ESC",
      "time": "2012-03-09T06:02:20",
      "id": "460373848",
      "parentPost": "Show Unsaved Changes 以后主窗口下面多出一栏显示当前文件未保存的更改。这个怎么恢复原窗口？",
      "parentPostTime": "2012-03-09T02:15:32",
      "parentPostId": "460254083"
    },
    {
      "threadId": "601874380",
      "post": "应该是要一直穿着才能用",
      "time": "2012-03-08T10:31:28",
      "id": "459645734",
      "parentPost": "这个还是得先穿过去才能用吧？",
      "parentPostTime": "2012-03-08T10:30:31",
      "parentPostId": "459645242"
    },
    {
      "threadId": "538904534",
      "post": "选中一个 .inf 文件，Cmd+i，打开方式里选择 ST2，更改所有。\n\n要换文件类型的图标似乎繁琐一些，我没试过，可参见：http://superuser.com/questions/178316/how-to-set-an-icon-for-a-file-type-on-mac",
      "time": "2012-03-08T00:05:51",
      "id": "459340610",
      "parentPost": "",
      "parentPostTime": "2012-03-07T22:28:25",
      "parentPostId": "459274230"
    },
    {
      "threadId": "582650344",
      "post": "有 Git 插件，通过 Package Control 可以安装",
      "time": "2012-03-06T08:04:16",
      "id": "457636058",
      "parentPost": "请问sublime有没有svn的插件?",
      "parentPostTime": "2012-03-06T06:16:23",
      "parentPostId": "457587519"
    },
    {
      "threadId": "565275577",
      "post": "自己改的，谢谢，详见：<a href=\"http://lucifr.com/2012/01/31/my-octopress-redesigned/\">Octopress 主题改造</a>",
      "time": "2012-03-04T16:13:17",
      "id": "455987208",
      "parentPost": "博主你的这个博客主题是octopress默认的？这个主题的字体和整体非常搭",
      "parentPostTime": "2012-03-04T16:07:17",
      "parentPostId": "455982425"
    },
    {
      "threadId": "479127265",
      "post": "Git，目前比较流行的 svn 了",
      "time": "2012-03-02T13:19:39",
      "id": "454434891",
      "parentPost": "sublime text 2 有没有整合svn的插件呢？或者一些其他方案",
      "parentPostTime": "2012-03-02T03:24:12",
      "parentPostId": "454108414"
    },
    {
      "threadId": "559742960",
      "post": "I love it! Thanks for making such a handy online markdown tool.",
      "time": "2012-03-01T03:46:46",
      "id": "452977441",
      "parentPost": "Glad you like Dillinger!",
      "parentPostTime": "2012-03-01T00:42:47",
      "parentPostId": "452864315"
    },
    {
      "threadId": "479127256",
      "post": "你肯定没有认真看留言……",
      "time": "2012-02-27T12:35:56",
      "id": "449845942",
      "parentPost": "楼主能提供下壁纸么，之前在deviantart上见过，可是一直没找到！",
      "parentPostTime": "2012-02-27T04:30:29",
      "parentPostId": "449683802"
    },
    {
      "threadId": "567426055",
      "post": "我是医学森啊……",
      "time": "2012-02-27T12:35:17",
      "id": "449845558",
      "parentPost": "博主很牛！试了试dropzone，真的很好使~不过它的扩展主要是针对一些国外的网站~小的是文科森，苦于不会编码呀。。。楼主要是能写一些针对国内网站（e.g.微博）的扩展那就太好啦~~~",
      "parentPostTime": "2012-02-27T06:06:36",
      "parentPostId": "449716950"
    },
    {
      "threadId": "587623259",
      "post": "Automator 有这功能？！",
      "time": "2012-02-26T15:09:28",
      "id": "449280226",
      "parentPost": "有那种自动关机，自动开机播放iTunes歌曲叫我起床的软件不？除了AutoMator。",
      "parentPostTime": "2012-02-26T15:06:11",
      "parentPostId": "449278759"
    },
    {
      "threadId": "488996061",
      "post": "是被墙的，要带梯子",
      "time": "2012-02-24T09:22:41",
      "id": "447711603",
      "parentPost": "johnfraney.ca域名下的插件下载不了了，博主更新下吧，谢了",
      "parentPostTime": "2012-02-23T16:49:40",
      "parentPostId": "447034245"
    },
    {
      "threadId": "479127310",
      "post": "是啊，专注于内容",
      "time": "2012-02-24T09:20:14",
      "id": "447710456",
      "parentPost": "现在这种简洁风格的貌似很流行呀",
      "parentPostTime": "2012-02-24T08:46:51",
      "parentPostId": "447695430"
    },
    {
      "threadId": "526488040",
      "post": "唉……属于不务正业那种……",
      "time": "2012-02-24T09:18:49",
      "id": "447709790",
      "parentPost": "博主竟然是医生····\n = =||||||",
      "parentPostTime": "2012-02-24T08:50:16",
      "parentPostId": "447696470"
    },
    {
      "threadId": "497451886",
      "post": "对拖延症患者要有一颗包容的心……=_=",
      "time": "2012-02-23T02:07:09",
      "id": "446512590",
      "parentPost": "已经过了两个月了，还没有看到噢",
      "parentPostTime": "2012-02-23T02:05:53",
      "parentPostId": "446511554"
    },
    {
      "threadId": "579923422",
      "post": "话说这篇留言是不放在新的一篇下比较合适……=_=\n\n英雄所见略同嘛……",
      "time": "2012-02-20T12:44:52",
      "id": "443966356",
      "parentPost": "真巧，刚好昨天参考官方论坛一篇帖子弄了一个在浏览器预览html、php等文件的插件。看了下代码，思路都是一样的调用webbrowser.open_new_tab。\nhttp://www.imququ.com/post/view_sublime-text-2_file_in_browser.html",
      "parentPostTime": "2012-02-20T11:02:03",
      "parentPostId": "443932631"
    },
    {
      "threadId": "581463365",
      "post": "1元1天，无流量限制，ipv6/ipv4 都有的路过……",
      "time": "2012-02-20T12:31:00",
      "id": "443961374"
    },
    {
      "threadId": "486316669",
      "post": "我稍微改动了一下，你试一下吧：\n\n\tSHOWHIDDEN=`defaults read com.apple.finder AppleShowAllFiles`\n\tif [ $SHOWHIDDEN -eq 1 ]; then\n\tdefaults write com.apple.finder AppleShowAllFiles -bool FALSE\n\telse\n\tdefaults write com.apple.finder AppleShowAllFiles -bool TRUE\n\tfi\n\tkillall Finder\n\tosascript -e 'tell application \"Finder\" to activate'",
      "time": "2012-02-17T08:41:02",
      "id": "441695912",
      "parentPost": "不能自动重启， 直接关闭了， 还需要手动开启。我用的是lion  有关系吗？",
      "parentPostTime": "2012-02-17T08:22:03",
      "parentPostId": "441684234"
    },
    {
      "threadId": "577817412",
      "post": "终于也换成 disqus 啦？\n\n才发现 flickr 的 farm 都到 8 了，Flickr 的话小心被墙，Wordpress 的话可以用个换 host 的插件",
      "time": "2012-02-16T14:46:20",
      "id": "440910973"
    },
    {
      "threadId": "576752284",
      "post": "还好吧，100不算多，可以重名的，所以每个任务一个字母就行了，手顺的话有十分钟搞定了",
      "time": "2012-02-15T10:19:14",
      "id": "439688469",
      "parentPost": "实在没有勇气去尝试要多少个，也不是越狱用户，等有空但疼了争取弄出来。。。。。",
      "parentPostTime": "2012-02-15T10:16:54",
      "parentPostId": "439687742"
    },
    {
      "threadId": "479127731",
      "post": "可以把 chrome://settings/content 添加到书签",
      "time": "2012-02-15T01:24:31",
      "id": "439407957",
      "parentPost": "呃，这里啊，不过调试的时候去点这个挺麻烦的。",
      "parentPostTime": "2012-02-15T01:21:22",
      "parentPostId": "439406566"
    },
    {
      "threadId": "481584353",
      "post": "是的，要有 disqus 账号",
      "time": "2012-02-14T16:36:50",
      "id": "438993764",
      "parentPost": "这个评论是怎么增加的？是要有disqus账号才行么？",
      "parentPostTime": "2012-02-13T06:46:30",
      "parentPostId": "437349695"
    },
    {
      "threadId": "571956162",
      "post": "嘿嘿，这叫 linked post，凡是带星的都是直接连到资源页面，点那个星星可以进本文的链接，方便写些推介之类的文章",
      "time": "2012-02-11T07:36:03",
      "id": "435951517",
      "parentPost": "看上去不错。你吧标题弄成App Store地址，废了半天劲才挤进来。。。。",
      "parentPostTime": "2012-02-11T07:33:20",
      "parentPostId": "435950864"
    },
    {
      "threadId": "568942359",
      "post": "中文输入法下的话可以用官方提供的小工具来得到支持，你说的编码问题我没太明白，官方网页上有试用的，你可以自己试一下是否有问题再购买",
      "time": "2012-02-09T03:18:48",
      "id": "433586247",
      "parentPost": "请问对中文支持好么？特别是编码识别..",
      "parentPostTime": "2012-02-09T03:10:55",
      "parentPostId": "433577573"
    },
    {
      "threadId": "562141914",
      "post": "Just purchased 2.0. Hope there could be an option to set more than 4 circles at a time. ",
      "time": "2012-02-07T08:03:45",
      "id": "431701801",
      "parentPost": "I'm sorry you felt burned. As I explained in my rather long winded blog post http://aptonic.com/blog/responding-to-the-haters - the migration to the Mac App Store made it difficult for me to provide a free update to users of the original version. I've been quietly giving away as many promo codes as I can (Apple only give 50 each update) to users who were on 0.6 and wanted to update but because I have limited codes I can't offer this to every user. If you drop me an email I'll see if I can sort you out. ",
      "parentPostTime": "2012-02-03T00:39:44",
      "parentPostId": "428175021"
    },
    {
      "threadId": "565797834",
      "post": "多买几个…… ^_^",
      "time": "2012-02-06T04:08:54",
      "id": "430560755",
      "parentPost": "我要不要去买个mac呢。。。",
      "parentPostTime": "2012-02-06T04:07:47",
      "parentPostId": "430559973"
    },
    {
      "threadId": "551916776",
      "post": "很喜欢顶部的滚动 Twitter 更新条和 fancybox 功能，赞～",
      "time": "2012-02-05T16:20:28",
      "id": "430166406"
    },
    {
      "threadId": "562756627",
      "post": "Octopress 是一个静态博客生成程序，如你所说可以架设到 GitHub，也可以架设到 Heroku 或是自己的服务器上，可以看看我写的这篇：http://lucifr.com/2011/11/23/bye-bye-wordpress-hello-octopress/",
      "time": "2012-02-05T16:13:47",
      "id": "430163313",
      "parentPost": "请问LZ，这个octpress就是利用github pages架设网站吗？",
      "parentPostTime": "2012-02-05T13:13:04",
      "parentPostId": "430074756"
    },
    {
      "threadId": "562691705",
      "post": "它竟然是收费的~",
      "time": "2012-02-05T04:04:57",
      "id": "429872574",
      "parentPost": "我在用 camouflage~",
      "parentPostTime": "2012-02-05T02:06:21",
      "parentPostId": "429806915"
    },
    {
      "threadId": "540957335",
      "post": "Dropbox 有 Linux 版的，然后只要设置好 source 的位置就行了 http://www.dropbox.com/install?os=lnx",
      "time": "2012-01-18T09:18:29",
      "id": "414164963"
    },
    {
      "threadId": "537180614",
      "post": "换之前也不是很多人……换的好处是完全没有 spam 了",
      "time": "2012-01-16T05:20:43",
      "id": "412395931",
      "parentPost": "这果断就是我需要的了...\n(换Disqus之后貌似冇人评论了啊.. 我也很想换...)",
      "parentPostTime": "2012-01-16T04:26:49",
      "parentPostId": "412378870"
    },
    {
      "threadId": "567826901",
      "post": "Please support ssl connection. http connection to Google is blocked in our country.",
      "time": "2012-01-14T05:58:26",
      "id": "410402480"
    },
    {
      "threadId": "533904285",
      "post": "http://twitter.com/#!/lucifr/status/156778628905041921",
      "time": "2012-01-10T16:47:05",
      "id": "407206073"
    },
    {
      "threadId": "531519454",
      "post": "要是能和 TaskPaper 兼容就好了",
      "time": "2012-01-10T15:44:36",
      "id": "407162923"
    },
    {
      "threadId": "1158210931",
      "post": "我也是现学现卖的，可以看看 ProGit 这本书，git 确实是个很不错的工具，值得投入时间学习",
      "time": "2012-01-10T04:03:44",
      "id": "406804566",
      "parentPost": "呵呵，我从你的博客里学了不少东西。先谢谢。git push origin master这样的还会，再多就不行了。得回头好好再研究下。",
      "parentPostTime": "2012-01-10T04:01:15",
      "parentPostId": "406803566"
    },
    {
      "threadId": "479127275",
      "post": "Windows 么？ 安不上 Package Control 的话，直接把 Zen coding 下载到 Packages 目录再重启也是可以的吧",
      "time": "2012-01-07T09:23:56",
      "id": "403576173",
      "parentPost": "你好，我尝试安装ZENCONDING，但是失败了，我无法打开 “Consol”来输入命令, 按照说明的同时按下 ctrl+' ,我的sublime没有任何反应啊，是不是因为我没有注册的原因呢？请指教啊！很感激！",
      "parentPostTime": "2012-01-07T08:19:21",
      "parentPostId": "403522266"
    },
    {
      "threadId": "507234337",
      "post": "或者直接到 Vps 里去搭环境去，嘿嘿：http://lucifr.com/2011/12/21/octopress-on-server-and-portable-scheme/",
      "time": "2011-12-21T07:48:32",
      "id": "391233699"
    },
    {
      "threadId": "498491926",
      "post": "Linode Japan ping 起来速度果然不错，才100+ms",
      "time": "2011-12-21T07:32:08",
      "id": "391229415"
    },
    {
      "threadId": "496657133",
      "post": "Like your css tweaks~",
      "time": "2011-12-07T17:12:54",
      "id": "381323709"
    },
    {
      "threadId": "479127222",
      "post": "是的，我也一直在用，启动很快",
      "time": "2011-11-24T05:21:04",
      "id": "371312144",
      "parentPost": "mac中的字典很好用也，只要装些自己喜欢的词典就可以了呢。。。。",
      "parentPostTime": "2011-11-24T05:15:32",
      "parentPostId": "371310545"
    },
    {
      "threadId": "3064892062",
      "post": "可能线路不一样，我这里 ping github 260多ms，heroku 上 300",
      "time": "2011-11-22T06:48:01",
      "id": "369907375",
      "parentPost": "我的感觉跟你的恰恰相反呢，呵呵。",
      "parentPostTime": "2011-11-22T03:55:13",
      "parentPostId": "369844363"
    },
    {
      "threadId": "65979039",
      "post": "There's a bug in your buzz button. \"srcTitle\" is missing.",
      "time": "2010-02-11T09:49:15",
      "id": "33826425"
    },
    {
      "threadId": "2185695",
      "post": "光是导入这一个功能就已经许诺良久而杳无音信了，disqus小组总是说在努力，可真没看出他们努力在哪了，这样的工作热情，真的不敢恭维，或者就是它本身就先天残疾，殊无导入的可能，所以才如此拖沓。Lucifr个人觉得还是静观为妙。当然这也只是Lucifr的看法，各人的标准及需求不同",
      "time": "2008-07-26T09:30:56",
      "id": "1007559",
      "parentPost": "现有的功能我觉得基本够用了，除了导入之外，服务能够保持稳定就行，这比积极更新更重要。",
      "parentPostTime": "2008-07-26T04:28:19",
      "parentPostId": "1006862"
    },
    {
      "threadId": "479128046",
      "post": "先试试留言",
      "time": "2008-05-19T03:27:40",
      "id": "488269"
    },
    {
      "threadId": "660320",
      "post": "Looking forward to it",
      "time": "2008-05-18T23:24:36",
      "id": "487639"
    }
  ],
  "profileInfo": {
    "username": "lucifr",
    "about": "explore and share",
    "name": "Lucifr",
    "disable3rdPartyTrackers": false,
    "isPowerContributor": false,
    "isAnonymous": false,
    "rep": 1.623899,
    "profileUrl": "https://disqus.com/by/lucifr/",
    "url": "http://lucifr.com",
    "reputation": 1.623899,
    "location": "Beijing",
    "isPrivate": false,
    "signedUrl": "http://disq.us/?url=http%3A%2F%2Flucifr.com&key=W-JjrPOt09ZgJyQKWdC_Cw",
    "isPrimary": true,
    "joinedAt": "2008-05-18T22:53:41",
    "id": "34302",
    "avatar": {
      "small": {
        "permalink": "https://disqus.com/api/users/avatars/lucifr.jpg",
        "cache": "//a.disquscdn.com/uploads/users/3/4302/avatar32.jpg?1431825461"
      },
      "isCustom": true,
      "permalink": "https://disqus.com/api/users/avatars/lucifr.jpg",
      "cache": "//a.disquscdn.com/uploads/users/3/4302/avatar92.jpg?1431825461",
      "large": {
        "permalink": "https://disqus.com/api/users/avatars/lucifr.jpg",
        "cache": "//a.disquscdn.com/uploads/users/3/4302/avatar92.jpg?1431825461"
      }
    }
  }
}