{
  "comments": [
    {
      "threadId": "4897297934",
      "post": "Psst FYI google is reading one of the ads your ad provider has as malware, you might want to pester the ad server about it.",
      "time": "2016-06-15T22:05:59",
      "id": "2733009120"
    },
    {
      "threadId": "4804663159",
      "post": "When I keep in mind many of the GNETS are at old facilities that used to be \"black schools\" in segregation, I think this is the old jim crow with a new face.",
      "time": "2016-05-06T17:32:10",
      "id": "2662096323"
    },
    {
      "threadId": "4653736451",
      "post": "And of course I don't see this until after it closes and had stuff for this one. Oy...",
      "time": "2016-03-14T06:38:03",
      "id": "2568407596"
    },
    {
      "threadId": "4514408487",
      "post": "I've seen people say it came out of tumblr as a way to discredit it but 1) that's really not true? It's older than a substantial part of tumblr's user base, let alone tumblr itself? and 2) even if it did come out of people on a social media site, that doesn't make it magically not legit...",
      "time": "2016-01-23T00:05:21",
      "id": "2472803836"
    },
    {
      "threadId": "4452407370",
      "post": "Whoo, actually got something to turn in this time!",
      "time": "2016-01-02T07:05:28",
      "id": "2435610129"
    },
    {
      "threadId": "4364507572",
      "post": "Not really, I'm open to whatever though it came to me upbeat rock-ish? Like, the guitar sound and some of the cadence is similar to but not exactly Green Day, circa Basketcase era, but with a feminine voice and less aggressive backing? Maybe similar technique but acoustic? and the words need tweaked for cadence, Some of it is the rough content idea where the words will need tweaked. I'm not great at music writing, I just have a feel for cadence and stuff.",
      "time": "2015-12-05T18:16:50",
      "id": "2394951017",
      "parentPost": "Do you have music that goes with this? I love the idea, and I've been told that I can sing...",
      "parentPostTime": "2015-12-05T14:49:28",
      "parentPostId": "2394672996"
    },
    {
      "threadId": "4365979777",
      "post": "H.R. 2646 would make programs like the ones that took me out of homelessness extremely unlikely to be funded, and leave me without advocates (like the ones at PAIMI) who could fight for me in the event of housing discrimination. It terrifies me.",
      "time": "2015-12-03T04:06:51",
      "id": "2390071944"
    },
    {
      "threadId": "4088148405",
      "post": "I agree with most of this, except for the idea that online activism doesn't count. My day job involves organizing online activism from People with Disabilties. It does count- but it's also way way more than sharing a facebook post. It involves engaging with people and sometimes confronting people AS real people through the medium of online. And this kind of activism is a lot more accessible to people with disabilities. \n\nA lot of times it takes the form of support functions- you can help coordinate practicalities like food/people to help target populations avoid arrest/medical support that will be enacted by those on the ground, You can act as a \"ban hammer\" when trolls invade live feeds (kind of like how we hire security guards to keep us safe at synagogue on Friday night) so that PoC don't have to deal with the sort of verbal violence they bring on that particular front, and using your leverage as someone who is in a position of privilege to make sure that activists of color have a loud platform (like this excellent series!). These are all SUPPORT ROLES that can be done online. \n\nAdditionally, ignoring the power of online activism worries me, as hashtag activism on twitter has been such a powerful tool for marginalized populations. To say that isn't activism or it doesn't work dismisses how many people (Especially PoC on twitter! Black twitter in particular knows what it is doing on this front! I encourage everyone reading to go seek out the numerous articles by WoC on Twitter and Hashtag advocacy!) have changed things. And yeah, it's more than JUST posting to the tag- keeping a tag alive is hard work especially just starting out. It also dismisses the outcomes as nothing- the fact is that social media and hashtag advocacy played a huge part in getting a conditional pardon for Neli Latson, a young disabled black man targeted on both racial and disability grounds, is a REAL thing. \n\nOnline activism counts and is not less than face-to-face activism- but it is indeed a lot more than occasionally posting to facebook.",
      "time": "2015-09-02T05:01:05",
      "id": "2231317942"
    },
    {
      "threadId": "3902068646",
      "post": "We definitely need to hang out in person someday.",
      "time": "2015-07-04T23:38:08",
      "id": "2117168669"
    },
    {
      "threadId": "3671482443",
      "post": "Depends on the state how much you get in SNAP benefits. In PA, on SSI of ~$650/mo you can get $200/mo; In Georgia I think it comes out like... $50/mo is something I've heard but can't substantiate, but it's SIGNIFICANTLY less.",
      "time": "2015-04-13T12:09:24",
      "id": "1964806718",
      "parentPost": "The $29 is to feed a 3 person family.",
      "parentPostTime": "2015-04-10T23:55:56",
      "parentPostId": "1958268619"
    },
    {
      "threadId": "3558519471",
      "post": "Hey! So the facebook event is for the virtual vigil listed here. :)",
      "time": "2015-03-01T17:22:38",
      "id": "1882103245"
    },
    {
      "threadId": "3495719056",
      "post": "BIG TRUE POINT!!! MCU clint hasn't had much character development in canon. Though TBH I'd hate for his Deafness to be THE character development, rather than just another part of his life. But it would add DEPTh at least.\n\n\n\nI just. Some people are redic sometimes. \n\n\n(The only Marvel book I get a subscription to is Black Widow, I'm generally a binge reader for the others. I also get a TON of IDW's Star Trek books.)",
      "time": "2015-02-09T02:46:53",
      "id": "1842938056",
      "parentPost": "Clint's deafness was acquired (or at least acquired, magically fixed via cosmic retcon, and acquired again by a relatively recent injury), so you're right that it wouldn't be a big part of his identity. I would not mind if it were introduced to the MCU version, if only because that might give the character some actual personality.",
      "parentPostTime": "2015-02-09T02:12:39",
      "parentPostId": "1842900038"
    },
    {
      "threadId": "2823411392",
      "post": "This is totally true. One of the reasons I don't post a lot of images on this blog is because I don't always have the cognitive power to write image descriptions, and I made a choice to not use images rather than have that be inaccessible. Also the stuff on my main advocacy blog isn't super accessible language. One of the things you need to think about is who your audience is and how people are going to use it. Sometimes it's okay to not be super accessible in some settings as long as it is clear that you are willing to make things accessible or explain what something means. Sometimes, though, it's going to be important to make things accessible from the get-go- for example, a public bulletin or a PSA or similar. While the goal is for everything to be more accessible, it's a process and the access needs of each person involved need taken into account. \n\n\nExample: most of my blog posts on my main wordpress blog aren't super accessible language. I struggle a lot with writing blog posts and when I've tried before I ended up just not writing at all. But When I made a guide about how to add a caption file to youtube, I also wrote a copy of that post in accessible language for people who might need it.",
      "time": "2014-12-09T23:28:07",
      "id": "1734089367",
      "parentPost": "thank you! (this is the author, by the way)\nafter reading yours and others' comments, i'm trying to more accurately figure out what parts or kinds of language accessibility i need to consider. i tend to automatically assume that accessible language means concrete and conversational, because those are what i need, accessibility-wise. \nnow i am trying to think more about basic sentence-structure problems, and also about the difference between using less jargon, and using more concrete language. i think that many of the comments i am getting are advocating for less jargon and specifically saying that that doesn't require added concreteness. i think that i will probably struggle with that, because basically the two kinds of language i find accessible are academic jargon (that i'm familiar with) and concrete language/sensory metaphor. i am wondering if maybe my ability to be accessible will be limited to certain kinds of accessibility much of the time?",
      "parentPostTime": "2014-07-07T06:47:40",
      "parentPostId": "1471723559"
    },
    {
      "threadId": "2646624084",
      "post": "The third one I have to say is the most humanizing version of his story I've seen yet. Wonderful to hear him  speak about his process rather than being a prop.",
      "time": "2014-04-30T04:18:05",
      "id": "1361878996"
    },
    {
      "threadId": "2439631386",
      "post": "indeed. And contrary to what the toe rag who also responded said, a recent stuff shows that ethnically diverse casts are more likely to bring in more money, not less. so.",
      "time": "2014-03-16T03:54:01",
      "id": "1286549162",
      "parentPost": "Hear hear. If people of color have managed to identify with and enjoy seeing white people playing fictional characters on screen for 100 years or so, then white people can bloody well get used to identifying with people of color playing their favorite characters. It actually isn't that hard if you try, just like, even a tiny bit.",
      "parentPostTime": "2014-03-16T03:15:36",
      "parentPostId": "1286525262"
    },
    {
      "threadId": "2367939616",
      "post": "I've been \"in recovery\" for the bulimia technically for 5 years. (since last intentional purge- 8 or 9 if we aren't counting relapses) But binge eating disorder moves in and takes its place periodically, and that I can't really handle. I also have issues with my inner sense of my body being much smaller than it is, so when I'm made aware of it not being so it... goes really badly. \n\n*hugs* recovery is hard.",
      "time": "2014-03-05T23:47:32",
      "id": "1272049209",
      "parentPost": "I can relate I have been \"recovered\" (meaning physically healthy) from an ED for 2 years now... Right now I feel the same as you and I have been fighting it. I think of how horrible the recovery process was for me...how horrible it really was when I was very sick and I have really come so far....... ahh this is part of the struggle.. staying away from a coping mechanism. I wish I had better words for you... I just wanted to say I understand.",
      "parentPostTime": "2014-03-05T23:28:50",
      "parentPostId": "1272029825"
    },
    {
      "threadId": "1733973417",
      "post": "I'd just be thrilled to have any new Stargate TBH",
      "time": "2013-09-12T20:33:56",
      "id": "1040927920"
    },
    {
      "threadId": "1752563552",
      "post": "OMG I do hope that we get some different news soooooon",
      "time": "2013-09-12T17:10:39",
      "id": "1040607351"
    },
    {
      "threadId": "1717949727",
      "post": "he's cute but reminds me a lot of the werewolf....",
      "time": "2013-09-12T16:47:06",
      "id": "1040573921"
    },
    {
      "threadId": "1666809048",
      "post": "Being white hispanic* (or in her case, white latina) is certainly not making someone of both worlds. I'm technically white hispanic according to the census bureau (Mora is my mother's maiden name, though looking at me you'd never guess- or guess that we are Anusim) and I'm definitely not a WoC. \n\n\nRacial and Ethnic discrimination and oppression are two different things. They are both very real things, but they are different things. Just as ethnic discrimination against Polish and Irish Americans isn't racism. So when my fellow white hispanic/latina folks conflate that I just get very frustrated. They are two different (though sure, inter-related usually) axis of oppression. \n\n\n*My blood family were assimilated into the Spanish empire by force, but my branch isn't from Latin America.",
      "time": "2013-09-11T20:53:40",
      "id": "1038996384"
    },
    {
      "threadId": "1681760726",
      "post": "Randi, I don't know if you can get this, but please remove your 4th point or edit it so that it is not explicitly violent. Thank you. \n\n\nI have yet to hear a response from the original poster of the comment. They removed it, but I would like the full story and until then I can only assume they took it down because their boss asked. This doesn't give credence any direction. While I fully hope the owner has learned her lesson and will no longer discriminate, I can't post an update until I hear from her or her boss directly in a traceable way.",
      "time": "2013-09-09T04:03:03",
      "id": "1035056815",
      "parentPost": "First of all, I am not affiliated with either of the companies involved, but I have a few comments, as the mother of a special needs child who lives in Clarion County.\n1.  The owner of the Antique Mall is whining that her original complaint was not handled professionally?  Really?  She's embarrassed now because of all the attention that her original discrimination received, and wants the issue to be kept private, so she is claiming that it is misinformation.  Bullcrap.  She was the one who should have thought her comments through, not the person who posted it on facebook.  If you don't want to be seen as a terrible person for discrimination against people with special needs, here's a tip:  DON'T DISCRIMINATE AGAINST PEOPLE WITH SPECIAL NEEDS.\n2.  The owner of the Antique Mall is now claiming that her comments being posted on facebook will shut her down, but it is due to the person who posted it, not due to herself.  If you don't want your comments to become public knowledge, then don't make them.  The person who posted about your original discrimination was not doing anything wrong, and if your company fails now, it's because of you, not because of the person who posted it.\n3.  Whether or not the issue has been \"resolved\" is now kind of a moot point.  The comments were made, the discrimination was done.  No matter what the owner says, posts, does, etc. to take this back, she simply can't.  Once it is out there, people don't just forget it.  Saying \"I'm sorry I think you shouldn't come anywhere near my store because of your disability\" will not make things better, it will not make up for what you originally said.  And personally, it seems like the issue is \"resolved\" because it has been labeled as \"misinformation\" and removed from the public eye.  Ignoring the issue and pretending it didn't happen doesn't make it go away.\n4.  (And this is my own personal view, as the parent of a child with special needs who is absolutely the most wonderful little girl in the world)  The owner of this store deserves a lot worse than people simply not going to her store.  The worst fate I can think of is burning alive.  And for this woman, even that would be too good.",
      "parentPostTime": "2013-09-09T02:59:18",
      "parentPostId": "1035009488"
    },
    {
      "threadId": "1608181436",
      "post": "Also biased, but yes, P-mag is fabulous and multi topic.",
      "time": "2013-08-15T19:17:41",
      "id": "1002667110",
      "parentPost": "I feel weird mentioning it, like I'm revealing my secret special place, but I really like persephone magazine (http://persephonemagazine.com/). Lots of variety, and you get to accumulate points to gain titles (I'm gunning for \"cheesemonger\"). It's had a few hiccups in the past week moving servers, but bookmark it and come back if it's down - I love the sense of community.",
      "parentPostTime": "2013-08-15T16:11:21",
      "parentPostId": "1002428918"
    },
    {
      "threadId": "1517794375",
      "post": "The video with him getting people to kneel should be in this post as well!!!!",
      "time": "2013-07-21T21:25:43",
      "id": "971627079"
    },
    {
      "threadId": "1386905183",
      "post": "... I can't get over the phrase \"modest $75\" Where I'm from, that's a pretty damn good gift of cash. Most cash gifts here are like $25 for a decent one. I've seen as low as $10 (and once or twice less) from elderly relatives. Just. Mind Boggles.",
      "time": "2013-06-10T23:00:37",
      "id": "925674106"
    },
    {
      "threadId": "1220689615",
      "post": "This would not surprise me.",
      "time": "2013-04-23T23:04:30",
      "id": "873691950",
      "parentPost": "Yeah, I'm gonna take a wild guess and say RDJ is already well aware of Science Bros, or at least, if he isn't already aware of the fandom, he totally ships it anyway. Just saying since he once said in an interview that he ships Holmes/Watson and he gave a shoutout to all the fans of it. Soooo.\n\n\nActually, my girlfriend and I used to make frequent jokes about RDJ having a secret Tumblr and browsing the fandoms of his movies in his spare time. :P Because why not?",
      "parentPostTime": "2013-04-20T04:52:15",
      "parentPostId": "869015417"
    },
    {
      "threadId": "1222364172",
      "post": "If so it would create a paradox in his timeline right there. He already knows that version of her body dies in the Library, even if her soul/consciousness  continues in the Library database. Having her regen would disrupt that point in his timeline.",
      "time": "2013-04-23T22:46:23",
      "id": "873680649",
      "parentPost": "I am wondering if the power he gave her to fix her hand in Angels/Manhattan is enough to give her a regeneration or not.",
      "parentPostTime": "2013-04-20T14:47:01",
      "parentPostId": "869790274"
    },
    {
      "threadId": "1220853335",
      "post": "That was awesome. Curious if planned or improv'd in response to Kimmel being Kimmel.",
      "time": "2013-04-23T22:37:17",
      "id": "873674681"
    },
    {
      "threadId": "1231295915",
      "post": "HBO needs to get their shit together. :-/",
      "time": "2013-04-23T22:27:49",
      "id": "873668262"
    },
    {
      "threadId": "1231489859",
      "post": "Perfectly glorious long locks. A+++",
      "time": "2013-04-23T22:11:19",
      "id": "873656644",
      "parentPost": "People didn't like it? I mean yeah, it was a bit grungy, but he's been in prison.Give him a bit to snag a shower and he will be back to perfect.",
      "parentPostTime": "2013-04-23T20:27:59",
      "parentPostId": "873570911"
    },
    {
      "threadId": "1226731085",
      "post": "THIS. Seriously, if you have a line sketch like this, you can do this stuff cheap and easy.  :) It might not be quite as slick as hers the first time, but If the money is a barrier it totes would work.",
      "time": "2013-04-23T20:20:39",
      "id": "873563944",
      "parentPost": "You don't need to win the lottery -- just cut out a freezer paper stencil and use fabric paint. Or print out the image on paper and use Mod Podge to attach it to a cheap IKEA shade. Cheap & Creative WINS!!",
      "parentPostTime": "2013-04-21T18:40:37",
      "parentPostId": "871343454"
    },
    {
      "threadId": "1222686556",
      "post": "That's one of the Authors we did that I was blanking on! Vonnegut! Slaughterhouse V in our case though. \n\nYou are an awesome teacher.",
      "time": "2013-04-23T20:12:05",
      "id": "873556639",
      "parentPost": "I'm in the middle of teaching a sci fi unit right now! We read \"The Performance Artist\" by Lettie Prell (from apex magazine) and \"Harrison Bergeron\" by Kurt Vonnegut, as well as studied Janelle Monae, MF Doom, David Bowie, and the Talking Heads' space/sci fi songs to talk about how the genre reflects real concerns. Now they are about to start writing their own sci fi stories. It's awesome, and I've been able to blend curriculum with their biology teacher, too.",
      "parentPostTime": "2013-04-19T23:54:43",
      "parentPostId": "868737363"
    },
    {
      "threadId": "1203606679",
      "post": "As a spoiler fiend I\"ll be in that closed tab reading the shit out of them...",
      "time": "2013-04-14T18:33:24",
      "id": "863429455"
    },
    {
      "threadId": "1203866654",
      "post": "Managed all Buffy in v. short time period where I was pretty sick for a while. Did nothing but watch from waking to eventually passing out. Was pretty intense binge watching wise.",
      "time": "2013-04-14T18:26:08",
      "id": "863422283",
      "parentPost": "Buffy. The answer is always Buffy.",
      "parentPostTime": "2013-04-11T18:09:09",
      "parentPostId": "859902594"
    },
    {
      "threadId": "1208395885",
      "post": "So, Flashback tastic time?",
      "time": "2013-04-14T18:06:48",
      "id": "863403389",
      "parentPost": "SPOILERS IF YOU HAVEN'T WATCHED ELEMENTARY\n\nIn this show, Irene Adler is dead. That was kind of a big deal for a few episodes.",
      "parentPostTime": "2013-04-14T15:51:50",
      "parentPostId": "863272350"
    },
    {
      "threadId": "976217029",
      "post": "He'd work as my travel buddy super well! Cthulhu is getting a little beat up...",
      "time": "2013-03-18T13:50:18",
      "id": "833595250"
    },
    {
      "threadId": "1137643373",
      "post": "So, Um. Anyone else unsettled that while yes our hero is played by a Jewish man, (SPOILER ALERT) BOTH of the characters played by Jewish women he encounters end up evil, and the one that had romantic interest in him turns into a spiteful, evil villianess? And he is happily ever after ish with the character played by the main actress who ISN'T a Jew? I know it made me a little uncomfortable watching... But maybe I'm being too sensitive?",
      "time": "2013-03-16T02:37:23",
      "id": "830762350"
    },
    {
      "threadId": "1033671360",
      "post": "I wonder if She'll (or someone else) add words from other works contemporary to Austen?",
      "time": "2013-01-18T21:55:16",
      "id": "772120752"
    },
    {
      "threadId": "446011999",
      "post": "I'm in the US. I have friends who I thought it would be of interest to, and it sounds like an awesome project. ",
      "time": "2012-02-21T22:42:57",
      "id": "445213306",
      "parentPost": "Thanks for spreading the word! Also check out queeringsapmi.com. Where do you live, friend? / Elfrida, project leader Queering Sápmi",
      "parentPostTime": "2012-02-21T10:42:51",
      "parentPostId": "444655714"
    },
    {
      "threadId": "504768597",
      "post": "whoo hoo! Exciting!",
      "time": "2012-01-06T05:16:10",
      "id": "402037280"
    },
    {
      "threadId": "199322753",
      "post": "could you elaborate?",
      "time": "2011-12-21T23:39:07",
      "id": "391859365",
      "parentPost": "The handingoutstars link that describes SafeDash is broken",
      "parentPostTime": "2011-12-21T23:28:17",
      "parentPostId": "391852102"
    },
    {
      "threadId": "308229997",
      "post": "Someone shared on tumblr. Freaking awesome! (Also, blown away by Cris's playing.)",
      "time": "2011-12-06T05:47:11",
      "id": "380114519"
    },
    {
      "threadId": "485906758",
      "post": "thanks Amanda... I appreciate the comment. I've been depressed and occasionally mildly suicidal for the last two months, and this was... bad. (I am with people almost all the time lately, so I'm pretty \"safe\".)",
      "time": "2011-11-28T22:21:39",
      "id": "374487694",
      "parentPost": "shit I'm so sorry :(",
      "parentPostTime": "2011-11-28T03:33:55",
      "parentPostId": "373975790"
    },
    {
      "threadId": "300309548",
      "post": "I think maybe you should contact the Original poster:\n\nhttp://badparsiqueer.tumblr.com/",
      "time": "2011-06-17T20:25:39",
      "id": "228551030",
      "parentPost": "Holy shit! The Nightwing shirt is AWESOME! How can I get it.... without winning. ",
      "parentPostTime": "2011-06-16T02:35:39",
      "parentPostId": "226973045"
    },
    {
      "threadId": "288305177",
      "post": "Oh, yay! \n\nYeah, generally you'd think this would be something that they would think about, but... yeah. (And don't get me started on the issues with the state DDs on accessibility and calls. :-/)",
      "time": "2011-04-25T23:21:29",
      "id": "191753094",
      "parentPost": "I was actually just about to send them an e-mail about it myself, in fact.",
      "parentPostTime": "2011-04-25T23:20:03",
      "parentPostId": "191752615"
    },
    {
      "threadId": "286777240",
      "post": ":D Yeah, I'm on tumblr- a lot actually. It kind of amused me to see it going around independently from me actually. ",
      "time": "2011-04-23T20:40:57",
      "id": "190831468",
      "parentPost": "Oh, thanks for letting me know.  I didn't know you were on tumblr. I really like your thoughtful, heartfelt post.",
      "parentPostTime": "2011-04-23T20:39:06",
      "parentPostId": "190830960"
    },
    {
      "threadId": "278975361",
      "post": "I\"m totally cool with people not getting Dx'd (it's not the path for everyone to get Dx'd.)  :D!",
      "time": "2011-04-15T04:29:07",
      "id": "184850994",
      "parentPost": "I'm the OP and in regards to the Autism question, I am hesitant to ID as such due to never being diagnosed and a reluctance to claim something that could be false out of respect for others, but I'm at least borderline Aspergers (In my opinion and that of many of my friends) and neuroatypical.  \nAnd thanks!",
      "parentPostTime": "2011-04-15T04:27:35",
      "parentPostId": "184850635"
    },
    {
      "threadId": "277657389",
      "post": "Thanks, it wasn't up when I looked for it this Morning. :)",
      "time": "2011-04-12T17:45:27",
      "id": "183282275",
      "parentPost": "You might want to edit this to include the actual link to the source - it's in my reblog, if you need the URL.",
      "parentPostTime": "2011-04-12T16:33:04",
      "parentPostId": "183237141"
    },
    {
      "threadId": "274917071",
      "post": "Yeah, everyone is getting this response. I hope everyone that does writes back and says that No, the vendor should be able to opt out.",
      "time": "2011-04-09T00:44:55",
      "id": "181243716",
      "parentPost": "Sounds like an automated response was made up and sent out randomly to people who inquired about the Autism Speaks situation.  It like writing to government officials:  they probably actually read about one out of every 1000letters or so...everytime I write to a government official I always get the same automated response back...",
      "parentPostTime": "2011-04-08T22:11:37",
      "parentPostId": "181173812"
    },
    {
      "threadId": "268724148",
      "post": "Thanks for the Comment Stephanie. I replied in more detail over on the wordpress.",
      "time": "2011-04-01T20:46:43",
      "id": "176515010",
      "parentPost": "Yeah…being HIV+ is worse than my ASD (and I have a diagnosis of “Autistic Disorder.”) At least it is for me. My cousin has profound, low-functioning ASD and that kind of autism definitely isn’t desirable (can’t talk, in diapers, no social or academic skills, seizures, etc.) People like my cousin definitely need some sort of “cure” (and I use that term very loosely) b/c he is completely non-functional. But that is a completely different topic…\n\nI also took all honors and AP classes in HS; I had a 4.6 GPA but I had no support and my mother told me to get my GED (and shortly after I got my GED she kicked me out and moved to Texas or wherever she is now).\n\nI’m going back to college in the spring so, hopefully, things will go right this time. I’ve attempted college before but always failed b/c of complete lack of support and understanding from college. And now I am going to be physically disabled on top of everything else (I now have to use forearm crutches to keep the weight off of my bones b/c they may collapse under pressure).\n\nI will be attending a more liberal college and, obviously, liberal colleges appear (in my experience, anyway) to have a better understanding and appreciation of disability. Technical colleges are the worst, in my opinion: they are basically just like high school (which I could not tolerate) except that almost everyone smokes (and I cannot stand the smell of nicotine).\n\nI don’t know how to really accommodate autism in college but I would ask for this: to always be allowed to work alone (never in groups), to be allowed to communicate with the instructor via e-mail instead of verbally…this would suffice for me.\n\nAnd as for everything else I don’t really know either: brain injury and seizures often cause difficulty in reading so I can probably get my books on audio. Using forearm crutches is basically like walking, except much more slowly, everyone stares at you and elevators are always preferred over stairs. And I avoid classes that might have triggering content about extreme abuse history…\n\nI think I’ll be okay with this “stuff” in college but b/c of social problems (autism) I have great difficulty being a “self-advocate” and asking for what I need: this part of it is lost on me. Maybe I’ll just write an e-mail to the disability resource center explaining things first and take it from there…",
      "parentPostTime": "2011-04-01T20:45:25",
      "parentPostId": "176514478"
    },
    {
      "threadId": "261658151",
      "post": "Oh totally. Man, I wish I could remember the name of the Canadian firm!",
      "time": "2011-03-24T02:59:34",
      "id": "170689077",
      "parentPost": "Garry Burge is thinking of starting/seeding a company like this in Queensland.\n\n(It certainly would help, like in testing e-books).\n\nEspecially in troubles like \"I know this doesn't look right, but I can't tell you what it is\".",
      "parentPostTime": "2011-03-24T02:53:26",
      "parentPostId": "170687050"
    },
    {
      "threadId": "252511658",
      "post": "unfortunately trufax",
      "time": "2011-03-13T01:43:57",
      "id": "164897755"
    },
    {
      "threadId": "247942608",
      "post": "Thank you! It went alright, though I forgot the name of the people hosting the event when I got there... :)",
      "time": "2011-03-08T06:57:22",
      "id": "162242838",
      "parentPost": "That's near my old apartment! Change at the Ritz for sure. Good luck!",
      "parentPostTime": "2011-03-07T21:26:37",
      "parentPostId": "161977063"
    },
    {
      "threadId": "209887102",
      "post": "Totally cool. It didn't trigger me, but I make it part of my religious practice to try to make access for as many people as possible (Under the idea of \"Healing the World\") so thus the trying (and too often failing, honestly) to spot trigger warnings and to do image descriptions and so on. I don't hold people to that same standard I hold myself, so thus nothing to be sorry for as it has to do with me. <3 <3 <3",
      "time": "2011-01-15T23:18:18",
      "id": "129544615"
    },
    {
      "threadId": "201981362",
      "post": "I wouldn't say they are Democrats in name only. They are both certainly Democrats, not Republicans. HOWEVER, If you were to say \"progressives in name only\" I wouldn't argue. They certainly use DC politicking and wavering and deal making in a way that makes them not progs, but their goals and progress fall well within the Dems' realm. \n\nOn the other hand, Rahm = attractive older Jewish man, so me and some of my friends have horrible crushes on him. He's running for mayor of Chicago right now, and that might be a more appropriate role for him. He is a little too foul mouthed and openly cut throat (rather than secretive as needed in DC) for the CoS position to be a good fit. Besides, I got the feeling he didn't like having to play well with the Republicans on certain issues (besides the corp crap, though I thought he referred to how much BS the Supreme court  ruling calling corps individuals was? IDK, I'd have to ask someone who likes him for is politics instead of his ass. :-X)",
      "time": "2011-01-03T19:39:13",
      "id": "123572730",
      "parentPost": "Rahm = Republican corporate whore. (I know he's a Democrat, but in name only, like OBAMA.)",
      "parentPostTime": "2011-01-03T17:05:50",
      "parentPostId": "123530218"
    },
    {
      "threadId": "202074485",
      "post": "I haven't posted it yet. :) ",
      "time": "2011-01-03T19:32:25",
      "id": "123570844",
      "parentPost": "is there a link to the post?  I still can't get the hang of this tumblr thing. Plz don't think ill of the feeble minded.",
      "parentPostTime": "2011-01-03T19:30:51",
      "parentPostId": "123570038"
    },
    {
      "threadId": "120470392",
      "post": "The only time He doesn't make me cry is if I refuse to sing along- even then, I can feel my eyes water up. For a while, while I was resisting returning to g-d, I couldn't listen to him without getting upset with myself. Now that I have, listening is accompanied by a wave of relief and recognition. It's amazing. ",
      "time": "2010-07-28T00:13:32",
      "id": "64750642"
    },
    {
      "threadId": "101626986",
      "post": "<3 you for this Charlie! I'm allergic to fish, so can't do it myself- maybe chicken fingers instead?",
      "time": "2010-05-29T00:51:24",
      "id": "52795298"
    },
    {
      "threadId": "67985188",
      "post": "I was very conflicted over this whole thing- I find a lot of your music so incredibly empowering. In fact, I find it empowering in part because of how I felt like my experiences as someone female with an \"invisible\" disability (I have a Dx of Mild Autism/Aspergers, Bipolar Disorder, and Pretty severe PTSD)  are partially represented in your music. \n\nOn the other hand, people in the disability community have fought a long time for inclusion, and that means being able to be musicians and artists, and have the representation of the disabled in the arts be BY those with disabilities. \n\nI get your project- it is interesting, and certainly explores a lot of the issues that need faced- but there is a part of me that wishes that we had a chance to have some artists with this sort of disability out there, too. I think it would be cool, even, if the \"evelyn evelyn\" act preformed with a pair of real life conjoined twins who are musicians- that way it is used to benefit artists with this disability, and clarifies that it's not meant as mockery, but as an exploration of some very serious issues through art. ",
      "time": "2010-02-19T01:33:54",
      "id": "35149986"
    },
    {
      "threadId": "65931434",
      "post": "A friend sent me this and this is AWESOME. ",
      "time": "2010-02-11T05:28:21",
      "id": "33688185"
    },
    {
      "threadId": "187552402",
      "post": "on multiple occasions? Apparently when the pics first surfaced other women commented that they had seen him do it before. so.",
      "time": "2009-08-18T02:32:00",
      "id": "109128104"
    },
    {
      "threadId": "16991727",
      "post": "I'm going to introduce my sister to your music, most likely tonight- that is, if my brother was being honest about her planning to come out tonight. I am really reminded of her attitude (though not the course of actions) when I listen to/ watch the music video of \"Oasis\". \r\n\r\nWith that in mind, my plan is to show her the following videos:\r\n\r\nOasis\r\nLeeds United\r\nRuns in the Family \r\nAmpersand\r\n\r\nAnd I'll prolly have her listen to your cover of Creep. \r\n\r\nMy sister and I don't get along too well- heck my whole family, too many different temperments!- but Music puts all that aside and really brings us all together. \r\n\r\nThank you for all the music you put out, it's pretty kick-ass- and it means a lot to us.\r\n\r\nBelatedly, Happy Fucking Birthday! ",
      "time": "2009-05-01T23:41:25",
      "id": "8911147"
    },
    {
      "threadId": "10259705",
      "post": ".. . I'm so in love with this administration right now!",
      "time": "2009-01-21T00:02:34",
      "id": "5409537"
    }
  ],
  "profileInfo": {
    "username": "nicocoer",
    "about": "Spectrumy, Bisexually queer, liberal, and advocate; loves cats, advocacy, Anthropology, and the history of oppressed populations.",
    "name": "Savannah N. Logsdon-Breakstone",
    "disable3rdPartyTrackers": false,
    "isPowerContributor": false,
    "isAnonymous": false,
    "rep": 1.276151,
    "profileUrl": "https://disqus.com/by/nicocoer/",
    "url": "http://crackedmirrorinshalott.wordpress.com/",
    "reputation": 1.276151,
    "location": "Rural Pa",
    "isPrivate": false,
    "signedUrl": "http://disq.us/?url=http%3A%2F%2Fcrackedmirrorinshalott.wordpress.com%2F&key=rsJ7GZRB1gcNx5t8GhqM6w",
    "isPrimary": true,
    "joinedAt": "2009-01-21T00:02:33",
    "id": "194251",
    "avatar": {
      "small": {
        "permalink": "https://disqus.com/api/users/avatars/nicocoer.jpg",
        "cache": "//a.disquscdn.com/uploads/users/19/4251/avatar32.jpg?1466028361"
      },
      "isCustom": true,
      "permalink": "https://disqus.com/api/users/avatars/nicocoer.jpg",
      "cache": "//a.disquscdn.com/uploads/users/19/4251/avatar92.jpg?1466028361",
      "large": {
        "permalink": "https://disqus.com/api/users/avatars/nicocoer.jpg",
        "cache": "//a.disquscdn.com/uploads/users/19/4251/avatar92.jpg?1466028361"
      }
    }
  }
}