{
  "comments": [
    {
      "threadId": "270604518",
      "post": "\\m/",
      "time": "2011-04-05T16:56:29",
      "id": "178589164"
    },
    {
      "threadId": "269431526",
      "post": "\\m/",
      "time": "2011-04-03T03:21:13",
      "id": "177165321"
    },
    {
      "threadId": "41296871",
      "post": "A very classy capture, kind of like the ones we are used to seeing in New Market photo-booths :)",
      "time": "2009-10-23T11:10:23",
      "id": "20850682"
    },
    {
      "threadId": "34362876",
      "post": "So, basically this doesn't make use of the social networking APIs and instead just tries to integrate contacts/friends into its own service? That doesn't sound good :( ...I even reinstalled adobe air just to try this out.",
      "time": "2009-09-15T17:40:24",
      "id": "16634638",
      "parentPost": "Initially I was very excited about this until I found that you have to sort of refriend everyone. That totally defeats the purpose. So although this is a good looking app and a job well done so far, it is missing a really key piece of functionality that I believe will prevent it from being widely adopted.\n\nI believe SocialThing was so successful because they got this right. You give SocialThing your credentials for flickr and it knows and shows all of your flickr friends updates. Same for twitter, facebook, etc.",
      "parentPostTime": "2009-09-15T16:26:00",
      "parentPostId": "16631244"
    },
    {
      "threadId": "34015125",
      "post": "Agreed. He is also a literary genius, because he writes his own stuff...always (brochures, leaflets, everything is supervised and corrected by the man himself). Art, and especially something like photograph often needs subtle explanations, which Mr Rai is a master at. I especially liked his works with the sisterhood in Mother Teresa's church.",
      "time": "2009-09-13T04:30:03",
      "id": "16529062"
    },
    {
      "threadId": "33430100",
      "post": "Husssh...man, you're taking the easter-egg/anti-thesis away ;)",
      "time": "2009-09-10T04:26:24",
      "id": "16289686",
      "parentPost": "lol..good job. but hey...did you say you can't connect LEDs in series?? what was that about? =P",
      "parentPostTime": "2009-09-09T23:07:50",
      "parentPostId": "16277722"
    },
    {
      "threadId": "31215263",
      "post": "err...anyone knows why avatars are not showing up in the \"Recent Comments\" widget?\n\n* <b>Update:</b> It seems the Disqus widget generator is spewing invalid code :(  For example, where it says \" <i>&hide _avatars=0 </i>\" it should actually be \" <i>&show_avatars=1</i> \". Both are supposed to serve the same purpose , but for some weird reason they aren't. Anyway, that's how I got rid of my problem.",
      "time": "2009-09-09T17:38:38",
      "id": "16263445"
    },
    {
      "threadId": "31912653",
      "post": "Believe me when I say this, bhaja pora dekhe jai mone houk na keno, they really aren't worth it :( Unedible at 100% Bashar Iftari is the best Iftari.",
      "time": "2009-08-31T14:15:36",
      "id": "15650549",
      "parentPost": "a pity i missed it..:(\nahhhh..ei vaja pora guli dekhe je ki lage..ki ar bolbo...",
      "parentPostTime": "2009-08-31T13:48:37",
      "parentPostId": "15649556"
    },
    {
      "threadId": "31809595",
      "post": "Bhaijan, just linked to your post in my <a href=\"http://snapomatic.blogspot.com/2009/08/stroll-through-old-dhakas-iftar-banquet.html\">own Chawk experience</a> post :)",
      "time": "2009-08-30T18:11:21",
      "id": "15598265"
    },
    {
      "threadId": "28990631",
      "post": "You can write on any of the above mentioned topics. However, I'd suggest you to refrain from going into details about Aperture as not *that many of my readers (which, for the time being, are generally the Bangladeshi Photographers commune) are familiar with it. You can introduce its features and utilities though. The other topics are just fine. Start working on an article and let me know when you are finished. There are no general guidelines for the posts, but make sure there are at least 3 or 4 sample pictures/screen caps and keep the tone mixed between formal and informal terms. Heck who am I saying this to dude, you are a MAC genius, you must be well versed in \"People Talk\" :D\r\n\r\nAlso, give me the link to <b>your</b> photoblog man, the \"Digital Abrasion\" that you mentioned the other day. I'd also love to contribute there as well.",
      "time": "2009-08-23T08:39:53",
      "id": "15255052",
      "parentPost": "will do. what sort of stuff are you interested in? at the moment i have three topics on which i could write:\r\n1. Post-Processing and Asset Management with Lightroom/Aperture\r\n2. Exposure compensation, getting the best out of it\r\n3. HDR introduction\r\n\r\npick a topic and give a few days time. you can even post this on your blog and ask your readers!\r\ncheers and thanks for the opportunity man :)",
      "parentPostTime": "2009-08-22T16:44:46",
      "parentPostId": "15235105"
    },
    {
      "threadId": "30007960",
      "post": "Saw you quote the price in TTL's \"Chit Chat\" thread, Sharif bhai :) Both over 1.2 K USD, eh? Woooie...high stake roller.\r\n\r\nWith 15K USD in Prize Money under his belt, he better stack up on some expensive L lenses :D",
      "time": "2009-08-21T18:57:02",
      "id": "15204683",
      "parentPost": "just went to the exhib today was impressed, as expected........ the bonus was an intro with GMB Akash....... Tushar Bhai personally knows him and he took the opportunity to introduce us to him...... Arif also took a group shot with him (in which I was cut out!! grrrrrr).......\r\n\r\nwe had the opportunity to talk to him for some time........ a very decent guy with modest personality..... he shared some thoughts and backgrounds of his works with us...... was surprised to know that he shot most of the shots in 35mm 1.4..... whereas, we thought he was using 50 1.4...... he even said that he used 24mm 1.4 in some of this works, and cropped; hence, no distortion........ btw, those are extremely expensive optical instruments!! :D",
      "parentPostTime": "2009-08-21T16:19:42",
      "parentPostId": "15198026"
    },
    {
      "threadId": "29338570",
      "post": "Good work, Anik. Keep em' coming.\r\n\r\nI knew about the Nifty Two-Fifty and the Magic Drainpipe, but was feeling a bit lazy at the given time :) Thanks for the update.\r\n\r\n<b>PS:</b> You know, to comment here you can sign in with your twitter/FB/open-id too. That would make your comment appear with a shiny profile icon on the side :)",
      "time": "2009-08-18T19:14:17",
      "id": "15024702",
      "parentPost": "i found some more nicks \r\n\r\nCanon 85 f/1.2 L - Keg\r\nCanon 16-35 f/2.8 L - Coke Bottle\r\nCanon EF-S 55-250 IS - Nifty Two-Fifty\r\nCanon 80-200 f/2.8 L - Magic Drainpipe\r\nCanon 100-400 L - The Dust Pump\r\nSigma 4.5mm Fisheye - Fishma\r\nSigma 12-24 - Popeye\r\nSigma 50-500 - Bigma\r\nSigma 150-500 OS - Bigmos\r\nSigma 300-800 - Sigmonster\r\nSigma 200-500 - Sigzilla\r\nSigma 150 Macro - Bugma\r\nSigma 24-70 HSM - Brickma",
      "parentPostTime": "2009-08-18T10:32:27",
      "parentPostId": "15004691"
    },
    {
      "threadId": "30076858",
      "post": "Waiting for the completion of your post, Sharif bhai. Will visit again :)",
      "time": "2009-08-18T02:57:17",
      "id": "14991718"
    },
    {
      "threadId": "29254659",
      "post": "Bhajan, eibar kader sathe jacchen?\r\n\r\n*PS: Does disqus rock or what? BTW, I think you didn't setup the \"Facebook Connect\" aka \"Comment by logging in with your Facebook A/C\" option properly. They are demanding a \"base url\" in the error message. Read through the \"how to\" in the disqus site and fix it up, pronto.",
      "time": "2009-08-12T12:04:13",
      "id": "14707380"
    },
    {
      "threadId": "28925791",
      "post": "Nice icon Aneek ! I had a hunch that you'd put \"BURA\" as your icon in here :)\r\n\r\nI think the facebook linkups might have a few more perquisites to meet (that is the linkups might not be setup properly). I'll look into it right away.",
      "time": "2009-08-11T05:47:22",
      "id": "14617658",
      "parentPost": "hehe.....thankuuuu Atunu vai.......\r\nwill try my best....\r\nbtw....I linked it to twitter and flickr.....but couldn't do the same for facebook........\r\nwhat should I do??",
      "parentPostTime": "2009-08-11T05:13:17",
      "parentPostId": "14617122"
    },
    {
      "threadId": "14786196",
      "post": "Ha ha, he got F-ed in the A.",
      "time": "2009-04-02T20:24:40",
      "id": "7757417"
    },
    {
      "threadId": "11455923",
      "post": "I'm so glad I came across this website....and by that I mean, I ventured across its HTML pages that is you sick mongrel.",
      "time": "2009-02-14T17:13:04",
      "id": "6261124"
    },
    {
      "threadId": "8160252",
      "post": "Dyam",
      "time": "2009-01-06T06:41:43",
      "id": "4927286"
    },
    {
      "threadId": "844793",
      "post": "Shiny. But it would've been swell if we had he option to edit the auto-generated email address :(",
      "time": "2009-01-05T13:21:49",
      "id": "4891996"
    }
  ],
  "profileInfo": {
    "username": "naser",
    "about": "Hi I'm Atunu (thats pronounced ' awe-to-nu ' ), an engineering student from Bangladesh and a Nikonian for life. In my free time I drool upon smooth jazz/blues music and take occassional snaps of my surroundings. My favourite genres include street (dOh), lifestyle, portraiture and peek-a-boo candids. Hope you like my works here on JPGmag.  Find me at: http://flickr.com/photos/mybd",
    "name": "Naser",
    "disable3rdPartyTrackers": false,
    "isPowerContributor": false,
    "isAnonymous": false,
    "rep": 1.2273699999999999,
    "profileUrl": "https://disqus.com/by/naser/",
    "url": "http://snapomatic.blogspot.com",
    "reputation": 1.2273699999999999,
    "location": "Puran Dhaka",
    "isPrivate": false,
    "signedUrl": "http://disq.us/?url=http%3A%2F%2Fsnapomatic.blogspot.com&key=gOAMpRrY0pIpk1GmKUENXQ",
    "isPrimary": true,
    "joinedAt": "2009-01-03T12:24:27",
    "id": "179287",
    "avatar": {
      "small": {
        "permalink": "https://disqus.com/api/users/avatars/naser.jpg",
        "cache": "//a.disquscdn.com/uploads/users/17/9287/avatar32.jpg?1281549414"
      },
      "isCustom": true,
      "permalink": "https://disqus.com/api/users/avatars/naser.jpg",
      "cache": "//a.disquscdn.com/uploads/users/17/9287/avatar92.jpg?1281549414",
      "large": {
        "permalink": "https://disqus.com/api/users/avatars/naser.jpg",
        "cache": "//a.disquscdn.com/uploads/users/17/9287/avatar92.jpg?1281549414"
      }
    }
  }
}