{
  "comments": [
    {
      "threadId": "7545944",
      "post": "my classmates talks in spanish a lot so i get lost in the convo halfway through.... xD",
      "time": "2008-11-30T16:06:14",
      "id": "4072150",
      "parentPost": "Me too. But that's because my mom used to watch it. And I take spanish cause my grandma speaks only spanish. I'm half mexican. ",
      "parentPostTime": "2008-11-30T02:03:46",
      "parentPostId": "4065915"
    },
    {
      "threadId": "7348245",
      "post": "haha... funny bill... but r u okay?\r\nlols... figured u got some basketball skills... xD\r\nyes i guess abt it for quite a while now.. xDDD",
      "time": "2008-11-21T22:00:51",
      "id": "3941009"
    },
    {
      "threadId": "6679856",
      "post": "lols.. sisky's face is so serious.. xDDD\r\n\r\n_________♥♥♥♥♥♥♥♥____________♥♥♥♥♥♥♥♥♥\r\n______♥♥♥♥♥♥♥♥♥♥♥♥_______♥♥♥♥♥♥♥♥♥♥♥♥♥♥♥\r\n____♥♥♥♥♥♥♥♥♥♥♥♥♥♥♥♥♥___♥♥♥♥♥♥♥♥♥♥♥♥♥♥♥♥♥♥\r\n___♥♥♥♥♥♥♥♥♥♥♥♥♥♥♥♥♥♥♥♥♥♥♥♥♥♥♥♥♥♥_______♥♥♥♥\r\n__♥♥♥♥♥♥♥♥♥♥♥♥♥♥♥♥♥♥♥♥♥♥♥♥♥♥♥♥♥♥_________♥♥♥♥\r\n_♥♥♥♥♥♥♥♥♥♥♥♥♥♥♥♥♥♥♥♥♥♥♥♥♥♥♥♥♥♥♥♥♥♥_______♥♥♥♥\r\n_♥♥♥♥♥♥♥♥♥♥♥♥♥♥♥♥♥♥♥♥♥♥♥♥♥♥♥♥♥♥♥♥♥♥♥♥♥♥______♥\r\n♥♥♥♥♥♥♥♥♥♥♥♥♥♥♥♥♥♥♥♥♥♥♥♥♥♥♥♥♥♥♥♥♥♥♥♥♥♥♥♥♥__♥♥♥\r\n♥♥♥♥♥♥♥♥♥♥♥♥♥♥♥♥♥♥♥♥♥♥♥♥♥♥♥♥♥♥♥♥♥♥♥♥♥♥♥♥♥♥_♥♥♥\r\n♥♥♥♥♥♥♥♥♥♥♥♥♥♥♥♥♥♥♥♥♥♥♥♥♥♥♥♥♥♥♥♥♥♥♥♥♥♥♥♥♥♥♥♥♥♥\r\n♥♥♥♥♥♥♥♥♥♥♥♥♥♥♥♥♥♥♥♥♥♥♥♥♥♥♥♥♥♥♥♥♥♥♥♥♥♥♥♥♥♥♥♥♥\r\n_♥♥♥♥♥♥♥♥♥♥♥♥♥♥♥♥♥♥♥♥♥♥♥♥♥♥♥♥♥♥♥♥♥♥♥♥♥♥♥♥♥♥♥\r\n__♥♥♥♥♥♥♥♥♥♥♥♥♥♥♥♥♥♥♥♥♥♥♥♥♥♥♥♥♥♥♥♥♥♥♥♥♥♥♥♥♥\r\n____♥♥♥♥♥♥♥♥♥♥♥♥♥♥♥♥♥♥♥♥♥♥♥♥♥♥♥♥♥♥♥♥♥♥♥♥♥♥\r\n______♥♥♥♥♥♥♥♥♥♥♥♥♥♥♥♥♥♥♥♥♥♥♥♥♥♥♥♥♥♥♥♥♥♥\r\n_________♥♥♥♥♥♥♥♥♥♥♥♥♥♥♥♥♥♥♥♥♥♥♥♥♥♥♥♥\r\n____________♥♥♥♥♥♥♥♥♥♥♥♥♥♥♥♥♥♥♥♥♥♥\r\n______________♥♥♥♥♥♥♥♥♥♥♥♥♥♥♥♥♥♥\r\n_________________♥♥♥♥♥♥♥♥♥♥♥♥♥\r\n___________________♥♥♥♥♥♥♥♥♥\r\n_____________________♥♥♥♥♥♥\r\n______________________♥♥♥♥\r\n_______________________♥♥\r\n\r\n-much love like always! (like the heart ASCII? xDDD)",
      "time": "2008-11-07T00:56:03",
      "id": "3578897"
    },
    {
      "threadId": "6482965",
      "post": "yep! jackson=Jasper ♥♥\r\n\r\nyea it did... the link is on her site... she uploaded half of it.. the draft ends RIGHT B4 THE MEADOW SCENE! T.T",
      "time": "2008-11-07T00:25:09",
      "id": "3578487",
      "parentPost": "Jackson is Jasper, right? I like himm <33\r\n\r\nI had no idea it leaked, that's horrible :( \r\nwhat an idiot. -.- ",
      "parentPostTime": "2008-11-06T18:11:06",
      "parentPostId": "3572488"
    },
    {
      "threadId": "6496862",
      "post": "BEETLEJUICE IS MY FAVORITE MOVIE!! i would watch it over and over agen and still love it!!!! -squeals-\r\nwow... 0_0 i couldnt even tell it was william at first glance... BUTCHER U NEED AN AWARD!!!!!!!!!!!\r\n\r\nI♥u william!",
      "time": "2008-11-02T02:28:07",
      "id": "3437236",
      "parentPost": "I LOVE BEETLEJUICE!!!\r\nXD\r\n\r\n&hearts;",
      "parentPostTime": "2008-11-01T16:03:28",
      "parentPostId": "3431353"
    },
    {
      "threadId": "6370224",
      "post": "When i kept on saying \"i cant take this shit no more\" my cousins that r younger than me would repeat it XD but i keep the 'shit' part quiet so they wont repeat it.. so funny wen they try to imitate him.. XD",
      "time": "2008-10-29T21:52:08",
      "id": "3380611",
      "parentPost": "haha yes,\r\n\r\nOr I'll say randomy \"More like the Academy Ain't\" and people will be like uhh grace i thought you loved them..then im like gee whizzz \r\n\r\nOr i have recently been like \"Why is Sisky running like a girl?\" and people are like WHO THE HELL IS SISKY!\r\n\r\nyes i ahve heard of twilight, but I havent gotten toread them yet.\r\ni plan on doing so soonish though",
      "parentPostTime": "2008-10-29T19:52:07",
      "parentPostId": "3368412"
    },
    {
      "threadId": "6190020",
      "post": "so did i.. \n\nu can picture sisky with those emo hairstyles and still look gud...\n\ni have a classmate who got a pink mohawk and wore a tux for picture day.. weird combo... 0_o\n\nur hair looks great no matter what hairstyle u choose... we just werent used to ur short haircut back then now were perfectly fine and loving ur hair,  short or long!!",
      "time": "2008-10-25T03:10:04",
      "id": "3288789",
      "parentPost": "Me too.\r\n\r\nSisky. Mohawk.\r\n\r\nThe two words just fit. Like a jig-saw. :)",
      "parentPostTime": "2008-10-24T18:48:03",
      "parentPostId": "3279886"
    },
    {
      "threadId": "6110461",
      "post": "haha.. ya i know they r HUGE! everytime i c those my expression never changes.. XD",
      "time": "2008-10-22T23:11:33",
      "id": "3243079",
      "parentPost": "nyquil comes in \"geltab\" formula now. they're pretty enormous pills but they work just as well without making me throw up in the sink.",
      "parentPostTime": "2008-10-22T22:38:07",
      "parentPostId": "3239435"
    },
    {
      "threadId": "6048001",
      "post": "OMG! i missed the show last night and i couldnt find the video anywhere except I JUST FOUND IT!!!!!!!!!\nhttp://www.tudou.com/programs/view/pOB7EHM5fXI/  \ni cant believe i actuali have searching skills.. it took me forever to find it!\n\ni rly ♥ the video... the girl was pretty but... one scene made me sad.... the girl here understands which scene im talking abt right (^_-)",
      "time": "2008-10-21T20:44:32",
      "id": "3210120"
    },
    {
      "threadId": "5934084",
      "post": "awh... hope you feel better bill.. we wouldnt want our fave singer to get sick that he cant sing anymore... that would really sadden us to the max... ^____________^\r\n\r\nscary movies scares the crap outta me... i have watched quite a few since im such a wuss but not The Exorcist.. i have a feeling i wont be able to sleep for a week.. XD lols.. Any movie thats in the Chuckie movie series will scare me cuz of the ugliness of chuckie etc... Jeepers Creepers is pretty good but still creeps me out.. Final Destination 1, 2, and 3 is awesome though not that scary ^_______^ ",
      "time": "2008-10-17T23:18:14",
      "id": "3137766"
    },
    {
      "threadId": "5669307",
      "post": "DITTO! \r\n\r\n once i heard the guitar i was like \"WOAH!\" and it seems like my heart was like -thinks of the right word...- -shrugs- i cant think of the right word T.T  u guys know wat i mean tho right? 1 minute later and the after effects after listening to the song is still there......",
      "time": "2008-10-13T21:23:53",
      "id": "3029805",
      "parentPost": "lol, nah! I can understand where you're coming from :)",
      "parentPostTime": "2008-10-13T02:49:22",
      "parentPostId": "3017392"
    },
    {
      "threadId": "5574140",
      "post": "hey isnt ryu and chun li like a video game character? i forget...\r\n\r\nbill u should ttly b a vampire for halloween... do u still have ur vampire teeth from the FOB MV? lawl!\r\ni cant even think of a costume to wear for halloween... though im thinking of a anime school girl or just wearing goth loli clothes... ^__^",
      "time": "2008-10-13T21:18:08",
      "id": "3029727",
      "parentPost": "jack's work and TAI mesh perfectly; amazingly talented people. this video made me miss touring so much; it's like reverse homesickness. \r\n\r\nI'm having trouble with halloween ideas as well. I was dead set on being fin fang foom. my best friend is going as ryu, and is begging me to come as chun li (I know, I know. nerdhxc);  I'm torn. shoryuken or breathing acid mist? how can one be expected to choose?\r\n\r\nI think you should go as dr. jekyll and mr. hyde, constantly switching between the two throughout the night. ",
      "parentPostTime": "2008-10-09T18:37:52",
      "parentPostId": "2966815"
    },
    {
      "threadId": "5405155",
      "post": "i just watched TAI TV epi. 19 'twas hilarious!!\r\n\r\nehhy! have u guys noticed that sisky \"death\" was in the background at 0:12?  XD lols\r\n\r\nbill ur accent in the episode was so hilarious to listen at! wen trav talks like that it seems so natural to him XD \r\n\"EXCELLENT!!!!!!\" lawl!",
      "time": "2008-10-06T20:39:31",
      "id": "2899272"
    },
    {
      "threadId": "5398706",
      "post": "awh.. hope those guys r okay ^^\r\ngood luck and hope u guys have fun @ the concert!!\r\n",
      "time": "2008-10-06T00:20:11",
      "id": "2884778"
    },
    {
      "threadId": "5273951",
      "post": "im so jealous right now..... i cant go 2 the concert on nov. 17.. T.T \r\n\r\nbill.... ur so awesome wen u sing and perform with the guys!! i wanna c u guys @ the concert! i will beg my mother if i have to... thats how hardcore i am.. XD lawl...\r\n\r\nmuch love u guys!! muax!",
      "time": "2008-10-02T21:43:30",
      "id": "2808419"
    },
    {
      "threadId": "5191703",
      "post": "haha so do i... im trying to get my timing right. when she's in a gud mood and cant find anything wrong to not make me go to that concert..... if she said no i would cry my eyes out on the spot...\r\n\r\ni plan 2 go w/ my frend (whichever want 2 b a huge fan after listening 2 u guys ^___^ im trying 2 convert ppl XD lawl!) 2 go with me w/ my mom once she lets me go... 9:30 Nightclub..IM COMING! (kinda) XD lol",
      "time": "2008-10-01T20:09:48",
      "id": "2786549",
      "parentPost": "find a way to go guys, rob a bank or something! <3\r\n\r\ni have yet to tell my mother about the show..., you're turning me into a defiant little teenager bill. lol. i guess it's not your fault. :D",
      "parentPostTime": "2008-09-30T22:23:39",
      "parentPostId": "2764809"
    },
    {
      "threadId": "5127213",
      "post": "HELL YEAH! \r\nso much better!\r\nw00t! TAI TV is up!",
      "time": "2008-09-29T17:13:41",
      "id": "2733981",
      "parentPost": "Im so excited for TAI TV!\r\nits way better than normail TV.",
      "parentPostTime": "2008-09-29T03:22:20",
      "parentPostId": "2722583"
    }
  ],
  "profileInfo": {
    "username": "anim3fr3ak_27",
    "about": "",
    "name": "anim3fr3ak_27",
    "disable3rdPartyTrackers": false,
    "isPowerContributor": false,
    "isAnonymous": false,
    "rep": 1.2546329999999999,
    "profileUrl": "https://disqus.com/by/anim3fr3ak_27/",
    "url": "http://www.crunchyroll.com/user/sugoi0yanip",
    "reputation": 1.2546329999999999,
    "location": "",
    "isPrivate": false,
    "signedUrl": "http://disq.us/?url=http%3A%2F%2Fwww.crunchyroll.com%2Fuser%2Fsugoi0yanip&key=qWL3OrHmgIcjgl0tJB7MKQ",
    "isPrimary": true,
    "joinedAt": "2008-09-29T17:11:21",
    "id": "110503",
    "avatar": {
      "small": {
        "permalink": "https://disqus.com/api/users/avatars/anim3fr3ak_27.jpg",
        "cache": "//a.disquscdn.com/uploads/users/11/503/avatar32.jpg?1281549414"
      },
      "isCustom": true,
      "permalink": "https://disqus.com/api/users/avatars/anim3fr3ak_27.jpg",
      "cache": "//a.disquscdn.com/uploads/users/11/503/avatar92.jpg?1281549414",
      "large": {
        "permalink": "https://disqus.com/api/users/avatars/anim3fr3ak_27.jpg",
        "cache": "//a.disquscdn.com/uploads/users/11/503/avatar92.jpg?1281549414"
      }
    }
  }
}