{
  "comments": [
    {
      "threadId": "849135254",
      "post": "Obsolete !",
      "time": "2014-07-18T14:19:15",
      "id": "1491380267"
    },
    {
      "threadId": "2835892023",
      "post": "@korven journaliste est une qualité, pas une profession réglementée comme médecin. Tu es journaliste si tu vis de la publication d'informations qui sont les tiennes. Ce qui est exactement ce que tu fais... Donc je serai toi je demanderai la carte de presse à la CCIJP, ça t'aidera dans les emmerdements futurs... ",
      "time": "2014-07-11T19:47:16",
      "id": "1480950474",
      "parentPost": "Faut que je détruise ma SARL et que je crée un organisme de presse. Ensuite, je n'ai aucune formation de journaliste.\nPuis, ce n'est que de la paperasse... Bref, pas le temps ni l'envie.",
      "parentPostTime": "2014-07-11T18:04:28",
      "parentPostId": "1480793606"
    },
    {
      "threadId": "1867005776",
      "post": "La fonction \"ask\" is \"no longer supported\" me dit LinkedIn.",
      "time": "2013-10-23T07:16:09",
      "id": "1093169379"
    },
    {
      "threadId": "1872022096",
      "post": "euh, non, le \"do no evil\", c'est bien fini malheureusement...",
      "time": "2013-10-18T19:25:43",
      "id": "1087486565",
      "parentPost": "Comme disait \"N\" en commentaire de l'article suivant :\nhttp://myclientisrich-leblog.com/2013/09/google-la-fin-de-la-donnee-gratuite/\n\n\"Google a toujours fièrement annoncé \"make no evil\", jamais \"make no cash\"..\"\n\n\n\nEt ils sont plutôt forts pour ça ; )",
      "parentPostTime": "2013-10-18T15:13:28",
      "parentPostId": "1087168188"
    },
    {
      "threadId": "1530860670",
      "post": "Un oubli : l'APN a été quelque peu modifié, avec l'ajout de plusieurs options et un réglage différent de la balance des blancs (plus galère de mon point de vue).",
      "time": "2013-08-01T13:09:45",
      "id": "984341207"
    },
    {
      "threadId": "1098309845",
      "post": "Je vois même pas comment c'est possible. Mais perso, je pointe vers Wikipedia souvent depuis des articles (références, etc).",
      "time": "2013-02-22T10:25:21",
      "id": "808197117",
      "parentPost": "Pas en mode citation dans un papier, si ?\n\n\nWikipedia est excellent pour trouver des infos au début d'une enquête. Pour le reste, c'est plus discutable.",
      "parentPostTime": "2013-02-22T09:24:00",
      "parentPostId": "808148235"
    },
    {
      "threadId": "565258730",
      "post": "Test",
      "time": "2012-02-05T16:03:19",
      "id": "430156546"
    },
    {
      "threadId": "441706559",
      "post": "Why iOS users ? What about Android users, you know, the other 2/3rd of smartphones users... ?",
      "time": "2011-10-13T14:00:23",
      "id": "333590232"
    },
    {
      "threadId": "437468781",
      "post": "Il semblerait que pour les ROM stock (Nexus One, Nexus S), il soit nécessaire d'être root et de supprimer l'appli système avant d'installer la nouvelle.",
      "time": "2011-10-11T15:42:00",
      "id": "331742694",
      "parentPost": "Pour Google+ il faut désinstaller la précédente version, puis installer la nouvelle  (Pas besoin de redémarrage).\nPour Google Music, je n'y arrive pas non plus.\nJ'ai un Nexus S à la version 2.3.6",
      "parentPostTime": "2011-10-08T10:38:47",
      "parentPostId": "329598117"
    },
    {
      "threadId": "419106593",
      "post": "The only real issue is: API lack. I use social media agregators for Twitter, FB. If G+ cannot be on it, then my social feed isn't going to G+, period.",
      "time": "2011-09-19T14:23:44",
      "id": "314963207"
    },
    {
      "threadId": "411965260",
      "post": "Salut,\nJe pense que généraliser des \"invités\" dans ce blog serait une bonne idée. ",
      "time": "2011-09-12T09:46:29",
      "id": "307700002"
    },
    {
      "threadId": "396348632",
      "post": "Ouais, ben l'appli pèse 12 Mo sur mon Nexus One, j'ai dû m'en séparer.",
      "time": "2011-08-26T14:50:01",
      "id": "295919270"
    },
    {
      "threadId": "395468114",
      "post": "Better than ever maybe but still not able to pay for its work.",
      "time": "2011-08-26T13:09:37",
      "id": "295863271"
    },
    {
      "threadId": "375148993",
      "post": "Eh bé bravo Asus, moi j'ai pas encore la 3.1 sur mon Acer Iconia Tab... #soupir",
      "time": "2011-08-02T16:00:16",
      "id": "274684818"
    },
    {
      "threadId": "374033207",
      "post": "Merci Clémence pour cette précision, j'édite le texte principal.",
      "time": "2011-08-01T12:43:49",
      "id": "272682077",
      "parentPost": "Bonjour, effectivement au Dauphiné Libéré, on a eu autant d'embauches que de départs en clause, soit une trentaine en tout. Mais je crois que ça n'a pas été le cas dans tous les titres du groupe EBRA, comme le Progrès par exemple. A vérifier...",
      "parentPostTime": "2011-08-01T12:08:36",
      "parentPostId": "272627268"
    },
    {
      "threadId": "350445873",
      "post": "MMais je ne comprends pas : les Samsungs ne reçoivent pas les mises à jour par OTA? ",
      "time": "2011-07-05T21:42:49",
      "id": "242855520"
    },
    {
      "threadId": "327439128",
      "post": "Excellente idée. Par contre, pensez à mettre quelque part dans l'article que Frandroid est l'éditeur de ce site. Et que c'est article est donc un publi-rédactionnel.",
      "time": "2011-06-10T08:51:02",
      "id": "223017528"
    },
    {
      "threadId": "296430345",
      "post": " Ma contribution:\nhttp://twitter.com/#!/pifrac/status/66420084926726144\nMon pseudo Qoqa: pifrac\n\n* croise les doigts *",
      "time": "2011-05-06T08:34:20",
      "id": "198228346"
    },
    {
      "threadId": "289452357",
      "post": "Je suis d'accord, je trouve que ce test s'attarde trop sur Honeycomb. Mais je ne veux pas blâmer l'auteur de ces lignes, qui a pris sur son temps libre pour le rédiger... J'espère juste qu'un jour Frandroid s'offrira quelques journalistes pour rédiger ce genre d'article... Parce que si on lit l'anglais, la comparaison est rude: http://www.engadget.com/2011/04/26/acer-iconia-tab-a500-review/",
      "time": "2011-04-27T09:54:45",
      "id": "192568094",
      "parentPost": "Aucun mot sur la qualité de l'écran ? C'est quand même un élément primordial qui permet de différencier les différents appareils !\nEn l'état le test fait un peu penser à un test d'Honeycomb :/\nDans tous les cas, Honeycomb est très prometteur mais m'a l'air encore un peu jeune, je ne regrette pas mon achat d'iPad 2 pour le moment. On verra l'an prochain quand le système aura mûri (pas de lags/bugs, et + d'applis adaptées) si je me prends un iPad 3 ou une tablette Android.",
      "parentPostTime": "2011-04-27T08:54:17",
      "parentPostId": "192532238"
    },
    {
      "threadId": "280815213",
      "post": "@Pierrick : tu devrais pas te marrer tant que ça. ;-)",
      "time": "2011-04-16T13:41:14",
      "id": "185668664",
      "parentPost": "@Stephen Dinnocenzo\n\nMoi c'est ton orthographe qui me fais rire, comme quoi.",
      "parentPostTime": "2011-04-16T10:54:04",
      "parentPostId": "185627010"
    },
    {
      "threadId": "280944293",
      "post": "OMG Merci Ergo de ton comm' ... La news qui termine par: Ah et un détail, oh trois fois rien, le wifi et le gsm ne fonctionnent pas. Mais y'a Sense 2.1 !!! Franchement c'est collector là les mecs de Frandroid...",
      "time": "2011-04-16T13:28:16",
      "id": "185665281",
      "parentPost": "Je suis désolé mais j'ai horreur de ces articles qui annoncent qu'on peut \"enfin\" installer telle ou telle ROM sur un téléphone, et \"profiter des joies\" de ces ROMs alors que ni le Wifi, ni le téléphone, ni le GPS et ni la 3G ne fonctionnent. Il ne reste PLUS RIEN des fonctionnalités d'un smartphone si on enlève tous ces éléments. \nCe n'est donc pas une ROM fonctionnelle, donc pas la peine d'en parler...",
      "parentPostTime": "2011-04-16T13:08:01",
      "parentPostId": "185660158"
    },
    {
      "threadId": "159202183",
      "post": "@Bap: c'est ton truc le léger bémol dis moi ! :-) Précision bien venue, reste qu'en l'espèce, on voit bien tout l'intérêt d'une chaîne de production / diffusion des infos aussi fluide que possible. \n\n@Bielka: Même envoyer des fichiers bruts, c'est une galère sans nom quand des milliers de quidam squattent les 3 octets de bande-passante ! :-) Mais sinon, je suis bien convaincu qu'une production web efficace résulte d'une organisation production-desk ad hoc.",
      "time": "2010-10-21T14:48:59",
      "id": "88805020"
    },
    {
      "threadId": "82787030",
      "post": "Dénonce le à la police ! :-)\r\n\r\nBlague à part, c'est hallucinant cette histoire... :-/",
      "time": "2010-04-08T10:26:01",
      "id": "43850566"
    },
    {
      "threadId": "69225041",
      "post": "Et d'ailleurs, on est bien embêtés car Sprout Builder ne propose aucune solution d'exportation du travail... Donc, ce sont les derniers jours de la Maraude. Snif. ",
      "time": "2010-02-28T18:46:11",
      "id": "37361967"
    },
    {
      "threadId": "7316757",
      "post": "Oui oui, ce blog est \"encore actif\", dès que je trouve quelques instants pour le mettre à jour... ;-)",
      "time": "2010-01-25T11:27:45",
      "id": "31195493"
    },
    {
      "threadId": "14077602",
      "post": "Les prix sont très variables, ici n'est pas le lieu pour vous renseigner d'autant que cette enquête date un peu à présent... Sur ce site, http://www.myopie-chirurgie-lasik.fr/lasik-prix.html , ils parlent de 1900 à 2300€ pour les deux yeux, dans la même séance.",
      "time": "2009-11-10T14:59:53",
      "id": "22546105",
      "parentPost": "je suis a nice mon fils habite strasbourg 'je suis hypermetrope 'j'aimerai avoir une ide de prix mes moyens etant limite (retraite artisan) merci",
      "parentPostTime": "2009-11-10T12:09:00",
      "parentPostId": "22531618"
    },
    {
      "threadId": "32552073",
      "post": "@Barbara: le mieux pour vous serait de contacter une association qui lutte contre la propagation du Sida. Au Swaziland, nous avons rencontré l'ONG Swapol, Swaziland for positive living, http://www.swapol.net",
      "time": "2009-10-21T12:12:33",
      "id": "20693561",
      "parentPost": "Dans le cadre d'une collaboration avec un réalisateur polonais,je cherche des infos concernant la croyance de se séronegativiser en ayant des rapports sexuels non protégés avec des jeunes vierges en Afrique.Un camerounais à été condamné en Pologne en 2007 pour propagation du sida à destination d'une vingtaine de jeunes filles.Cette pratique criminelle ouvre débat et mérite l'attention de tous,ainsi que ses dérives à l'échelle mondiale.En effet la contamination volontaire du V.I.H.prend des proportions consternantes,une arme de guerre confinée au silence au nom de qui,de quoi?<br>Merci de me contacter par mail.Barbara.",
      "parentPostTime": "2009-10-21T10:39:47",
      "parentPostId": "20690592"
    },
    {
      "threadId": "39189733",
      "post": "@Olivier : tutoiement non seulement pardonné mais apprécié ! ;-)\r\nTu pointes le noeud du problème... mais (ahahaha on en tient un !!) est-ce que ça t'intéresse de participer à des débats sur le métier ? Je veux dire, est-ce que tu as envisagé de prendre un jour de congé ou de formation, le train, et de venir ou alors ça ne t'a pas effleuré (because temps, trajet...) ?",
      "time": "2009-10-12T15:29:18",
      "id": "19900585",
      "parentPost": "Mode flagorneur : pas la peine d'y aller, on suivait la conférence en direct au travers de tes tweets :-]\r\nPlus sérieusement, et si tu me pardonnes le tutoiement confraternel, j'avoue que c'est un peu difficile de me libérer pour un événement comme ça... quand nous sommes 2,5 pour remplir un journal que nous réalisions à 7 !",
      "parentPostTime": "2009-10-12T15:23:23",
      "parentPostId": "19900333"
    },
    {
      "threadId": "35198642",
      "post": "@Grokwik Ouhla, attend, rien n'est encore vendu en ce qui nous concerne. ",
      "time": "2009-09-21T09:11:28",
      "id": "17028876"
    },
    {
      "threadId": "34428197",
      "post": ":-)",
      "time": "2009-09-16T09:45:02",
      "id": "16703591",
      "parentPost": "Wasp c'est mon ex.",
      "parentPostTime": "2009-09-16T09:28:04",
      "parentPostId": "16703351"
    },
    {
      "threadId": "33301508",
      "post": "@DTC: ce blog N'EST QUE critique. Et il s'appelle \"on est mal\" et non pas \"vous êtes mal\". ",
      "time": "2009-09-11T12:19:56",
      "id": "16415924"
    },
    {
      "threadId": "32734241",
      "post": "@Grokwik: euh non 150 E = 150 Emalangeni, 15 euros environ.",
      "time": "2009-09-04T15:15:14",
      "id": "15975843"
    },
    {
      "threadId": "30482351",
      "post": "Ouah, je récupère un accès au net et que de commentaires pertinents ! :)\r\n\r\n@HubertGuillaud: je pense quand même que les marques de la PQR sont connues par les jeunes. Largement boudées, ringardes, ouais, mais inconnues, non. Or, il suffit à ces groupes d'investir le web intelligemment pour capitaliser, par leur notoriété et leur puissance marketing, c'est vraiment l'épée de Damoclès sur les sites d'infos locaux. Bon, ceci dit, c'est vrai que c'est très différent selon les titres de la PQR...\r\n\r\n@Proxiti: absolument, mais est-ce que ce modèle ne risque pas de péréniser une fragilité ? Les radios locales indépendantes sont rarement à l'abri des soubresauts économiques et elles existent depuis 30 ans.",
      "time": "2009-09-04T09:16:34",
      "id": "15961885"
    },
    {
      "threadId": "32143712",
      "post": "@Lelou: en fait, les Swazis ont peur qu'en se baissant, on ne le fasse pour photographier les parties génitales des filles. Bon là, c'est un homme. Mais on sait jamais...",
      "time": "2009-09-01T22:58:24",
      "id": "15738464",
      "parentPost": "Y a-t-il une raison pour que ce soit malpoli d'être accroupi???",
      "parentPostTime": "2009-09-01T19:50:27",
      "parentPostId": "15731302"
    },
    {
      "threadId": "32073652",
      "post": "Bon, je réponds à la place de Matthieu parce qu'il truste tous les commentaires sous ses posts et que je suis un peu jaloux.\r\n\r\nDonc, non, on ne rentre pas tout de suite, on rentre le 4 septembre. Là, on va caler des rencontres avec des \"sachants\" pour améliorer notre compréhension du pays. Par exemple, on va rencontrer un ethnologue qui va nous parler des symboles de l'Umhlanga, etc. On pensait travailler sur le Sida en 2e sujet, mais ça va être trop chaud vu qu'il faut qu'on remonte à Ejubukweni, pour leur donner des tirages des photos et les remercier pour leur aide. \r\n\r\n",
      "time": "2009-09-01T09:49:07",
      "id": "15700092"
    },
    {
      "threadId": "31694597",
      "post": "Désolé pour le montage \"au couteau\", mais je n'ai que windows movie maker ici, et ce logiciel \"prédécoupe\" les séquences comme il l'entend... :-)",
      "time": "2009-08-29T16:54:15",
      "id": "15570286"
    },
    {
      "threadId": "31622049",
      "post": "Bon, là, ça devrait fonctionner. En tout cas, ça fonctionne à Malkerns, Swaziland, alors vous n'avez AUCUNE excuse ! :-P",
      "time": "2009-08-28T19:48:42",
      "id": "15541413"
    },
    {
      "threadId": "31627013",
      "post": "Merci aux participants (Ficelle, Eleonore, Tibo, @Chany167...) d'avoir testé avec nous le tchat en direct ! :-) Désolé mais décidemment, la connexion ici est trop mauvaise pour assurer un quelconque service en temps réel... C'est dommage mais il parait que c'est à cause des satellites alors... \r\n",
      "time": "2009-08-28T15:07:35",
      "id": "15528766"
    },
    {
      "threadId": "31016105",
      "post": "@Vounette: oui, on a des pistes, enfin surtout une, et on a pensé aux magazines féminins. Mais bon, on a guère de contacts chez eux...",
      "time": "2009-08-25T20:02:04",
      "id": "15373230",
      "parentPost": "vous avez déjà des pistes pour vendre votre reportage ? vous avez pensé aux magazines féminins ? \r\n\r\nEn tout cas, on vous suit pas à pas. C'est top ! Continuez !",
      "parentPostTime": "2009-08-25T08:06:43",
      "parentPostId": "15345203"
    },
    {
      "threadId": "30874695",
      "post": "@Milan: je vais tenter de répondre à ces pertinentes questions dans le post \"on avance sur la danse\", que je suis en train de préparer. ;-)",
      "time": "2009-08-24T17:14:56",
      "id": "15314420",
      "parentPost": "quel est son âge, sa religion? a-t-elle été scolarisée, si oui jusqu'à quel âge? a-t-elle le droit d'avoir un petit ami? doit-elle être vierge pour pouvoir participer à cette danse des roseaux? qu'est-ce que ça représente pour elle (un but dans la vie, une expérience intéressante, un épisode comme un autre...) Est-ce qu'elle s'y prépare depuis longtemps et est-ce que, si elle est choisie, ça représente une forme d'ascension sociale? ",
      "parentPostTime": "2009-08-23T19:35:28",
      "parentPostId": "15269297"
    },
    {
      "threadId": "29997610",
      "post": "@Jean : Excellente questions et j'y réponds au post \"on avance sur la Danse\" que je suis en train de préparer.",
      "time": "2009-08-24T17:13:12",
      "id": "15314326",
      "parentPost": "Question toute bête. Comment est \"garantie\" la virginité de ces jeunes vierges ? Est ce qu'il existe, comme dans certains pays, un certificat, ou une cérémonie garantissant leur virginité ?  ",
      "parentPostTime": "2009-08-23T20:38:52",
      "parentPostId": "15271473"
    },
    {
      "threadId": "30797060",
      "post": "@Vounette: non :-) Mais chut.",
      "time": "2009-08-24T17:10:36",
      "id": "15314201",
      "parentPost": "Cool !!!! Vous avez des visas presse ?",
      "parentPostTime": "2009-08-24T07:39:46",
      "parentPostId": "15301001"
    },
    {
      "threadId": "30874337",
      "post": "On nous a recommandé quelques expats à rencontrer: un photographe, qui a publié un livre de photos sur le Swaziland, et un ingénieur qui a participé à la construction de routes. Bon, les expats c'est bien mais personnellement, je préfère plutôt rencontrer un maximum de Swazis... ",
      "time": "2009-08-24T16:51:46",
      "id": "15313455",
      "parentPost": "Très intéressant les \"à cotés\" de votre reportage, on en redemande.\r\nVous côtoyez des expats. ?  ",
      "parentPostTime": "2009-08-24T15:33:15",
      "parentPostId": "15310585"
    },
    {
      "threadId": "25191073",
      "post": "@Gauchedecombat: il n'y a pas de courage là-dedans... Mon post porte plus sur l'habileté de la com' préfectorale que sur la complaisance des médias. Car au final, comment s'en sortir pour un journal ? Ne rien faire ? Il s'est quand même passé quelque chose au Neuhof ce soir là, non ? Dénoncer la com' ? Il faudrait être sacrément armé et balancer des chiffres sur les habitudes des policiers dans le quartier... Bref, les journalistes au final sont pris au piège dans ce genre de stratagèmes communicants et ça, c'est vraiment ce qui est particulièrement troublant.",
      "time": "2009-07-15T10:38:29",
      "id": "12681508"
    },
    {
      "threadId": "12404059",
      "post": "Bonjour,\r\n\r\nIl me semble que Numéricâble propose des offres avec uniquement la télévision, même si elles comportent tout de même un accès Internet minimal. Le mieux est de vous adresser à Numéricâble.",
      "time": "2009-05-31T19:49:01",
      "id": "10321506",
      "parentPost": "tout cela est bien beau, mais je suis cablé pour la télévision depuis son existance à Mulhouse mais j'ai internet par un autre fournisseur du fait que mon employeur me le paye alors comment faire pour garder le cable pour la télévision (avec la tnt car je ne l'ai pas) sans rien d'autre, sachant par ailleurs que j'habite une maison entouré d'autres bien plus hautes d'où une dificulté de captage par antenne ",
      "parentPostTime": "2009-05-30T09:22:58",
      "parentPostId": "10289635"
    },
    {
      "threadId": "19388030",
      "post": "C'est vrai qu'il y a un côté partial... Et puis l'encadré de la rédaction du Monde.fr est énorme, je le trouve surréaliste. :-)",
      "time": "2009-05-27T15:26:51",
      "id": "10055003",
      "parentPost": "Oui, tu cites le livre d'Elizabeth Lévy et si je me souviens sa conclusion était: \"Ne dites pas à ma mère que je travaille dans le web, elle me croit journaliste\".\r\n\r\nMais il y a un point que j'aurais aimé souligner, c'est le biais énorme de cet article. En gros, le journaliste critique les concurrents du Monde et critique un tout petit peu Le Monde (et le Post). Du genre: à l'Express c'est une armée de précaire et à lemonde.fr ce sont des CDD et des CDI (plus quelques stagiaires et des pigistes). Bref, c'est la difficulté pour un média de parler de médias...",
      "parentPostTime": "2009-05-27T15:22:38",
      "parentPostId": "10054881"
    },
    {
      "threadId": "17403318",
      "post": "Salut, merci pour ces listes. Mais la liste \"country\" m'affiche liste introuvable dans Spotify... :-/",
      "time": "2009-05-16T16:51:58",
      "id": "9443099"
    },
    {
      "threadId": "17771391",
      "post": "@Vincent : L'âge de l'angoisse, à mon avis, il existe déjà sauf qu'on ne s'en rend pas encore compte, à cause de cette surinformation permanente, doublée d'une information choisie, menant à une désinformation globale (hem)... C'est grâce à Narvic que je m'étais fait cette réflexion, suite à la publication de pas mal de billets parlant <a href=\"http://novovision.fr/?L-information-a-l-etat-gazeux-ou\">d'informations à l'état liquide, voire gazeux</a>... Je trouve que c'est très pertinent.\r\n\r\nQuant à l'investigation et le journalisme, MediaPart se définit quand même comme \"le nouveau quotidien de référence\", si ce n'est pas une manière de montrer la voie aux autres médias... C'est un brin agaçant, mais étant moi-même sur le même créneau de la pureté du métier, j'aurais mauvaise grâce à critiquer cette position. Donc ça ne me dérange pas que MediaPart veuille \"montrer la voie\", mais cette voie là est parsemée d'embûches n'est-ce-pas. \r\n\r\nC'est pas les marches de Cannes pour Jennifer Lopez (et comment je vous ai grillés là pour le référencement :-) ).",
      "time": "2009-05-13T08:04:55",
      "id": "9273381"
    },
    {
      "threadId": "17569338",
      "post": "Ah ça, quand la télé essaie d'expliquer quelque chose de vaguement complexe, qui ne tient pas qu'à l'émotion ou à l'image... Ce média est dépassé.",
      "time": "2009-05-08T18:51:47",
      "id": "9136196"
    },
    {
      "threadId": "17243999",
      "post": "Oui j'ai lu cette intéressante interview ce matin. Reste que ça me déprime que pour faire du journalisme (donc aller chercher une information et la publier - ce n'est PAS du divertissement), il faille en passer par des moyens détournés, parfois franchement critiquables sur le plan déontologique, alors que normalement, ce devrait être aux rédactions de choisir et de financer leurs reportages.",
      "time": "2009-05-05T15:32:50",
      "id": "9015034",
      "parentPost": "Je vous invite à lire l'interview d'Emiland Guillerme, étudiant au Celsa, qui fait un travail de veille très intéressant sur le sujet du webdocumentaire. \r\n\r\nhttp://www.espritblog.com/index.php/2009/05/05/web-documentaires-inventifs-mais-fragiles-interview/\r\nVoir également son blog : http://emilandguillerme.wordpress.com\r\n\r\nIl y rappelle que le web documentaire se vit rarement seul, qu'il s'inscrit dans une économie hors de laquelle, il ne peut pas vraiment exister (aides du CNC, accompagnement d'un livre, DVD, expo, documentaire...).\r\n\r\nJe pense qu'imaginer que ces formats puissent demain se financer tout seul en ligne, vu la taille des audiences internet françaises, me semble un peu utopique. Par contre, il vont certainement de plus en plus entrer dans un plan média et économique de produits culturels. Certes les sommes en jeu en ligne sont ridicules, notamment par rapport à l'économie du reportage traditionnel... Mais le net permet de fidéliser des audiences, de générer de l'influence... et les reporters en ont également besoin... \r\n",
      "parentPostTime": "2009-05-05T15:27:53",
      "parentPostId": "9014887"
    },
    {
      "threadId": "15680066",
      "post": "Ouais c'est complètement déprimant l'état actuel du marché de l'offre et de la demande en termes de production multimédia... Ceci dit, je n'ai pas trouvé du tout le projet \"bricolé\", au sens où ça n'aurait pas la qualité suffisante pour être publié... Et d'ailleurs, faudrait qu'on se parle à ce propos, est-ce que tu peux m'envoyer ton tèl par email ou pm (disqus, fb... ce que tu veux ;-) ).",
      "time": "2009-04-30T15:19:22",
      "id": "8864002",
      "parentPost": "Merci Pierre pour le petit mot d'encouragement. Bon, vous aurez sans doute vu que techniquement, c'est un peu du bricolage (malheur aux faibles débits !). Mais sur le contenu et surtout sur la démarche (blog+reportages papier + sujet multimédia), on est, c'est vrai, assez content.\r\n\r\nAprès, reste la question qui fâche et qui me rend un peu amer. Vous parliez sur votre blog de la fin des options multimédia , je vous rejoins à 100 %. On y est et on est mal !\r\n\r\nConcrètement, pas moyen de trouver preneur pour un tel sujet en version multimédia. Pourtant, je suis la production multimédia française depuis un petit moment et je n'ai pas l'impression que la qualité de ce sujet n'ait à rougir...Ce n'est certes pas du Médiastorm, mais, pour ne prendre que la qualité des photos, c'est quand même du travail de bonne facture...\r\n\r\nBref,\r\n\r\nJe ne me fais absolument plus aucune illusion sur la capacité (ou la volonté) de la presse de financer de telles productions, même en partie... On fait vivre des petits chefs payés 5000 euros par mois pour faire une colonne d'édito par mois et on prétend qu'on a pas de budget pour un vrai sujet multimédia d'investigation de terrain... \r\n\r\nJe crois qu'il faudra aller chercher ailleurs les moyens du reportage multimédia, dans des bourses, des subventions, des ONG...J'en suis le premier attristé, ce n'est pas réellement ma conception de la presse de produire des sujets avec de l'argent public, mais c'est comme cela...\r\n\r\nBon, fin du \"mode colère\"\r\n\r\n\r\n",
      "parentPostTime": "2009-04-27T14:24:59",
      "parentPostId": "8727574"
    },
    {
      "threadId": "15831057",
      "post": "Salut Manu, \r\nJe ne fais pas partie des Twitterolâtres mais quand je regardais le fil #otan de Twitter pendant ces journées, j'étais quand même impressionné par l'activité... quelque chose comme une dizaine de tweets chaque minutes... Donc si ça se généralise et si ça se popularise aux gens qui sont aux coeur des événements et qu'on peut retrouver comme ça, ça va être quand même très intéressant...",
      "time": "2009-04-16T07:40:36",
      "id": "8254739",
      "parentPost": "Bravo pour ce résultat, je crois que tu resumes bien l'essentiel qui n'est pas, faut-il le rappeler, de voir dans twitter la réponse à tous les problèmes. Rien de tel qu'une opération réussie pour montrer à toute une équipe qu'on peut innover sans jeter au panier 30 ans d'expérience.\r\n ",
      "parentPostTime": "2009-04-15T20:19:51",
      "parentPostId": "8239003"
    },
    {
      "threadId": "12214651",
      "post": "Oui mais sans formation, alors il faut s'auto-former. Ou risquer de se voir doubler par des petits jeunes qui eux se sont auto-formés aux techniques, mais pas au journalisme...",
      "time": "2009-02-24T09:41:47",
      "id": "6557678",
      "parentPost": "Tout à fait d'accord avec vous, le Multimédia doit être une arme pour la qualité de l'info, pas pour faire du mutlisupport le plus vite possible...\r\nMais il nécessite dans ce cas de vraies formations et du temps... ",
      "parentPostTime": "2009-02-23T19:15:08",
      "parentPostId": "6502995"
    },
    {
      "threadId": "12175139",
      "post": "Trop drôle le dialogue sur le Raptor à la fin ! :-)",
      "time": "2009-02-20T17:58:40",
      "id": "6435132"
    },
    {
      "threadId": "10934087",
      "post": "Dans ton cas, je te conseille d'attendre des nouvelles de la stratégie de ton employeur. Envoyer des images ne se conçoit que dans le cadre d'une politique globale. Mais peut-être qu'un Nokia N95 pourrait te permettre d'être prête ! :-)",
      "time": "2009-02-01T22:30:12",
      "id": "5761242",
      "parentPost": "Bon, j'ai compris, faut s'acheter une caméra numérique pour être dans le coup ! Tu conseille quoi ? (simple et pas TROP cher, stp...)",
      "parentPostTime": "2009-02-01T18:26:47",
      "parentPostId": "5757304"
    },
    {
      "threadId": "10293220",
      "post": "@Marc: Je pense bien que tout le monde s'accorde à dire que les jeunes se détournent de la presse mais c'est souvent pointé comme étant... de la faute des jeunes (ils lisent plus, sont fainéants, génération zapping, etc). Moi je constate que les jeunes aiment bien lire les journaux, à condition qu'ils leur apprennent quelque chose.\r\nQuant au statut des journalistes, j'avoue ne pas bien voir aujourd'hui ce qui pose problème de façon si urgente (plus urgente que produire une info en adéquation avec la demande je veux dire)...",
      "time": "2009-01-25T16:43:13",
      "id": "5531640",
      "parentPost": "Il faut toujours appuyer là où ça fait mal. Et il est vrai que ces Assises du Journalisme pour ce qui est de définir le journalisme online sont passées à côté… Mais quand même ! La quasi totalité des participants savaient que les jeunes se détournent des médias traditionnels et que cela participe de la crise de presse. Mais les solutions ne sont pas aisées à trouver… Cela dit, je confirme le poids des habitudes dans notre profession. Les choses changent mais avec une lenteur désespérante et chercher à faire évoluer le journalisme donne souvent l'impression de vouloir faire changer de direction un supertanker. \r\nUn point : la crise du journalisme est aussi une question de statut. Ce serait trop simple s'il ne s'agissait que de trouver de bonnes pratiques…",
      "parentPostTime": "2009-01-25T01:48:22",
      "parentPostId": "5525355"
    },
    {
      "threadId": "9262132",
      "post": "Ouhouhla, quelles références, je m'incline ! :-)\r\n\r\nReste qu'au final, quand tout un système se met en branle pour attendre un évènement, il ne faut pas s'étonner qu'il se produise. Moi, ça me gonfle et effectivement, le sens m'échappe.",
      "time": "2009-01-03T16:24:31",
      "id": "4866681",
      "parentPost": "Vide de sens, vide de sens, c'est vite dit.\r\nAvez-vous entendu parler du théâtre de l'absurde? Non? Si, bien sûr... Je vous conseille donc de relire les oeuvres complètes d'Eugène Ionesco ou de Samuel Beckett, qui vous mettrons sur la voie du sens et du non-sens.\r\nBien sûr que ces actes d'autodafé (et au-delà faire joujou avec le feu) ont du sens. Il vous échappe assurément...\r\nPuisque vous insistez, je vais mettre sur la voie:\r\nPour les escrocs, ce sens est sonnant et trébuchant, pour les ados, il est à chercher du côté des pédo-psychiatres. Pour les cons, chez les psy tout court.",
      "parentPostTime": "2009-01-03T16:16:30",
      "parentPostId": "4866624"
    },
    {
      "threadId": "9063462",
      "post": "Ah ben ça bouge, lisez ceci:\r\nEn direct des rues de Gaza, une agence de photos fournies par M. Tout le monde:\r\nhttp://uk.techcrunch.com/2008/12/30/direct-from-the-streets-of-gazza-demotix-is-the-ugc-picture-agency/",
      "time": "2008-12-30T18:03:27",
      "id": "4783819"
    },
    {
      "threadId": "7594842",
      "post": "Merci Phil pour ce commentaire !\r\n\r\n1h37 du matin, lol... ;-)",
      "time": "2008-11-28T08:50:12",
      "id": "4048525",
      "parentPost": "Tu fais bien, et nous en avons parlé, de poser les limites de la déontologie, alors que les nouveaux outils du web posent déjà de nouveaux horizons en matière de traitement de l'info.\r\nCes horizons sont particulièrement attirants, je le reconnais (comme pour l'insecte pris dans les phares d'une voiture). Et tu as mille fois raison de rappeler que les travers du journalisme ont détourné nombre de gens.\r\nCe n'est qu'au prix d'un travail irréprochable que les journalistes regagneront leurs galons auprès des lecteurs. Ce sacerdoce, c'est l'exigence de vérité, l'absence de compromis(sion).\r\nEncore faut-il que les journalistes aient les moyens financiers de le faire, c'est une condition essentielle.",
      "parentPostTime": "2008-11-28T00:35:32",
      "parentPostId": "4044103"
    },
    {
      "threadId": "6061213",
      "post": "@Matthieu: je note, merci !\r\n\r\n@Eric: Absolument, ou la somme des pratiques individuelles ne produit pas une pratique communautaire vertueuse. Voilà qui devrait plaire aux Pères fondateurs des Etats-Unis... :-)",
      "time": "2008-10-25T14:31:05",
      "id": "3297903"
    },
    {
      "threadId": "5421464",
      "post": "Oui, j'étais bien en phase avec ton énervement d'alors... Peut-être fonder une association des journalistes qui ne veulent plus recevoir de dossiers de presse non sollicités ? :-)",
      "time": "2008-10-06T14:38:34",
      "id": "2892892"
    },
    {
      "threadId": "5188043",
      "post": "Ouais, on relira ces chroniques dans un an. Peut-être qu'on en rira, peut-être qu'on se dira qu'on était optimistes à l'époque ! :-)",
      "time": "2008-10-04T09:22:47",
      "id": "2837480"
    },
    {
      "threadId": "4795186",
      "post": "On ne peut pas nier la question de la \"caste des journalistes\", je suis bien d'accord. Mais le repli de certains journalistes peut aussi s'expliquer par leur vision, compréhensible mais partiale, que le net était d'abord une zone sulfureuse et lointaine, puis un univers complexe et désormais dangereux pour leurs boulots...\r\nQuant aux changements de pratiques, j'ai déjà écrit qu'il faudra du temps avant qu'ils ne se généralisent, surtout qu'ils sont loin d'être promus par les hiérarchies en place.",
      "time": "2008-09-30T18:29:54",
      "id": "2754375"
    },
    {
      "threadId": "4640457",
      "post": "Merci pour ce commentaire, je suis un grand fan de votre travail et en permanence impressionné par l'étendue de vos sources (j'arrête là où on va me soupçonner d'appartenir aux Fatals Flatteurs). Comment ça se passe la cohabitation \"générationnelle\" à l'AFP ?",
      "time": "2008-09-17T15:17:50",
      "id": "2398718"
    },
    {
      "threadId": "4095032",
      "post": "De New-York si j'en crois leur \"ours\":\r\nhttp://www.flypmedia.com/content/about-us\r\n\r\nLe n° 13 vient de sortir.",
      "time": "2008-09-15T20:40:59",
      "id": "2364274"
    },
    {
      "threadId": "4511417",
      "post": "Vous dites ça parce que vous êtes des pros de la pub (hein ?) ! Mais j'aimerais bien être aussi convaincus que vous que la presse a de l'or dans les mains. Le désavoeu du public, la méfiance vis à vis des médias et des journalistes, elle est bien réelle et sans public, pas de pub...\r\n\r\n@Emmanuelle: quand je prends la liste des meilleurs audiences du web (MediaMetrie), je ne peux m'empêcher de constater qu'il n'y a pas un seul \"journal en ligne\" dans les 50 premiers... Y'a bien TF1 et M6 mais bon... leurs chiffres ne sont pas dûs au traitement de l'actualité.",
      "time": "2008-09-15T16:34:30",
      "id": "2361098"
    },
    {
      "threadId": "2345542",
      "post": "J'ajoute ici un site repéré par Eric Scherer (http://mediawatch.afp.com/?post/2008/09/08/Liens-vagabonds-8-sept), qui montre comment pourrait se développer l'info locale:\r\nhttp://www.everyblock.com/about/",
      "time": "2008-09-13T14:00:19",
      "id": "2327061"
    },
    {
      "threadId": "4361883",
      "post": "Salut HP,\n\nBien d'accord avec toi, je suis moi même gros utilisateur de réseaux sociaux. Et c'est bien ça qui m'effraie... Si c'est ça l'alternative: des rendez-vous générés par des ordinateurs... Brrr.",
      "time": "2008-09-12T13:30:37",
      "id": "2300355"
    },
    {
      "threadId": "2312916",
      "post": "Bon ben je constate aujourd'hui que dans l'email de réponse, le lien proposé est celui du site original ! :-)",
      "time": "2008-09-04T12:54:59",
      "id": "2103842",
      "parentPost": "Sauf que je vois que disqus, si on rebondit sur le mail de suivi, déporte le lieu de l'échange de commentaires chez lui au lieu de le laisser sur ton blog. Je trouve ça moyen. Ça me fait penser à la logique de Wikio :-(",
      "parentPostTime": "2008-07-31T19:33:50",
      "parentPostId": "1064182"
    },
    {
      "threadId": "2234527",
      "post": "Hé ! Et si tu ajoutais le mien s'il te plait ? :-)",
      "time": "2008-07-30T14:56:31",
      "id": "1050451"
    }
  ],
  "profileInfo": {
    "username": "PiF",
    "about": "Journaliste à Rue89 Strasbourg",
    "name": "Pierre",
    "disable3rdPartyTrackers": false,
    "isPowerContributor": false,
    "isAnonymous": false,
    "rep": 1.254462,
    "profileUrl": "https://disqus.com/by/PiF/",
    "url": "http://www.rue89strasbourg.com/",
    "reputation": 1.254462,
    "location": "Strasbourg, France",
    "isPrivate": false,
    "signedUrl": "http://disq.us/?url=http%3A%2F%2Fwww.rue89strasbourg.com%2F&key=mqPD3dmBYN1J1Z0lJ4xoZw",
    "isPrimary": true,
    "joinedAt": "2008-07-30T14:58:17",
    "id": "73277",
    "avatar": {
      "small": {
        "permalink": "https://disqus.com/api/users/avatars/PiF.jpg",
        "cache": "//a.disquscdn.com/uploads/users/7/3277/avatar32.jpg?1405693157"
      },
      "isCustom": true,
      "permalink": "https://disqus.com/api/users/avatars/PiF.jpg",
      "cache": "//a.disquscdn.com/uploads/users/7/3277/avatar92.jpg?1405693157",
      "large": {
        "permalink": "https://disqus.com/api/users/avatars/PiF.jpg",
        "cache": "//a.disquscdn.com/uploads/users/7/3277/avatar92.jpg?1405693157"
      }
    }
  }
}