{
  "comments": [
    {
      "threadId": "4856486812",
      "post": "Crazy ABCs - Barenaked Ladies",
      "time": "2016-05-25T14:23:17",
      "id": "2694628248"
    },
    {
      "threadId": "4853744144",
      "post": "The Airborne Toxic Event - Boots of Spanish Leather",
      "time": "2016-05-24T13:53:50",
      "id": "2692770554"
    },
    {
      "threadId": "4762339280",
      "post": "Urban Herbalist - Greazy Meal",
      "time": "2016-04-20T14:22:45",
      "id": "2633538451"
    },
    {
      "threadId": "4749323414",
      "post": "Yes.  YES and hell yeah!!",
      "time": "2016-04-15T13:54:45",
      "id": "2625151928",
      "parentPost": "Pearl Jam - Spin the Black Circle",
      "parentPostTime": "2016-04-15T13:46:11",
      "parentPostId": "2625139304"
    },
    {
      "threadId": "4564659635",
      "post": "Money - Pink Floyd",
      "time": "2016-02-09T15:14:40",
      "id": "2504353232"
    },
    {
      "threadId": "4561794003",
      "post": "One Monkey - Gillian Welch",
      "time": "2016-02-08T15:25:36",
      "id": "2502570140"
    },
    {
      "threadId": "686595",
      "post": "While I appreciate the correction in a heading of a column, the bug was still the same in 10g. Auto-allocation < actual space causing the view to be incorrect. Whether I labeled the column USED_KB or not matters not (although misleading). the relative numbers are all correct.",
      "time": "2013-10-04T21:02:36",
      "id": "1070771170",
      "parentPost": "You are using the wrong unit. Let's stick with the first statement, column \"SIZE_KB\". This view shows you the number of blocks, so if you multiple it by 8196 bytes, you get a total in bytes. You divide it by 1024 and 1024, you get MB, NOT  KB as stated.",
      "parentPostTime": "2013-10-04T18:07:17",
      "parentPostId": "1070555437"
    },
    {
      "threadId": "113568728",
      "post": "wait, two of your neighbors?",
      "time": "2010-07-02T17:42:59",
      "id": "60311771"
    },
    {
      "threadId": "95850861",
      "post": "One of the main reasons I switched from MySpace to Facebook was due to the privacy of facebook (this was back in 2006 or 2007 I think). Until recently, Facebook was where I kept private things (personal, family, friend related things) and Twitter and other social media was for more public stuff. Facebook has definitely blurred that line with all their changes over the past 6-9 mos and is feeling a bit of a backlash. I'm not sure where facebook stops. but they really  need think long and hard about the changes they are making. (Granted, you can turn off and opt-out of a lot of their 'new functionality'). ",
      "time": "2010-05-15T13:18:22",
      "id": "50469267"
    },
    {
      "threadId": "75675196",
      "post": "testing out comments, as disqus never fixed things after moving domains. boo to them",
      "time": "2010-03-27T13:50:55",
      "id": "41886227"
    },
    {
      "threadId": "60953358",
      "post": "pervert.",
      "time": "2010-01-24T17:27:51",
      "id": "31065537",
      "parentPost": "the juvenile in me was really hoping for something better...:)",
      "parentPostTime": "2010-01-24T00:55:57",
      "parentPostId": "31012791"
    },
    {
      "threadId": "56863353",
      "post": "Love, LOVE LOVE this single, guys. Can't wait to here the entire album. Gives me some of the same feelings I got when listening to Break your Heart, or When I Fall. Still loving this band after 15 years!!",
      "time": "2010-01-22T14:26:33",
      "id": "30867542"
    },
    {
      "threadId": "31338280",
      "post": "the ORACLENERD Facebook Fan Page should be sufficient enough, no? Oh wait, it's a Group. I say Chet needs to ditch the group and create a fan page. :)",
      "time": "2009-08-28T01:11:22",
      "id": "15505803"
    },
    {
      "threadId": "17613290",
      "post": "Maybe my new glasses aren't working so well :)\r\n\r\n",
      "time": "2009-05-08T14:16:31",
      "id": "9127993",
      "parentPost": "It was Michael Essien which was a shame as he scored a fantastic goal. Maybe he was a little tired after chasing shadows for 90 minutes trying to get the ball off Barcelona.\n\nGus Hiddink conducted himself with a great deal of restraint and dignity in the post-match interviews. Terry, Drogba, and Ballack could learn from him. But they won't.",
      "parentPostTime": "2009-05-08T14:12:15",
      "parentPostId": "9127893"
    },
    {
      "threadId": "17278491",
      "post": "Congratulations, Dan!!! I look forward to seeing more awesome content from you in the future. If you are ever in Madtown, be sure to look me up :)",
      "time": "2009-05-04T13:41:44",
      "id": "8980971"
    },
    {
      "threadId": "856738663",
      "post": "Thanks for that 'moment in history' personal story. I really enjoyed it. Being a late, (yank) newcomer to the beautiful game, and a Liverpool fan, I have recently become a bit jaded by some of the video's popping up of Scouser's singing the praises of the Munich air disaster. It was rather sickening. It seems this type of behavior isn't 'special' to just one English team or group of fans, but it still saddened me to see fan of the team I love rejoicing in a tragedy like that.\r\n\r\nThanks again for the story. I really enjoyed it.",
      "time": "2009-04-16T13:18:37",
      "id": "8258768"
    },
    {
      "threadId": "940952433",
      "post": "April Fools.",
      "time": "2009-04-01T14:45:41",
      "id": "7715347"
    },
    {
      "threadId": "14214659",
      "post": "If you are up for an interesting time, see if you can't get a guest pass to The Magic Castle (if that is your thing). I've been many times and always have an enjoyable time, with good food and close up magic.",
      "time": "2009-03-23T15:18:57",
      "id": "7443022"
    },
    {
      "threadId": "13786393",
      "post": "Thanks for stopping by. ANother great one is \"Ghost Town\" by Shiny Toy Guns.\r\n\r\nHave you given any thought to changing the Alice blog comments to Disqus.com comments? I like the open dialog and integrations involved.",
      "time": "2009-03-16T19:45:54",
      "id": "7263425",
      "parentPost": "Great post! I love the Foo Fighters too :) Thanks for spreading the word.",
      "parentPostTime": "2009-03-16T19:36:21",
      "parentPostId": "7263175"
    },
    {
      "threadId": "11839290",
      "post": "I agree with you 100%. Deliver on what you advertise. So sorry to hear you paid $31.99 for USPS shipping. If you are ever looking to try a different chocolate, and who ships well, check out Candinas : http://www.candinas.com/ . I use them exclusively for my Valentine's Day (or just cause) occasions for my wife. It is her favorite chocolatier. ",
      "time": "2009-02-15T03:51:12",
      "id": "6269182"
    },
    {
      "threadId": "10386371",
      "post": "How does one get an invite to the Windows alpha? I'm not a Mac user, and Boxee failed miserably on my Ubuntu Virtual Machine (VirtualBox). I really want to try this software out and my main desktop is Windows Vista x64",
      "time": "2009-01-23T14:46:11",
      "id": "5493424"
    },
    {
      "threadId": "7382609",
      "post": "The formatting on this post looks like garbage. I'm not a huge fan of the blogger editor, that is for sure. \r\nFAIL",
      "time": "2008-11-27T01:37:19",
      "id": "4033120"
    },
    {
      "threadId": "7277415",
      "post": "I guess all I needed to do was a google search:\r\nhttp://www.codingmill.com/theforgottenmilk/articles/how-to-share-articles-from-googlereader.html",
      "time": "2008-11-20T20:34:00",
      "id": "3919812",
      "parentPost": "Maybe, but some people do that anyway right? I like the idea, if there were an option to also send to Twitter. The Reader team has been rolling out stuff here/there for a while. Remember when there was no search? So, a full-on share bar including Digg, Twitter, Facebook, Reddit, etc. may be in the works. Or not. I'm pretty content with the way it is now.",
      "parentPostTime": "2008-11-20T16:04:31",
      "parentPostId": "3914568"
    },
    {
      "threadId": "7185050",
      "post": "the PC Software (Tivo Desktop) is free. What you had to originally pay for was the plug-in for Sonic to burn content to DVD.   I believe there is now a regular add-on to Tivo Desktop called Tivo Desktop Plus (http://www.tivo.com/mytivo/whatsnew/tivodesktop/index.html?WT.ac=mytivohomecarousel_desktop_desktopdet_link) that gives some additional functionality:\r\n    * Transfer compatible web videos to your TiVo DVR for viewing on your TV\r\n    * Convert shows for playback on your iPod, PSP, or other compatible device",
      "time": "2008-11-18T16:35:46",
      "id": "3878907",
      "parentPost": "TiVo charges for that PC software? I tried it years ago, and it was free. And disappointing. I hope they spruced it up before charging for it.\r\n\r\nThe last TiVo I bought maxed out at 3 year's subscription, which will be up soon. I hope they'll allow me to re-up into the lifetime version.\r\n\r\nI suppose you're not awake when your brother watches your TV, or do you have the Slingbox on a TV you don't watch much? During the short time I had mine functional, I scared the crap out of my wife by fiddling with the TV while she was watching. Fun for me ;) I may hook it back up, especially now that my networked Series 2 boxes can dependably see each other, allowing recording transfer.",
      "parentPostTime": "2008-11-18T16:31:52",
      "parentPostId": "3878850"
    },
    {
      "threadId": "6556108",
      "post": "No way. You aren't being called out!!!! . It was a good point you bring up. I think there are reasons why tools like Oracle SQL Developer have such considerable functionality for formatting SQL. If I dont' like how you wrote something, I can easily format to my way viewing it and play around with the SQL. \r\n\r\nAs for the Brewers, you don't really have much of a choice living in Sconnie. Packers, Brewers, Bucks. Maybe that is why I scorned them all and threw my allegiance Merseyside over a decade ago.\r\n\r\nYou'll Never Walk Alone ...",
      "time": "2008-11-03T14:28:49",
      "id": "3455034",
      "parentPost": "oh man...i'm getting called out! ;)\r\n\r\nAs much as I would love to do away with the commas at the beginning, I never would (nor do I have that kind of power).  \r\n\r\nThere is certainly a few benefits (as you mentioned) to have the comma at the front of the line, but I try to write it as I read (or would have others read).  Commas never start a line nor come before a word (without a space anyway).  \r\n\r\nIn my younger years, even before I had style, I probably would have been steadfast in my desire to see the demise of the front comma.  But you are absolutely right in that if it works, it's fine by me.  \r\n\r\nBesides, I had to throw a few playful barbs about the Brewers in there didn't I? ;)",
      "parentPostTime": "2008-11-03T05:04:28",
      "parentPostId": "3451268"
    },
    {
      "threadId": "5925501",
      "post": "If only Google would have added \"Pirate\" to their drop-down!!!!",
      "time": "2008-10-17T18:32:20",
      "id": "3133352"
    },
    {
      "threadId": "5917627",
      "post": "Maybe we can talk @rodriguez399 into translating it into an audio track :) He is quite bilingual. All I know how to do is insult your mother.",
      "time": "2008-10-17T13:49:56",
      "id": "3128240",
      "parentPost": "He said that YouTube has some functionality for doing subtitles, but he hadn't figured out how that works yet. It would be funny if someone dubbed it, go ahead if you got the skilz. I'll post it.",
      "parentPostTime": "2008-10-17T13:22:49",
      "parentPostId": "3127857"
    },
    {
      "threadId": "4198451",
      "post": "How weird (or is it serendipitous) ? I have been lightly trying to figure out a similar issue on a standalone training database that is just keeping and keeping undo segments for weeks at a time. I found Metalink Doc #420525.1 which sounded right up my alley. (Okay, so it isn't the exact issue but it is very similar). I implemented work-around #1 and am now seeing the TUNED_UNDORETENTION value in v$undostat is mirroring what my undo_retention is set to. the UNEXPIREDBLKS and EXPIREDBLKS have flip-flopped as well. Now to see if the segments automatically start shrinking.\n\nAlso, not sure when you implemented DISQUS in your blog, but kudos on that. I have been liking the service for a few months.",
      "time": "2008-09-05T18:16:38",
      "id": "2147208"
    },
    {
      "threadId": "2239016",
      "post": "Kumar. Thanks for the comment. I had planned on additional entires around the 10g migration but got super busy at work and took a holiday as well. I'm starting to think that with 10g Desupport looming in July of 2010 (less than two years) it may make more sense to start to look at 11g and skip 10g altogether. With some system's 10g upgrade testing time lines stretching 3-4 months (depending on complexity) upgrading to 10g at this point doesn't have a lot of upside. Oracle may change their 10gR2 date, not sure at this point.",
      "time": "2008-09-02T22:22:15",
      "id": "2019958",
      "parentPost": "This is definitely a wonderful peace of information.  Do you have any more suggestions/tips.  Please through some light on us.  Thanks",
      "parentPostTime": "2008-09-02T01:05:58",
      "parentPostId": "1997057"
    },
    {
      "threadId": "3465827",
      "post": "Being a fairly recent BlackBerry Curve (8330) convert, I would have to agree with #8. While I use said TwitterBerry, it would be nice to have something like Twhirl that pulls tweets rather than me always having to manually refresh. Better integration into the follower/following functionality would be nice as well. I would 2nd and 3rd the need for better blackberry app ecosystem. ",
      "time": "2008-08-21T13:11:52",
      "id": "1715811"
    },
    {
      "threadId": "2364160",
      "post": "How fitting. I was registering for an oracle event today on OTN and noticed my account was registered with my way old work email address. I was hoping to change it as well. There goes all my history and watches, and , let's see, what else is linked to that? Oracle Mix.  Excellent design.  I guess that explains why I don't get any of the email newsletters I'd signed up for.",
      "time": "2008-08-08T15:20:18",
      "id": "1134193"
    },
    {
      "threadId": "2107847",
      "post": "Thanks, Asif. Unfortunately, I have been falling short of my blogging goals as of late. ",
      "time": "2008-08-07T15:43:15",
      "id": "1123506",
      "parentPost": "Nice compilation!",
      "parentPostTime": "2008-07-23T09:45:28",
      "parentPostId": "974626"
    },
    {
      "threadId": "2137760",
      "post": "I don't mind plugging things that look interesting to me. I wish I could have gone as well. I hope there is a next time prior to Collaborate '09!!",
      "time": "2008-08-07T15:39:19",
      "id": "1123453",
      "parentPost": "Glad you're plugging the event. I've had a lot of involvement with the event and we're doing a lot to make the event a success. Wish you could make it--if it's successful, I hope that IOUG will consider bringing it back for another offering in the future. Maybe you'll get another shot, but the future is uncertain, so to be sure you get to attend, sign up as soon as possible!",
      "parentPostTime": "2008-07-24T03:26:24",
      "parentPostId": "985034"
    },
    {
      "threadId": "2425028",
      "post": "Thanks for the top 10. I'm a recent blackberry convert (Started out with a 8830 and then upgraded to the Curve 8830 a few weeks later as it wasn't available at the time). So far, I love it. I've always had issues with the iPhone and it's touch screen. I just don't like it. I prefer the tactile qwerty keyboard. \r\n\r\nMy Top 5 (all that fits on my theme)\r\n1. Gmail (prefer this to the blackberry email client. Shows conversation style email just like email. supports gmail labels and does a better job with html-email)\r\n2. TwitterBerry (Wish it had notification/polling capabilities like Twhirl) \r\n3 Google Talk\r\n4. yahoo! messenger\r\n5. Message log\r\n\r\nI don't use the lock feature at all. I've started using the standby feature instead. keeps my display off in my pocket.",
      "time": "2008-07-14T17:17:46",
      "id": "888413"
    },
    {
      "threadId": "4923255",
      "post": "I'd love a twitterFone invite",
      "time": "2008-05-21T11:18:14",
      "id": "501871"
    }
  ],
  "profileInfo": {
    "username": "piontekdd",
    "about": "",
    "name": "piontekdd",
    "disable3rdPartyTrackers": false,
    "isPowerContributor": false,
    "isAnonymous": false,
    "rep": 1.271309,
    "profileUrl": "https://disqus.com/by/piontekdd/",
    "url": "http://piontekdd.blogspot.com/",
    "reputation": 1.271309,
    "location": "Madison, WI",
    "isPrivate": false,
    "signedUrl": "http://disq.us/?url=http%3A%2F%2Fpiontekdd.blogspot.com%2F&key=nsiD_bggEHyP68oQTFYLUw",
    "isPrimary": true,
    "joinedAt": "2008-05-11T00:54:06",
    "id": "31029",
    "avatar": {
      "small": {
        "permalink": "https://disqus.com/api/users/avatars/piontekdd.jpg",
        "cache": "//a.disquscdn.com/uploads/users/31029/avatar32.jpg?1464098031"
      },
      "isCustom": true,
      "permalink": "https://disqus.com/api/users/avatars/piontekdd.jpg",
      "cache": "//a.disquscdn.com/uploads/users/31029/avatar92.jpg?1464098031",
      "large": {
        "permalink": "https://disqus.com/api/users/avatars/piontekdd.jpg",
        "cache": "//a.disquscdn.com/uploads/users/31029/avatar92.jpg?1464098031"
      }
    }
  }
}