{
  "comments": [
    {
      "threadId": "4878286551",
      "post": "Thanks @christophmajewski:disqus  Scanned the blog for viruses and it says there are none. Also logged on to server using Putty and removed couple of php files which were injected by the hacker. The blog is online, but as mentioned earlier by many of them (and you :)) I will run the command mentioned and also scan for these files. I could see that the top-search queries that led into blog were all junk. Would further update once I have done them (over this weekend).",
      "time": "2016-06-10T10:06:41",
      "id": "2723064203",
      "parentPost": "Hi @hjsblogger:disqus,\n take your blog offline and completely remove the plugin. The attackers \ninstall a lot of backdoors by uploading PHP-files and modifying \nWordpress-files. So run the command as espiran said. If you have access \nto any log files of your sever scan them for any .php requests. Watch \nout for files like 4dd4ede2a7.php, css.php, inc56.php, system10.php,... \nCheck you uploads folder for PHP-files. A good virus scanner for finding\n infected files is ClamAV. Only put your blog online if you 100% sure to\n have removed the backdoors.",
      "parentPostTime": "2016-06-09T08:15:09",
      "parentPostId": "2720246926"
    },
    {
      "threadId": "4311768319",
      "post": "@ankitdisqus:disqus  Please share it across by email to himanshu.sheth@gmail.com Please ensure that it should be related to SEO and article should be useful for readers.\n\nThanks.\n\n- hjsblogger",
      "time": "2016-04-26T03:17:57",
      "id": "2642975036",
      "parentPost": "Great post Himanshu. Do you used to accept guest posting? If yes I have number of posts related to <a href=\"http://www.moglix.com/safety-and-security/safety-shoes/116111700\">Safety Shoes</a>, Safety Googles, Safety Helmets, <a href=\"<!--td {border: 1px solid #ccc;}br {mso-data-placement:same-cell;}-->http://www.moglix.com/power-tools/114000000\">Power tools</a>, <a href=\"http://www.moglix.com/electricals/fans/ceiling-fans/211531100\">Ceiling fans</a> etc just like tolexo is dealing.",
      "parentPostTime": "2016-04-25T09:40:17",
      "parentPostId": "2641365784"
    },
    {
      "threadId": "4632655027",
      "post": "The title has missed 'Million'. It says \"to invest $100 in deal and growth\" instead of \"to invest $100m in deal and growth\"",
      "time": "2016-03-07T04:03:51",
      "id": "2555504334"
    },
    {
      "threadId": "851454092",
      "post": "@kM8myeTqLy:disqus  Thanks for the comment, glad you liked the article.",
      "time": "2012-09-27T07:06:46",
      "id": "664318536"
    },
    {
      "threadId": "751913124",
      "post": "@StudentsIdea:disqus Well, have not been keeping well hence replying late. I would suggest you go with Bluehost since from what I hear, it is reliable than HG. I have also read many complaints about HG but my journey has been good with them. Also, my blog is not one which gets very huge traffic so it makes sense to be on HG.\n\nBTW, what are the plans for BH, is it cheaper than HG ?\n\n- Himanshu Sheth.",
      "time": "2012-08-23T12:45:14",
      "id": "626644341"
    },
    {
      "threadId": "796229343",
      "post": "@Kiruba, Thanks for the book :) I really enjoyed reading the book. Unconference has really changed the way I approached things & I was lucky to meet you at the First BlogCamp way back in 2006.\n\n\n@abychristian:disqus Thanks for the comment. True, the book is short & interesting. I refered it as the \"Unconference Bible\" !!!",
      "time": "2012-08-08T15:41:55",
      "id": "613499189"
    },
    {
      "threadId": "704414071",
      "post": "Thanks @375a22cb9929f3f568f7dbe6d3db4369:disqus for landing here via Google :) It would be nice to connect with another Himanshu via Facebook or LinkedIn. My profile link is there on the blog.\n\nOr you can reach me by email himanshu.sheth@gmail.com- Himanshu Sheth.",
      "time": "2012-07-24T07:25:58",
      "id": "596125060",
      "parentPost": "Nice... I was also googling my name !",
      "parentPostTime": "2012-07-23T17:56:42",
      "parentPostId": "595543874"
    },
    {
      "threadId": "510312750",
      "post": "@deepakpatel123:disqus Yes, may be apps like VocalBee can help in getting things done faster.... The only thing is that government has to embrace such kind of methods....\n\n- Himanshu Sheth.",
      "time": "2012-01-04T05:30:01",
      "id": "400125042"
    },
    {
      "threadId": "475390662",
      "post": "Soham, Ravi:\nThis would be quite helpful for the guys like me who have missed the event... Would watch out this space for more :) Also, would be great if the presentations are put on SlideShare under a \"Baug\" account.... \n\nKeep up the great work !!!!\n\n- Himanshu Sheth.",
      "time": "2011-11-18T03:36:03",
      "id": "367151591"
    },
    {
      "threadId": "407951928",
      "post": "It seems kind off odd, but the Touch Response was not so great !!! And definitely, there is a learning curve to the UI but I am sure that once we are used to it, the device comes to be an excellent one for \"Consumption of content\" :)\n\n- Himanshu",
      "time": "2011-09-19T07:33:56",
      "id": "314752097",
      "parentPost": "amazing detailed post.. but if u had to list some drawbacks, what would that be? ",
      "parentPostTime": "2011-09-08T07:52:54",
      "parentPostId": "304809012"
    },
    {
      "threadId": "94197471",
      "post": "Hey,\n@Srikanth:\nNice to see you liked the article and try to follow the principles. I am also trying to do the same :)\n\n-Himanshu",
      "time": "2010-05-21T04:01:31",
      "id": "51321616",
      "parentPost": "Awesome article. Also the principles I try to follow. ",
      "parentPostTime": "2010-05-13T07:51:19",
      "parentPostId": "50058471"
    },
    {
      "threadId": "33984304",
      "post": "Hey Alok,\r\nOne off topic comment :) Nice to see your blog on Killer Startups. It is really an incremental step that you are making in the blogosphere.\r\n\r\nCongrats.\r\n\r\n-Himanshu Sheth",
      "time": "2009-09-13T20:34:26",
      "id": "16545812"
    },
    {
      "threadId": "15281470",
      "post": "Great post !!!\r\n\r\nBeing an Embedded professional, there was a misconception whether my blog and other social media tools could be used or not.However, it landed me in the first startup as a co-founder and after parting ways, my next job in a bigger startup came through LinkedIn.\r\n\r\nBeyond a certain level, there is not much juice left in the job sites since they SPAM you with unwanted jobs and you don't have the permission to stop them in desperate times.However, Social Media gives us a chance to do permission marketing(in Seth Godin's term) where we show ourself in the way we want to and to the people whom we should show to (indirectly, permission to choose the employers).After the arrival of Twitter, even that has become a great tool to market yourself like my profile http://twitter.com/hjsblogger , after just putting a T-Shirt with ENTREPRENEUR as my home page, I could see loads of people following me, which was not the case before.\r\n\r\nThe bottom line is \"Choose the right Social Media tool at the right time\" and you would definitely get the expected results.\r\n\r\n-Himanshu Sheth.",
      "time": "2009-04-08T13:32:41",
      "id": "7974134"
    },
    {
      "threadId": "14045223",
      "post": "Very funny :) These big guys most of thew times go into process oriented stuff and forget the basic things :) At least they could have created a FREE blog at blogger or wordpress (oops, forgot they might know about that as well :))\r\n\r\n-Himanshu Sheth",
      "time": "2009-03-20T09:13:16",
      "id": "7368974"
    },
    {
      "threadId": "13383443",
      "post": "Very nice article, glad I landed here from Twitter :) Well, I was associated with a startup of 3 people as a SO CALLED Co-Founder. One thing which is so very important in a REAL Technology startup is \"Correct Division of Responsibilities\" and this would be the case whether we start with a friend or not.\r\n\r\nTo be honest, I am planning to startup with my wife :) and I see that my Startup couple friends face lot of issue in getting the THIRD person, since it is very difficult to see what is happening in someone else's bedroom, same was the case with our startup (Husband + Wife + 2 outsiders) \r\n\r\nLovely Tips, thanks for sharing them.\r\n\r\n-Himanshu Sheth",
      "time": "2009-03-12T18:28:27",
      "id": "7148619"
    }
  ],
  "profileInfo": {
    "username": "hjsblogger",
    "about": "",
    "name": "hjsblogger",
    "disable3rdPartyTrackers": false,
    "isPowerContributor": false,
    "isAnonymous": false,
    "rep": 1.260259,
    "profileUrl": "https://disqus.com/by/hjsblogger/",
    "url": "http://blog.himanshusheth.net",
    "reputation": 1.260259,
    "location": "Bangalore,India",
    "isPrivate": false,
    "signedUrl": "http://disq.us/?url=http%3A%2F%2Fblog.himanshusheth.net&key=81k08EcOmTEbTYL6CTc2BA",
    "isPrimary": true,
    "joinedAt": "2008-08-25T19:05:13",
    "id": "88795",
    "avatar": {
      "small": {
        "permalink": "https://disqus.com/api/users/avatars/hjsblogger.jpg",
        "cache": "//a.disquscdn.com/uploads/users/8/8795/avatar32.jpg?1281549414"
      },
      "isCustom": true,
      "permalink": "https://disqus.com/api/users/avatars/hjsblogger.jpg",
      "cache": "//a.disquscdn.com/uploads/users/8/8795/avatar92.jpg?1281549414",
      "large": {
        "permalink": "https://disqus.com/api/users/avatars/hjsblogger.jpg",
        "cache": "//a.disquscdn.com/uploads/users/8/8795/avatar92.jpg?1281549414"
      }
    }
  }
}