{
  "comments": [
    {
      "threadId": "4877699139",
      "post": "You should read the entire post.",
      "time": "2016-06-02T20:56:46",
      "id": "2709069677",
      "parentPost": "Once again, here is the truth: Uber/Lyft started this not Austin. Uber spent a small fortune to create Prop 1. Citizens of Austin voted no. Uber lost. Again, citizens voted.\nSo let's talk safety. With Uber drivers not subject to the same background checks as taxi drivers is Austin more safe? Less safe?\nI think you know the answer.",
      "parentPostTime": "2016-06-02T14:18:11",
      "parentPostId": "2708313935"
    },
    {
      "threadId": "2208963929",
      "post": "I'm working to get another two chapters out asap, as in by the end of the month. James' contributions are good to go.",
      "time": "2016-01-11T03:34:20",
      "id": "2450846612",
      "parentPost": "is this book still being written?",
      "parentPostTime": "2014-04-07T13:07:55",
      "parentPostId": "1322309990"
    },
    {
      "threadId": "3812885840",
      "post": "I think the \"help their team get better\" part is a key step of a Senior Developer. They're finding ideas, tools, and techniques, figuring out how/if they apply and sharing them with the rest of the team. It could be a simple step that saves a couple steps here and there or it could be the thing that accelerates everyone on the team.",
      "time": "2015-06-03T01:02:00",
      "id": "2059120333"
    },
    {
      "threadId": "2939338032",
      "post": "One of the first things I did a Clarify was build a simple press kit with bios, headshots, and numerous versions of the logo: http://clarify.totemapp.com/company\n\n\nWhile I'd love to attribute some sort of Vision to what I'm doing, honestly I just want to point event organizers, etc there to grab what they need. :)",
      "time": "2014-08-21T18:13:45",
      "id": "1553260290"
    },
    {
      "threadId": "1131035326",
      "post": "Generally we're a tools company that others would use to build consumer-facing apps, so I doubt a finished solution like you'd describe is in our product roadmap.\n\nThat said, a few years ago we released OpenVBX which does many of the same things as GV. It's open source so although Twilio has not spent a lot of time on it recently, the community has added a number of features.",
      "time": "2013-09-25T17:34:20",
      "id": "1058817448",
      "parentPost": "I similarly rely on Google Voice. I followed TwilioCon, and I was hoping to see some sort of consumer-available GV2.0 put forth as a suitable replacement to Google's atrophied product...unless I missed it, it wasn't really there, though. If your project extended to include a webapp UI, the newly-available Twilio MMS features, and capability for international forwarding and SMS/MMS, I really think it would take off. What do you think the chance is we'll see something like that this year?",
      "parentPostTime": "2013-09-25T09:56:31",
      "parentPostId": "1058309884"
    },
    {
      "threadId": "585764926",
      "post": "TJ,\n\nThanks for the message. It looks like we've taken slightly different approaches to get to similar places:\n\n-  You go directly to the Recordings resource to manipulate the list.\n-  Alternatively, I go through the Calls resource first and then retrieve the Recordings to manipulate.\n\nThe Calls and Recordings resources take different filter parameters so your example is correct for Recordings while mine is correct for Calls. It's a subtle difference.\n\nAlso, while your solution takes less API calls to manipulate the recordings, I wanted the additional safety of making sure that I was only deleting recordings that were To a specified number. Regardless, both should work.\n\nIf you run into any other issues or have any questions, don't hesitate to drop me a note. :)",
      "time": "2013-08-28T04:34:53",
      "id": "1020127205",
      "parentPost": "Doesn't seem to work. Put in your dates as shown in the PHP version and it echos out any/every call recording whether in your range or not. We have 150,000 calls to delete.\n\nBelow is the line I adjusted.\nforeach ($client->account->recordings->getIterator(0, 50, array('DateCreated>' => '2013-08-01 08:00:00', 'DateCreated<' => '2013-08-15')) as $recording) \n\nFirst recording being echoed out is most recent and not within my parameters:\n\nRE5b60cdb7a885e4a953d1571b88db1bdd -- Mon, 19 Aug 2013 11:55:04 +0000\nRE64bd7e7c4aa07e5d110fb4505a0a8c91",
      "parentPostTime": "2013-08-19T12:05:26",
      "parentPostId": "1006432385"
    },
    {
      "threadId": "1502571398",
      "post": "While you note that splitting it over two days was probably bad, how \nwould you approach that differently? Also, who was in which timezone? Who had it the worst? :)",
      "time": "2013-07-29T03:47:57",
      "id": "979679785"
    },
    {
      "threadId": "284669781",
      "post": "Please feel free to take this code and customize it, add things, remove things however you wish.\n\n\n\nAs is, this code most likely won't fit your needs but the goal you describe is entirely possible.",
      "time": "2013-04-05T00:16:34",
      "id": "852441502",
      "parentPost": "This is perfect for us, we would send thousands of SMS, can I ask if this can be added in to a IPN system, eg: our own store and button - paypal, IPN our own database - our database checks the email address, if new then send SMS, if not it means customer has ordered before and we don't need to verify him/her,  can this be done? or do we have to use everything including button from you?\nThanks",
      "parentPostTime": "2013-04-02T21:48:51",
      "parentPostId": "849919677"
    },
    {
      "threadId": "1103955984",
      "post": "Thanks for the nod. :)\n\n\nHere's the project/proof of concept from that RESTfest talk:\nhttps://github.com/caseysoftware/web2project-slim\n\nMy only tweak according to what you have above is how we think about Verbs. While Verbs are great, exposing them is a step backwards as we're exposing the implementation.\n\nOur client applications shouldn't need to know creating something is done via a POST.. it should be able to query the API (via OPTIONS?) and determine how a create is done. If it's done via POST (preferably), great.. but once again, that's an implementation detail.\n\nI would prefer to see a semantic-driven vocabulary to describe features/functions an API provides similar. I think Kevin Swiber's work with Actions - https://github.com/kevinswiber/siren#actions-1 - is definitely on the right path but I'd love to see something like Link Relations come in to standardize *some* of the language in play.",
      "time": "2013-03-19T17:31:59",
      "id": "834851088"
    },
    {
      "threadId": "1131144597",
      "post": "(For the others reading this, I'm based in Austin but work for a downtown SF-based (SOMA) startup, so I get a lot of both worlds.)\n\nThe thing that has struck me is not just the top but the bottom and averages. In both places, there is fantastic and growing wealth but at the same time, the poverty we have in Austin pales in comparison to SF.\n\nAlso, I think there's a different perception of *how* we live here. In SF, most seem to acknowledge they'll be there for a while and move on, so there's not a huge sense of responsibility for the area. Alternatively, people are here to build startups *and* lives, so we come together around efforts like wildfire relief and the annual Austin Web Bash when we raise money for the Capital Area Food Bank. People genuinely care.\n\n\n\nIt's hard *not* to fall in love with Austin.",
      "time": "2013-03-17T18:28:16",
      "id": "832699181",
      "parentPost": "That's a great perspective Austin. I'm glad you took the time to share your thoughts and hope you do this again next year after more time in SF. \n\nOne fundamental difference between Austin and Silicon Valley / San Francisco is that Austin is booming in growth mode while the other two are \"peaked\". Sure they might get a little better or worse each year, but they already at the top of their game. \n\nJust last year, Austin took San Francisco's place as the 13th largest city in the country. It's growing and attracting talent... much of it entrepreneurs and engineers from Silicon Valley. California's recent tax changes won't help their case. Whole startups are picking up and moving here too.\n\nThings in life rarely stay the same. Either they are getting bigger or they are getting smaller. Either they are getting better or they are getting worse. I like Austin because it's been getting bigger and better for the past 20 years and shows no sign of slowing down. I want to be in a place that's booming and growing. That creates opportunity. Opportunity to be part of the growth and change - to help shape it.\n\nIt would be hard to argue that Silicon Valley is NOT the overall best place for anyone to start a tech company. However, that doesn't mean it's the best place for ME. Fortunately, we each get to decide for ourselves!",
      "parentPostTime": "2013-03-17T16:48:59",
      "parentPostId": "832610997"
    },
    {
      "threadId": "1135005757",
      "post": "I had the opportunity to meet both Mayor Gray and Deputy Mayor Hoskins while they were in Austin for SXSW. It led to a number of interesting discussions on startups, entrepreneurial concepts, and why I choose to move from the DC area to Austin.\n\n\nIt was refreshing to see that much passion and I'm hesitantly hopeful to see what they do to support - and sometimes get out of the way of - entrepreneurs in DC.",
      "time": "2013-03-13T16:23:09",
      "id": "828055065"
    },
    {
      "threadId": "1121081325",
      "post": "Hi, I have run/organized/sponsored/attended numerous hackathons all over the country with startups, established brands, and every type of group in between.\n\nIn the last year, Microsoft has signed onto no less than four of them, Dell onto two, and even Cisco onto one. Whoever has told you they would not doesn't understand the space very well.\n\nAlso, I have mentored groups at Startup Weekends, Lean Startup Machine, and with various entrepreneur programs around the country.. that is *not* the same as building things for them. In the link you cite, the mentors are described as giving \"personal feedback\" and it says nothing about doing work for them.\n\nWhile I don't know you or your intentions, I will give you the benefit of the doubt that your heart is in the right place.. but I believe you're viewing and treating developers as a cog in the startup machine. It appears that you want a developer to \"just build it\" and walk away.\n\n\nIf you are really looking to \"code for a cause,\" I suggest you look into Random Hacks of Kindness (RHoK) - http://www.rhok.org - or Code for America's civic hackathons. I have personally worked with both organizations at both events (primarily in Austin, TX) and have found them to be great organizations with a fantastic mission.",
      "time": "2013-03-07T04:42:40",
      "id": "821668456",
      "parentPost": "Nashville Entrepreneur Center (EC) is a highly respected non-profit organization that is doing wonderful work in our community. The EC’s mission is to connect Entrepreneurs with Mentors and the Critical Resources they need to accelerate the launch of startup businesses. As an IT professional you are a critical volunteer resource they need. \n \nMany well respected professionals in Nashville routinely volunteer their time, knowledge and talents to mentor and help the start-ups in the EC. The lengthy list can be found here http://entrepreneurcenter.com/mentors .  As an IT professional why would you not do the same? Do we as IT professionals see ourselves in a different light than other Mentors? \n \nThis event is being sponsored by some of the top technology companies in the world, Microsoft, Dell, and Cisco. We would not have their overwhelming support if this was some sort of “hack-a-thon”. Come out and join us for a fun filled weekend of coding competitions and build something that matters.",
      "parentPostTime": "2013-03-07T02:29:28",
      "parentPostId": "821560751"
    },
    {
      "threadId": "1117446845",
      "post": "We also have a Gingerman here in Austin. We do a bunch of tech meetups \nthere. If you find yourself in the area, I'd happily buy you a round or \nthree. :)",
      "time": "2013-03-05T05:07:19",
      "id": "819689570"
    },
    {
      "threadId": "1008202940",
      "post": "I was at a women in technology conference in November and heard this exact same rant from three women who are also friends. It's disappointing because they're all smart and accomplished but they're being demeaned to being a checkbox. :(",
      "time": "2013-01-04T21:20:35",
      "id": "756018890",
      "parentPost": "Are we looking for a diversity of viewpoints or a diversity of reproductive organs? If it's the latter, then this boycott makes sense.  If not, it's marginalizing women to no more than the sum of their body parts.  Give credit where it's due - not where it's fashionable.",
      "parentPostTime": "2013-01-04T18:43:25",
      "parentPostId": "755843114"
    },
    {
      "threadId": "967453621",
      "post": "When I still lived around DC, I used to go to the Compleat Strategist in\n Virginia almost every week. There was a Thursday night Small Press \nNight which was RPG's with print runs of less than a few thousand. Since\n it was only 2-3 Thursdays of any given game, it worked out well.. the \nterrible ones were finished quickly and the good ones were savored and \nnot overdone.",
      "time": "2012-12-10T22:41:04",
      "id": "732737809"
    },
    {
      "threadId": "409629196",
      "post": "Sorry for the delay in getting back to you on this one.\n\nI left the Attribute Name as \"value\" as I'm not really using it. An alternative may have been to call it \"Body\" and then leave off the \"Body\" part of the Url from above.\n\n\n\nI hope that's helpful.",
      "time": "2012-11-01T17:41:30",
      "id": "698010126",
      "parentPost": "What goes in the \"Attribute Name\" box?",
      "parentPostTime": "2012-10-13T22:40:47",
      "parentPostId": "681407851"
    },
    {
      "threadId": "128685531",
      "post": "Thank you for your positive words on web2project.\n\nWe are currently working towards our v3.0 for next month. It has numerous improvements in functionality, speed, and user interface. Please try it and let us know what you think. :)",
      "time": "2012-10-29T05:09:42",
      "id": "695027289"
    },
    {
      "threadId": "857840052",
      "post": "Thanks for the nod. I've been playing with OPTIONS more and more and I really feel like it has interesting possibilities.. as long as we can get some consistency in how it's communicated.\n\n\nThat's the primary reason I worked to get something out there. Even just a strawman is enough to push the conversation forward. I'm happy being wrong as long as it helps someone else get a little closer to being right. ;)\n\n\nFeel free to drop me a note if you'd like to chat further: keith [at] twilio.com",
      "time": "2012-09-30T01:22:43",
      "id": "666606510",
      "parentPost": "Hi Luke,\n\n\nAh, that koolaid can be pretty addictive stuff! :)  Good luck helping to push the state of the art forward. I do look forward to hearing your perspective on if after a few years.\n\n\nBTW, your link to the RESTFest videos caused me to spend all day watching more of them (damn you! :)  Too bad I couldn't attend earlier this month; Greenville is only 2.5 hours away, but client requirements just didn't allow me the time away back then.  \n\n\nHere are two videos I thought were especially interesting if you are taking the full on Hypermedia approach:\n\n\n- Keith Casey of Twilio talks about  OPTIONs - http://vimeo.com/49613738 \n- Matt Bishop of Elastic Path (EP) talks HATEOAS - http://vimeo.com/49609648\n\n\nGood luck!",
      "parentPostTime": "2012-09-27T06:23:03",
      "parentPostId": "664275401"
    },
    {
      "threadId": "859390876",
      "post": "I refuse to give up my ID under any circumstances citing their own policy that you \"have government issued photo ID with you at all times.\"\n\nI point out how putting it on the table or giving it to them is not with me.. they complain and bitch and moan but I ask \"why are you instructing me to break your own policies?\"\n\nThat usually gets them pissed but they relent,",
      "time": "2012-09-27T01:03:31",
      "id": "663931647",
      "parentPost": "The problem is that they have the ability to separate you from your ID, family and things and hold you for HOURS without redress. Speaking truth to power is one thing, but speaking truth to force gets you hurt, or at least out hundreds of dollars, which is why those of us who know how wrong this is are still stuck complying.",
      "parentPostTime": "2012-09-26T08:29:57",
      "parentPostId": "662953361"
    },
    {
      "threadId": "429693505",
      "post": "Jennifer, it looks like it was a momentary blip in the server but was resolved quickly. If you have any questions, feel free to drop me a note at keith [at] twilio.com",
      "time": "2012-03-20T19:23:29",
      "id": "470500688",
      "parentPost": "It seems like this might not exist anymore? Or at least the website is gone.",
      "parentPostTime": "2012-03-16T15:29:27",
      "parentPostId": "466995826"
    },
    {
      "threadId": "592807475",
      "post": "Thanks for the correction & good catch. I've already updated that one across all the samples.\n\nIf you'd like to discuss it further, don't hesitate to drop me a note:  keith @ twilio.com",
      "time": "2012-03-01T19:59:33",
      "id": "453662290",
      "parentPost": "Why is this using http?  Is that not just sending the credentials in plain text?",
      "parentPostTime": "2012-03-01T16:10:44",
      "parentPostId": "453470071"
    },
    {
      "threadId": "595087577",
      "post": "You are correct that it should have been https. As the author of that post and those snippets, it was entirely my oversight. Luckily, someone pinged me with your comment and I've already corrected it in the github repository and in the post.\n\nI have had similar concerns about sending messages in clear text, so my preference would be a voice call. As long as the request itself is https, I don't believe it would appear anywhere in any logs.\n\nAnd thanks again for the correction. If we run into each other at an event, conference, etc, I'm happy to buy you a beverage as a token of thanks.",
      "time": "2012-03-01T19:56:36",
      "id": "453660025"
    },
    {
      "threadId": "593012303",
      "post": "@twitter-14338689:disqus  - I was repping Twilio at LSRC this past year. I was the PHP guy that they forgot to kick out. ;)\nIf you need a hand in the meantime, don't hesitate to drop me a note: keith @ twilio.com. I'm Austin-based and always roaming the countryside.",
      "time": "2012-02-29T04:00:18",
      "id": "451890908",
      "parentPost": "I can't wait for SXSW this year. This will be my first time going and I'll be going with a few of my coworkers who are all \"Social Media\" people while I'm the only developer going. I always usually see Twilio at the Lone Star Ruby Conf in Austin as well (coming down from Fort Worth). I see you have included your number in this post, is it actually cool to call up up during SXSW? I could use someone who knows the in's and out's.",
      "parentPostTime": "2012-02-29T03:40:37",
      "parentPostId": "451877646"
    },
    {
      "threadId": "491133990",
      "post": "Completely agreed with all of this and the DMing a handful of other attendees in advance. Also, get in contact with colleagues that *won't* be there and ask if there's anyone they would recommend meeting. Sometimes they'll even make an introduction for you *before* the event.\n\nI wrote on this one a while back too:\nhttp://caseysoftware.com/blog/so-its-your-first-conference",
      "time": "2011-12-02T19:12:09",
      "id": "377833124"
    },
    {
      "threadId": "461509416",
      "post": "Completely agreed.\n\nOne of the first things I did for web2project was build out a Phing script that could run unit tests, grab specific tags, create change logs, generate php lint checks, and at the very end create the tarball and zip packages for us. Overall, we found it saved about ~20 steps.. but - as you note - it makes the whole process a single command of \"phing package\". It really doesn't get much simpler.\n\n(As an open source project, we don't get to force/apply upgrades for users.)\n\nThe only thing that has reduced stress more is our Unit Tests.",
      "time": "2011-11-04T16:59:18",
      "id": "355833192"
    },
    {
      "threadId": "246520517",
      "post": "That's part of the reason I got active in Open Source in 2001/2. Everything I'd written prior to that was completely proprietary and/or behind the firewall and people just had to believe I could do what I said. Ever since, I've put it front & center on my resume and they've been able to check.\n\nI also add a couple of the community lists so people can see my non-code activities.. Skills are good, but not being a jackass is even better.",
      "time": "2011-03-06T20:58:20",
      "id": "161457742",
      "parentPost": "Two words:  github resume\n\nOpen source is now part of a hacker's reputation.",
      "parentPostTime": "2011-03-06T05:02:15",
      "parentPostId": "161165675"
    },
    {
      "threadId": "168610933",
      "post": "Actually, there already is one through the iCalendar spec:\n\nhttp://en.wikipedia.org/wiki/ICalendar#To-do_.28VTODO.29\n\nIt's not beautiful but it's easy to generate and easy to parse. We're adding support for it in web2project in one of the next couple releases.",
      "time": "2010-11-08T02:14:39",
      "id": "94892513"
    },
    {
      "threadId": "159705862",
      "post": "Glad to be of service. :)",
      "time": "2010-10-22T14:41:53",
      "id": "89106157",
      "parentPost": "Keith Casey might have provided the best advice possible: \"Google before you ask\"",
      "parentPostTime": "2010-10-21T14:18:15",
      "parentPostId": "88796833"
    },
    {
      "threadId": "153382214",
      "post": "Sounds like you mean a high deductible plan like those attached to a Health Savings Account (HSA). I've had an HSA/catastrophic plan since early 2005 and have already been informed of how much it will change in the next couple years. By default, most don't cover all the mandatory things that the \"Reform\" Act requires.. so the coverage (and cost!) is going up significantly. Even worse, the high deductible plans themselves might be wiped out under the new rules.\n\nThe most frustrating things is what coverage I'll be *forced* to have. I personally have to be covered for pregnancy... *not* a spouse, but in case *I* get pregnant.",
      "time": "2010-10-09T19:02:22",
      "id": "85545187",
      "parentPost": "Would love to see MS give their employees a $5k raise and switch to a $5k deductible plan.  They could partner with someone like Cast Light Health to give better pricing transparency.\n\nSo long as health care consumers don't care about price, our economy is doomed.",
      "parentPostTime": "2010-10-09T11:24:57",
      "parentPostId": "85470889"
    },
    {
      "threadId": "146480676",
      "post": "We *did* have health insurance options with things like Health Savings Accounts.\n\nThey were setup so that you get a savings account and catastrophic insurance. The catastrophic insurance covers you in case something terrible happens and even annual checkups but for day to day maintenance and checkups (including meds, cold remedies, etc), you pay from the savings account. You can put about $9k into the savings account each year, it earns interest, and it's 100% *yours*. The idea is that you put in when you're young and draw it out when your older. Yes, just like a 401k.\n\nOf course, the Health Care \"Reform\" has started chipping away at that. As of this month, the things that plans *must* cover have expanded, so it's no longer just catastrophic, it adds quite a few things. As of 01 January 2011, Over the Counter meds (like robitussin) have been classified as \"non health-related\" so you can't pay for those anymore. As of 2012 and 2013, more things fall under mandatory coverage, so it will expand again. And of course, after 2013 if you change states, I'll have to give up my HSA completely because insurance companies can't sell across state lines and moving will close one account and open a new one... which has to meet all the new rules. Grandfathered plans will simply die.\n\nWe *had* a good deal. Washington Democrats killed it.",
      "time": "2010-09-25T15:22:49",
      "id": "80825408"
    },
    {
      "threadId": "146601744",
      "post": "Using \"adoption trends\" feels kind of dirty too.. after all, Mullenweg was actively encouraging current Thesis users to buy other themes, especially Genesis and Headway. In fact, he even *bought* the themes for a bunch of people.",
      "time": "2010-09-25T06:22:56",
      "id": "80728438",
      "parentPost": "Thesis getting snubbed here downgrades the authority of this list. I'd be interested in hearing the justification for leaving it off?   ",
      "parentPostTime": "2010-09-24T21:50:02",
      "parentPostId": "80648888"
    },
    {
      "threadId": "135633714",
      "post": "Finding a bigger audience or not, when you take away a huge swath of features, it alienates your users. Even worse, they just effectively rolled the front end back to what.. 2006? I gave up on Digg years ago when I saw the waves of traffic were as fickle as Slashdot and even the trolls were less entertaining.",
      "time": "2010-08-31T07:07:40",
      "id": "73346478",
      "parentPost": "It's worse than that. They have moved to an all-new infrastructure, built with Cassandra. The old infrastructure was keeping them from changing the site and making it interesting to other users. So, they have -- on purpose -- put in place a new infrastructure that will give them a future with the consequence of pissing off the regulars. Not a fun place to be in, but in a couple of years they would have been pretty dead anyway. Now they have a shot at doing some fun stuff and finding an even bigger audience.",
      "parentPostTime": "2010-08-31T06:38:00",
      "parentPostId": "73338077"
    },
    {
      "threadId": "133538958",
      "post": "It needs to be better thought out than: \"You build it, then I sell it!\" That puts 100% of the risk on the development team and the other guy can walk away at any time with minimal loss.\n\nI've had a number of roles in tech startups including a founder once or twice. Generally, I want to see a full Vision of the product and what the first version *might* look like. Then I want to see some analysis on who the potential customers are. Then I want to see that they've talked to some of the potential customers and get feedback. Then I google/linked in/etc the hell out of them. I see what they've done before (success or not), who of the people I respect also respect them, and what their background is in.\n\nIf I see \"bigger than Facebook/Ebay/Paypal/Craigslist/etc\" even *once* in the first five minutes, I walk away immediately. I understand being grandiose but - just like in real life - that stage should be built towards, not step 1.\n\nMy 0.02.",
      "time": "2010-08-26T15:47:32",
      "id": "72410107",
      "parentPost": "There needs to be a primer on how to approach technical cofounders as a business guy.  Most just screw it up and ruin it for everyone else.  Any suggestions?",
      "parentPostTime": "2010-08-26T14:01:44",
      "parentPostId": "72389373"
    },
    {
      "threadId": "133098922",
      "post": "I agree completely. In fact, that's what our SXSW presentation \"Shattering Secrets with Social Media\" is about - http://panelpicker.sxsw.com/ideas/view/7974 ;)\n\nI spoke with an attorney today about some related concepts and he was stunned about what some competitors had put out there. And he said that once it's published.. well, it's up for grabs.",
      "time": "2010-08-26T03:51:30",
      "id": "72255124"
    },
    {
      "threadId": "130274660",
      "post": "Wow, that is ridiculous all the way around, but glad that it worked out.\n\nWe slept on an air mattress for our first 3-4 days here.. but we have a real bed now (woot).",
      "time": "2010-08-23T19:08:43",
      "id": "70825809"
    },
    {
      "threadId": "128602865",
      "post": "Web2project Team Lead here..\n\nI'm sorry you're running into problems. We use HostMonster for all of web2project's operations itself, so it's more than a little odd. Can you contact me directly with screenshots or copy/paste of the issues you're hitting? I'd love to track down if we made a mistake or if HM is being a pain for some reason.\n\nThanks!",
      "time": "2010-08-22T23:28:19",
      "id": "70657785"
    },
    {
      "threadId": "128649931",
      "post": "What gets me is the lack of boundaries in all this... Automattic is a commercial, venture-backed entity led by Matt, got that. Then there's the WordPress project led by Matt. Then there are the WordCamps that are [not managed.. approved? blessed? allowed?] by the WordPress project. Then there's the WordPress Foundation which is led by Matt and was funded by the money remaining from WordCamp NYC. Then you have specific people that are in different roles in the various organizations... but they all report to Matt in some way, shape, or form.\n\nSo when a decision is made by one of those people - up to and including Matt - they're representing a slew of organizations... at minimum, it seems like a conflict of interest. At worst, if you anger one of those people, it seems that WP-hell is going to open up against you.\n\n\nAnd I hope to meet a number of you at OpenCamp this month. Woot. :)",
      "time": "2010-08-12T03:49:43",
      "id": "68038601",
      "parentPost": "You summed up my concerns succinctly with this statement:\n<blockquote>In my own humble opinion, I question whether the best interest of the community is even coming into any decisions or discussions taking place right now by WordPress.</blockquote>\n\nRight now, all I see is a blind pursuit of ideological purity, confounded with petty vindictiveness. I think Matt is a bigger person than what he is portraying. I think the WordPress project and Automattic deserve for him to be a bigger person than what he is portraying - and need him to be, in order to remain viable, long term.\n\nHe got his way with respect to Thesis. Chris split-GPL the license. So now: just drop it. Don't promote it if you don't want to, but stop the mudslinging.\n\nFor that matter: want to promote 100% GPL WordPress extensions? Great! But stop spreading as proven fact the untested legal theory, put forth by GPL-advocate group SFLC, that Themes and Plugins are inherently derivative of WordPress, and legally must be distributed under GPL.\n\nWant to implement capital_P_dangit on wp.com? Go ahead; it's your WP install. But get that crap out of WP core. Or, don't act indignant when I call you out for failing to respect user freedom by implementing such a user-content filter without notice or permission.\n\nI respect Matt greatly for what he has developed in WordPress, and what he has built as a business. But now is the time for him to start emulating the sober judgement and wisdom required of someone in his position.",
      "parentPostTime": "2010-08-11T21:22:21",
      "parentPostId": "67986858"
    },
    {
      "threadId": "110553956",
      "post": "You just broke my heart.\n\nWould setting this up outside US jurisdiction allow for something like this or would the loss of the (minimal) built-in investor protections kill it? Or would it be taken/interpreted as a place for money laundering?",
      "time": "2010-06-23T13:24:29",
      "id": "58222251"
    },
    {
      "threadId": "109016939",
      "post": "*Fantastic* idea, but don't forget to reach out through your alumni network too. I've run into a few alumni and - especially if they're a few years older - *they're* the ones that suggest to get together for coffee. And most of them actually mean it.\n\nAlumni associations *love* it when alumni interact with other alumni or students.. everyone can win. :)",
      "time": "2010-06-18T13:03:20",
      "id": "57438866"
    },
    {
      "threadId": "77722089",
      "post": "I used to be a core contributor to dotProject a few years back but left to help form web2project - http://web2project.net  If you haven't checked it out yet, you should. We've improved performance by 95%, killed off 100+ bugs, and even added some nifty things like an iCal interface. All my tasks show up on my Google and Thunderbird Calendars now. :)",
      "time": "2010-03-22T21:51:29",
      "id": "41118391"
    },
    {
      "threadId": "76715173",
      "post": "+1 to just about everything here.\n\nOn the tech front, there wasn't much from the Convention Center itself, but if you explored the nearby area and/or talked to the right people, you could track it down. I ended up in some great discussions ranging from neural implants and prosthetic limb control (leading to the Octo-monkey discussion) to innovations in wireless comms in disaster areas to Silverlight/Flash battles to Open Street Map to random things here and there. The 6th floor of the Hilton was a good place for it this year.",
      "time": "2010-03-17T16:10:09",
      "id": "40190289"
    },
    {
      "threadId": "124552666",
      "post": "YOU ARE COMPLETELY WRONG.<br />\n<br />\nNo, I'm kidding.  I completely agree that Patterns and Refactoring shouldn't be in the hands of a newbie.  It takes someone with a bit of understanding and good judgment to make effective use of them without strangling all the usefulness and reasonableness out of code.<br />\n<br />\nLooking back at my post, I never said a n00b should read them... then again, I never said they shouldn't.  So point taken.<br />\n<br />\nThanks for the thoughts.  :)",
      "time": "2009-12-02T23:29:00",
      "id": "65520747"
    },
    {
      "threadId": "32022223",
      "post": "I think a better title would be:\r\n\r\nSmall business that blog have 55% more traffic\r\n\r\nThe title as you have it implies \"45% of small businesses that blog have the same or lower traffic\" and there is no data to support that conclusion.\r\n\r\nMy 0.02",
      "time": "2009-08-31T16:55:31",
      "id": "15656930"
    },
    {
      "threadId": "24611140",
      "post": "Admittedly I've only had In-N-Out Burger once and Five Guys lots of times, but I have to go with Five Guys.  But even then, it goes beyond just the burger... there's the experience.  Ordering, the peanuts, the not-quite-hole-in-the-wall feel in most locations... it makes for a good experience all the way around.",
      "time": "2009-07-08T21:48:46",
      "id": "12335768"
    },
    {
      "threadId": "22268302",
      "post": "Good call Steve.\r\n\r\nI adopted GTD almost two years ago now and I was *not* good at it.  I struggled with it for the first couple months and fell off the wagon a number of times.  It's only about that time that I got into the right mind of \"write it down\"... that nothing counts unless it's either a) done (for 2 minute tasks) or b) on the list.\r\n\r\nAnd once it's on the list - or in the \"later\" file with a date to check in - I've found that I can just happily forget about it.  My rolling calendar will display it for me when the time comes.\r\n\r\nIt's the only way I've retained my little semblance of sanity.  ;)",
      "time": "2009-06-19T14:30:52",
      "id": "11449605"
    },
    {
      "threadId": "20965811",
      "post": "I've been using these concepts for a few years to dig information about competitors.  I even wrote about some of the *early* patterns I discovered along these lines: http://caseysoftware.com/free-tagging/linkedin",
      "time": "2009-06-09T13:13:21",
      "id": "10649160"
    },
    {
      "threadId": "103205349",
      "post": "Or better... stop using it.\n\nTry living on cash.  Take your credit/debit cards and stick them in the freezer and live by the simple rule:\n\n\"If you don't have the cash on you, don't buy it.\"\n\nYou'll find your thoughts on what is important change pretty quickly.",
      "time": "2009-04-13T07:12:00",
      "id": "53393500"
    },
    {
      "threadId": "103792403",
      "post": "Or better... stop using it.\n\nTry living on cash.  Take your credit/debit cards and stick them in the freezer and live by the simple rule:\n\n&quot;If you don&#039;t have the cash on you, don&#039;t buy it.&quot;\n\nYou&#039;ll find your thoughts on what is important change pretty quickly.",
      "time": "2009-04-13T07:12:00",
      "id": "53713352"
    },
    {
      "threadId": "15446050",
      "post": "I use my Twitter handle, but that's partially because I was lucky enough to get it everywhere.  If you want to find me on IM, Skype, Twitter, LinkedIn, or just about anywhere else \"caseysoftware\" works.  Consistency is key.\r\n\r\nI even have it on MSN where I have no contacts.  ;)",
      "time": "2009-04-10T20:51:01",
      "id": "8062361"
    },
    {
      "threadId": "10437782",
      "post": "Kirk,\r\n\r\nThanks for the link and to put it in other terms and yes, you nailed it.  Of course, there's one more thing that you have to do. There's one more thing that brings it all together... stay tuned.  ;)",
      "time": "2009-01-24T15:53:21",
      "id": "5515994"
    },
    {
      "threadId": "8073523",
      "post": "Micah, some great points throughout... I've had a number of opportunities to move from DC to SF and each time, I've declined it.  One of the major things has been the big fish/small pond thing.  In DC, the intensity and amount of chatter is a fraction of SF and that much easier to participate in.",
      "time": "2008-12-08T06:22:36",
      "id": "4244783"
    },
    {
      "threadId": "5570318",
      "post": "Aaron, I agree wholeheartedly.\r\n\r\nIt's when everyone hesitates that we create a self-fulfilling prophecy.  In terms of my own efforts on my new company, I'm hiring two in the next few days and may be able to expand to five fulltime people by the end of the year.  The people, ideas, and money is out there, you just have to be smart enough to put them together.  I hope I am. ;)",
      "time": "2008-10-09T17:15:34",
      "id": "2965489"
    },
    {
      "threadId": "5330259",
      "post": "Ray,\r\n\r\nThanks for sharing your experiences here.  Although I've never had to experience a bankruptcy and can't imagine going through it myself, I feel I have a little more understanding of the process... which sounds downright terrifying.  Anyway, I'm glad to have some \"been there, done that\" people in the community to share their thoughts and experiences.  I sincerely appreciate it.\r\n\r\nSo keep it up!",
      "time": "2008-10-04T18:44:55",
      "id": "2842704"
    },
    {
      "threadId": "4690279",
      "post": "My other issue stands... if the govt pays for it or subsidizes it, you have to plan on them using it for their own purposes.  Or deciding to monitor it when they decide it is worthwhile.  It's a dangerous line to cross.  I'd go for Comcast's bandwidth caps before I allowed my traffic to be monitored by the Feds at their whim.",
      "time": "2008-09-18T17:24:32",
      "id": "2428518"
    },
    {
      "threadId": "4378120",
      "post": "Oh man, you're hanging out with these guys now?\r\n\r\nSeriously though, welcome aboard.  You're one of the handful of people in the DC tech scene who has been there and done that.  I look forward to hearing what you have to say.  :)",
      "time": "2008-09-10T14:17:13",
      "id": "2259612"
    },
    {
      "threadId": "3455519",
      "post": "When I read this one, I was reminded of my own \"Art of the Introduction\" - http://caseysoftware.com/blog/the-art-of-the-introduction - where you have a very limited window of someone's time/attention to give them something of interest/value.  If you don't, people tend to get annoyed and/or write you off pretty quickly.  Not good for any business. ;)",
      "time": "2008-08-21T14:27:09",
      "id": "1716765"
    },
    {
      "threadId": "913774",
      "post": "We need to start a new campaign:  \"Have you punched a hippie today?\"\r\n\r\nI have *huge* admiration for the Rolling Thunder guys.. after the protesters started going after families at funerals, they started forming Honor Guards and keeping the morons out.",
      "time": "2008-05-30T14:22:25",
      "id": "556843"
    }
  ],
  "profileInfo": {
    "username": "caseysoftware",
    "about": "",
    "name": "Keith Casey",
    "disable3rdPartyTrackers": false,
    "isPowerContributor": false,
    "isAnonymous": false,
    "rep": 1.262511,
    "profileUrl": "https://disqus.com/by/caseysoftware/",
    "url": "http://CaseySoftware.com/blog",
    "reputation": 1.262511,
    "location": "Just outside Washington, DC",
    "isPrivate": false,
    "signedUrl": "http://disq.us/?url=http%3A%2F%2FCaseySoftware.com%2Fblog&key=U5d2sgG_axC8rd7M0A3jgw",
    "isPrimary": true,
    "joinedAt": "2008-10-09T17:15:34",
    "id": "117604",
    "avatar": {
      "small": {
        "permalink": "https://disqus.com/api/users/avatars/caseysoftware.jpg",
        "cache": "//a.disquscdn.com/uploads/users/11/7604/avatar32.jpg?1464901007"
      },
      "isCustom": true,
      "permalink": "https://disqus.com/api/users/avatars/caseysoftware.jpg",
      "cache": "//a.disquscdn.com/uploads/users/11/7604/avatar92.jpg?1464901007",
      "large": {
        "permalink": "https://disqus.com/api/users/avatars/caseysoftware.jpg",
        "cache": "//a.disquscdn.com/uploads/users/11/7604/avatar92.jpg?1464901007"
      }
    }
  }
}