{
  "comments": [
    {
      "threadId": "1940287448",
      "post": "Great post. Great model.\n\nThe 4th wave is already here. We algorithmically rank every new startup and then manually review the high-quality ones to decide which ones we want to feature. \n\nI think the 5th wave is the consumerization of VC. It becomes an asset class available to anyone. We are working on it with Invest Online and Syndicates. But we are only 1% of the way there. ",
      "time": "2013-11-25T17:50:17",
      "id": "1138430103"
    },
    {
      "threadId": "1793819633",
      "post": "Thanks for the write-up. We're also being very careful to enable Invest Online only for high-quality companies and warn investors that they will almost certainly lose their money—startup investing is simply risky.",
      "time": "2013-09-24T23:38:10",
      "id": "1057758891"
    },
    {
      "threadId": "1789098019",
      "post": "Thanks for the write-up. I stole your description of Syndicates “Invest in syndicates formed by proven angels” http://angel.co/syndicates (it will go out on the next deploy).",
      "time": "2013-09-24T03:59:06",
      "id": "1056703617"
    },
    {
      "threadId": "1592735485",
      "post": "Simon, This is Nivi from AngelList. Thanks for the feedback. I am sharing this with the rest of the team.",
      "time": "2013-08-15T01:23:00",
      "id": "1001714579",
      "parentPost": "Very interesting.  I recently used AngelList as part of a job search and overall had a pretty good experience.  The few things I did learn:\n\n\n- As you suggest, many roles are stale.  I reached out for info on jobs that had been filled, and many weeks later they still showed as live (in one case I know the person who took the role)\n\n\n- While it's nice to have some transparency into comp/stock, there is often a very large spread, which allows companies to cover themselves.  Can't say I blame them, but it dampens the affect of the transparency when the quoted comp is $70-$125k and stock is 0-2%\n\n\n- I got a pretty good response rate after reaching out to people, and often from the founders themselves who typically look after the AngelList account.  In only one case did I get redirected to a recruiter, and this was largely because the CEO didn't have any idea what would happen when he \"switched on\" the jobs section.",
      "parentPostTime": "2013-08-14T15:58:32",
      "parentPostId": "1000876412"
    },
    {
      "threadId": "1429864274",
      "post": "The # is fine, the issue is with the ? after that. We still haven't been able to replicate how that got in there. But we're working on replicating the bug. In the meantime, the directions above will work. =)",
      "time": "2013-06-24T17:06:22",
      "id": "940471154",
      "parentPost": "Thanks Nivi, I'll take a look at the college hierarchy, and thanks for the fixed links, I'll change them.\n\nI used the \"Link\" option on the top right of the finder page. For example if I go to the finder https://angel.co/finder, enter University of Cambridge as the College and click \"Link\", the URL starts https://angel.co/finder# instead of https://angel.co/finder?",
      "parentPostTime": "2013-06-24T16:15:41",
      "parentPostId": "940381234"
    },
    {
      "threadId": "1131514373",
      "post": "Thanks for the post. By the way, AngelList is just one word. :-)",
      "time": "2013-03-13T00:18:40",
      "id": "827287713"
    },
    {
      "threadId": "1015178406",
      "post": "By the way those $12M and $14M figures are per month. Great article, thank you!",
      "time": "2013-01-09T00:42:59",
      "id": "760610724"
    },
    {
      "threadId": "982870909",
      "post": "Thanks Christina. We've just put up new investing guidelines for new (and old) investors too http://angel.co/investing",
      "time": "2012-12-19T22:59:25",
      "id": "743150027"
    },
    {
      "threadId": "572985922",
      "post": "A couple people have already recommended \"Bargaining for Advantage\" in the comments. Let me pile on: I'm sure you don't have time for more books but it is an absolute must-read. It is like “Getting to Yes” + “Influence”.  I consider myself very lucky to have read this book. Like “Getting More”, it is also by a Wharton professor.",
      "time": "2012-02-12T20:35:18",
      "id": "436986662"
    },
    {
      "threadId": "371501358",
      "post": "Chris, we've released investor reviews on AngelList to accelerate the \"getting to know your VC\" process. It's not a substitute for getting to know your investor, but a tool to expedite the process.\n\nIt's pretty cool: only startups that an investor has invested in, advised, or taken an intro to can review the investor. And all reviews are anonymous so there's no pressure to leave positive reviews.\n\nHere are a few examples:\n\nhttp://angel.co/chrisyeh\nhttp://angel.co/drorberman\nhttp://angel.co/jackherrick\n\nThis is a new feature and we are iterating on it. We've got some cool ideas on how to improve this for both startups and investors. We've got about 1000 reviews of 500 investors so far. Feedback and suggestions would be lovely.",
      "time": "2011-07-29T19:26:28",
      "id": "268908730"
    },
    {
      "threadId": "371772920",
      "post": "Fred, we've released investor reviews on AngelList to accelerate the \"getting to know your VC\" process. It's not a substitute for getting to know your investor, but a tool to expedite the process.\n\nIt's pretty cool: only startups that an investor has invested in, advised, or taken an intro to can review the investor. And all reviews are anonymous so there's no pressure to leave positive reviews.Here are a few examples:\n\nhttp://angel.co/chrisyeh\nhttp://angel.co/drorberman\nhttp://angel.co/jackherrick\nhttp://angel.co/fredwilson =)\n\nThis is a new feature and we are iterating on it. We've got a lot of ideas on how to improve this for both startups and investors. We've got about 1000 reviews of 500 investors so far. Feedback and suggestions would be lovely.",
      "time": "2011-07-29T19:17:52",
      "id": "268903677"
    },
    {
      "threadId": "370776655",
      "post": "You must have a mole at AngelList… we were just talking about this last night. We automatically generate tweets like this:\n\nTrending on AngelList: Wanelo “Unique products and stores curated by users.” http://angel.co/wanelo. Thx @dweekly for referral.\n\nhttp://twitter.com/#!/angellist/status/95990831470739457\n\nAnd we're experimenting with tweets when someone joins a company as an advisor, investor, team member, etc. Thanks for turning this into a short simple meme.",
      "time": "2011-07-28T18:04:10",
      "id": "267847682"
    },
    {
      "threadId": "369090510",
      "post": "Brad, we took a close look at endorsements and decided to nuke it. Should be done today. There's a good idea there but the execution was just so-so. Please let us know if you have any other suggestions.",
      "time": "2011-07-27T19:29:02",
      "id": "266702715",
      "parentPost": "Brad, thanks for the thoughtful post and for being part of the AngelList community since the early days.\n\nThis is very helpful feedback and we're going to take a look at the endorsements feature. I suspect we'll make some changes.\n\nRegarding follows, it's a very useful way to stay up to date on companies (their updates show up in your feed and in a weekly digest). So I say follow the companies you want to follow, don't follow the rest, and ignore the signaling issue.",
      "parentPostTime": "2011-07-26T19:17:48",
      "parentPostId": "265775039"
    },
    {
      "threadId": "338580505",
      "post": "Andrew, I put the slides here if you want them http://www.slideshare.net/venturehacks/anatomy-of-a-unfundable-startup",
      "time": "2011-06-22T17:43:58",
      "id": "232065077"
    },
    {
      "threadId": "243116006",
      "post": "This is extremely well-written and thoughtful, Chris. I want you to know that we don't have an \"AngelList investment philosophy\". AngelList is a community. The community helps you get intros. The startups and investors can do the round however they like. Frankly, I would like to see more startups on AngelList lead by 1-2 lead investors and we just announced one on Monday http://venturehacks.com/articles/taulia.",
      "time": "2011-03-02T04:29:53",
      "id": "158799098"
    },
    {
      "threadId": "241538598",
      "post": "Totally agreed, the AngelList story this weekend was dominated by investors. But it's really all about the startups. Here's about a 50 more reviews of AngelList from the startups that have used it:\n\nhttp://www.quora.com/AngelList/What-do-people-think-of-AngelList",
      "time": "2011-03-01T19:09:58",
      "id": "158397725"
    },
    {
      "threadId": "241648242",
      "post": "AngelList is a work in progress and we're definitely thinking about the issues you brought up. I think you've previously brought up concerns about party rounds and we're starting to address them here:\n\nhttp://venturehacks.com/articles/taulia\n\nBasically, we would love to see more experienced investors lead rounds via AngelList. It's happening. And we're working on it.",
      "time": "2011-02-28T20:55:52",
      "id": "157850675"
    },
    {
      "threadId": "241452879",
      "post": "Hi Micah, Thanks for the feedback.\n\nYou can't get on AngelList as an investor if you don't explicitly tell us you're accredited. An investor could lie but we generally do additional research to figure out if they're real or not. But it's up to the startup and their lawyer to do the final diligence. That's the same whether you use AngelList or not.\n\nThe investors on the site have generally made several investments and indicate how many more they want to do this year and how much they want to invest per startup. It's on every investor profile on the site. There are exceptions, usually for good reason, and we need to figure out the right criteria for accepting investors. Like all products, it's a work in progress.\n\nStartups can select which investors should see their profile http://venturehacks.com/articles/angel-picker and can research investors beforehand and sort them by intros, investments, followers, fund type… here http://angel.co/investors\n\nImproving the \"investor picker\" is on the roadmap. We need a better tool for startups to figure out which investors they should meet.",
      "time": "2011-02-27T19:55:41",
      "id": "157258395"
    },
    {
      "threadId": "240198355",
      "post": "Thanks for the lovely writeup Robert. I know you know this, but you might want to update your post, because the \"you’ll see reports from this site\" sentence might be confusing.\n\nIf you want to publicly discuss any startups raising money on AngelList, please don't mention their connection to AngelList. And please use publicly available information (or get the startup's permission to discuss the info they posted on AngelList.) Basically, we can't have any data leakage from AngelList without the startup's permission.\n\nWe would love to make the site wide open but startups generally don't want that. Welcome aboard as a Scout!",
      "time": "2011-02-25T19:10:58",
      "id": "156060143"
    },
    {
      "threadId": "214046645",
      "post": "Thanks for the very thoughtful analysis of our design David. We're not designers but we try. =)",
      "time": "2011-01-25T03:17:25",
      "id": "134138950"
    },
    {
      "threadId": "208353457",
      "post": "The only rule is there are no rules.",
      "time": "2011-01-13T22:01:22",
      "id": "128817728"
    },
    {
      "threadId": "208224475",
      "post": "A corollary from Michael Lewis: \"By its nature, the Internet undermined anyone whose status depended on a privileged access to information.\" Source: http://j.mp/ePNiVW.",
      "time": "2011-01-13T06:15:52",
      "id": "128535545"
    },
    {
      "threadId": "191705546",
      "post": "Thanks kindly for the post Audrey. We've got a couple more unannounced features on the site as well: (1) comment threads for investors and startups to discuss a startup, with an option to leave anonymous comments and (2) startups can now see how many investors have viewed their pitch. We usually like to test features on the site for a few weeks before we announce them.",
      "time": "2010-12-16T15:49:25",
      "id": "112924326"
    },
    {
      "threadId": "170392457",
      "post": "This is great Scott. Thanks for the kind words.",
      "time": "2010-11-10T19:47:26",
      "id": "96009291"
    },
    {
      "threadId": "140762075",
      "post": "People that reject me are doing me a favor. \n\nThey're not rejecting me or my product. They're rejecting the combination of me and them together.\n\nThey're telling me we would have a bad relationship. And they're probably right.",
      "time": "2010-09-12T19:51:34",
      "id": "77121855"
    },
    {
      "threadId": "121573970",
      "post": "Wow. Thanks for the thoughtful review Fred. You expressed the value proposition a lot better than we do.<br><br>And we'll find you something to invest in soon. Here's an out-of-date list of angels who've invested via AngelList:<br><br><a href=\"http://angel.co/p/angel_testimonials\" rel=\"nofollow\">http://angel.co/p/angel_testimonials</a><br><br>I'm in the process of updating that page right now. It's missing about 20 angels who've invested via AngelList.",
      "time": "2010-07-25T20:41:57",
      "id": "64186003"
    },
    {
      "threadId": "118598550",
      "post": "Thanks kindly for the link to AngelList Mark. We've got a new and improved list up here: http://angel.co",
      "time": "2010-07-16T15:54:47",
      "id": "62542792"
    },
    {
      "threadId": "108594345",
      "post": "You definitely want to tweet important things multiple times. We were in the WSJ. I tweeted it several times. Every time, it was like I had never tweeted it in the first place. The response kept getting bigger. Focus on delivering value to your readers and they won't mind. Complaints just mean they care.",
      "time": "2010-06-25T02:17:43",
      "id": "58541468",
      "parentPost": "Hey, Fred.  I certainly understand where you're coming from. But I see it as more complex than that.  Here are some thoughts:<br>- Twitter is transient. Often people who don't see Tweets miss them forever <br>- So the time zone thing really affects traffic as I outlined in my graphs. I see this every time I post.<br>- I presume if I get the same amount of clicks for the second Tweet (different time zone) people missed the first one and still want to read the story<br>- I know the argument that if the story is interesting it will get picked up in the RTs. Partially true.  But the people who follow me may not be following people who RT<br>- Another argument is that real \"fans\" will follow you on RSS or email newsletter.  Again, partially true. When I blogged in 2005-2007 (before <a href=\"http://Salesforce.com\" rel=\"nofollow\">Salesforce.com</a> made me stop) everybody subscribed to RSS because there was no other good way of following blogs & news. Less people sign up today because many people figure they'll see the interesting articles on Twitter.  So if you started a blog many years ago your RSS count will be much higher than if you start today.<br>- My current practice is 1 Tweet for articles that start to catch fire (say on Hacker News) and 2 for others where I try to drive different time zones so that people don't feel spammed (e.g. 9pm PT when it is 12am ET and those people less likely on Twitter).  <br>- Yes, I avoid Guy's spam process of 3-4 with every Tweet.  I like Guy, but I just can't follow him on Twitter",
      "parentPostTime": "2010-06-18T16:19:02",
      "parentPostId": "57464885"
    },
    {
      "threadId": "107774922",
      "post": "I like Vinod's question: \"How would you compete against yourself?\"",
      "time": "2010-06-15T06:38:16",
      "id": "56782707"
    },
    {
      "threadId": "105630839",
      "post": "Instead of marketing the personality or the brand, market the customers and what they get out of your product. What do you think? I need to learn more about PR. ",
      "time": "2010-06-09T06:25:08",
      "id": "55442422",
      "parentPost": "\"Fuck that\" referring specifically to what?",
      "parentPostTime": "2010-06-09T06:11:17",
      "parentPostId": "55441292"
    },
    {
      "threadId": "105563217",
      "post": "More game theory!\n\n1. What if the insiders say \"please go get a new lead but we're not waiving our pro rata.\" Then what? I've got a couple possible responses but they're not that strong.\n\n2. I don't think it's a mistake to include VCs in your seed round. There are pros and cons and you helped us lay them out on the phone: http://venturehacks.com/articles/vc-seed\n\nI know you care about entrepreneurs and I think entrepreneurs are being hurt by the blanket statement that \"including big VCs in their seed round\" = \"mistake\". I know a couple companies that have read your past post on the topic, thought it was gospel, and soon regretted saying no to VCs because they realized they couldn't get interest from dedicated seed-stage investors.\n\nWhat do you think?",
      "time": "2010-06-09T03:21:17",
      "id": "55417184"
    },
    {
      "threadId": "101720838",
      "post": "Here's another way to think of valuation as an output variable: Valuation is really a reflection of your ability to create a market for your shares. You alluded to this in your post.",
      "time": "2010-05-27T20:38:44",
      "id": "52458991"
    },
    {
      "threadId": "98195240",
      "post": "I also use Skype as an email alternative. Especially for people I communicate with frequently. I tell them not to email me and to IM me on Skype instead. We share files on Skype. We screenshare. We \"go voice\". Skype more-or-less displays a history of our conversation by default so we can always pick up where we left off. \n\nIf Skype figures out how to integrate some Yammer-style technology for groups, they'll own the universe. Skype is great for 1-on-1 but not for groups.\n\nBy the way Skype for Mac has had screen-sharing since Jan 2009 (almost 1.5 years now) and the Windows version has had it since May 2009.  Yes, the Mac version actually came first.\n\nI hope Skype and A16Z re-focus on the product. It's been languishing since the eBay acquisition. ",
      "time": "2010-05-23T01:08:46",
      "id": "51556427"
    },
    {
      "threadId": "94684135",
      "post": "Chris Sacca told me that \"email is a to-do list that other people get to write on.\" Once you look at it that way, you feel a lot better about ignoring a lot of it. There's also so much useful info in blogs now that most \"meet me / give me advice\" emails are obviuosly written by lazy people.",
      "time": "2010-05-12T20:00:19",
      "id": "49957742"
    },
    {
      "threadId": "94763507",
      "post": "I'm looking forward to the Suster bump but my name is Babak Nivi not Nivi Babak. =) Lots of people get it wrong -- it's my fault because I introduce myself as Nivi and everyone calls me Nivi. \n\nIt's interesting that you used the word \"orientation\" in this sentence: \"Since they haven’t focused on things in 6-8 weeks they need some orientation.\" The OODA loop is the canonical example of a feedback loop: Observe-ORIENT-Decide-Act. It was coined by USAF Colonel John Boyd.",
      "time": "2010-05-12T17:32:43",
      "id": "49926278"
    },
    {
      "threadId": "94155324",
      "post": "What's the intro music? It's cool.",
      "time": "2010-05-11T02:57:33",
      "id": "49453421"
    },
    {
      "threadId": "91434002",
      "post": "Thanks for the shout out Tereza. Mass Syndication is a pretty typical fund raising process except you don't wait for a lead investor to emerge.\n\nIf a lead emerges, great. If not, that's fine too because you've been running mass syndication at the same time (telling investor about terms at the end of the meeting, gauging their interest, etc.)\n\nWe've done it several times as have others. It was \"invented\" as a response to the fact that often angels would often want to participate in a financing where there was no clear lead.",
      "time": "2010-05-01T20:44:19",
      "id": "47924900",
      "parentPost": "Venture Hacks has written about a relatively new seed Fundraising technique -- Mass Syndication -- which seems to be what they're coaching the Y-Combinator co's to do.\n\nIt includes writing your own term sheet, using one of the standard ones and based on a very reasonable valuation, and circulating it quickly to a large number of Angels.  You'd just ask each one, In or Out? \n\nReally interested in what Fred and others think about this approach.\n\nThe transparency, speed and pragmatism are very appealing to me.",
      "parentPostTime": "2010-05-01T18:56:23",
      "parentPostId": "47901275"
    },
    {
      "threadId": "91497323",
      "post": "Those bullets are only part of agile -- check out the classic book on Extreme Programming by Kent Beck. You release more often so you can get quicker feedback so you can adjust quicker. You talk more often so you can change your plans more often. The whole point is to change your actions more quickly so you don't drive the car off a cliff.\n\nThe lean startup model supersets agile to include the case where you don't know what you should be building. Previously, agile assumed that there was a guy in the building who knew exactly what should be built.",
      "time": "2010-05-01T20:09:34",
      "id": "47917232",
      "parentPost": "Nivi,\r\n\r\nYour comments are always welcome!  Thank you.  When I think about Agile development (as opposed to the Lean Startup movement) I think about:\r\n- daily standups\r\n- bi-weekly releases\r\n- regular releases\r\n- better, more frequent communications\r\n\r\n\r\nThat said, your comment resonates with me.  I'll follow up with a second post on that topic.  Thanks, again!\r\n",
      "parentPostTime": "2010-05-01T19:46:32",
      "parentPostId": "47912170"
    },
    {
      "threadId": "90802840",
      "post": "We already have 500 new subscribers due to Fred's post and it's only 2pm on the left coast. That's not 500 visits — that's 500 new subscribers who've given us permission to send them email every day. That's the “Wilson” bump. I'll tell you another thing, this daily newsletter is made possible in part because of your investments:\n\n1. The initial links are created in Twitter.\n2. The original version of the email digest was created in FeedBurner (we've moved on since then).\n3. I'm leaving this comment with Disqus.\n\nFWFTW.",
      "time": "2010-04-29T20:53:07",
      "id": "47499730"
    },
    {
      "threadId": "87859706",
      "post": "Wonderful chart. Thanks for the AngelList plug. What's the cramdown rumor? ",
      "time": "2010-04-23T19:25:24",
      "id": "46289700"
    },
    {
      "threadId": "88255226",
      "post": "Thanks for the great interview Howard. It helped us summarize years worth of writing into short answers.",
      "time": "2010-04-22T02:05:01",
      "id": "45912489"
    },
    {
      "threadId": "82524219",
      "post": "Ten toes up. I prefer \"post-national\" to \"beyond-national\".",
      "time": "2010-04-05T01:16:37",
      "id": "43240897"
    },
    {
      "threadId": "82173186",
      "post": "I like how your argument assumes a bet on the team and narrative and not on the current product or specific value proposition.\n\nReminds me of Vinod Khosla's search for a \"$0 billion market (vs. a $0 million dollar market) with a credible path to grow.\"\n\nhttp://www.khoslaventures.com/look.html",
      "time": "2010-04-03T17:26:30",
      "id": "43060843"
    },
    {
      "threadId": "82011064",
      "post": "For example, if a VC is taking a small % in the seed round (say 5%), they're just buying an option no matter what they say. I don't think they'll be very likely to bridge you in case 4 (c) \"you’re doing “ok”\". They're going to be working against your valuation in the next round. You have less signaling problems if you can convince next round investors that the seed VC did 15 seed deals and couldn't really pay attention to them.",
      "time": "2010-04-03T17:16:44",
      "id": "43058818",
      "parentPost": "Brian, I agree.  I think \"signaling\" can be overstated.  That said, it's important for entrepreneurs to understand.  With regard to VC's who invest and then lose interest ... the signaling problem is real and is dangerous.",
      "parentPostTime": "2010-04-03T17:07:04",
      "parentPostId": "43056792"
    },
    {
      "threadId": "81793827",
      "post": "On paper, network effects are a significant barrier to entry but they don't seem to be that useful in reality. Businesses with strong network effects are so valuable that they get attacked from all angles. So if they don't continue to innovate like crazy, they get sidelined.\n\nSome businesses that weren't protected by network effects: Friendster, MySpace, AIM.\n\nToday's network effect business that will get sidelined if they don't continue to innovate: Skype, Facebook, Twitter.",
      "time": "2010-04-02T20:36:51",
      "id": "42914204"
    },
    {
      "threadId": "76891019",
      "post": "I want to see how you respond to this normative argument.\n\nI agree that \"in 2010 great business can be built anywhere if there is a great team and the will to make it work.\" \n\nBut in your post, \"What Makes an Entrepreneur? Cojones\", you wrote \"But to me if you’re not willing to quit and take a risk on yourself, then you’re not confident enough in your own idea and skills. Why should I be?\"\n\nSo why don't I argue that unless you have a really good reason to stay where you are, you're not serious about your startup unless you move to the Valley.",
      "time": "2010-03-18T04:35:26",
      "id": "40274021"
    },
    {
      "threadId": "74138658",
      "post": "Tony, Thanks for the mentions... that's very kind. We actually just mentioned you in a soon-to-be-released interview on How to Close an Angel Round.",
      "time": "2010-03-09T21:14:19",
      "id": "38728003"
    },
    {
      "threadId": "70493877",
      "post": "I love the rise of the \"incubators\". Paul Graham perfected it and TechStars is probably doing the best job of scaling it. Before Paul, everyone thought \"incubators\" would never work.\n\nWe've built a couple products to attack your first point: \"1. Most everyone outside of the valley complains that they can’t get access to enough capital.\"\n\n1. AngelList is a curated list of early-stage investors and how to get in touch with them: http://venturehacks.com/angellist\n\n2. StartupList is a new way to get intros to these angels: fill in a firm and, if the pitch is good, we'll introduce you to the angels: http://venturehacks.com/startuplist",
      "time": "2010-03-01T17:43:53",
      "id": "37480396"
    },
    {
      "threadId": "63117817",
      "post": "Put the visuals in the slide and the meat in the notes. Then create a PDF that has the slides and notes like this: http://venturehacks.com/articles/format-deck",
      "time": "2010-02-02T06:17:50",
      "id": "32354548"
    },
    {
      "threadId": "63117334",
      "post": "Let's not just pick on the MBAs. Almost all of your time in college is a big waste of time for everyone, including me.",
      "time": "2010-02-02T04:55:12",
      "id": "32349511"
    },
    {
      "threadId": "60410160",
      "post": "Here's my dummy's guide to what I look for in a lawyer:\n\n1. Very few mistakes.\n2. Work gets done really fast.\n3. Refined email and verbal communicator.\n4. Tells me about legal and business things I didn't think about. (Comes up with a tax-saving idea out of nowhere.)\n\nWe also have a lawyer list on Venture Hacks: http://venturehacks.com/articles/social-lawyers (also see the awesome comments). I'm updating that post to include a link to your list here and True's list.",
      "time": "2010-01-22T01:09:13",
      "id": "30753465"
    },
    {
      "threadId": "59739461",
      "post": "After successfully pitching Sequoia a bunch of times and sitting in on many partner's meetings at Bessemer, I've developed a hypothesis that the smarter firms don't ask many questions. They mostly let the entrepreneur sink or swim on his own.",
      "time": "2010-01-20T07:40:59",
      "id": "30457885"
    },
    {
      "threadId": "58936771",
      "post": "It depends on your relationship with the angel.\n\nIf you're already buddies with the angel, start talking early. Reserve this for angels who will meet with you once-a-month no matter what you're up to.\n\nIf you're not buddies and you have a monster intro ,you could still try to do angel development. Otherwise, wait to play the momentum game.\n\nEither way, send your pitch to AngelList: http://venturehacks.wufoo.com/forms/x7x3p9",
      "time": "2010-01-20T04:01:45",
      "id": "30445822"
    },
    {
      "threadId": "58037995",
      "post": "The lean startup conflagration reminds me of this quote: “Sparse rain, dry woods, badly equipped fire departments. If these conditions exist, any old match will do.” Even better when the match isn't any old match — it's Eric.",
      "time": "2010-01-12T23:27:35",
      "id": "29552391"
    },
    {
      "threadId": "55457787",
      "post": "Remember when Eric Schmidt called Twitter a \"poor man's email?\" Innovators know that's a compliment.",
      "time": "2010-01-03T23:53:06",
      "id": "27936103"
    },
    {
      "threadId": "54772720",
      "post": "Do you think that \"dominate or commoditize\" thinking really drives product commitment at Google? Or is it an ex post facto rationalization or a useful model for an outsider?\n\nHere's another explanation for Google's behavior: \"We're making a lot of money on ads, let's milk that and run as many cheap experiments as we can to see if we can create a second line of business.\" Does this model also fit the facts as well as the \"dominate or commoditize\" model?\n\nOn a related topic, I wish more people knew about Christensen's theory of standardized interfaces: http://j.mp/5JYxyO. It's a useful model for thinking about the Web's constant attempts to propogate new standards.",
      "time": "2009-12-30T20:00:34",
      "id": "27576742"
    },
    {
      "threadId": "54657247",
      "post": "\"To see what is in front of one's nose needs a constant struggle.\" – George Orwell, http://bit.ly/EKOGy",
      "time": "2009-12-30T04:48:36",
      "id": "27528965"
    },
    {
      "threadId": "54363851",
      "post": "Awesome. If I had to stuff my response in a tweet, I would say, \"As much as possible while keeping your dilution under 20%, preferably under 15%, and, even better, under 10%.\" I think this advice makes even more sense for founders who aren't experienced \"developing and executing operating plans.\" What do you think?",
      "time": "2009-12-28T23:47:55",
      "id": "27422406"
    },
    {
      "threadId": "52312092",
      "post": "Re \"Get Your House in Order\", how often do you seem angels (or their lawyers) dig into company's docs?",
      "time": "2009-12-24T01:12:20",
      "id": "27121734"
    },
    {
      "threadId": "46392956",
      "post": "Read Hidden Value and The Human Equation:\n\nhttp://venturehacks.com/articles/ordinary-people\nhttp://venturehacks.com/articles/human-equation\n\nJust do it.",
      "time": "2009-12-17T08:33:57",
      "id": "26036429"
    },
    {
      "threadId": "51611634",
      "post": "All exponential curves look \"flat\" for a while if you zoom out enough:\n\nhttp://en.wikipedia.org/wiki/Exponential_growth",
      "time": "2009-12-16T01:09:41",
      "id": "25912132"
    },
    {
      "threadId": "49050181",
      "post": "Great post.\n\nI would counsel founders to focus on maximizing the value of their ownership instead of maximizing their % ownership. Owning 90% is one way to potentially maximize the value of your ownership. So is owning 50%.\n\nI wonder what would happen if we asked founders who have had good exits whether their co-founders were an irreplaceable component of their success.",
      "time": "2009-12-01T17:32:55",
      "id": "24443441"
    },
    {
      "threadId": "47012769",
      "post": "Also, when it comes to body language, the saying \"Act the part, be the part\" holds. Body language exhibits effect-and-cause. Fake an effect and the cause will happen. People will treat you better if you have better body language so you'll feel better. Even without that, your limbic system will make you feel more confident when you fake the body language.",
      "time": "2009-11-22T00:04:55",
      "id": "23759134"
    },
    {
      "threadId": "45141633",
      "post": "In Predictably Irrational, Dan Ariely discusses experiments that back you up. If you tell people about your cons after they already like you, they don't care about your cons as much. Check out the beer/vinegar experiment in the book.",
      "time": "2009-11-12T22:51:19",
      "id": "22862990"
    },
    {
      "threadId": "42556327",
      "post": "\"There is more to life than increasing its speed.\" – Gandhi",
      "time": "2009-11-01T18:31:51",
      "id": "21540406"
    },
    {
      "threadId": "41552489",
      "post": "We usually tell very early stage companies with no product, traction, or track record to look for:\n\n1.  Family and Relationship Investors: People who already know you and are willing to bet on you, based on your history together.\n\n2. Idea Investors: People who believe there’s a big opportunity to serve the customer because they understand the customer as well as you do.\n\n3. Once Removed Investors: These investors trust or regularly co-invest with the investors above.\n\nOnce you get some traction, start talking to dedicated seed stage funds, multi-stage investors who do a lot of seed stage investments, angels, angel groups, etc. You can also jump straight to this set of investors if you have a significant track record or a mind-blowing product (you probably don't).\n\nMore details here: http://venturehacks.com/articles/idea-investors",
      "time": "2009-10-24T19:13:34",
      "id": "20940623"
    },
    {
      "threadId": "40661237",
      "post": "Chris,\n\n1. Why even create a new category? Entrepreneurs love to talk about new markets. Investors love to hear about them. This is a common entrepreneurial psychosis. You might do better by positioning the same product in an existing market. See Steve Blank's writings on market type: http://j.mp/zNFOj.\n\n2. How do your customers describe Hunch? Your description of Hunch is a list of features. We can do better than \"Beating the drum over and over again until the message gets through.\" Users are a good source for positioning information. Even Steve Jobs does it this way: http://j.mp/2JXuv6.\n\nWhat do you think?",
      "time": "2009-10-20T19:58:23",
      "id": "20646702"
    },
    {
      "threadId": "38462462",
      "post": "Thanks Fred. I just gave. This is what convinced me: \"This is one of the ways I get 'paid' for showing up here every day.\"\n\nJeff Fagnan at Atlas Venture is also throwing a charity wine party in Boston. Last year, they raised $40K for http://www.build.org. I'm sure he would appreciate it if you tweeted the word out. More info here: http://j.mp/hBqOQ.",
      "time": "2009-10-08T19:50:48",
      "id": "19600329"
    },
    {
      "threadId": "17558994",
      "post": "This is a wonderful article but I think the idea that capital flow predicts the attractiveness of returns is simply wrong. Isn't value investing based on the assumption that the \"market answer\" is wrong?",
      "time": "2009-05-08T02:04:16",
      "id": "9115314"
    },
    {
      "threadId": "17399836",
      "post": "Thanks for a great interview Andrew.\r\n\r\n1. I think another reason people go into stealth-mode is \"Apple Envy.\" The idea that we know the problem, know the solution, and we should release a perfectly polished jewel that solves the problem for a lot of people.\r\n\r\nStealth mode may make sense for teams that (1) already have deep domain expertise (they know the problem) and (2) are creating a solution for an existing market (a faster, better product) where the competitors are likely adapt quickly. But that's a guess.\r\n\r\n2. The take-away from the naming story is that while you're experimenting on a micro-scale, your name doesn't matter. You can experiment with some customers, throw away the product, throw away the customers, get a new name, and start over very quickly and cheaply. Disposable names and micro-scale experimentation go hand-in-hand. Names matter when you are doing a marketing launch and you are positioning your brand to lots of people.",
      "time": "2009-05-06T21:28:12",
      "id": "9070739"
    },
    {
      "threadId": "14273427",
      "post": "Re: \"Not all of us are complicit in the making of this mess but certainly a lot of us are.\"\r\n\r\nI think every American is responsible. Including this one. That's what it means to live in a democracy.",
      "time": "2009-03-24T16:43:52",
      "id": "7470367"
    },
    {
      "threadId": "13491275",
      "post": "My favorite quote about the future: \"The best way to predict the future is to create it.\" – Peter Drucker, http://bit.ly/a2sI",
      "time": "2009-03-12T19:46:38",
      "id": "7150356"
    },
    {
      "threadId": "13023409",
      "post": "Clay Christensen would say \"poor man's email\" is a compliment to Twitter. See http://hbswk.hbs.edu/item/3374.html",
      "time": "2009-03-04T17:55:30",
      "id": "6875345"
    },
    {
      "threadId": "12682683",
      "post": "Thanks for the link Gabe!",
      "time": "2009-02-27T04:25:12",
      "id": "6678682"
    },
    {
      "threadId": "11863344",
      "post": "I think you will like this quote from Paul Graham: \"Startup ideas are not million dollar ideas, and here's an experiment you can try to prove it: just try to sell one.\" \r\n\r\nFrom http://www.paulgraham.com/ideas.html.",
      "time": "2009-02-16T23:16:08",
      "id": "6315834"
    },
    {
      "threadId": "44397493",
      "post": "Oops, I was referring to that snippet that you posted on your blog—not Brad's whole post. I mean it in a positive way, I hope it didn't come off in a negative way. \r\n\r\nRegarding the word arbitrage, Thomas Donaldson from Wharton says, \"Schumpeter said the world never stops long enough for a perfect market to develop.\" And that's the opportunity that USV takes advantage of.",
      "time": "2009-01-31T20:34:49",
      "id": "5732845",
      "parentPost": "Does it really come off that way Nivi?",
      "parentPostTime": "2009-01-31T12:22:08",
      "parentPostId": "5724611"
    },
    {
      "threadId": "9992129",
      "post": "Most people write posts like \"You should do X.\" I often make this mistake.\r\n\r\nI love how your post is more like \"Under these conditions do X, under these conditions do Y, …\"\r\n\r\nThis kind of meta-thinking is all too often missing from our conversations.",
      "time": "2009-01-16T20:44:33",
      "id": "5183115"
    },
    {
      "threadId": "9729080",
      "post": "Some suggestions for clarification:\r\n\r\n* Tax upon spread: Is there ordinary income taxation in the case of an ISO? Is there AMT liability in the case of an NSO?\r\n\r\n* \"Back door\" public company: How does this effect my decision to exercise my shares early in either the NSO or ISO case? How does this effect the company's decision to offer early exercise in either the NSO or ISO case?\r\n\r\n* Administrative hassles: What do you mean by \"unvested shares must be kept by the company\"? Do holders of exercised but unvested stock also have more voting rights than holders of unexercised but vested options? Does exercised but unvested stock have the same voting rights as exercised vested stock?",
      "time": "2009-01-11T20:50:35",
      "id": "5060958"
    },
    {
      "threadId": "9255032",
      "post": "Software developers have a heuristic they call a code smell. It's a symptom or hint of an underlying problem.\r\n\r\nIn your post, I think deleting forums and knowledge is a smell. It's an indication that something is awfully wrong in the underlying educational system.",
      "time": "2009-01-07T01:38:31",
      "id": "4944447"
    },
    {
      "threadId": "9160279",
      "post": "I think you will like Ackoff's definition of systems. Start here: http://bit.ly/B2lW\r\n\r\nA system can do something that none of its components can do. The capability of the system exceeds the capability of its components. This is a slightly more precise version of \"the whole is greater than the sum of its parts\". \r\n\r\nThe unique value of a system is in the interaction of the components. None of the components alone have this unique value. No sub-system of components has this unique value. Only the system does.\r\n\r\nEssentially, a system is only its interactions. FriendFeed is an example of an interaction.\r\n\r\nThis implies that we can't understand a system by analysis (breaking it into its parts). We can only understand systems through synthesis (putting the parts together and observing the system in its super-system, i.e. its environment).",
      "time": "2008-12-31T06:51:28",
      "id": "4793534"
    },
    {
      "threadId": "9095395",
      "post": "I agree with John Honovich above. At the same time, I'm looking forward to the new blog. Anything that gets you blogging again is good. =)",
      "time": "2008-12-30T06:07:12",
      "id": "4739801"
    },
    {
      "threadId": "8177308",
      "post": "Valuations are down because investors want them to be down. Because, really, what else could it possibly be?",
      "time": "2008-12-10T08:34:53",
      "id": "4306043"
    },
    {
      "threadId": "4901276",
      "post": "Hi there, this is Nivi from Venture Hacks. Thanks for leaving a great comment on Venture Hacks. I'm enjoying your blog... write more about lean! =)",
      "time": "2008-12-02T05:15:34",
      "id": "4122034"
    },
    {
      "threadId": "7544915",
      "post": "That's an interesting idea that I will think about.\r\n\r\nConventionally, hardware isn't the typical source of inventory in software development. \r\n\r\nInventory is anything that isn't being pulled by something further up the line. In software development, inventory is features that can’t ship because they’re buggy. Code that isn’t in customer hands. Architectures that aren’t coded. Requirements that aren’t coded, shipped, and useful. Most to-do lists.\r\n\r\nHere are some resources to learn more about lean thinking in software development:\r\n\r\n<a href=\"http://www.amazon.com/gp/product/0321437381?ie=UTF8&tag=httpventureco-20&linkCode=as2&camp=1789&creative=390957&creativeASIN=0321437381\">Implementing Lean Software Development</a>\r\n\r\nhttp://venturehacks.com/topics/lean\r\n\r\nhttp://startuplessonslearned.blogspot.com/search/label/agile\r\n\r\nLet me know what you think and I'm looking forward to reading the rest of your series.",
      "time": "2008-11-25T21:55:45",
      "id": "4012970"
    },
    {
      "threadId": "7092700",
      "post": "Tony, I will second Andrew's suggestion to read <a href=\"http://www.amazon.com/gp/product/0976470705?ie=UTF8&tag=httpventureco-20&linkCode=as2&camp=1789&creative=390957&creativeASIN=0976470705\">Four Steps to the Epiphany</a>.\r\n\r\nHere's an <a href=\"http://venturehacks.com/articles/customer-development\">intro from Venture Hacks</a>.",
      "time": "2008-11-15T22:29:54",
      "id": "3794156",
      "parentPost": "Hrm.  This certainly seems like the traditional way to do it, actually-- though I'm not convinced it's the best way.  It's the marketing version of \"waterfall development\" - go get your specifications and then build to it, rather than going agile and getting into the build/iterate product cycle...\r\n\r\nI think the best market research is throwing an early version of a product at users.  Market research can yield from pretty interesting/valuable information, but I'm not sure that it can create a recipe for a good product.  I watched Jobster (my previous employer) spend tons of time getting smart about the market, but they have yet to build a product that excites their market.\r\n\r\nI guess it depends on how expensive (in time and cash) it is to get your v1 in front of potential customers...  Most web/software apps are fairly trivial in terms of the time necessary to build a prototype nowadays.   I always tend to focus on ideas with high tractability (which I wrote about here: http://sahuguet.wordpress.com/2007/12/20/tony-wright-dot-com-%C2%BB-evaluating-new-product-ideas-focus-on-tractability/ )",
      "parentPostTime": "2008-11-15T22:03:55",
      "parentPostId": "3793974"
    },
    {
      "threadId": "6543292",
      "post": "Grockit is actually peer-produced, if that's what you mean by \"napster of education\".\r\n\r\nI included a link to the Ackoff article in the comment but it might not show up if you're reading your comments on your phone/email. The article is here: http://knowledge.wharton.upenn.edu/article.cfm?articleid=2032",
      "time": "2008-11-03T03:04:00",
      "id": "3450026",
      "parentPost": "Yes, I was in Ackoff's class. It was one of the highlights of my two years\r\nat Wharton\r\n\r\nI'll go find that article. Sounds great\r\n\r\nWe've talked about grokit before\r\n\r\nI don't really like investing in the test prep ecosystem\r\n\r\nI'd like to do to standardized testing what napster did to the music biz",
      "parentPostTime": "2008-11-02T19:25:13",
      "parentPostId": "3445644"
    },
    {
      "threadId": "6304668",
      "post": " Wow. Thanks!\r\n\r\nA couple questions:\r\n\r\n1. Do you think any startup that is laying off less than 33% of its team is really doing a layoff? Or are they just getting rid of the deadwood? 33% layoffs give you a 50% increase in runway (assuming most of the burn is from headcount and everybody has the same salary.) Anything less than a 50% increase in runway seems too small. What do you think?\r\n\r\n2. Is this matrix equally worthwhile in \"good times\"? Your post focuses on extending runway through revenue and internal investors. In good times, you would add external investors to the list, but I think the matrix is equally worthwhile.",
      "time": "2008-10-27T19:07:45",
      "id": "3329007"
    },
    {
      "threadId": "5796583",
      "post": "More links to blogs like Eric Ries and Dan Cook!",
      "time": "2008-10-15T06:22:26",
      "id": "3060882"
    },
    {
      "threadId": "4695503",
      "post": "“You can’t be normal and expect abnormal returns.” – Jeffrey Pfeffer, The Human Equation",
      "time": "2008-09-19T09:05:56",
      "id": "2438827"
    },
    {
      "threadId": "2439458",
      "post": "I enjoyed the article (as always).\n\n<a href=\"http://books.google.com/books?id=pXbBSVsl3_IC&pg=PA279&dq=%22of+course+innovation+is+risky%22&ei=ssI8SNHDNZLKsQOw7PC4Cw&sig=66mqcLCHTMifTl6xBU5ZoijBgSI\">Peter Drucker writes</a>, \"Successful innovators are conservative. They have to be. They are not 'risk-focused'; they are 'opportunity-focused.'\"\n\nI think there is too much focus on the idea of risk in startups. There is too little attention to the idea of opportunity in startups. \n\nNobody wants to \"take a lot of risk\". They want to take a lot of opportunity.",
      "time": "2008-05-28T02:29:45",
      "id": "539419"
    },
    {
      "threadId": "757873",
      "post": "Great article. Please keep the negotiation articles coming. My favorite negotiation book, \"Bargaining for Advantage\" has a lot of discussion on negotiating in situations where you have to work with your opponent after the negotiation.\r\n\r\nQuestion: Is \"the end goal of the negotiation... a partnership\" or is that actually a requirement that is imposed by the market? I think many entrepreneurs would be happy to skip the partnership and take the money. ",
      "time": "2008-05-19T22:11:56",
      "id": "493144"
    },
    {
      "threadId": "281011",
      "post": "I prefer founders that are ussianic over founders that are messianic. =)",
      "time": "2008-03-21T08:06:24",
      "id": "250964"
    },
    {
      "threadId": "320104",
      "post": "Thanks Bijan. Very cool profile. =)\r\n\r\nHere's the team behind the project: http://venturehacks.com/venturehacks",
      "time": "2008-03-21T05:56:43",
      "id": "250842"
    },
    {
      "threadId": "68675",
      "post": "\"One never learns from doing things right because, obviously, one already knows how to do it.  What one derives from doing something right is confirmation of what one already knows.  This has value, but it is not learning.  One can only learn from mistakes, by identifying and correcting them.  But all through school and in most places of employment we are taught that making mistakes is a bad thing. Therefore, we try to hide or deny those we make.  To the extent we succeed, we preclude learning.\" – Russell Ackoff, http://tinyurl.com/ytb4q6\r\n\r\n“All through school, from kindergarten up, you were taught that mistakes are a bad thing. You were downgraded for the mistakes that you made.\r\n\r\n\"It is perfectly apparent from what [schools] do in examinations where errors are identified, [that] education is not about learning. It is about grading. Because if they were interested in learning, they would give you the same examination back a week later, to see if you had corrected your mistakes. But they’re not interested in that, they’re interested in giving you a grade.\r\n\r\n\"So it is impressed on you, mistakes are a bad thing.\" – Russell Ackoff, http://www.nivi.com/blog/article/education-is-about-grading-not-learning\r\n\r\nAckoff talks about making mistakes in large organizations... I like the society angle you bring up... i.e. making mistakes in societies. Which takes us back to Ackoff who is all about examining the larger system through synthesis rather than simply examining the smaller system through analysis.\r\nAlso good: http://tinyurl.com/2htbwz",
      "time": "2007-12-14T19:00:37",
      "id": "35414"
    },
    {
      "threadId": "62082",
      "post": "“During the Renaissance, when everything, including life itself, was subjected to analysis, life itself was disassembled into what were considered fundamental but independent activities: work, play, learning, and inspiration.\r\n\r\nInstitutions were created in which each aactivity could be carried out independently. Factories were designed for work, not play, learning, or inspiration. Theaters and arenas were designed for play, not work, learning, or inspiration. Schools were designed for learning, not work, play, or inspiration. Museums and churches were designed to provide inspiration, not for work, play, or learning.\r\n\r\nHowever, the transformation to systemic thinking has brought with it a growing awareness of the fact that the effectiveness with which any of these activities can be carried out depends on the extent to which they are integrated. Therefore, it has become apparent that a transformational leader must be able to integrate the various aspects of life in order to effectively pursue development. The transformational leader is one who can create an organization that reunifies life, who integrates work, play, learning, and inspiration.”\r\n\r\n– Russell Ackoff, http://tinyurl.com/399oxw",
      "time": "2007-12-10T06:26:26",
      "id": "30940"
    },
    {
      "threadId": "52492",
      "post": "You might like this special issue of the Journal of Computer-Mediated Communication on social networks: http://jcmc.indiana.edu/vol13/issue1/index.html\r\n\r\nI've been skimming it and it seems interesting.",
      "time": "2007-12-10T06:05:19",
      "id": "30931"
    },
    {
      "threadId": "33370",
      "post": "Re \"The subject of the debate is more important than the content.\" \r\n\r\nI think this is called Availability Bias: http://www.nivi.com/blog/article/cognitive-biases",
      "time": "2007-11-20T04:54:38",
      "id": "15883"
    },
    {
      "threadId": "33375",
      "post": "Here's the \"Xobni of del.icio.us\": http://pascal.vanhecke.info/2005/10/04/top-sources-of-delicious-links",
      "time": "2007-11-20T00:52:58",
      "id": "15787"
    },
    {
      "threadId": "7199",
      "post": "Drew, \r\n\r\nYour followers would not have been particularly worthwhile, with respect to your financing, if you never found a lead. The best thing they can do, with respect to your financing, is introduce you to other investors.\r\n\r\nConfidence and social proof can backfire if you never find a lead: \"These guys made it seem like they had a deal done but they never got it done.\"",
      "time": "2007-10-30T02:51:12",
      "id": "6549",
      "parentPost": "I'm curious about the claim that 'follower' investors are worthless. Certainly, you need a lead to get things done. But many investors we talked to (particularly individual angels), for example, were enthusiastic about our idea but didn't want to deal with the hassle of the lead investor tasks you listed above. They would rather let someone else handle the more mundane details and haggling and red tape and provide more specialized help, e.g. product help, intros, partnerships, or whatever particular value add that angel brings. And having several people say they were in for 25k, 50k, 100k gave us confidence, social proof (not for name dropping but just to say there were many parties interested), etc.",
      "parentPostTime": "2007-10-30T01:54:55",
      "parentPostId": "6542"
    },
    {
      "threadId": "6877",
      "post": "Good stuff!\r\n\r\nI don't think you can \"just code something\" in the Valley and get someone to bet on your idea. For starters, there are so many startups in the Bay Area that the bar to get funded is fairly high. :-)\r\n\r\nNivi\r\nhttp://venturehacks.com",
      "time": "2007-10-25T04:26:54",
      "id": "6130"
    },
    {
      "threadId": "5286",
      "post": "Fred, \r\n\r\nIncreasing your ownership over time incents you to drive down the company's valuation at each financing.\r\n\r\nHow do you manage that?\r\n\r\nDo you think starting with a low percentage and increasing it over time is still a net win for the entrepreneur?",
      "time": "2007-10-04T13:22:08",
      "id": "4214"
    }
  ],
  "profileInfo": {
    "username": "bnivi",
    "about": "Venture Hacker",
    "name": "nivi",
    "disable3rdPartyTrackers": false,
    "isPowerContributor": false,
    "isAnonymous": false,
    "rep": 1.939747,
    "profileUrl": "https://disqus.com/by/bnivi/",
    "url": "http://venturehacks.com",
    "reputation": 1.939747,
    "location": "San Francisco",
    "isPrivate": false,
    "signedUrl": "http://disq.us/?url=http%3A%2F%2Fventurehacks.com&key=bDmpjOFyO6hzQBNaufIj7A",
    "isPrimary": true,
    "joinedAt": "2007-10-04T13:23:09",
    "id": "521",
    "avatar": {
      "small": {
        "permalink": "https://disqus.com/api/users/avatars/bnivi.jpg",
        "cache": "//a.disquscdn.com/uploads/users/521/avatar32.jpg?1281549414"
      },
      "isCustom": true,
      "permalink": "https://disqus.com/api/users/avatars/bnivi.jpg",
      "cache": "//a.disquscdn.com/uploads/users/521/avatar92.jpg?1281549414",
      "large": {
        "permalink": "https://disqus.com/api/users/avatars/bnivi.jpg",
        "cache": "//a.disquscdn.com/uploads/users/521/avatar92.jpg?1281549414"
      }
    }
  }
}