{
  "comments": [
    {
      "threadId": "957790120",
      "post": "The sale has made me a bit nervous, I am just a domain/hosting customer but still. It's a bit of tedious work to move again. All said I was always happy with the service and support. I liked to support local too. I hope to remain a customer. \n\nFor the future I will say, don't expect to have everything polished for the start. In fact I think you shouldn't. Sure you've got some experience now but even over a period of a few moths that could be vastly different from what it looked like with Orpheum. Also I think the people you really want as customers will be lenient of the hiccups as you work to constantly improve!",
      "time": "2012-12-04T14:46:40",
      "id": "727187410"
    },
    {
      "threadId": "953429953",
      "post": "Thanks Sean!",
      "time": "2012-12-02T03:36:44",
      "id": "725211021",
      "parentPost": "You Rawk Bill.",
      "parentPostTime": "2012-12-02T03:21:25",
      "parentPostId": "725202953"
    },
    {
      "threadId": "594919099",
      "post": "Looking good man!!",
      "time": "2012-03-01T15:16:54",
      "id": "453427248"
    },
    {
      "threadId": "591016421",
      "post": "I don't even have a scheduled run today but I HAVE to!!\n\n--\nbd",
      "time": "2012-02-27T14:58:25",
      "id": "449923245",
      "parentPost": "Really looking forward to your review of this one. ",
      "parentPostTime": "2012-02-27T14:36:20",
      "parentPostId": "449910807"
    },
    {
      "threadId": "578305422",
      "post": "Dude! I know how hard that is. I was there a year ago!",
      "time": "2012-02-16T13:52:27",
      "id": "440852202"
    },
    {
      "threadId": "577351244",
      "post": "Nice!\n\n--\nbd",
      "time": "2012-02-15T19:16:20",
      "id": "440028372",
      "parentPost": "Hopefully I can pic up a h2 by then. ",
      "parentPostTime": "2012-02-15T19:07:35",
      "parentPostId": "440017654"
    },
    {
      "threadId": "568795284",
      "post": "Glen,\n\nThanks for the follow up. I don't always agree with your views but I love that your out there doing what you are. Would love to see more links in your posts, it is the point of the web! \nI don't agree that turning off comments is the solution to the problem. Sometimes it is but, I think as a very last resort. Have you tried, or thought about, turing on moderation? Yes, it REALLY sucks that folks, trolls, are out there ruining it for the rest of us who can civilly disagree and go on with life! \n--\nbd",
      "time": "2012-02-09T16:28:30",
      "id": "434106819",
      "parentPost": "The economist is Mike Moffat, from the Ivey School, who I have mentioned in previous blogs and wrote about in the London Free Press last Saturday. And I don't permit comments because they were used to target our family last summer and I don't want to put them through that again. Would appreciate it you don't too harshly.  Glen",
      "parentPostTime": "2012-02-08T15:53:25",
      "parentPostId": "433044872"
    },
    {
      "threadId": "568160297",
      "post": "Been looking for a way to do this for a while now. Finally sat down and figured it out. Not a perfect solution but it works!y",
      "time": "2012-02-08T11:31:02",
      "id": "432855216",
      "parentPost": "Good idea with DropVox -> ifttt -> Podcast. Hadn't thought of that.",
      "parentPostTime": "2012-02-08T01:24:11",
      "parentPostId": "432500047"
    },
    {
      "threadId": "513028868",
      "post": "We can both use it, then we have a backup if one fails and can still split it to get the same effect if they both work! Wonder what will happen with more then two people.",
      "time": "2011-12-22T17:59:37",
      "id": "392438627",
      "parentPost": "Haven't tried the latest update yet, was thinking of stealth recording you for the next show. ",
      "parentPostTime": "2011-12-22T17:54:40",
      "parentPostId": "392432196"
    },
    {
      "threadId": "442377425",
      "post": "I've put up a new post with details on a workaround from the Apple Forums. It works for me, hope it helps.\n\n<a href=http://deys.ca/2011/10/14/temporary-fix-for-smart-playlist-order/>\nTemporary Fix for Smart Playlist Order</a>",
      "time": "2011-10-14T13:28:28",
      "id": "334610138"
    },
    {
      "threadId": "19297673",
      "post": "Liner Manufactures use Radio Frequency Heat Sealing to \"weld\" liners together. The machines are not portable and can't be used in the field. The material also can't be in any way dirty, the RF is extremely sensitive. In the field there are glues that can be applied otherwise heat sealing, using a hot air gun, is the only option. Either way you might want to test the application first. In my experience vinyl holding air doesn't work that well.",
      "time": "2011-10-13T18:56:38",
      "id": "333860633",
      "parentPost": "how do I bond two sheets of pool liner together to make it air tight?\nWhat heat equipment do I need to fuse the liner?",
      "parentPostTime": "2011-10-13T18:38:23",
      "parentPostId": "333830261"
    },
    {
      "threadId": "414453313",
      "post": "I was underwhelmed as well.",
      "time": "2011-09-15T16:24:10",
      "id": "311905397",
      "parentPost": "I wasn't impressed with Unity myself. I was hoping it would be a great interface for the PC hooked up to my TV but it was far too limiting, switched back to gnome. ",
      "parentPostTime": "2011-09-15T15:49:14",
      "parentPostId": "311884853"
    },
    {
      "threadId": "409561952",
      "post": "Nice!",
      "time": "2011-09-09T18:18:37",
      "id": "306072979",
      "parentPost": "Of course, I'm already using Pipes and Ifttt together. I've got ifttt checking this feed: http://pipes.yahoo.com/pipes/pipe.info?_id=9GiO1W_53BGY3bhAEpPZnA to save all of the Photos published by my Flickr contacts into Dropbox. Makes for very easy, quick browsing of photos.",
      "parentPostTime": "2011-09-09T18:11:57",
      "parentPostId": "306068214"
    },
    {
      "threadId": "407153531",
      "post": "Half the people I used to follow I felt compelled to follow. Putting on events like Geek Dinner and PodCamp London made me feel like I had to be following a ton of people. I've come to realize that I don't need to. And, if someone gets mad at me for not following, or unfollowing, I don't need them.",
      "time": "2011-09-08T15:16:01",
      "id": "305026100",
      "parentPost": "I wrote about this a few days ago on my site. I prefer quantity to quality when it comes to followers. I don't understand the idea of follow-to-follow back. I follow people that write stuff that interests me. Occasionally I think the ol' herd. And if someone follows me, great! But I'm not going to automatically follow everyone back. I have under 160 followers, but I'm pretty happy with who's following me. I feel no need to chase after 10,000 empty followers.\n\n\nHere's the post if you're interested! http://jaymenard.com/2011/09/01/less-can-be-more-in-twitter-advertising/ All the best. Jay",
      "parentPostTime": "2011-09-07T12:45:47",
      "parentPostId": "304148449"
    },
    {
      "threadId": "402849579",
      "post": "Have a Kindle 2 and LOVE it! Kindle 3 is on my wishlist (wifi needed for sending web articles from Instapaper (in Canada)). Used to have an iPad, liked it but I just wasn't using it. Hurt my eyes to read on it, the eInk is nice on the eyes, and there was just too many other things it could do to distract me.\n\nI have lots of book, one shelf left to be read and they are collecting dust. I travel enough that it's already paid its self back in savings for over weight bags! I've even bought the e version of a few things I own in print I like the reader so much.\n\nMost have a screen refresh that takes a fraction of a second to reload but you get in a rhythm as to when to hit the button just as your coming to the bottom of the page so that it'll be refreshed by the time you get to the top.\n\nI know of a few book nerds that also can think of going back to print after using a Kindle.",
      "time": "2011-09-02T19:19:13",
      "id": "301262407"
    },
    {
      "threadId": "388652996",
      "post": "I think for most of us it's like rising a bike. Once we TRY to get back on we'll find our legs. Sooner better then later.",
      "time": "2011-08-17T13:52:39",
      "id": "289219831",
      "parentPost": "I just hope we haven't forgotten how",
      "parentPostTime": "2011-08-17T13:41:06",
      "parentPostId": "289213750"
    },
    {
      "threadId": "362646556",
      "post": "Yeah, the current H2 works as a Mic too.",
      "time": "2011-07-19T17:51:05",
      "id": "257460004",
      "parentPost": "Already got it in the shownotes for the next CRP. Just saw that it works as a USB mic too. Would be a very nice toy. ",
      "parentPostTime": "2011-07-19T17:49:12",
      "parentPostId": "257457985"
    },
    {
      "threadId": "361499477",
      "post": "Long term as a primary machine I think you'd hate yourself if you didn't get\r\nthe 13\".",
      "time": "2011-07-18T15:44:33",
      "id": "256079144",
      "parentPost": "It's possible they'll bump the resolution on the 11\", but that would be\r\nawfully cramped.\r\n\r\nSeems most likely that i'll be getting the 13\"",
      "parentPostTime": "2011-07-18T15:40:21",
      "parentPostId": "256076703"
    },
    {
      "threadId": "350296184",
      "post": "I did a backup, had to switch my PHP version then clicked the built in\r\nupgrade to WP. After the core upgrade I upgraded all my other plugins,\r\nthough I only use about 5 and only two had updates.",
      "time": "2011-07-05T20:50:53",
      "id": "242786989",
      "parentPost": "did you turn off plugins or just roll the dice?",
      "parentPostTime": "2011-07-05T20:41:17",
      "parentPostId": "242780404"
    },
    {
      "threadId": "326803064",
      "post": "scary",
      "time": "2011-06-09T15:27:43",
      "id": "222409327",
      "parentPost": "Less inspiring is that the scientists who blew the whistle leading to the ban on bovine growth hormones were all later fired by Health Canada. http://umanitoba.ca/faculties/arts/departments/philosophy/ethics/media/Perils_of_whistle-blowing.pdf",
      "parentPostTime": "2011-06-09T15:21:35",
      "parentPostId": "222405528"
    },
    {
      "threadId": "322956771",
      "post": "I agree and try to buy local. Usually it's hard and I try to stay AS\r\nlocal as possible.\r\n\r\nPartly my point is telling people to get up and GO to work. We can't\r\njust do the easy stuff and leave the hard things to someone willing to\r\nwork and work for less. It's more then just a problem with work, our\r\nsociety doesn't like to do things the hard way. Always just want a\r\npill to take care of the symptom.\r\n\r\nI have found that for one big business can say buy local but when it\r\ncomes down to it in a board room decision they'll still go off shore.\r\nI personally have a lot of experience with it. Yes the quality sucks\r\nbut usually the products get better quickly and most consumers don't\r\ncomplain when they see the price.\r\n\r\nEveryone talks about supporting local economy until it hits their own\r\npocket book. Just go to Walmart, more then a few times I've driven\r\nthrough one of their parking lots and seen a \"Like your job? Keep\r\nbuying foreign\" bumper sticker!",
      "time": "2011-06-06T11:20:32",
      "id": "218996619",
      "parentPost": "Services/thought-based work can't be moved as easily because it typically involves a lot of training to be done. Not just anyone can do IT consulting, not just anyone can design clothing, and not just anyone can code. They all require education and hands-on experience to get good at, which is why you can't walk in and simply replace tenured staff with newbies.\n\nBy the same reasoning, you can't simply replace an educated, trained, and experienced person with someone from Asia because it's cheaper. The quality, and I know a lot of people that have outsourced and feel this way, just isn't there. Not yet anyway.\n\nAnd, of course, there's something to be said for supporting the local economy. Just because you can outsource doesn't mean you should.",
      "parentPostTime": "2011-06-05T20:09:47",
      "parentPostId": "218655302"
    },
    {
      "threadId": "307192363",
      "post": "Not really. It's more a matter of spending the money for the hardware.\r\n\r\nOSX isn't an option for her and neither is Parallels. To spend more to\r\nget the Air then just blast away OSX is a waste. I'm a HUGE fan of\r\nOSX, enough so I was running a Hacintosh Dell Mini for a while. That\r\nisn't a great option either, I was never 100% comfortable that it\r\nwouldn't totally die to make it my main machine.\r\n\r\nThe Air form factor and OSX that is stable even at the high price is\r\nwhat makes the package compelling. I'm not convinced that it's worth\r\nit to run windows on. Maybe it is, I never thought about it much.",
      "time": "2011-05-18T18:51:22",
      "id": "206280374",
      "parentPost": "lol, avoiding sleeping on the couch is more important than Apple loyalty",
      "parentPostTime": "2011-05-18T18:32:17",
      "parentPostId": "206268683"
    },
    {
      "threadId": "304336900",
      "post": "Yeah I know but I'd like to see things like this start getting crowd funded!",
      "time": "2011-05-16T12:59:34",
      "id": "204450638",
      "parentPost": " Problem is Kickstater uses Amazon Payments and there's no way for Canadians to get cash out of Amazon payments.",
      "parentPostTime": "2011-05-16T12:49:36",
      "parentPostId": "204447172"
    },
    {
      "threadId": "301827826",
      "post": "Good call!\r\n\r\n--\r\nbd",
      "time": "2011-05-12T12:14:01",
      "id": "202007330",
      "parentPost": "Another to add to the http://cantada.ca/ list!\n\n",
      "parentPostTime": "2011-05-12T11:59:30",
      "parentPostId": "202000231"
    },
    {
      "threadId": "291492412",
      "post": "Good call!",
      "time": "2011-04-29T18:21:45",
      "id": "194272124",
      "parentPost": "You actually can pay for an Instapaper subscription. It doesn't get you any new features, it's just a good way to show your support. http://www.instapaper.com/subscription",
      "parentPostTime": "2011-04-29T18:14:31",
      "parentPostId": "194268781"
    },
    {
      "threadId": "284518348",
      "post": "Um, I don't think so. Mostly it seams like nothing more then yelling at me to come in. Partly it's tone of the message and I've never had contact from them. If we had @'d in the past it would have felt less spammy. A message out of nowhere is almost as bad as an auto DM when I first follow.",
      "time": "2011-04-21T15:01:23",
      "id": "188864964",
      "parentPost": "Would it have made a difference if they extended an offer to you exclusively, or at least used your name?",
      "parentPostTime": "2011-04-20T21:26:02",
      "parentPostId": "188475958"
    },
    {
      "threadId": "280134901",
      "post": "I am having troubles with the CastRoller feeds. Will knows about it. We're looking into the issue but for now I'm going to play with not using CastRoller and subscribing to each feed. \n\nHave you looked at Podcaster?",
      "time": "2011-04-15T15:04:19",
      "id": "185085429",
      "parentPost": "I really like Instacast as well. Your summary of its shortcomings is bang on, but so far it's the best non-iTunes podcast app I've used.",
      "parentPostTime": "2011-04-15T14:42:43",
      "parentPostId": "185067326"
    },
    {
      "threadId": "272915958",
      "post": "I was the same. We had quite a battle at the start there! Almost from the start I turned off the notifications. I actually don't get notifications for much on my phone, usually just SMS and Phone calls.  \n\nAbout a week ago, I deleted both Foursquare and Gowalla completely. I don't see that point, I've never run into anyone that found me because of a checkin and I never look for people near by. The GDLDN folks know when I'm there. Twitter is good enough to hook up with folks if that's what I'm in the mood for. \n\nIn general, at this point I kinda prefer people not know where I am. If I actually bump into people it was meant to be.\n\nAnd I've been setting my phone to Airplane mode a lot lately.  I can not let a call go to voicemail if I know it's there so if it's on I'll answer. If not I'm probably with one or more of the most important people in my life and I want to give them all my attention.",
      "time": "2011-04-06T20:44:08",
      "id": "179447022"
    },
    {
      "threadId": "267587492",
      "post": "We do have a reason, people may not agree but we think it's a good. one. Yes it's a change. I'm drafting a post, it'll probably be up tomorrow, as to why we made this decision. Short answer, we want to make the conference better.\n\nWe don't follow what PodCamp Toronto does. Yes we watch what they do but ultimately London is very different from Toronto.\n\nAnd, under the rules of PodCamp you can't have a Keynote speaker. We wouldn't be treating everyone the same! Rules can be found at the bottom of http://podcamp.pbworks.com/w/page/17344268/FrontPage",
      "time": "2011-03-31T20:10:59",
      "id": "175783809"
    },
    {
      "threadId": "243596680",
      "post": "Good one, never thought of that!",
      "time": "2011-03-03T13:04:28",
      "id": "159783342",
      "parentPost": "Try filling the bathtub with water so it can evaporate overnight. :)",
      "parentPostTime": "2011-03-02T13:29:10",
      "parentPostId": "158952310"
    },
    {
      "threadId": "239214226",
      "post": "Domains will ALWAYS be important. Where you blog isn't. You should\r\nhave a domain, even on a Tumblr blog. Say your a musician, you set up\r\na site at awesomeName.tumblr.com, then tumblr decides it's going to\r\nproduce a web show that will be titled awesomeName. They can take your\r\ndomain away to use for the show. Now you have a few thousand CD's\r\nprinted with a URL that points to some web show. This happened, a band\r\nnames Bones had a MySpace page. Fox had a show called Bones. Fox\r\n(NewsCorp) bought MySpace. Guess what happened.\r\n\r\nBottom line, you need to own your brand/content/WORK!",
      "time": "2011-02-26T11:14:29",
      "id": "156435051",
      "parentPost": "I have to say, I love Tumblr.  These days URL's aren't important anymore -- not with search engines being as effective as they are.  Honestly, I find it's a better blogging platform just because it's fast and easy to use and has all the key options built right in.  You might not need a Wordpress blog after all.  It's like having two cars -- one for city driving, one for long trips... but you mostly drive 'round the city 99% of the time.  Do you really need the 2nd car, or can you just make do?",
      "parentPostTime": "2011-02-25T15:38:28",
      "parentPostId": "155896164"
    },
    {
      "threadId": "159690645",
      "post": "Good point. And I agree I always over buy on storage. Though I have the 64GB iPad and I'd like more space. It's full. \n\nAlso, with all the crap I've read about being able to pull data off even just RAM I don't know how much people will like these. I for one don't lose sleep over it but some do.\n\nAnd I never though about it on the iPad, or the iPhone for that matter!",
      "time": "2010-10-21T12:43:14",
      "id": "88773455",
      "parentPost": "If I understood it properly through tweets I saw - the storage on the new air's is much like what is on the iPads. Perhaps with memory-based storage as opposed to traditional hard drives, there's less of an issue with privacy as it can be more easily wiped? I would hope so.\n\nApple continues its path of keeping people from wanting/needing to open up the machine to swap anything out. It's kinda brilliant for a marketing point of view - I ended up buying a 64GB iPad, and now realize 32GB would have been fine. If there had been an upgrade path, I'd have picked up the 32 and Apple would be out a few bucks..\n\n",
      "parentPostTime": "2010-10-21T12:31:05",
      "parentPostId": "88771055"
    },
    {
      "threadId": "91954888",
      "post": "Saturday morning there will be a link on the website to a page with more\r\nlinks to the streams.\r\n\r\n--\r\nB",
      "time": "2010-05-05T19:30:05",
      "id": "48547216",
      "parentPost": "I am wondering how one can access the streaming video that I've heard about. Can someone please provide the information. thanks",
      "parentPostTime": "2010-05-05T19:28:55",
      "parentPostId": "48547037"
    },
    {
      "threadId": "20862002",
      "post": "The ring your talking about is called Coping and we've not heard of\r\nissues. Especially if the pool is bonded there shouldn't be an issue.",
      "time": "2010-04-01T14:04:43",
      "id": "42694597",
      "parentPost": "What about the ring around an inground liner pool (that holes the liner in place) will the be affected - it is made of Alluminum ",
      "parentPostTime": "2010-04-01T03:15:48",
      "parentPostId": "42579191"
    },
    {
      "threadId": "69729500",
      "post": "@eplatero - I had thought about it, probably should just sign up to give myself a goal.\n\n@jameswilkinsonphoto - it's pretty awesome! ",
      "time": "2010-02-24T14:00:55",
      "id": "36283377"
    },
    {
      "threadId": "51628113",
      "post": "I'm about a third of the way in. Just got my Kindle and it was a good choice for a first book to read on it. It's an awesome book so far and the writing style is very accessible. Should be easy to pick up for anyone not familiar with the space!",
      "time": "2009-12-14T12:15:26",
      "id": "25703047"
    },
    {
      "threadId": "35904454",
      "post": "Thanks for the positive words. Encouraging people to come out was part of the goal so it's great to hear it helped. Despite the stress I had a great time doing it!\r\n\r\nOn the QR code front I personally like BeeTag, works on the BlackBerry too. But, ScanMee and Quick Mark are both great applications. QuickMark looks to be the best so far, I just have to change my workflow to use it more. If your on any other java phone Kaywa Reader or UpCode are the apps to check out.",
      "time": "2009-09-24T15:10:27",
      "id": "17294389",
      "parentPost": "The live stream was great. Definitely improved my experience of the festival and encouraged me to get down there in person. Thanks!\r\n\r\nHey what application do you use to scan those QR codes? I've tried a few on my iPhone, scanning your Twitter avatar, but it never works.",
      "parentPostTime": "2009-09-24T13:54:19",
      "parentPostId": "17291008"
    },
    {
      "threadId": "32467693",
      "post": "Hey guys, I've always thought GigaDial was pretty cool but have you checked out CastRoller. You can set up channels and add single episodes to it as well as have podcasts automatically fill it. On top of that there are some great sharing (like google reader) and social features, like a full social network for podcast listening.\r\n\r\nYou can see my profile on CastRoller at http://castroller.com/billdeys",
      "time": "2009-09-03T18:54:58",
      "id": "15895408"
    },
    {
      "threadId": "31482573",
      "post": "Is it just me or does the YouTube video not have the sound in it?",
      "time": "2009-08-28T13:57:03",
      "id": "15524893"
    },
    {
      "threadId": "28230152",
      "post": "Every once and a while if I have some writing to do or some other real tedious work to do I'll pick up and head to a coffee shop (or somewhere like that). I find the change, and putting ear buds in, helps to really kick in work mode.",
      "time": "2009-08-04T19:22:51",
      "id": "13901023"
    },
    {
      "threadId": "25768030",
      "post": "She shouldn't have any say over what goes on on Facebook. It's a private company, people are free to put their information there if they want as if they are that worried about it getting out they simply shouldn't join. \r\n\r\nNow on the side of how much should privacy? I think there should be a great extent in options as to what you personally want to make public and private. It should all be up to user choice. It's up to you to make your self open and participate in social!",
      "time": "2009-07-16T19:27:14",
      "id": "12762576"
    },
    {
      "threadId": "21346944",
      "post": "Do I HAVE to blog? We could have a party and live stream at least every half hour!",
      "time": "2009-06-12T11:15:53",
      "id": "10792209"
    },
    {
      "threadId": "18919388",
      "post": "I don't have an editor, and I know my writing sucks. Maybe some people think I should but I prefer to be a little more real and personal then that. I also hate to delay posts so.\r\n\r\nThere is also a whole different rant about the school system that taught me the way they did.\r\n \r\nI also have opinion about the evolution of the English language but if people can't look past my crappy writing no biggie on me. I write for myself and anyone who want to read what (and how) I write. ",
      "time": "2009-05-21T15:35:04",
      "id": "9731136"
    },
    {
      "threadId": "18783064",
      "post": "I'd still not get voicemail at work. I think it's a bad thing in\r\ngeneral. But I would like to get that on my cell phone. I know there\r\nare some services out there but it's not easy enough. If there is one\r\nthing I hate more then getting sent to voicemail it's having to\r\nreceive it!",
      "time": "2009-05-21T03:36:57",
      "id": "9615308",
      "parentPost": "Now if there was a way to reliably convert voicemail into text and e-mail it to me, I think it would solve almost all problems.\r\n\r\nI hate having to wait to listen to a message only to replay it again to pick up the important details that I didn't get the first time through. ",
      "parentPostTime": "2009-05-20T13:26:40",
      "parentPostId": "9578793"
    },
    {
      "threadId": "16303714",
      "post": "\"Your value doesn't depend on the amount of time you put in but the value you put in your time\"",
      "time": "2009-04-21T20:28:17",
      "id": "8507209"
    },
    {
      "threadId": "12470267",
      "post": "lol That's not a bad line! I might expand on that in a later blog post!",
      "time": "2009-02-26T02:15:13",
      "id": "6628974",
      "parentPost": "I was thinking about the same thing yesterday, yet didn't come up with the \"swimming in different ponds\" as eloquently as you just did. I'm OK with being a bigger fish in some ponds and a smaller fish than others, so long as we mostly swim in the pond we didn't pee in ... or something like that. (That didn't sound right.)",
      "parentPostTime": "2009-02-26T02:08:29",
      "parentPostId": "6628854"
    },
    {
      "threadId": "11816771",
      "post": "fan freaking tastic! Got a lot of stuff organized in my head and three\r\nblogs posts out of it! Feel great, gonna have to do it more often!",
      "time": "2009-02-17T16:23:21",
      "id": "6332029",
      "parentPost": "That is (was) a great idea Bill. Its the kind of balance that I have been recommending for years. How did it go?",
      "parentPostTime": "2009-02-17T16:07:33",
      "parentPostId": "6331692"
    },
    {
      "threadId": "11942284",
      "post": "iTunes can now handle having a podcast that does not automatically\r\ndownload. If you use iTunes goto the podcasts source and click\r\nsettings you can see on the window that shows up there is a \"Settings\r\nFor.\" That's how I use it. I have some, like my collection, auto\r\ndownload and other channels that I'm subscribed to that don't.",
      "time": "2009-02-16T15:50:17",
      "id": "6306297",
      "parentPost": "Great idea Bill, I should start my own penalty box. I think it's natural to have a change in taste. Sometimes it's the podcast that has changed, and sometimes it's that the podcast hasn't changed but needs to. This might be a good solution to keep track of my podcasts that I have been downloading and deleting recently. I am also thinking of just putting them in my feedreader that doesn't automatically download enclosures.",
      "parentPostTime": "2009-02-16T15:39:18",
      "parentPostId": "6306145"
    },
    {
      "threadId": "9631777",
      "post": "I love Spageddy Eddy's, the only problem is they don't take reservations and you have to walk down that ally which can get a little creepy depending on when!",
      "time": "2009-01-09T13:43:10",
      "id": "5010621"
    },
    {
      "threadId": "7881470",
      "post": "I agree that there are problems with the electoral system. \r\n\r\nBut in a three party system, the party with the greatest number is the winner! How else do you solve it? Have the actual PM on the ballot? Maybe that's the solution! Otherwise I don't see any other way to slice it except the guy leading party with the most seats is the PM. \r\n\r\nYes 62% of the people didn't vote for Harper but, would a majority vote to have a coalition government? \r\n\r\nAnd how is a coalition better? Because they MIGHT be able to make decisions? Nothing is making them vote the same way! Harper can't get things done because the Liberals have been blocking his every move.",
      "time": "2008-12-03T23:52:01",
      "id": "4156354",
      "parentPost": "Let me say that the largest issue with Canadian politics is the electoral system; in order for it to be an actual democracy we need proportional representation.  \r\n\r\nWith that said I would argue that we did not elect the Conservative party into power.  62 % of voters did not choose Harper and/or the Conservatives, simple facts.\r\n\r\n\"The opposition may not be “confident” in a Harper Government but that isn’t necessarily representative of what “we” want. \"\r\n\r\nIf our elected representatives do in-fact represent the people of this nation than that is what \"we\" want, 62% of the nation put their confidence in people that are not Harper and the conservative.\r\n\r\nDo I agree with what is being done, no I don't, BUT, it is a far better option than letting a minority government (that happens to be conservative) make decisions (or a lack of decisions) for this country.  \r\n\r\n",
      "parentPostTime": "2008-12-03T23:39:29",
      "parentPostId": "4156132"
    },
    {
      "threadId": "7644384",
      "post": "My wife got one and she loves it. I've tried it a few times and it's nice but meh.",
      "time": "2008-11-27T19:53:15",
      "id": "4042326"
    },
    {
      "threadId": "7002345",
      "post": "I'd put money on that it has GPS, it'd be stupid not to. And isn't it the new Dodge that has Internet built in? It's a whole different animal if your getting into that, you need a cell chip. The Chev's have that, a cell chip not Internet, in the OnStar enable vehicles but...",
      "time": "2008-11-13T18:54:20",
      "id": "3746526",
      "parentPost": "Or the iPhone. This is something I'd love to have with gps and internet built in. ",
      "parentPostTime": "2008-11-13T18:46:29",
      "parentPostId": "3746038"
    },
    {
      "threadId": "6902279",
      "post": "If you come to podcamp TO shoot me an email and I'll make sure we hook up for a chat there! ",
      "time": "2008-11-12T23:09:34",
      "id": "3723403",
      "parentPost": "Ugh. That's so true. I'm the same way whenever I go to Canada. It's a horrible way to do business. The sad thing is that all wireless providers are terrible in their own way. If one were to just break out of the pack, they could totally own that space. BTW - great to meet you at podcamp. Hopefully I'll see you in Toronto!",
      "parentPostTime": "2008-11-12T22:57:26",
      "parentPostId": "3723189"
    },
    {
      "threadId": "6618752",
      "post": "Because there is still a negative view toward that activity! \r\n\r\nIt is a problem but when a guy comes in for an interview if he's in a suit I'm more likely to hire him. Partly because he put an effort in, but also because that is what we are \"trained\" to see as a better option. It's unfortunate but true. \r\n\r\nPeople seeing pictures on FB is just an extension of that. \r\n\r\nAnd of course if anyone thinks the Prime Minister or President has never been drunk at a bar doing shots their crazy! ",
      "time": "2008-11-07T14:13:35",
      "id": "3591449",
      "parentPost": "Well, it does seem like this is the way people are thinking. I just wonder why? I mean, you do agree that it's BS, so what is the big deal?\r\n\r\nWhat is the actual reason for not hiring them? ",
      "parentPostTime": "2008-11-07T13:57:20",
      "parentPostId": "3591243"
    },
    {
      "threadId": "6616343",
      "post": "So why wouldn't you just go to the bank first and get the cash and ask for a deal on the TV? They will usually do it, one cuz they'll give the deal anyways, and two cuz they'd rather cash then Visa. But don't get me started on the Best Buy card, that's a whole nother kinda a screw!",
      "time": "2008-11-04T17:16:27",
      "id": "3489194",
      "parentPost": "Use credit cards like it's cash. That is, say I'm buying a tv. I won't buy it until I gave the money saved up in my bank account. I use the credit card because I purposely keep a low withdrawl amount on my debit card. I never understood how my friends can go on with maxed out cards buying junk (their words). ",
      "parentPostTime": "2008-11-04T17:07:05",
      "parentPostId": "3489057"
    },
    {
      "threadId": "6392765",
      "post": "Really? I have never heard EVDO considered 3G! News to me, and that makes everything even more confusing! I have a BB Pearl with EVDO, so that means I'm on this \"3G.\" Doesn't seam as fast as what people are saying the 3G iPhone is. \r\n\r\nAnd the reason for their \"shared\" network is that in the eastern part of Canada Telus is a virtual carrier running on Bell's network. From what I'm told they do have their own networks in the west.",
      "time": "2008-10-30T11:21:06",
      "id": "3388153",
      "parentPost": "The Storm 9350 fpr Verizon/Bell/Telus does not run on North American 3G bands; it does support CDMA-EV-DO. And if you try http://storminfo.ca/ you will find out more. Also try telusmobility.com/storm. And last time I looked at \"3G\" on Wikipedia, in researching this article, EV-DO was considered a 3G protocol. Storm 9500 for Vodafone only runs on the 2G North American bands, but on the European/Asian UMTS/HSPA 2100 MHz 3G bands.\r\n\r\nBell//Telus are upgrading to a shared HSPA network, hoping to launch next fall. This provides them with a more universally accepted protocol. This is also considered 3G.",
      "parentPostTime": "2008-10-29T22:11:46",
      "parentPostId": "3380873"
    },
    {
      "threadId": "5140493",
      "post": "\"edited\", so geeky I love it!",
      "time": "2008-09-29T13:38:10",
      "id": "2730949"
    },
    {
      "threadId": "4135686",
      "post": "awesome stuff but I think Blogs, Podcasts and YouTube can very much be part of \"social media\" it all depends on how it is used and what the content calls for. When used by \"us\" it's social, by \"old media\" it's them using new media and not social.",
      "time": "2008-09-04T13:31:58",
      "id": "2104147"
    },
    {
      "threadId": "2765048",
      "post": "Sorry Brian, I don't",
      "time": "2008-08-17T12:32:17",
      "id": "1557346",
      "parentPost": "yo do you have rascal flatts' Here's To You? because i would love it if ya sent it to me. thanx",
      "parentPostTime": "2008-08-16T17:38:42",
      "parentPostId": "1527989"
    },
    {
      "threadId": "2681518",
      "post": "Daniel Ha, what do you mean automatic backing up, does it automatically post the comment into the WP install?",
      "time": "2008-08-13T12:05:17",
      "id": "1203255"
    },
    {
      "threadId": "2314725",
      "post": "Yah, there is a WP plugin for it too! kinda handy for easily adding links to wikipedia and such!",
      "time": "2008-07-30T16:41:14",
      "id": "1051612"
    },
    {
      "threadId": "1450447",
      "post": "I missed out on this one, I was offline for a while. My first though is who really cares what people think is funny? Second did anyone think that views don't necessarily translate to people agreeing or supporting? It's just the number of times the video was viewed. How many people found and watched it through Mob Logic? I bet most didn't think it's funny! ",
      "time": "2008-07-01T17:18:09",
      "id": "790934"
    },
    {
      "threadId": "1434482",
      "post": "I'd never use a .sex domain but I'd be more worried about seeing what someone else would use my url with a .sex TLD for.",
      "time": "2008-06-26T13:08:01",
      "id": "752930"
    },
    {
      "threadId": "1379245",
      "post": "I didn't know you could actually fight with them, if I knew that we could have shot video from the hotel to the dock, man a pile of stuff!",
      "time": "2008-06-23T17:27:59",
      "id": "731686"
    }
  ],
  "profileInfo": {
    "username": "billdeys",
    "about": "I create content for the web. I blog, podcasts, and vlog.",
    "name": "billdeys",
    "disable3rdPartyTrackers": false,
    "isPowerContributor": false,
    "isAnonymous": false,
    "rep": 1.270912,
    "profileUrl": "https://disqus.com/by/billdeys/",
    "url": "http://deys.ca",
    "reputation": 1.270912,
    "location": "London, Ontario",
    "isPrivate": false,
    "signedUrl": "http://disq.us/?url=http%3A%2F%2Fdeys.ca&key=tlNwTfL8W_ciLAoiL0y9nw",
    "isPrimary": true,
    "joinedAt": "2008-08-13T11:42:27",
    "id": "81953",
    "avatar": {
      "small": {
        "permalink": "https://disqus.com/api/users/avatars/billdeys.jpg",
        "cache": "//a.disquscdn.com/uploads/users/8/1953/avatar32.jpg?1330615015"
      },
      "isCustom": true,
      "permalink": "https://disqus.com/api/users/avatars/billdeys.jpg",
      "cache": "//a.disquscdn.com/uploads/users/8/1953/avatar92.jpg?1330615015",
      "large": {
        "permalink": "https://disqus.com/api/users/avatars/billdeys.jpg",
        "cache": "//a.disquscdn.com/uploads/users/8/1953/avatar92.jpg?1330615015"
      }
    }
  }
}