{
  "comments": [
    {
      "threadId": "3351037676",
      "post": "Nitpick: two images are labeled #4.",
      "time": "2014-12-27T17:51:34",
      "id": "1760884997"
    },
    {
      "threadId": "2940738750",
      "post": "Matt, you have two #3's",
      "time": "2014-08-20T15:41:03",
      "id": "1551322902"
    },
    {
      "threadId": "1986840017",
      "post": "Just started playing with Clumsy Ninja—the game AI is flat-out amazing!",
      "time": "2013-11-24T07:42:02",
      "id": "1136691147"
    },
    {
      "threadId": "664978194",
      "post": "A bit of fact-checking would've avoided that gaffe. Virginia Rometti is the current CEO. Please correct the article.",
      "time": "2012-04-27T08:01:25",
      "id": "511111217",
      "parentPost": "Great article but Sam Palmisano, current CEO of IBM - might want to rethink that",
      "parentPostTime": "2012-04-26T21:51:12",
      "parentPostId": "510140178"
    },
    {
      "threadId": "483755579",
      "post": "Specs are a large part of the experience for hardware geeks. For most mobile phone users, the responsiveness of the user interface, its consistency across apps, a gentle learning curve, ease of discovery and ease of use in most frequently-accessed tasks trumps paper specs. If dual core, more RAM, a powerful GPU, enhanced UI physics, etc. contribute to the perceived responsiveness of the system, all well and good. If these do not because of limitations in how an OEM has optimized (or failed to optimize) a mobile OS for their particular mobile chipset, then all the end user will see is stutter, lag, or delays. Tried a Blackberry Torch 9810. Could not believe how slow it was to acquire a GPS signal compared with my iPhone 4S.",
      "time": "2011-11-28T01:33:26",
      "id": "373925262",
      "parentPost": "Except specs are a large part of the experience. So, that's BS.",
      "parentPostTime": "2011-11-25T18:18:38",
      "parentPostId": "372233369"
    },
    {
      "threadId": "368105686",
      "post": "Your justifications for hating Apple may likely then be irrational.\r\n\r\nSent from iPhone",
      "time": "2011-07-26T20:22:02",
      "id": "265816687",
      "parentPost": "My justifications for hating Apple extend far beyond mere economics.",
      "parentPostTime": "2011-07-26T20:06:51",
      "parentPostId": "265806954"
    },
    {
      "threadId": "299045910",
      "post": "Liz - I'm sure you read (or heard about) the \"Tiger Mom\" article. Habitually accepting a kid's lame excuses for \"why I didn't do my homework\" or \"why I failed the exam\" is a path to mediocrity.",
      "time": "2011-05-09T16:33:32",
      "id": "200253293",
      "parentPost": "Wonder if this approach would work on the kids? Shall I try??  Perhaps not but an interesting insight into how things work in companies where only excellence is accepted!",
      "parentPostTime": "2011-05-09T14:10:08",
      "parentPostId": "200142144"
    },
    {
      "threadId": "289182938",
      "post": "\"the Japanese railway system is proud that they were able to build Tokyo station 100 years ahead, so that 100 years later they can still add more lines. They’re all about long-term planning\"\n\nLong-term. Good. http://www.mckinsey.com/Capitalism.aspx",
      "time": "2011-04-27T00:23:28",
      "id": "192365493"
    },
    {
      "threadId": "257329432",
      "post": "See the Salman Khan video referenced above, as well as www.academicearth.org",
      "time": "2011-03-22T02:40:26",
      "id": "169345997",
      "parentPost": "Technology can hurt education. I have been an educator for 30 years and it is horrible the way the kids use google and twitter to find answers. Technology has opened the door to more cheating and shared answers http://spirithappy.wordpress.com/new-type-2-diabetes-diet-cure\n",
      "parentPostTime": "2011-03-18T23:00:22",
      "parentPostId": "167962285"
    },
    {
      "threadId": "244473543",
      "post": "Well, the way I see it, AAPL gives money to me, based on how much my shares have appreciated. Sure, it's not a penny stock, but it has certainly outperformed the rest of my portfolio.",
      "time": "2011-03-03T23:06:03",
      "id": "160074990",
      "parentPost": "Why would anyone give money to apple? What kind of modern day consumer electronic lacks expandable memory?",
      "parentPostTime": "2011-03-03T18:32:58",
      "parentPostId": "159923342"
    },
    {
      "threadId": "243848781",
      "post": "\"Cool\"? \"Novelty\"? \"Fashion\"? Look at how GE is deploying it throughout their organization to remotely manage electrical transformers and locomotives, among other uses:\n\nhttp://www.apple.com/ipad/business/profiles/ge/",
      "time": "2011-03-03T05:40:55",
      "id": "159657049",
      "parentPost": "I can see the \"cool\" factor, but that's about it...They justify price through novelty.  I mean honestly, you can pick up a netbook for the same price that's capable of a hell of a lot more.  Might not be as pretty, but idk, if it came between function and fashion I would choose function every time given the price.",
      "parentPostTime": "2011-03-02T19:55:17",
      "parentPostId": "159211412"
    },
    {
      "threadId": "240985281",
      "post": "Looks very interesting, especially for parents of young children!",
      "time": "2011-02-27T05:41:44",
      "id": "157045395"
    },
    {
      "threadId": "240872971",
      "post": "I use ClicktoFlash to block Flash in Safari, OpenDNS to block all Flash-serving ad domains, and AdBlock in Safari and Chrome to remove ads, which make extensive use of Flash. I only enable Flash as a last resort if content I want to see has no HTML5 equivalent.",
      "time": "2011-02-27T05:12:57",
      "id": "157029991",
      "parentPost": "I don't even run office on my computer...so what. One thing the iPad has done for me is make me much less reliant on .doc files. It's so much easier not using them and using txt instead. When, or if, I need to format a document I can use it.\n\nFlash...I'm in the process of disabling it on my computers, I'm tired of it crashing all the time.",
      "parentPostTime": "2011-02-27T02:47:20",
      "parentPostId": "156962387"
    },
    {
      "threadId": "239657641",
      "post": "http://arstechnica.com/microsoft/news/2011/02/everything-that-can-go-wrong-with-windows-phone-7-update-does.ars",
      "time": "2011-02-25T00:44:14",
      "id": "155651766"
    },
    {
      "threadId": "229799671",
      "post": "You haven't read the book. Read it.\r\n\r\nSent from iPhone",
      "time": "2011-02-18T07:11:33",
      "id": "150912147",
      "parentPost": "I do not see the significance in the platform upon which he wrote code. He was the man with the idea and he is the one who saw it through. There was nobody at apple that said \"tim, go forth and create the world wide web...\". apple does not get credit here. How many programs have been written on and for windows boxes? should MSFT get credit for them all?",
      "parentPostTime": "2011-02-18T04:40:15",
      "parentPostId": "150808933"
    },
    {
      "threadId": "230820425",
      "post": "Companies that have been around a long time tend to have this type of long-term thinking in their corporate DNA. IBM Chariman Sam Palmisano struck the right tone, in keeping with both their current \"Smarter Planet\" campaign as well as the celebration of their 100th year, in this short (01:06) speech: http://www.ibm.com/ibm100/us/en/speech",
      "time": "2011-02-16T19:16:25",
      "id": "148905998"
    },
    {
      "threadId": "230509332",
      "post": "I recall the 1986 'People Power' revolution in the Philippines and note some similarities, i.e. a military who refused to open fire on protesters.",
      "time": "2011-02-15T06:20:33",
      "id": "147077000"
    },
    {
      "threadId": "223807928",
      "post": "I have a simple rule: when I am in a face-to-face conversation with someone, I do my utmost to devote my full attention to them: my wife, my son, a colleague — whoever I am with. It's called \"be here, now\" and it's not really that hard to do consistently if you remember what common courtesy entails. I set my iPhone to silent mode, and I will check it only when the conversation is over. This makes for much better in-person relationships because it shows that you value other people's time. The folks in the ether? They can wait.",
      "time": "2011-02-10T08:38:17",
      "id": "143942963"
    },
    {
      "threadId": "224648958",
      "post": "Blood is thicker than water.",
      "time": "2011-02-07T22:55:04",
      "id": "142194691"
    },
    {
      "threadId": "224274871",
      "post": "@Len1023 - if you ever communicate with me again using anything other than your real name, I will pointedly ignore you, as I ignore all the spammers who pollute my inbox at work.",
      "time": "2011-02-07T18:53:25",
      "id": "142003410",
      "parentPost": "First off, I have nothing against Apple's stance in this matter. In fact I agree with their stance. It's just that Apple enthusiasts are so desperate to defend their company that they need to go as far as pulling out statistics that no one really cares about. This isn't Apple's fault and I don't blame them for their actions. I just find their supporters try too hard to fight for Apple as if they need to justify Apple's every move. That's why I mentioned iSheep. ",
      "parentPostTime": "2011-02-07T16:25:37",
      "parentPostId": "141951893"
    },
    {
      "threadId": "222156067",
      "post": "Are we approaching a tipping point in this unstable equilibrium?",
      "time": "2011-02-04T03:44:47",
      "id": "140098320"
    },
    {
      "threadId": "216847074",
      "post": "Did you mean \"principal\" rather than \"principle\"? (takes off grammar nazi hat)",
      "time": "2011-01-27T05:00:28",
      "id": "135165708"
    },
    {
      "threadId": "202997325",
      "post": "I could certainly use one of these, but the measuring cuff seems a bit on the bulky side...",
      "time": "2011-01-05T05:32:28",
      "id": "124231785"
    },
    {
      "threadId": "201769536",
      "post": "Pointcast did not have a massive social graph.",
      "time": "2011-01-03T06:35:39",
      "id": "123398577"
    },
    {
      "threadId": "201759132",
      "post": "Buy Foursquare? Yelp?",
      "time": "2011-01-03T06:06:47",
      "id": "123394758"
    },
    {
      "threadId": "184169976",
      "post": "I'm on LinkedIn for work/business, Facebook for family/friends. Very different use cases.",
      "time": "2010-12-04T04:39:47",
      "id": "106587803"
    },
    {
      "threadId": "181856975",
      "post": "Been using OpenTable since, oh, 2006. Possibly the easiest, most convenient way to book reservations online. Even more convenient ever since they released their iPhone app.",
      "time": "2010-11-30T03:08:01",
      "id": "104953611"
    },
    {
      "threadId": "177004147",
      "post": "Adblock for sure in the browser, but also add OpenDNS ad blocking at the network level. In Safari, in addition to Adblock, I also use ClicktoFlash, GlimmerBlocker, and Incognito, so that's five layers of ad-blocking goodness. Problem solved.",
      "time": "2010-11-21T23:27:25",
      "id": "100332739",
      "parentPost": "what ads? adblock ftw!",
      "parentPostTime": "2010-11-21T23:03:35",
      "parentPostId": "100329420"
    },
    {
      "threadId": "175446758",
      "post": "Or just lack of features? :D",
      "time": "2010-11-19T06:08:46",
      "id": "99302128",
      "parentPost": "elegant simplicity? ;-)",
      "parentPostTime": "2010-11-19T06:07:42",
      "parentPostId": "99301724"
    },
    {
      "threadId": "175428367",
      "post": "Bravo! Well done!",
      "time": "2010-11-19T04:29:38",
      "id": "99268244"
    },
    {
      "threadId": "175010412",
      "post": "Challenges? Without SSD standard? Not. Even. Close.",
      "time": "2010-11-18T21:19:18",
      "id": "99006745"
    },
    {
      "threadId": "175157666",
      "post": "Oh my.",
      "time": "2010-11-18T21:00:26",
      "id": "98997379"
    },
    {
      "threadId": "172679485",
      "post": "Interesting concept, downloaded the app.",
      "time": "2010-11-15T06:26:09",
      "id": "97216206"
    },
    {
      "threadId": "171657174",
      "post": "It's out now, just downloaded it.",
      "time": "2010-11-13T05:40:39",
      "id": "96800325",
      "parentPost": "He did say \"Version 4.0 should be live shortly.\" So, not yet.",
      "parentPostTime": "2010-11-12T22:59:20",
      "parentPostId": "96682966"
    },
    {
      "threadId": "171288007",
      "post": "\"Apparantly\" should be spelled \"Apparently\"",
      "time": "2010-11-12T18:33:46",
      "id": "96600806"
    },
    {
      "threadId": "170141382",
      "post": "Verrry interesting.",
      "time": "2010-11-10T10:57:20",
      "id": "95817115"
    },
    {
      "threadId": "169395080",
      "post": "That is an understatement. http://www.youtube.com/watch?v=klteYv1Uv9A",
      "time": "2010-11-09T18:39:27",
      "id": "95528398",
      "parentPost": "India is not dull. There, I said it.",
      "parentPostTime": "2010-11-09T18:38:12",
      "parentPostId": "95527358"
    },
    {
      "threadId": "169469579",
      "post": "\"At least google let's the users have the choice to do whatever they want with their own data\"\n\nJust so long as the StreetView cars can acquire that data unimpeded. ;)",
      "time": "2010-11-09T09:05:03",
      "id": "95333525",
      "parentPost": "And it does have moral high ground.\n\nAt least google let's the users have the choice to do whatever they want with their own data... \n\nI am baffled to see a few people root for facebook in this episode.....",
      "parentPostTime": "2010-11-09T08:54:33",
      "parentPostId": "95332563"
    },
    {
      "threadId": "169439987",
      "post": "Did the iPad suddenly become a lot more readable outdoors? (I have an iPad, and it's hard to read it outdoors in bright sunlight).",
      "time": "2010-11-09T08:02:38",
      "id": "95319462"
    },
    {
      "threadId": "166904036",
      "post": "Ironically, they're thinking of unblocking it at ours...which our management may soon regret.",
      "time": "2010-11-04T09:14:09",
      "id": "93730184",
      "parentPost": "and people wonder why facebook is blocked at their office ...",
      "parentPostTime": "2010-11-04T08:15:10",
      "parentPostId": "93725534"
    },
    {
      "threadId": "166299839",
      "post": "But can you walk and chew gum there? ;)",
      "time": "2010-11-03T07:45:52",
      "id": "93253906"
    },
    {
      "threadId": "166066833",
      "post": "Geo-aware crowdsourced food replicator?",
      "time": "2010-11-02T23:17:44",
      "id": "93146594"
    },
    {
      "threadId": "165610736",
      "post": "Good luck with that. Unless they can out-lobby MS...",
      "time": "2010-11-02T06:52:37",
      "id": "92915211"
    },
    {
      "threadId": "159975564",
      "post": "Heh, it doesn't help that I'm able to control my home network remotely from my iPad using LogMeIn over 3G. ;)",
      "time": "2010-10-27T20:42:37",
      "id": "90871511",
      "parentPost": "Congratulations on being able to hit the 'off button'. You had me fooled. ",
      "parentPostTime": "2010-10-27T20:38:54",
      "parentPostId": "90869065"
    },
    {
      "threadId": "160871147",
      "post": "Well, it worked for Paul Potts and Susan Boyle...",
      "time": "2010-10-23T19:36:32",
      "id": "89496653"
    },
    {
      "threadId": "160804063",
      "post": "Distributed Pogoplug?",
      "time": "2010-10-23T17:56:14",
      "id": "89471950"
    },
    {
      "threadId": "160532571",
      "post": "\"If you could guarantee your dictator is fully aligned with you there is a good chance that the system will be far more efficient than a democracy.\"\n\nHmm. Sounds like...Apple? :D",
      "time": "2010-10-22T23:41:27",
      "id": "89285063"
    },
    {
      "threadId": "158490877",
      "post": "Um, Page and Brin were going to sell Google in 1999 for $750K, except Vinod Khosla chickened out...\nhttp://www.geek.com/articles/geek-cetera/excite-could-have-bought-google-for-750000-in-1999-20100929/",
      "time": "2010-10-19T13:35:40",
      "id": "88190205",
      "parentPost": "yeah I mean yes, but this is just my gut feeling of course. I just think she was lucky. She is smart no doubt, but is she as visionary as brin, page and schmidt with the ability to look 5 years down the line,  I doubt.",
      "parentPostTime": "2010-10-19T13:16:15",
      "parentPostId": "88185446"
    },
    {
      "threadId": "158264507",
      "post": "\"You have no privacy. Get used to it.\" - Scott McNealy, former CEO of Sun Microsystems\n\nAck.",
      "time": "2010-10-18T20:25:58",
      "id": "87982117"
    },
    {
      "threadId": "156394250",
      "post": "About time!",
      "time": "2010-10-14T22:28:35",
      "id": "87036292"
    },
    {
      "threadId": "156360406",
      "post": "On my iPad, search is effectively \"instant\" even in apps like Photo Cooking. Speed rules. See http://www.useit.com/alertbox/response-times.html",
      "time": "2010-10-14T21:21:12",
      "id": "87021215"
    },
    {
      "threadId": "155912503",
      "post": "Very insightful. Even nonprofits will have to discern how to navigate rapidly-changing participation models on the web.",
      "time": "2010-10-14T02:10:04",
      "id": "86747355"
    },
    {
      "threadId": "152369662",
      "post": "Bring it on!",
      "time": "2010-10-13T05:40:25",
      "id": "86490849"
    },
    {
      "threadId": "154031055",
      "post": "\"Whatever is worth doing at all is worth doing well.\" -- Lord Chesterfield (1694-1773)",
      "time": "2010-10-10T08:53:11",
      "id": "85640433"
    },
    {
      "threadId": "152970241",
      "post": "Resistance is futile...",
      "time": "2010-10-08T01:31:58",
      "id": "85091243"
    },
    {
      "threadId": "152191742",
      "post": "Run for the hills! Oh, wait...",
      "time": "2010-10-06T17:10:28",
      "id": "84631384"
    },
    {
      "threadId": "149035393",
      "post": "Cool. Can't wait to try Qwiki.",
      "time": "2010-09-30T08:10:27",
      "id": "82317308"
    },
    {
      "threadId": "149033422",
      "post": "I can't wait for my invite code!",
      "time": "2010-09-30T08:02:12",
      "id": "82316426"
    },
    {
      "threadId": "148536072",
      "post": "Meetings: the bane of the modern workplace. Mostly, the biggest time-wasters in any day. Avoid.",
      "time": "2010-09-29T08:46:28",
      "id": "81927893"
    },
    {
      "threadId": "146321000",
      "post": "Cool!",
      "time": "2010-09-24T09:12:49",
      "id": "80499902"
    },
    {
      "threadId": "146311106",
      "post": "Very interesting.",
      "time": "2010-09-24T09:11:02",
      "id": "80499762"
    },
    {
      "threadId": "145030543",
      "post": "Apple products are by no means perfect, and they certainly are not inexpensive, but they (usually) offer a combination of usability and convenience many people are willing to pay for, while products from other consumer electronics companies often fall short in usability/convenience. Thus, the Apple brand has come to mean 'premium, desirable, user-friendly' etc. and customer satisfaction scores on Consumer Reports and similar indices suggest this is a pattern, not an exception.",
      "time": "2010-09-23T22:43:16",
      "id": "80412933"
    },
    {
      "threadId": "145122286",
      "post": "In Nov 2009, Fortune named Jobs \"CEO of the Decade\" - an honor well deserved based on AAPL's performance despite the economic uncertainties of our times.",
      "time": "2010-09-22T02:45:20",
      "id": "79883550"
    },
    {
      "threadId": "144764761",
      "post": "What Twitter giveth, Twitter taketh away. ;)",
      "time": "2010-09-21T07:44:05",
      "id": "79666604"
    },
    {
      "threadId": "144678677",
      "post": "If I recall correctly, Albert Einstein once asserted that the greatest threat to humanity was the proliferation of nuclear weapons. He argued that the traditional purpose of war (to secure access to valuable resources on enemy territory) was rendered moot by the large-scale devastation and long-term contamination of land in the aftermath of aboveground nuclear detonations. The same argument may be made about biological weapons. So, Turner's assertion that war is obsolete (\"you end up bombing your customers\") has merit.",
      "time": "2010-09-21T02:18:33",
      "id": "79623373"
    },
    {
      "threadId": "144224060",
      "post": "Doesn't sound like a very healthy lifestyle, sleepwise. I speak from experience.",
      "time": "2010-09-20T05:29:04",
      "id": "79428588"
    },
    {
      "threadId": "142062899",
      "post": "\"When the novelty wears off, the work becomes clearer.\"\n\nSpot on!",
      "time": "2010-09-15T08:42:13",
      "id": "77740410"
    },
    {
      "threadId": "141314442",
      "post": "Many large companies are essentially illiterate when it comes to social media, which is unsurprising to those of us who were already part of online conversations back in the days of USENET.",
      "time": "2010-09-13T21:11:22",
      "id": "77342836"
    },
    {
      "threadId": "137138026",
      "post": "Insightful. Even...wise.",
      "time": "2010-09-03T18:42:57",
      "id": "74861152"
    },
    {
      "threadId": "136781700",
      "post": "Is this a social media / ID theft train wreck in slow motion?",
      "time": "2010-09-02T23:28:05",
      "id": "74613648"
    },
    {
      "threadId": "136562241",
      "post": "Just got back from a two-week vacation. The only emails I sent were to family to keep them updated on our activities (sea kayaking, caving, etc.), occasional posts to Facebook (holiday photos), reviews on TripAdvisor DineHere, UrbanSpoon, OpenTable, and Yelp, and restaurant check-ins on Foursquare, Gowalla, and Brightkite. I didn't check my work e-mail even ONCE. The only downside was that I came back to the office to find 700+ emails in my Outlook inbox. :(",
      "time": "2010-09-02T22:14:05",
      "id": "74553590"
    },
    {
      "threadId": "128170257",
      "post": "Re: installing software on iOS devices - same experience here, I try lots of apps (have downloaded 440+ so far, but not all are installed). Somewhat different from my usage of third-party programs on Windows and MacOS -- however, I probably still have more third-party apps than most people (e.g. 270 on my MacBook).",
      "time": "2010-08-10T16:16:51",
      "id": "67583907"
    },
    {
      "threadId": "125884316",
      "post": "Eric Schmidt was on the Board of Directors at Apple. He had to recuse himself when matters pertaining to iPhone were being discussed. Can you say, \"conflict of interest\"? Now, think about whether or not 'FaceTime' represents an end-run around telcos AND GVoice. As for competition, Schmidt acknowledged yesterday at Techonomy that Google makes money from every iPhone sold because of ad placements, etc.",
      "time": "2010-08-05T18:25:19",
      "id": "66269838",
      "parentPost": "",
      "parentPostTime": "2010-08-05T18:03:38",
      "parentPostId": "66266191"
    },
    {
      "threadId": "121210303",
      "post": "http://blogs.wsj.com/chinarealtime/2010/07/23/hong-kong-goes-crazy-as-ipad-launches",
      "time": "2010-07-24T06:14:02",
      "id": "64018399",
      "parentPost": "Isn't it awful when people question the brands and products on which you've based your personal identity?  Makes you almost want to give up and go get a personality.",
      "parentPostTime": "2010-07-24T01:33:05",
      "parentPostId": "64000362"
    },
    {
      "threadId": "120382907",
      "post": "My wife went from a Samsung to a Nokia phone. Hates them both, and it has nothing to do with signal quality, but user interface. I actually like her Nokia as a phone, but for everything else, not so much.",
      "time": "2010-07-21T10:01:03",
      "id": "63503914",
      "parentPost": "and have YOU ever used a Nokia before? my N95 was the worst phone I ever had, with <12 hrs. of standby time, freezing at least twice every day (even when it was just sitting in my pocket!), dropped calls, lousy build quality (it literally felt apart after 2 years).. and Symbian.. well, it just sucks.\nI agree with the call quality being superior than other phones', but all in all, I can't recommend Nokia's phones to anyone. they dropped out of the game 3-4 years ago -- they're not what they used to be.",
      "parentPostTime": "2010-07-21T09:46:52",
      "parentPostId": "63502982"
    },
    {
      "threadId": "120318182",
      "post": "Their servers are over capacity and I can't add my Facebook and Twitter feeds! Arrrgghhh!! ;)",
      "time": "2010-07-21T07:35:26",
      "id": "63494589"
    },
    {
      "threadId": "119584121",
      "post": "Too funny.",
      "time": "2010-07-19T08:17:45",
      "id": "63137374"
    },
    {
      "threadId": "118818368",
      "post": "I watched the press conference after it was made available online, and Steve Jobs did actually say \"We're deeply sorry.\" at one point. There were also videos showing what happens when three different competitor phones are held in such a way that their (internal) antennas are shielded from radio signals by human tissue. It would help if the author got her facts straight. That she did not suggests this is a linkbait piece to drive pageviews and ad revenue.",
      "time": "2010-07-17T06:36:43",
      "id": "62854610"
    },
    {
      "threadId": "118940645",
      "post": "It's all just part of building the hive mind\n\nhttp://opinionator.blogs.nytimes.com/2010/07/06/the-web-we-weave/",
      "time": "2010-07-17T06:00:02",
      "id": "62850355"
    },
    {
      "threadId": "110269655",
      "post": "So what? Is Android as profitable per unit sold for (a) Google and (b) the Android device manufacturers?",
      "time": "2010-06-22T19:24:27",
      "id": "58092860",
      "parentPost": "actually if you'd look at the stats posted on this very site, you'll see that Android is outselling ipad+iphone+ipod combined.\nplus it doesn't matter how many different devices. they are all running the same platform, android and ios.",
      "parentPostTime": "2010-06-22T18:05:30",
      "parentPostId": "58079668"
    },
    {
      "threadId": "108273595",
      "post": "\"There is no information overload. There is only filter failure.\" - Clay Shirky",
      "time": "2010-06-16T19:16:08",
      "id": "57124573",
      "parentPost": "Nice human post.  We like Pinker:  \"Knowledge is increasing exponentially; human brainpower and waking hours are not.\"<br><br> There is also increasing data that most (the large majority) of our brain processing is unconscious anyway so - having the conscious brain (i.e. verbal self-talk) disengaged is probably not a bad thing.\n\nHe just did great reality-check Op Ed in NYT - http://www.nytimes.com/2010/06/11/opinion/11Pinker.html?ref=opinion",
      "parentPostTime": "2010-06-16T19:15:22",
      "parentPostId": "57124409"
    },
    {
      "threadId": "105004073",
      "post": "A friend sent me a message yesterday that both his mentally handicapped adult brother-in-law and his 14-month old son learned to use the iPad within 48 hours. He said this is strong evidence that the UI is intuitive. I'd say that is an understatement.",
      "time": "2010-06-07T08:35:42",
      "id": "55093322"
    },
    {
      "threadId": "102501260",
      "post": "Louis wrote: \"Know who you are and what's important to you\"\n\nEasier said than done.",
      "time": "2010-05-30T05:58:27",
      "id": "53121805"
    },
    {
      "threadId": "98599059",
      "post": "Maybe they're concerned about all that pr0n that the iPad is going to display... ;)",
      "time": "2010-05-24T02:46:33",
      "id": "51659498"
    },
    {
      "threadId": "70344732",
      "post": "These are very important insights, which dovetail with what Daniel Pink asserts about workers in the 21st century wanting 3 things: autonomy, mastery, and purpose in their work arrangements. See http://video.ted.com/talks/podcast/DanielPink_2009G.mp4",
      "time": "2010-05-16T23:55:09",
      "id": "50641872"
    },
    {
      "threadId": "95753411",
      "post": "Jeff Bezos said: Obsess over your customers. http://www.youtube.com/watch?v=-hxX_Q5CnaA",
      "time": "2010-05-15T01:20:02",
      "id": "50417444"
    },
    {
      "threadId": "95737753",
      "post": "Bravo, Louis.",
      "time": "2010-05-14T23:47:33",
      "id": "50408263"
    },
    {
      "threadId": "84954550",
      "post": "I do not like to have discussions with people who do not post under  \r\ntheir real names. Such people are not willing to be held accountable  \r\nfor what they post to the Net, and are for this reason alone  \r\ninherently untrustworthy. Post using your real name or else there is  \r\nno point in further discussing anything. Below is a link to an article  \r\nthat's a fine example of someone who posts using his real identity.  \r\nYou're a fine brave fellow to talk about being a man, when all this  \r\ntime you're hiding behind a pseudonym. Impressive. Not. I may be a  \r\ntool for insisting on using real names, but I don't cower behind a  \r\ncloak of anonymity and hurl epithets  like you're doing. So brave, you  \r\nare. A \"brave\" hypocrite, that is.\r\n\r\nhttp://www.mondaynote.com/2010/04/11/the-adobe-apple-flame-war/",
      "time": "2010-04-13T00:51:05",
      "id": "44531397",
      "parentPost": "",
      "parentPostTime": "2010-04-13T00:29:31",
      "parentPostId": "44529572"
    },
    {
      "threadId": "84057205",
      "post": "Google \"Georges Lemaitre\" and you might be surprised at how the \"theory of the primeval atom\" originated",
      "time": "2010-04-10T00:00:06",
      "id": "44131928",
      "parentPost": "I only take issue with one of the statements used in the poll, which was, \"The universe began with a big explosion.\"  I think the 33% figure for America is misleading because I would have responded \"False\" to this statement as a science educated atheist. It was not an explosion, it was (and still is) an expansion. It was a poorly worded poll that could easily have excluded educated science-lovers as much as ignorant bible-thumpers. I think, had it been worded differently, that percentage could have been a great deal higher.",
      "parentPostTime": "2010-04-09T20:05:21",
      "parentPostId": "44080902"
    },
    {
      "threadId": "84657008",
      "post": "Since you can't seem to connect the dots, there is no point in  \r\ncontinuing this discussion. Wallow in your ignorance.",
      "time": "2010-04-09T23:29:51",
      "id": "44127107",
      "parentPost": "Is there a point in there? Strip away the marketing and OS X is just BSD with a pretty GUI.",
      "parentPostTime": "2010-04-09T21:58:36",
      "parentPostId": "44114367"
    },
    {
      "threadId": "84329758",
      "post": "This is going to get ugly. Folks like Appcelerator Titanium, various open-source tools, etc. are also going to be collateral damage in this fight. Joe Hewitt is outraged and tweeting about it.",
      "time": "2010-04-08T23:02:12",
      "id": "43931915"
    },
    {
      "threadId": "82948963",
      "post": "What, no solar charger built-in? Fail. ;)",
      "time": "2010-04-06T07:58:38",
      "id": "43463605"
    },
    {
      "threadId": "82920718",
      "post": "Cool, going to try it now...",
      "time": "2010-04-06T05:33:28",
      "id": "43455723"
    },
    {
      "threadId": "82788845",
      "post": "Louis - should I have used double instead of single quotes so they would be more prominent?",
      "time": "2010-04-05T19:53:47",
      "id": "43401160",
      "parentPost": "There's that word again, \"Lite\". :)\n\nAnd it's from \"Seattle based Übermind Inc\", not Adobe. You can't call every photo app PhotoShop.",
      "parentPostTime": "2010-04-05T19:44:11",
      "parentPostId": "43399158"
    },
    {
      "threadId": "82789174",
      "post": "Awesome.",
      "time": "2010-04-05T19:45:38",
      "id": "43399458"
    },
    {
      "threadId": "82002959",
      "post": "One possible reason was to prevent/deter an attempt to take an iPad offsite for a teardown to find out what the A4 and other silicon really is. Wouldn't surprise me if the dev units also had tripwires on the electronics to detect attempts to open or disassemble them.",
      "time": "2010-04-03T04:07:32",
      "id": "42976991",
      "parentPost": "ah, well as long as it wasn't bullshit.",
      "parentPostTime": "2010-04-03T02:20:23",
      "parentPostId": "42969973"
    },
    {
      "threadId": "81259477",
      "post": "I imagine many developers are taking a wait-and-see attitude before choosing where to focus their attention.",
      "time": "2010-03-31T20:22:09",
      "id": "42519114"
    },
    {
      "threadId": "80258323",
      "post": "Looks interesting! Prices are obviously a bit higher than the iPhone app store...",
      "time": "2010-03-29T00:27:03",
      "id": "42055150"
    },
    {
      "threadId": "80063909",
      "post": "Scheduled maintenance?",
      "time": "2010-03-28T06:02:30",
      "id": "41966185"
    },
    {
      "threadId": "80035863",
      "post": "This guy has talent!",
      "time": "2010-03-28T02:47:06",
      "id": "41951799"
    },
    {
      "threadId": "74026841",
      "post": "I just shot a stage production of Beauty and the Beast using (primarily) the AF 85/1.4 on a D300, and I wish I had ISO6400 for some of the action sequences! I wonder if the D700 will be enough, I don't have the moolah for a D3S.",
      "time": "2010-03-14T15:38:22",
      "id": "39635528"
    },
    {
      "threadId": "74808777",
      "post": "\"lower the bar for folks who just want to do stuff and get the computer out of the way\"\n\nSpot on!",
      "time": "2010-03-11T20:46:20",
      "id": "39087066"
    },
    {
      "threadId": "74655374",
      "post": "Downloaded over 3G earlier today. Much better than the previous version.",
      "time": "2010-03-11T05:45:17",
      "id": "38959193"
    },
    {
      "threadId": "73185184",
      "post": "\"Once a day, between 12-hour stretches at a neighborhood Internet cafe, they fed their baby\" - good grief, that is just pathetic. Makes you wonder how it is that we require driver's licences and other credentials but people are allowed to have children without any proof whatsoever that they have mastered certain basic life skills (not to mention common sense). Are we to assume that all the information required to navigate through life can be simply found through Google? Even if this were true, how can we be certain that people know how to find it through online search?",
      "time": "2010-03-07T04:27:03",
      "id": "38398430"
    },
    {
      "threadId": "71610981",
      "post": "I had seen the Derek Sivers talk previously, but not James Kunstler or Benjamin Zander. All three talks nicely complemented the respective clusters at TEDxYYC. Well done! Zander's talk about what kind of people we wish to be - to encourage shining eyes in others - was funny and deeply moving. The poignant story he told at the end, about the girl who survived Auschwitz and walked into life, reinforced my own vow to strive to be a positive presence in the lives of all people I meet.",
      "time": "2010-03-02T19:14:55",
      "id": "37637908"
    },
    {
      "threadId": "71425305",
      "post": "Unfortunately, my iPhone cannot replace the dishwasher, the vacuum cleaner, and the washing machine and clothes dryer, all of which require frequent feedings around our house. The most it can do for me as far as domestic chores are concerned is provide a bit of auditory entertainment while I fold the laundry or get rid of dustballs. :)",
      "time": "2010-03-02T07:15:05",
      "id": "37552217"
    },
    {
      "threadId": "71524125",
      "post": "LOL - art imitates life!",
      "time": "2010-03-01T22:07:55",
      "id": "37513471"
    },
    {
      "threadId": "70785865",
      "post": "\"Imagination is more important than knowledge.\" - Albert Einstein\n\nThis historical article shows that many (otherwise) knowledgeable people suffer from a dearth of imagination. Who imagined in 1968 that in 2010 we'd be carrying pocket computers connected to the Net 24/7/365, so that we can keep track of Olympic events or earthquakes and tsunamis? Cliff Stoll may be brilliant, but he is no Alan Kay. See http://en.wikipedia.org/wiki/Dynabook",
      "time": "2010-02-27T20:26:57",
      "id": "37266885"
    },
    {
      "threadId": "69962985",
      "post": "Chatroulette = web-based reincarnation of CUSeeMe",
      "time": "2010-02-25T05:05:46",
      "id": "36397541"
    },
    {
      "threadId": "67796411",
      "post": "I prefer Boondoggle.",
      "time": "2010-02-17T22:56:12",
      "id": "34958420"
    },
    {
      "threadId": "67689551",
      "post": "When I first got broadband at home in 1998, I installed a webcam with software that uploaded still image captures every 15 seconds and assembled a time lapse movie every hour and stored it on a remote FTP site. The software vendor later added motion detection capability so I was able to catch my (then) infant son \"cruising\" the sofa in the living room. It was easy to keep track of what was going on at home. It's trivial to install motion and sound sensors around your home and link it to multiple webcams. Unattended is not the same as unwatched.",
      "time": "2010-02-17T22:33:16",
      "id": "34956252",
      "parentPost": "gee, and what sane person would tweet to the world that his/her house is left unattended.. Somehow this reminds me of lootslinger, only this time it loots your goods on an ebay type of enterprise: <b>More details: http://bit.ly/lootslinger-ebay-like-store-details ",
      "parentPostTime": "2010-02-17T20:30:29",
      "parentPostId": "34908494"
    },
    {
      "threadId": "67728758",
      "post": "It's a Communist plot, I tell you! ;)",
      "time": "2010-02-17T18:38:49",
      "id": "34890483"
    },
    {
      "threadId": "67500871",
      "post": "\"I was highly disappointed in Google that they didn't think Buzz through. \"\n\nhttp://counternotions.com/2010/02/15/buzzback/\n\"It’s become fashionable among geeks to paint Apple “evil” for its steady control of the user experience. Google pretends to be the champion of the “open” web, but it surely is not, as explained in The Big Misdirection. Apple has no pretense at “openness” but, unlike Google, it thinks deeper when designing its products.\"",
      "time": "2010-02-17T17:59:09",
      "id": "34873934",
      "parentPost": "I happen to be a great supporter of Canada's privacy Act. It impacted all Canadians businesses and made them justify the data they were keeping on customers (plus give customers a way to have data removed.) \n\nI was highly disappointed in Google that they didn't think Buzz through. \n\nIn a recent blog post I did I quoted a BBC article which I will quote here. \"The BBC reported on the concerns of Evgeny Morozov, a Belarus-born researcher and blogger who looks at the political implications of the internet. ”If I were working for the Iranian or the Chinese government, I would immediately dispatch my internet geek squads to check on Google Buzz accounts for political activists and see if they have any connections that were previously unknown to the government,” he wrote\"",
      "parentPostTime": "2010-02-17T17:48:18",
      "parentPostId": "34872659"
    },
    {
      "threadId": "67296922",
      "post": "Oh gosh, my son plays this on a Mac, his friends play it on a Windows PC, and now they'll have one more reason to borrow my iPhone if I install it...make the insanity stop! :D",
      "time": "2010-02-16T17:04:42",
      "id": "34724920"
    },
    {
      "threadId": "66750017",
      "post": "Underneath, it's all just ones and zeros. :)",
      "time": "2010-02-14T09:11:41",
      "id": "34170723",
      "parentPost": "Yep, that occurred to me too. Can't help but wonder sometimes if we're  \r\njust re-skinning the same basic experiences over and over.",
      "parentPostTime": "2010-02-14T08:22:42",
      "parentPostId": "34169809"
    },
    {
      "threadId": "66703509",
      "post": "China is hardly the only country trying to censor the Internet. Try Australia. Or Iran. Or North Korea. Or Germany. We may end up with a Splinternet - hardly the vision Tim Berners-Lee had for his invention.",
      "time": "2010-02-14T08:08:49",
      "id": "34169610",
      "parentPost": "\n\nObviously, Pornography is just a alibi of China to avoid uncensorship to google china. If you will look at china's past history on how it wants to try to hide all its 'private affairs' from the world, you can see that China are really trying to hide something.\n\nGoogle may lose its partnership with China, but he will get the support of the world not to mention human rights activist: <b>More details: http://bit.ly/google-china-censorship-details\n",
      "parentPostTime": "2010-02-14T07:58:41",
      "parentPostId": "34169445"
    },
    {
      "threadId": "66707821",
      "post": "@Taylor - my primary use case is: do I get (unlimited?) access to the entire back catalog of Wired in searchable, digital form? Same with Nat Geo, Sci Am, MIT Tech Review, etc. It's not the gadget I'm primarily interested in, it's what the device gets me access to, and the convenience factor. I don't have an unlimited supply of time and money. I'm willing to part with some money to free up some of my time so I can pursue my interests with as little friction as possible. The fewer clicks to get from Current State A to Desired State B, the better. This point was driven home to me by a text I got from my mobile provider last week - text 'HELP' to donate $ to Haiti relief, it gets added to your monthly bill. That's all? DONE! No wonder the Red Cross raised $20M+ from texts alone!",
      "time": "2010-02-14T08:03:24",
      "id": "34169529",
      "parentPost": "Apple may be the best tablet for now, but seeing it, lacking some core-features, makes a user want to think twice before buying this one.\n\nI guess, its Sans the GPS/Flash/Camera makes it a real Turn-off for aspiring buyers to get this one. On the brighter side, at least the price isn't that much steep, although I doubt that users would buy the 500 USD 16GIG iPad -- To think that its capacity is not expandable, meaning you're going to spend your days with that limitation. \n\n<b>More details: http://bit.ly/ipad-details-under-examination",
      "parentPostTime": "2010-02-14T07:57:03",
      "parentPostId": "34169411"
    },
    {
      "threadId": "65273563",
      "post": "\"Why do we jump through so many hoops just to tweet a picture?\"\n\nHmm, I livestream video on Qik and it auto-uploads to YouTube concurrently from my iPhone 3G. And Soichi is posting to TwitPic from the ISS, so not sure what the problem is.",
      "time": "2010-02-09T00:48:40",
      "id": "33144690"
    },
    {
      "threadId": "65016167",
      "post": "First added to YouTube on Nov. 19, 2009. Minimalist storytelling. More and more people navigate through life using Internet search. Fascinating.",
      "time": "2010-02-08T01:59:13",
      "id": "32973150"
    },
    {
      "threadId": "64399585",
      "post": "Chris - I don't read your blog regularly, but since you asked for comments, I'll leave one with a link to a moving blog entry from a software developer I know whose father, 71, has Parkinson's Disease and would likely benefit from having an iPad. Here:\n\nhttp://www.jennandlucien.net/lucien/2010/02/05/my-dad-and-the-ipad",
      "time": "2010-02-06T07:10:15",
      "id": "32821210"
    },
    {
      "threadId": "64456501",
      "post": "Every in-group needs an out-group, a \"them\" vs. \"us\" -- or, as Groucho Marx once said, \"I wouldn't want to belong to any group that would have me as a member.\" :D",
      "time": "2010-02-05T17:12:01",
      "id": "32747955"
    },
    {
      "threadId": "63502083",
      "post": "Twitter is just the latest toolset for people who understood The Cluetrain Manifesto in 1999. The sad part is, if you get on the wrong train, it doesn't matter how fast you run down the corridor.",
      "time": "2010-02-05T16:25:36",
      "id": "32742807"
    },
    {
      "threadId": "64322179",
      "post": "Not. Yet. Available. In. Canada. :(",
      "time": "2010-02-05T06:52:04",
      "id": "32708490"
    },
    {
      "threadId": "64328145",
      "post": "Cool!",
      "time": "2010-02-05T06:04:41",
      "id": "32705684"
    },
    {
      "threadId": "64318234",
      "post": "Not available in the Canadian App Store yet. :(",
      "time": "2010-02-05T05:22:06",
      "id": "32701446"
    },
    {
      "threadId": "64264334",
      "post": "Wow. We don't even have to wait for the magazine to hit newsstands anymore.",
      "time": "2010-02-04T23:46:40",
      "id": "32670102"
    },
    {
      "threadId": "64239694",
      "post": "LOL - talk about product placement.",
      "time": "2010-02-04T22:38:50",
      "id": "32653878"
    },
    {
      "threadId": "64196184",
      "post": "Cool. If technology doesn't improve human life in some way, then what is it good for?",
      "time": "2010-02-04T20:51:07",
      "id": "32635294"
    },
    {
      "threadId": "63076928",
      "post": "Cool.",
      "time": "2010-02-01T01:42:42",
      "id": "32245502"
    },
    {
      "threadId": "63076837",
      "post": "Hmm. What other recent consumer electronics device got this level of media exposure? ",
      "time": "2010-02-01T01:34:23",
      "id": "32244920"
    },
    {
      "threadId": "62145838",
      "post": "I win because my arguments are logically correct and yours are not. Simple as that.",
      "time": "2010-01-30T23:26:26",
      "id": "32174396",
      "parentPost": "I think the heading should be\n\n\"What we've learned about Victor today\"\n\nVictor, as you've seen here I'm one of the few to reply to you. The reason is that most people can't be bothered responding to trolls and fanbois.\n\nAs my mother once said:\n\n\"Don't argue with idiots. They drag you down to their level and beat you with experience\"\n\nYou win.",
      "parentPostTime": "2010-01-30T23:23:58",
      "parentPostId": "32174301"
    },
    {
      "threadId": "59257953",
      "post": "@Chris - sorry I addressed Louis instead of you. Have you read Tim Berners-Lee's book, Weaving the Web? I cherish this quote from Chapter 10, \"Web of People\" (p.123):\n\n\"The ultimate goal of the Web is to support and improve our weblike existence in the world.\"",
      "time": "2010-01-18T01:25:53",
      "id": "30112923",
      "parentPost": "I love this video - one of my all time favorites",
      "parentPostTime": "2010-01-18T00:54:15",
      "parentPostId": "30111308"
    },
    {
      "threadId": "58678658",
      "post": "This is why I don't use IE unless I absolutely have to (required at work for some apps)",
      "time": "2010-01-15T01:44:18",
      "id": "29912239"
    },
    {
      "threadId": "58601403",
      "post": "Sheesh. Have we now all become so pathologically narcissistic and insecure that losing our Facebook \"friends\" (especially if we have lots of them) is really that big a deal? It's just like being obsessed with the number of followers on Twitter, FriendFeed, Google FriendConnect, etc. Pathetic. Better to spend time with our real friends, e.g. those whom we see regularly in meatspace - as Dan Buettner's TEDtalk asserts, it's these friends who really matter - see http://bit.ly/83b1aw.",
      "time": "2010-01-14T19:46:00",
      "id": "29861094"
    },
    {
      "threadId": "58579999",
      "post": "Some curious omissions: why no one from Google? Jimmy Wales (Wikipedia)? Tim Berners-Lee?",
      "time": "2010-01-14T18:19:30",
      "id": "29854007"
    },
    {
      "threadId": "61925947",
      "post": "As USENET veterans know, the tools may change, but the game remains the same",
      "time": "2010-01-13T23:08:04",
      "id": "29693861"
    },
    {
      "threadId": "58353921",
      "post": "They're somewhere in the clouds...",
      "time": "2010-01-13T22:55:22",
      "id": "29693011"
    },
    {
      "threadId": "58286537",
      "post": "The original was probably better.",
      "time": "2010-01-13T19:19:19",
      "id": "29664558"
    },
    {
      "threadId": "55378109",
      "post": "\"Imagination is more important than knowledge.\" — Albert Einstein\n\nThere's a reason Joe Wilcox wrote what he did.\n\nIt has to do with something called imagination, or more precisely, a probable lack of it.",
      "time": "2010-01-03T10:15:18",
      "id": "27876851"
    },
    {
      "threadId": "55356700",
      "post": "I hope Apple (or someone else) can deliver this kind of experience real soon now...\nhttp://vimeo.com/8217311?hd=1\n\nBecause I can hardly wait for the world to be changed (for the better!)\nhttp://shar.es/aUgbj",
      "time": "2010-01-03T07:11:43",
      "id": "27872875"
    },
    {
      "threadId": "52925195",
      "post": "Just use OpenDNS (www.opendns.com). It's free and very easy to set up.",
      "time": "2009-12-19T23:48:30",
      "id": "26687504",
      "parentPost": "Let´s look at the bright side of it, at least porn isn´t number one, oh wait, they can access porn through youtube and Google, oops!\n\nBottom line is that i don´t trust Symantec to protect me from viruses, neither do i trust them on this report, Symantec sucks.\n\n",
      "parentPostTime": "2009-12-19T22:29:42",
      "parentPostId": "26684851"
    },
    {
      "threadId": "46551176",
      "post": "@taa - I use a Rode Videomic with the Kodak, but you can use a powered lavalier mic or a wireless kit as well. The built-in mic is OK for close-in work, but you have to be careful about handling noise (as with the Flip). Use a bracket to mount the mic unless it's a wired lav or handheld, and when practical, use a tripod - the image stabilization isn't effective (and the Flip has none). Why do I have one of each? The Flip is dead simple to use, it can take AA's, and I often lend it to my 9-year old son, who creates LEGO movies. I use the Kodak for both work-related and personal recording, and it has a much nicer screen. I got the Flip Ultra2HD earlier this year, the Kodak Zi8 wasn't out yet. The Zi8 can do 1080p also and it has a 5-megapixel still camera function.",
      "time": "2009-11-19T20:52:41",
      "id": "23564297",
      "parentPost": "wow--thanks SO MUCH for the tip about the external mic--this is something I knew I'd wish I had (just recently got a Flip), and sure enough...it's the one feature I really miss. What kind of mic do you recommend w/ that Kodak you have? And just curious why you have 1 of each. Thanks!\n- Taa\nhttp://twitter.com/720MEDIA",
      "parentPostTime": "2009-11-19T18:30:03",
      "parentPostId": "23553826"
    },
    {
      "threadId": "46227716",
      "post": "Wow, deja vu. The UI reminds me of Apple's Project X...from 1996\nhttp://www.macintoshgarden.org/apps/apples-hotsauce-technology-project-x",
      "time": "2009-11-17T21:12:10",
      "id": "23384531"
    },
    {
      "threadId": "43033649",
      "post": "Chris - although Scott McNealy used to joke \"You have no privacy, get over it.\" for most people privacy is still worth protecting in many contexts. Our enthusiasm for the relative openness of digital media space must be tempered with the realization that, human nature being what it is, with knowledge comes a real responsibility (if only to decide what to divulge publicly and what to keep private) to curate and steward.",
      "time": "2009-11-02T08:07:40",
      "id": "21652350",
      "parentPost": "Well, like victor was saying, he's on a private mailing list.  They're probably not going to change, but could have a real-time private channel over on friendfeed.  I do kind of get what you're saying about the WTF factor, but I would explain it as a backchannel for the backchannel.",
      "parentPostTime": "2009-11-02T07:50:10",
      "parentPostId": "21643351"
    },
    {
      "threadId": "42341922",
      "post": "I, too, use Google apps extensively on my Macs and on my iPhone, but the reality is that unless and until internet connectivity is as reliable and as ubiquitous as, say, electricity, I won't be relying only on cloud-based apps for everything. The lesson of the Danger/Sidekick data loss fiasco is still too fresh to ignore. Los Angeles may have voted to \"Go Google\" but the company I work for (with over 30,000 employees, about the same number as the LA City Govt.) is not convinced of the cost-benefit of outsourced email.",
      "time": "2009-10-29T09:28:42",
      "id": "21250587"
    },
    {
      "threadId": "41529494",
      "post": "\"They are, at best, untrustworthy paid shills.\" -- the same could be said about legions of securities \"analysts\" and financial \"advisers\" who know little to nothing about the investments they're flogging to gullible customers.",
      "time": "2009-10-25T03:23:20",
      "id": "20957239"
    },
    {
      "threadId": "35150147",
      "post": "@Mark - based on what the MIT Media Lab already had in-house in the 1990's (technology described in Stewart Brand's book \"The Media Lab\"), we are still using today very primitive tools by comparison. Why do I still have to manually search for a lot of information? Intelligent software agents should assist me by bringing to my attention things that are relevant and timely based on parameters I have specified. Based on my dining preferences, for example, software/services should recommend nearby restaurants without my asking. With continuous speech recognition, I should not have to learn computer language syntax, but the system should also parse my natural language query into SQL and whatever else it needs to answer my question. Speech recognition is one thing, but I shouldn't also have to dictate SELECT * FROM OPENTABLE_RESULTS WHERE CUISINE EQUALS 'ITALIAN' AND PRICE_RANGE <50 AND AVERAGE_RATING >3",
      "time": "2009-09-20T20:10:15",
      "id": "16994233",
      "parentPost": "That's the type of expectations that shatter the status quo, fantastic vision Victor! What do you think we can do to aid design, help build, and ultimately take advantage of opportunities available in this ubiquitous portable computing world? I'm hungry for the reality of advanced software design, which I believe we are in greater need of then even the type of amazing hardware options you describe. The cost of programming and software support will decrease only when the ease of use for high level web ready languages improves. ",
      "parentPostTime": "2009-09-20T16:29:56",
      "parentPostId": "16988026"
    },
    {
      "threadId": "34869648",
      "post": "http://pixelpipe.com",
      "time": "2009-09-18T08:21:30",
      "id": "16863663"
    },
    {
      "threadId": "32962240",
      "post": "Truer words have rarely been spoken.",
      "time": "2009-09-07T00:51:34",
      "id": "16079716"
    },
    {
      "threadId": "38803865",
      "post": "I use a Garmin GPS when visiting a different city (e.g. Kelowna, Vancouver), and Google Maps on my iPhone 3G in my home city (Calgary). In the interest of safety (my own and that of others), I do not use my mobile for calls while driving. Several large companies explicitly forbid their employees from taking or making calls while driving, because a growing body of research shows that driving while talking on a mobile phone, even hands-free, is approximately equivalent to driving under the influence of alcohol. My Garmin GPS also has a warning not to futz around with it while the vehicle is in motion.",
      "time": "2009-07-14T00:00:49",
      "id": "12611304"
    },
    {
      "threadId": "23756411",
      "post": "It depends, I suppose. For no reason in particular, I turned on the TV last night and watched David Cronenberg's \"Videodrome,\" followed right after by Roman Polanski's \"Repulsion\" — and I'm still trying to think through both films, especially Videodrome. Then again, these are classic films, and they don't represent normal TV fare. Videodrome is being remade, and I don't know if it will be as good as the original, which offers plenty of food for thought.",
      "time": "2009-07-05T04:09:35",
      "id": "12166438",
      "parentPost": "But does it contribute to brain-rot when what you're watching is meant to provide you with intellectual insight into something?",
      "parentPostTime": "2009-07-04T15:22:53",
      "parentPostId": "12154650"
    },
    {
      "threadId": "38803747",
      "post": "Sweet. It's value-add destinations like these that will flourish in the age of attention scarcity. ",
      "time": "2009-05-29T00:22:35",
      "id": "10228922"
    },
    {
      "threadId": "38803972",
      "post": "Coins belong in a film canister (assuming you still have any of those). Rattling in a laptop means there is something that could get caught in a fan or (if conductive) might short something or cause a fire.",
      "time": "2009-05-26T03:15:27",
      "id": "9941818"
    },
    {
      "threadId": "38803983",
      "post": "@GeekMommy wrote: \"you have managed to waste considerable amounts of my time with this frivolous and nonsensical path of yours\"\n\nUh, no. It was YOUR choice to respond at length. Don't blame me for YOUR choice. You talk about logical fallacies, well there's a huge one right there. :-D\n\nRead Covey's 90/10 principle. Here, I'll even give you a link:\n\nhttp://www.irastimes.org/The_90-10_Principle.htm\n\nYou're welcome, and I forgive you for your intemperate outburst. :-)",
      "time": "2009-05-15T17:01:18",
      "id": "9366104",
      "parentPost": "Dude. Take 2 minutes. Try clicking a link or two. Quit trying to school me in things I actually know considerably more about than you do.\r\nYou've seen the databases - I've written them.\r\nYou talk about infrastructure - I've certified (or decertified it).\r\nYou work as a webmaster for a diocese - I coded for nearly 2 years for the Archdiocese and did all of their Y2K remediation on COBOL backends that ran their entire financial, charitable and cemetary systems and then mapped that to visual front ends for Windows from HP mainframes.\r\nYou talk about mission critical systems - I know the guys who have the ability to bring them down and go to DEFCON every year.\r\nIt takes about 2 seconds to find out that I used to be a CIS professor who taught coding, logic, and business systems and that I've done high-end, speciailized Source Code review on every major electronic voting system out there and know more about their processes than 99.99% of the folks out there... but you're trying to lecture me on this?\r\n\r\nGood change management remains good change management - the fact that no one at Twitter is remotely familiar with how to implement it doesn't disappear because there are other issues in the world.  It's a logical fallacy that I'm not about to fall for.\r\n\r\nThen again, you have managed to waste considerable amounts of my time with this frivolous and nonsensical path of yours... so in a most basic, trollish way, you win.  The Interwebs are yours... \r\n\r\nFortunately? My own usenet experiences gave me the fortitude long ago to walk away from a thread when I realized that the person on the other end of it is all bluster and no substance.\r\n\r\nHave a nice time worrying about whether or not the hackers are coming to get you.  Oh, and when you're done? Consider dropping by to enter the contest to win an Ethical Hacking certification course on my site - it seems you might enjoy the enlightenment that the EC program could bring you.",
      "parentPostTime": "2009-05-15T09:23:19",
      "parentPostId": "9357075"
    },
    {
      "threadId": "18133187",
      "post": "That is freaking awesome!",
      "time": "2009-05-14T08:26:34",
      "id": "9316680"
    },
    {
      "threadId": "38804338",
      "post": "Bob: \"Companies know they must evolve\" - Do they? Fall 2008 I made a presentation on Gen Y to 65 of my management colleagues, and no one seemed to know what Twitter was. Hmm.",
      "time": "2009-05-11T04:48:27",
      "id": "9196235",
      "parentPost": "Nice post Louis.  I think we're at an important point right now in the eyes of the consumerist.  We have equal (if not more) knowledge than the companies we're doing business with and we're becoming more value conscience.  \r\n\r\nCompanies know they must evolve, but as Victor pointed about above, many still don't get it.  What do you think we push these companies over the edge?  Do you feel that a majority of the population is still behind in terms of real-time?",
      "parentPostTime": "2009-05-10T22:36:24",
      "parentPostId": "9190320"
    },
    {
      "threadId": "38803996",
      "post": "Yikes. Another Internet time sink.",
      "time": "2009-04-28T03:50:14",
      "id": "8764570"
    },
    {
      "threadId": "38804089",
      "post": "What makes a business?\r\n\r\n1. Provide a useful product or service that people will pay for.\r\n2. Generate enough profit to sustain and grow the business.\r\n3. Derive a sense of satisfaction and fulfillment from (1) and (2).\r\n\r\nRinse, repeat.",
      "time": "2009-04-23T08:18:37",
      "id": "8600870",
      "parentPost": "Then what makes a business?",
      "parentPostTime": "2009-04-23T06:04:38",
      "parentPostId": "8599215"
    },
    {
      "threadId": "16291993",
      "post": "Awesome. Can't wait to show this to my son, who is nine years old and an avid reader!",
      "time": "2009-04-21T23:06:14",
      "id": "8542913"
    },
    {
      "threadId": "38803852",
      "post": "I suspect many LinkedIn regulars weren't Usenet aficionados, so the business value of opt-in threaded discussions isn't immediately apparent to them. (I see my archived posts in the Google Groups index as far back as 1992, and I think I'd been posting to Usenet since at least 1989, possibly earlier, but the Google index doesn't go that far back - yet). I suspect the ghost town phenomenon is also apparent on many intranets at large companies where the people feel constrained by the corporate culture to refrain from diving in, e.g. because of email overload, etc.",
      "time": "2009-04-21T17:22:11",
      "id": "8490217"
    },
    {
      "threadId": "38803744",
      "post": "Watch your health, don't ignore warning signs, especially if you take on a heavy travel schedule. The early years of your children are precious, don't miss out on them.",
      "time": "2009-04-21T08:00:28",
      "id": "8480037"
    },
    {
      "threadId": "16100417",
      "post": "Nice!",
      "time": "2009-04-19T03:19:16",
      "id": "8342364"
    },
    {
      "threadId": "11250848",
      "post": "Mark - I've posted to the Net using my real name ever since I started on Usenet — in 1989, if I recall correctly, although Google's archive only seems to go back to 1992. I'm willing to be held accountable for what I post online, just as I'm willing to be held accountable for what I say to someone face to face.",
      "time": "2009-02-08T03:23:33",
      "id": "6076408"
    },
    {
      "threadId": "90616",
      "post": "Then the dead hard drive should have been returned to you without your even asking for it, as was the case with my iBook G4 repair in July 2004. Then again, I used an authorized third-party Apple dealer, not Apple itself.",
      "time": "2008-01-02T16:26:19",
      "id": "54990",
      "parentPost": "It was not under warranty. ",
      "parentPostTime": "2008-01-02T13:36:39",
      "parentPostId": "54676"
    }
  ],
  "profileInfo": {
    "username": "victorpanlilio",
    "about": "Geek, husband, Dad, and pro-life Catholic, not necessarily in that order",
    "name": "Victor Panlilio",
    "disable3rdPartyTrackers": false,
    "isPowerContributor": false,
    "isAnonymous": false,
    "rep": 1.407899,
    "profileUrl": "https://disqus.com/by/victorpanlilio/",
    "url": "http://panlilio.blogspot.com/",
    "reputation": 1.407899,
    "location": "Calgary, Canada",
    "isPrivate": false,
    "signedUrl": "http://disq.us/?url=http%3A%2F%2Fpanlilio.blogspot.com%2F&key=UTsvdnVlnyDpSa-jfGj7_A",
    "isPrimary": true,
    "joinedAt": "2008-01-02T16:23:33",
    "id": "5427",
    "avatar": {
      "small": {
        "permalink": "https://disqus.com/api/users/avatars/victorpanlilio.jpg",
        "cache": "//a.disquscdn.com/uploads/users/5427/avatar32.jpg?1281549414"
      },
      "isCustom": true,
      "permalink": "https://disqus.com/api/users/avatars/victorpanlilio.jpg",
      "cache": "//a.disquscdn.com/uploads/users/5427/avatar92.jpg?1281549414",
      "large": {
        "permalink": "https://disqus.com/api/users/avatars/victorpanlilio.jpg",
        "cache": "//a.disquscdn.com/uploads/users/5427/avatar92.jpg?1281549414"
      }
    }
  }
}