{
  "comments": [
    {
      "threadId": "4487692948",
      "post": "I posted a screenshot tutorial for a n00b to AWS showing the steps I think are involved in getting the Slack demo to work... http://blog.ouseful.info/2016/03/11/implementing-slash-commands-using-amazon-lambda-functions-getting-started/",
      "time": "2016-03-11T16:01:47",
      "id": "2564031145"
    },
    {
      "threadId": "4539088734",
      "post": "Stephen\n\n:-)\n\nThe post was a response to a week spent offering tech support to distance students trying to install a set of course software on their computers using a VirtualBox virtual machine. (We opted for a VM to simplify installation... Of course, the combination of VirtualBox, host O/S, (and possible host O/S security settings) means things haven't \"just worked\"...)\n\n(In testing, one solution raised only half jokingly was that we buy everyone a computer and install the s/w on it ourselves. This is a lighter touch to that...)\n\nSo what't the solution? Run everything online? But that requires: online hosting + network access to do /anything/.\n\nThere is also the wider issue of how you run legacy s/w on legacy o/s as part of a digital preservation strategy, (which must also take into account: how do you get the preserved bits onto your current compute hardware?).\n\nSo serious question: if cMOOCs require learners to make use of arbitrary software, what method do you suggest for distributing that software? If I wanted to run a cMOOC in digital archaeology that made use of preserved software, how should it be distributed?\n\n--tony",
      "time": "2016-01-31T18:12:34",
      "id": "2488199236"
    },
    {
      "threadId": "3831345906",
      "post": "Via a comment on my blog, I was pointed to https://github.com/swarm-lab/editR which uses knitr to provide a \"live view\" of Rmd and code executed from it. I'm not sure how generalisable that approach might be to other languages...?",
      "time": "2015-06-09T19:08:16",
      "id": "2070480564"
    },
    {
      "threadId": "3124356981",
      "post": "Hi\n\n[At the risk of confusing the issue you had with an issue I had that perhaps have different causes but similar effect on docker memory usage...]\n\nI had a similar issue in respect of memory issues in boot2docker, but whilst your comments below and associated threads suggest there may have been a memory leak issue previously, a similar problem arises simply from the way that the MySQL package is *designed* to mount data in volumes that aren't disposed of if you simply /docker rm [CONTAINER]/ them rather than get rid of the associated volumes too using /docker rm -v [CONTAINER]/\n\nFor more see this answer to a github issue I raised:  https://github.com/docker-library/mysql/issues/40#issuecomment-69738884\n\nI was completely not expecting things to be created outside the container and in a \"hidden\" way. As the above issue comment described, this utility - https://github.com/cpuguy83/docker-volumes - allows you to list and remove mounted volumes.\n\nAs far as making portable data containers goes, flocker ( https://docs.clusterhq.com/en/latest/gettingstarted/examples/environment.html ) appears to have a solution for this.",
      "time": "2015-01-13T18:23:22",
      "id": "1790752449"
    },
    {
      "threadId": "3178457118",
      "post": "Hi Luis\n\nLove the script, though I've come across a memory issue I hadn't expected in data volumes not being collected away when removing containers described and solved here:\n\nhttps://github.com/docker-library/mysql/issues/40\n\nWhat I had expected to happen by default was that each time I created a container, it would be associated with an otherwise empty data volume. But as I deleted containers using *docker rm  [container]* rather than *docker rm -v [container]* and then recreated test containers /with the same name/ as previously deleted ones, the database volume was being persisted and reused.",
      "time": "2015-01-13T13:18:47",
      "id": "1790260351"
    },
    {
      "threadId": "3147097433",
      "post": "I quite agree that portals can provide a useful way of discovering and collecting or curating datasets, although care needs to be taken managing provenance information and thought given consistency issues between locally held copies of a dataset and the original version.\n\n\nWhere datasets are cleaned before being placed into a portal, it can also be useful to provide a copy of the original dataset and the steps taken to clean the data. If you use a tool such as OpenRefine (from openrefine.org) to clean a dataset, it creates a history of the data transformational steps you have applied. This means that you can repeat the same steps on future datasets of the same form, as well as keeping track of what change operations you made to the original data set when cleaning it.",
      "time": "2014-11-11T11:34:01",
      "id": "1687573155",
      "parentPost": "Thanks for this excellent post.\n\nIt's particularly interesting to see the popularity of online data portals as a method of publishing open data  from various systems, giving people the ability to view, create graphs/visualisations, and for developers to create new solutions without ever actually downloading the data.  (While still providing downloads if required).\n\nA great example using tabular data packages (CSV + a metadata file) is the Open Knowledge Foundation providing a way of browsing and visualising those packages, here:\nhttp://data.okfn.org/data\n\nThe metadata file can even include the views (e.g. the configuration of the charts) that you want users to be able to see, without having to do any work themselves.\n\nSocrata offer a data portal solution, implemented here by a community group in Bath who work with the Council to publish datasets, such as this one on library lending transactions.\nhttps://data.bathhacked.org/Government-and-Society/Library-Lending-Transactions-Apr-2012-Jan-2014-/ba2u-vfz5\n\nThere are other alternatives as well of course such as the open-source CKAN which is used by big examples like data.gov.uk and the Leeds data mill (http://www.leedsdatamill.org/).\n\nData education with regard to online portals has various advantages such as removing duplication of data.  A regularly updated dataset for example may not be much use once it is downloaded, wheareas an online portal may give the ability to configure interesting views on that data that will remain up to date).",
      "parentPostTime": "2014-11-10T16:01:24",
      "parentPostId": "1685885039"
    },
    {
      "threadId": "2258892347",
      "post": "ANother xkcd cartoon that hits this mark... \"Significance\" https://xkcd.com/882/",
      "time": "2014-02-13T10:46:13",
      "id": "1242453411"
    },
    {
      "threadId": "1811700241",
      "post": "Hi Maarten - thanks for that link... Although I don't speak Dutch, I think I managed to pick some of the comparisons up from the graphics:-) Which got me wondering in turn about how we can start to use graphics that are universal....?",
      "time": "2013-10-08T17:52:25",
      "id": "1075240732",
      "parentPost": "Very nice examples. Making large amounts or small risks tangible is often overlooked in journalism and other fields.\nI made a Prezi showing the wealth of all dollar billionaires, comparing this wealth to a variety of other large amounts of money: http://prezi.com/c2jdh7fkh9fw/het-fortuin-van-de-0000017/ (in Dutch)",
      "parentPostTime": "2013-10-01T19:21:32",
      "parentPostId": "1066361125"
    },
    {
      "threadId": "1284727256",
      "post": "@Sharon - well spotted, thanks; now corrected:-)",
      "time": "2013-05-13T13:35:03",
      "id": "895846716",
      "parentPost": "I think in paragraph 3 you want site:schoolofdata.org and not filetype:schoolofdata.org here:\n\n   For example, adding the site: search limit to a web search, as in filetype:schoolofdata.org",
      "parentPostTime": "2013-05-13T12:16:46",
      "parentPostId": "895793546"
    },
    {
      "threadId": "997285925",
      "post": "Another approach is to use Scraperwiki, eg https://scraperwiki.com/scrapers/twitter_scraper_16/\n\nOn a daily schedule, this will grab up to 1500 tweets a day (or every hour if you pay for the Scraperwiki hourly cron jobs).\n\nNote there may be a couple of \"issues\": 1) Twitter api might rate limit calls from scraperwiki, so if there are lots of scrapers calling Twitter, they may get blocked; (I guess you could declare a scraper as protected, pop your Twitter OAuth keys, and use eg tweepy library to make calls as you to the Twitter API; then you'd just be subject to your own acoount's rate limits). 2) becuase Scraperwiki offers an API, archiving tweets this way may go against Twitter Terms and Conditions.\n\nA couple of other alternatives:\n\n1) ThinkUp App - https://thinkup.com/\n\n2) eprints - http://repositoryman.blogspot.co.uk/2011/10/using-eprints-repositories-to-collect.html\n\nOf course, Twitter is currently rolling out personal archive export - http://www.pcworld.com/article/2022380/twitters-downloadable-archive-a-hands-on-tour.html",
      "time": "2013-01-09T18:07:29",
      "id": "761467980"
    },
    {
      "threadId": "832478899",
      "post": "This also reminds me of Github pages, which will render markdown files - http://pages.github.com/",
      "time": "2012-09-06T10:58:30",
      "id": "641816451"
    },
    {
      "threadId": "747809536",
      "post": "Is it possible to easily add and display a custom tooltip column so that the tooltip pops up custom text when you hover over a datapoint?",
      "time": "2012-09-03T13:12:49",
      "id": "638508097"
    },
    {
      "threadId": "787019278",
      "post": "I can imagine some accounts having large number of friends/followers; would it make sense to have a light version of the api as default, with switches for latest fr, fo, or both; a call that shows date stamps for which fr/fo data is available; and a call that lets you pull that data by date?",
      "time": "2012-07-31T21:13:59",
      "id": "605099208"
    },
    {
      "threadId": "768152208",
      "post": "FWIW, I've blogged a recipe for generating things like influence graphs based on DBpedia structured links using the Semantic Web Import tool in the Gephi network visualisation app: http://blog.ouseful.info/2012/07/03/visualising-related-entries-in-wikipedia-using-gephi/ So if you want to visualise an influence map in a particular area, such as psychedelic music for example { http://blog.ouseful.info/2012/07/04/mapping-related-musical-genres-on-wikipediadbpedia-with-gephi/ ], you can do... ",
      "time": "2012-07-17T00:06:17",
      "id": "589732816"
    },
    {
      "threadId": "587354247",
      "post": "Not just the Vogue festival - see also the Conde Nast College of Fashion and Design... http://www.condenastcollege.co.uk/",
      "time": "2012-02-26T10:48:54",
      "id": "449189056"
    },
    {
      "threadId": "532508280",
      "post": "If you're technically minded, here's a recipe you should be able to use to map the interests of your own friends on Facebook (and with a bit of tweaking, their music or movie interests too...) http://blog.ouseful.info/2012/01/04/social-interest-positioning-visualising-facebook-friends-likes/",
      "time": "2012-01-09T16:21:05",
      "id": "406337586"
    },
    {
      "threadId": "524918630",
      "post": "I suspect that claims made against \"respectable\" publishers will be treated as mendacious, mischievous, perfidious or some other -ous that means they can be ignored...",
      "time": "2012-01-03T17:57:25",
      "id": "399713664"
    },
    {
      "threadId": "489696165",
      "post": "If you want to do more with Twitter and Google Spreadsheets, should probably check out Martin Hawksey's Google Spreadsheet Twitter archiver - http://mashe.hawksey.info/2011/11/twitter-how-to-archive-event-hashtags-and-visualize-conversation/ - and visual exploration tool http://mashe.hawksey.info/2011/11/tagsexplorer-queryable/",
      "time": "2011-12-01T14:10:12",
      "id": "376661288"
    },
    {
      "threadId": "351965861",
      "post": "\"My main concern is over hidden data. Francis Maude’s insistence that data releases “must be demand led” would only be valid if we knew precisely what datasets the government held.\"\n\nOne way of finding out what data government bodies have is to get hold of the single lists that identify the data burdens placed on them. For example, http://getthedata.org/questions/500/data-burden-on-uk-higher-education\n\nA directory of data burdens for different government agency types might be a start?",
      "time": "2011-07-07T12:32:15",
      "id": "244973237"
    },
    {
      "threadId": "323038692",
      "post": "I managed to grab timing data from race 3 - lapchart and race history on #f1datajunkie http://f1datajunkie.blogspot.com/search/label/BTCC",
      "time": "2011-06-07T13:09:20",
      "id": "219928581"
    },
    {
      "threadId": "283819263",
      "post": "I 've also thought for some time that the dynamics of computer networks offer a rich enough space to look for interesting patterns of  complex dynamical systems behaviour. It's already easy enough to spot \"netrhythms\" (e.g. I started collecting some websearch related ones at trendspotting.corank.com) as well as signs of human life across the globe as lights turn on an net traffic awakes as part of the daily cycle. And as more of the world becomes autonomous, it will increasingly be artifical sensors rather than human senses that trigger cycles of activity that become visible at a macro- and meso-scale. I'm quite happy to believe there'll come a point when the system starts to become self-regulating in certain aspects, as sensor and effector chains start to become connected via feedback loops. But arguments about \"real\" or \"as-if\" intentionality within such a system are bound to arise!;-)",
      "time": "2011-04-20T08:57:00",
      "id": "188125509"
    },
    {
      "threadId": "227954169",
      "post": "I am not clear on what the role of the \"Public Data Corporation\" is supposed to be, so it's quite hard to know whether it has been named appropriately?",
      "time": "2011-02-19T14:24:41",
      "id": "152482966"
    },
    {
      "threadId": "228125831",
      "post": "One particular class of data that interests me is data that is:\n\n1) reported by a local organisation to a central body;\n2) using a standardised, templated reporting format,\n3) and that is FOIable either from the local organisation, and/or from the central body.\n\nFor example, in Higher Education, this might include data on library usage as reported to SCONUL, or marketing information about courses submitted to UCAS.\n\nIt can often be hard to find out how to phrase an FOI request to obtain this data as submitted, unless you know the type of reporting form used to submit it.\n\n What I would like to see is the Public Data Corporation acting in part as a Public Data Exchange Directory, showing how different classes of public organisation make standard (public data containing) reports to other public organisations, detailing the standard report formats, with names/identifiers for those forms if appropriate, and describing which sections of the report are FOIable. This could also link in to the list of local council data burdens, for example ( http://www.communities.gov.uk/localgovernment/decentralisation/tacklingburdens/databurdens/) and/or the code of practice for local authority transparency ( http://www.communities.gov.uk/publications/localgovernment/codepracticeladataconsult )\n\nThe next step would be to introduce a pubsub (publish-subscribe) model in the reporting chain for reporting documents* that are wholly FOIable. This could happen in several ways:\n\nA) /open report publication/ -  the publishing organisation could post their report to their opendata reporting store, and the consuming organisation (the one to which the report was being made) would subscribe to that store, collecting the data from there as it was published; third parties could also subscribe to the local publishing store and be alerted to reports as they are published. If co-publication to the central organisation and the public is not appropriate, the report could be witheld from public/press consumption for a specified period of days, or published to the press but not the public under embargo.\n\nB) /open deposit/ - the publishing organisation publishes the report/data to an open deposit box owned by the central organisation which is receiving the report. After a specified period of time, the report is made public (ie published) via that central deposit box.\n\nC) /data corp in the middle/ - a centralised architecture in which local organisations submit public reports to a Public Data Exchange, which then passes them on to the central body to which reports are made, and publishes them to the public, maybe after a fixed period of time.\n\nThe intention of all three approaches described above is to provide an open window onto the reporting chain. At the current time, open public data tends to be data that is published via a separate branch \"to the public\". In contrast, the above approach suggests that public data publication acts as a view onto all or part of the data as it goes about it's daily business being published from one organisation to another. That is, public data publication becomes a \"tap\" onto a dataflow/workflow process.\n\nIf one of the desires for data exploitation is to help introduce efficiencies as well as reuse in data related activities, third parties need to be able to work with data as it currently used. \n\nA final issue relates to the way data is published. The JISC Resource Discovery Taskforce is currently consulting [ http://rdtfmetadata.jiscpress.org/ ] about metadata standards for describing resources in the Museums, Libraries and Archives field, and work is also ongoing with respect to efficient and complete ways of publishing scientific data. To the extent that generic models or guidance is possible with respect the representation of arbitrary data sets, it may be worth liaising with those working groups on generic guidelines for effective data publishing conventions.  [Disclaimer: I am on the RDTF Technical Advisory Group]\n\n* when talking about reports, I include the following sense: where a report is made, it is likely to include summary reports and maybe complete datasets. Ideally, data contained in reports should also be made available as \"raw data\" in an open data format, for example compliant with two or more stars in the W3C Linked Data 5 star open Linked Data publishing scheme [ http://www.w3.org/DesignIssues/LinkedData.html ]. In addition, where summary reports appear, referencing views over raw data sets, the queries/database queries that generate the summary report view from the raw data should also be published, thus providing transparency over how the raw data generates summary statistics, for example, in the final report.",
      "time": "2011-02-19T14:22:40",
      "id": "152482521"
    },
    {
      "threadId": "228126588",
      "post": "RateMyPlace (Shoropshire councils) and Who Owns My Neighbourhood strike me as interesting approaches to the reuse of local council data. In each case, a use of  local data has been identified, and then published in a way in principle scales to other councils /using the same platform/.\n\nFor example, RateMyPlace aggregates food standards reports from several councils in a uniform way and as well as providing a destination website also provides a single API access point (a \"destination API\"?) to the data. The API also provides a means by which councils contributing the data can access it themselves using the public API (an \"eating their own dog food\" approach), which can help improve data quality:\n\n1)  because it is in the councils interest to make sure they publish valid data if they are consuming it and using it themselves;\n2) if other users of the data find errors in the data, they can report those errors back to the publisher via the aggregation site, with the result that error corrections will also benefit the council-as-user\n\nThe site allows users to look up food standards information without needing to know which council has carried out the inspection, and also potentially provides a business model to the lead council or council consortium that originally publishes the site (that is, they could either charge other councils to join, run paid for advertising, etc).\n\nI've posted a few more informal thoughts on this approach at: http://blog.ouseful.info/2011/01/21/putting-public-open-data-to-work/\n\nIn order to see how scaleable the approach is to other data areas, it would be useful for local councils to contribute to a directory of service related websites:\n1) they publish;\n2) they contribute to in a form syndication arrangement.\n\nThis will help councils discover services to which they can contribute, and also serve to report on the extent to which councils are putting their data to work through third party aggregagtors/syndication services.",
      "time": "2011-02-19T13:20:06",
      "id": "152467929"
    },
    {
      "threadId": "228126206",
      "post": "A major obstacle to reuse of data by organisations is a lack of clarity/understanding in the license terms, particularly:\n1) where a \"non-commercial\" license is asserted (it is often not clear what non-commercial actually means);\n2) where it is not clear whether one license is compatible with another.\n\nWhere licenses require attribution, it may not be clear about the extent to which attribution is required, or how it should be handled where data from several sources is combined to create an aggregated or augmented data set.",
      "time": "2011-02-19T13:01:57",
      "id": "152464662"
    },
    {
      "threadId": "151017821",
      "post": "I ran this data through the PyMARC example code [ https://github.com/edsu/pymarc/wiki/Examples ] \"Create CSV file with data extracted from MARC records\" [https://gist.github.com/348178 ] to generate a CSV representation of (some of?) the data columns, tidied it a little (removing [],;\\s chars from start and end of data fields) and uploaded the resulting CSV file to Google Fusion Tables: http://www.google.com/fusiontables/DataSource?snapid=133294",
      "time": "2011-02-11T14:49:53",
      "id": "144728394"
    },
    {
      "threadId": "215699278",
      "post": "A question on GetTheData.org has links to a few recipes for quick starts to visualising the results of Linked Data SPARQL queries: \"How can I visualise statistics from a linked data-set?\" http://getthedata.org/questions/237/how-can-i-visualise-statistics-from-a-linked-data-set",
      "time": "2011-02-02T13:43:45",
      "id": "138739646"
    },
    {
      "threadId": "216618599",
      "post": "It's easy enough to find common followers between two twitter users using either the Twitter API directly, or the Google Social Graph API (as described here: http://blog.ouseful.info/2010/12/13/common-friends-on-twitter/ )\n\nA slight shift in thinking and a related approach mean we can also check to see if a particular person is a common follower of two other folk on Twitter - that is, whether they can see conversations in-stream between two other named individuals...\nhttp://blog.ouseful.info/2010/12/28/who-see-whose-conversation-instream-on-twitter/",
      "time": "2011-01-26T23:33:34",
      "id": "135067454"
    },
    {
      "threadId": "201984069",
      "post": "Martin (Hawksey) originally implemented an 'anytime comment' utility with uTitle [ http://www.rsc-ne-scotland.org.uk/mashe/2010/06/convergence-youtube-meets-twitter-in-timeline-commenting-of-youtube-videos-using-twitter-utitle/]  - the service can be found here: http://www.rsc-ne-scotland.org.uk/mashe/utitle/connect.php\n\nOne of the issues we found with adding tweets to a video was that it might take several seconds to type a tweet before sending it, whioch would mean that a tweeted annotation would be dis-located from the part of the video that prompted the tweet; uTitle partially addresses this issue by optionally generating a time stamp corresponding to the time a user starts typing - so tweets can be more accurately aligned on the timeline with the point of the video that prompted the user to make an annotation.\n\nPS it's worth checking Martin's blogs for more recent posts, including this description of how Martin's apps have been used to augment videos from several recent conferences.: http://www.rsc-ne-scotland.org.uk/mashe/2010/12/making-ripples-in-a-big-pond-optimising-videos-with-an-ititle-twitter-track/",
      "time": "2011-01-03T18:55:16",
      "id": "123559707"
    },
    {
      "threadId": "190044213",
      "post": "IS this JournalTOCs API any use? \"How to filter journals based on Open Access licensing conditions\" http://www.journaltocs.ac.uk/API/blog/?p=493",
      "time": "2010-12-13T12:48:57",
      "id": "111050031"
    },
    {
      "threadId": "187081225",
      "post": "Hi Ian,\n\nThanks for the reply - the overheads on getting to grips with both the COINS spec and SPARQL query writing are non-trivial I think, and suggest that even for expert developers XOR COINS users, some really robust example queries would be really useful. Of course, a GUI abstraction layer could mask this complexity though and generate queries that get at the data a user (thinks they) are asking for. (Is the Linked Data API appropriate for this data set? http://code.google.com/p/linked-data-api/ )\n\nAs to eg the £25k central gov data releases, do these map in any way onto data in COINS? I've wondered before about extent to which goverment reports, political party claims and even news reports should publish queries that link summary report tables to source data sets (eg  http://blog.ouseful.info/2010/06/28/so-where-do-the-numbers-in-government-reports-come-from/ ).  Does COINS represent a dataset that might provide such a primary(?) data source, and SPARQL a query language that could generate the queries that link source data to summary reports? (I guess not whilst aggregates aren't supported?!) \n\nPS broken link now fixed - thanks for pointing it out:-)",
      "time": "2010-12-08T18:58:01",
      "id": "108754528",
      "parentPost": "Hi Tony,\nYes, the amounts are in thousands of pounds Sterling. The units encoding should be clear in the documentation, but isn't. Apologies, I'll fix that shortly. In SDMX, from which the cube vocabulary is taken, the primary measure of an observation, sdmx:obsValue, has a number of metadata fields including a measure type and a unit multiplier - which in the case of COINS is unit-mult-3, i.e. x 10^3, i.e. thousands to normal folk not statisticians. Both of these factors are in the data. It's slightly unfortunate that the storage engine underlying the TSO store doesn't currently implement SPARQL describe, because that's a good way to poke around to see what properties are attached to a resource.\n\nI completely accept the point about this not being ready for the armchair auditor yet. We're working on some GUI tools that will permit more comfortable exploration of the COINS linked data. However, I don't think it's ever going to be easy: COINS just *is* a really complex, technical dataset. In terms of being easy to grasp for the general reader, the £25K (central gov) and £500 (local gov) spending datasets are much easier to grok, but there are real problems with data quality from what I've seen of those datasets so far.\n\nIan\n\nPS the URL for the COINS docs on data.gov.uk in your article is mangled.",
      "parentPostTime": "2010-12-08T16:50:36",
      "parentPostId": "108713676"
    },
    {
      "threadId": "179812601",
      "post": "I just twigged how to find the money - will do a follow up post shortly... For now, I think there's enough cribs for folk who are interested to start getting a feel for the dataset and maybe exploring some of the structural relationships that exist in the data.",
      "time": "2010-11-26T12:49:23",
      "id": "103449960",
      "parentPost": "Hoorah! We're pleased you have found the dataset,  let us know if there is anything we can do to help with it's use. ",
      "parentPostTime": "2010-11-26T10:51:26",
      "parentPostId": "103439024"
    },
    {
      "threadId": "175702754",
      "post": "I've been trying to get my head round the API, but have a block on it...\n\nWhat's an API equivalent of the query:\n\nhttp://data.wheredoesmymoneygo.org/search?q=%22open+university%22&search=Search+Spending&dataset=departments&facet_1=from",
      "time": "2010-11-19T19:04:54",
      "id": "99635787"
    },
    {
      "threadId": "147551612",
      "post": "The Cambridge 23 things hashtag had a small population, but served purpose I think?\nViz of its structure here: http://blog.ouseful.info/2010/09/13/structural-differences-in-hashtag-communities-highly-interconnected-or-not/",
      "time": "2010-09-27T16:29:44",
      "id": "81163888"
    },
    {
      "threadId": "146342789",
      "post": "Happy to help hack stuff together if i can...",
      "time": "2010-09-24T12:00:02",
      "id": "80515699"
    },
    {
      "threadId": "143063500",
      "post": "Here's another example of differences across councils: how do local councils display the locations of public libraries in their area?\nhttp://blog.ouseful.info/2010/07/30/library-location-data-on-data-gov-uk/\n\nNote that I think the variety in approaches at the moment is not necessarily a bad thing as councils explore the different possible ways of getting their data out. But I do think it's worth them looking at each others' sites, do think it's worth trying to evolve best practice approaches, do think its worth sites trying to learn from each other...",
      "time": "2010-09-17T09:24:38",
      "id": "78492830"
    },
    {
      "threadId": "142365533",
      "post": "Have OPML, will travel...<br><br>Here's a recipe from @cogdog about how to Downe's OPML file and generate a custom search engine that will search over all the specified blogs...:<br><a href=\"http://cogdogblog.com/2010/04/19/two-timing-xml\" rel=\"nofollow\">http://cogdogblog.com/2010/04/19/two-timing-xml</a>/<br><br>And if you want \"instant\" results from the custom search engine once you've created it, @mhawksey can show you how:<br><a href=\"http://www.rsc-ne-scotland.org.uk/mashe/2010/09/google-custom-instant\" rel=\"nofollow\">http://www.rsc-ne-scotland.org.uk/mashe/2010/09/google-custom-instant</a>/",
      "time": "2010-09-16T00:45:06",
      "id": "77925121"
    },
    {
      "threadId": "136565214",
      "post": "Feel free to send me pointers to any feeds you get out of the lab, and I'll see what, if any, low hanging fruit ideas come to mind and try to hack something around for you ;-)",
      "time": "2010-09-06T22:49:41",
      "id": "75600800",
      "parentPost": "Tony\r\n\r\nI absolutely agree with all of this. One of the problems with the research\r\narea is simply that most of the feeds aren't there at all though. Secondly\r\nwe have some real issues with what data standards we might use beyond things\r\nlike geo-tagging - but that shouldn't stop us trying! Certainly it would be\r\ngood to do more demonstrations with what is out there. I know that I've\r\nfallen down in my mission to create more RSS feeds out of the lab and that\r\nwould be a good place to start, although we're starting to generate more of\r\nour analysed data in feedable form.  It would certainly be interesting to\r\nthink about what the low hanging fruit in the research space are and what\r\nthe best demos that could be put together are...",
      "parentPostTime": "2010-09-06T19:53:13",
      "parentPostId": "75565816"
    },
    {
      "threadId": "138345863",
      "post": "I used to play with evolving classifier systems, back when i did \"proper\" research. One of the algorithms used to promote rules was a bucket brigade algorithm, that apportioned credit to rules that set up other rules that then received some sort of payoff.\n\nUnder this sort of approach, a coupled sets of questions are: what makes for tangible rewards and credit apportionment in research? Alternatively, do we need to come up with some other reputation frameworks? How would one based on pay-it-forward work, for example?",
      "time": "2010-09-06T22:47:14",
      "id": "75600374"
    },
    {
      "threadId": "129677855",
      "post": "ALthough it would be quite a crude approach, you could extract the names of all the cited authors and also generate a count of them, making it easy to see whether or not any of the same-by-name-and-initial authors have authored multiple cited papers? WHere a paper has lots of references, and papers have multiple authors, you may miss the fact that a particular author has contributed to many of the citations, and may be worth tracking down?",
      "time": "2010-08-31T20:20:54",
      "id": "73589448"
    },
    {
      "threadId": "123275770",
      "post": "I agree and donlt with the non-trivial stuff... I can do v powerful things by leveraging different systems together in something like yahoo pipes, and then outputting results to another plug'n'play app that would be more than a few minutes work in code no matter how well I'd set up my dev environment.\n\nBut then, sometimes code is the tool you need for particular applications. But that's not the space I'm trying to promote engagement in. (That said, things like pipes can often be used to construct working specifications or rapid prototypes of apps that folk think they might want...)\n\nAs to Grazrscript and the hosted code/dev envt basis for feed'n'flow data - I'm with you all the way on that :-)",
      "time": "2010-07-31T09:16:43",
      "id": "65424373",
      "parentPost": "Sorry, I'm touchy about the \"programming for non programmers\" thing, didn't mean to paint you with that brush :). I still think that if you want to do anyting above a trivial program or simple example , you really need to learn to code. That's just my opinion, but I think the history of visual programming environments has mostly borne that out.  \n\nI've looked at moderately complex behaviors in Pipes, and frankly the \"program\" is usually very scary and full of crazy hacks. I look at it and think, \"That should be 5 lines of code, instead it's 6 pages of crazy wires and feedback loops strewn all over this canvas\". I think many people are intimidated by code and that it could be made a lot friendlier (and easier to play with without repercussions). \n\nOne of the objectives with GrazrScript was to make it completely hosted, without the need for an IDE or installed tools. Millions of people dabbled with javascript because there was an existing runtime environment (the browser) that they didn't really have to monkey with. I wanted to bring the same kind of experimentation and code sharing to the feed and information \"flow\" space. Never quite got there. :)",
      "parentPostTime": "2010-07-30T17:29:24",
      "parentPostId": "65313094"
    },
    {
      "threadId": "114927541",
      "post": "To view the documents that were considered by the Public Sector Transparency Board, and to comment on them yourself, visit:\n\nhttp://writetoreply.org/publicsectortransparencyboard/",
      "time": "2010-07-09T15:04:56",
      "id": "61291497"
    },
    {
      "threadId": "89788875",
      "post": "Btw, another tool that I intend to look at is NodeXL - a plugin for Excel...",
      "time": "2010-04-26T14:28:10",
      "id": "46757363",
      "parentPost": "Yes, we've been following your Facebook series eagerly! There is a paper in preparation which will describe the data gathering and preparation, which is definitely the hard part now that we have Gephi :-)",
      "parentPostTime": "2010-04-26T13:26:38",
      "parentPostId": "46747986"
    },
    {
      "threadId": "81194162",
      "post": "PS my latest view over the data is here: http://ouseful.wordpress.com/2010/04/07/f1-data-junkie-driver-dna/ and explores the notion of \"Driver DNA\", an expression of various data fields for a driver over the whole of the race.\n\nMy initial technical notes about how I parsed the data are at http://ouseful.wordpress.com/2010/03/21/f1-data-junkie-looking-at-whats-there/\nI'll post more details, along with code, once it's stable...",
      "time": "2010-04-09T19:44:49",
      "id": "44074792"
    },
    {
      "threadId": "61144976",
      "post": "This would make sense (in average speed camera context) if you believed that the average was the average of the the two instantaneous speeds, rather than the distance divided by the time taken to travel between the two cameras.\n\nDO you know for sure that the algorithm is the latter rather than the former?;-)",
      "time": "2010-01-25T09:54:23",
      "id": "31168805"
    },
    {
      "threadId": "59079416",
      "post": "I started exploring how Twitter messages made in confreencee backchannels could be used to annotate conference videos (eg http://ouseful.wordpress.com/?s=twitter+subtitles+movies ). I wonder how the Google voice recognition would work where an ad hoc transcript, such as a list of backchannel tweets that might only occasional through up quotes from th original videoed preseentation, was uploaded? ",
      "time": "2010-01-17T02:15:48",
      "id": "30067328"
    },
    {
      "threadId": "43375276",
      "post": "For me, twitter lists might play a useful role in automated related information discovery, such as turning up hashtags being used in a particular area, or finding people who are being @'d at a lot within a particular set of people.\n\nFor a couple of tools that provide these services, see http://ouseful.wordpress.com/2009/11/02/whats-happening-now-hashtags-on-twitter-lists/",
      "time": "2009-11-04T11:47:26",
      "id": "21849332"
    },
    {
      "threadId": "43047074",
      "post": "If there is too much information, then discovery can be a problem. As can giving people a long list of things they need to know before they see the need to know it/for it to be useful (\"why are you telling us this...?\", \"why are you telling us this NOW? We don't need it for ages...\" etc etc.\n\nThe OU style is often to go overboard (why point someone to an online tutorial when you can write a 20 page one instead), albeit using a proven house style (tutorial in print) which goes stepwise through required procedures as if the tutor is sat next to you.\n\nIf you can segment the info into FAQ points, and publish that, then the first rule of support to tell your students is 'check the FAQ'.",
      "time": "2009-11-02T09:29:55",
      "id": "21654039"
    },
    {
      "threadId": "41959173",
      "post": "Isn't the best sort of marketing word-of-mouth/'viral' marketing? Something that encourages a user to send out 'invites' that give the recipient, as well as the sender, some sort of immediate reward? As well as a good strapline and remembering to 'sell the benefits'?\r\n\r\nThere's also a fine line to tread between folk associating whatever tools you suggest with the course, rather than seeing them as being more generally useful (and maybe more useful in contexts away from the course).\r\n\r\nMaybe one way to sell the tools is to not sell them? Eg along the lines of \"I don't know if this approach will be useful in this course context, but I find it useful in this other context...\"\r\n\r\nIf you're trying to prove a benefit to students in the closed course context, and can't demonstrate those benefits to them, you're on to a loser?\r\n\r\nDo you actually know that these social tools are good for supporting learning in whatever course you're teaching? Or do you know they work in another context and can see how they might provide some sort of benefit in your course context?",
      "time": "2009-10-27T09:32:37",
      "id": "21094290"
    },
    {
      "threadId": "71866023",
      "post": "I've posted a couple of links to interactive code presentations I've seen at:\r\nhttp://delicious.com/psychemedia/interactive+code+tutorial\r\n\r\nTh John Resig/Advanced Javascript one lets you run/edit js code in presentation, which I think is quite compelling.\r\n\r\nOther browser based code stuff - obsessing (a js version of processing), http://codepad.org/ and scriptlets for running cod via browser ",
      "time": "2009-10-10T10:06:20",
      "id": "19733071"
    },
    {
      "threadId": "38526974",
      "post": "The skill is in being able to spot the pubsub pattern ( http://blog.openwetware.org/scienceintheopen/2009/06/20/pub-subsyndication-patterns-and-post-publication-peer-review/ ) , and the notion of a feed (which I guess when it becomes real time is a stream?)\r\n\r\nRSS is far from dead, but widespread consumer use is still not proven... maybe as subscription based clients become more popular (cf. email clients), consumer adoption of RSS will take off? There will still be the issue of the mechanics by which a user sees they can subscribe to someone or something via a feed (the orang logo  i suspect is meaningless to most people) ",
      "time": "2009-10-08T23:36:49",
      "id": "19617870"
    },
    {
      "threadId": "38456692",
      "post": "I assume from your attitude that you aren't going to vote at the next election? After all, one vote (one comment) can't actually make a difference, can it...? ;-)\n\n.... unless it does...\n\nSimilarly for petition signing...\n\nJust because the decision may already have been made shouldn't stop us trying to work together to try to find a better way....",
      "time": "2009-10-08T08:38:12",
      "id": "19485480"
    },
    {
      "threadId": "36060923",
      "post": "How about licensing chunks of the OU's infoskills course:\r\n\r\nTU120 Beyond Google: Working With Information Online\r\nhttp://www3.open.ac.uk/study/undergraduate/course/tu120.htm\r\n\r\n:-)",
      "time": "2009-09-25T09:15:56",
      "id": "17365271"
    },
    {
      "threadId": "80409690",
      "post": "Google Code Blog today has a video overview of HTML goodness:\r\nhttp://googlecode.blogspot.com/2009/09/video-introduction-to-html-5.html\r\n\r\nAnd for folk who complain it just doesnlt work in IE, well, err, try this:\r\nhttp://blog.chromium.org/2009/09/introducing-google-chrome-frame.html\r\n",
      "time": "2009-09-23T17:46:45",
      "id": "17231127"
    },
    {
      "threadId": "24730435",
      "post": "Looking at your code, you have an init() function that takes user credentials; public spreadsheets will emit data without the need for credentials; do you have a function that grabs data from these simple spreadsheets with requiring the provision of Google authentication details?\r\n\r\nmaybe fetchSheetByKey() works without the prior init()? (I don't have processing handy so can't try just at the mo:-(",
      "time": "2009-07-14T15:52:33",
      "id": "12639085"
    },
    {
      "threadId": "20952207",
      "post": "I know nothing about stats, so if you fancy doing a dialogue style uncourse on basic stats eg around Guardian datastore data (which is stored in Google spreadsheets) I'd be interested... ;-)",
      "time": "2009-06-10T07:43:20",
      "id": "10690464"
    },
    {
      "threadId": "18765235",
      "post": "This any good?\r\nhttp://www.welie.com/patterns/showPattern.php?patternID=tag-cloud\r\n",
      "time": "2009-05-20T22:12:42",
      "id": "9603866"
    },
    {
      "threadId": "17936504",
      "post": "Isn't our job to do ourselves out of one?",
      "time": "2009-05-12T09:45:42",
      "id": "9238535"
    },
    {
      "threadId": "14625541",
      "post": "It struck me that one of the things we are potentially striving for is an environment that in part supports the \"co-opetitive\" (cf. co-opetition) development of bids? E.g., potential bidders would float ideas, find other potential partners and then work up a bid together, either in public or private; or they'd go it alone. As Joss says, provenance of an idea can be backed up in part through the history mechanisms of the tools that are being provided.\r\n\r\nI'm not sure if Joss has already mentioned this, but part of the original inspiration came from a personal comment from a JISC programme manager about resubmissions, where it's sometimes the case that two independent but overlapping bids get rejected but then invited to work up a partnered submission together. One of the things we wanted to explore was how to pre-empt that sort of situation so that potential bidders working on similar topics could decide whether or not to join forces and partner up early on, rather than risk going it alone. (I can't help thinking of all sorts of game theory similarities here? Maybe we need a tool to help individuals calculate payoffs and penalties based on different strategies, and the number of potential competing bids, prior form etc ;-)\r\n\r\nAt the end of the day, we're all paid from the same public purse too? That is, those of us coming from the formal HE sector at least have .ac.uk in common with each other, and with the funder (i.e. JISC...)\r\n\r\nPS call me naive if you like...\r\nPPS wondering how many people leaving .ac.uk jobs go to other .ac.uk jobs...?",
      "time": "2009-03-31T10:43:08",
      "id": "7667134",
      "parentPost": "I think we maybe take two different approaches to this. \r\n\r\nIf I have, what I think is a good idea, I want to see it executed. Whether that's by me or someone else is secondary. My approach is to share that idea early on so as to get feedback and critique of it. No-one can 'take' an idea from me - ideas aren't property in the usual sense. I'm no worse off by sharing the idea, particularly within the context of being a salaried worker at a university. If someone then executes that idea without my involvement, well, so what? My objective has been achieved regardless.  In most cases and especially within the JISC domain, the un-attributed snatching of ideas isn't going to happen. I'm certain that by sharing my ideas with the JISC community early and often, I'm more likely to find support, useful critique and people who can enable the development of that idea with me, rather than without me.\r\n\r\nNotice how we've done this with WriteToReply. Everything is documented on a public wiki, under a CC-BY license. Anyone could take that idea and the work we've done so far and develop it without us. Maybe someone will. If they do, we'll have achieved our objective. I think it's more likely that by taking this approach, we'll find supportive collaborators rather than competitors.",
      "parentPostTime": "2009-03-31T10:25:59",
      "parentPostId": "7665746"
    },
    {
      "threadId": "14059499",
      "post": "So what sort of graphic did you have in mind....? :-)",
      "time": "2009-03-20T22:21:55",
      "id": "7385454",
      "parentPost": "Next challenge - mash up with tuition fees and/or where the available phd funding goes..",
      "parentPostTime": "2009-03-20T17:29:40",
      "parentPostId": "7378389"
    },
    {
      "threadId": "13969241",
      "post": "We're going to be linking out to the blogged materials from a 10 week course that starts May 1st... I'll post about the structure at some point...\r\n",
      "time": "2009-03-19T12:41:17",
      "id": "7339613",
      "parentPost": "Have you actually turned Digital Worlds loose on students yet? Any usage data/feedback?",
      "parentPostTime": "2009-03-19T12:36:36",
      "parentPostId": "7339561"
    },
    {
      "threadId": "10244837",
      "post": "If it's just generic, USB runnable portable apps you're after, check out http://portableapps.com/",
      "time": "2009-01-21T01:27:20",
      "id": "5411035"
    },
    {
      "threadId": "10231453",
      "post": "\"Measuring engagement via RSS is notoriously difficult,\"\r\n\r\nThe subscriber numbers reported by services like feedburner often rely on reported subscriber numbers from feed reader agents - so for example, the google reader or bloglines crawler subscribes once to your feed, then reports back to feedburner how many people are subscribed to the feed in that system via the user agent string in the header of the http request made whenever the feed is polled.\r\n\r\nAs far as I know, the reported subscriber count gives the number of people who have subscribed to your feed, which may be way more than the number who ever look at the feed or read your posts even if they do look at the feed.\r\n\r\nA common way to track actual engagement with your posts is for your blog engine of feed tracking servie to put a 1x1 pixel image into the post; whenever someone views the post, the image is is pulled from the server (unless it's been cached en route) and gives a 'hit'. multiple hits from the same user (ie same person viewing the same post multiple times) may or may not be discounted using IP tracking, or similar.\r\n\r\n(The reason an image is used - rather than a javascript tracking code like the ones used by Google Analytics that are added to the bottom of web pages in order to track them - is that many feed readers strip out javascript (and often embed codes) from feed item description elements. (SO the javascript function that drives the tracking would never be called from a feed read post containing a js tracking code.))\r\n\r\nWhen Martin quibbled about his lost user numbers, I suspect this was just a matter of google reader numbers not being counted on that day, for whatever reason. It may mean G-reader was out, and not picking up his posts, or just that the user-agent reporting wasn't being handled correctly somewhere (either at the google reader end, or the feedburner end). It's worth bearing in mind though that even though Google reader may report 100, 200, 500 readers etc, that may only translate to 30-40% actually seeing your posts (skimming over them), and maybe 5-20% of the total actually reading a post.\r\n\r\n(It's also worth bearing in mind that the same person may have multiple subscriptions to your feed in different places - google reader, bloglines, netvibes etc - and only actually ever read your posts (or skim over them) in one of them.",
      "time": "2009-01-20T15:07:52",
      "id": "5392849"
    },
    {
      "threadId": "9516643",
      "post": "\"I'm trying to establish a nexus for conversation around the items I want to share and discuss\"\r\n\r\nSo where's the return path? You can find ways of sharing the content out, (one or more delicious user/tag feed(s), reader shared objects, flickr stream etc etc) but where do you want the \"discussion and commentary\" to take place? Do you want a forum thread/comment stream per shared object, a single forum to discuss all shared items, a separate forum for each shared item (note i'm using \"forum\" to mean something like \"place of conversation with a single URI\".\r\n\r\nWhat about hacking together some bits and pieces in a stringle environment?;-) ( http://ouseful.open.ac.uk/stringle )\r\n\r\nAlso, do you want to engage in DIRECT conversation (eg me here commenting back to you on this thread) or do you want to feed from a wider conversation ( eg if you favourite a  post that is based around something that is linked to from the post (eg say you favourite one of Downes' OLDaily observations), should you be tracking other posts that link to the post that Downes linked to to see what THEY are saying? (I guess in this case, I'm wondering whether  the different participants of the unconversation are not necessarily aware of what other people are saying about the thing they are talking about, but those other people may be aware of what you are saying. (Hmm, asymmetry popping up its head again...)\r\n\r\n\r\nI'm rambling.... I have so completely lost the plot....\r\n",
      "time": "2009-01-07T12:27:27",
      "id": "4958674"
    },
    {
      "threadId": "7252124",
      "post": "So drop the \"\"images you own (e.g. photographs you have taken) \" bit and put in a short exercise about searching cc with derivs licensed stuffed on flickr (tick the \" Find content to modify, adapt, or build upon\" box in the flickr advanced image search), or on creative commons image search?",
      "time": "2008-11-20T23:57:23",
      "id": "3924606"
    },
    {
      "threadId": "6017919",
      "post": "I thought some of the new socialtext features looked interesting? http://socialtext.com/\r\n\r\nAs far as being antisocial goes, what if the site only supported feeds that syndicated new stuff, and a search engine?",
      "time": "2008-10-21T17:58:54",
      "id": "3205485"
    },
    {
      "threadId": "5711191",
      "post": "\"maybe I'm missing something?\"\r\nI think just getting across the fact to a novice that a paper sits in some sort of citation context or 'social relationship' with other literature is important?\r\nAnd for anyone wanting to become a career researcher, then understanding impact factor etc ( http://ouseful.wordpress.com/2008/08/26/journal-impact-factor-visualisation/ ) and using it to your advantage is a skill that reaps rewards...\r\n",
      "time": "2008-10-13T09:06:12",
      "id": "3019356",
      "parentPost": "Seen the new Web of Knowledge citation graphing tools?  Fancy, but not of huge value to researchers and authors as far as I can see - maybe I'm missing something?\r\n\r\nBTW, I like the misspeak neologism I coined during the video \"Pub of Knowledge\" ;-)\r\n",
      "parentPostTime": "2008-10-13T08:57:18",
      "parentPostId": "3019326"
    },
    {
      "threadId": "257126",
      "post": "There are now so many feed publishing apps it's hard to keep up... so what I'm looking forward to is the *next* round of innovation, which I'm gussing will be feed annotation stream services like this one: http://ouseful.open.ac.uk/serendipitwitterous/",
      "time": "2008-03-04T12:23:54",
      "id": "198962"
    }
  ],
  "profileInfo": {
    "username": "psychemedia",
    "about": "",
    "name": "psychemedia",
    "disable3rdPartyTrackers": false,
    "isPowerContributor": false,
    "isAnonymous": false,
    "rep": 1.264929,
    "profileUrl": "https://disqus.com/by/psychemedia/",
    "url": "http://ouseful.info",
    "reputation": 1.264929,
    "location": "",
    "isPrivate": false,
    "signedUrl": "http://disq.us/?url=http%3A%2F%2Fouseful.info&key=WR4phGwEhGYLjCe21nXKZg",
    "isPrimary": true,
    "joinedAt": "2008-03-04T12:21:56",
    "id": "13033",
    "avatar": {
      "small": {
        "permalink": "https://disqus.com/api/users/avatars/psychemedia.jpg",
        "cache": "//a.disquscdn.com/uploads/users/13033/avatar32.jpg?1457712108"
      },
      "isCustom": true,
      "permalink": "https://disqus.com/api/users/avatars/psychemedia.jpg",
      "cache": "//a.disquscdn.com/uploads/users/13033/avatar92.jpg?1457712108",
      "large": {
        "permalink": "https://disqus.com/api/users/avatars/psychemedia.jpg",
        "cache": "//a.disquscdn.com/uploads/users/13033/avatar92.jpg?1457712108"
      }
    }
  }
}