{
  "comments": [
    {
      "threadId": "2866590981",
      "post": "Amar é: lembrar a senha do dsquis só pra comentar aqui e dizer que eu vou arrumar é já uma parede no Chamego Center pra botar a Amelie e o Bowie da minha pirra preferida nela. Amor amor e mais amor S2",
      "time": "2014-07-24T14:23:41",
      "id": "1501544051"
    },
    {
      "threadId": "1476668058",
      "post": "Adorei o presentin!",
      "time": "2013-07-09T23:14:38",
      "id": "956858236"
    },
    {
      "threadId": "1107629620",
      "post": "Apenas lindo isso.",
      "time": "2013-02-27T17:42:55",
      "id": "814356088"
    },
    {
      "threadId": "841876034",
      "post": "Vivs, bicarbonato de sódio pra tirar cheiro de comida de potes (de vidro e plástico). Nenhum segredo: lavo o pote e depois encho de água, coloco uma colherinha do pó e deixo de molho um tempo. Funciona que é uma beleza.",
      "time": "2012-09-13T14:13:21",
      "id": "649090219"
    },
    {
      "threadId": "685738653",
      "post": "Morreno muito. Gisele musa, eu tb te amo! <3",
      "time": "2012-05-23T01:44:38",
      "id": "536220371"
    },
    {
      "threadId": "698363142",
      "post": "Ah, deixa de um lado só. Super charmoso. ;)",
      "time": "2012-05-23T01:31:54",
      "id": "536213759"
    },
    {
      "threadId": "674696991",
      "post": "viva e linda. vivs linda. vivilinda. <3",
      "time": "2012-05-05T23:43:40",
      "id": "520603652"
    },
    {
      "threadId": "629578245",
      "post": " Eu achei o máximo! Digno de Selby fotografar. ;)",
      "time": "2012-03-30T15:31:53",
      "id": "480861222"
    },
    {
      "threadId": "582311897",
      "post": "Já raspei e pintei uma parede. Carnaval em obras, como outros tantos carnavais: \nhttps://www.facebook.com/photo.php?fbid=346422118713857&set=a.150615124961225.28812.100000382153055&type=1 ;)",
      "time": "2012-02-20T14:28:29",
      "id": "444014488"
    },
    {
      "threadId": "553690748",
      "post": "(chorei vendo a bonecra, mais linda, e pensando na vó recebendo ela, láaaaa longe. comofaz? luv luv luv)",
      "time": "2012-02-02T19:32:52",
      "id": "427978557"
    },
    {
      "threadId": "559567013",
      "post": "Se aquilo for mesmo uma TV, ali, eu gosto mais da opção 1, pintar o móvel. A segunda, com a TV no meio, me parece que vai atrapalhar a imagem da TV. Será?",
      "time": "2012-02-01T16:21:39",
      "id": "426411036"
    },
    {
      "threadId": "528454242",
      "post": "Eu também queria tudo. Como faz? <3",
      "time": "2012-01-08T22:36:44",
      "id": "405559645"
    },
    {
      "threadId": "401945677",
      "post": "Olha essa mesma menina, em outro muro: http://www.flickr.com/photos/monomulti/4479955179/in/set-72157622532971438 \n\nna rua João Teles, equina com a Av. Oswaldo Aranha, em Porto ALegre. exatamente no muro antigo do Bar Ocidente, que foi pintado. :(",
      "time": "2011-09-02T02:51:48",
      "id": "300879083"
    },
    {
      "threadId": "382737046",
      "post": "Desejei ardentemente. Sonho da semana: um lavabo lambe-lambe pra chamar de meu. ",
      "time": "2011-08-11T13:07:34",
      "id": "283417354"
    },
    {
      "threadId": "371471460",
      "post": "Vim só dizer que eu AAAAAAAAMO as implicações da Carolina. ",
      "time": "2011-08-05T02:02:28",
      "id": "278044280"
    },
    {
      "threadId": "376671152",
      "post": "Ficar hospedado uns dias. :)",
      "time": "2011-08-05T01:45:25",
      "id": "278037406",
      "parentPost": "Dá vontade de ir visitar, né? Beijo.",
      "parentPostTime": "2011-08-04T13:39:01",
      "parentPostId": "277265668"
    },
    {
      "threadId": "370521984",
      "post": "Aaaaaamo a street art e o estêncil portenho! E aquele centro de compras de design, na Recoleta, tu foi? ",
      "time": "2011-07-28T13:24:11",
      "id": "267642509"
    },
    {
      "threadId": "262072339",
      "post": "Obrigada Katia. Obrigada Vivs. Obrigada Helio.\n\n(ainda sem fôlego para tentar expressar tamanhã lindeza nisso tudo. obrigada!)",
      "time": "2011-03-25T18:37:35",
      "id": "171814904"
    },
    {
      "threadId": "259856459",
      "post": "Quero mais é esperar pra ver o que vai dar esse festerê de feltro na tua mesa. Coisa boa (e colorida) vem por aí, que eu sei. ;)",
      "time": "2011-03-23T21:30:56",
      "id": "170450558"
    },
    {
      "threadId": "249293064",
      "post": "Salve D. Vania! Encantada com sua presença por aqui. Vivs não podia ter uma companheira melhor de blog. beijos",
      "time": "2011-03-11T02:14:10",
      "id": "163845019"
    },
    {
      "threadId": "225394913",
      "post": "É muito amor. Muito muito.",
      "time": "2011-02-09T13:01:27",
      "id": "143390261"
    },
    {
      "threadId": "224708235",
      "post": "Opa! Mandei a sugestão pro Sete Sete. Por ele, ficam onde estão (http://www.flickr.com/photos/monomulti/5152342855/in/set-72057594086937431/ ). Eu que acho que estão escondidins e apagadins no meio do furndunço todo que é a sala do Chamego. ;)",
      "time": "2011-02-08T12:41:31",
      "id": "142539841"
    },
    {
      "threadId": "221360490",
      "post": "No que eu já fiquei com vontade de mudar tudo, obviamente. Uma foto da estante mais \"cheia\": http://www.flickr.com/photos/monomulti/4037900079/in/set-72057594086937431/ Daqui a pouco mostro mais mudanças. Quero mesmo é botar ali o quadro do Fandango. E tempo pra mandar imprimir? E tempo para mandar botar moldura? E tempo pra tudo o que a gente quer? Scaramouche. :*",
      "time": "2011-02-03T20:43:26",
      "id": "139827722"
    },
    {
      "threadId": "219736118",
      "post": "Vendo o vestido lindo da Lola e o botão de coração deu vontade de ir correndo pra casa, abrir a caixa esquecida de tecidos e fazer, sei lá, qualquer coisa. Inspiração pura. :)",
      "time": "2011-02-03T20:21:37",
      "id": "139793214"
    },
    {
      "threadId": "216559692",
      "post": "E sem consultoria da amiga metida a decoradora de plantão. ;)\nMuito massa. Casinha ficando com cara de casinha da Carol e do Diego. ",
      "time": "2011-01-26T18:41:13",
      "id": "134940235"
    },
    {
      "threadId": "210812020",
      "post": "É crepe's.",
      "time": "2011-01-18T01:59:28",
      "id": "130287225"
    },
    {
      "threadId": "208116187",
      "post": "Off topic: e eu nunca te disse que toda vez que vejo algo que considero um embuste eu digo que é uma caixa de Cepita. Por sua causa. ;)",
      "time": "2011-01-13T00:34:27",
      "id": "128420949"
    },
    {
      "threadId": "207413740",
      "post": "Adoro, Vivs, quando você faz poesia do cotidiano. Adoro.",
      "time": "2011-01-13T00:32:25",
      "id": "128420008"
    },
    {
      "threadId": "203143070",
      "post": "Olha ali a linha da vida! Vai pra minha parede, viu? Esse vai. :*",
      "time": "2011-01-05T11:59:29",
      "id": "124303134"
    },
    {
      "threadId": "187344375",
      "post": "Tão lindos na revista! Vou ali correndo comprar a Criativa!",
      "time": "2010-12-14T19:48:46",
      "id": "111667368"
    },
    {
      "threadId": "187887787",
      "post": "E esse poster E esse papel de parede Gamei.",
      "time": "2010-12-14T19:47:58",
      "id": "111666985"
    },
    {
      "threadId": "180235568",
      "post": "E o mais importante: ter talento. A Simone mostrou que tem. Lindas criações inspiradas na Elsa Mora.",
      "time": "2010-11-29T18:35:43",
      "id": "104759345"
    },
    {
      "threadId": "179049920",
      "post": "Fiquei completamente louca quando vi essa coleção de antenas no Selby!\nE não é a Isabela Capeto que tem uma coleção incrível daqueles bichinhos de mola, bem típicos do artesanato brasileiro? Vi em uma dessas revistas de bordo. Vou procurar pra te mandar.",
      "time": "2010-11-25T12:36:22",
      "id": "102567678"
    },
    {
      "threadId": "174686896",
      "post": "A 4ª razão é a luz incrível que entra no ambiente. Gamei!",
      "time": "2010-11-18T19:30:02",
      "id": "98945636"
    },
    {
      "threadId": "167170973",
      "post": "Posso ir morar lá? posso?\n...\nOff topic: eu tenho uns botões desses aí, bem-quase igualzinhos. Na verdade alguns deles estão num saquinho pra te dar. Ah-rã. http://www.flickr.com/photos/monomulti/3026165252/in/set-72157608589395792/",
      "time": "2010-11-04T18:34:44",
      "id": "93908404"
    },
    {
      "threadId": "155689449",
      "post": "Nem eu, Vivs. Deliciosa estão essas coisas fofas que a Renata fez. :)",
      "time": "2010-10-17T16:17:16",
      "id": "87619917"
    },
    {
      "threadId": "141603264",
      "post": "Efeito in-crí-vel!\n...\nCuide dessas costinhas, viu? Cuide-se cuide-se. :*",
      "time": "2010-09-16T01:28:02",
      "id": "77938525"
    },
    {
      "threadId": "142442316",
      "post": "A casa da Carol não é mesmo uma delícia cremosa com chantily?\nCarol: vontade de ir morar aí, contigo. ;)\n...\n(Vivs, tava há tempos pra te dizer que não estava conseguindo comentar aqui via disqus. Algum bug que se auto-resolveu-se. beijos beijos)",
      "time": "2010-09-16T01:22:17",
      "id": "77934580"
    },
    {
      "threadId": "111895657",
      "post": "Delícia! De casa, de café, de dona da casa... :* :* :*",
      "time": "2010-06-28T19:57:32",
      "id": "59005112"
    },
    {
      "threadId": "106309970",
      "post": "Amore, estou eu aqui com o mesmissíssimo propósito: desse sábado não passa a pequena modificação na sala.\nE por falar em detalhes, estávamos, 77 e eu, hoje, agora há pouco, justamente falando disso. Detalhes. No nosso bar preferido. É preferido justamente por isso: por causa dos detalhes - da decoração ao atendimento - que fazem toda a diferença.\n\nEm tempo: Minha Casa, que delícia de revista. vida longa.\nbeijos",
      "time": "2010-06-11T02:37:15",
      "id": "55857139"
    },
    {
      "threadId": "94214906",
      "post": "Eu quero!",
      "time": "2010-05-18T12:49:30",
      "id": "50885571"
    },
    {
      "threadId": "93146413",
      "post": "Eu fiquei toda feliz e orgulhosa e curiosíssima pra ver a coluna.\nAdorei, vivs. Muito muito!",
      "time": "2010-05-10T21:48:53",
      "id": "49408346"
    },
    {
      "threadId": "86259809",
      "post": "O que é que a gente diz depois de ler uma carta dessas? Tô desde manhã tentando.\nEu li a história do Cell e fiquei pensando na perseverança desse cara, merecedor de todas as coisas boas que a vida tem pra oferecer.\nObrigada Cell, por me fazer pensar em como eu - e quase todo mundo - desanimo fácil e, às vezes, me deixo abater por mínimas coisas. Já estou aqui imaginando como vai ficar linda a tua garagem.\nObrigada Viv, por tudo, por estar aí, por me fazer sentir a força do seu carinho - e eu sei que tu sente o meu.\n\nUm upa, um cafuné, um abraço apertado em vocês dois.  ",
      "time": "2010-04-16T22:47:05",
      "id": "45218424"
    },
    {
      "threadId": "80426284",
      "post": "Eu quero!!!\n...\nLindo demais o trabalho da Mariana!\n....\nComentei aqui e no twitter. beijos",
      "time": "2010-03-29T14:44:21",
      "id": "42102458"
    },
    {
      "threadId": "61059355",
      "post": "Flau. Em Alagoas é flau. Efe éle a u: fla-u. Pois é.",
      "time": "2010-01-25T12:17:57",
      "id": "31206567"
    },
    {
      "threadId": "53664762",
      "post": "Brigada por esse sorriso de canto de boca aqui, ô nêga! Vamos brindar às coisas simples e boas, vamos? Às alegriazinhas e aos transbordamentos? À esse negócio de vida? Vamo? :*",
      "time": "2009-12-24T00:46:18",
      "id": "27120802"
    },
    {
      "threadId": "53282093",
      "post": "Eita! tive medo de D. Maria, não. Pelo contrário: achei a dita muito simpática, jocosa até. ;) O segundo (de muitos) apartamentos que morei aqui em Portalegre tinha um ser tinhoso que me botava em pânico em noites solitárias. Só de lembrar das (poucas, oxalá) aparições do moço, eu sinto medo de novo. Mas passou, passou. :)\n(ah, os nossos lobisomens da infância! deu até saudadinha aqui)\nbeijo querida linda",
      "time": "2009-12-24T00:42:13",
      "id": "27120657"
    },
    {
      "threadId": "52289026",
      "post": "Eu queeeeeeero!!!\nTuitei lá ó: http://twitter.com/joelmaterto/status/6767595704",
      "time": "2009-12-17T16:26:28",
      "id": "26148610"
    },
    {
      "threadId": "51060198",
      "post": "Tô aqui toda derretida, feito manteiga. São sim, todo meu carinho, em estado puro e bruto, original, não lapidado, pra você. Quase um pedacinho de mim e do meu tempo: pra você.\n...\n(e se não der tempo pra entregar no Natal, pode ser depois do Natal. \nmeu sogro vai comemorar o natal da família em janeiro. lá pelo dia 15. o importante, pra ele, é todo mundo estar junto e comemorar o fato de estarmos juntos. assim, ficam todos à vontade pros compromissos e fazem do encontro uma oportunidade importante)\n...\nbeijo minha Vivs!",
      "time": "2009-12-10T23:21:09",
      "id": "25479113"
    },
    {
      "threadId": "50806797",
      "post": "Ou o velho e bom AZUL CALCINHA. hohohoho",
      "time": "2009-12-09T20:19:36",
      "id": "25322067"
    },
    {
      "threadId": "48711011",
      "post": "Que coisa mais linda o trabalho dessa moça! Eu quero muuuuuuuito. Já tuitei também! beijos beio",
      "time": "2009-11-30T12:23:41",
      "id": "24327770"
    },
    {
      "threadId": "44741151",
      "post": "Eu quero!\ne já tuitei também. :)",
      "time": "2009-11-10T21:10:21",
      "id": "22630219"
    },
    {
      "threadId": "43911171",
      "post": "Jesus me segure pra eu não comprar agora esse colar com chave e tudo. Monstra.",
      "time": "2009-11-06T14:18:46",
      "id": "22035647"
    },
    {
      "threadId": "43749529",
      "post": "Nufoi na ilha, foi na Villa, ôu! Mas eu estava disfarçada de celebridade. Hohoho. 17h30, já posso bater o ponto e tomar cerveja, que hoje não rendo mais é nada. :* :* :*",
      "time": "2009-11-05T19:40:38",
      "id": "21964593",
      "parentPost": "Numé? A gente ficou meio sem acreditar, mas o troço tá tão firme na parede\r\nque resolvi dividir. Ficam mais rentes e menos balançantes, portanto mais\r\nseguros, que os que eu colei ganchinho com super bonder.\r\n\r\nE você pode não entender o que quiser, afinal é minha única amiga que já\r\npousou os pés na Ilha de Caras. E isso é phyno.\r\n\r\nBeijo,\r\n--\r\nVivianne Pontes\r\nwww.decoeuracao.com\r\nhttp://twitter.com/vpontes",
      "parentPostTime": "2009-11-05T19:38:14",
      "parentPostId": "21964455"
    },
    {
      "threadId": "43134702",
      "post": "Eu quero!\n\nE acabo de dar um RT no tuíter também. :*",
      "time": "2009-11-02T22:39:30",
      "id": "21709742"
    },
    {
      "threadId": "42287491",
      "post": "hahaha. minha doidalindaquerida!",
      "time": "2009-10-30T23:35:52",
      "id": "21397585",
      "parentPost": "Ué, vem pro Rio que a gente te oferece a suíte presidencial.\r\n\r\nBeijooo,\r\n--\r\nVivianne Pontes\r\nwww.decoeuracao.com\r\nhttp://twitter.com/vpontes",
      "parentPostTime": "2009-10-30T19:21:06",
      "parentPostId": "21379630"
    },
    {
      "threadId": "42495583",
      "post": "brincar é o melhor, Vivs. isso isso isso. nem muito pra cá nem muito pra lá. nem muito ao norte nem muito ao sul. nem muito oito. nem muito oitenta. ;)",
      "time": "2009-10-30T23:33:15",
      "id": "21397493"
    },
    {
      "threadId": "42481761",
      "post": "Amô, por 120 doletas eu compro o guarda-roupa inteiro. ;)",
      "time": "2009-10-30T12:29:44",
      "id": "21347198"
    },
    {
      "threadId": "41908958",
      "post": "Eu tava lá no Itacaré, Bahia, num sabe?",
      "time": "2009-10-27T18:34:24",
      "id": "21118998"
    },
    {
      "threadId": "41237881",
      "post": "A tigela coração é coisa que vai virar objeto de desejo cult, nué? pois eu fotografei essa na Gift Fair e ia te mandar. No fim das contas mandei foi foto nenhuma.\nE tudo \"vrumêio\", né? cor da paixão etecétera e talis. ",
      "time": "2009-10-23T12:02:31",
      "id": "20852283"
    },
    {
      "threadId": "41145752",
      "post": "Incrível a história contada pela Vera - e lamentável, né?\nIncrível a delicadeza da Vera, tal qual os naperons, de sugirir que outra participante fosse contemplada.\nBeijo na Vivs, beijo na Vera",
      "time": "2009-10-22T19:46:17",
      "id": "20799108"
    },
    {
      "threadId": "40318929",
      "post": "Eu gostei muito do resultado - mas entre gostar do que fizeram bem feito e me arriscar a fazer e ficar um lixo são outros quinhentos. :)",
      "time": "2009-10-21T16:53:31",
      "id": "20710238"
    },
    {
      "threadId": "40746808",
      "post": "Fiquei com inveja da Laely, que disse que faria facin-facin o primeiro: eu não sei desenhar nem homem palito direito. Chuif. ;)",
      "time": "2009-10-21T16:45:36",
      "id": "20709798"
    },
    {
      "threadId": "39043954",
      "post": "Que peça linda esse armário. Benza deus, como diria minha vó. Adoro tudo: J. Borges, xilogravuras, Rosembaum e esses sapatos amarelos, de prástico, da dona moça. \nE a dona moça, é claro. ;)",
      "time": "2009-10-13T18:30:13",
      "id": "19985394"
    },
    {
      "threadId": "37573322",
      "post": "Eu também tenho fascínio por corujas. Adorei os moldes e tutoriais.",
      "time": "2009-10-05T12:45:41",
      "id": "18557788"
    },
    {
      "threadId": "37775968",
      "post": "Ela tem a praticidade das coisas suspensas, das prateleiras, dos armários. E é linda e bem pensada. Já tinha visto a foto também por aí e gostado.",
      "time": "2009-10-05T12:44:20",
      "id": "18557746"
    },
    {
      "threadId": "35649126",
      "post": "Fique calmo e frite um bife. Acabo de criar meu próprio poster motivacional pra cozinha. ;)",
      "time": "2009-09-25T02:05:52",
      "id": "17351815"
    },
    {
      "threadId": "35276649",
      "post": "Fiquei doida pra brincar também! Não lembrava da Aurélia também - são fantásticos todos os produtos dela. besos",
      "time": "2009-09-21T16:39:43",
      "id": "17041413"
    },
    {
      "threadId": "32545525",
      "post": "A minha é uma La Reina Madre (www.lareinamadre.com.br) linda, mas ficou destruída depois que Nilza, a faxineira, esfregou com sabão. :(\nOlha meu tuíter aí: http://twitpic.com/i8g9i\nbeijos beijos",
      "time": "2009-09-19T00:39:09",
      "id": "16904202"
    },
    {
      "threadId": "34982358",
      "post": "Eu tô num momento totalmente CORAÇÃO. Objetos, roupas, acessórios. Tudo que tem coração, eu arrecado. E talvez não seja só uma fase. Talvez eu esteja coração.\n...\nAMEI o abstratômetro. Amei!",
      "time": "2009-09-18T20:44:43",
      "id": "16894697"
    },
    {
      "threadId": "34129187",
      "post": "é linda Eugênia, prima de Vivilina. como lindo deve ter sido o final de semana com vó e prima. ah, deve ter.\n:***************",
      "time": "2009-09-14T17:59:36",
      "id": "16585238"
    },
    {
      "threadId": "30080038",
      "post": "amomuitosempresemprepontocom",
      "time": "2009-08-18T20:52:24",
      "id": "15029332"
    },
    {
      "threadId": "30074453",
      "post": "Deslumbrante a parede da Maria Tereza. ",
      "time": "2009-08-12T16:42:35",
      "id": "14727926"
    },
    {
      "threadId": "29074723",
      "post": "Aqui no Chamego Center falta só espaço. ;)\r\nSou doida pela casa de Fifi (e eu digo assim, de Fifi, como se fosse velha conhecida...)\r\nbeijo meu",
      "time": "2009-08-09T14:54:59",
      "id": "14514516"
    },
    {
      "threadId": "29075799",
      "post": "Eu digo \"amém\". E choro junto. Porque pra rir e pra chorar (de alegria, de emoção e até de tristeza, quando outro caminho não tem), eu não pago imposto.\r\n\r\n(sabia que tem sim! e no Festival, esse, tem até uma categoria: melhor feito a mão. nué lindo? eu vou me arriscar. prometo. porque eu também não pago imposto pra me arriscar. :*)",
      "time": "2009-08-06T19:00:18",
      "id": "14366110",
      "parentPost": "Ai Jojo,\r\n\r\nToda vez que leio esse texto do pé de seriguela que a minha avó deu pra mim\r\nme debulho em choro. Consigo nem falar.\r\n\r\nSabia que já vi muito patchwork feito a mão? Olha um\r\naqui.<http://www.mypapercrane.com/blog/?p=1218>\r\n\r\nBeijo,\r\n--\r\nVivianne Pontes\r\nwww.decoeuracao.blogspot.com\r\nhttp://twitter.com/vpontes\r\n\r\n\r\n2009/8/6 Disqus <>",
      "parentPostTime": "2009-08-06T16:51:13",
      "parentPostId": "14352152"
    },
    {
      "threadId": "27272624",
      "post": "Flávia, a moldura tipo pôster eu mandei fazer em uma empresa de molduras aqui de Porto Alegre e super recomendo: Molduras Santos - Rua Olinda nº164 - bairro São Geraldo. Mas acho que qualquer empresa que trabalhe com moldura faça. È só dar uma pesquisada.\r\nAs molduras de 1,99 são porta-retratos que eu vou garimpando em lojas de 1,99 mesmo. Algumas tinham plástico no lugar do vidro - o que foi resolvido indo numa vidraçaria e eles me fizeram o vidro sob medida, bem baratinho. Depois é só arrancar o pino que segura o porta retrato e o maridão fez um furo na moldura com a furadeira, pra encaixar no prego na parede.",
      "time": "2009-08-05T02:59:48",
      "id": "13957115",
      "parentPost": "Olá. Achei lindas as molduras. Estou cheia de cartazes em casa e não consesui colocar todas na parede ainda. Você pode me indicar os lugares para comprar estas molduras de 1,99 e para fazer a moldura em poster? Não estou achando lugar que faça assim ... Obrigada,",
      "parentPostTime": "2009-08-03T18:52:49",
      "parentPostId": "13845708"
    },
    {
      "threadId": "30075907",
      "post": "love Carol.\r\nlove Vivs.\r\n(amo tudo isso aqui. e muito)\r\n\r\nó: http://www.flickr.com/photos/monomulti/2903000345/",
      "time": "2009-07-22T14:02:40",
      "id": "13107608"
    },
    {
      "threadId": "29076467",
      "post": "Posso repetir comentário? pois vou repetir o comentário do último post: quero morar nessa casa. Será que essa família me adota. ;)\r\nbeijo beijo beijo",
      "time": "2009-07-16T23:11:04",
      "id": "12772480"
    },
    {
      "threadId": "25596217",
      "post": "Quero morar nessa casa aí de cima. Será que me adotam? ;)\r\n(beijo grande pra você. eu tô correndo. eu tô te devendo resposta de e-mails. eu vou responder. eu coração você, minha querida e doce Viv linda!)",
      "time": "2009-07-15T17:23:55",
      "id": "12705965"
    },
    {
      "threadId": "29077964",
      "post": "Eu não gosto do Alain de Botton, mas sou aboxonada pela Viv Pontes. Filosofia contidiana, musiquinha boa no meu ouvido, todo dia. (mas eu acho que vou dar uma segunda chance pro francês, já que o tema muito me interessa: pra dar o braço a torcer ou torcer o nariz de vez).\r\n\r\nLar é o lugar que nos faz feliz quando a gente volta, não é Dorothy?",
      "time": "2009-07-10T16:25:15",
      "id": "12450168"
    },
    {
      "threadId": "29078963",
      "post": "Baixei! minha própria nuvem em breve. Aguarde. Amei amei amei.",
      "time": "2009-07-09T13:47:32",
      "id": "12376556"
    },
    {
      "threadId": "22274429",
      "post": "Ga-mei!\r\n...\r\nA quase disléxica aqui leu \"cinza bege\". Inda bem que coçou os zolhinhos e leu de novo. Barbaridade. ;)",
      "time": "2009-06-24T17:38:47",
      "id": "11689802"
    },
    {
      "threadId": "30072490",
      "post": "Eu também fiquei aqui babando na casa da Milena, com esses tacos de madeira - típico dos apês de Porto Alegre.\r\n\r\nSobre as trocas, meninas, aqui rolam sim brechós de troca. Eu costumo participar de um troca-troca que a minha chefe faz com as amigas e eu mesma já organizei um entre amigas, mas só com roupas e acessórios. Como estou num momento que não consigo organizar nem o meu armário, vou indicar isso aqui: http://recortesdamoda.blogspot.com/2009/05/brecho-de-troca.html . Essa moça, me parece, é expert no assunto. ;)\r\nbeijos e boa sorte pra mulherada do troca-troca",
      "time": "2009-06-15T20:33:25",
      "id": "10945382"
    },
    {
      "threadId": "20792119",
      "post": "Delícia!",
      "time": "2009-06-08T20:13:01",
      "id": "10625295"
    },
    {
      "threadId": "29075503",
      "post": "Ai ai ai caramba! Delícia cremosa. Aqui não tem C&C, mas já tô botando o site deles pelo avesso. Terei, terei! brigada, Viv!\r\n\r\nMas, a propósito, cliquei no link lá em cima do pos. As outras fotos dessa casa, dignsa de Selby, ãnh?",
      "time": "2009-06-04T19:50:12",
      "id": "10495182",
      "parentPost": "Ué Jojo, eu tenho um desse. Comprei na C&C, ó\r\nsó<http://www.cec.com.br/Ecommerce/Produtos/DetalheProduto.aspx?PagId=ESKCVKOJ&div=DNDDSLVNRL&dep=DTDLQLPKXN&pro=DKNIOOSHSH>.\r\nSó que comprei inox, mas por um preço parecido.\r\n--\r\nVivianne Pontes\r\nwww.decoeuracao.blogspot.com\r\nhttp://twitter.com/vpontes\r\n\r\n\r\n2009/6/4 Disqus <>",
      "parentPostTime": "2009-06-04T19:47:13",
      "parentPostId": "10495070"
    },
    {
      "threadId": "29077888",
      "post": "Amô, eu também sou da lógica \"lavô tá novo\" ;)\r\nEssas paredes patchwork tão um delírio!",
      "time": "2009-06-04T19:41:05",
      "id": "10494839"
    },
    {
      "threadId": "20303029",
      "post": "Vivs, minha pele empolota só de ouvir a palavra \"tendência\". ui! É tendência na moda, na decoração, na vida. É só clicar na página, folhear as revistas (de moda, de decoração, de comportamento), que a gente adora!, mas elas estão aí pra isso: pra vender tendências, que as pessoas compram de olhos fechados. Visão crítica? Estilo próprio? Bom senso? Tem, mas tá em falta.",
      "time": "2009-06-03T21:44:08",
      "id": "10452975"
    },
    {
      "threadId": "30073163",
      "post": "Adoro, Viv! Aquela parede rosa que tinha um quadro só que você publicou aqui, agora é chocolate e vai ganhar vários quadros. Alguns já estão prontos, outros pego sábado, outros virão com a vida. Adoro, adoro, adoro. Em breve, muito em breve, você verá. :)",
      "time": "2009-05-28T13:08:20",
      "id": "10150092"
    },
    {
      "threadId": "30071771",
      "post": "77 tem uma resistência incrível para furar o teto do apartamento. vive\r\ndizendo que não dá, que não pode, etc. eu adoro móbile e prendo todos com\r\ndurex, \"durecão\". mas aí eu tô matutando como vou prender os tais móbiles de\r\nbastidores porque acho que vão ficar pesados. estou mesmo considerando essa\r\nsolução. mas adorei a idéia da cor só. ou duas cores. ou três. muito\r\nplanejamento nessa hora. ;)\r\n\r\n2009/5/13 Disqus <>",
      "time": "2009-05-14T01:57:56",
      "id": "9309038",
      "parentPost": "Também gostei! Mas como adoro um visual penteadeira de cigana, acho que\r\nfaria de cores diferentes.\r\n--\r\nVivianne Pontes\r\nwww.decoeuracao.blogspot.com\r\nhttp://twitter.com/vpontes\r\n\r\n\r\n2009/5/13 Disqus <>",
      "parentPostTime": "2009-05-13T14:04:37",
      "parentPostId": "9278803"
    },
    {
      "threadId": "17344223",
      "post": "Ah, Vivs, desse jeito você nos mata! ;)",
      "time": "2009-05-05T16:28:14",
      "id": "9016712"
    },
    {
      "threadId": "17249788",
      "post": "Que linda e elegante e bem vestida! Ela precisa ser batizada, Viv!\r\nEu também estou há dias com minhas costuras, levando a sério o termo \"feito a mão\", já que também não tenho máquina de costura. É uma delícia viciante de domingo.\r\n(Adorei o toy-polvo de André!)",
      "time": "2009-05-03T18:43:58",
      "id": "8956524"
    },
    {
      "threadId": "29077540",
      "post": "Favoritei!\r\n(ideias, ideias, ideias - as minhas já sem acento, força da profissão. :* )",
      "time": "2009-04-27T13:12:00",
      "id": "8725989"
    },
    {
      "threadId": "16715008",
      "post": "Ai que delícia!\r\n(ah, compra! compra!)",
      "time": "2009-04-27T13:09:56",
      "id": "8725946"
    },
    {
      "threadId": "15869440",
      "post": "Eu sou fã de tuitar a vida no blog, bem antes do advento do tuíter. ;)\r\nE sou absolutamente fã desse livro das Princesas, desde que conheci lá no atelier da minha amiga Denize Barros. Tá na minha lista de desejos. Já viu a caixinhas de cartões com desenhos dela?\r\nBeijos mil",
      "time": "2009-04-16T17:23:06",
      "id": "8265920"
    },
    {
      "threadId": "15370520",
      "post": "Uma das minhas lembranças de infância mais remontas são as \"bruxas\" de pano vendidas nas feiras do interior da minha Alagoas. Elas são feinhas, simples, baratinhas e eu simplesmente ADORO. Da última vez, comprei um casal, vestido de noivos, numa feira de artesanato. Da próxima vez que for lá, quero trazer umas originais, de feira livre, bem tosquinhas, como era na minha infância e ainda são, pra fazer um projeto decorativo qualquer que ainda vai pintar. :)\r\n...\r\nSerá que um dia minhas habilidades me permitem fazer uma dessas? o tutorial é fácil mesmo, mas haja motricidade fina pras linhas e agulhas - meus bonecos são o que há de acabamento zero, hehe.",
      "time": "2009-04-09T19:04:26",
      "id": "8013906"
    },
    {
      "threadId": "14333477",
      "post": "Digamos assim: que isso é a coisa mais linda, sensacional e surpreendente que eu já vi nos últimos tempos. Estamos combinadas?",
      "time": "2009-03-25T00:00:40",
      "id": "7480962"
    },
    {
      "threadId": "14298803",
      "post": "Kitsch total: amei!",
      "time": "2009-03-24T13:13:53",
      "id": "7465934"
    },
    {
      "threadId": "13936374",
      "post": "Deixa eu ficar aqui, te rasgando, às 9 da manhã? deixa? deixa?hahaha.",
      "time": "2009-03-19T12:51:46",
      "id": "7339755",
      "parentPost": "Besta, nem alcanço. Um dia ainda vou dar pé.\r\n\r\nBesu.\r\n--\r\nVivianne Pontes\r\nwww.decoeuracao.blogspot.com\r\n\r\n\r\n2009/3/19 Disqus <>",
      "parentPostTime": "2009-03-19T12:47:13",
      "parentPostId": "7339691"
    },
    {
      "threadId": "29078676",
      "post": "O meu melhor presente é meu melhor pensamento bom. Tome com carinho e faz o fazor de entregar a ela, sim? Bem bonito e embrulhado pra presente. E sempre, sempre sempre sempre que eu chorar, daqui por diante, vou lembrar de Vivianne e de Juliana: chorar dá rugas.\r\n:*",
      "time": "2009-03-11T13:02:31",
      "id": "7098213"
    },
    {
      "threadId": "29075509",
      "post": "uma palavra? PERCISO. bem assim. ;)",
      "time": "2009-03-11T12:59:21",
      "id": "7098172"
    },
    {
      "threadId": "29076892",
      "post": "Viv, esse papo seu tá qualquer coisa... DESBUNDANTE! pronto, era isso. Deus tenha piedade de mim, que também não tem chão. Choinf.",
      "time": "2009-02-17T20:03:41",
      "id": "6337390"
    },
    {
      "threadId": "30077072",
      "post": "Sim, a Rosa tem um blog só para as bonecas de papel chamado... Bonecas de Papel:\r\nhttp://bonecasdepapel.blogspot.com/\r\nOnde ela junta e oferece, na web, os arquivos. Uma delícia cremosa com glacê por cima.",
      "time": "2009-02-17T17:47:19",
      "id": "6333854",
      "parentPost": "Adoro. Brinquei muuuuito quando criança; tinha de todo tipo: bebês, meninas, meninos, com roupas típicas, princesas... Já olhou o que a Rosa tem lá no Tessituras?\r\n  http://www.agulhaselinhas.blogspot.com\r\nBjs\r\n\r\n",
      "parentPostTime": "2009-02-17T14:30:33",
      "parentPostId": "6329589"
    },
    {
      "threadId": "29078784",
      "post": "Agora é que eu juntei cré com lé: eu já tinha amado há muuuuito tempo, então. \r\nDeixestar dona moça, deixestar que a pessoa voltou aos trapos do fim do mundo e tá botando a vida em ordem, cheia de serviço pra fazer - como se diz? cheia de costura pra terminar, hahaha. Deixestar que em breve eu tô aí, lotando sua caixa de e-mail. :*****",
      "time": "2009-02-16T18:46:24",
      "id": "6311178",
      "parentPost": "Joelma, e eu já não compartilhei? Tá\r\naqui<http://decoeuracao.blogspot.com/2008/11/favoritos-casa-dos-joes.html>,\r\nó.\r\n\r\nSem querer cobrar, já cobrando, e dondéquitá minha 'consultoria em ética nos\r\nnegócios'?\r\n\r\nBeijo.\r\n--\r\nVivianne Pontes\r\nwww.decoeuracao.blogspot.com",
      "parentPostTime": "2009-02-16T18:38:26",
      "parentPostId": "6311049"
    },
    {
      "threadId": "11670583",
      "post": "Eu jogo a inspiração do quarto nos outros cômodos. A-mei!\r\nE ainda vou ter uma janela dessas, de vidros multicoloridos. Ah, vou.\r\n:*",
      "time": "2009-02-13T11:18:03",
      "id": "6236531"
    },
    {
      "threadId": "11264440",
      "post": "Eu adoro: as cadeiras e a palavra VEDETE. ;)\r\nas juntas dessa, inclusive, devem ser mais flexíveis do que as minhas.",
      "time": "2009-02-06T20:16:04",
      "id": "6052632"
    },
    {
      "threadId": "11213104",
      "post": "Aí entramos em toda a discussão (que eu apóio) sobre porque raios o design tem que segregar e ser anti-democrático? heim? heim? (ó eu cutucando)\r\n...\r\nLembrei, imediatamente, dessa foto aqui que eu favoritei lá no Flickr:\r\nhttp://www.flickr.com/photos/mundoperfeito/3113297934\r\n(o meu também não dá em árvore: eu dou valor e dou mais ainda à criatividade e ao espírito autenticamente punk do preceito do it yourself. por isso eu gosto daqui. e me identifico, né baby?)",
      "time": "2009-02-06T02:30:27",
      "id": "5881909"
    },
    {
      "threadId": "11193225",
      "post": "E não é?",
      "time": "2009-02-06T02:24:15",
      "id": "5881793"
    },
    {
      "threadId": "29074487",
      "post": "Eu fiquei doida com essa mistura de listras, bolas, quadradinhos, tudo colorido!\r\nGente habilidosa é outra coisa, né? Parabéns Lu!",
      "time": "2009-02-05T18:02:17",
      "id": "5870695"
    },
    {
      "threadId": "11147575",
      "post": "Vivi, \"uma coisa dessas na parede\" TABAJARA djá!\r\n(eu tô espírito de porco + surto psicótico decor descontrol. dá nisso. e tô pro-i-bi-da de clicar em qualquer coisa com a palavra melissa. an-ham)\r\n:*",
      "time": "2009-02-05T16:45:03",
      "id": "5868883"
    },
    {
      "threadId": "30072132",
      "post": "Sou absolutamente doida pela Sobral.\r\n(já tem mudanças lá no Chamego. te devo fotos)",
      "time": "2009-02-04T15:53:08",
      "id": "5836782"
    },
    {
      "threadId": "29076941",
      "post": "Oh, mon amour, eu sou a rainha disso. Repeat after me: eu procrastino, tu procrastinas, ele procrastina, nós...\r\n:*",
      "time": "2009-01-30T21:05:21",
      "id": "5708468"
    },
    {
      "threadId": "10642600",
      "post": "Eu vim dizer justamente que também gostei dessa coisa favo de mel. É tão comfort e vintage...",
      "time": "2009-01-28T14:58:38",
      "id": "5616779"
    },
    {
      "threadId": "10572508",
      "post": "Pronto, agora a gente vai ficar assim: tudo se coçando de curiosidade.\r\n...\r\nAdorei a teoria da clorofila. Vou levar pra análise djá. :*",
      "time": "2009-01-27T02:23:18",
      "id": "5566475"
    },
    {
      "threadId": "10375762",
      "post": "Também tenho um ornitorrinco lilás de pano, Viv, que tá bem deitado na cadeira do diretor. :)\r\nJá te disse que adorei o post, né? E que sou fã desse blog que trata de um dos assuntos que eu tenho maior interesse pessoal, mas que transcende isso tudo: decoração, design arte.\r\nObrigada pelo carinho com que tratou meu Chamego Center, meu cantinho, meu lugar preferido no mundo (bem Dorothy, ne?).\r\n...\r\nMeninas, que bom que gostaram também. beijo pra vocês.\r\nLuzinha, também sou DOIDA por bolas (meu banheiro tem bolas na parede e cortina de bolas made myself) e óculos. Tenho váaaarios, todos baratex  e que fazem o maior sucesso com as amigas.",
      "time": "2009-01-23T19:47:14",
      "id": "5499170"
    }
  ],
  "profileInfo": {
    "username": "joelma_terto",
    "about": "",
    "name": "Joelma Terto",
    "disable3rdPartyTrackers": false,
    "isPowerContributor": false,
    "isAnonymous": false,
    "rep": 1.2882,
    "profileUrl": "https://disqus.com/by/joelma_terto/",
    "url": "http://monomulti.blogspot.com/",
    "reputation": 1.2882,
    "location": "",
    "isPrivate": false,
    "signedUrl": "http://disq.us/?url=http%3A%2F%2Fmonomulti.blogspot.com%2F&key=BMGm-fji5Qksted_4bpFGw",
    "isPrimary": true,
    "joinedAt": "2009-01-23T19:27:10",
    "id": "197002",
    "avatar": {
      "small": {
        "permalink": "https://disqus.com/api/users/avatars/joelma_terto.jpg",
        "cache": "//a.disquscdn.com/uploads/users/19/7002/avatar32.jpg?1281549414"
      },
      "isCustom": true,
      "permalink": "https://disqus.com/api/users/avatars/joelma_terto.jpg",
      "cache": "//a.disquscdn.com/uploads/users/19/7002/avatar92.jpg?1281549414",
      "large": {
        "permalink": "https://disqus.com/api/users/avatars/joelma_terto.jpg",
        "cache": "//a.disquscdn.com/uploads/users/19/7002/avatar92.jpg?1281549414"
      }
    }
  }
}