{
  "comments": [
    {
      "threadId": "4958396535",
      "post": "Radku, nevím o žádném frameworku co by to dělal. Zavináčové přípony jsou koncept pojmenování, technická implementace se tím neřeší.",
      "time": "2016-07-07T14:53:45",
      "id": "2770249698",
      "parentPost": "Jaký mechanismus generuje karusel pomocí responzivních zavináčových přípon? Bootstrap?",
      "parentPostTime": "2016-07-07T05:53:54",
      "parentPostId": "2769606648"
    },
    {
      "threadId": "4929416537",
      "post": "Tome, Weinre občas spadne, ale nic strašného to není. Občas použiju propopojení mobilu s Chrome nebo Safari, střídám to s Weinre. http://www.vzhurudolu.cz/prirucka/jak-testovat-responzivni-weby\n\nWeinre má výhodu v tom, že je multiplatformní, proto v článku dávám ze všech bazmeků důraz právě na něj.",
      "time": "2016-06-28T06:57:20",
      "id": "2754423728",
      "parentPost": "Martine mě lepší než Weinre příjdou vestavěné mobilní ladičky v Chrome (android) a Safari (iOS). Sice jsi omezený na danou platformu, ale Weinre mi docela padá. Tobě to jede stabilně?",
      "parentPostTime": "2016-06-27T13:16:29",
      "parentPostId": "2752925704"
    },
    {
      "threadId": "4922437526",
      "post": "Děkuju.",
      "time": "2016-06-26T15:26:22",
      "id": "2751483734",
      "parentPost": "Dobry clanek! Souhlasim s Vami. \nCo se tyce \"front-end developer\"... v CR pouzivame frontend, z estetickeho duvodu )))",
      "parentPostTime": "2016-06-26T06:22:06",
      "parentPostId": "2751032657"
    },
    {
      "threadId": "4500955244",
      "post": "Tomáši, souhlas. Ano, a navíc na mobilech je uživatelsky dost složité pochopit co se po otevření nového tabu vlastně stalo. Díky za postřeh.",
      "time": "2016-06-14T17:54:55",
      "id": "2730587632",
      "parentPost": "18. Na webu u odkazů na stránky stejné domény používejte target=\"_bank\". Perfektní způsob na bechmark paměti mobilu a browseru.",
      "parentPostTime": "2016-06-13T23:41:45",
      "parentPostId": "2729155706"
    },
    {
      "threadId": "4855620499",
      "post": "> Proč tedy W3C vymýšlelo další tagy (nav, header, footer...), když se dají používat ARIA role?\n\nW3C je velké, takže předpokládám, že to bylo od různých skupin a pokud vím, i v různou dobu a s různým účelem. Jen moje domněnka.\n\n> Ale pro prohlížeč bude pro procházení html ARIA pravidlo v CSS pomalejší než např. ID pravidlo\n\nTo určitě ano, otázka ale je při jak objemných HTML/CSS stránkách to jde poznat. Jak jsem psal v odpovědi Tomášovi, ty ARIA selektory se nejspíš i  z jiných důvodů nehodí pro velké CSS codebase.",
      "time": "2016-05-26T08:42:19",
      "id": "2696065410",
      "parentPost": "Pěkné! Proč tedy W3C vymýšlelo další tagy (nav, header, footer...), když se dají používat ARIA role? Ale pro prohlížeč bude pro procházení html ARIA pravidlo v CSS pomalejší než např. ID pravidlo, viz tento pěkný článek http://css.chobits.ch/selector-optimization/",
      "parentPostTime": "2016-05-26T06:10:11",
      "parentPostId": "2695955770"
    },
    {
      "threadId": "4836284357",
      "post": "Tady je pro zájemce ještě varianta bez <img>. Na mobily dávám přímo <video>. Obrázek v \"poster\" se na mobilech vloží z \"data-poster\". Na desktopu se pak obrázek nestáhne.\n\n→ http://s.codepen.io/machal/pen/yOmbax\n\nViz diskuze na FB: https://www.facebook.com/VzhuruDolu/posts/984220571694087",
      "time": "2016-05-23T07:30:28",
      "id": "2690429214"
    },
    {
      "threadId": "4820264767",
      "post": "Ano, tohle bude v mnoha ohledech lepší. Jen je potřeba počkat do toho příštího roku na podporu Chrome a vymření starších Webkitů.",
      "time": "2016-05-16T13:59:52",
      "id": "2678344590",
      "parentPost": "Dobrý den, ohledně optimalizace načítání CSS jsem narazil na tento článek: http://css.chobits.ch/css-rychle-a-efektivne/. Mohl by být tento přístup lepší než minimalizace CSS v kombinaci s Critical CSS ?",
      "parentPostTime": "2016-05-13T11:19:30",
      "parentPostId": "2673468315"
    },
    {
      "threadId": "4748234880",
      "post": "Nevím, jestli rozumím. V tom Codepenu je v HTML: <nav id=\"menu\">\n\nV CSS pak: \"nav#menu\". To je samozřejmě správný selektor pro tu část HTML. \"nav #menu\" by selektoval potomka \"nav\", což neodpovídá.",
      "time": "2016-04-22T10:46:31",
      "id": "2636919883",
      "parentPost": "Stále mi to není jasné. Já bych použil něco jako nav a[href^=\"#menu\"], # je v CSS identifikátor, pokud bych odkazoval na identifikátor v nav, tak by to bylo nav #menu. Ale takhle dohromady nav#menu? Takhle se tedy dá také stylovat odkaz, je to něco jako zkrácená varianta a[href^=\"#menu\"]? Snad se nevyjadřuji kostrbatě.",
      "parentPostTime": "2016-04-22T05:37:07",
      "parentPostId": "2636701464"
    },
    {
      "threadId": "1920253383",
      "post": "O Woff2 jsem psal tady: http://www.vzhurudolu.cz/blog/50-woff2\nTenhle článek v další várce upravím.\n\nDatum aktualizace je zcela špatně. Napíšu kolegovi. Díky za hlášení!",
      "time": "2016-04-17T12:15:19",
      "id": "2628066298",
      "parentPost": "Jen bych se chtěl zeptat, proč v článku není zmíněno WOFF2, když poslední úprava je 1 den zpět?",
      "parentPostTime": "2016-04-16T12:24:46",
      "parentPostId": "2626659183"
    },
    {
      "threadId": "4736385691",
      "post": "Nenávratné zmizení mi připadá jako moc silná formulace. Snad neumře nebo tak. :) Ve tvém článku to zmiňuješ u situace, kdy mu na Windows vyskočí dialog o přechodu do App Storu. S tím si snad uživatel nějak poradí.\n\nAle obecně ano – pokud by třeba telefonování měla být primární výzva k akci na stránce, rozhodně bych \"tel\" dával jen na mobily pomocí nějaké detekce.",
      "time": "2016-04-11T13:20:48",
      "id": "2617747273",
      "parentPost": "Zrovna nedávno jsem řešil, jak docílit předvyplnění SMS: http://jecas.cz/sms-odkaz\n\nJinak ta detekce je podle mě hrozně důležitá, protože odkaz na telefon/SMS na nepodporovaném zařízení může napáchat hodně škody (uživatel nenávratně zmizí ze stránky).\n\nJeště doplním, že mobilní Edge u <code>tel</code> odkazu připraví nový neznámý kontakt: http://jecas.cz/files/sms-odkaz/edge-mobile.png",
      "parentPostTime": "2016-04-11T06:22:00",
      "parentPostId": "2617303588"
    },
    {
      "threadId": "4668305373",
      "post": "A jo, knihovna to je. Opraveno, díky. \nCo mu závidíš, jeho workflow nebo rozhovor? Obojí se dá napravit. :)",
      "time": "2016-04-11T12:45:13",
      "id": "2617699486",
      "parentPost": "React není framework, ale knihovna *rýp rýp* ;-) Jinak perfektní rozhovor, Adamovi trochu závidím :)",
      "parentPostTime": "2016-04-11T12:32:16",
      "parentPostId": "2617684346"
    },
    {
      "threadId": "4689538211",
      "post": "Všiml jste si, že píšu, že jde o ukázku kódu Bootstrapu?\n\nPokud ano a máte lepší řešení, tíhy na svém srdci se zbavíte snadno. Napište ho sem do komentářů a pošlete pull request sem: https://github.com/twbs/bootstrap Hurá!",
      "time": "2016-03-24T16:25:43",
      "id": "2586977387",
      "parentPost": "Pro nečíslovaný seznam (typické např. pro dropdowny) použít strukturu div + a? Prasárna! Nejdřív bych začal používat správné HTML strukturu pro správné situace, a teprve pak učil další techniky přístupnosti.",
      "parentPostTime": "2016-03-24T15:19:33",
      "parentPostId": "2586862215"
    },
    {
      "threadId": "4665079740",
      "post": "Tak ono tam půjde dost pokazit. Např. nebýt důsledný v tvorbě url, ten příklad nebude problém najít. Snad i Pavel řekne něco konkrétního na těch Frontendistech, vystupuje tam.",
      "time": "2016-03-23T17:28:44",
      "id": "2585270465",
      "parentPost": "Jojo, koukal jsem.\n\nBohužel jsme se žádného konkrétního příkladu JS-only webu, co není na Googlu nalezitelný, nedočkali. :-(\n\nAsi zkusím udělat nějaký test.",
      "parentPostTime": "2016-03-23T17:18:47",
      "parentPostId": "2585251807"
    },
    {
      "threadId": "4644108251",
      "post": "Díky za hlášení. Na malých displejích jsem ten banner odstranil úplně.",
      "time": "2016-03-10T09:29:17",
      "id": "2561418064",
      "parentPost": "Ahoj, na iPhone 6 SVG školení zakrývá část textu, viz: http://postimg.org/image/qo59wli1f/",
      "parentPostTime": "2016-03-10T06:24:00",
      "parentPostId": "2561277936"
    },
    {
      "threadId": "2076721929",
      "post": "Text je správně. V příkladu jsem opravil na \"height: 100vh\". Díky moc za upozornění.",
      "time": "2016-03-02T08:47:31",
      "id": "2546967173",
      "parentPost": "nemělo by byt spíše \"Příkladem budiž roztažení ŠIŘKY layoutu stránky na celou výšku okna prohlížeče\"?",
      "parentPostTime": "2016-03-02T00:26:23",
      "parentPostId": "2546454246"
    },
    {
      "threadId": "2948984799",
      "post": "Bezva, díky.",
      "time": "2016-02-29T12:06:37",
      "id": "2543057244",
      "parentPost": "Ahoj, pro doplnění - Seznam také nerozumí <h1> zanořenému v <article> nebo </section>. Potvrzeno Dušanem Janovským: https://twitter.com/janovsky/status/702850762855063552",
      "parentPostTime": "2016-02-27T09:48:35",
      "parentPostId": "2539761435"
    },
    {
      "threadId": "4354939447",
      "post": "Jasný, to je tím, že po JS prgačích je aktuálně fakt šílená poptávka. Časem se platy dorovnají. Dík za doplnění, o tomhle důležitém rozměru se v článku nezmiňuju.",
      "time": "2016-02-19T14:54:43",
      "id": "2523283219",
      "parentPost": "Muj poznatek jako juniorniho frontendisty, ktery je presne na tehle krizovatce, je rozhodnuti pomerne jednoduche - JS frontendistum jsou nabizeny 2x az 3x lepsi penize nez pro \"kodery\". Takze ja treba osobne se zacinam mnohem vic ucit JS vyvoj s tim, ze budu \"koderstvi\" cim dal vic pomalu opoustet.",
      "parentPostTime": "2016-02-19T14:02:15",
      "parentPostId": "2523201760"
    },
    {
      "threadId": "4529176712",
      "post": "Tohle chování jsem nezaznamenal. Pokud <a href=\"http://www.vzhurudolu.cz/prirucka/css3-font-face#syntaxe-maximalizujici-kompatibilitu\">autor servíruje více fontů</a>, měl by si prohlížeč vybrat poslední formát v řadě, který umí a stáhnout jen ekvivalentní soubor.",
      "time": "2016-01-29T10:35:23",
      "id": "2484582854",
      "parentPost": "Paráda, a já tam cpal i SVG... :D\n\nJak je to u fallbacků pro případné EOT a TTF? Měl jsem totiž dojem, že mi někdy prohlížeč stahoval i více verzí stejného fontu. Momentálně mi to ale nejde nikde nasimulovat, tak nevím jestli jsem se díval špatně, byl to bug nebo to tak opravdu kdysi dělaly prohlížeče..\n\nDíky",
      "parentPostTime": "2016-01-28T11:16:30",
      "parentPostId": "2482711062"
    },
    {
      "threadId": "4486609834",
      "post": "Díky, pochvala vždycky nabije. :) Ano – všechna pravidla je potřeba porovnat s konkrétními potřebami projektu. U webdesignu je to vždycky takhle. O tvém konkrétním příkladu si neodvažuju diskutovat, mám málo informací.",
      "time": "2016-01-26T09:04:09",
      "id": "2478512295",
      "parentPost": "Pěkný článek - asi zvážím školení :o)\n\nBodu 8 bych se trochu bál. vyžaduje validaci podle cílovky. Mám pár projektů, kde cílovka jsou starší lidé a nechtěně vytáčejí telefon nebo otevírají e-mailové klienty. Zpravidla tuhle funkčnost vypínám - ono taky při označení číselného řetězce se v systémové volbě u dnešních OS nabídne možnost volat.",
      "parentPostTime": "2016-01-25T15:47:21",
      "parentPostId": "2477032820"
    },
    {
      "threadId": "4510072011",
      "post": "Už jsem si to osahal a je to moc fajn. Díky za tip!",
      "time": "2016-01-22T17:30:56",
      "id": "2472121803",
      "parentPost": "Srozumitelnější výstupy a doporučení. Pravda yslow 100% se bez CDN nedá dosáhnout a s CDN taky ne protože všechna která jsem zkoušel zase něměla dobře nastavený cache, etagy atd.",
      "parentPostTime": "2016-01-22T08:35:05",
      "parentPostId": "2471452078"
    },
    {
      "threadId": "4486660408",
      "post": "Dík moc. Zoom je peklo, maximálně hubící přípravek. :)",
      "time": "2016-01-13T10:05:10",
      "id": "2454998314",
      "parentPost": "Skvělé čtení. Ten zákaz zoomu taky přikyvuji, fakt takové weby nemám rád.",
      "parentPostTime": "2016-01-13T08:21:33",
      "parentPostId": "2454924927"
    },
    {
      "threadId": "4402273009",
      "post": "Díík! :)",
      "time": "2016-01-07T22:09:28",
      "id": "2445329154",
      "parentPost": "Martine ta 6) je přesná!",
      "parentPostTime": "2016-01-07T21:58:43",
      "parentPostId": "2445312648"
    },
    {
      "threadId": "3416397709",
      "post": "\"Ve všech ostatních\" tady znamená \"v oknech šířky od nuly do 767 pixelů\". 768 už spadá do té první katerorie.",
      "time": "2016-01-04T12:56:25",
      "id": "2438745507",
      "parentPost": "Když jsem před pár lety překopal svůj web na responzivní, netušil jsem jakou práci s tím budu mít. A to až do dnes, naposled jsem se divil proč se mi náhled obrázku článku ukazuje 180px širokej v IE a edge, ale v chome jen 100px... mno až jsem našel ty divný srcsety atd...opět jsem se divil, že to bylo tím, podle mne je muselo být něčím jiným, ale prostě to vysvětluje proč jsem tady a čtu váš článek... brutální vývoj... zase mi dochází, že mít funkční web, znamená pořád ho přizpůsobovat, sledovat trendy, vývoj...  jinak mám dotaz, jak píšete \"Tímto zápisem říkáme, že responzivní layout je vymyšlený tak, že v oknech šířky 768 pixelů a více má obrázek šířku 300 pixelů ve všech ostatních pak 100\" co je myšleno tím --ve všech ostatních--? Ve všech vyšších než 768 a více přece platí že má šířku 300px, takže ve všech ostatních znamená --ve všech do 768px--?!",
      "parentPostTime": "2016-01-03T22:52:02",
      "parentPostId": "2438065395"
    },
    {
      "threadId": "3416385732",
      "post": "Pro Google Images je srcset v pohodě:\nhttp://daylandoes.com/responsive-image-seo/\nhttp://www.stefan-weiss.net/responsive-image-seo.htm\n\n\n\nPro Seznam Obrázky žádné testy bohužel neznám.",
      "time": "2015-12-15T16:50:56",
      "id": "2411020396",
      "parentPost": "Práve pozerám, že vyšiel picturefill 3, ale chcel som sa spýtať skôr ohľadom SEO. Máš nejaké info k tomu, že ako dobre to indexujú vyhľadávače, keď tam je iba srcset, ... google by to mozno mohol vediet, ale napr. seznam?",
      "parentPostTime": "2015-11-26T22:11:43",
      "parentPostId": "2380407578"
    },
    {
      "threadId": "2304492258",
      "post": "UPDATE: V právě vydané verzi článku už tu \"kompromisní\" syntaxi nezmiňuji.",
      "time": "2015-12-07T12:48:46",
      "id": "2397664668",
      "parentPost": "Přesně tak. Mě se podtržítka slušně řečeno eklují, ale je to tak jak píšete.\n\n\nCo je a-b?  Název bloku (více než jednoslovný, protože někdy se to hodí) nebo blok-element? \n\nTakže za mě taky podtrzitka..",
      "parentPostTime": "2015-10-03T20:16:34",
      "parentPostId": "2288316744"
    },
    {
      "threadId": "4371240317",
      "post": "Už jsem slyšel, díky za doplnění. Navzdory názvu cílíte spíše na zákazníky Basecampu, nikoliv Trella, je to tak?",
      "time": "2015-12-04T16:04:16",
      "id": "2393238295",
      "parentPost": "Nedávno jsme spustili Freelo na řízení projektů pro Freelancery, kdybyste chtěli někdo vyzkoušet ;-) www.freelo.cz",
      "parentPostTime": "2015-12-03T19:46:07",
      "parentPostId": "2391442829"
    },
    {
      "threadId": "4238586443",
      "post": "DevTools je možné používat jako běžný editor, tzn. všechny tam provedené změny se  uloží do lokálního projektu. Jiný scénář nevidím. Viz třeba https://developers.google.com/web/tools/setup/setup-workflow?hl=en",
      "time": "2015-11-16T12:31:29",
      "id": "2362238644",
      "parentPost": "A/ V rámci aktuálního prohlížeče. Prostě si naklikám (napíšu) změny. A pak si chci problikávat web a podívat se jak se změny v CSS projevili (případně i udržely změny v HTML výstupu).\nB/ I mimo aktuální prohlížeč (toto mě vůbec nenapadlo, že by třeba i šlo .-))\n\nDěkuji",
      "parentPostTime": "2015-11-16T12:00:58",
      "parentPostId": "2362210831"
    },
    {
      "threadId": "3481601842",
      "post": "Na WP 8.1 to vidím v pohodě na Browserstacku i na reálné Lumii. http://pasteboard.co/1AncGfnM.png\n\nKterá verze WP a který prohlížeč to prosím tě dělá?",
      "time": "2015-10-23T08:10:25",
      "id": "2322477600",
      "parentPost": "Ahoj,\nklient zrovna narazil, ze web, ktery jsem pro nej delal ma problem presne s timhle.\nZkousel jsem popisovane reseni a nic nepomohlo.\nNebo takhle pri nastaveni scalu na 1 je to OK,\nale kdyz pouziju scale 0.5, ktery potrebuju, tak mam razem problem, protoze stranka se zobrazi pouze na polovine obrazovky (www.ddaann.cz).\n\nExistuje nejake reseni, jak donutit windows phone aby fungovali i mensi scales?\n\nDiky,\nOtto Kovarik",
      "parentPostTime": "2015-10-20T14:03:10",
      "parentPostId": "2316767251"
    },
    {
      "threadId": "4195623706",
      "post": "To rozlišování --save a --save-dev je dobré hlavně u projektů, u kterých předpokládáte, že budou mít dva typy uživatelů: vývojáře (tzn. někdo kdo ten software upravuje – potřebuje --save-dev) a uživatele (tzn. někdo kdo ten software vezme jen jako závislost – stačí mu --save). Obvykle tedy u open source projektů. \n\n\nU \"interních\" webů a webových aplikací mě žádný významný důvod proč je rozlišovat nenapadá.",
      "time": "2015-10-07T11:45:24",
      "id": "2294441047",
      "parentPost": "Dobrý den,\nmůžete prosím rozvést rozdíl mezi --save-dev a --save? Ať jsem použil jedno nebo druhé, žádný rozdíl jsem nezaznamenal - pluginy jsem v obou případech pustil jen v konkrétních projektech, kde byly instalovány, jinde ne. Druhý dotaz - instaloval jsem Gulp s parametrem -g, tak jsem se domníval, že už ho víckrát instalovat nemusím, ale ve složce dalšího projektu jsem ho nespustil, nápověda mi doporučila spustit npm install gulp (bez jakéhokoli parametru). Pak to šlo.",
      "parentPostTime": "2015-10-06T10:17:34",
      "parentPostId": "2292602182"
    },
    {
      "threadId": "4179532212",
      "post": "Diskuzi vzdávám, jen poslední věc – Materialize samozřejmě nedělá Google, ale <a href=\"http://materializecss.com/about.html\">parta sympatických studentů</a>. :-) Google spravuje <a href=\"http://www.getmdl.io/\">Material Design Lite</a>.",
      "time": "2015-10-02T16:35:17",
      "id": "2285917891",
      "parentPost": "Ctěl jsem vědět, jestli umíš přímo porovnat. Pokud neznáš Materialize, stačilo napsat NEZNAM... :)\n\n\nA abych odpověděl na to ci jsi napsal:\n- dostupnost a kvalita dokumemtace je technický parametr\n- velikost komunity je technikcý parametr.\n- ekosystém: jestli za Bootsrapem stojí Twiter, pak za Materialize je Google, a vzhledem k tomu kam to míří tak asi 2 roky to tady ještě bude.\n- způsob využití mě napadá snad jediný: frontend www aplikace.\n- ekosystém: myslíš tím, github, nom, grunt a tak?...",
      "parentPostTime": "2015-10-02T15:04:21",
      "parentPostId": "2285745194"
    },
    {
      "threadId": "3608101332",
      "post": "<em>Extrémní situace někdy nastává u postupu mobile first, kdy webový tvůrce u zobrazení pro mobily a tablety v podstatě také skončí</em>\n\nCo popisuješ je \"mobile only\", nikoliv \"mobile first\".\n\nhttp://www.vzhurudolu.cz/prirucka/mobile-first\n\nhttps://www.zdrojak.cz/clanky/zeldmanuv-mobile-only/",
      "time": "2015-09-24T21:57:50",
      "id": "2272671452"
    },
    {
      "threadId": "2245762519",
      "post": "Ptej se prosím na konkrétní projekt, nikoliv na všechny typy projektů.\n\n\nZbytečné třídy nevadí, lze je eliminovat customizocí BS nebo použít uncss.",
      "time": "2015-09-24T21:12:19",
      "id": "2272584252",
      "parentPost": "nie nevravim aby si mal vsetky projekty na githube :) len ma to tak zmiatlo, kedze tento clánok je skor take vseobecne ponatie, kedy ano a kedy nie, ale mna zauijimal aj tvoj osobny nazor na tento framework, ktory mi chyba a som rad, ze ho uz viem :D\n\n\nP.S.: len tak zo zvedavosti... blogy sledujem hlavne kvoli osobnejsiemu pristupu k veci ;)\n\n\nA čo sa projektov týka, tak vsetky bez ohladu na rozlozenie prvkov (bootstrap ma trosku typical grid layout) :D\n\na taktiez, či ti nevadia tie zbytocne classy co bootstrap ma (najme pri gride mi ich pride hodne a potom je html take \"fuj\")",
      "parentPostTime": "2015-09-24T16:36:41",
      "parentPostId": "2272078909"
    },
    {
      "threadId": "3637632637",
      "post": "Děkuju. U toho IDE – nevidím velký rozdíl mezi kóderem, který píše v Notepadu a kóderem, který píše v něčem fakt nabušeném. Nechal bych na konkrétním člověku. I když … uznávám, že do podobné kategorie by se dal zařadit Grunt/Gulp a spol. Budu nad tím přemýšlet. :)",
      "time": "2015-09-24T15:26:10",
      "id": "2271951309",
      "parentPost": "Super článek, díky. Možná by se ještě dalo zmínit IDE / software pro vývoj.\nJinak toho není vůbec málo, co by měl všechno frontenďák umět :)",
      "parentPostTime": "2015-09-23T23:09:47",
      "parentPostId": "2270565780"
    },
    {
      "threadId": "4150335488",
      "post": "Kolegové používají Hotjar, ale ne na testování těch mých prototypů. Testuje se hotová verze v reálném provozu. Poznatky z toho nějaké jistě budou, ale zatím je na to brzy.",
      "time": "2015-09-22T08:13:33",
      "id": "2266857402",
      "parentPost": "Používáte v procesu designu pro ověřování hypotéz klikací / scroll heatmapy? Přinesly Vám nějaké zásadnější poznatky z reálného provozu?",
      "parentPostTime": "2015-09-22T06:30:04",
      "parentPostId": "2266782551"
    },
    {
      "threadId": "3511596769",
      "post": "Zařazování ucss do watch není dobrý nápad hlavně kvůli rychlosti, ale na jádro otázky neumím bez příkladu odpovědět. Ideálně se ale ptát přímo u autorů – https://github.com/addyosmani/grunt-uncss/issues",
      "time": "2015-09-16T18:53:15",
      "id": "2257166090",
      "parentPost": "Zdravim ta, poradis mi prosim ta ako pouzivat ten uncss? Lebo ked pridam nejaku triedu do html tak aj tak mi ju oreze :( a pritom v html je.\n\nPouzivam: less -> uncss -> autoprefixer -> cssmin.\nSkusal som aj ine poradie ale nic :D, asi je lepsie ho pouzit az ked som s pracou uplne hotový aby som odstranil to prebytocne a nezahrnovat ho do watch? Dakujem za odpoved.",
      "parentPostTime": "2015-09-16T14:26:04",
      "parentPostId": "2256663544"
    },
    {
      "threadId": "4082742215",
      "post": "Zajímavý pohled. Nemáte k tomu nějaký zdroj?",
      "time": "2015-09-07T09:25:25",
      "id": "2240227258",
      "parentPost": "Řekl bych, že ta povinnost dána zemí uživatele (ne zemí provozovatele). Tedy absence implementace v českém právu neznamená, že Slováky lze bez souhlasu sledovat. Z toho mi i vyplývá ten plošný požadavek od Google. Google má navíc výhodu, že nepotřebuje ke sledování lidí svůj produkt třetí strany, ale stačí jim vlastní přihlášení uživatelů.",
      "parentPostTime": "2015-09-04T14:08:05",
      "parentPostId": "2235839718"
    },
    {
      "threadId": "4050079807",
      "post": "To je moc hezké! Nechceš o tom něco stručně sepsat? Klidně jen sem do komentáře. Zajímaly by mě konkrétně ty problematické UI komponenty co zmiňuješ (tabulky?) a jak jsi je vyřešil.",
      "time": "2015-08-24T10:19:40",
      "id": "2211328704",
      "parentPost": "Hezky sepsané, většina je pravda a i když já jsem se tomu donedávna také bránil, před cca měsícem jsem redesignoval oba své weby (www.jankovarik.net i www.glyphicons.com) a udělal je plně responsivní. Konkrétně u glyphicons.com to byl opravdu oříšek, nejen vzhledem k množství informací a ovládacích prvků, ale hlavně jak je udělat funkční a konzistentní (umístěním i chováním) ve všech rozlišeních. Samotná kapitola jsou potom tabulky, tam byl největší problém - výsledek je ale výrazně lepší, kdybych udělal \"jen\" novější verzi designu pouze pro desktop. Jako bonus jsou teď oba weby přístupné prakticky všem a snad se bude více líbit Googlu, který bude mít responsivní weby \"raději\" čím dál tím víc.",
      "parentPostTime": "2015-08-24T08:32:55",
      "parentPostId": "2211242295"
    },
    {
      "threadId": "3803108864",
      "post": "<i>Chápu dobře, že polyfill zastupuje v prohlížeči tag <picture>, které jej neumí nativně?</i>\n\nPřesně tak. Co se týká problému, který popisujete, musel bych vidět konkrétní adresu.",
      "time": "2015-07-13T07:36:52",
      "id": "2132928787",
      "parentPost": "Chápu dobře, že polyfill zastupuje v prohlížeči tag <picture>, které jej neumí nativně? Nebo to je nádstavba i když prohlížeč <picture> podporuje? Zkouším polyfill a zajímavé je, že v IE8 funguje, ale v FF a Chrome nikoliv.",
      "parentPostTime": "2015-06-30T08:39:16",
      "parentPostId": "2108149519"
    },
    {
      "threadId": "3820079057",
      "post": "Pepo, zajímavý point, díky. Bavíme se čistě teoreticky, chtělo by to samozřejmě zkusit na konkrétní stránce.\n\nKotva je předpokládám součást nějakého článku…? V kritickém CSS pak obvykle styly pro článek jsou. Pokud ne, stačí upravit viewport, ze kterého se kritické CSS generují. https://github.com/filamentgroup/grunt-criticalcss\n\n<i>Není v některých případech lepší vidět bílou stránku a zobrazit ji správně, než ji zobrazit \"hned\" a měnit ji v průběhu donačítávání?</i>\n\n\n\nS tím samozřejmě souhlasím. Kritické CSS rozhodně není pro všechny projekty. Je to možnost, ne nutnost. :)",
      "time": "2015-06-22T09:33:55",
      "id": "2092481019",
      "parentPost": "Vypadá to zajímavě, určitě se to do svých projektů pokusím zakomponovat. Nevšiml jsem si ale, že by někdo řešil v případě kritických CSS kotvy, protože pokud kritické styly budou ovlivňovat například horní část stránky a návštěvník se na stránku dostane s kotvou v URL vedoucí na spodní část, zobrazí se mu sice rychleji, ale v průběhu donačítání se mu může měnit doslova před očima. Jaký je ideální postup? Načíst všechny styly, pokud je kotva? Neřešit to? Není v některých případech lepší vidět bílou stránku a zobrazit ji správně, než ji zobrazit \"hned\" a měnit ji v průběhu donačítávání?",
      "parentPostTime": "2015-06-19T23:30:47",
      "parentPostId": "2088880786"
    },
    {
      "threadId": "1920075550",
      "post": "Díky! Procenta si píšu k úpravě.",
      "time": "2015-06-15T08:24:36",
      "id": "2079638174",
      "parentPost": "Velmi zajimave, diky! A btw procenta na radial-gradient(ellipse 50% 50%, ....) uz funguji :-)",
      "parentPostTime": "2015-06-12T03:46:11",
      "parentPostId": "2074970363"
    },
    {
      "threadId": "3809887274",
      "post": "Jo, Borku, to je pravda. Nějaké to „programování” v CSS by chybělo hlavně frameworkům.",
      "time": "2015-06-02T09:20:48",
      "id": "2057706783",
      "parentPost": "Čisté CSS postrádá ještě především mixiny (ne ty pro účely prefixování). Např. Bootstrap web na LESSu se dá udělat daleko čištěji než s CSS. ",
      "parentPostTime": "2015-06-01T17:38:57",
      "parentPostId": "2056549436"
    },
    {
      "threadId": "3429190401",
      "post": "S tím bohužel žádné zkušenosti nemám. Nepošlete bližší popis o co tam šlo, aby případně dokázal pomoci nějaký návštěvník stránky nebo třeba i já v budoucnu? :)\n\nChápu, že ve stránce specifikujete produkt podle Schema.org – http://schema.org/Product. A exportujete XML pro Googe Nákupy https://support.google.com/merchants/answer/188494?hl=cs. A jaké výhody má to propojení?",
      "time": "2015-03-17T19:06:15",
      "id": "1912264236",
      "parentPost": "měl jsem trochu problém se zobrazováním variant produktu na jedné stránce produktu a napárováním na google feed resp. google merchant centrum. Nechtěl mi to uznat bez IDček produktů na cílové stránce s tím, že k obnovení párování stránka VS merchant centrum může dojít i třeba za několik týdnů. Nesetkal jste se tím někdy?",
      "parentPostTime": "2015-03-16T20:41:27",
      "parentPostId": "1910505491"
    },
    {
      "threadId": "3257264505",
      "post": "Jakube, v tom mém systému je komponenta fragmentována jen velmi málo. V base a core jsou styly a funkce globální pro celý web. Ty některé komponenty nemusejí vůbec používat.\n\n\n\nAle stoprocentní autonomii komponent tímto samozřejmě nezískám. U mě to praxi probíhá tak, že si komponentu do jiného projektu vezmu jako zdroják, který tak či tak musím ještě upravovat. Pro moje workflow je to takhle OK, protože dělám relativně málo projektů a všechny jsou dlouhodobé.",
      "time": "2015-01-06T14:59:35",
      "id": "1774648904",
      "parentPost": "Ahoj Martine,\n\npěkný článek, u komponent zmiňuješ:\n\n\"Někdy je můžu použít na jiných projektech, někdy jsou znovupoužitelné jen v rámci aktuálního webu. Vždy jsou izolovány ve zvláštním souboru.\"\n\nProblém návrhu, který já řeším - jak vytvořit opravdu autonomní komponenty, které by bylo možné použít i na jiném webu s tím, abych se v kódu vyhnul nepříjemným duplicitám? V případě tvého návrhu je komponenta stále fragmentována mezi base (základní stylování, reset, fonty) a core (proměnné, mixiny), čímž se vyhneš duplicitám, ale komponenty bez těchto stylů se nedají použít samostatně.",
      "parentPostTime": "2015-01-05T19:31:08",
      "parentPostId": "1773364756"
    },
    {
      "threadId": "2997100510",
      "post": "SVGmagic vypadá fajn, neznal jsem. U svých projektů upřednostňuji Grunt.js a tasky jako svg2png nebo svgmin. Je to pak nastavitelné dle momentálních potřeb. Ale potřebě SVGmagic u některých projektů rozumím a díky za tip.",
      "time": "2014-12-10T11:23:06",
      "id": "1734758975",
      "parentPost": "Jak hodnotíte SVGmagic fallback (https://dirkgroenen.github.io/SVGMagic/), který vytváří PNG na serveru? A tedy odpadající nutnost vytvářet více verzí obrázku…",
      "parentPostTime": "2014-12-09T17:12:19",
      "parentPostId": "1733468929"
    },
    {
      "threadId": "2570760850",
      "post": "Debugováno! \nDíky. ;)",
      "time": "2014-10-31T11:09:29",
      "id": "1662833608",
      "parentPost": "\"dvěmi preprocesory\" == syntax error (recoverable but awkward)\n Omlouvám se za jazykové hnidopišství: slovo \"dvěmi\" v češtině neexistuje. Jen \"dvě\", \"dvou\", \"dvěma\".",
      "parentPostTime": "2014-10-30T21:10:23",
      "parentPostId": "1661876340"
    },
    {
      "threadId": "3091908897",
      "post": "Petře, dík za prima článek.\n\nMalé varování u toho zbavování outline, protože tam říkáš volitelné A, ale neříkáš povinné B. :) \n\n\nTím outline: 0 znesnadníš navigaci pomocí klávesnice. Pokud už člověk outline nechce, měl by nějak :focus stav zvýraznit. Klidně stejně jako :hover:\n\n.el:hover,\n.el:active,\n.el:focus {\n\n  // …\n}",
      "time": "2014-10-11T06:51:48",
      "id": "1630267107"
    },
    {
      "threadId": "3027776556",
      "post": "Díky za doplnění.",
      "time": "2014-09-18T18:17:15",
      "id": "1594974981",
      "parentPost": "Existuje i varianta pro PHP (alpha verze, zatím jsem netestoval): http://bowerphp.org/",
      "parentPostTime": "2014-09-18T04:48:21",
      "parentPostId": "1594153629"
    },
    {
      "threadId": "3004960060",
      "post": "Myslím, že specifikace na to nemyslí. Ve scénářích použítí se řeší buď rozlišení obrazovky nebo viewport. http://usecases.responsiveimages.org/ Podobně zatím i media queries vázané k šířce elementu, tzv. element queries vypadají, že nejsou snadno realizovatelné.\n\nNicméně zrealizovatelné to je díky \"sizes\", což je deklarace breakpointů pro obrázek.\n\n<img srcset=\"small.jpg 600w, big.jpg 2000w\" sizes=\"(max-width: 768px)  100vw, 20vw\">\n\nŘíkám tím:\n\n1) pokud je viewport do 768px obrázek v layoutu zabírá 100vw, tzn. stoprocentní šířku a tedy se použije big.jpg, protože ten má šířku 2000 pixelů\n2) pokud je viewport větší, obrázek tam zabírá jen 20% viewportu a pokud to bude možné, použije se vždy small.jpg, protože má jen 600pixelů (u opravdu velkých viewportů se ovšem zase použije big.jpg)\n\nSnad to dává smysl. U <picture> se mi vždy zavaří hlava. :)",
      "time": "2014-09-11T12:07:15",
      "id": "1584023098",
      "parentPost": "Ohledně PictureFill - testoval jsem to a narazil jsem na problém s tím, že je to celé vázané na viewport. Což v situaci, kdy je v desktop verzi obrázek floatovaný na jednu stranu v textu a v mobilní přes celou šířku, je dost nepraktické, protože tady by se naopak hodila vazba na rozměry nadřazeného prvku. \n\n\nJde to nějak?\n\n\nJsou 2 možnosti:\n- specifikace/polyfill na tohle nemyslí a neumí to\n- něco jsem přehlédl/je na to fígl\n\n\nSnažně doufám, že to je ta druhá možnost :)",
      "parentPostTime": "2014-09-10T18:42:49",
      "parentPostId": "1583018136"
    },
    {
      "threadId": "2304484576",
      "post": "Ad. předeklarovávání primárního tlačítka. Když by to byl větší projekt, proč ne. Viz opět Bootstrap http://getbootstrap.com/css/#buttons: \".btn.btn-primary.btn-small\". Tlačítko primární barvy, ale menší velikosti.\n\nAd. jednoduché pojmenování. Myslíte např. navbar.collapsible? U měnšího projektu může být OK. Sám většinou používám něco jako .navbar.is-collapsed.\n\n.collapse.navbar-collapse z toho Bootstrap příkladu znamená, že je to komponenta .collapse a zároveň komponenta .navbar-collapse. U té druhé ze způsobu pojmenování vychází, že je to subkomponenta komponenty .navbar.",
      "time": "2014-09-08T10:55:27",
      "id": "1579056857",
      "parentPost": "Začnu od konce, předeklarování primárního tlačítka se mi zdá ve většině případů zbytečné - má být všude stejné, prakticky nevidím důvod, abych nějaký kousek kódu těžce předeklarovával.\n\n\nPosledním odstavcem jsem právě narážel na jednoduché pojmenování tříd jak samotných komponent, tak i jejich modifikátorů - viz ten příklad od Bootstrapu - takové názvy tříd se mi zdají nelogické a musím nad nimi při čtení neustále přemýšlet (\"co je .collapse, co je .navbar-collapse\", atd. Ale možná jen nechápu Bootstrap a jeho myšlenku v pojmenování). Pokud bych měl sám něco takového psát, použiji třídy \"collapsa(i)ble\" a jako modifikátor \"collapsed\" a na první pohled vím, k čemu která třída slouží.",
      "parentPostTime": "2014-09-07T09:57:55",
      "parentPostId": "1577686787"
    },
    {
      "threadId": "2866452527",
      "post": "<p>Je to ohromný problém.\n\n<p>Pokud jde o výkon a vliv třeba na rychlost renderování stránky, platí, že ten u mobilních zařízení roste. Jenže ne u všech. Mainstream budou do budoucna tvořit smartphony za 1-2 tisíce, které s tím výkonem ještě budou dlouho bojovat.\n\n<p><i>Rychlostí načítání</i> ovšem myslím čas, který se vám přenáší data před prvním vyrenderováním stránky. Na ten má vliv hlavně rychlost sítě. EDGE je průšvih pomalej, 3G je jenom trochu menší průšvih a neřeší to ani 4G sítě, protože latence na mobilních sítích bude vždy výrazně horší než u DSL připojení.",
      "time": "2014-07-24T09:52:35",
      "id": "1501222590",
      "parentPost": "\"72% všech responzivních stránek načtou stejný objem dat na smartphonu jako na desktopu.\" Je to dnes, při vzrůstajícím výkonu mobilních zařízení, ještě problém? Trochu mi to připomíná dobu, kdy se řešila rychlost načítání stránek při vytáčeném připojení. Aplikoval jsem již dříve, co se doporučuje: optimalizace obrázků, kešování, gzip komprese. Žádný rozdíl před a po těchto krocích jsem na mobilu (Samsung Galaxy S3, Android 4.1.2) nezaznamenal. U stránek, kde jsem to nedělal, není v načítání žádný problém - ovšem, jedná se o víceméně statické weby s pár obrázky.",
      "parentPostTime": "2014-07-24T08:54:51",
      "parentPostId": "1501175523"
    },
    {
      "threadId": "2839447619",
      "post": "<p>Různé studie uvádějí <a href=\"http://stackoverflow.com/questions/9478737/browser-statistics-on-javascript-disabled\">čísla mezi 1-2%</a> vypnutého nebo jinak pokaženého javascriptu. \n\n\n<p>Tzn. v tomhle našem konkrétním příkladě s flexboxem by malinká část uživatelů se starším prohlížečem a bez JS dostala kód s flexboxem a tudíž by neviděla layout. To by ve nemělo vadit, protože layout je většinou dobré považovat za vylepšení UX, nikoliv nutnou součást webu nebo aplikace.",
      "time": "2014-07-18T14:06:50",
      "id": "1491363484",
      "parentPost": "Když jsme u těch procent - jaký může být podíl uživatelů s vypnutým JavaScriptem a prohlížečů, které ho nepodporují (jsou-li ještě nějaké takové) nebo jej podporují mizerně?",
      "parentPostTime": "2014-07-18T09:17:40",
      "parentPostId": "1491091801"
    },
    {
      "threadId": "2748543035",
      "post": "Díky. Máte tam docela hodně 4.3 a 4.4, to je nějaký zahraniční web? Čím to měříte?",
      "time": "2014-06-09T11:54:08",
      "id": "1426688243",
      "parentPost": "Také děkuji. Nad tím (ne)rozpoznáváním Androidů v GA jsem už také přemýšlel. Osobně kolem sebe vídám nejčastěji Android 2.3, proto mě vždy udivovalo, že ve statistikách figuruje tak málo.\n\nV rychlosti jsem se ale teď podíval na jeden svůj web (50k mobilních návštěv měsíčně) a rozložení je takovéto: https://www.dropbox.com/s/3t5kdw9bwavpt7j/androidy.png - tzn verze 2.3 tvoří přes 8 % Androidů. Ty nerozpoznatelné Androidy jsou především Firefox, Opera Mini a Amazon Silk (Kindle Fire).",
      "parentPostTime": "2014-06-09T09:43:58",
      "parentPostId": "1426597367"
    },
    {
      "threadId": "2594164916",
      "post": "To by bylo skvělé. Sepište, napište sem. Kdyžtak pak přidám do článku.",
      "time": "2014-04-08T09:36:26",
      "id": "1323613542",
      "parentPost": "Pěkný článek, chystám se sepsat podrobněji rozjetí Gruntu na Windows i na Linuxu (Debian). Když tak tak hodím odkaz.",
      "parentPostTime": "2014-04-08T09:23:48",
      "parentPostId": "1323601031"
    },
    {
      "threadId": "2400794645",
      "post": "Super doplnění, díky! Do článku jsem to v obecné rovině dopsal.",
      "time": "2014-03-13T13:48:08",
      "id": "1282816860",
      "parentPost": "v clanku chybi ze kompilaci css zvladne pravdepodobne i vase oblibene ide - minimalne less i sass zvladaji NetBeans (Tools -> Options -> Miscellaneous -> CSS Preprocessors, potrebuje NodeJS) a VisualBasic (http://visualstudiogallery.msdn.microsoft.com/07d54d12-7133-4e15-becb-6f451ea3bea6)\ntesim se na dalsi dily! ;)",
      "parentPostTime": "2014-03-13T09:24:20",
      "parentPostId": "1282572406"
    },
    {
      "threadId": "2154054739",
      "post": "Pozor, nezanedbatelné množství fontů tady české znaky neumí. Namátkou Bubbler One, Bowlby One SC, Chewy, Creepster… Testováno na Chrome+Firefox/MacOs.\n\n\nDo testovací sady znaků by to chtělo také přidat opravdu všechny české znaky — např. ť,Ť,Ě,Š.",
      "time": "2014-01-22T08:14:25",
      "id": "1211678083"
    },
    {
      "threadId": "2095186571",
      "post": "K tématu se vede zajímavá diskuze na Facebooku: https://www.facebook.com/VzhuruDolu/posts/501471389969010?notif_t=like",
      "time": "2014-01-08T09:22:34",
      "id": "1191853754"
    },
    {
      "threadId": "1979712352",
      "post": "Začíná v 10:00 a obvykle se vejdeme do osmi hodin, takže končíme kolem 18:00. ",
      "time": "2014-01-04T20:09:03",
      "id": "1186964311",
      "parentPost": "Dobrý den,\nv kolik hodin kurz začíná? Jak dlouho trvá?\nDěkuji za odpověď.",
      "parentPostTime": "2014-01-04T09:42:52",
      "parentPostId": "1186468871"
    },
    {
      "threadId": "2074604528",
      "post": "Pozor, obrázek na pozadí s display: none se skoro ve všech prohlížečích stáhne. display: none je třeba dát jeho rodiči. U tebe tedy v příkladu 2 .obal-obrazku { display: none; }\nTesty viz Tim Kadlec: http://timkadlec.com/2012/04/media-query-asset-downloading-results/\n\nDoplnil bych ještě řešení co využívá Unveil.js https://github.com/luis-almeida/unveil\n\n<img src=\"bg.png\" data-src=\"img2.jpg\" data-src-retina=\"img2-retina.jpg\" />\n<noscript>\n  <img src=\"img1.jpg\" />\n</noscript>\n\n\nKromě jednoduchosti implementace umožňuje taky lazyloadovat alternativní variantu obrázku pro vysokokapacitní displeje.\n\nTak či tak, díky za fajn články.",
      "time": "2014-01-04T06:43:29",
      "id": "1186390585"
    },
    {
      "threadId": "2053430544",
      "post": "Fixnuto, dík moc. ;)",
      "time": "2014-01-03T16:46:38",
      "id": "1185552637",
      "parentPost": "díky za popis, jinak opravte si link na box-sizing",
      "parentPostTime": "2013-12-16T08:27:57",
      "parentPostId": "1165433075"
    },
    {
      "threadId": "2076275167",
      "post": "Rozumím, chce to upřesnit. Jsou možné dva scénáře:\n\n1) Ve chvíli kdy používám prefixované verze <b>standard téhle CSS vlastnosti není jasný nebo neexistuje</b>. To je méně častý scénář, z poslední doby mě napadá třeba u vlastnosti viewport. Podporuje ji jen MSIE jako @-ms-viewport. Ostatní ji zatím neimplementují, je otázka jestli budou atd. Pak bych ale standardní syntaxi vůbec nepoužil, prostě jen @-ms-viewport.\nhttp://docs.webplatform.org/wiki/css/atrules/@viewport\n\n2) Používám vlastnost, jejíž <b>standard je jasný</b>, jen jej ještě tenhle prohlížeč neimplementoval. Pak použiju postup psaný v článku, tedy nejdřív prefixy a standardní verzi nakonec. Pokud se nepletu, výrobci prohlížečů standardní syntaxi implementují rozumněji, takže pokud v nějaké fázi vývoje podporují standardní i prefixovou verzi, měla by ta standardní být lépe napsaná a tedy třeba rychlejší. \n\nUznávám, že dělící linka mezi oběmi scénáři není úplně ostrá. Druhý scénář je ovšem u běžných CSS vlastností, o kterých v příručce píšu výrazně častější a kromě všeobecně známého průšvihu s gradienty nebývá se nečekanými změnami standardní syntaxe problém.",
      "time": "2013-12-28T14:35:34",
      "id": "1179248387",
      "parentPost": "„Na posledním místě vždy musí být neprefixovaná verze“ je v přímém rozporu s „výrobci prohlížečů jsou horliví … implementují i vlastnosti, které W3C zatím neposlalo do finálních fází procesu standardizace.“\n\n\nPokud není jasné, jak bude standard vypadat, měl by být uveden jako první, aby ji prefixované vlastnosti, jejichž chování je už dané, mohly přebít.\n\n\nPokud by například W3C ve finále rozhodlo, že zmíněné rotate bude v protisměru hodinových ručiček, zatímco proprietární implementace by byly ve směru, tak uvedením neprefixované vlastnosti jako poslední bych si dřív nebo později rozbil web.",
      "parentPostTime": "2013-12-27T18:29:37",
      "parentPostId": "1178446576"
    },
    {
      "threadId": "2019290803",
      "post": "Jo! Ty novinky v Chrome jsou fantastiš. Pro neznalé viz https://twitter.com/machal/status/408885878208360448",
      "time": "2013-12-08T19:12:25",
      "id": "1155151812",
      "parentPost": "Užitečný článek. V praxi používám velmi podobný postup, ale s reálnými zažízeními je to vždycky složitější. Každopádně sem nedávno zjistil, že nám jde Google s Chromem ještě víc naproti. Ve vývojový verzi Chrome Canary je už teď skvělej nástroj na emulování mnoha zařízení a navíc je to stabilní a dá se to používat. Určitě bych to doporučil.",
      "parentPostTime": "2013-12-07T12:35:18",
      "parentPostId": "1153926052"
    },
    {
      "threadId": "1920054493",
      "post": "Myslíš tohle? http://www.vzhurudolu.cz/archiv/machal.creativity.cz/2002_11_03_archiv.php\nPsal jsem před krásnými deseti lety. :) 2002-2003.",
      "time": "2013-10-31T09:36:50",
      "id": "1103377841",
      "parentPost": "Vzpomínám, jak jsem už před léty chodil na tu úplně první, zelenou, verzi. Z jakého je roku? :)",
      "parentPostTime": "2013-10-31T09:32:55",
      "parentPostId": "1103375929"
    },
    {
      "threadId": "1810236067",
      "post": "Like!",
      "time": "2013-09-30T10:05:11",
      "id": "1064309332",
      "parentPost": "Neboj, budu tě na konferenci WebTop100 bránit! :)",
      "parentPostTime": "2013-09-30T09:35:51",
      "parentPostId": "1064291740"
    },
    {
      "threadId": "1518091526",
      "post": "Vojto, na portech mi vadí to odpojední od originálu na úrovni kódu (jsou vždy o něco pozadu, mají jiné chyby než původní codebase atd).\n\nCo mi ale vadí ještě víc — jsou odpojené od původního ekosystému. Nemůžu využívat znalostí široké komunity kolem Bootstrapu, ani pluginů a nástrojů co ta komunita vytváří.\n\nI když samotnou syntaxi a vlastnosti Stylusu obdivuju asi stejně jako ty, pragmaticky volím Bootstrap/LESS. ;)",
      "time": "2013-07-23T07:24:27",
      "id": "973125357",
      "parentPost": "Pro kodéry básníky existuje použitelný port Boostrapu do Stylusu :) https://github.com/Acquisio/bootstrap-stylus",
      "parentPostTime": "2013-07-22T13:24:59",
      "parentPostId": "972142339"
    },
    {
      "threadId": "1265700133",
      "post": "Respond.js na nějakých projektech mám, ale když někde používám preprocesor, volím ten, protože je ve srovnání s javascriptem bezpečnější.",
      "time": "2013-05-08T12:06:07",
      "id": "889593893",
      "parentPost": "Existují z tvé strany nějaké důvody, proč nepoužít polyfill Respond od Scotta Jehla? Každopádně díky za článek...",
      "parentPostTime": "2013-05-08T10:32:28",
      "parentPostId": "889540942"
    },
    {
      "threadId": "1168155568",
      "post": "Myslíte HTML prototyp? Máte ho s reálným obsahem? Pokud ano, neměl by to být žádný problém. Potřebujete to jen mít v prohlížeči a s plnohodnotným obsahem.",
      "time": "2013-03-31T09:31:44",
      "id": "847752768",
      "parentPost": "Jak v tomto prípade riešit prototypy? Keď su 1, 2 nebo  3 breakpointy možme urobiť pre každu verzi prototyp. V pripade mikrobreakpointu to ale bude s návrhom prototypu ako?",
      "parentPostTime": "2013-03-30T20:11:16",
      "parentPostId": "847387316"
    },
    {
      "threadId": "1075815702",
      "post": "Pozor, @import v CSS vytváří pro každý parciál jeden request navíc, což by v tomhle případě bylo fuj. :)",
      "time": "2013-03-12T20:43:01",
      "id": "827137980",
      "parentPost": "\"Pokud jste se někdy pokoušeli zorientovat v cizím (nebo vlastním \nstarším) CSS souboru, asi budete souhlasit, že dělení stylopisů do \n„parciálů” a jejich importování do jednoho malinkého samovysvětlujícího \nindexu je jedna z jejich mnoha killer vlastností.\" \n\nNechcem veľmi rýpať, ale už \"plain\" CSS má import deklaráciu, takže deliť CSS do parciálu, možete aj bez preprocesora.",
      "parentPostTime": "2013-03-12T15:59:23",
      "parentPostId": "826883759"
    },
    {
      "threadId": "1119214417",
      "post": "Tomáši, rádo se stalo. ;-)",
      "time": "2013-03-06T07:50:05",
      "id": "820791534",
      "parentPost": "Díky, tenhle trik jsem neznal a zrovna ho potřebuju :)",
      "parentPostTime": "2013-03-05T14:43:33",
      "parentPostId": "820017345"
    },
    {
      "threadId": "1110593816",
      "post": "Fáno, myslím, že si nerozumíme. :) Když si na desktopu otevřete malinkaté okno (třeba jen 400px do šířky) se stránkou obsahující tu Flickr galerii – http://www.ubytovani-provence.cz/apartman.php?lang=cz – uvidíte stejný obsah jako na jakémkoliv jiném desktopu. Obsah měním na základě serverové detekce zařízení, na mobilním zařízení tam místo galerie bude to tlačítko. Velikost okna na změny obsahu nemá žádný vliv. \n\nPokud bych prezentaci obsahu měnil na základě šířky okna prohlížeče, pak ano, souhlasím s detekcí javascriptem a správnější by bylo obsah donačíst ajaxem. V mém případě ovšem potřebuji detekovat zařízení, nikoliv šířku okna.",
      "time": "2013-03-04T19:45:08",
      "id": "819117788",
      "parentPost": "Pojmy neslučuju, mluvím opravdu o tom samém co Vy.. osobně využívám tuto knihovnu http://detectmobilebrowsers.com/ a to právě její JavaScript mutaci, která pracuje na stejném principu, jako PHP detekce, o které píšete..\n\nProto stále platí má otázka viz výše:)",
      "parentPostTime": "2013-03-04T10:37:02",
      "parentPostId": "818749322"
    },
    {
      "threadId": "983822716",
      "post": "Lukáši, a kde je nějaké konkrétní praktické využití HTML5 strukturálních elementů v agregátorech? Ukaž! :) \nTeoreticky souhlas, ale jsem praktik. :)",
      "time": "2012-12-26T14:55:58",
      "id": "747751991",
      "parentPost": "Strukturalni elementy beru jako metainformace pro cokoliv jinyho, nez browser. At uz to jsou vyhledavace, veci jako flipboard, nebo jine agregatory obsahu. Rss je za zenitem a tydle elementy prinaseji moznost dat strukturu jinak obtizne zpracovavaténemu obsahu. \nTo, ze se to pouziva k jinejm vecem, nez k cemu to je urceny, je vec jina. \nA pokud to nekomu rozsype web, ma si to osetrit.",
      "parentPostTime": "2012-12-22T13:36:19",
      "parentPostId": "745554977"
    },
    {
      "threadId": "906616718",
      "post": "Lukáš + jonny: K tomu \"(Klient neplatí nic navíc)\" u první otázky: To tam je i v originále jen pro dovysvětlení první části otázky. Oproti neresponzivní variantě stejného dodavatele neplatí nic navíc, protože neresponzivní varianta neexistuje. ;)",
      "time": "2012-10-30T14:29:27",
      "id": "696208352",
      "parentPost": "Myslel jsem si, že tě bude zajímat ono srovnání se světem. Výsledky mne nepřekvapily.\n\nResponsive web design nabízím u projektů, kde vidím jeho smysl a použitelnost v rámci řešení. \nNa otázku \"Zda klient zaplatí více\" mám odpověď, že logicky zaplatit více musí vždy. Ten kdo odpovídá \"Klient neplatí nic navíc\" nemá podle mne pravdu. Taková firma/člověk má ceny buď nadsazené (poté klient platí navíc oproti konkurenci) nebo naopak svou práci podceňuje. Responzivní web je vždy náročnější na čas a často i na přemýšlení (Pokud se nabavíme o čistě Bootstrap a podobných řešení - i když i zde záleží na situaci). \n\nMálokdy se stane, že by grafik dodal minimálně 3 verze grafického návrhu nebo alespoň nějaké wireframe. \n\n\n\nPoté se z kodéra stává člověk mnoha řemesel, ale mně osobně to nevadí...\n\nNebuď Honzo tak pesimistický, oni ten termín znají, jen nemají nejmenšího důvodu ze svých zajetých kolejí vybočovat :).",
      "parentPostTime": "2012-10-30T08:29:05",
      "parentPostId": "696038583"
    },
    {
      "threadId": "894704526",
      "post": "To je \"disgusting Disqus čeština\". :)",
      "time": "2012-10-23T17:09:42",
      "id": "690229393",
      "parentPost": "Co znamená bez komentářů a 2 reakcí tady pod článkem",
      "parentPostTime": "2012-10-22T17:36:45",
      "parentPostId": "689318851"
    },
    {
      "threadId": "886291098",
      "post": "Souhlas. Určitě tady nechci zbožštit intuici v neprospěch vědy. Ve veřejné diskuzi mají ovšem  \"UX vědci\" navrch a tak jsem rád za každý příklad ze soudku selský rozum.\n\n\n\n",
      "time": "2012-10-16T15:30:57",
      "id": "684242528",
      "parentPost": "Ryan v tom samem odstavci odkazuje na Gestalt a v clanku zminuje take, ze je dulezite vedet \"How the brain works, how the eyes scan, how people tick, what makes a screen understandable and so on.\" Ryan v podstate popsal kognitivni vedu, takze se v zadnem pripade nejedna o nazor, ze dobra UX ma byt zalozena pouze na pocitech a selskem rozumu.\n\n\nNejlepsi formule je samozrejme zdrava davka informovanosti (veda + uzivatelsky vyzkum) a vlastniho usudku, smichane ve vhodnem pomeru. Zbozsteni jednoho ci druheho principu k vynikajici UX povede opravdu jen tezko.",
      "parentPostTime": "2012-10-16T09:25:39",
      "parentPostId": "683977424"
    },
    {
      "threadId": "876112437",
      "post": "Co je responzivní obsah kromě textu? Videa, obrázky? Ty se musí řešit v každém případě, ne?",
      "time": "2012-10-08T13:40:07",
      "id": "676186493",
      "parentPost": "Plně souhlasím se závěrem. Aby to fungovalo na webu s grafikou (což jsou ovšem téměř všechny), je třeba začít řešit responzivní obsah. A hned jsme v poněkud jiné cenové kategorii.",
      "parentPostTime": "2012-10-08T12:24:11",
      "parentPostId": "676133957"
    },
    {
      "threadId": "850146618",
      "post": "PDF ve smyslu vektoru, který se proporcionálně zvětšuje a zmenšuje podle velikosti kontextu - tedy okna nebo displeje. Na přednášce a později na blogu vysvětlím proč to může být v některých situacích užitečné a jak toho dosáhnout.",
      "time": "2012-09-20T07:58:01",
      "id": "656407720",
      "parentPost": "No právě a to u webu neplatí a není cílem, aby to platilo (a rozhodně to není cílem responsivního designu, elastického layoutu apod.). Proto nevím, zda mi něco neuniká u úvodní otázky.",
      "parentPostTime": "2012-09-19T16:16:25",
      "parentPostId": "655688003"
    },
    {
      "threadId": "743488918",
      "post": "Akademická není, umím si představit situace kdy prototyp ani iterativní vývoj nejsou zapotřebí — např. když si klient vybírá z několika variant hotového designu webu. Další krok už jen jen nakódování šablon, naprogramování a šup s tím na produkci. :) Zažíval jsem před lety a vidím dodnes kolem sebe.",
      "time": "2012-06-29T10:55:21",
      "id": "571639865"
    },
    {
      "threadId": "726888353",
      "post": "<p><i>1) Je to složité a pracné. (Dokonce v minulém článku byl zmíněn generátor – tedy ručně pracnost ad absurdum.)</i>\n\n<p>Jak co. Vytvořit kulaté rohy v CSS3 je pracnější než nakreslení, vyexportování obrázku a vložení do CSS? \n\n<p><i>2) CSS není schopno nahradit všechny obrázky.</i>\n\n<p>Souhlas. Kde přesně na tomhle blogu čtete, že ano? :)\n\n<p><i>3) To co se dělá přes CSS je požívání kladiva pro zašroubování šroubů. Jinak řečeno namísto vektorového editoru a vektorových obrázků se používá CSS, který na to není určen.</i>\n<p>Webaři si snaží ušetřit práci. Pokud vám CSS3 práci komplikuje, zapomeňte na něj stejně jako jste to rozumně udělal s XHTML. Dobře se ale ujistěte, jestli vám práci CSS3 bude práci komplikovat vždy a všude.\n\n<p><i>4) To co skutečně chybí a bylo by to řádným řešením jsou vektorové obrázky v HTML. </i>\n<p>Obecně souhlas, ale např. kulaté rohy ve vektorech? Bude to opravdu jednodušší než <code>border-radius: 10px</code>? \n\n<p>Právě proto vznikl popis grafiky v CSS3 — jednoduché věci je možné dělat jednoduše. Na složité máme furt bitmapy a čekáme na vektory.\n",
      "time": "2012-06-18T08:11:35",
      "id": "560839608"
    },
    {
      "threadId": "725790206",
      "post": "<p>Ahoj Tomáši, dík za odkaz <b>ke gradietům</b>. V praxi jsem se u sebe setkal jen s kolizí <a href=\"http://stackoverflow.com/questions/4692686/ie9-border-radius-and-background-gradient-bleeding\">vlastnosti filter s border-radius v IE9</a> a je pravda, že už to vyžaduje speciální znalosti než člověk filter může použít. Problém z tvého odkazu to posouvá do pekel horoucích. :)\n<p>Pak tedy s tebou souhlasím — CSSHat by gradienty pro MSIE8- automaticky generovat neměl. Bylo by fajn, kdyby obeznámený člověk tu možnost měl — třeba odkazem na url s popisem možných problémů a syntaxí filter filter: progid:DXImageTransform.Microsoft.gradient. Nebo zatržením MSIE-expert módu v nastavení. ;)\n\n<p>Bylo by ale určitě k dobru věci fakt, že IE8- gradienty nepodporujete komunikovat buď přímo v rozhraní nebo alespoň ve FAQ na webu komunikovat. Spousta uživatelů to asi bude považovat za chybu.",
      "time": "2012-06-14T20:07:16",
      "id": "557502557"
    },
    {
      "threadId": "699841608",
      "post": "Otázka je jak moc je adresa Zeldman.com nevinná. :) Pár lidí mu tam chodit bude. A ohlasy říkají, že právě proto to bylo odvážné.\nDůležité je, že tím experimentováním nezatěžoval klienty. ;)",
      "time": "2012-05-23T07:31:43",
      "id": "536384646"
    },
    {
      "threadId": "688488683",
      "post": "Martin, Gregor — paráda — ten Source Shuffling a Hammer.js vypadají zajímavě. Pošlu dál do světa. Díky! ;)\n",
      "time": "2012-05-15T07:31:39",
      "id": "529119182"
    },
    {
      "threadId": "643066038",
      "post": "<i>Těžko budete přesvědčovat grafika…</i>\n\nTrefa, přesně tohle byste měl. ;)",
      "time": "2012-05-08T17:14:19",
      "id": "523126186",
      "parentPost": "Tohle všechno jsou super věci, ale většina z nich v praxi neuvyužitelná.. např. jak chcete použít icon font, když dostanete jasně danou grafiku? Těžko budete přesvědčovat grafika, aby použil ikonky z tohohle fontu atd.:)",
      "parentPostTime": "2012-05-08T09:05:05",
      "parentPostId": "522523025"
    },
    {
      "threadId": "616211867",
      "post": "Pavle, bude bude. Píšu si. ;)",
      "time": "2012-03-19T13:28:11",
      "id": "468944047"
    },
    {
      "threadId": "569250342",
      "post": "Karel Fučík: Máte pravdu. PNGa je hezké označení, ale není zrovna zavedené a pomýlení s APNG by v tomhle kontextu nastat mohlo. Opravil jsem.",
      "time": "2012-02-09T12:47:49",
      "id": "433922127",
      "parentPost": "No, ve skutečnosti byl přesnější nadpis RGBa, neboť \"PNGa\", tedy PNG s alfa kanálem se správně nazývá PNG32, případně existuje PNG8 s paletou poloprůhlednosti.\n\nZdá se to jako šťourání, ovšem jen dokud si neuvědomíte, že existuje APNG, což je animované PNG s poloprůhledností. Mimochodem - tento formát je navržen tak, že v prohlížečích, které ho nepodporují, se zobrazí statický obrázek (fallback na úrovni formátu souboru). Safari jej tuším zatím nepodporuje, protože jde o návrh Mozilly.",
      "parentPostTime": "2012-02-09T11:18:53",
      "parentPostId": "433870122"
    },
    {
      "threadId": "479141619",
      "post": "Martine, vypadá to sympaticky, ale dobré  zmínit, že BASE změní absolutní URI úplně u všech assetů (JS, CSS soubory) a taky odkazů:\nhttp://www.w3.org/TR/html4/struct/links.html#h-12.4\n\nBude tedy potřeba u všeho kromě obrázků uvádět absolutní adresu. \n\nJednou jsem na BASE trochu z jiných důvodů postavil jeden docela rozměrný web a musel jsem dělat řadu kompromisů na jiných místech. V tvém případě to neumím domyslet do všech důsledků. Když bys to řešení nasadil, rád se dozvím zkušenosti.\n\n",
      "time": "2011-11-23T07:55:14",
      "id": "370662798"
    },
    {
      "threadId": "471256505",
      "post": "<p>Milane, díky za upozornění. Pokud o podporu IE7 nebo IE6 stojíte, použijte <a href=\"https://gist.github.com/1357873/fec5e217bcce3cafdbc3ee4627f49ce82c87d1f5\">druhou revizi kódu</a>. \n\n<p>IE6+7 bohužel obsahují chybu <a href=\"http://www.quirksmode.org/bugreports/archives/2006/01/Explorer_z_index_bug.html\">s nesprávným nastavování stacking contextu pro z-index</a>, který v tomhle případě nelze snadno obejít, takže se tady musíme vzdát zvětšování na mouseover. \n\n",
      "time": "2011-11-16T08:47:23",
      "id": "364374727"
    },
    {
      "threadId": "454370532",
      "post": "<p>Přátelé zlatí, ale já neříkám, že je na přístupu \"maximální svoboda designérovi\" cokoliv převratného. ;)\n\n<p>Nové na Perchu je to, že ho hlavně proto navrhli. Ostatní CMS, se kterými jsem se setkal, to buď neumí nebo umí, ale komplikovaně. Například pomocí pluginů. Vymysleli je za  jiným účelem — Wordpress pro blogování, Drupal pro univerzálnost.\n\n<p>U CMS, které neznám, neumím soudit. Ukažte konkrétní použití, abychom si o tom mohli povídat.",
      "time": "2011-10-31T12:20:27",
      "id": "351879494"
    },
    {
      "threadId": "429202491",
      "post": "<p><i>...osobně vidím problém např. v rozlišení telefonů, protože to celkem skáče.</i>\n\n<p>Myslím, že ve chvíli kdy si řekneme, že pixel-perfect design je v tomhle prostředí nesmysl, nemusí nás ty rozdíly trápit. \n\n<p><i>...pro \"křápy\" a smartphony dělat čistě mobilní verzi se zapojením responsive technikou, to samé pak pro tablety a lepší pro klasickou verzi s responsive technikou.</i>\n\n<p>Kéž by existoval nějaký univerzální postup! Co bych za něj dal. ;) Na každém projektu to  zatím bylo trochu jinak. Cílová skupina a typ obsahu poradí. Ani responsive není jediná cesta. Projekt z článku užívá dva odlišné layouty — smartphonový a desktopový. Není tam nic responsivního.\n\n",
      "time": "2011-09-29T12:22:19",
      "id": "322842278"
    },
    {
      "threadId": "389532941",
      "post": "<em>Tipnu že velké části firem (a prakticky celému sektoru kamenných obchodů) stačí web jako jednostránková vizitka</em>\n\nNo jasně! Většina firem má k publikování na webu jen tolik obsahu, že by jim stačila vizitka na Firmy.cz. A držet doménu, kdyby se to zlepšilo! :)\n\nJenže… Tohle asi neúsporní manažeři v českých webařských firmách klientům neříkají. ;)",
      "time": "2011-08-18T18:25:16",
      "id": "290269235",
      "parentPost": "... pokud jí nevidí přímo na homepage, okořeněnou informačním scentem iframu s google mapou a tabulkou otevíracích hodin.\n\nTipnu že velké části firem (a prakticky celému sektoru kamenných obchodů) stačí web jako jednostránková vizitka: jméno, 3 nadchávací fotky ve slideru, 2 odstavce o činnosti firmy a trio adresa + kontakt, otevírací hodiny, mapa.\n\nPlus možná druhá stránka / ajaxová sekce na ceník (ševci, kadeřníci a spol.).\n\nDíky za článek!",
      "parentPostTime": "2011-08-18T15:37:18",
      "parentPostId": "290133012"
    },
    {
      "threadId": "319795494",
      "post": "<p><i>...pokud musím psát newsletter trochu jinak (tabulkovy layout) už mi tolik nevadí že styly zadávám inline</i>\n\n<p>Ale to by platilo jen v případě neexistence dobrých e-mailových klientů, kde můžete použít nové technologie jako CSS3. \n\n<p>Možnosti postupného vylepšování (progressive enhancement)  na základě podpory CSS vlastností jsou ale bez podpory <code>&lt;style&gt;</code> hodně omezené.\n\n<p>Můžeme teď vlastně jen zacílit klienty co umí <code>&lt;style&gt;</code>  nebo pak uvnitř <code>&lt;style&gt;</code> použít media-queries atd.\n\n",
      "time": "2011-06-05T11:00:06",
      "id": "218484689",
      "parentPost": "Nevím, ale pokud musím psát newsletter trochu jinak (tabulkovy layout) už mi tolik nevadí že styly zadávám inline. Řekl bych že největší brzda je Lotus Notes, který neumí skoro nic, přesto ho v pár firmách mají.",
      "parentPostTime": "2011-06-03T15:03:47",
      "parentPostId": "217239963"
    },
    {
      "threadId": "195615465",
      "post": "<p><b>wutu:</b> <i>Nebo myslite, ze architekt zve k prvnim krokum navrhu budovy ihned stavebni firmu?</i>\n\n<p>Neznám specifika oboru, ale jako vývojář samozřejmě můžete docela úspěšně zaujmout postoj \"počkám jaké mi přijde zadání a pak začnu pracovat\", ale je otázka jaká je vaše šance vytvořit nějakou novou hodnotu.\n\n<p>Když budete od začátku diskutovat jak s architektem/designérem tak s klientem, máte myslím daleko větší šanci řešení ovlivnit tak, aby vám přinášelo radost.",
      "time": "2010-12-27T11:53:55",
      "id": "119668898"
    },
    {
      "threadId": "186233334",
      "post": "<p><b>Daniel Srb:</b> Jasně, znám docela zblízka ze Scuku. Neváhal bych s nasazením u trochu většího projektu, kde je potřeba jistý komfort i pro uživatele. \n\n<p>U Dream-Cars nevím, intuice říká, že by to bylo méně efektivní. Ale nejsem programátor, natož Django programátor, abych o tom mohl někoho přesvědčovat. :)",
      "time": "2010-12-11T13:09:06",
      "id": "110261428"
    },
    {
      "threadId": "161571599",
      "post": "Ještě test-case, kdyby někoho zajímalo více — http://www.vzhurudolu.cz/test/etc/input_box-sizing.html",
      "time": "2010-11-08T08:10:31",
      "id": "95004058"
    },
    {
      "threadId": "164896139",
      "post": "Jasně, tady mělo zaznít „s legálním písmem od Štorma řešeném <em>pomocí @font-face</em>”. Psáno hold pozdě večer. Díky. :-)",
      "time": "2010-11-01T07:51:00",
      "id": "92570320"
    },
    {
      "threadId": "157510279",
      "post": "<p><i><b>Dalibor Šimáček</b> Pokud ladím pro IE6 a 7, je podle mě přednější rychlostní optimalizace před 100% shodou designu.</i><br><br></p><p>Absolutní souhlas! Našim úkolem opravdu není shoda vzhledu, našim úkolem je zajistit, aby se lidé na konci drátů usmívali, když web používají. ;-)</p>",
      "time": "2010-10-20T18:38:45",
      "id": "88580477"
    },
    {
      "threadId": "153238714",
      "post": "<b>aichi</b>, díky za připomenutí. Opravil jsem. S Disqus je potřeba vést boj kodéra proti kodérovi: http://kratce.vzhurudolu.cz/post/1282216291/jednodussi-vzhled-pro-komentare-disqus :-)",
      "time": "2010-10-10T08:26:37",
      "id": "85638626"
    },
    {
      "threadId": "140917649",
      "post": "Karle, bude to i pro HTML/CSS kodéra co si hraje s Javasciptem? :)",
      "time": "2010-09-22T18:19:58",
      "id": "80108317"
    },
    {
      "threadId": "144270599",
      "post": "<strong>Tomáš Kapler:</strong> Jasně, už v komentářích článku jsem psal, že pokud Textmate umí hledat TODO v kódu, půjde ho naučit  hledat i OBSOLETE.",
      "time": "2010-09-20T12:58:56",
      "id": "79470070"
    },
    {
      "threadId": "123861544",
      "post": "Lukáši, zaujalo mě, že vám editorský výběr nepřipadá zajímavý. Asi jsme prostě každý jiný typ člověka (a ITzprávy jsou jiný agregátor než bych používal já). \n\nMoje myšlenky vycházejí z přesvědčení, že většina čtenářů nemá čas a chuť být sám sobě editorem -- zdroje vyhledávat, třídit atd.. Myslím, že většina prostě chce dostávat zajímavé informace \"bez nastavování\".",
      "time": "2010-08-16T08:42:03",
      "id": "69087220"
    },
    {
      "threadId": "119437207",
      "post": "<p><strong>SPEEDL CZ,</strong> prosím čti co lidé píší. :-)\n<br>Zde doporučuji zejména odstavce \"Můžete ho nenávidět, ale ne ignorovat\" a \"Vstřícnost vůči IE6 musí být časově obhajitelná\". :-)<br><br><p>Blog jsem v IE6 pořádně neviděl, stejně tak jako ho v něm neuvidí skoro nikdo. Aktuálně je to 0,45% návštěvníků.</p>",
      "time": "2010-07-21T18:12:23",
      "id": "63568092"
    },
    {
      "threadId": "97251172",
      "post": "Ještě jsem pořádně prostudoval <a href=\"http://www.useragentman.com/blog/2009/11/29/how-to-detect-font-smoothing-using-javascript/\">článek o detekci vyhlazování</a> od Zoltana Hawryluka, kolem kterého jsem včera chodil jako kolem horké kaše a vypadá docela zajímavě.\n\nV IE je totiž vlastnost <code>screen.fontSmoothingEnabled</code>, která vrací <code>true</code>, pokud je v systému zapnuté standardní nebo ClearType vyhlazování.\n\nV ne-IE prohlížečích ten jeho skript pomocí vykreslení znaku v canvasu umí detekovat, jeslti se vyhladí nebo ne.\n\nTa IE detekce není úplně spolehlivá, protože (alespoň u mě) na WinXP s vypnutým vyhlazováním IE7 a 8 samy od sebe vyhlazují. Nicméně pokud to tak platí obecně, můžeme ten skript poměrně jednoduše upravit tak, aby byl přesnější.\n\n<strong>@Tomáš:</strong> -- díky za odkaz, takže Helvetica jako webfonts, pěkně pěkně.\n\n",
      "time": "2010-05-20T07:37:10",
      "id": "51197686"
    },
    {
      "threadId": "96394632",
      "post": "<strong>@Miroslav:</strong> Tumblr prostě usnadňuje publikování trochu jiného typu obsahu než potřebuješ ty. Hojně ho například používají teenageři, kteří rádi recyklují různý multimediální obsah. Tumblr k tomu používá něco jako RT na Twitteru. \n\nCo myslíš tím, že \"tumblr má velmi omezené formátování příspěvku\"? Mám totiž pocit, že je to ve WYSIWYG módu (a se správným prohlížečem :-)) vychází úplně nastejno s Posterous.\n\n\n<strong>@Marek:</strong> Blogger taky ještě na jednom projektu používám a co se týká funkcí i přívětivosti rozhraní je proti těmhle novým aplikacím hodně pozadu. Na druhou stranu, pokud píšeš pro komunitu, která hojně využívá služeb Google (a má u něj účet) a vystačíš si se současnou funkčností, jeho použití smysl rozhodně dává. A znovu -- kdyby ti přestal stačit, Tumblr i Posterous z Bloggeru umí importovat. Jak to mají ti autoři jednoduché! :-)\n",
      "time": "2010-05-18T07:16:23",
      "id": "50869014"
    },
    {
      "threadId": "95819169",
      "post": "Martine, jasně, máš pravdu. HTML5 je ale <em>nutné</em>, nikoliv užitečné si v hlavě rozložit na moduly (nebo dokonce jejich části) a posunovat se po nich dopředu. \n\nDávám to sem proto, že se setkávám s názory vývojářů typu \"HTML5 se zatím nedá používat, protože není plně podporováno.\" \n\nTeď jim můžu posílat odkaz na tohle krásné zjednodušení s tím, aby si správně nastavili mentální model pro adopci HTML5/CSS3. ;-)",
      "time": "2010-05-15T10:55:19",
      "id": "50459640"
    },
    {
      "threadId": "94985250",
      "post": "Aby to bylo jasné (protože to nepíšu) — určitě si nemyslím, že je kódování podřadná práce. Jde samozřejmě dělat způsobem, který ji na degraduje, ale to platí i o programátorech, designérech nebo zubařích. \n\nOndro, pokud jde o tvou bakalářku — zkus se zeptat lidí, kteří mají na starost frontend velkých webů,  jaká je jejich náplň práce. Půjde určitě o jiné věci než konkrétní HTML a CSS v šablonách. Na Twitteru je minimálně Riki Fridrich z Atlas/Centrum. ",
      "time": "2010-05-13T12:28:27",
      "id": "50093885",
      "parentPost": "Jop. Nerekl mi to nikdo. Kap jsem na to sam (aneb videl jsem film Kung Fu Panda).\n\nSlo mi o to zduraznit v bakalarce, ze kodovani nemusi byt to, co popisuje Martin a ze se za skutecne komplexnim vyvojem front-endu webu skryva nemale usili a znalosti. Tak, jak o tom, Honzo, pises ve 3. odstavci (od konce).\n\nJeste me napadla treba Nicole Sullivan, autorka konceptu OOCSS. Nebo autori CSS frameworku, kteri ne konkretnim kodem, ale zpusobem uvazovani a navrhovani jdou do hlouby veci.\n\nMel jsem na mysli odbornika na vyvoj front-endu webu, ne kodera (receno lapidarne). Neco jako srovnani programatora a SW architekta/vyvojare.\n\nA ted kolik je v CR tech front-end odborniku. :-)",
      "parentPostTime": "2010-05-13T12:01:35",
      "parentPostId": "50092184"
    },
    {
      "threadId": "81940496",
      "post": "Ahoj, nejčastěji Blueprint CSS s nějakými úpravami. Ovšem výlučně jen jeho typografické vlastnosti. Zde na VD jsem vyzkoušel Baseline. Jsem s ním spokojený stejně jako s Blueprintem. Tedy: Není to až tak ono, ale je to výrazně efektivnější než vymýšlet vlastní řešení.",
      "time": "2010-04-04T19:36:37",
      "id": "43191797"
    },
    {
      "threadId": "69873312",
      "post": "@Jan Sládek:\n\t\n<em>Překvapuje mne ale, že nikde nemáš poznámky k tomu, kde v CSS popisuješ kterou část html kódu a jak jsi pojmenoval nejdůležitější prvky na stránce</em>\n\nNevím, jestli rozumím správně, ale pro vazbu mezi CSS a šablonou stránky, ze které chci vyjít spoléhám na Firebug podobně jako píše Keff. Asi bych potřeboval nějaký příklad.\n\n@Ondra Válka:\n\nDíky, že jsi taky vyšel s kůži na trh. .-) Osobně bych měl problém s orientací u písem a barev, protože ty je jen vyjmenováváš. Lepší by bylo přiřadit jim nějakou \"přezdívku\", která usnadní výběr vhodné sady pro nový prvek. Třeba u těch sad písem by se hodilo vědět, která jsou pro běžné texty, která titulková atd. atd.\nSoubor je jinak skvěle komentovaný. Delší dobu zvažuji, zda také nedělat \"table of contents\", zatím mě to přišlo jako zbytečná úředničina (pokud ti to negeneruje nějaký automat, pak by mě to velmi zajímalo), ale je to zase potřeba asi vyzkoušet.\n\n<strong>\"Z-index index\"</strong> byl vlastně první důvod, proč jsem vytvářel manuál. Konkrétně na webu jako je Hipposdesign je tolik absolutně pozicovaných prvků, že bylo nutné si takovým způsobem ujasnit jednotlivé \"letové hladiny\" pro skupiny těch prvků. Na spoustě jiných webů je něco takového ale mrháním času.\n",
      "time": "2010-02-25T08:32:03",
      "id": "36407261"
    },
    {
      "threadId": "67767876",
      "post": "@msgre: To jsi mi měl ale říct až po narození třetího!",
      "time": "2010-02-17T22:24:17",
      "id": "34955422"
    },
    {
      "threadId": "61371279",
      "post": "Chytré, chytré. \r\nTam, kde už žádný hack nefunguje, přichází Pán Hacků, Flash. .-)\r\nOno to bude zase závislé na rychlosti flashe, ale může se hodit. \r\nDíky za odkaz!",
      "time": "2010-02-08T20:53:23",
      "id": "33116626"
    },
    {
      "threadId": "61719092",
      "post": "<strong>K in-page úpravám obsahu...</strong><br />   \r\nZda je in-page správa efektivní nebo ne rozhoduje úhel pohledu. Když vidím jak rychle si netechničtí lidé osvojují Webnode, něco na tom určitě bude. Pohled nás geeků je zkreslený. Máme jiný práh bolesti. :-) Některé úkoly se samozřejmě budou plnit lépe jinak než pomocí in-page, není to samospása.\r\n\r\n<strong>K \"nedostatečné modularitě\" web-CMS...</strong><br /> \r\nTo je samozřejmě pravda - nebo to tak alespoň vypadá u zmiňovaných web-CMS. Je nicméně jasné, že i to jednou některý z nich nabídne. Není jediný důvod proč by funkci, kterou máte v ProfiCMS nebo v Cloudii, nemohl napsat někdo ve web-CMS. Třeba jako plugin. Zase analogie s Drupalem -- kdysi jsem v něm narazil právě na nemožnost vkládání vlastních struktur obsahu, pak vznikl plugin a dneska je to myslím součást základní instalace. \r\n\r\nUrčitě i do budoucna zůstane prostor pro instalované redakční systémy a snad trochu i pro systémy vytvářené na mírů od píky. Nicméně technické možnosti, aby webové CMS uměly totéž co CMS nabízené jako jednotlivé instalace, dnes jsou. Webové CMS mají tu výhodu, že klient nemusí potřebovat jako mezikrok webové studio. ",
      "time": "2010-01-27T14:59:15",
      "id": "31521217"
    },
    {
      "threadId": "52631408",
      "post": "@Ondřej Slamecka:\r\n\r\n<blockquote>\r\n..může být dobré dát boxu třídu \"modry-box-vlevo-dole\" a id \"userInfo\"..\r\n</blockquote>\r\n\r\nV prvé řádě není myslím dobré hledat nějaké obecně platné recepty. Jediné obecné pravidlo, kterým se řídím je: \"Pokud je to možné a prospěšné, vždy primárně označuj prvek podle jeho obsahu.\". \r\n\r\nDublování popisu \"podle obsahu\" a zároveň \"podle vzhledu\" bude znamenat zejména sníženou schopnost správce udržet takový kód v hlavě.",
      "time": "2009-12-20T17:32:29",
      "id": "26735939"
    },
    {
      "threadId": "50757950",
      "post": "@VfB Zkoušel jste uvedený IE příklad (http://www.jsworkshop.com/dhtml/list19-1.html) nebo jen tak střílíte od pasu? \r\n\r\nIE zvládá vlastní fonty už od <a href=\"http://www.jakpsatweb.cz/css/css-eot-weft-font.html\">verze 4</a> prosím a uvedený příklad tiskne ve verzích 7+8 skvěle. Používá však vlastní technologii a tu OpenType.info demostránku nezobrazí.",
      "time": "2009-12-14T07:54:10",
      "id": "25697273"
    },
    {
      "threadId": "50839253",
      "post": "@v6ak Aptanu lze nainstalovat i jako plugin pro webové vývojáře nad Eclipse. Mám pocit, že Aptana nějak z Eclipse vychází i ve verzi standalone, ale neumím najít žádné jednoznačné informace v tomhle směru. \r\n\r\nJakoby všechny informace kolem Aptany zastřela z komixového Aloise Nebela. :-) Viz třeba pompézní About us -- http://www.aptana.com/about",
      "time": "2009-12-11T14:57:24",
      "id": "25515962"
    },
    {
      "threadId": "49832382",
      "post": "@Jan: \"Načtrhnutí\" přímo v Ruby je čistě programátorská úchylka. :-) Mám spíše \"klikací\" nebo chceš-li vizuální uvažování o datech a jejich správě v rámci webu. Myslím, že jsem zástupce skupiny, která chce v Railsech weby dělat, ale neumí uvažovat rovnou v kódu a vadí ji určitá upachtěnost pokud jde konkrétně například o výrobu redakčního systému. Díky za komentář i přání! \r\n",
      "time": "2009-12-11T14:49:06",
      "id": "25515496"
    },
    {
      "threadId": "17170442",
      "post": "@botafogo Bohužel zatím jsme neměl příležitost na pořádnou dokumentaci, ale pokud trochu vidíte do JS, můžete řešení vysledovat třeba tady: http://www.areat.cz/products/prodej-zdeneho-bytu-2-1-ceske-budejovice-/\r\n\r\nPrincip tkví v tom, že si HTML stránky kód upravím podle požadavků FancyBoxu javascriptem hned po načtení stránky.\r\n\r\nVidět je to v tomhle JS souboru: http://www.areat.cz/js/jquery-index.js pod nadpisem \"Fotogalerie\" kde je řešení i poctivě komentováno. :-)\r\n\r\n",
      "time": "2009-12-09T21:21:09",
      "id": "25327805"
    },
    {
      "threadId": "47990294",
      "post": "Jasně, že jsou úkoly propojené s Gmailem. Vidím je v anglické verzi v klasickém tématu vzhledu jako \"Tasks\" pod levou navigací.<br><br>\"Add to task\" pak dělá z mailu úkol, čímž plní funkci hrnce na zadek. :-)<br><br>GTDinbox jsem zrovna včera definitivně odinstaloval a nechci s ním nic mít. Myšlenku nelze neocenit, ale realizace mi připadala strašidelná. Z už tak složitého rozhraní Gmailu vytváří něco jako ovládací panel Temelína, čímž jde myslím zcela proti filozofii GTD nebo Inbox Zero. Co jiného rozhoduje o naší efektivitě když ne UI nejčastěji používaných aplikací?",
      "time": "2009-11-25T22:49:09",
      "id": "24097757"
    },
    {
      "threadId": "47519659",
      "post": "Ondro, díky za odkaz. Jako obvykle je to tristní čtení s dovětky typu \"All major browsers, except our usual suspect, Internet Explorer, support...\". Snad se dožijeme v praxi pomáhajícího agilního přístupu Microsoftu.\r\n\r\nČlánek neměl ani tak ukazovat \"jak něco jde\", důraz zde jako obvykle kladu na čitelnost a spravovatelnost kódu, kterou .first třída zlepšuje. Z technického pohledu je zmíněný postup nový asi jako Amerika. :-) \r\n\r\n.first-child jako předvoj :first-child je dobrý nápad!",
      "time": "2009-11-23T22:33:59",
      "id": "23906444"
    },
    {
      "threadId": "46353167",
      "post": "DISQUS Comment System integrates with sites via a JavaScript embed. This page is for developers; if you would like to install DISQUS Comment System, please visit http://disqus.com/start",
      "time": "2009-11-18T10:48:51",
      "id": "23445282"
    },
    {
      "threadId": "39718789",
      "post": "@Jan Sládek: Hlavně s přednáškou nestresuj, znám takové co ještě pořádně nezačali. :-)\r\n\r\nNapíšu na Twitter, jestli můžeš sobotního odpoledne litovat.",
      "time": "2009-10-15T08:04:29",
      "id": "20107489"
    },
    {
      "threadId": "35312168",
      "post": "Díky.",
      "time": "2009-09-21T14:04:06",
      "id": "17035256",
      "parentPost": "Správný link na EoT: http://www.stormtype.com/typefaces-fonts-shop/books-12-eseje-o-typografii",
      "parentPostTime": "2009-09-21T12:56:33",
      "parentPostId": "17032959"
    },
    {
      "threadId": "14802194",
      "post": "@Mijk:\r\n\r\nDíky za doplnění. Hovery ke dnešku už opravdu takto fungují. \r\n\r\nKopírování textu funguje v MSIE, nikoliv už ve Firefoxu. V Safari se text sice označí, ale nelze jej zkopírovat. Nějaký pokrok se zde nicméně děje.\r\n\r\n",
      "time": "2009-09-21T07:36:38",
      "id": "17027717",
      "parentPost": "Btw článek je starší, Cufón je čím dál tím více použitelný a hodně se toho změnilo...\r\n\r\nCufón již totiž umožňuje bez problémů kopírovat obsah i hover efekty :)\r\n\r\n<strong>Hovery:</strong>\r\n<code>Cufon.replace('h1', { hover: true, fontFamily: 'Nazev_fontu' });</code>\r\n\r\n...a kopírování fungovalo vždycky, text je totiž na stránce normálně k dispozici pro ty s vypnutým javascriptem, jen musí člověk \"označovat\" i mimo text (tedy v původních pozicích fontů před nahrazením Cufónem).\r\n\r\n\r\n",
      "parentPostTime": "2009-09-19T11:09:11",
      "parentPostId": "16917227"
    },
    {
      "threadId": "29521281",
      "post": "Ano, i v YUI se velikost písma dá vypočítat stejně snadno. Post je důsledek osobního prozření, když jsem chvíli zbytečně googloval jakousi bájnou tabulku převodů mezi px a em pro Blueprint, kterou jsem měl mylně zafixovanou v paměti. \r\n\r\nOdkaz na tabulku v YUI tedy není výrazem pohrdání konkurenčním frameworkem, ale ukázkou něčeho co čtenáři ani já už nemusíme hledat. :-)\r\n\r\nDíky za tip s 10px základem, hned to vyzkouším.",
      "time": "2009-08-14T07:08:38",
      "id": "14824424",
      "parentPost": "Promiň, ale teď opravdu trochu přeháníš :-). Velikost písma v YUI si spočteš úplně stejně snadno, akorát základ je není 12 ale 13 px. Jestli používat tabulky nebo kalkulačku je věcí výběru. Pokud chce člověk snadno počítat z hlavy, doporučuji základ změnit na 10px (16px*62,5%) a pak jen pracuješ jen se změnou řádu.",
      "parentPostTime": "2009-08-13T21:21:12",
      "parentPostId": "14805773"
    },
    {
      "threadId": "26452748",
      "post": "<p>@karf: Díky za komentář. S podporou @font-face jsme myslím úplně na začátku a nelze se divit, že renderovací problémy jsou na tak triviální úrovni.\r\n\r\n<p>Zatím to vypadá, že podpora @font-face v prohlížeči bude potřebná i pro Typekit, což je trošku zklamání, protože bude trvat měsíce než renderování v prohlížečích bude na potřebné úrovni. Typekit zdá se své síly soustředí především na dohodu s písmolijnami a zabezpečení jejich autorských práv. To je samozřejmě také dobře.\r\n\r\n",
      "time": "2009-07-22T11:20:43",
      "id": "13103196",
      "parentPost": "V tom vyhlazování vidím docela problém (http://www.karf.cz/webfonts-spasa-pro-typografii-na-webu/). Kromě toho jsou s renderováním webfontů i jiné problémy. Např. Firefox usekává vršky a spodky některých písmen, Opera zas zdá se neumí \"partials\" na kterých tyhle Typekity apod. většinou stojí.",
      "parentPostTime": "2009-07-22T08:20:22",
      "parentPostId": "13101049"
    },
    {
      "threadId": "25844301",
      "post": "@karf Dobrý podnět, díky. O tom jsem nevěděl. \r\n\r\nKdyby někdo byl podobně mimo jako autor, přikládám citaci z <a href=\"http://developer.yahoo.net/blog/archives/2007/07/high_performanc_6.html\">Yahoo Developer Blogu</a>:\r\n\r\n<blockquote>\r\nThe problem with expressions is that they are evaluated more frequently than most people expect. Not only are they evaluated when the page is rendered and resized, but also when the page is scrolled and even when the user moves the mouse over the page. Adding a counter to the CSS expression allows us to keep track of when and how often a CSS expression is evaluated. Moving the mouse around the page can easily generate more than 10,000 evaluations.\r\n\r\nOne way to reduce the number of times your CSS expression is evaluated is to use one-time expressions, where the first time the expression is evaluated it sets the style property to an explicit value, which replaces the CSS expression. If the style property must be set dynamically throughout the life of the page, using event handlers instead of CSS expressions is an alternative approach. If you must use CSS expressions, remember that they may be evaluated thousands of times and could affect the performance of your page.\r\n</blockquote>",
      "time": "2009-07-17T12:07:51",
      "id": "12808104",
      "parentPost": "Tohleto jsem používal kdysi, než jsem přišel na to, že expressions mohou být naprosto hrůzostrašné z hlediska výkonu. Doporučuju se jim velkým obloukem vyhnout a raději to implementovat v normálním javascriptu. ",
      "parentPostTime": "2009-07-17T11:09:44",
      "parentPostId": "12807058"
    },
    {
      "threadId": "19637606",
      "post": "> Třetina opsaného výsledku.\r\n\r\nCo tím myslíte, pane profesore ra.ri.to? :-)\r\n\r\nMůžete můj postup vylepšit nějakým vkladem nebo ukázkami kódu?\r\n\r\nMožná je to upozornění \"pro neprogramátory od neprogramátora\" málo jasné. Chci jím říci: \"Neprohlašuji se za programátora, ale potřeboval jsem sám tuhle věc vyřešit a žádný návod slovutného vývojáře není nalezitelný. Proto dávám k dispozici tento svůj nedokonalý postup a budu velmi rád, když jej v komentářích nebo na svém blogu vylepšíte.\"",
      "time": "2009-07-11T12:11:30",
      "id": "12500134"
    },
    {
      "threadId": "24576486",
      "post": "@veena: I univerzální CSS frameworky samozřejmě vznikají nové, většinou je to vaření ze stejných surovin jako první Blueprint CSS (reset, typoška, případně layout, trochu vzhledu nebo tisk). ",
      "time": "2009-07-08T12:21:44",
      "id": "12307957"
    },
    {
      "threadId": "16913290",
      "post": "\"Vložte\" je lepší. Dík.",
      "time": "2009-05-18T09:41:47",
      "id": "9488571",
      "parentPost": "Super! Jen bych možná místo \"Napište komentář\" na tlačítko dal přesnější \"Vložte komentář\".\r\n\r\n\r\n",
      "parentPostTime": "2009-05-17T09:33:43",
      "parentPostId": "9468082"
    },
    {
      "threadId": "17354422",
      "post": "Ujmeš se ho? :) Je to spíš myslím ideální pro začínající mladé a dravé české Rails - živnostníky. :)",
      "time": "2009-05-18T09:39:22",
      "id": "9488557"
    },
    {
      "threadId": "13808708",
      "post": "Dušane, budu se opakovat -- zkus Tumblr. Je to EasyBlog 21. století ;-)",
      "time": "2009-03-28T13:15:41",
      "id": "7582905"
    },
    {
      "threadId": "13032865",
      "post": "Nebude. Pokud procenta, pak pro jistotu dávám -1000%.\r\n\r\nUdělal jsem na něj raději testcase: http://www.vzhurudolu.cz/test/input_hidden_text.html",
      "time": "2009-03-21T11:48:44",
      "id": "7396934",
      "parentPost": "Nebude lepší použít -100%?",
      "parentPostTime": "2009-03-19T05:49:13",
      "parentPostId": "7336126"
    },
    {
      "threadId": "13482021",
      "post": "Díky za komentář. Jasně - asi to bude jeden z důvodu, proč tak autoři klientů činí. Nemělo by je to však omlouvat .-)",
      "time": "2009-03-18T14:57:52",
      "id": "7315504",
      "parentPost": "background-image může být pro externí zdroje zakázán z bezpečnostních důvodů. Umožnilo by to poslat potvrzení o přečtení bez souhlasu a vědomí uživatele.",
      "parentPostTime": "2009-03-18T13:37:16",
      "parentPostId": "7313754"
    },
    {
      "threadId": "13250367",
      "post": "Martine, díky za  komentář a link. Stránka je ve striktním HTML 4.01, takže podle tvého spotu by se měl webkit/chrome chovat magicky a <body> roztáhnout.\r\n\r\nO \"bugu\" píšu, protože Chrome po načtení stránky pozadí zobrazí jen do výšky <body>, ovšem toto se po reloadu nebo změně velikosti okna napraví. Můžeš to ostatně vyzkoušet na http://www.palacakropolis.cz/. Fix zatím není na produkci.",
      "time": "2009-03-09T09:38:52",
      "id": "7010442",
      "parentPost": "Zajímalo by mě, zda souvisí s dnes běžným (a standardizováním) magickým chováním elementu body. Protože ten symptom na to odpovídá, otázka je, proč by to jednou prohlížeče řešil tak, po druhé onak. http://html456.blogspot.com/2007/05/magicke-telo.html",
      "parentPostTime": "2009-03-09T06:53:14",
      "parentPostId": "7009448"
    },
    {
      "threadId": "10204608",
      "post": "Unfuddle více odpovídá \"vývojářskému pohledu\" na vývoj aplikací.\n\nJsou tam nějaké zprávy pro komunikaci, tickety pro úkoly, wiki pro dokumentaci. Prostě obdoba Tracu. Má ale navíc repozitáře a jejich prohlížení a správu (jak SVN tak GIT). Ty pak docela dobře propojuje se zbytkem. Třeba umí automaticky změnit stav ticketu podle zprávy v commitu. \n\nTo tedy není nic světoborného. Unfuddle má ale moje sympatie tím, že toho umí docela dost docela dobrým způsobem za docela dobrou cenu :)\n\nBasecamp je mnohem obecněji zaměřený. Do Basecampu se nebojím dát přístupy komunikoliv. Unffudle GUI i procesy jsou od technokratů pro technokraty. Normální lidi s ním budou mít dost problém :)\n\nNo vidíš, tak už nemusím psát to srovnání jako post na Krátce jak jsem chtěl :-) Díky :-)",
      "time": "2009-02-22T19:06:07",
      "id": "6483428",
      "parentPost": "Martine, v čem je Unfuddle jiné než Basecamp?",
      "parentPostTime": "2009-02-22T13:58:51",
      "parentPostId": "6479669"
    },
    {
      "threadId": "11708243",
      "post": "Merge  začneš s Gitem využívat. My aktuálně na Pražském jaru máme skoro furt 3-5 větví a to pracujeme jen ve dvou lidech. Už jen jako kodér (kde toho kódu ke správě je řádově méně) jsem si na to hrozně zvykl a umím si představit jaké prozření to pak je pro programátora. \n\nZkus to někdy :) Git ti naimportuje i existující SVN repozitář - to je třetí plus.",
      "time": "2009-02-13T20:13:47",
      "id": "6246445",
      "parentPost": "Je pravda, ze merge v SVN boli (pokazde se musim divat do poznamek: http://kosti.zebry.cz/2008/06/23/roubovani-svn-merge/). Na druhou stranu, merge prilis casto nedelam (vystacim si s prikazy commit, update, status a nekdy diff a resolve).\r\n\r\nA lokalni repo bych asi taky nekdy vyuzil (kdyz se dela treba vetsi zmena, casto si to rozbiju na mensi ukony a ty bych postupne posilal do lokalniho repozitare; teprve hotovou, kompletni zmenu bych poslal do \"venkovniho\" repozitare a z nej updatnul zivou apliklaci na serveru).\r\n\r\nNicmene zvyk je zelezna kosile, porad mi to nepripada jako duvod prepnout se na jiny verzovni system...",
      "parentPostTime": "2009-02-13T19:05:52",
      "parentPostId": "6244997"
    },
    {
      "threadId": "10199637",
      "post": "Honzo, díky - tohle je od WP super krok.\r\n\r\nPřinutil jsi mě dát na Flickr dva screenshoty aktuálního rozhraní Tumbleru, aby bylo vidět, že je ještě o krok dál :)\r\n\r\nTumblr se tě nejdřív zeptá, jaký typ obsahu chceš vložit (http://www.flickr.com/photos/machal/3218016220/) a pak na tebe vybalí jeden z podobně jednoduchoučkých formulářů (http://www.flickr.com/photos/machal/3217163707/in/photostream/).",
      "time": "2009-01-22T14:37:34",
      "id": "5462186"
    },
    {
      "threadId": "10205472",
      "post": "Martine, Tumbler je kombinací Delicious a jakéhosi Twitteru s velkou textareou. Z prvního si bere dobrou kategorizaci informací a z druhého snadnost publikování. Můžu vážně doporučit.",
      "time": "2009-01-20T10:00:55",
      "id": "5387959",
      "parentPost": "Říkal jsem si, že by se mi hodilo něco jako delicious bez URL. :-) Možná to zkusím s Tumblrem",
      "parentPostTime": "2009-01-19T23:27:45",
      "parentPostId": "5376935"
    }
  ],
  "profileInfo": {
    "username": "machal",
    "about": "80% webdesigner, 20% web entrepreneur. Shortcat boy.",
    "name": "Martin Michálek",
    "disable3rdPartyTrackers": false,
    "isPowerContributor": false,
    "isAnonymous": false,
    "rep": 1.346512,
    "profileUrl": "https://disqus.com/by/machal/",
    "url": "http://www.vzhurudolu.cz",
    "reputation": 1.346512,
    "location": "Prague",
    "isPrivate": false,
    "signedUrl": "http://disq.us/?url=http%3A%2F%2Fwww.vzhurudolu.cz&key=tXKu3FEw5yu20bhTGTZz0w",
    "isPrimary": true,
    "joinedAt": "2009-01-07T16:22:22",
    "id": "182530",
    "avatar": {
      "small": {
        "permalink": "https://disqus.com/api/users/avatars/machal.jpg",
        "cache": "//a.disquscdn.com/uploads/users/18/2530/avatar32.jpg?1281549414"
      },
      "isCustom": true,
      "permalink": "https://disqus.com/api/users/avatars/machal.jpg",
      "cache": "//a.disquscdn.com/uploads/users/18/2530/avatar92.jpg?1281549414",
      "large": {
        "permalink": "https://disqus.com/api/users/avatars/machal.jpg",
        "cache": "//a.disquscdn.com/uploads/users/18/2530/avatar92.jpg?1281549414"
      }
    }
  }
}