{
  "comments": [
    {
      "threadId": "4942297494",
      "post": "Great article. Additionally it's worth pointing out that by automating tracking at business, team and individual level can really help reduce the \"reporting overhead\" that tracking incurs. I've seen lots of half hearted leaderboards that were only ever published once. Getting set up so your tracking is daily / weekly / monthly and automated can really make this advice work.",
      "time": "2016-06-28T11:04:25",
      "id": "2754624973"
    },
    {
      "threadId": "4900006739",
      "post": "A key strategy is to grade content by channel. For example, publishers should create heavier content experiences on their own properties and use social media for lighter content where it spreads faster. In return, heavier content is more valuable to the end consumer so has higher dwell time and hence more monetization opportunities. The trend towards making previously heavy content (articles) native (AMP, IA etc) is moving heavier content onto the social networks. The challenge for publishers is to produce content that is heavier still (e.g. downloads, in depth data journalism visualisations such as leaderboards and so on) so still drawing readers back to their own monetised sites.",
      "time": "2016-06-10T16:14:17",
      "id": "2723582137"
    },
    {
      "threadId": "4784865988",
      "post": "I think this is a more significant strategic change than simply wanting to be on a different app ranking leaderboard. Classifying Twitter as a news app opens the way for Twitter to become the primary source of public news. Its an interesting idea and given their a. technical similarity with news wires and b. huge saturation among media professionals - I think it has legs. News organisations watch out, Twitter is heading for you.",
      "time": "2016-04-29T09:10:51",
      "id": "2648840191"
    },
    {
      "threadId": "4744686672",
      "post": "Do you think with the advent of infinitely scrolling newsfeeds of people you know on Facebook and other social media, people have less time and interest for wider news coverage?",
      "time": "2016-04-14T08:31:50",
      "id": "2622954879"
    },
    {
      "threadId": "4728466730",
      "post": "The advice about not crossing streams into platform is crucial and goes beyond in-house considerations. \n\nMedia companies should  not be building tech platforms unless they plan to sell them on to other companies. The maintenance costs of a platform built for one (internal) customer only very rarely is less than paying a third party vendor who has more than one customer. Additionally, selling tech solutions is a different competency that media firms would need to learn, and it's not easy.\n\nInstead, media firms should use white label / co-label news app platforms (e.g. boxagon for boxes of items, Rise.global for top 100 influencer lists [disclosure: my company], list.ly for listicles, hiyalife for timelines and so on) and request custom skins for their brand. \n\nThis is what the savvy, nimble publishers like City AM do and it saves time, money and a lot of technical heartache. \n\nKeep your publishing company focused on relevant content and leave the agony of maintaining tech platforms to us (foolhardy) tech entrepreneurs! :)",
      "time": "2016-04-08T08:31:25",
      "id": "2612600934"
    },
    {
      "threadId": "4722278479",
      "post": "Excellent, clear article, thank you. Thanks for taking the time to share the real numbers, it makes it that much easier to make comparisons with our own stats.",
      "time": "2016-04-08T08:16:28",
      "id": "2612589093"
    },
    {
      "threadId": "4711381848",
      "post": "I agree with this - sales people need to take responsibility for client metrics. I call this Customer Success Tracking - See https://www.linkedin.com/pulse/what-customer-success-tracking-toby-beresford for more",
      "time": "2016-04-06T17:12:57",
      "id": "2609624464"
    },
    {
      "threadId": "4681102832",
      "post": "Great idea. I can see them adding features in the future like a \"my blood is up\" button where you can delay your comment posting for a day in case a cooler head makes a better comment. Or even a \"moderate me\" button where others can rephrase what you are trying to say into something more moderate and accessible, maybe for a fee. Perhaps a whole industry can arise of outsourced comment moderators who help us be more civil, articulate and ultimately more convincing online!",
      "time": "2016-03-22T14:55:57",
      "id": "2583178922"
    },
    {
      "threadId": "4665264013",
      "post": "I really like this, thanks guys. As someone who consistently chases \"shiny new things\" when thinking about product steps, the RICE scoring system looks like something we can benefit from.",
      "time": "2016-03-17T09:31:01",
      "id": "2574340419"
    },
    {
      "threadId": "4628501025",
      "post": "Isn't it interesting that comparative analytics is a competitive differentiator of big platforms such as Facebook et al.",
      "time": "2016-03-03T09:20:13",
      "id": "2548967462"
    },
    {
      "threadId": "4628128662",
      "post": "I think the idea of being in the audience business is a great point but there's still a difference in my mind as a consumer between serious media such as a newspaper (which may have entertaining subsections) and entertainment media such as a console (which may have a news subsection). The key point though is that these previously discrete worlds have collided into a continuum on digital.",
      "time": "2016-03-03T09:14:01",
      "id": "2548962928"
    },
    {
      "threadId": "4628068880",
      "post": "I think like-for-like analytics is a false hope -  comparing analytics across traditional media is fruitless (is a TV viewer the same as a Newspaper reader?) so why try and do it across new media",
      "time": "2016-03-03T08:49:10",
      "id": "2548945475"
    },
    {
      "threadId": "4625938527",
      "post": "Love these videos - especially the Jeb Bush height one - portrait is actually better for portraits of people...who knew.",
      "time": "2016-03-02T10:38:28",
      "id": "2547083101"
    },
    {
      "threadId": "4625249989",
      "post": "Great to see who the rising stars are",
      "time": "2016-03-01T17:28:42",
      "id": "2545750764"
    },
    {
      "threadId": "4622226059",
      "post": "I think savvy publishers should be on the look out for revenue that is either eroding or accreting. Waiting for seismic shifts to be visible is often too late - hence your sense that \"disruption follows disruption faster than ever before\"",
      "time": "2016-03-01T11:09:38",
      "id": "2545119431"
    },
    {
      "threadId": "4607963800",
      "post": "Beutner is right. The digital media business is entirely about focus.",
      "time": "2016-02-25T09:35:37",
      "id": "2534315138"
    },
    {
      "threadId": "4608339807",
      "post": "Does Instagram even have enough demographic data to be able to make the ads relevant? I suppose they could trawl hashtags I've used to build up a picture of what I'm into?",
      "time": "2016-02-25T09:24:44",
      "id": "2534306673"
    },
    {
      "threadId": "4605559270",
      "post": "Exactly. I see the pattern repeated beyond CMSs to all these data journalism news apps.",
      "time": "2016-02-25T09:22:21",
      "id": "2534304798",
      "parentPost": "In the print days, we never built our own printing presses, delivery vans or layout software. And yet we think we need to custom-build CMSes. Madness.",
      "parentPostTime": "2016-02-24T19:30:06",
      "parentPostId": "2533199292"
    },
    {
      "threadId": "4608875822",
      "post": "I think you either sell technology or you sell content. The attempts to do both still seem falter whether coming at it from a tech company angle or a publisher angle.",
      "time": "2016-02-25T09:19:23",
      "id": "2534302520"
    },
    {
      "threadId": "4589711823",
      "post": "Great to hear. I think \"partner only\" APIs by large social networks is a monopolistic practice.",
      "time": "2016-02-22T15:31:40",
      "id": "2528421108"
    },
    {
      "threadId": "4046494797",
      "post": "Ken,\nI agree you can't import digital DNA but I believe you can digitally transform your media organisation. I recently recommended a 3 point digital strategy for a broadcaster:\n\n1. shift away from a \"format led\" org structure to \"audience led\". If that means having a snapchat dedicated employee for each channel then so be it.\n\n2. upskill everyone - a gamified digital learning and development program  to drive adoption of a digital culture in everyone from finance to operations.\n\n3. metrics everywhere - using the GERM viral metrics model to bring metrics conversations (and the experiment / validate mindset that goes with attention to metrics) to every employee and channel owner.",
      "time": "2016-02-22T15:28:34",
      "id": "2528416063"
    },
    {
      "threadId": "4587718449",
      "post": "Is Adam Smith a pseudonym or is that his actual name?",
      "time": "2016-02-19T11:17:53",
      "id": "2523010897"
    },
    {
      "threadId": "4590770642",
      "post": "Agree that looking at visits alone is a bit of a vanity metric. If the bounce rate is high then you have a problem - no engagement and no reliable reach.",
      "time": "2016-02-19T11:08:58",
      "id": "2523002829"
    },
    {
      "threadId": "1478343430",
      "post": "I love this but it's impossible to read the comments - please can you change your Disqus theme settings?",
      "time": "2016-02-15T17:21:17",
      "id": "2514937743"
    },
    {
      "threadId": "4570982174",
      "post": "I think there's still a lot to be said for letting customers decide how often they want to be notified, twice daily, daily, weekly etc. Use news alerts when you actually have context you can use \"there's a big storm coming your way in an hour...\"",
      "time": "2016-02-12T09:32:32",
      "id": "2509589820"
    },
    {
      "threadId": "4570942575",
      "post": "Perhaps the reporter could act more like a virtual tour guide.",
      "time": "2016-02-12T09:18:15",
      "id": "2509579621"
    },
    {
      "threadId": "4567788821",
      "post": "I think your headline might be a little inaccurate. Bits remains a standalone channel as that they are keeping the email newsletter: http://www.nytimes.com/newsletters/bits \nThe story  here is that they are closing \"blogging\" and RSS feed readers etc as a viable distribution medium.",
      "time": "2016-02-11T11:53:33",
      "id": "2507879766"
    },
    {
      "threadId": "4565623359",
      "post": "I think quarterly formal feedback needs to be coupled with effective personal activity tracking - social media does this for us, almost too well (i.e. you know how many likes a post got on Facebook). Digital newsrooms need to provide personal dashboards for each employee so they can see the effect of their activity on the business metrics as well (number of ad views on their posts for example). Otherwise the danger is that staff will optimise toward the most visible, well reported metrics, not necessarily the ones that the business wants optimised.",
      "time": "2016-02-11T11:22:57",
      "id": "2507852063"
    },
    {
      "threadId": "4521030320",
      "post": "I like the idea of \"referral marketing\" - is there a good primer you can point me to?",
      "time": "2016-02-10T10:44:16",
      "id": "2505848057",
      "parentPost": "This article shows that some of the oldest weapons in a marketers armory, like direct mail, are still sharp enough to cut through any ad-blocker. \n\nBut while ad-blocking is getting all the headlines don't forget the other challenges like ever declining email open rates, the rise of ‘dark social’, paywalls on social networks reducing organic social to near zero, the trend towards delayed TV watching, Google’s continued assaults on the whole concept of SEO, banner blindness, ever rising paid search and  affiliate which all, individually and combined, make it harder than ever to get marketing messages in front of a target audience.\n\nFor those who just can’t see beyond ‘interruption advertising’, the knee-jerk response is simply to shift ad spending to other media more impervious to ad blocking like pre-rolls on You-Tube and Facebook video and mobile newsfeed ads, paid product placement in TV and cinema, and advertorials that increasingly blur the distinction between editorial and ads. \n\nBut we would argue, quoting Steve Ruble of Edelman who said 'the first solution to ad blocking is to double down on earned media', that one of the best solutions is ‘positive word of mouth’ where your best customers tell their friends and colleagues just how great your product or service is.\n\nBecause when your customer sends a communication to their friend or colleague, it is significantly more likely to be opened and read than any communication sent by your brand. And given that Forrester Research found over 70% of consumers trust brand recommendations from friends, but only 10% trust advertising, this gives you an idea of just how powerful this combination is. \n\nSo in other words, good old fashioned marketing is the best solution to ad-blocking and all these other problems.\n\n\n\n\nIf you are still addicted to interruption advertising, you can try the other solutions I mentioned above – but an altogether better solution lies in referral marketing.",
      "parentPostTime": "2016-02-02T10:18:16",
      "parentPostId": "2491458019"
    },
    {
      "threadId": "4565291226",
      "post": "Was it just me or do they not give you enough time to click on the video. Each time I thought - hmm ok I'll click on those shoes and find out about them the frame moved on and I found myself clicking on something else entirely. Like the idea though.",
      "time": "2016-02-10T10:30:20",
      "id": "2505837115"
    },
    {
      "threadId": "4562340157",
      "post": "Great article. Creating dashboards is also worth doing on a personal level to drive digital cultural change right at the level of the employee.",
      "time": "2016-02-09T13:12:04",
      "id": "2504185979"
    },
    {
      "threadId": "4562770899",
      "post": "I think you're right. However some platforms do share revenue with content publishers - such as the 100-70% in the case of app stores or the (pitiful) share of ad revenue that YouTube offers.",
      "time": "2016-02-09T13:03:17",
      "id": "2504176711",
      "parentPost": "There is simply no such thing as 'platform publishing'.  This is a trendy, non-sustainable concept similar to 'Freemium'.  \n\nDistributing your content on someone else's owned media is either marketing, or advertising, but it is not publishing.  Publishing is when you monetise the inventory that you control, and take fees from advertisers or sponsors that want access to your audience.  The term 'platform publishing' is a fancy way of saying 'content marketing' and we know that costs money, directly or indirectly.  Maybe you can spin it and all it 'audience extension', at best.  But you know that the margins are lower on that line item.",
      "parentPostTime": "2016-02-09T11:17:22",
      "parentPostId": "2504073880"
    },
    {
      "threadId": "4551534393",
      "post": "Thanks really useful. I completely agree about sponsorship being the type of advertising that works to monetise these niche audiences.",
      "time": "2016-02-08T19:40:29",
      "id": "2503015111",
      "parentPost": "I think that depends on the publisher Toby, but in my experience it starts off with single copy sales (most sold direct online) and subscriptions building over time. Advertising seems to be treated as 'the icing on the cake' and more closely resembles sponsorship than display advertising. This makes sense given relatively low numbers of readers, but high levels of engagement in very specific subject areas.",
      "parentPostTime": "2016-02-08T10:02:53",
      "parentPostId": "2502215232"
    },
    {
      "threadId": "4470633726",
      "post": "Chris, \n\nI saw a customer of mine (I'm at http://www.rise.global) use a leaderboard to hyper target a niche community online, gain traction and influence and then launch a print magazine off the back of it. \n\nIt's quite a good technique as it relies on digital first (to find the niche) and builds relationships with the key content owners / potential advertisers. The team in mind is Glass of Bubbly (http://www.glassofbubbly.com) - they created a \"Power 100\" leaderboard of top champagne companies - posted it, tweeting out ranks to all 100 and then saw a 500% spike in traffic to the site overnight - mostly from the Champagne region of France.\n\nThat lit the fuse for their journey to a niche, B2B print publication which is already at issue 10. \n\nI hope their sparkling success will inspire others!",
      "time": "2016-02-05T10:19:47",
      "id": "2497350025"
    },
    {
      "threadId": "4551945222",
      "post": "Nice article. You shouldn't have to see pornography at work though. \n\nPersonally, I turn on \"Safe Search\" on all my search tools which reduces the nudity quota. I also have a nannywall on the router which does a pretty good job too.",
      "time": "2016-02-05T09:58:25",
      "id": "2497331645"
    },
    {
      "threadId": "4534172834",
      "post": "It's interesting that media platforms offer a spectrum of revenue sharing opportunities - some charge publishers to post content (e.g. Mailchimp, Rise), some charge nothing (e.g. Twitter, Facebook) and also pay nothing, while others charge nothing to post and may even pay you something back (e.g. YouTube).",
      "time": "2016-02-04T10:29:22",
      "id": "2495401171"
    },
    {
      "threadId": "4505165411",
      "post": "Commercial success online also will come from white labelling media tech not by building your own. Too many media companies, like the Guardian, burn cash with expensive in-house engineers. They build before they buy when a savvy approach is the other way round.",
      "time": "2016-02-02T17:31:26",
      "id": "2492275623"
    },
    {
      "threadId": "4486117963",
      "post": "I thought your point 6 was fascinating! Moving towards activities orientated measurement should mean that sales managers look into scoreboard solutions (like Rise.global) that merge multiple metrics (often from more than one system in addition to the CRM - e.g. pipedrive + twitter) into a single score for reps each week.",
      "time": "2016-01-28T16:13:13",
      "id": "2483143808"
    },
    {
      "threadId": "4001998810",
      "post": "I think calling for greater maturity in the use of metrics is spot on. As advertisers mature they will demand more from digital than simply display ads, this will then encourage publishers to choose wiser metrics around engagement and driving behaviour.",
      "time": "2016-01-21T14:50:17",
      "id": "2470000039"
    },
    {
      "threadId": "3467958848",
      "post": "I think the point about digital measurement being easy and offline measurement being hard, but that combining the two is necessary, is important.\n\n\nIn general, mashing up metrics and measures across platforms to create composite indexes, is vital to achieve an accurate overall picture and smooth out any distortions that might be created by any one platform on its own.",
      "time": "2016-01-19T17:58:16",
      "id": "2466692903"
    },
    {
      "threadId": "4209935122",
      "post": "I think newsbots have a place in the digital newsroom. One use case is to act as early warning scouts for topics that are moving up the long tail - from obscure to mainstream. If a bot suddenly gets followers and an engagement spike, that's a sure signal that interest in that topic is on the rise and should be covered by human journalists.",
      "time": "2016-01-14T20:26:10",
      "id": "2458299329"
    },
    {
      "threadId": "4371590757",
      "post": "Great to see the KPIs reported",
      "time": "2015-12-10T14:59:44",
      "id": "2403159993"
    },
    {
      "threadId": "4327502604",
      "post": "Why you are showing compensation and expenses in these tables? Is there some relationship between them that you are trying to convey? What are you trying to say?",
      "time": "2015-11-20T15:53:16",
      "id": "2370151227"
    },
    {
      "threadId": "3797891925",
      "post": "That really is high - I was expecting 4%",
      "time": "2015-10-02T21:02:26",
      "id": "2286754099"
    },
    {
      "threadId": "1616049793",
      "post": "Do you think an omni-channel requirement will necessarily lead to a fragmented tool landscape? Or will we all end up using \"one tool to rule them all\"? I would have said multiple systems is inevitable. In which case what friction will this drive if single sign on isn't possible? Then  companies will need to solve the issues of measurement and reporting across multiple systems.",
      "time": "2015-09-18T11:02:24",
      "id": "2260262937"
    },
    {
      "threadId": "4032024381",
      "post": "I think many companies struggle to provide regular performance feedback that is attuned to the career goals of the employee, and the goals of local and senior management. If an overhaul starts to allow new contracts to be formed that are win win for all then hurray for change!",
      "time": "2015-08-26T20:47:13",
      "id": "2219830890"
    },
    {
      "threadId": "3856315348",
      "post": "Great article. Please can you reproduce that graphic as a poster so we can put it on everyone's office wall!",
      "time": "2015-06-22T13:52:13",
      "id": "2092745304"
    },
    {
      "threadId": "3462691205",
      "post": "Algorithmic accountability is certainly something social networks take seriously. At Rise, www.rise.global, a service which lets you create and share power 100 influencer leaderboards, we allow the publisher to create a ranking algorithm and to make that  transparent to their audience. Indeed on some boards such as the #beautyindex we go further, bringing the players themselves into the discussion via constituted algorithm committees.",
      "time": "2015-01-31T08:28:29",
      "id": "1826954218"
    },
    {
      "threadId": "3265475588",
      "post": "Meshing gamification into existing performance management systems can get confusing as it can cause a conflict with the pre-existing reward framework. \n\n\nInstead, I suggest companies start gamified performance management programs as new complementary, focused, opt-in programs.",
      "time": "2014-12-16T12:11:35",
      "id": "1744817821"
    },
    {
      "threadId": "3202674281",
      "post": "It's mostly based on Engagement Per Mille - how much engagement you get per thousand fans. You get quite a bit of data on this when you click on an MPs name e.g. - https://www.rise.global/performance/dashboard/3561/1112089\nIf you scroll down you can see a section called \"How your score is calculated\" - click on the link to show it.",
      "time": "2014-11-10T18:13:30",
      "id": "1686101476",
      "parentPost": "Anyone know how the Social MPs ranking is made. The methodology used?",
      "parentPostTime": "2014-11-10T17:38:42",
      "parentPostId": "1686030162"
    },
    {
      "threadId": "3165341376",
      "post": "I think automating some aspects of performance management offers scope for innovation",
      "time": "2014-10-31T09:08:11",
      "id": "1662681367"
    },
    {
      "threadId": "2826415264",
      "post": "One great way to get started with gamification is 2 or 3 months before your event - set up and run an 'event ambassadors leaderboard' using Twitter and your Event Hashtag as the way to track activity by everyone you want to promote your event. \n\nThis is a neat way for you to use gamification techniques to build up digital buzz in the weeks running up to your event. My company, Leaderboarded.com, offers an off the shelf lightweight tool for you to run such a program.",
      "time": "2014-07-08T15:25:12",
      "id": "1474569532"
    },
    {
      "threadId": "2775288876",
      "post": "Thanks for sharing this news, really helpful to hear post-mortems on gamification projects that haven't lived up to expectations.\n\n\nIt's a pity you didn't include any screenshots for those of us who didn't see the original to evaluate properly but it sounds like you implemented a poorly designed gamification program. Why would sharing one of your articles make me a 'Marketing Maven'? What is a Marketing Maven and why would I want to be one?\n\n\nCan I ask, who designed your program for you? Was it in-house or did you use a certified gamification expert?",
      "time": "2014-07-07T08:37:37",
      "id": "1471801105"
    },
    {
      "threadId": "2815093805",
      "post": "This is Toby and I love GamFed! What can we do to start making sure the world knows about GamFed? Shall we issue a definition of gamfication? Is it digital only? Is loyalty gamification? Are scout badges gamification?",
      "time": "2014-07-03T15:50:57",
      "id": "1466867784"
    },
    {
      "threadId": "1882687186",
      "post": "Hi Andrzej - great leaderboard! - I'm a little confused though - is this leaderboard comparing publishers in general or community managers specifically? Surely companies like Sega have dedicated community manager social media accounts?",
      "time": "2013-10-29T10:18:22",
      "id": "1100583974"
    },
    {
      "threadId": "1795606165",
      "post": "I think it's also key to note that gamification isn't something you just layer on top of existing experiences - it needs to be built with stakeholder involvement from the bottom up.",
      "time": "2013-09-30T10:46:56",
      "id": "1064339888"
    },
    {
      "threadId": "1308150637",
      "post": "this is an excellent interview. worth watching",
      "time": "2013-09-27T11:21:07",
      "id": "1061098861"
    },
    {
      "threadId": "636695166",
      "post": "have you considered using a tool like leaderboarded.com to track the competition?",
      "time": "2013-09-16T17:05:34",
      "id": "1046860117",
      "parentPost": "My office has been having a competition on who can get the highest Klout score.  I am currently at 59, but started at 56.  (Really want to break in to that 60!)  One thing that I have done is to \"friend\" or connect with people and places before I engage them; so that when I go to that place I can tag them in whatever I am saying or doing.  For example, I went to a soccer game recently and before attending, I followed the reporter from a news station that I heard was going to be covering the game.  While at the game I tweeted and tagged him and the result was he mentioned me in one of his tweets.  Another example is to \"Like\" a restaurant facebook page before going to eat there and then writing a little review.  The online community and small business owners especially really appreciate that and it almost always elicits a response.",
      "parentPostTime": "2013-08-20T22:15:22",
      "parentPostId": "1008642580"
    },
    {
      "threadId": "1747305416",
      "post": "CPG (FMCG) and entertainment brands mainly",
      "time": "2013-09-12T11:01:16",
      "id": "1040080681",
      "parentPost": "Agreed Toby. What type of company have you seen this for in the past?",
      "parentPostTime": "2013-09-12T00:07:48",
      "parentPostId": "1039189205"
    },
    {
      "threadId": "1720447838",
      "post": "I don't think I'd hire a content marketer without a decent Klout score",
      "time": "2013-09-10T16:35:32",
      "id": "1037265171"
    },
    {
      "threadId": "1270353940",
      "post": "Hey Michal - you might like to try creating your own leaderboard which displays how you would like to be leaderboarded on leaderboarded.com\nCHeers\n\nToby",
      "time": "2013-07-19T09:07:11",
      "id": "968472148",
      "parentPost": "Where can I see how many hours I spent by watching videos? Why is it important to be \"leaderboarded\"? Folks, does it really motivate you if you spend some amount of time for learning?\n\nI don't care about this leader board. I spent a lot of time for learning (at least 3 hours for books, 2 hours for videos, 1-2 hours for articles/papers/...). Every day has only 24 hours and I would like to sleep at least 4 hours.\n\nSo I don't wanna say that it's bad idea. It can motivate someone. But what about a leaderboard which will show results of the learning instead of amount of learning?\n\nPlease, don't take following sentences personally:\n\nWhy did they take to huge amount of time for learning? How many courses they saw? Was it only one or also big amount? It can sound that someone is too slow / stupid that he really needs big amount of time in one course ... I want to say that I am missing the context, hours doesn't say anything.\n\nPlease feel free to discuss and share your opinions.",
      "parentPostTime": "2013-07-18T13:21:40",
      "parentPostId": "966878895"
    },
    {
      "threadId": "1507787487",
      "post": "Great stuff Ivan! I am looking forward to some really interesting views from the gamification gurus!",
      "time": "2013-07-18T08:50:04",
      "id": "966710094"
    },
    {
      "threadId": "1430866433",
      "post": "Great let me know if I can help get you started. Check out http://www.exaleague.com",
      "time": "2013-07-08T12:42:56",
      "id": "955181789",
      "parentPost": "Thanks, we were looking at something similar to encourage our SMEs to post content. Will give a try!",
      "parentPostTime": "2013-06-25T16:07:17",
      "parentPostId": "941730701"
    },
    {
      "threadId": "1272687242",
      "post": "Competitions can work in many company cultures, the trick is to ensure that the competition is designed by the managers and team members themselves. This drives ownership and engagement. Using a flexible tool like leaderboarded.com can help enterprise managers create their own competitions that fit local needs.",
      "time": "2013-05-17T08:48:09",
      "id": "900133375"
    },
    {
      "threadId": "1288572433",
      "post": "Well done Mario. \"A rose by any other name is just as sweet.\"",
      "time": "2013-05-16T11:11:09",
      "id": "899081551"
    },
    {
      "threadId": "1018049258",
      "post": "Hey Kursha\n\nGreat post! I'd also recommend www.storify.com as a way of bringing back tweets into a cohesive story after the event and www.leaderboarded.com as a fun way of encouraging delegates to actually use the event hashtag you've decided upon!\n\n\n\nCheers\n\nToby",
      "time": "2013-01-11T10:26:28",
      "id": "763572634"
    },
    {
      "threadId": "919173645",
      "post": "Great post Suds. There are many nuances to leaderboards we still need to learn and put into practice.",
      "time": "2012-11-19T21:24:21",
      "id": "714192894"
    },
    {
      "threadId": "877444487",
      "post": "That's a great post.",
      "time": "2012-10-09T15:13:44",
      "id": "677437351",
      "parentPost": "I address that possibility in this post: http://www.businessesgrow.com/2012/04/23/using-klout-and-social-scoring-for-sales-and-marketing-teams/",
      "parentPostTime": "2012-10-09T12:46:31",
      "parentPostId": "677325786"
    },
    {
      "threadId": "660368304",
      "post": "This is excellent thought leadership. I think software companies who have staff with deep expertise learned this lesson a long time ago. The 'hero' bloggers - think Christian Heilmann at Yahoo, or perhaps Scoble at Microsoft, can  often garner bigger audiences than the company blog, which is all too often anodyne and lacking in the deep niche detail that really works for the social web.",
      "time": "2012-10-09T15:09:23",
      "id": "677434318"
    },
    {
      "threadId": "761555938",
      "post": "I agree I think Twitter Bootstrap is awesome too. Definitely the way to go\n ",
      "time": "2012-07-12T14:20:26",
      "id": "585693462"
    },
    {
      "threadId": "584570219",
      "post": "An interesting question for vendors and companies implementing this, is whether to be transparent over what the metrics are and the relative weighting that derives the final score per agent (as you illustrate here) or whether to keep the sauce a little bit \"secret\" as I do on the Gamification Gurus leaderboard. \n\nThe advantage of transparency is that it is clearer for all but it's disadvantage is that it is easier to game the system, which may result in unintended side effects. ",
      "time": "2012-03-01T19:07:02",
      "id": "453610668"
    },
    {
      "threadId": "188845696",
      "post": "Great article Klint. \n\nIf anyone wants to dig further then join me by subscribing to my Gamification Of Work blog. Here's the URL: <a href=\"http://www.gamificationofwork.com\">http://www.gamificationofwork.com</a>\n\nCheers\n\nToby",
      "time": "2011-10-05T11:39:51",
      "id": "327075962"
    },
    {
      "threadId": "350974853",
      "post": "Have a great time. Looking forward to your perspectives. for me some blog advice on whether European startups should even try to access north American markets would be useful.",
      "time": "2011-07-08T08:16:20",
      "id": "245713904"
    },
    {
      "threadId": "2254832",
      "post": "lol funny. \r\n\r\nIt may be because Adsense lacks sensitivity but to a certain extent this is caused because of the insensitive product.",
      "time": "2008-07-29T14:26:33",
      "id": "1036178"
    }
  ],
  "profileInfo": {
    "username": "tobyberesford",
    "about": "Founder of Rise",
    "name": "Toby Beresford",
    "disable3rdPartyTrackers": false,
    "isPowerContributor": false,
    "isAnonymous": false,
    "rep": 1.1573259999999999,
    "profileUrl": "https://disqus.com/by/tobyberesford/",
    "url": "http://www.rise.global/",
    "reputation": 1.1573259999999999,
    "location": "London, UK",
    "isPrivate": false,
    "signedUrl": "http://disq.us/?url=http%3A%2F%2Fwww.rise.global%2F&key=wxaOcAWqhu-NZsapy2AorA",
    "isPrimary": true,
    "joinedAt": "2008-07-29T14:26:33",
    "id": "70517",
    "avatar": {
      "small": {
        "permalink": "https://disqus.com/api/users/avatars/tobyberesford.jpg",
        "cache": "//a.disquscdn.com/uploads/users/7/517/avatar32.jpg?1467111866"
      },
      "isCustom": true,
      "permalink": "https://disqus.com/api/users/avatars/tobyberesford.jpg",
      "cache": "//a.disquscdn.com/uploads/users/7/517/avatar92.jpg?1467111866",
      "large": {
        "permalink": "https://disqus.com/api/users/avatars/tobyberesford.jpg",
        "cache": "//a.disquscdn.com/uploads/users/7/517/avatar92.jpg?1467111866"
      }
    }
  }
}